<!DOCTYPE html>
<html>
<head>
<meta content="text/html; charset=utf-8" http-equiv="Content-Type"/>
<meta content="IE=edge" http-equiv="X-UA-Compatible"/>
<title>All Japanese Gravure Idols, Nude Asian Models | AllGravure</title>
<meta content="Japanese Gravure, Japanese Gravure, Japanese Gravure, Japanese Gravure, Japanese Gravure, Japanese Gravure" name="keywords"/>
<meta content="" name="description"/>
<meta content="RTA-5042-1996-1400-1577-RTA" name="RATING"/>
<link href="https://www.allgravure.com/" rel="canonical"/>
<link href="/assets/allgravure/img/favicon/favicon.ico?v1" rel="shortcut icon" type="image/x-icon"/>
<link href="/assets/allgravure/img/favicon/apple-touch-icon.png?v1" rel="apple-touch-icon"/>
<link href="/assets/allgravure/img/favicon/apple-touch-icon-57x57.png?v1" rel="apple-touch-icon" sizes="57x57"/>
<link href="/assets/allgravure/img/favicon/apple-touch-icon-72x72.png?v1" rel="apple-touch-icon" sizes="72x72"/>
<link href="/assets/allgravure/img/favicon/apple-touch-icon-114x114.png?v1" rel="apple-touch-icon" sizes="114x114"/>
<link href="/assets/allgravure/img/favicon/apple-touch-icon-144x144.png?v1" rel="apple-touch-icon" sizes="144x144"/>
<link href="/assets/allgravure/css/4dd5b78.css?v1" rel="stylesheet" type="text/css"/>
<script src="https://ajax.googleapis.com/ajax/libs/jquery/1.7.1/jquery.min.js"></script>
<script>window.jQuery || document.write('<script src="/assets/allgravure/scripts/jquery-1.7.1.min.js?v1">\x3C/script>')</script>
<script type="text/javascript">
            var is_auth = false;
            var join_url = "https://www.allgravure.com/join";
            var login_url = "/login/?path=Lw";
        </script>
<script src="/assets/allgravure/js/90b186c.js?v1"></script>
<link href="/?vt=m" media="only screen and (max-width: 640px)" rel="alternate"/>
<script src="/assets/allgravure/min/js/d777bcc.js?v1" type="text/javascript"></script>
<script>
    $prices.setNats("MC4wLjMuMy4wLjAuMC4wLjA");
    $prices.setLocale("en");
    $prices.setPrices(null);
    $prices.setUrl('https://join.allgravure.com/signup/signup.php');
</script>
<link href="https://plus.google.com/u/0/105289624796106062270" rel="publisher"/>
</head>
<body>
<i class="js-app_config" data-locale="en" data-nats="MC4wLjMuMy4wLjAuMC4wLjA" data-user-biller="" data-user-member-id="" data-user-status="GUEST" hidden=""></i>
<script type="text/javascript">
    (function (e, t, n, a, c, i) {
        e.globicaObjectName = a, e[a] = e[a] || function () {
            (e[a].q = e[a].q || []).push(arguments);
        }, e[a].i = 1 * new Date(), c = t.createElement("script"), i = t.getElementsByTagName("script")[0],
            c.async = 1, c.src = n, i.parentNode.insertBefore(c, i);
    })(window, document, "https://allgravure.com/ascripts/gcu.js", "gl");
    gl('config', {useClientDomain: true});
    gl('params', {
        'networkname': 'allgravure',
        'pagetype': 'MAIN_PAGE',
        'pageid': '',
        'templatetype': 'desktop',
        'locale': 'en',
        'zone': 'NONAUTHORIZED',
        'nats_sess': '',
        'nats_code': 'MC4wLjMuMy4wLjAuMC4wLjA'
    });
    gl('send', 'pageview', {"user_status": "GUEST", "user_memberid": ""});

    document.addEventListener("DOMContentLoaded", function() {
	    gl('function', function(env) {
		    var jsLinks = document.querySelectorAll('.js-gaBtnJoin, .js-gaBtnJoinPlayer');
		    for (var i = 0; i < jsLinks.length; i++) {
			    jsLinks[i].addEventListener('click', function() {
                    gl('send', 'CLICK2JOIN', {"user_status": "GUEST", "user_memberid": ""});
			    });
		    }

		    var jsBillingLinks = document.querySelectorAll('.js-gaBtnBilling, .js-join-submit');
		    for (var j = 0; i < jsBillingLinks.length; j++) {
			    jsBillingLinks[j].addEventListener('click', function() {
                    gl('send', 'CLICK2BILLING', {"user_status": "GUEST", "user_memberid": ""});
			    });
		    }

            var jsUpgradeLinks = document.querySelectorAll('.btn-gray');
            for (var k = 0; i < jsBillingLinks.length; k++) {
                jsBillingLinks[k].addEventListener('click', function() {
                    gl('send', 'CLICK2BILLING', {"user_status": "GUEST", "user_memberid": ""});
                });
            }
	    });
    });
</script>
<script type="text/javascript">
  var showWarning = "1";
  var showWarningCookies = "";
  if (!!showWarning || !!showWarningCookies) {
    (function (e, t, n, a, c, i) {
      e.addEventListener("jcookie:loaded",function(){e[a].init({
        domain: 'allgravure.com',
        text: 'By continuing you consent that you are 18 y.o. or older and agree to receive all cookies on our site. <a class="jcookie__link" target="_blank" href="https://www.allgravure.com/privacy">Show more</a>',
        textAllowBtn: 'I agree',
        textShowBtn: 'Show details',
        textHideBtn: 'Hide details',
        listTitle: 'Cookie declaration',
        listHead: [
          'Name',
        ],
        list: '//static.javhd.com/jcookie/jcookie_gravurecash.json',
        css: '',
        theme: 'black',
        checkCookie: ['warning-cookies', 'warning']
      })}), 
      e.jcookieObjectName = a, c = t.createElement("script"), i = t.getElementsByTagName("script")[0], 
      c.async = 1, c.src = n, i.parentNode.insertBefore(c, i);
    })(window, document, '//static.javhd.com/jcookie/jcookie_v2.js', 'jcookie');

    window.addEventListener("jcookie:opened", function() {
      gl('send', 'GOAL_REACHED', {'goal_id': 460});
    });
    window.addEventListener("jcookie:closed", function() {
      gl('send', 'GOAL_REACHED', {'goal_id': 475});
    });
  }
</script>
<div id="b-main-wrapper">
<div class="b-header">
<div class="wrapper">
<div class="b-header-user">
<span class="btn btn-login" data-u="/login/?path=Lw">Login</span>
<span class="btn btn-join js-gaBtnJoin" data-u="https://www.allgravure.com/join">Join now</span>
</div>
<div class="b-header-logo">
<span>AllGravure.com</span>
</div>
<ul class="b-nav">
<li class="b-nav-item">
<a class="b-nav-link active" data-ga-category="mainpage" data-ga-id="home" data-ga-section="topbar" href="https://www.allgravure.com/">Home</a>
</li>
<li class="b-nav-item">
<a class="b-nav-link" data-ga-category="mainpage" data-ga-id="videos" data-ga-section="topnav" href="https://www.allgravure.com/videos">Videos</a>
</li>
<li class="b-nav-item">
<a class="b-nav-link" data-ga-category="mainpage" data-ga-id="photos" data-ga-section="topbar" href="https://www.allgravure.com/pictures">Photos</a>
</li>
<li class="b-nav-item">
<a class="b-nav-link" data-ga-category="mainpage" data-ga-id="models" data-ga-section="topnav" href="https://www.allgravure.com/models">Gravure models</a>
</li>
</ul>
<form action="https://www.allgravure.com/search" class="b-search" id="searchForm">
<label>
<input autocomplete="off" class="b-search-text" id="searchText" name="q" placeholder="" type="search"/>
<button class="b-search-btn" id="searchBtn" tabindex="-1"><i class="icon">Search</i></button>
</label>
</form>
</div>
</div>
<div class="b-slider">
<div class="b-slider-item">
<div class="wrapper">
<h2 class="b-slider-item-title">Hottest Japanese<br/> Gravure Idols</h2>
<span class="btn btn-join js-gaBtnJoin" data-u="https://www.allgravure.com/join">Join Now</span>
</div>
</div>
</div>
<div class="b-content">
<div class="wrapper">
<div class="b-box">
<div class="b-box-header b-box-header__top">
<h1 class="b-box-title">Videos with Sexy Japanese Gravure Idols</h1><span class="b-box-title b-box-title__count">19918</span> <button class="btn b-seo-btn js-toggle-seo">?</button> <div class="b-sorting">
<a class="b-sorting-button" data-rev="1" href="javascript:void(0)"><span class="b-sorting-button-text">Views</span><i class="arrow"></i></a>
<ul class="b-sorting-list">
<li class="b-sorting-list-item"><a class="b-sorting-link" href="https://www.allgravure.com/videos">Newest</a></li>
<li class="b-sorting-list-item"><a class="b-sorting-link" href="https://www.allgravure.com/videos/size">Size</a></li>
<li class="b-sorting-list-item"><a class="b-sorting-link" href="https://www.allgravure.com/videos/rating">Rating</a></li>
</ul>
</div>
</div>
<div class="b-seo js-visible-seo">
<div class="b-seo-cell">
                            The most beautiful gravure models are all found here in one site. These sexy Japanese idols have a certain allure to them that makes them intoxicating. Something about the look in their eyes as they slowly strip out of their clothes smolders with desire. One glance at their flawless bodies and you will be transfixed. These sexy ladies take us into the exotic Far East and show us things we could only dream of before. Captured in brilliant HD, AllGravure features these hot models getting naked and showing off their bodies in some of the most beautiful looking videos you will ever see. Travel into their bedrooms, go with them on a journey through the forest or find yourself meeting them in the office. No matter the time, nor place, these nude Japanese girls plan to do whatever it takes to please those who watch as they get naked and share their bodies.
                        </div>
</div>
<div class="b-videos">
<div class="b-videos-item">
<div class="b-videos-item-thumb">
<button class="btn btn-fav" data-join="thumb" title="Add to Favorites"><i class="icon"></i></button>
<img alt="Innocent Chronicle - Scene 3" src="https://sub2.abcsrv2.com/thumbs/3-hikari-eto-innocent-chronicle/thumb1/320x185/thumb1.jpg"/>
<span class="duration">26:32</span>
</div>
<a class="b-videos-item-link b-videos-item-title" href="https://www.allgravure.com/set/3-hikari-eto-innocent-chronicle">Innocent Chronicle - Scene 3</a>
<span class="b-videos-item-shadow"><i class="icon-play"></i></span>
</div>
<div class="b-videos-item">
<div class="b-videos-item-thumb">
<button class="btn btn-fav" data-join="thumb" title="Add to Favorites"><i class="icon"></i></button>
<img alt="In and Out- Scene 3" src="https://sub2.abcsrv2.com/thumbs/3-miho-hoshino-in-and-out/thumb1/320x185/thumb1.jpg"/>
<span class="duration">29:56</span>
</div>
<a class="b-videos-item-link b-videos-item-title" href="https://www.allgravure.com/set/3-miho-hoshino-in-and-out">In and Out- Scene 3</a>
<span class="b-videos-item-shadow"><i class="icon-play"></i></span>
</div>
<div class="b-videos-item">
<div class="b-videos-item-thumb">
<button class="btn btn-fav" data-join="thumb" title="Add to Favorites"><i class="icon"></i></button>
<img alt="Beautiful Ass Story - Scene 4" src="https://sub2.abcsrv2.com/thumbs/4-rina-akiyama-beautiful-ass-story/thumb1/320x185/thumb1.jpg"/>
<span class="duration">15:42</span>
</div>
<a class="b-videos-item-link b-videos-item-title" href="https://www.allgravure.com/set/4-rina-akiyama-beautiful-ass-story">Beautiful Ass Story - Scene 4</a>
<span class="b-videos-item-shadow"><i class="icon-play"></i></span>
</div>
<div class="b-videos-item">
<div class="b-videos-item-thumb">
<button class="btn btn-fav" data-join="thumb" title="Add to Favorites"><i class="icon"></i></button>
<img alt="Meirin Heart Wrapping - Scene 3" src="https://sub2.abcsrv2.com/thumbs/3-meri-sakai-meririn-heart-wrapping/thumb1/320x185/thumb1.jpg"/>
<span class="duration">33:22</span>
</div>
<a class="b-videos-item-link b-videos-item-title" href="https://www.allgravure.com/set/3-meri-sakai-meririn-heart-wrapping">Meirin Heart Wrapping - Scene 3</a>
<span class="b-videos-item-shadow"><i class="icon-play"></i></span>
</div>
<div class="b-videos-item">
<div class="b-videos-item-thumb">
<button class="btn btn-fav" data-join="thumb" title="Add to Favorites"><i class="icon"></i></button>
<img alt="Summer Innocent - Scene 1" src="https://sub2.abcsrv2.com/thumbs/1-momoka-koike-summer-innocent/thumb1/320x185/thumb1.jpg"/>
<span class="duration">29:51</span>
</div>
<a class="b-videos-item-link b-videos-item-title" href="https://www.allgravure.com/set/1-momoka-koike-summer-innocent">Summer Innocent - Scene 1</a>
<span class="b-videos-item-shadow"><i class="icon-play"></i></span>
</div>
<div class="b-videos-item">
<div class="b-videos-item-thumb">
<button class="btn btn-fav" data-join="thumb" title="Add to Favorites"><i class="icon"></i></button>
<img alt="Beautiful Ass Story - Scene 3" src="https://sub2.abcsrv2.com/thumbs/3-rina-akiyama-beautiful-ass-story/thumb1/320x185/thumb1.jpg"/>
<span class="duration">16:35</span>
</div>
<a class="b-videos-item-link b-videos-item-title" href="https://www.allgravure.com/set/3-rina-akiyama-beautiful-ass-story">Beautiful Ass Story - Scene 3</a>
<span class="b-videos-item-shadow"><i class="icon-play"></i></span>
</div>
<div class="b-videos-item">
<div class="b-videos-item-thumb">
<button class="btn btn-fav" data-join="thumb" title="Add to Favorites"><i class="icon"></i></button>
<img alt="In Coco - Scene 2" src="https://sub2.abcsrv2.com/thumbs/2-kokone-sasaki-in-coco/thumb1/320x185/thumb1.jpg"/>
<span class="duration">21:41</span>
</div>
<a class="b-videos-item-link b-videos-item-title" href="https://www.allgravure.com/set/2-kokone-sasaki-in-coco">In Coco - Scene 2</a>
<span class="b-videos-item-shadow"><i class="icon-play"></i></span>
</div>
<div class="b-videos-item">
<div class="b-videos-item-thumb">
<button class="btn btn-fav" data-join="thumb" title="Add to Favorites"><i class="icon"></i></button>
<img alt="Holy Little - Scene 3" src="https://sub2.abcsrv2.com/thumbs/3-azusa-togashi-holy-little/thumb1/320x185/thumb1.jpg"/>
<span class="duration">14:39</span>
</div>
<a class="b-videos-item-link b-videos-item-title" href="https://www.allgravure.com/set/3-azusa-togashi-holy-little">Holy Little - Scene 3</a>
<span class="b-videos-item-shadow"><i class="icon-play"></i></span>
</div>
<div class="b-videos-item">
<div class="b-videos-item-thumb">
<button class="btn btn-fav" data-join="thumb" title="Add to Favorites"><i class="icon"></i></button>
<img alt="Summer Innocent - Scene 3" src="https://sub2.abcsrv2.com/thumbs/3-momoka-koike-summer-innocent/thumb1/320x185/thumb1.jpg"/>
<span class="duration">30:08</span>
</div>
<a class="b-videos-item-link b-videos-item-title" href="https://www.allgravure.com/set/3-momoka-koike-summer-innocent">Summer Innocent - Scene 3</a>
<span class="b-videos-item-shadow"><i class="icon-play"></i></span>
</div>
<div class="b-videos-item">
<div class="b-videos-item-thumb">
<button class="btn btn-fav" data-join="thumb" title="Add to Favorites"><i class="icon"></i></button>
<img alt="Himegot - Scene 2" src="https://sub2.abcsrv2.com/thumbs/2-sayaka-eto-himegot/thumb1/320x185/thumb1.jpg"/>
<span class="duration">31:28</span>
</div>
<a class="b-videos-item-link b-videos-item-title" href="https://www.allgravure.com/set/2-sayaka-eto-himegot">Himegot - Scene 2</a>
<span class="b-videos-item-shadow"><i class="icon-play"></i></span>
</div>
<div class="b-videos-item">
<div class="b-videos-item-thumb">
<button class="btn btn-fav" data-join="thumb" title="Add to Favorites"><i class="icon"></i></button>
<img alt="Nostalgic Nude - Scene 2" src="https://sub2.abcsrv2.com/thumbs/2-mion-sonoda-nostalgic-nude/thumb1/320x185/thumb1.jpg"/>
<span class="duration">26:33</span>
</div>
<a class="b-videos-item-link b-videos-item-title" href="https://www.allgravure.com/set/2-mion-sonoda-nostalgic-nude">Nostalgic Nude - Scene 2</a>
<span class="b-videos-item-shadow"><i class="icon-play"></i></span>
</div>
<div class="b-videos-item">
<div class="b-videos-item-thumb">
<button class="btn btn-fav" data-join="thumb" title="Add to Favorites"><i class="icon"></i></button>
<img alt="I Love You Ten Years Later - Scene 3" src="https://sub2.abcsrv2.com/thumbs/3-airu-ooba-i-love-you-ten-years-later/thumb1/320x185/thumb1.jpg"/>
<span class="duration">24:11</span>
</div>
<a class="b-videos-item-link b-videos-item-title" href="https://www.allgravure.com/set/3-airu-ooba-i-love-you-ten-years-later">I Love You Ten Years Later - Scene 3</a>
<span class="b-videos-item-shadow"><i class="icon-play"></i></span>
</div>
<div class="b-videos-item">
<div class="b-videos-item-thumb">
<button class="btn btn-fav" data-join="thumb" title="Add to Favorites"><i class="icon"></i></button>
<img alt="Love Plus One - Scene 3" src="https://sub2.abcsrv2.com/thumbs/3-nagisa-yamada-love-plus-one/thumb1/320x185/thumb1.jpg"/>
<span class="duration">18:47</span>
</div>
<a class="b-videos-item-link b-videos-item-title" href="https://www.allgravure.com/set/3-nagisa-yamada-love-plus-one">Love Plus One - Scene 3</a>
<span class="b-videos-item-shadow"><i class="icon-play"></i></span>
</div>
<div class="b-videos-item">
<div class="b-videos-item-thumb">
<button class="btn btn-fav" data-join="thumb" title="Add to Favorites"><i class="icon"></i></button>
<img alt="Sacred - Scene 3" src="https://sub2.abcsrv2.com/thumbs/3-seira-sato-sacred/thumb1/320x185/thumb1.jpg"/>
<span class="duration">43:00</span>
</div>
<a class="b-videos-item-link b-videos-item-title" href="https://www.allgravure.com/set/3-seira-sato-sacred">Sacred - Scene 3</a>
<span class="b-videos-item-shadow"><i class="icon-play"></i></span>
</div>
<div class="b-videos-item">
<div class="b-videos-item-thumb">
<button class="btn btn-fav" data-join="thumb" title="Add to Favorites"><i class="icon"></i></button>
<img alt="Milky Puuran 2 - Scene 3" src="https://sub2.abcsrv2.com/thumbs/3-reika-senoo-milky-puuran-2/thumb1/320x185/thumb1.jpg"/>
<span class="duration">22:43</span>
</div>
<a class="b-videos-item-link b-videos-item-title" href="https://www.allgravure.com/set/3-reika-senoo-milky-puuran-2">Milky Puuran 2 - Scene 3</a>
<span class="b-videos-item-shadow"><i class="icon-play"></i></span>
</div>
<div class="b-videos-item">
<div class="b-videos-item-thumb">
<button class="btn btn-fav" data-join="thumb" title="Add to Favorites"><i class="icon"></i></button>
<img alt="Naked Angel - Scene 3" src="https://sub2.abcsrv2.com/thumbs/3-rika-kiritani-naked-angel/thumb1/320x185/thumb1.jpg"/>
<span class="duration">28:29</span>
</div>
<a class="b-videos-item-link b-videos-item-title" href="https://www.allgravure.com/set/3-rika-kiritani-naked-angel">Naked Angel - Scene 3</a>
<span class="b-videos-item-shadow"><i class="icon-play"></i></span>
</div>
<div class="b-videos-item">
<div class="b-videos-item-thumb">
<button class="btn btn-fav" data-join="thumb" title="Add to Favorites"><i class="icon"></i></button>
<img alt="Love Plus One - Scene 1" src="https://sub2.abcsrv2.com/thumbs/1-nagisa-yamada-love-plus-one/thumb1/320x185/thumb1.jpg"/>
<span class="duration">37:46</span>
</div>
<a class="b-videos-item-link b-videos-item-title" href="https://www.allgravure.com/set/1-nagisa-yamada-love-plus-one">Love Plus One - Scene 1</a>
<span class="b-videos-item-shadow"><i class="icon-play"></i></span>
</div>
<div class="b-videos-item">
<div class="b-videos-item-thumb">
<button class="btn btn-fav" data-join="thumb" title="Add to Favorites"><i class="icon"></i></button>
<img alt="R 19 - Scene 5" src="https://sub2.abcsrv2.com/thumbs/5-ramu-r-19/thumb1/320x185/thumb1.jpg"/>
<span class="duration">25:48</span>
</div>
<a class="b-videos-item-link b-videos-item-title" href="https://www.allgravure.com/set/5-ramu-r-19">R 19 - Scene 5</a>
<span class="b-videos-item-shadow"><i class="icon-play"></i></span>
</div>
<div class="b-videos-item">
<div class="b-videos-item-thumb">
<button class="btn btn-fav" data-join="thumb" title="Add to Favorites"><i class="icon"></i></button>
<img alt="Summer Vacation - Scene 3" src="https://sub2.abcsrv2.com/thumbs/3-reika-seno-summer-vacation/thumb1/320x185/thumb1.jpg"/>
<span class="duration">22:50</span>
</div>
<a class="b-videos-item-link b-videos-item-title" href="https://www.allgravure.com/set/3-reika-seno-summer-vacation">Summer Vacation - Scene 3</a>
<span class="b-videos-item-shadow"><i class="icon-play"></i></span>
</div>
<div class="b-videos-item">
<div class="b-videos-item-thumb">
<button class="btn btn-fav" data-join="thumb" title="Add to Favorites"><i class="icon"></i></button>
<img alt="Arina 2 - Scene 3" src="https://sub2.abcsrv2.com/thumbs/3-arina-hashimoto-arina-2/thumb1/320x185/thumb1.jpg"/>
<span class="duration">16:09</span>
</div>
<a class="b-videos-item-link b-videos-item-title" href="https://www.allgravure.com/set/3-arina-hashimoto-arina-2">Arina 2 - Scene 3</a>
<span class="b-videos-item-shadow"><i class="icon-play"></i></span>
</div>
<div class="b-videos-item">
<div class="b-videos-item-thumb">
<button class="btn btn-fav" data-join="thumb" title="Add to Favorites"><i class="icon"></i></button>
<img alt="Innocent Chronicle - Scene 1" src="https://sub2.abcsrv2.com/thumbs/1-hikari-eto-innocent-chronicle/thumb1/320x185/thumb1.jpg"/>
<span class="duration">31:03</span>
</div>
<a class="b-videos-item-link b-videos-item-title" href="https://www.allgravure.com/set/1-hikari-eto-innocent-chronicle">Innocent Chronicle - Scene 1</a>
<span class="b-videos-item-shadow"><i class="icon-play"></i></span>
</div>
<div class="b-videos-item">
<div class="b-videos-item-thumb">
<button class="btn btn-fav" data-join="thumb" title="Add to Favorites"><i class="icon"></i></button>
<img alt="Moe Adult Stairs - Scene 2" src="https://sub2.abcsrv2.com/thumbs/2-moe-arihana-moe-adult-stairs/thumb1/320x185/thumb1.jpg"/>
<span class="duration">15:51</span>
</div>
<a class="b-videos-item-link b-videos-item-title" href="https://www.allgravure.com/set/2-moe-arihana-moe-adult-stairs">Moe Adult Stairs - Scene 2</a>
<span class="b-videos-item-shadow"><i class="icon-play"></i></span>
</div>
<div class="b-videos-item">
<div class="b-videos-item-thumb">
<button class="btn btn-fav" data-join="thumb" title="Add to Favorites"><i class="icon"></i></button>
<img alt="Cream Girl - Scene 3" src="https://sub2.abcsrv2.com/thumbs/3-tsukasa-kanzaki-cream-girl/thumb1/320x185/thumb1.jpg"/>
<span class="duration">30:46</span>
</div>
<a class="b-videos-item-link b-videos-item-title" href="https://www.allgravure.com/set/3-tsukasa-kanzaki-cream-girl">Cream Girl - Scene 3</a>
<span class="b-videos-item-shadow"><i class="icon-play"></i></span>
</div>
<div class="b-videos-item">
<div class="b-videos-item-thumb">
<button class="btn btn-fav" data-join="thumb" title="Add to Favorites"><i class="icon"></i></button>
<img alt="Hontonokoharu - Scene 2" src="https://sub2.abcsrv2.com/thumbs/2-koharu-nishino-hontonokoharu/thumb1/320x185/thumb1.jpg"/>
<span class="duration">26:57</span>
</div>
<a class="b-videos-item-link b-videos-item-title" href="https://www.allgravure.com/set/2-koharu-nishino-hontonokoharu">Hontonokoharu - Scene 2</a>
<span class="b-videos-item-shadow"><i class="icon-play"></i></span>
</div>
<div class="b-videos-item">
<div class="b-videos-item-thumb">
<button class="btn btn-fav" data-join="thumb" title="Add to Favorites"><i class="icon"></i></button>
<img alt="Kiyoshi Chronicle - Scene 3" src="https://sub2.abcsrv2.com/thumbs/3-saran-mikuni-kiyoshi-chronicle/thumb1/320x185/thumb1.jpg"/>
<span class="duration">25:21</span>
</div>
<a class="b-videos-item-link b-videos-item-title" href="https://www.allgravure.com/set/3-saran-mikuni-kiyoshi-chronicle">Kiyoshi Chronicle - Scene 3</a>
<span class="b-videos-item-shadow"><i class="icon-play"></i></span>
</div>
<div class="b-videos-item">
<div class="b-videos-item-thumb">
<button class="btn btn-fav" data-join="thumb" title="Add to Favorites"><i class="icon"></i></button>
<img alt="Hontonokoharu - Scene 1" src="https://sub2.abcsrv2.com/thumbs/1-koharu-nishino-hontonokoharu/thumb1/320x185/thumb1.jpg"/>
<span class="duration">21:34</span>
</div>
<a class="b-videos-item-link b-videos-item-title" href="https://www.allgravure.com/set/1-koharu-nishino-hontonokoharu">Hontonokoharu - Scene 1</a>
<span class="b-videos-item-shadow"><i class="icon-play"></i></span>
</div>
<div class="b-videos-item">
<div class="b-videos-item-thumb">
<button class="btn btn-fav" data-join="thumb" title="Add to Favorites"><i class="icon"></i></button>
<img alt="Cream Girl - Scene 1" src="https://sub2.abcsrv2.com/thumbs/1-tsukasa-kanzaki-cream-girl/thumb1/320x185/thumb1.jpg"/>
<span class="duration">38:51</span>
</div>
<a class="b-videos-item-link b-videos-item-title" href="https://www.allgravure.com/set/1-tsukasa-kanzaki-cream-girl">Cream Girl - Scene 1</a>
<span class="b-videos-item-shadow"><i class="icon-play"></i></span>
</div>
<div class="b-videos-item">
<div class="b-videos-item-thumb">
<button class="btn btn-fav" data-join="thumb" title="Add to Favorites"><i class="icon"></i></button>
<img alt="Naked Angel - Scene 2" src="https://sub2.abcsrv2.com/thumbs/2-rika-kiritani-naked-angel/thumb1/320x185/thumb1.jpg"/>
<span class="duration">27:59</span>
</div>
<a class="b-videos-item-link b-videos-item-title" href="https://www.allgravure.com/set/2-rika-kiritani-naked-angel">Naked Angel - Scene 2</a>
<span class="b-videos-item-shadow"><i class="icon-play"></i></span>
</div>
<div class="b-videos-item">
<div class="b-videos-item-thumb">
<button class="btn btn-fav" data-join="thumb" title="Add to Favorites"><i class="icon"></i></button>
<img alt="Switch of Desire - Scene 3" src="https://sub2.abcsrv2.com/thumbs/3-chia-kinoshita-switch-of-desire/thumb1/320x185/thumb1.jpg"/>
<span class="duration">38:30</span>
</div>
<a class="b-videos-item-link b-videos-item-title" href="https://www.allgravure.com/set/3-chia-kinoshita-switch-of-desire">Switch of Desire - Scene 3</a>
<span class="b-videos-item-shadow"><i class="icon-play"></i></span>
</div>
<div class="b-videos-item">
<div class="b-videos-item-thumb">
<button class="btn btn-fav" data-join="thumb" title="Add to Favorites"><i class="icon"></i></button>
<img alt="I Love You Ten Years Later - Scene 2" src="https://sub2.abcsrv2.com/thumbs/2-airu-ooba-i-love-you-ten-years-later/thumb1/320x185/thumb1.jpg"/>
<span class="duration">24:34</span>
</div>
<a class="b-videos-item-link b-videos-item-title" href="https://www.allgravure.com/set/2-airu-ooba-i-love-you-ten-years-later">I Love You Ten Years Later - Scene 2</a>
<span class="b-videos-item-shadow"><i class="icon-play"></i></span>
</div>
<div class="b-videos-item">
<div class="b-videos-item-thumb">
<button class="btn btn-fav" data-join="thumb" title="Add to Favorites"><i class="icon"></i></button>
<img alt="Cream Girl - Scene 2" src="https://sub2.abcsrv2.com/thumbs/2-tsukasa-kanzaki-cream-girl/thumb1/320x185/thumb1.jpg"/>
<span class="duration">16:03</span>
</div>
<a class="b-videos-item-link b-videos-item-title" href="https://www.allgravure.com/set/2-tsukasa-kanzaki-cream-girl">Cream Girl - Scene 2</a>
<span class="b-videos-item-shadow"><i class="icon-play"></i></span>
</div>
<div class="b-videos-item">
<div class="b-videos-item-thumb">
<button class="btn btn-fav" data-join="thumb" title="Add to Favorites"><i class="icon"></i></button>
<img alt="Debut Raw Girl - Scene 1" src="https://sub2.abcsrv2.com/thumbs/1-saya-miura-debut-raw-girl/thumb1/320x185/thumb1.jpg"/>
<span class="duration">30:50</span>
</div>
<a class="b-videos-item-link b-videos-item-title" href="https://www.allgravure.com/set/1-saya-miura-debut-raw-girl">Debut Raw Girl - Scene 1</a>
<span class="b-videos-item-shadow"><i class="icon-play"></i></span>
</div>
<div class="b-videos-item">
<div class="b-videos-item-thumb">
<button class="btn btn-fav" data-join="thumb" title="Add to Favorites"><i class="icon"></i></button>
<img alt="Time of Smile - Scene 3" src="https://sub2.abcsrv2.com/thumbs/3-yuriko-ishihara-time-of-smile/thumb1/320x185/thumb1.jpg"/>
<span class="duration">29:13</span>
</div>
<a class="b-videos-item-link b-videos-item-title" href="https://www.allgravure.com/set/3-yuriko-ishihara-time-of-smile">Time of Smile - Scene 3</a>
<span class="b-videos-item-shadow"><i class="icon-play"></i></span>
</div>
<div class="b-videos-item">
<div class="b-videos-item-thumb">
<button class="btn btn-fav" data-join="thumb" title="Add to Favorites"><i class="icon"></i></button>
<img alt="Beautiful Ass Story - Scene 2" src="https://sub2.abcsrv2.com/thumbs/2-rina-akiyama-beautiful-ass-story/thumb1/320x185/thumb1.jpg"/>
<span class="duration">19:26</span>
</div>
<a class="b-videos-item-link b-videos-item-title" href="https://www.allgravure.com/set/2-rina-akiyama-beautiful-ass-story">Beautiful Ass Story - Scene 2</a>
<span class="b-videos-item-shadow"><i class="icon-play"></i></span>
</div>
<div class="b-videos-item">
<div class="b-videos-item-thumb">
<button class="btn btn-fav" data-join="thumb" title="Add to Favorites"><i class="icon"></i></button>
<img alt="In Coco - Scene 1" src="https://sub2.abcsrv2.com/thumbs/1-kokone-sasaki-in-coco/thumb1/320x185/thumb1.jpg"/>
<span class="duration">23:02</span>
</div>
<a class="b-videos-item-link b-videos-item-title" href="https://www.allgravure.com/set/1-kokone-sasaki-in-coco">In Coco - Scene 1</a>
<span class="b-videos-item-shadow"><i class="icon-play"></i></span>
</div>
<div class="b-videos-item">
<div class="b-videos-item-thumb">
<button class="btn btn-fav" data-join="thumb" title="Add to Favorites"><i class="icon"></i></button>
<img alt="Massara Heart - Scene 4" src="https://sub2.abcsrv2.com/thumbs/4-sara-motoyama-massara-heart/thumb1/320x185/thumb1.jpg"/>
<span class="duration">21:04</span>
</div>
<a class="b-videos-item-link b-videos-item-title" href="https://www.allgravure.com/set/4-sara-motoyama-massara-heart">Massara Heart - Scene 4</a>
<span class="b-videos-item-shadow"><i class="icon-play"></i></span>
</div>
<div class="b-videos-item">
<div class="b-videos-item-thumb">
<button class="btn btn-fav" data-join="thumb" title="Add to Favorites"><i class="icon"></i></button>
<img alt="Innocent Chronicle - Scene 2" src="https://sub2.abcsrv2.com/thumbs/2-hikari-eto-innocent-chronicle/thumb1/320x185/thumb1.jpg"/>
<span class="duration">34:09</span>
</div>
<a class="b-videos-item-link b-videos-item-title" href="https://www.allgravure.com/set/2-hikari-eto-innocent-chronicle">Innocent Chronicle - Scene 2</a>
<span class="b-videos-item-shadow"><i class="icon-play"></i></span>
</div>
<div class="b-videos-item">
<div class="b-videos-item-thumb">
<button class="btn btn-fav" data-join="thumb" title="Add to Favorites"><i class="icon"></i></button>
<img alt="Meirin Heart Wrapping - Scene 2" src="https://sub2.abcsrv2.com/thumbs/2-meri-sakai-meririn-heart-wrapping/thumb1/320x185/thumb1.jpg"/>
<span class="duration">26:17</span>
</div>
<a class="b-videos-item-link b-videos-item-title" href="https://www.allgravure.com/set/2-meri-sakai-meririn-heart-wrapping">Meirin Heart Wrapping - Scene 2</a>
<span class="b-videos-item-shadow"><i class="icon-play"></i></span>
</div>
<div class="b-videos-item">
<div class="b-videos-item-thumb">
<button class="btn btn-fav" data-join="thumb" title="Add to Favorites"><i class="icon"></i></button>
<img alt="See Through Love - Scene 3" src="https://sub2.abcsrv2.com/thumbs/3-ayami-fujimoto-see-through-love/thumb1/320x185/thumb1.jpg"/>
<span class="duration">31:39</span>
</div>
<a class="b-videos-item-link b-videos-item-title" href="https://www.allgravure.com/set/3-ayami-fujimoto-see-through-love">See Through Love - Scene 3</a>
<span class="b-videos-item-shadow"><i class="icon-play"></i></span>
</div>
<div class="b-videos-item">
<div class="b-videos-item-thumb">
<button class="btn btn-fav" data-join="thumb" title="Add to Favorites"><i class="icon"></i></button>
<img alt="Love Story - Scene 1" src="https://sub2.abcsrv2.com/thumbs/1-nina-sakura-love-story/thumb1/320x185/thumb1.jpg"/>
<span class="duration">19:29</span>
</div>
<a class="b-videos-item-link b-videos-item-title" href="https://www.allgravure.com/set/1-nina-sakura-love-story">Love Story - Scene 1</a>
<span class="b-videos-item-shadow"><i class="icon-play"></i></span>
</div>
<div class="b-videos-item">
<div class="b-videos-item-thumb">
<button class="btn btn-fav" data-join="thumb" title="Add to Favorites"><i class="icon"></i></button>
<img alt="Debut Raw Girl - Scene 2" src="https://sub2.abcsrv2.com/thumbs/2-saya-miura-debut-raw-girl/thumb1/320x185/thumb1.jpg"/>
<span class="duration">31:30</span>
</div>
<a class="b-videos-item-link b-videos-item-title" href="https://www.allgravure.com/set/2-saya-miura-debut-raw-girl">Debut Raw Girl - Scene 2</a>
<span class="b-videos-item-shadow"><i class="icon-play"></i></span>
</div>
<div class="b-videos-item">
<div class="b-videos-item-thumb">
<button class="btn btn-fav" data-join="thumb" title="Add to Favorites"><i class="icon"></i></button>
<img alt="Switch of Desire - Scene 2" src="https://sub2.abcsrv2.com/thumbs/2-chia-kinoshita-switch-of-desire/thumb1/320x185/thumb1.jpg"/>
<span class="duration">33:06</span>
</div>
<a class="b-videos-item-link b-videos-item-title" href="https://www.allgravure.com/set/2-chia-kinoshita-switch-of-desire">Switch of Desire - Scene 2</a>
<span class="b-videos-item-shadow"><i class="icon-play"></i></span>
</div>
<div class="b-videos-item">
<div class="b-videos-item-thumb">
<button class="btn btn-fav" data-join="thumb" title="Add to Favorites"><i class="icon"></i></button>
<img alt="As Expected is Paisen - Scene 1" src="https://sub2.abcsrv2.com/thumbs/1-hina-seto-as-expected-is-paisen/thumb1/320x185/thumb1.jpg"/>
<span class="duration">57:48</span>
</div>
<a class="b-videos-item-link b-videos-item-title" href="https://www.allgravure.com/set/1-hina-seto-as-expected-is-paisen">As Expected is Paisen - Scene 1</a>
<span class="b-videos-item-shadow"><i class="icon-play"></i></span>
</div>
<div class="b-videos-item">
<div class="b-videos-item-thumb">
<button class="btn btn-fav" data-join="thumb" title="Add to Favorites"><i class="icon"></i></button>
<img alt="Koishin Rhapsody - Scene 2" src="https://sub2.abcsrv2.com/thumbs/2-hikari-eto-koishin-rhapsody/thumb1/320x185/thumb1.jpg"/>
<span class="duration">35:42</span>
</div>
<a class="b-videos-item-link b-videos-item-title" href="https://www.allgravure.com/set/2-hikari-eto-koishin-rhapsody">Koishin Rhapsody - Scene 2</a>
<span class="b-videos-item-shadow"><i class="icon-play"></i></span>
</div>
<div class="b-videos-item">
<div class="b-videos-item-thumb">
<button class="btn btn-fav" data-join="thumb" title="Add to Favorites"><i class="icon"></i></button>
<img alt="Yuuwaku - Scene 3" src="https://sub2.abcsrv2.com/thumbs/3-azusa-togashi-yuuwaku/thumb1/320x185/thumb1.jpg"/>
<span class="duration">10:11</span>
</div>
<a class="b-videos-item-link b-videos-item-title" href="https://www.allgravure.com/set/3-azusa-togashi-yuuwaku">Yuuwaku - Scene 3</a>
<span class="b-videos-item-shadow"><i class="icon-play"></i></span>
</div>
<div class="b-videos-item">
<div class="b-videos-item-thumb">
<button class="btn btn-fav" data-join="thumb" title="Add to Favorites"><i class="icon"></i></button>
<img alt="Himegot - Scene 1" src="https://sub2.abcsrv2.com/thumbs/1-sayaka-eto-himegot/thumb1/320x185/thumb1.jpg"/>
<span class="duration">33:21</span>
</div>
<a class="b-videos-item-link b-videos-item-title" href="https://www.allgravure.com/set/1-sayaka-eto-himegot">Himegot - Scene 1</a>
<span class="b-videos-item-shadow"><i class="icon-play"></i></span>
</div>
<div class="b-videos-item">
<div class="b-videos-item-thumb">
<button class="btn btn-fav" data-join="thumb" title="Add to Favorites"><i class="icon"></i></button>
<img alt="R 19 - Scene 4" src="https://sub2.abcsrv2.com/thumbs/4-ramu-r-19/thumb1/320x185/thumb1.jpg"/>
<span class="duration">22:28</span>
</div>
<a class="b-videos-item-link b-videos-item-title" href="https://www.allgravure.com/set/4-ramu-r-19">R 19 - Scene 4</a>
<span class="b-videos-item-shadow"><i class="icon-play"></i></span>
</div>
<div class="b-videos-item">
<div class="b-videos-item-thumb">
<button class="btn btn-fav" data-join="thumb" title="Add to Favorites"><i class="icon"></i></button>
<img alt="Beautiful Legend Renachu - Scene 4" src="https://sub2.abcsrv2.com/thumbs/4-reina-kawa-beautiful-legend-renachu/thumb1/320x185/thumb1.jpg"/>
<span class="duration">16:16</span>
</div>
<a class="b-videos-item-link b-videos-item-title" href="https://www.allgravure.com/set/4-reina-kawa-beautiful-legend-renachu">Beautiful Legend Renachu - Scene 4</a>
<span class="b-videos-item-shadow"><i class="icon-play"></i></span>
</div>
</div>
<div class="b-box-footer">
<a class="btn btn-view" data-ga-category="mainpage" data-ga-id="view all" data-ga-section="mostpopular" href="https://www.allgravure.com/videos"><span>VIEW ALL</span></a>
</div>
</div>
<div class="clearfix"></div>
<div class="b-jb b-jb__mobile">
<div class="b-jb-join">
<div class="b-jb-join-inner">
<strong class="b-jb-join-title">In Your Phone Get it now!</strong>
<span class="btn btn-join js-gaBtnJoin" data-u="https://www.allgravure.com/join">Download Now</span>
</div>
</div>
</div>
<div class="b-box">
<div class="b-box-header b-box-header__top">
<h2 class="b-box-title">Photos of Nude Japanese Models &amp; Gravure Idols</h2> <span class="b-box-title b-box-title__count">10230</span>
<div class="b-sorting">
<a class="b-sorting-button" data-rev="1" href="javascript:void(0)"><span class="b-sorting-button-text">Rating</span><i class="arrow"></i></a>
<ul class="b-sorting-list">
<li class="b-sorting-list-item"><a class="b-sorting-link" href="https://www.allgravure.com/pictures">Newest</a></li>
<li class="b-sorting-list-item"><a class="b-sorting-link" href="https://www.allgravure.com/pictures/size">Size</a></li>
<li class="b-sorting-list-item"><a class="b-sorting-link" href="https://www.allgravure.com/pictures/views">Views</a></li>
</ul>
</div>
</div>
<div class="b-pics">
<div class="b-pics-item">
<div class="b-pics-item-thumb">
<button class="btn btn-fav fav-button js-gaBtnJoin" data-url="https://www.allgravure.com/favorites/add/picture/11947" id="picture_11947" title="Add to Favorites"><i class="icon"></i></button>
<img alt="Cool Body" src="https://abcsrv1.com/thumbs/asami-mizukawacool-body/thumb1/220x318/thumb1.jpg"/>
</div>
<a class="b-pics-item-link b-pics-item-title" data-ga-category="mainpage" data-ga-id="Cool Body" data-ga-section="Pictures" href="https://www.allgravure.com/set/asami-mizukawacool-body">Cool Body</a>
<span class="b-pics-item-shadow"></span>
</div>
<div class="b-pics-item">
<div class="b-pics-item-thumb">
<button class="btn btn-fav fav-button js-gaBtnJoin" data-url="https://www.allgravure.com/favorites/add/picture/11974" id="picture_11974" title="Add to Favorites"><i class="icon"></i></button>
<img alt="Perfume" src="https://abcsrv2.com/thumbs/ayuko-iwaneperfume/thumb1/220x318/thumb1.jpg"/>
</div>
<a class="b-pics-item-link b-pics-item-title" data-ga-category="mainpage" data-ga-id="Perfume" data-ga-section="Pictures" href="https://www.allgravure.com/set/ayuko-iwaneperfume">Perfume</a>
<span class="b-pics-item-shadow"></span>
</div>
<div class="b-pics-item">
<div class="b-pics-item-thumb">
<button class="btn btn-fav fav-button js-gaBtnJoin" data-url="https://www.allgravure.com/favorites/add/picture/12401" id="picture_12401" title="Add to Favorites"><i class="icon"></i></button>
<img alt="Mystery of Asia" src="https://abcsrv1.com/thumbs/yumi-sugimotomystery-of-asia/thumb1/220x318/thumb1.jpg"/>
</div>
<a class="b-pics-item-link b-pics-item-title" data-ga-category="mainpage" data-ga-id="Mystery of Asia" data-ga-section="Pictures" href="https://www.allgravure.com/set/yumi-sugimotomystery-of-asia">Mystery of Asia</a>
<span class="b-pics-item-shadow"></span>
</div>
<div class="b-pics-item">
<div class="b-pics-item-thumb">
<button class="btn btn-fav fav-button js-gaBtnJoin" data-url="https://www.allgravure.com/favorites/add/picture/12215" id="picture_12215" title="Add to Favorites"><i class="icon"></i></button>
<img alt="A Trip to the Hometown" src="https://abcsrv1.com/thumbs/nonami-takizawatrip-to-the-hometown/thumb1/220x318/thumb1.jpg"/>
</div>
<a class="b-pics-item-link b-pics-item-title" data-ga-category="mainpage" data-ga-id="A Trip to the Hometown" data-ga-section="Pictures" href="https://www.allgravure.com/set/nonami-takizawatrip-to-the-hometown">A Trip to the Hometown</a>
<span class="b-pics-item-shadow"></span>
</div>
<div class="b-pics-item">
<div class="b-pics-item-thumb">
<button class="btn btn-fav fav-button js-gaBtnJoin" data-url="https://www.allgravure.com/favorites/add/picture/12312" id="picture_12312" title="Add to Favorites"><i class="icon"></i></button>
<img alt="Keep Out" src="https://abcsrv2.com/thumbs/sayuri-kurahashikeep-out/thumb1/220x318/thumb1.jpg"/>
</div>
<a class="b-pics-item-link b-pics-item-title" data-ga-category="mainpage" data-ga-id="Keep Out" data-ga-section="Pictures" href="https://www.allgravure.com/set/sayuri-kurahashikeep-out">Keep Out</a>
<span class="b-pics-item-shadow"></span>
</div>
<div class="b-pics-item">
<div class="b-pics-item-thumb">
<button class="btn btn-fav fav-button js-gaBtnJoin" data-url="https://www.allgravure.com/favorites/add/picture/12201" id="picture_12201" title="Add to Favorites"><i class="icon"></i></button>
<img alt="Seven" src="https://abcsrv2.com/thumbs/nao-nagasawaseven/thumb1/220x318/thumb1.jpg"/>
</div>
<a class="b-pics-item-link b-pics-item-title" data-ga-category="mainpage" data-ga-id="Seven" data-ga-section="Pictures" href="https://www.allgravure.com/set/nao-nagasawaseven">Seven</a>
<span class="b-pics-item-shadow"></span>
</div>
<div class="b-pics-item">
<div class="b-pics-item-thumb">
<button class="btn btn-fav fav-button js-gaBtnJoin" data-url="https://www.allgravure.com/favorites/add/picture/12189" id="picture_12189" title="Add to Favorites"><i class="icon"></i></button>
<img alt="Betty Blue" src="https://sub2.abcsrv2.com/thumbs/momoko-tanibetty-blue/thumb1/220x318/thumb1.jpg"/>
</div>
<a class="b-pics-item-link b-pics-item-title" data-ga-category="mainpage" data-ga-id="Betty Blue" data-ga-section="Pictures" href="https://www.allgravure.com/set/momoko-tanibetty-blue">Betty Blue</a>
<span class="b-pics-item-shadow"></span>
</div>
<div class="b-pics-item">
<div class="b-pics-item-thumb">
<button class="btn btn-fav fav-button js-gaBtnJoin" data-url="https://www.allgravure.com/favorites/add/picture/12257" id="picture_12257" title="Add to Favorites"><i class="icon"></i></button>
<img alt="Light in the Nature" src="https://abcsrv2.com/thumbs/rina-nagasakilight-in-the-nature/thumb1/220x318/thumb1.jpg"/>
</div>
<a class="b-pics-item-link b-pics-item-title" data-ga-category="mainpage" data-ga-id="Light in the Nature" data-ga-section="Pictures" href="https://www.allgravure.com/set/rina-nagasakilight-in-the-nature">Light in the Nature</a>
<span class="b-pics-item-shadow"></span>
</div>
<div class="b-pics-item">
<div class="b-pics-item-thumb">
<button class="btn btn-fav fav-button js-gaBtnJoin" data-url="https://www.allgravure.com/favorites/add/picture/12190" id="picture_12190" title="Add to Favorites"><i class="icon"></i></button>
<img alt="For The Love of You" src="https://abcsrv1.com/thumbs/momoko-tanifor-the-love-of-you/thumb1/220x318/thumb1.jpg"/>
</div>
<a class="b-pics-item-link b-pics-item-title" data-ga-category="mainpage" data-ga-id="For The Love of You" data-ga-section="Pictures" href="https://www.allgravure.com/set/momoko-tanifor-the-love-of-you">For The Love of You</a>
<span class="b-pics-item-shadow"></span>
</div>
<div class="b-pics-item">
<div class="b-pics-item-thumb">
<button class="btn btn-fav fav-button js-gaBtnJoin" data-url="https://www.allgravure.com/favorites/add/picture/12133" id="picture_12133" title="Add to Favorites"><i class="icon"></i></button>
<img alt="Meguming" src="https://abcsrv2.com/thumbs/megumi-yasumeguming/thumb1/220x318/thumb1.jpg"/>
</div>
<a class="b-pics-item-link b-pics-item-title" data-ga-category="mainpage" data-ga-id="Meguming" data-ga-section="Pictures" href="https://www.allgravure.com/set/megumi-yasumeguming">Meguming</a>
<span class="b-pics-item-shadow"></span>
</div>
<div class="b-pics-item">
<div class="b-pics-item-thumb">
<button class="btn btn-fav fav-button js-gaBtnJoin" data-url="https://www.allgravure.com/favorites/add/picture/12291" id="picture_12291" title="Add to Favorites"><i class="icon"></i></button>
<img alt="Perfume of Beauty" src="https://abcsrv1.com/thumbs/sayaka-arakiperfume-of-beauty/thumb1/220x318/thumb1.jpg"/>
</div>
<a class="b-pics-item-link b-pics-item-title" data-ga-category="mainpage" data-ga-id="Perfume of Beauty" data-ga-section="Pictures" href="https://www.allgravure.com/set/sayaka-arakiperfume-of-beauty">Perfume of Beauty</a>
<span class="b-pics-item-shadow"></span>
</div>
<div class="b-pics-item">
<div class="b-pics-item-thumb">
<button class="btn btn-fav fav-button js-gaBtnJoin" data-url="https://www.allgravure.com/favorites/add/picture/12298" id="picture_12298" title="Add to Favorites"><i class="icon"></i></button>
<img alt="Perfect Angel" src="https://abcsrv1.com/thumbs/sayaka-isoyamaperfect-angel/thumb1/220x318/thumb1.jpg"/>
</div>
<a class="b-pics-item-link b-pics-item-title" data-ga-category="mainpage" data-ga-id="Perfect Angel" data-ga-section="Pictures" href="https://www.allgravure.com/set/sayaka-isoyamaperfect-angel">Perfect Angel</a>
<span class="b-pics-item-shadow"></span>
</div>
<div class="b-pics-item">
<div class="b-pics-item-thumb">
<button class="btn btn-fav fav-button js-gaBtnJoin" data-url="https://www.allgravure.com/favorites/add/picture/12127" id="picture_12127" title="Add to Favorites"><i class="icon"></i></button>
<img alt="A Supernova" src="https://abcsrv1.com/thumbs/megumi-fukushitaa-supernova/thumb1/220x318/thumb1.jpg"/>
</div>
<a class="b-pics-item-link b-pics-item-title" data-ga-category="mainpage" data-ga-id="A Supernova" data-ga-section="Pictures" href="https://www.allgravure.com/set/megumi-fukushitaa-supernova">A Supernova</a>
<span class="b-pics-item-shadow"></span>
</div>
<div class="b-pics-item">
<div class="b-pics-item-thumb">
<button class="btn btn-fav fav-button js-gaBtnJoin" data-url="https://www.allgravure.com/favorites/add/picture/12288" id="picture_12288" title="Add to Favorites"><i class="icon"></i></button>
<img alt="Ultimate Venus" src="https://abcsrv2.com/thumbs/sayaka-andoultimate-venus/thumb1/220x318/thumb1.jpg"/>
</div>
<a class="b-pics-item-link b-pics-item-title" data-ga-category="mainpage" data-ga-id="Ultimate Venus" data-ga-section="Pictures" href="https://www.allgravure.com/set/sayaka-andoultimate-venus">Ultimate Venus</a>
<span class="b-pics-item-shadow"></span>
</div>
<div class="b-pics-item">
<div class="b-pics-item-thumb">
<button class="btn btn-fav fav-button js-gaBtnJoin" data-url="https://www.allgravure.com/favorites/add/picture/10577" id="picture_10577" title="Add to Favorites"><i class="icon"></i></button>
<img alt="Knock Out" src="https://abcsrv2.com/thumbs/hitomi-aizawaknock-out/thumb1/220x318/thumb1.jpg"/>
</div>
<a class="b-pics-item-link b-pics-item-title" data-ga-category="mainpage" data-ga-id="Knock Out" data-ga-section="Pictures" href="https://www.allgravure.com/set/hitomi-aizawaknock-out">Knock Out</a>
<span class="b-pics-item-shadow"></span>
</div>
<div class="b-pics-item">
<div class="b-pics-item-thumb">
<button class="btn btn-fav fav-button js-gaBtnJoin" data-url="https://www.allgravure.com/favorites/add/picture/12086" id="picture_12086" title="Add to Favorites"><i class="icon"></i></button>
<img alt="Mai Sweet" src="https://abcsrv2.com/thumbs/mai-haradamai-sweet/thumb1/220x318/thumb1.jpg"/>
</div>
<a class="b-pics-item-link b-pics-item-title" data-ga-category="mainpage" data-ga-id="Mai Sweet" data-ga-section="Pictures" href="https://www.allgravure.com/set/mai-haradamai-sweet">Mai Sweet</a>
<span class="b-pics-item-shadow"></span>
</div>
</div>
<div class="b-box-footer">
<a class="btn btn-view" data-ga-category="mainpage" data-ga-id="view all" data-ga-section="mostpopular" href="https://www.allgravure.com/pictures"><span>VIEW ALL</span></a>
</div>
</div>
<div class="clearfix"></div>
<div class="b-jb b-jb__network">
<div class="b-jb-join">
<div class="b-jb-join-inner">
<strong class="b-jb-join-title">More than 9500 videos!</strong>
<span class="btn btn-join js-gaBtnJoin" data-u="https://www.allgravure.com/join">Join Now</span>
</div>
</div>
</div>
<div class="b-best_av">
<h3 class="b-best_av-title">Only the hottest gravure girls</h3>
<div class="b-best_av-cell">
<p class="b-best_av-text">A collection of the finest Japanese beauties is just a click away, with hundreds of Gravure models posing in beautiful pictures and high definition videos. Membership unlocks a world of erotic softcore content starring breathtaking Japanese models that show off in the finest lingerie sets, sexy dresses, cute outfits, bikinis, and go fully nude because they know what you want to see. Their breasts are perky and round, and their nipples grow erect with excitement as they smile for the camera. The teasing is perfect and meant to make you stiff between your legs as you drool over the astonishing beauty on display. There are more than 300 Asian girls to choose from and tens of thousands of pictures, with daily additions of erotica that keep the site fresh and always growing. These are the most beautiful Japanese models in the world, and they have never been photographed so fantastically, so prepare for absolute perfection.

No site online has as voluminous and breathtaking a collection of Japanese beauties as AllGravure, and daily updates help us continue to grow. We search for new models to introduce you to more beauty and provide our members with what they crave. Every kind of Japanese babe you could crave can be found inside. There are chicks with small tits, skinny waists, and tight asses, and buxom Asian babes with big natural tits that love to grope them with their soft hands and pull on the nipples while they moan tenderly. Whether you want a tight chick or a gal with amazing Asian curves, you’ll find her inside. We specialize in hot girls and photograph and film them in an erotic style that’s meant to emphasize how astonishingly sexy they are and how remarkably arousing the female form is. Every update brings you something new and exciting in the world of nude Asian models.</p>
</div>
<div class="b-best_av-cell">
<p class="b-best_av-text">The journey never ends for us. We are always out looking for new Japanese models to shoot for the site. We won’t rest until we have every sexy woman in Japan nude on our site. We find these models then bring them in for a photo and video shoot. We want the girls to show off their personalities, so we let them pick the location and tell us what they want to do. The more comfortable they are, the more erotic the scene is. Then we let them do their thing, showing off their choice of sexy outfit then slowly making their way out of it. Watch as they slink around on the bed, roll in the fresh glass, play on the floor, or splash in the water. The clothes come off, and these stunning gravure idols reveal their amazing, nude bodies. Nothing is left to the imagination as these babes touch and tease. Come along with us on our journey and enjoy the hottest Japanese models you will ever see. These amazing naked models will have you writhing with desire as you watch them drag their curious hands all over their fabulous bodies. From hot bikinis to sexy outfits and slightly kinky pantyhose, watch as these girls get glamourous and naughty at the same time. Nowhere on Earth will you find a place with a bigger, better collection of Japanese beauties and Gravure Idols. Our exclusive content sizzles with eroticism and all the sexy good times are brought to life in crystal clear HD. If you have feelings for Japanese girls, this is the best place where you will finally be able to quench that desire. Create an account now. Don’t make these gorgeous gravure models wait any longer. It only takes as second to do and will create a lifetime of happiness!</p>
</div>
</div>
</div>
</div>
<div class="wrapper">
<div class="b-join b-join-bottom">
<div class="b-join-info">
<img alt="AllGravure.com" class="b-join-info-logo" src="/assets/allgravure/img/logo-svg/ag_logo.svg?v1"/>
<div class="b-join-info-text">
<span>Enjoy exclusive Japanese centerfold models that will melt your heart and your cock in crystal clear photos and videos.</span>
</div>
<span class="btn btn-join js-gaBtnJoin" data-u="https://www.allgravure.com/join">Get access now</span>
</div>
</div>
<div class="b-footer">
<ul class="b-footer-nav">
<li class="b-footer-nav-item">
            Please visit
        </li>
<li class="b-footer-nav-item">
<span class="b-footer-nav-link" data-target="_blank" data-u="https://www.gxbill.com/customer_service/">GXB</span>
</li>
<li class="b-footer-nav-item">
<span class="b-footer-nav-link" data-target="_blank" data-u="https://cs.segpay.com/">SegPay</span>
</li>
<li class="b-footer-nav-item">
<span class="b-footer-nav-link" data-target="_blank" data-u="https://secure.vend-o.com/customers/profile/login/">Vendo</span>
</li>
<li class="b-footer-nav-item">
<span class="b-footer-nav-link" data-target="_blank" data-u="https://www.webbilling.com/">WebBilling</span>
</li>
<li class="b-footer-nav-item">
<span class="b-footer-nav-link" data-target="_blank" data-u="http://www.esbill.com/">ESBill</span>
</li>
<li class="b-footer-nav-item">
            our authorized sales agents.
        </li>
</ul>
<p class="b-footer-info">
        All content, including images, text, graphics, video and audio content contained in the website is protected under the laws of copyright, owned or under license to <br/>
        company or its designees,and represents proprietary and valuable intellectual property. Duplication, editing, sale or offering to third parties, emailing and uploading to <br/>
        other sites without permission is strictly prohibited and will result in this company taking legal actions according to US law. If you notice any violation of statement above <br/>
        please <span class="b-footer-info-link" data-target="_blank" data-u="https://www.ajmembers.com" title="Contact Webmaster">Contact Webmaster</span>. <span class="b-footer-info-link" data-u="https://www.allgravure.com/2257" title="Record-Keeping Requirements Compliance Statement">18 U.S.C. 2257 Record-Keeping Requirements Compliance Statement</span>
</p>
<ul class="b-footer-nav">
<li class="b-footer-nav-item"><span class="b-footer-nav-link" data-u="/login/?path=Lw">Members Login</span></li>
<li class="b-footer-nav-item"><span class="b-footer-nav-link" data-ga-category="mainpage" data-ga-id="support" data-ga-section="footer" data-rel="nofollow" data-target="_blank" data-u="https://www.ajmembers.com">Members Support</span></li>
<li class="b-footer-nav-item"><span class="b-footer-nav-link" data-ga-category="mainpage" data-ga-id="privacy" data-ga-section="footer" data-rel="nofollow" data-u="https://www.allgravure.com/privacy">Privacy Policy</span></li>
<li class="b-footer-nav-item"><span class="b-footer-nav-link" data-ga-category="mainpage" data-ga-id="terms" data-ga-section="footer" data-rel="nofollow" data-u="https://www.allgravure.com/terms">Terms of Use</span></li>
<li class="b-footer-nav-item"><span class="b-footer-nav-link" data-ga-category="mainpage" data-ga-id="dmca" data-ga-section="footer" data-u="https://www.allgravure.com/dmca">DMCA Agent</span></li>
<li class="b-footer-nav-item"><span class="b-footer-nav-link" data-ga-category="mainpage" data-ga-id="affilateprogramm" data-ga-section="footer" data-target="_blank" data-u="https://www.gravurecash.com/">Affiliate Program</span></li>
</ul>
<p class="b-footer-copy">© 2021 AllGravure</p>
<p class="b-footer-text">
<span class="hidden_text hidden_text__company"></span><br/>
<span class="hidden_text hidden_text__address"></span>
</p>
<a class="b-footer-rta" href="http://www.rtalabel.org" target="_blank">RTA</a>
<a class="btn-top" href="javascript:void(0);" title="To top"><span class="icon-arrow"></span></a>
</div>
</div>
</div>
</body>
</html>
