<!DOCTYPE html PUBLIC "-//W3C//DTD XHTML 1.0 Transitional//EN" "http://www.w3.org/TR/xhtml1/DTD/xhtml1-transitional.dtd">
<html xmlns="http://www.w3.org/1999/xhtml">
<head>
<meta content="text/html; charset=utf-8" http-equiv="Content-Type"/>
<title>ÙÙÙØ¹ Ø£.Ø¯ Ø®Ø§ÙØ¯  Ø§ÙÙØµÙØ­</title>
<meta content="Ø®Ø§ÙØ¯,Ø§ÙÙØµÙØ­,Ø¯ÙÙ,,ÙØ³ÙÙ,Ø§Ø³ÙØ§Ù,ÙØªÙÙ,Ø§ØµÙÙ,Ø¹ÙÙ,ÙÙØ©,Ø­ÙÙ,Ø±Ø£Ù,ÙØ¶ÙØ©ØªÙØ³ÙØ±,ÙÙÙØ¹ Ø£.Ø¯ Ø®Ø§ÙØ¯  Ø§ÙÙØµÙØ­" name="keywords"/>
<meta content="ÙÙÙØ¹ Ø£.Ø¯ Ø®Ø§ÙØ¯ Ø§ÙÙÙØµÙØ­ ÙØ¹ÙÙÙ Ø§ÙØ¯ÙÙ ÙØ§ÙÙØ±Ø¢Ù ÙÙÙ Ø§ÙÙØªØ§ÙÙ ØªÙØ³ÙØ± Ø§Ø¨Ù ..." name="Description"/>
<meta content="index, follow" name="robots"/>
<meta content="ÙÙÙØ¹ Ø£.Ø¯ Ø®Ø§ÙØ¯  Ø§ÙÙØµÙØ­" id="fbTitle" property="og:title"/>
<meta content="ÙÙÙØ¹ Ø£.Ø¯ Ø®Ø§ÙØ¯ Ø§ÙÙÙØµÙØ­ ÙØ¹ÙÙÙ Ø§ÙØ¯ÙÙ ÙØ§ÙÙØ±Ø¢Ù ÙÙÙ Ø§ÙÙØªØ§ÙÙ ØªÙØ³ÙØ± Ø§Ø¨Ù ..." id="fbDescription" property="og:description"/>
<link href="favicon.ico" rel="SHORTCUT ICON" type="image/x-icon"/>
<script src="ar/mylibrary/js/jquery-1.8.1.min.js" type="text/javascript"></script>
<script>
location.href="ar/index-ar.html";
$(document).ready(function(){
var windowWidth = $(window).width(); //retrieve current window width
var windowHeight = $(window).height()-1; //retrieve current window height

  $("#wrraper").css({"width":windowWidth,"height":windowHeight});
  //====================
	$(window).resize(function(){
		var windowWidth = $(window).width();
		var windowHeight = $(window).height()-1;
		$("#wrraper").css({"width":windowWidth,"height":windowHeight});
	});

});
</script>
<style>
body{
background: #EEE9D5;
margin: 0px;
padding: 0px;	
}
#wrraper{
background: #EEE9D5 url(bg_img/bg_index.jpg);
    background-repeat: no-repeat;
    background-size: 100% 100%;	
    position: relative;
    overflow: hidden;
}
#lang1{
    width: 105px;
    height: 60px;
    background: url(bg_img/ar_b.png);
    float: right;
    margin-left: 14px;
}
#lang2{
    width: 105px;
    height: 60px;
    background: url(bg_img/en_b.png);
    float: right;
    margin-left: 14px;
}
#lang3{
    width: 105px;
    height: 60px;
    background: url(bg_img/fr_b.png);
    float: right;
    margin-left: 14px;
}
#lang4{
    width: 105px;
    height: 60px;
    background: url(bg_img/ru_b.png);
    float: right;
    margin-left: 14px;
}
#lang5{
    width: 105px;
    height: 60px;
    background: url(bg_img/gr_b.png);
    float: right;
    margin-left: 14px;
}
#lang6{
    width: 105px;
    height: 60px;
    background: url(bg_img/fa_b.png);
    float: right;
    margin-left: 14px;
}
#box_icon{
    position: absolute;
    bottom: 80px;
    width: 100%;
}
#box_inner{
    overflow: hidden;
    width: 715px;
}
</style>
</head>
<body>
<div id="wrraper">
<div id="box_icon">
<center>
<div id="box_inner">
<a href="ar/index-ar.html" id="lang1"></a>
<a href="ar/index-en.html" id="lang2"></a>
<a href="ar/index-fr.html" id="lang3"></a>
<a href="ar/index-ru.html" id="lang4"></a>
<a href="ar/index-gr.html" id="lang5"></a>
<a href="ar/index-fa.html" id="lang6"></a>
</div>
</center>
</div>
</div>
</body>
</html>
