<!DOCTYPE html>
<html>
<head>
<meta content="text/html; charset=utf-8" http-equiv="Content-Type"/>
<title>neo Pontiac Firebird Trans AM 1973 (1/43 scale model)</title>
<meta content="Pontiac Firebird Trans AM 1973 by neo - 1/43 scale" name="Description"/>
<meta content="NOARCHIVE" name="ROBOTS"/>
<script>
(function(i,s,o,g,r,a,m){i['GoogleAnalyticsObject']=r;i[r]=i[r]||function(){
(i[r].q=i[r].q||[]).push(arguments)},i[r].l=1*new Date();a=s.createElement(o),
m=s.getElementsByTagName(o)[0];a.async=1;a.src=g;m.parentNode.insertBefore(a,m)
})(window,document,'script','https://www.google-analytics.com/analytics.js','ga');
ga('create', 'UA-85056245-1', 'auto');
ga('send', 'pageview');
</script>
</head>
<body alink="FFFF00" bgcolor="909090" link="FFFF00" text="FFFF00" vlink="FFFF00">
<center><font face="Verdana,Arial"><h4><font color="#FFFFFF"><b>Pontiac Firebird Trans AM 1973    </b>
<br/>Item# NEO.44745
<br/>neo 1/43
<br/></font><center><img alt="Pontiac Firebird Trans AM 1973 by neo" border="0" hspace="10" src="44745.jpg" vspace="10"/>
<font face="Verdana,Arial" size="1"><font color="#FFFFFF">
</font></font><center><img alt="Pontiac Firebird Trans AM 1973 by neo" border="0" hspace="10" src="44745-2.jpg" vspace="10"/>
<font face="Verdana,Arial" size="1"><font color="#FFFFFF">
<br/><font face="Verdana,Arial" size="2"><font color="#FFFF00"><br/></font></font></font></font><center><table border="0" width="100%">
<tr>
<td align="CENTER">
<a href="http://www.alpimodel.com">Home page (international site)</a>
</td>
<td align="CENTER">
<a href="http://www.alpimodel.com/indexi.html">Pagina iniziale (sito italiano)</a>
</td>
</tr>
</table>
<font face="Verdana,Arial" size="1"><font color="#FFFFFF"><br/><br/>
<b><font face="Verdana,Arial,Helvetica"><font color="#FFFFFF"><font size="-2">Web
site design, text  and graphic ©1999 - 2016 Stormy Planet S.a.s.,
Italy.  VAT-ID/P.IVA:  IT 13095340157.</font></font></font></b>
<br/> 
 <p>
</p><hr width="100%"/>
<br/> 
</font></font></center></center></center></h4></font></center></body>
</html>
