<!--
        To discuss automated access to Amazon data please contact api-services-support@amazon.com.
        For information about migrating to our APIs refer to our Marketplace APIs at https://developer.amazonservices.com/ref=rm_5_sv, or our Product Advertising API at https://affiliate-program.amazon.com/gp/advertising/api/detail/main.html/ref=rm_5_ac for advertising use cases.
--><!DOCTYPE html>
<html>
<head>
<meta charset="utf-8"/>
<meta content="ie=edge" http-equiv="x-ua-compatible"/>
<meta content="width=device-width, initial-scale=1, shrink-to-fit=no" name="viewport"/>
<title>Sorry! Something went wrong!</title>
<style>
  html, body {
    padding: 0;
    margin: 0
  }

  img {
    border: 0
  }

  #a {
    background: #232f3e;
    padding: 11px 11px 11px 192px
  }

  #b {
    position: absolute;
    left: 22px;
    top: 12px
  }

  #c {
    position: relative;
    max-width: 800px;
    padding: 0 40px 0 0
  }

  #e, #f {
    height: 35px;
    border: 0;
    font-size: 1em
  }

  #e {
    width: 100%;
    margin: 0;
    padding: 0 10px;
    border-radius: 4px 0 0 4px
  }

  #f {
    cursor: pointer;
    background: #febd69;
    font-weight: bold;
    border-radius: 0 4px 4px 0;
    -webkit-appearance: none;
    position: absolute;
    top: 0;
    right: 0;
    padding: 0 12px
  }

  @media (max-width: 500px) {
    #a {
      padding: 55px 10px 10px
    }

    #b {
      left: 6px
    }
  }

  #g {
    text-align: center;
    margin: 30px 0
  }

  #g img {
    max-width: 90%
  }

  #d {
    display: none
  }

  #d[src] {
    display: inline
  }
  </style>
</head>
<body>
<a href="/ref=cs_503_logo"><img alt="Amazon.com" id="b" src="https://images-na.ssl-images-amazon.com/images/G/01/error/logo._TTD_.png"/></a>
<form accept-charset="utf-8" action="/s" id="a" method="GET" role="search">
<div id="c">
<input id="e" name="field-keywords" placeholder="Search"/>
<input name="ref" type="hidden" value="cs_503_search"/>
<input id="f" type="submit" value="Go"/>
</div>
</form>
<div id="g">
<div><a href="/ref=cs_503_link"><img alt="Sorry! Something went wrong on our end. Please go back and try again or go to Amazon's home page." src="https://images-na.ssl-images-amazon.com/images/G/01/error/500_503.png"/></a>
</div>
<a href="/dogsofamazon/ref=cs_503_d" rel="noopener noreferrer" target="_blank"><img alt="Dogs of Amazon" id="d"/></a>
<script>document.getElementById("d").src = "https://images-na.ssl-images-amazon.com/images/G/01/error/" + (Math.floor(Math.random() * 43) + 1) + "._TTD_.jpg";</script>
</div>
</body>
</html>
