<?xml version="1.0" encoding="UTF-8"?><!DOCTYPE html PUBLIC "-//W3C//DTD XHTML 1.0 Strict//EN" "http://www.w3.org/TR/xhtml1/DTD/xhtml1-strict.dtd">
<html lang="en" xml:lang="en" xmlns="http://www.w3.org/1999/xhtml">
<head>
<title>Object not found!</title>
<link href="mailto:noreply@hosting-ch.ch" rev="made"/>
<style type="text/css"><!--/*--><![CDATA[/*><!--*/ 
    body { color: #000000; background-color: #FFFFFF; margin-left:24pt; margin-top:30pt; }
    a:link, a:visited { color: #88B500; }
    p, ul, div.address { margin-left: 48pt;}
    li { margin-top: 4pt; margin-bottom: 4pt; }
    div.address { font-size: smaller; }
    body { font-family: Arial, Helvetica, sans-serif;}
    h2 {margin-top: 3em;}
/*]]>*/--></style>
</head>
<body>
<h1>Object not found!</h1>
<p>


    The requested URL was not found on this server.

  

    If you entered the URL manually please check your
    spelling and try again.

  

</p>
<h2>Error 404</h2>
<div class="address">
<div>Unique ID: X--htaJpJHL4LOoE3@lm9wAAAEw</div>
<div>Date / Time: 2021-01-14 07:16:21 CET(+0100)</div>
<div>Server Address: 212.59.184.64</div>
<div>Requested by: 210.75.253.169:10191</div>
<div>Server: <a href="/">www.peycon.ch</a></div>
</div>
</body>
</html>
