<!DOCTYPE HTML PUBLIC "-//W3C//DTD HTML 3.2 Final//EN">
<html>
<head>
<title>Index of /</title>
</head>
<body>
<h1>Index of /</h1>
<table>
<tr><th valign="top"> </th><th><a href="?C=N;O=D">Name</a></th><th><a href="?C=M;O=A">Last modified</a></th><th><a href="?C=S;O=A">Size</a></th><th><a href="?C=D;O=A">Description</a></th></tr>
<tr><th colspan="5"><hr/></th></tr>
<tr><td valign="top"> </td><td><a href="CHANGELOG.php">CHANGELOG.php</a> </td><td align="right">2010-05-28 10:19  </td><td align="right">100K</td><td> </td></tr>
<tr><td valign="top"> </td><td><a href="COPYRIGHT.php">COPYRIGHT.php</a> </td><td align="right">2010-05-28 10:19  </td><td align="right">1.1K</td><td> </td></tr>
<tr><td valign="top"> </td><td><a href="CREDITS.php">CREDITS.php</a> </td><td align="right">2010-05-28 10:19  </td><td align="right"> 15K</td><td> </td></tr>
<tr><td valign="top"> </td><td><a href="INSTALL.php">INSTALL.php</a> </td><td align="right">2010-05-28 10:19  </td><td align="right">4.2K</td><td> </td></tr>
<tr><td valign="top"> </td><td><a href="Joomla_1.5.18-Stable-Full_Package.zip">Joomla_1.5.18-Stable..&gt;</a></td><td align="right">2010-06-12 17:12  </td><td align="right">6.5M</td><td> </td></tr>
<tr><td valign="top"> </td><td><a href="LICENSE.php">LICENSE.php</a> </td><td align="right">2010-05-28 10:19  </td><td align="right"> 17K</td><td> </td></tr>
<tr><td valign="top"> </td><td><a href="LICENSES.php">LICENSES.php</a> </td><td align="right">2010-05-28 10:19  </td><td align="right"> 27K</td><td> </td></tr>
<tr><td valign="top"> </td><td><a href="administrator/">administrator/</a> </td><td align="right">2010-05-28 10:19  </td><td align="right">  - </td><td> </td></tr>
<tr><td valign="top"> </td><td><a href="cache/">cache/</a> </td><td align="right">2010-10-06 05:31  </td><td align="right">  - </td><td> </td></tr>
<tr><td valign="top"> </td><td><a href="components/">components/</a> </td><td align="right">2010-10-06 05:32  </td><td align="right">  - </td><td> </td></tr>
<tr><td valign="top"> </td><td><a href="configuration.php">configuration.php</a> </td><td align="right">2020-06-20 22:42  </td><td align="right">1.8K</td><td> </td></tr>
<tr><td valign="top"> </td><td><a href="configuration.php-dist">configuration.php-dist</a> </td><td align="right">2010-05-28 10:19  </td><td align="right">3.3K</td><td> </td></tr>
<tr><td valign="top"> </td><td><a href="htaccess.txt">htaccess.txt</a> </td><td align="right">2010-05-28 10:19  </td><td align="right">2.7K</td><td> </td></tr>
<tr><td valign="top"> </td><td><a href="images/">images/</a> </td><td align="right">2010-05-28 10:19  </td><td align="right">  - </td><td> </td></tr>
<tr><td valign="top"> </td><td><a href="includes/">includes/</a> </td><td align="right">2010-10-06 05:32  </td><td align="right">  - </td><td> </td></tr>
<tr><td valign="top"> </td><td><a href="installation1/">installation1/</a> </td><td align="right">2020-08-03 02:56  </td><td align="right">  - </td><td> </td></tr>
<tr><td valign="top"> </td><td><a href="language/">language/</a> </td><td align="right">2010-10-06 05:33  </td><td align="right">  - </td><td> </td></tr>
<tr><td valign="top"> </td><td><a href="libraries/">libraries/</a> </td><td align="right">2010-10-06 05:34  </td><td align="right">  - </td><td> </td></tr>
<tr><td valign="top"> </td><td><a href="logs/">logs/</a> </td><td align="right">2010-05-28 10:20  </td><td align="right">  - </td><td> </td></tr>
<tr><td valign="top"> </td><td><a href="media/">media/</a> </td><td align="right">2010-10-06 05:34  </td><td align="right">  - </td><td> </td></tr>
<tr><td valign="top"> </td><td><a href="modules/">modules/</a> </td><td align="right">2010-10-06 05:35  </td><td align="right">  - </td><td> </td></tr>
<tr><td valign="top"> </td><td><a href="pharmacy.zip">pharmacy.zip</a> </td><td align="right">2020-06-20 22:39  </td><td align="right"> 13M</td><td> </td></tr>
<tr><td valign="top"> </td><td><a href="pharmacy/">pharmacy/</a> </td><td align="right">2020-06-20 22:40  </td><td align="right">  - </td><td> </td></tr>
<tr><td valign="top"> </td><td><a href="plugins/">plugins/</a> </td><td align="right">2010-10-06 05:36  </td><td align="right">  - </td><td> </td></tr>
<tr><td valign="top"> </td><td><a href="robots.txt">robots.txt</a> </td><td align="right">2010-05-28 10:21  </td><td align="right">304 </td><td> </td></tr>
<tr><td valign="top"> </td><td><a href="templates/">templates/</a> </td><td align="right">2010-10-06 05:36  </td><td align="right">  - </td><td> </td></tr>
<tr><td valign="top"> </td><td><a href="tmp/">tmp/</a> </td><td align="right">2010-10-06 05:36  </td><td align="right">  - </td><td> </td></tr>
<tr><td valign="top"> </td><td><a href="xmlrpc/">xmlrpc/</a> </td><td align="right">2020-09-06 22:39  </td><td align="right">  - </td><td> </td></tr>
<tr><th colspan="5"><hr/></th></tr>
</table>
</body></html>
