<!DOCTYPE html>
<html class="no-js" lang="en-US">
<head>
<meta charset="utf-8"/>
<meta content="IE=edge" http-equiv="X-UA-Compatible"/>
<meta content="width=device-width, initial-scale=1" name="viewport"/>
<title>Page not found – PML SD Public School Sector 32-C, Chandigarh</title>
<script>
                            /* You can add more configuration options to webfontloader by previously defining the WebFontConfig with your options */
                            if ( typeof WebFontConfig === "undefined" ) {
                                WebFontConfig = new Object();
                            }
                            WebFontConfig['google'] = {families: ['Lato:300', 'Raleway:100,200,300,400,500,600,700,800,900,100italic,200italic,300italic,400italic,500italic,600italic,700italic,800italic,900italic&amp;subset=latin']};

                            (function() {
                                var wf = document.createElement( 'script' );
                                wf.src = 'https://ajax.googleapis.com/ajax/libs/webfont/1.5.3/webfont.js';
                                wf.type = 'text/javascript';
                                wf.async = 'true';
                                var s = document.getElementsByTagName( 'script' )[0];
                                s.parentNode.insertBefore( wf, s );
                            })();
                        </script>
<link href="//maps.googleapis.com" rel="dns-prefetch"/>
<link href="//fonts.googleapis.com" rel="dns-prefetch"/>
<link href="//s.w.org" rel="dns-prefetch"/>
<link href="https://pmlsdpublicschool32.ac.in/feed/" rel="alternate" title="PML SD Public School Sector 32-C, Chandigarh » Feed" type="application/rss+xml"/>
<link href="https://pmlsdpublicschool32.ac.in/comments/feed/" rel="alternate" title="PML SD Public School Sector 32-C, Chandigarh » Comments Feed" type="application/rss+xml"/>
<link href="https://pmlsdpublicschool32.ac.in/events/?ical=1" rel="alternate" title="PML SD Public School Sector 32-C, Chandigarh » iCal Feed" type="text/calendar"/>
<script type="text/javascript">
			window._wpemojiSettings = {"baseUrl":"https:\/\/s.w.org\/images\/core\/emoji\/2\/72x72\/","ext":".png","svgUrl":"https:\/\/s.w.org\/images\/core\/emoji\/2\/svg\/","svgExt":".svg","source":{"concatemoji":"https:\/\/pmlsdpublicschool32.ac.in\/wp-includes\/js\/wp-emoji-release.min.js?ver=4.6.20"}};
			!function(a,b,c){function d(a){var c,d,e,f,g,h=b.createElement("canvas"),i=h.getContext&&h.getContext("2d"),j=String.fromCharCode;if(!i||!i.fillText)return!1;switch(i.textBaseline="top",i.font="600 32px Arial",a){case"flag":return i.fillText(j(55356,56806,55356,56826),0,0),!(h.toDataURL().length<3e3)&&(i.clearRect(0,0,h.width,h.height),i.fillText(j(55356,57331,65039,8205,55356,57096),0,0),c=h.toDataURL(),i.clearRect(0,0,h.width,h.height),i.fillText(j(55356,57331,55356,57096),0,0),d=h.toDataURL(),c!==d);case"diversity":return i.fillText(j(55356,57221),0,0),e=i.getImageData(16,16,1,1).data,f=e[0]+","+e[1]+","+e[2]+","+e[3],i.fillText(j(55356,57221,55356,57343),0,0),e=i.getImageData(16,16,1,1).data,g=e[0]+","+e[1]+","+e[2]+","+e[3],f!==g;case"simple":return i.fillText(j(55357,56835),0,0),0!==i.getImageData(16,16,1,1).data[0];case"unicode8":return i.fillText(j(55356,57135),0,0),0!==i.getImageData(16,16,1,1).data[0];case"unicode9":return i.fillText(j(55358,56631),0,0),0!==i.getImageData(16,16,1,1).data[0]}return!1}function e(a){var c=b.createElement("script");c.src=a,c.type="text/javascript",b.getElementsByTagName("head")[0].appendChild(c)}var f,g,h,i;for(i=Array("simple","flag","unicode8","diversity","unicode9"),c.supports={everything:!0,everythingExceptFlag:!0},h=0;h<i.length;h++)c.supports[i[h]]=d(i[h]),c.supports.everything=c.supports.everything&&c.supports[i[h]],"flag"!==i[h]&&(c.supports.everythingExceptFlag=c.supports.everythingExceptFlag&&c.supports[i[h]]);c.supports.everythingExceptFlag=c.supports.everythingExceptFlag&&!c.supports.flag,c.DOMReady=!1,c.readyCallback=function(){c.DOMReady=!0},c.supports.everything||(g=function(){c.readyCallback()},b.addEventListener?(b.addEventListener("DOMContentLoaded",g,!1),a.addEventListener("load",g,!1)):(a.attachEvent("onload",g),b.attachEvent("onreadystatechange",function(){"complete"===b.readyState&&c.readyCallback()})),f=c.source||{},f.concatemoji?e(f.concatemoji):f.wpemoji&&f.twemoji&&(e(f.twemoji),e(f.wpemoji)))}(window,document,window._wpemojiSettings);
		</script>
<style type="text/css">
img.wp-smiley,
img.emoji {
	display: inline !important;
	border: none !important;
	box-shadow: none !important;
	height: 1em !important;
	width: 1em !important;
	margin: 0 .07em !important;
	vertical-align: -0.1em !important;
	background: none !important;
	padding: 0 !important;
}
</style>
<link href="https://pmlsdpublicschool32.ac.in/wp-content/plugins/LayerSlider/static/css/layerslider.css?ver=5.6.9" id="layerslider-css" media="all" rel="stylesheet" type="text/css"/>
<link href="https://fonts.googleapis.com/css?family=Lato:100,300,regular,700,900%7COpen+Sans:300%7CIndie+Flower:regular%7COswald:300,regular,700&amp;subset=latin%2Clatin-ext" id="ls-google-fonts-css" media="all" rel="stylesheet" type="text/css"/>
<link href="https://pmlsdpublicschool32.ac.in/wp-content/plugins/contact-form-7/includes/css/styles.css?ver=4.7" id="contact-form-7-css" media="all" rel="stylesheet" type="text/css"/>
<link href="https://pmlsdpublicschool32.ac.in/wp-content/plugins/ditty-news-ticker/assets/fontastic/styles.css?ver=2.1.5" id="ditty-news-ticker-font-css" media="all" rel="stylesheet" type="text/css"/>
<link href="https://pmlsdpublicschool32.ac.in/wp-content/plugins/ditty-news-ticker/assets/css/style.css?ver=2.1.5" id="ditty-news-ticker-css" media="all" rel="stylesheet" type="text/css"/>
<link href="https://pmlsdpublicschool32.ac.in/wp-content/plugins/magic-liquidizer-responsive-table/idcss/ml-responsive-table.css?ver=2.0.0" id="magic-liquidizer-table-style-css" media="all" rel="stylesheet" type="text/css"/>
<link href="https://pmlsdpublicschool32.ac.in/wp-content/plugins/wpfront-notification-bar/css/wpfront-notification-bar.css?ver=1.7.1" id="wpfront-notification-bar-css" media="all" rel="stylesheet" type="text/css"/>
<link href="https://pmlsdpublicschool32.ac.in/wp-content/plugins/school-time-plugin/extensions/smart-grid-gallery/includes/dist/sgg.min.css?ver=4.6.20" id="smart-grid-css" media="all" rel="stylesheet" type="text/css"/>
<link href="https://pmlsdpublicschool32.ac.in/wp-content/plugins/school-time-plugin/extensions/testimonial-rotator/testimonial-rotator-style.css?ver=4.6.20" id="testimonial-rotator-style-css" media="all" rel="stylesheet" type="text/css"/>
<link href="https://pmlsdpublicschool32.ac.in/wp-content/plugins/js_composer/assets/lib/bower/font-awesome/css/font-awesome.min.css?ver=4.12" id="font-awesome-css" media="all" rel="stylesheet" type="text/css"/>
<link href="https://pmlsdpublicschool32.ac.in/wp-content/plugins/school-time-plugin/vc-addons/video-popup/assets/video-popup.css?ver=4.6.20" id="st-video-popup-css" media="all" rel="stylesheet" type="text/css"/>
<link href="https://pmlsdpublicschool32.ac.in/wp-content/plugins/school-time-plugin/vc-addons/logo/assets/vc_extend.css?ver=4.6.20" id="vc_extend_style-css" media="all" rel="stylesheet" type="text/css"/>
<link href="https://pmlsdpublicschool32.ac.in/wp-content/themes/school-time/assets/css/school-time-icons.css?ver=4.6.20" id="school-time-icons-css" media="all" rel="stylesheet" type="text/css"/>
<link href="https://pmlsdpublicschool32.ac.in/wp-content/plugins/tablepress/css/default.min.css?ver=1.7" id="tablepress-default-css" media="all" rel="stylesheet" type="text/css"/>
<link href="https://pmlsdpublicschool32.ac.in/wp-content/plugins/school-time-plugin//public/css/style.css?ver=4.6.20" id="sp-style-css" media="all" rel="stylesheet" type="text/css"/>
<link href="https://pmlsdpublicschool32.ac.in/wp-content/themes/school-time/assets/css/groundwork-responsive.css?ver=4.6.20" id="bricklayer.groundwork-css" media="all" rel="stylesheet" type="text/css"/>
<link href="https://pmlsdpublicschool32.ac.in/wp-content/themes/school-time/style.css?ver=4.6.20" id="style.default-css" media="all" rel="stylesheet" type="text/css"/>
<link href="//pmlsdpublicschool32.ac.in/wp-content/uploads/school_time_options_style.css?ver=4.6.20" id="school_time_options_style-css" media="all" rel="stylesheet" type="text/css"/>
<script src="https://pmlsdpublicschool32.ac.in/wp-content/plugins/LayerSlider/static/js/greensock.js?ver=1.11.8" type="text/javascript"></script>
<script src="https://pmlsdpublicschool32.ac.in/wp-includes/js/jquery/jquery.js?ver=1.12.4" type="text/javascript"></script>
<script src="https://pmlsdpublicschool32.ac.in/wp-includes/js/jquery/jquery-migrate.min.js?ver=1.4.1" type="text/javascript"></script>
<script type="text/javascript">
/* <![CDATA[ */
var LS_Meta = {"v":"5.6.9"};
/* ]]> */
</script>
<script src="https://pmlsdpublicschool32.ac.in/wp-content/plugins/LayerSlider/static/js/layerslider.kreaturamedia.jquery.js?ver=5.6.9" type="text/javascript"></script>
<script src="https://pmlsdpublicschool32.ac.in/wp-content/plugins/LayerSlider/static/js/layerslider.transitions.js?ver=5.6.9" type="text/javascript"></script>
<script src="https://pmlsdpublicschool32.ac.in/wp-content/plugins/magic-liquidizer-responsive-table/idjs/ml.responsive.table.min.js?ver=2.0.0" type="text/javascript"></script>
<script src="https://pmlsdpublicschool32.ac.in/wp-content/plugins/wpfront-notification-bar/jquery-plugins/jquery.c.js?ver=1.4.0" type="text/javascript"></script>
<script src="https://pmlsdpublicschool32.ac.in/wp-content/plugins/wpfront-notification-bar/js/wpfront-notification-bar.js?ver=1.7.1" type="text/javascript"></script>
<script src="https://pmlsdpublicschool32.ac.in/wp-content/plugins/school-time-plugin/extensions/smart-grid-gallery/includes/dist/sgg.min.js?ver=4.6.20" type="text/javascript"></script>
<script src="https://pmlsdpublicschool32.ac.in/wp-content/plugins/school-time-plugin/extensions/testimonial-rotator/js/jquery.cycletwo.js?ver=4.6.20" type="text/javascript"></script>
<script src="https://pmlsdpublicschool32.ac.in/wp-content/plugins/school-time-plugin/extensions/testimonial-rotator/js/jquery.cycletwo.addons.js?ver=4.6.20" type="text/javascript"></script>
<script src="https://maps.googleapis.com/maps/api/js?sensor=false&amp;ver=4.6.20" type="text/javascript"></script>
<script src="https://pmlsdpublicschool32.ac.in/wp-content/themes/school-time/assets/js/vendor/modernizr-2.7.0.min.js" type="text/javascript"></script>
<meta content="Powered by LayerSlider 5.6.9 - Multi-Purpose, Responsive, Parallax, Mobile-Friendly Slider Plugin for WordPress." name="generator"/>
<!-- LayerSlider updates and docs at: https://kreaturamedia.com/layerslider-responsive-wordpress-slider-plugin/ -->
<link href="https://pmlsdpublicschool32.ac.in/wp-json/" rel="https://api.w.org/"/>
<link href="https://pmlsdpublicschool32.ac.in/xmlrpc.php?rsd" rel="EditURI" title="RSD" type="application/rsd+xml"/>
<link href="https://pmlsdpublicschool32.ac.in/wp-includes/wlwmanifest.xml" rel="wlwmanifest" type="application/wlwmanifest+xml"/>
<meta content="WordPress 4.6.20" name="generator"/>
<script>
		var school_time_plugin = school_time_plugin ||
			{
				data: {
					vcWidgets: {}
				}
			};
	</script>
<script>
		var wheels = wheels ||
			{
				siteName: "PML SD Public School Sector 32-C, Chandigarh",
				data: {
					useScrollToTop: true,
					useStickyMenu: true,
					scrollToTopText: "",
					isAdminBarShowing: false,
					initialWaypointScrollCompensation: "120"				}
			};
	</script>
<style>.single-post .wh-sidebar.one.fourth.wh-padding {
	display: none;
}
.single-post .fourth.three, .fourths.three {
	width: 100%;
}
.page-id-1266 iframe {
	width: 100% !important;
	height: 1034px;
}
.st-slider-button {
    background-color: #f35849 !important;
    color: #fff !important;
}
.st-slider-button:hover {
  background-color: #f35849 !important;
  color: #fff !important;
}
.st-slider-alt-button {
  background-color: #fff !important;
  color: #f35849 !important;
}
.st-slider-alt-button:hover {
  background-color: #f35849 !important;
  color: #fff !important;
}

.wh-header, .respmenu-wrap {
    background-color: #8A0707 !important;
}


.sf-menu.wh-menu-main ul li, .sf-menu.wh-menu-main .sub-menu {
    background-color: #780909 !important;
}

.sf-menu.wh-menu-main ul li:hover, .sf-menu.wh-menu-main ul ul li:hover {
    background-color: #B70303 !important;
}

.wpb_single_image .vc_box_border.vc_box_border_blue, .wpb_single_image .vc_box_border_circle.vc_box_border_blue {
    background-color: #8A0707;
}

.vc_btn3.vc_btn3-color-info.vc_btn3-style-modern {
    color: #FFF;
    border-color: #8A0707;
    background-color: #8A0707;
}

.wh-background-accent-color, .header-mesage-row, .wh-vc-separator:before, .linp-post-list .item .img-container .date, .linp-tribe-events-wrap .widget-title {
    background-color: #8A0707;
}

.vc_btn3.vc_btn3-color-info.vc_btn3-style-modern:focus, .vc_btn3.vc_btn3-color-info.vc_btn3-style-modern:hover {
    color: #f7f7f7;
    border-color: #B70303;
    background-color: #B70303;
}

.mtphr-dnt-tick-container {
    color:white;
}

.wh-theme-icon
{
  color:#B70303!important;  
}

.linp-tribe-events-link a, .linp-post-list .item .read-more

{
  color: #B7030 !important;  
}

.wh-box-shadow .vc_column-inner 
{
background-color: white;
}



body {
background-color: #FEE3CB;    
}


/*.wh-content {
   background-color: white;
} */
}</style>
<script id="wh-custom-js-code">
jQuery(document).ready(function(){

});
</script>
<style>
		@media screen and (max-width: 767px) {
			#cbp-menu-main { width: 100%; }

			.wh-main-menu { display: none; }
			.wh-header { display: none; }
		}
	</style>
<script>
		var wheels  = wheels || {};
		wheels.data = wheels.data || {};

		wheels.data.respmenu = {
			id: 'cbp-menu-main',
			options: {
				id: 'cbp-menu-main-respmenu',
				submenuToggle: {
					className: 'cbp-respmenu-more',
					html: '<i class="fa fa-angle-down"></i>'
				},
				logo: {
					src: "http:\/\/pmlsdpublicschool32.ac.in\/wp-content\/uploads\/2016\/03\/SchoolTime-logo.png",
					link: 'https://pmlsdpublicschool32.ac.in/'
				},
				toggleSwitch: {
					src: ""				},
				prependTo: 'body',
				skipClasses: ['wcmenucart-contents']
			}
		};
	</script>
<style data-type="vc_custom-css" type="text/css">.wh-header-button {
    font-size: 14px;
}</style><style data-type="vc_shortcodes-custom-css" type="text/css">.vc_custom_1479705682080{background-color: #fee3cb !important;}.vc_custom_1479705698299{background-color: #ffffff !important;}.vc_custom_1459169239492{padding-top: 7px !important;padding-bottom: 7px !important;}.vc_custom_1459169247628{padding-top: 7px !important;padding-bottom: 7px !important;}.vc_custom_1474004796246{margin-bottom: 0px !important;}.vc_custom_1474369255319{padding-top: 30px !important;}.vc_custom_1474368966885{padding-top: 30px !important;}.vc_custom_1474368958718{padding-top: 30px !important;}.vc_custom_1459753053497{margin-top: 12px !important;}.vc_custom_1474003991045{margin-bottom: 0px !important;padding-left: 33px !important;}.vc_custom_1474004050913{padding-left: 33px !important;}.vc_custom_1458824073653{margin-top: 12px !important;}.vc_custom_1474004067837{margin-bottom: 0px !important;padding-left: 33px !important;}.vc_custom_1474004112684{padding-left: 33px !important;}.vc_custom_1458824078556{margin-top: 12px !important;}.vc_custom_1474004127840{margin-bottom: 0px !important;padding-left: 38px !important;}.vc_custom_1474004148588{padding-left: 38px !important;}.vc_custom_1459169763730{margin-top: 25px !important;margin-bottom: 25px !important;}.vc_custom_1459169732301{margin-bottom: 25px !important;}.vc_custom_1459778405965{margin-bottom: 25px !important;}.vc_custom_1459778410586{margin-bottom: 25px !important;}.vc_custom_1459778415275{margin-bottom: 25px !important;}.vc_custom_1459778419846{margin-bottom: 25px !important;}.vc_custom_1458120462806{margin-top: 12px !important;}.vc_custom_1458737539886{margin-bottom: 0px !important;padding-left: 33px !important;}.vc_custom_1456755878099{padding-left: 33px !important;}.vc_custom_1458824073653{margin-top: 12px !important;}.vc_custom_1458737546989{margin-bottom: 0px !important;padding-left: 33px !important;}.vc_custom_1456755889358{padding-left: 33px !important;}.vc_custom_1458824078556{margin-top: 12px !important;}.vc_custom_1458824147535{margin-bottom: 0px !important;padding-left: 38px !important;}.vc_custom_1458824154814{padding-left: 38px !important;}</style><style data-type="vc_custom-css" type="text/css">.wh-footer {
    color: #fff;
}
@media (max-width:768px) {
.wh-footer-big-title,    
.wh-footer-big-title a {
    font-size: 16px;
    line-height: 21px;
}
}</style><style data-type="vc_shortcodes-custom-css" type="text/css">.vc_custom_1459852617004{margin-bottom: 0px !important;padding-top: 26px !important;background-color: #34373c !important;}.vc_custom_1457437609751{background-color: #34373c !important;}.vc_custom_1459855724027{margin-bottom: 0px !important;}.vc_custom_1459855732948{margin-bottom: 0px !important;}.vc_custom_1459855742539{margin-bottom: 0px !important;}.vc_custom_1459432656616{margin-top: -4px !important;}.vc_custom_1474007683157{padding-left: 44px !important;}.vc_custom_1474362277193{margin-top: -7px !important;}.vc_custom_1568790289897{padding-left: 44px !important;}.vc_custom_1474431305361{margin-top: -4px !important;}.vc_custom_1474431266718{padding-left: 44px !important;}.vc_custom_1459852665865{margin-bottom: 0px !important;padding-top: 0px !important;}.vc_custom_1459844282139{padding-top: 17px !important;padding-bottom: 5px !important;}.vc_custom_1459844288411{padding-top: 17px !important;padding-bottom: 5px !important;}</style>
<style id="breadcrumb-trail-css" type="text/css">.breadcrumbs .trail-browse,.breadcrumbs .trail-items,.breadcrumbs .trail-items li {display: inline-block;margin:0;padding: 0;border:none;background:transparent;text-indent: 0;}.breadcrumbs .trail-browse {font-size: inherit;font-style:inherit;font-weight: inherit;color: inherit;}.breadcrumbs .trail-items {list-style: none;}.trail-items li::after {content: "\002F";padding: 0 0.5em;}.trail-items li:last-of-type::after {display: none;}</style>
<meta content="Powered by Visual Composer - drag and drop page builder for WordPress." name="generator"/>
<!--[if lte IE 9]><link rel="stylesheet" type="text/css" href="https://pmlsdpublicschool32.ac.in/wp-content/plugins/js_composer/assets/css/vc_lte_ie9.min.css" media="screen"><![endif]--><!--[if IE  8]><link rel="stylesheet" type="text/css" href="https://pmlsdpublicschool32.ac.in/wp-content/plugins/js_composer/assets/css/vc-ie8.min.css" media="screen"><![endif]--><noscript><style type="text/css"> .wpb_animate_when_almost_visible { opacity: 1; }</style></noscript></head>
<body class="error404 tribe-no-js wpb-js-composer js-comp-ver-4.12 vc_responsive">
<div class="cbp-container wh-top-bar pad-left">
<div class="vc_row wpb_row vc_row-fluid wh-top-header vc_custom_1479705682080 vc_row-has-fill" data-vc-full-width="true" data-vc-full-width-init="false"><div class="wpb_column vc_column_container vc_col-sm-6 vc_hidden-xs"><div class="vc_column-inner vc_custom_1459169239492"><div class="wpb_wrapper"></div></div></div><div class="wpb_column vc_column_container vc_col-sm-6 vc_hidden-xs"><div class="vc_column-inner vc_custom_1459169247628"><div class="wpb_wrapper"><p class="vc_custom_heading vc_custom_1474004796246" style="font-size: 14px;color: #acaeb1;text-align: right">Administrator Login</p></div></div></div></div><div class="vc_row-full-width vc_clearfix"></div><div class="vc_row wpb_row vc_row-fluid vc_custom_1479705698299 vc_row-has-fill"><div class="wpb_column vc_column_container vc_col-sm-4 vc_hidden-md vc_hidden-sm vc_hidden-xs"><div class="vc_column-inner "><div class="wpb_wrapper">
<div class="wpb_single_image wpb_content_element vc_align_left">
<figure class="wpb_wrapper vc_figure">
<a href="https://pmlsdpublicschool32.ac.in/"><img alt="logo" class="vc_img-placeholder vc_single_image-img" src="http://pmlsdpublicschool32.ac.in/wp-content/uploads/2016/09/sdlogo3.jpg"/></a>
</figure>
</div>
</div></div></div><div class="wpb_column vc_column_container vc_col-sm-3 vc_hidden-md vc_hidden-sm vc_hidden-xs"><div class="vc_column-inner vc_custom_1474369255319"><div class="wpb_wrapper">
<div class="wh-theme-icon vc_custom_1459753053497 " style="font-size:27px;position:absolute;">
<i class="icon-phone-handset"></i>
</div>
<p class="vc_custom_heading vc_custom_1474003991045" style="font-size: 14px;text-align: left">0172-2609669</p><p class="vc_custom_heading vc_custom_1474004050913" style="font-size: 14px;line-height: 16px;text-align: left">sdpublicschool32@yahoo.com</p></div></div></div><div class="wpb_column vc_column_container vc_col-sm-2 vc_hidden-md vc_hidden-sm vc_hidden-xs"><div class="vc_column-inner vc_custom_1474368966885"><div class="wpb_wrapper">
<div class="wh-theme-icon vc_custom_1458824073653 " style="font-size:28px;position:absolute;">
<i class="icon-Pin-New"></i>
</div>
<p class="vc_custom_heading vc_custom_1474004067837" style="font-size: 14px;text-align: left">Sector 32 -C</p><p class="vc_custom_heading vc_custom_1474004112684" style="font-size: 14px;line-height: 16px;text-align: left">Chandigarh, 160031</p></div></div></div><div class="wpb_column vc_column_container vc_col-sm-3 vc_hidden-md vc_hidden-sm vc_hidden-xs"><div class="vc_column-inner vc_custom_1474368958718"><div class="wpb_wrapper">
<div class="wh-theme-icon vc_custom_1458824078556 " style="font-size:28px;position:absolute;">
<i class="icon-Clock-New"></i>
</div>
<p class="vc_custom_heading vc_custom_1474004127840" style="font-size: 14px;text-align: left">8.10 AM to 2:10 PM</p><p class="vc_custom_heading vc_custom_1474004148588" style="font-size: 14px;line-height: 16px;text-align: left">Monday to Saturday</p></div></div></div></div><div class="vc_row wpb_row vc_row-fluid"><div class="wpb_column vc_column_container vc_col-sm-12 vc_hidden-lg vc_hidden-xs"><div class="vc_column-inner "><div class="wpb_wrapper">
<div class="wpb_single_image wpb_content_element vc_align_center vc_custom_1459169763730">
<figure class="wpb_wrapper vc_figure">
<a href="https://pmlsdpublicschool32.ac.in/"><img alt="logo" class="vc_img-placeholder vc_single_image-img" src="http://pmlsdpublicschool32.ac.in/wp-content/uploads/2016/09/sdlogo3.jpg"/></a>
</figure>
</div>
<div class="vc_separator wpb_content_element vc_separator_align_center vc_sep_width_50 vc_sep_pos_align_center vc_separator_no_text vc_sep_color_grey vc_custom_1459169732301 vc_custom_1459169732301"><span class="vc_sep_holder vc_sep_holder_l"><span class="vc_sep_line"></span></span><span class="vc_sep_holder vc_sep_holder_r"><span class="vc_sep_line"></span></span>
</div></div></div></div></div><div class="vc_row wpb_row vc_row-fluid"><div class="wpb_column vc_column_container vc_col-sm-3 vc_hidden-lg vc_hidden-xs"><div class="vc_column-inner vc_custom_1459778405965"><div class="wpb_wrapper">
<div class="wh-theme-icon vc_custom_1458120462806 " style="font-size:25px;position:absolute;">
<i class="icon-phone-handset"></i>
</div>
<p class="vc_custom_heading vc_custom_1458737539886" style="font-size: 14px;text-align: left">123 456 789</p><p class="vc_custom_heading vc_custom_1456755878099" style="font-size: 14px;line-height: 16px;text-align: left">info@example.com</p></div></div></div><div class="wpb_column vc_column_container vc_col-sm-3 vc_hidden-lg vc_hidden-xs"><div class="vc_column-inner vc_custom_1459778410586"><div class="wpb_wrapper">
<div class="wh-theme-icon vc_custom_1458824073653 " style="font-size:28px;position:absolute;">
<i class="icon-Pin-New"></i>
</div>
<p class="vc_custom_heading vc_custom_1458737546989" style="font-size: 14px;text-align: left">Goldsmith Hall</p><p class="vc_custom_heading vc_custom_1456755889358" style="font-size: 14px;line-height: 16px;text-align: left">New York, NY 90210</p></div></div></div><div class="wpb_column vc_column_container vc_col-sm-3 vc_hidden-lg vc_hidden-xs"><div class="vc_column-inner vc_custom_1459778415275"><div class="wpb_wrapper">
<div class="wh-theme-icon vc_custom_1458824078556 " style="font-size:28px;position:absolute;">
<i class="icon-Clock-New"></i>
</div>
<p class="vc_custom_heading vc_custom_1458824147535" style="font-size: 14px;text-align: left">07:30 - 19:00</p><p class="vc_custom_heading vc_custom_1458824154814" style="font-size: 14px;line-height: 16px;text-align: left">Monday to Friday</p></div></div></div><div class="wpb_column vc_column_container vc_col-sm-3 vc_hidden-lg vc_hidden-xs"><div class="vc_column-inner vc_custom_1459778419846"><div class="wpb_wrapper">
<a class="wh-button wh-header-button" href="/#contact-us "> Schedule a Tour</a>
</div></div></div></div> </div>
<header class="cbp-row wh-header wh-header-inner ">
<div class="wh-main-menu-bar-wrapper wh-sticky-header-enabled">
<div class="cbp-container">
<div class="logo-sticky">
<a href="https://pmlsdpublicschool32.ac.in/">
<img alt="logo" src="http://pmlsdpublicschool32.ac.in/wp-content/uploads/2016/09/sdlogosticky.jpg" width="100"/>
</a>
</div>
<div class="wh-main-menu one whole wh-padding">
<div id="cbp-menu-main">
<div class="menu-main-menu-container"><ul class="sf-menu wh-menu-main pull-left" id="menu-main-menu"><li class="menu-item menu-item-type-post_type menu-item-object-page menu-item-976" id="menu-item-976"><a href="https://pmlsdpublicschool32.ac.in/">Home</a></li>
<li class="menu-item menu-item-type-custom menu-item-object-custom menu-item-has-children menu-item-1052" id="menu-item-1052"><a href="#">About Us</a>
<ul class="sub-menu">
<li class="menu-item menu-item-type-post_type menu-item-object-page menu-item-1058" id="menu-item-1058"><a href="https://pmlsdpublicschool32.ac.in/introduction/">Introduction</a></li>
<li class="menu-item menu-item-type-post_type menu-item-object-page menu-item-1057" id="menu-item-1057"><a href="https://pmlsdpublicschool32.ac.in/principal-desk/">Principal Desk</a></li>
<li class="menu-item menu-item-type-post_type menu-item-object-page menu-item-1056" id="menu-item-1056"><a href="https://pmlsdpublicschool32.ac.in/managing-committee/">Managing Committee</a></li>
<li class="menu-item menu-item-type-post_type menu-item-object-page menu-item-1055" id="menu-item-1055"><a href="https://pmlsdpublicschool32.ac.in/mission-and-vision/">Mission and Vision</a></li>
<li class="menu-item menu-item-type-post_type menu-item-object-page menu-item-1054" id="menu-item-1054"><a href="https://pmlsdpublicschool32.ac.in/staff/">Staff</a></li>
<li class="menu-item menu-item-type-post_type menu-item-object-page menu-item-1053" id="menu-item-1053"><a href="https://pmlsdpublicschool32.ac.in/school-information-cbse/">School Information (CBSE)</a></li>
</ul>
</li>
<li class="menu-item menu-item-type-post_type menu-item-object-page menu-item-has-children menu-item-1155" id="menu-item-1155"><a href="https://pmlsdpublicschool32.ac.in/facilities/">Facilities</a>
<ul class="sub-menu">
<li class="menu-item menu-item-type-post_type menu-item-object-page menu-item-1154" id="menu-item-1154"><a href="https://pmlsdpublicschool32.ac.in/affiliation/">Academics</a></li>
<li class="menu-item menu-item-type-post_type menu-item-object-page menu-item-1153" id="menu-item-1153"><a href="https://pmlsdpublicschool32.ac.in/board-results/">Board Results</a></li>
<li class="menu-item menu-item-type-post_type menu-item-object-page menu-item-1152" id="menu-item-1152"><a href="https://pmlsdpublicschool32.ac.in/infrastructure/">Infrastructure</a></li>
<li class="menu-item menu-item-type-post_type menu-item-object-page menu-item-1151" id="menu-item-1151"><a href="https://pmlsdpublicschool32.ac.in/games-and-sports/">Games and Sports</a></li>
<li class="menu-item menu-item-type-post_type menu-item-object-page menu-item-1150" id="menu-item-1150"><a href="https://pmlsdpublicschool32.ac.in/activities/">Activities</a></li>
</ul>
</li>
<li class="menu-item menu-item-type-custom menu-item-object-custom menu-item-has-children menu-item-1173" id="menu-item-1173"><a href="#">Admission, Fees &amp; Rules</a>
<ul class="sub-menu">
<li class="menu-item menu-item-type-post_type menu-item-object-page menu-item-1172" id="menu-item-1172"><a href="https://pmlsdpublicschool32.ac.in/nursery-admission/">Nursery Admission</a></li>
<li class="menu-item menu-item-type-post_type menu-item-object-page menu-item-1171" id="menu-item-1171"><a href="https://pmlsdpublicschool32.ac.in/admission-fee/">Admission &amp; Fees</a></li>
<li class="menu-item menu-item-type-post_type menu-item-object-page menu-item-1169" id="menu-item-1169"><a href="https://pmlsdpublicschool32.ac.in/rules/">Rules</a></li>
<li class="menu-item menu-item-type-post_type menu-item-object-page menu-item-1170" id="menu-item-1170"><a href="https://pmlsdpublicschool32.ac.in/withdrawls/">Withdrawls</a></li>
</ul>
</li>
<li class="menu-item menu-item-type-custom menu-item-object-custom menu-item-has-children menu-item-1230" id="menu-item-1230"><a href="#">Memories</a>
<ul class="sub-menu">
<li class="menu-item menu-item-type-post_type menu-item-object-page menu-item-1229" id="menu-item-1229"><a href="https://pmlsdpublicschool32.ac.in/our-founder/">Our Founder</a></li>
<li class="menu-item menu-item-type-post_type menu-item-object-page menu-item-1228" id="menu-item-1228"><a href="https://pmlsdpublicschool32.ac.in/roll-of-honour-shinning-star/">Roll of Honour/ Shinning Star</a></li>
<li class="menu-item menu-item-type-post_type menu-item-object-page menu-item-1227" id="menu-item-1227"><a href="https://pmlsdpublicschool32.ac.in/picture-gallery/">Picture Gallery</a></li>
</ul>
</li>
<li class="menu-item menu-item-type-custom menu-item-object-custom menu-item-has-children menu-item-1256" id="menu-item-1256"><a href="#">Calendar</a>
<ul class="sub-menu">
<li class="menu-item menu-item-type-post_type menu-item-object-page menu-item-1255" id="menu-item-1255"><a href="https://pmlsdpublicschool32.ac.in/examination-schedule/">Examination Schedule</a></li>
<li class="menu-item menu-item-type-taxonomy menu-item-object-tribe_events_cat menu-item-1235" id="menu-item-1235"><a href="https://pmlsdpublicschool32.ac.in/events/category/vacations/">Session Details &amp; Holidays</a></li>
</ul>
</li>
<li class="menu-item menu-item-type-custom menu-item-object-custom menu-item-has-children menu-item-1277" id="menu-item-1277"><a href="#">Books &amp; Uniform</a>
<ul class="sub-menu">
<li class="menu-item menu-item-type-post_type menu-item-object-page menu-item-1275" id="menu-item-1275"><a href="https://pmlsdpublicschool32.ac.in/uniform/">Uniform</a></li>
<li class="menu-item menu-item-type-post_type menu-item-object-page menu-item-1274" id="menu-item-1274"><a href="https://pmlsdpublicschool32.ac.in/books/">Books</a></li>
</ul>
</li>
<li class="menu-item menu-item-type-custom menu-item-object-custom menu-item-has-children menu-item-1278" id="menu-item-1278"><a href="#">Our Colleges</a>
<ul class="sub-menu">
<li class="menu-item menu-item-type-post_type menu-item-object-page menu-item-1804" id="menu-item-1804"><a href="https://pmlsdpublicschool32.ac.in/information-brochure/">Information Brochure</a></li>
<li class="menu-item menu-item-type-custom menu-item-object-custom menu-item-1279" id="menu-item-1279"><a href="http://www.ggdsd.ac.in">GGDSD College</a></li>
<li class="menu-item menu-item-type-custom menu-item-object-custom menu-item-1280" id="menu-item-1280"><a href="http://ptmlsdcollege.com/">Pt. Mohan Lal S D College For Women</a></li>
<li class="menu-item menu-item-type-custom menu-item-object-custom menu-item-1281" id="menu-item-1281"><a href="http://pmlsdc.com/">Pt. Mohan Lal S D College For Girls</a></li>
<li class="menu-item menu-item-type-custom menu-item-object-custom menu-item-1282" id="menu-item-1282"><a href="http://www.sdcs.in/kdevi.html">Mrs. Kaushaliya Devi Charitable Institute</a></li>
<li class="menu-item menu-item-type-custom menu-item-object-custom menu-item-1283" id="menu-item-1283"><a href="http://ggdsdkherigurna.in/">GGD SD College, Kheri Gurna</a></li>
</ul>
</li>
<li class="menu-item menu-item-type-post_type menu-item-object-page current_page_parent menu-item-has-children menu-item-1323" id="menu-item-1323"><a href="https://pmlsdpublicschool32.ac.in/news/">News</a>
<ul class="sub-menu">
<li class="menu-item menu-item-type-post_type menu-item-object-page menu-item-1289" id="menu-item-1289"><a href="https://pmlsdpublicschool32.ac.in/sports-news/">Sports News</a></li>
<li class="menu-item menu-item-type-custom menu-item-object-custom menu-item-2115" id="menu-item-2115"><a href="http://pmlsdpublicschool32.ac.in/sports-news/hpe-activities/">HPE Activities</a></li>
</ul>
</li>
<li class="menu-item menu-item-type-post_type menu-item-object-page menu-item-1276" id="menu-item-1276"><a href="https://pmlsdpublicschool32.ac.in/alumni/">Alumni</a></li>
<li class="menu-item menu-item-type-post_type menu-item-object-page menu-item-980" id="menu-item-980"><a href="https://pmlsdpublicschool32.ac.in/contact/">Contact</a></li>
<li class="menu-item menu-item-type-custom menu-item-object-custom menu-item-2147" id="menu-item-2147"><a href="https://pmlsdps.schoolpad.in/enquiryManager/onlineAdmission/10">Online Admission</a></li>
</ul></div></div>
</div>
</div>
</div>
</header>
<div class="cbp-row wh-page-title-bar">
<div class="cbp-container">
<div class="one whole wh-padding wh-page-title-wrapper">
<h1 class="page-title">Not Found</h1>
</div>
</div>
</div>
<div class="cbp-row wh-breadcrumbs-bar">
<div class="cbp-container">
<div class="one whole wh-padding wh-breadcrumbs-wrapper">
<div class="wh-breadcrumbs align-left">
<nav aria-label="Breadcrumbs" class="breadcrumb-trail breadcrumbs"><ul class="trail-items" itemscope="" itemtype="http://schema.org/BreadcrumbList"><li class="trail-item trail-begin" itemprop="itemListElement" itemscope="" itemtype="http://schema.org/ListItem"><a href="https://pmlsdpublicschool32.ac.in" rel="home"><span itemprop="name">Home</span></a><meta content="1" itemprop="position"/></li><li class="trail-item trail-end" itemprop="itemListElement" itemscope="" itemtype="http://schema.org/ListItem"><span itemprop="name">404 Not Found</span><meta content="2" itemprop="position"/></li></ul></nav> </div>
</div>
</div>
</div>
<div class="cbp-row wh-content">
<div class="cbp-container">
<div class="double-padded">
<h1 class="entry-title">This is somewhat embarrassing, isn’t it?</h1>
<p>It seems we can’t find what you’re looking for. Perhaps searching can help.</p>
<form action="https://pmlsdpublicschool32.ac.in/" class="search-form form-inline" method="get" role="search">
<input class="search-field" name="s" placeholder="Search PML SD Public School Sector 32-C, Chandigarh" type="search" value=""/>
<label class="hidden">Search for:</label>
<button class="search-submit" type="submit">Search</button>
</form>
</div>
</div>
</div>
<div class="cbp-container wh-footer">
<div class="vc_row wpb_row vc_row-fluid vc_custom_1459852617004 vc_row-has-fill" data-vc-full-width="true" data-vc-full-width-init="false"><div class="wpb_column vc_column_container vc_col-sm-3"><div class="vc_column-inner vc_custom_1459855724027"><div class="wpb_wrapper">
<div class="wpb_single_image wpb_content_element vc_align_left">
<figure class="wpb_wrapper vc_figure">
<div class="vc_single_image-wrapper vc_box_border_grey"><img alt="sdlogostickyinvert1" class="vc_single_image-img attachment-full" height="60" sizes="(max-width: 180px) 100vw, 180px" src="https://pmlsdpublicschool32.ac.in/wp-content/uploads/2016/02/sdlogostickyinvert1.png" srcset="https://pmlsdpublicschool32.ac.in/wp-content/uploads/2016/02/sdlogostickyinvert1.png 180w, https://pmlsdpublicschool32.ac.in/wp-content/uploads/2016/02/sdlogostickyinvert1-150x50.png 150w" width="180"/></div>
</figure>
</div>
</div></div></div><div class="wpb_column vc_column_container vc_col-sm-3"><div class="vc_column-inner vc_custom_1459855732948"><div class="wpb_wrapper">
<div class="wh-theme-icon vc_custom_1459432656616 " style="font-size:30px;position:absolute;">
<i class="icon-Pin-New"></i>
</div>
<h3 class="vc_custom_heading wh-font-weight-normal wh-footer-big-title vc_custom_1474007683157" style="color: #ffffff;text-align: left"><a href="#">Sector 32-C
Chandigarh</a></h3></div></div></div><div class="wpb_column vc_column_container vc_col-sm-3"><div class="vc_column-inner vc_custom_1459855742539"><div class="wpb_wrapper">
<div class="wh-theme-icon vc_custom_1474362277193 " style="font-size:30px;position:absolute;">
<i class="icon-phone-handset"></i>
</div>
<h3 class="vc_custom_heading wh-font-weight-normal wh-footer-big-title vc_custom_1568790289897" style="color: #ffffff;text-align: left"><a href="">0172-2609669</a></h3></div></div></div><div class="wpb_column vc_column_container vc_col-sm-3"><div class="vc_column-inner "><div class="wpb_wrapper">
<div class="wh-theme-icon vc_custom_1474431305361 " style="font-size:30px;position:absolute;">
<i class="icon-email"></i>
</div>
<h3 class="vc_custom_heading wh-font-weight-normal wh-footer-big-title vc_custom_1474431266718" style="color: #ffffff;text-align: left"><a href="http://pmlsdpublicschool32.ac.in/new/contact/">Contact Us</a></h3></div></div></div></div><div class="vc_row-full-width vc_clearfix"></div><div class="vc_row wpb_row vc_row-fluid vc_custom_1457437609751 vc_row-has-fill" data-vc-full-width="true" data-vc-full-width-init="false"><div class="wpb_column vc_column_container vc_col-sm-12"><div class="vc_column-inner vc_custom_1459852665865"><div class="wpb_wrapper"><div class="vc_separator wpb_content_element vc_separator_align_center vc_sep_width_100 vc_sep_pos_align_center vc_separator_no_text"><span class="vc_sep_holder vc_sep_holder_l"><span class="vc_sep_line" style="border-color:#5a5c60;"></span></span><span class="vc_sep_holder vc_sep_holder_r"><span class="vc_sep_line" style="border-color:#5a5c60;"></span></span>
</div></div></div></div></div><div class="vc_row-full-width vc_clearfix"></div><div class="vc_row wpb_row vc_row-fluid" data-vc-full-width="true" data-vc-full-width-init="false"><div class="wpb_column vc_column_container vc_col-sm-6"><div class="vc_column-inner vc_custom_1459844282139"><div class="wpb_wrapper"><p class="vc_custom_heading" style="font-size: 15px;color: #000000;text-align: left">@2016 PML SD Public School</p></div></div></div><div class="wpb_column vc_column_container vc_col-sm-6 vc_hidden-xs"><div class="vc_column-inner vc_custom_1459844288411"><div class="wpb_wrapper"><p class="vc_custom_heading" style="font-size: 15px;color: #000000;text-align: right">Designed By Gene Byte</p></div></div></div></div><div class="vc_row-full-width vc_clearfix"></div> </div>
<script type="text/javascript">
	//<![CDATA[
    jQuery(document).ready(function($) { 
    	$('html').MagicLiquidizerTable({ whichelement: 'table', breakpoint: '780', table: '1' })
    })
	//]]>
</script>
<script>
		( function ( body ) {
			'use strict';
			body.className = body.className.replace( /\btribe-no-js\b/, 'tribe-js' );
		} )( document.body );
		</script>
<script type="text/javascript"> /* <![CDATA[ */var tribe_l10n_datatables = {"aria":{"sort_ascending":": activate to sort column ascending","sort_descending":": activate to sort column descending"},"length_menu":"Show _MENU_ entries","empty_table":"No data available in table","info":"Showing _START_ to _END_ of _TOTAL_ entries","info_empty":"Showing 0 to 0 of 0 entries","info_filtered":"(filtered from _MAX_ total entries)","zero_records":"No matching records found","search":"Search:","pagination":{"all":"All","next":"Next","previous":"Previous"},"select":{"rows":{"0":"","_":": Selected %d rows","1":": Selected 1 row"}},"datepicker":{"dayNames":["Sunday","Monday","Tuesday","Wednesday","Thursday","Friday","Saturday"],"dayNamesShort":["Sun","Mon","Tue","Wed","Thu","Fri","Sat"],"dayNamesMin":["S","M","T","W","T","F","S"],"monthNames":["January","February","March","April","May","June","July","August","September","October","November","December"],"monthNamesShort":["January","February","March","April","May","June","July","August","September","October","November","December"],"nextText":"Next","prevText":"Prev","currentText":"Today","closeText":"Done"}};/* ]]> */ </script>
<style type="text/css">
    #wpfront-notification-bar 
    {
        background: #888888;
        background: -moz-linear-gradient(top, #888888 0%, #000000 100%);
        background: -webkit-gradient(linear, left top, left bottom, color-stop(0%,#888888), color-stop(100%,#000000));
        background: -webkit-linear-gradient(top, #888888 0%,#000000 100%);
        background: -o-linear-gradient(top, #888888 0%,#000000 100%);
        background: -ms-linear-gradient(top, #888888 0%,#000000 100%);
        background: linear-gradient(to bottom, #888888 0%, #000000 100%);
        filter: progid:DXImageTransform.Microsoft.gradient( startColorstr='#888888', endColorstr='#000000',GradientType=0 );
    }

    #wpfront-notification-bar div.wpfront-message
    {
        color: #ffffff;
    }

    #wpfront-notification-bar a.wpfront-button
    {
        background: #00b7ea;
        background: -moz-linear-gradient(top, #00b7ea 0%, #009ec3 100%);
        background: -webkit-gradient(linear, left top, left bottom, color-stop(0%,#00b7ea), color-stop(100%,#009ec3));
        background: -webkit-linear-gradient(top, #00b7ea 0%,#009ec3 100%);
        background: -o-linear-gradient(top, #00b7ea 0%,#009ec3 100%);
        background: -ms-linear-gradient(top, #00b7ea 0%,#009ec3 100%);
        background: linear-gradient(to bottom, #00b7ea 0%, #009ec3 100%);
        filter: progid:DXImageTransform.Microsoft.gradient( startColorstr='#00b7ea', endColorstr='#009ec3',GradientType=0 );

        color: #ffffff;
    }

    #wpfront-notification-bar-open-button
    {
        background-color: #00b7ea;
    }

    #wpfront-notification-bar  div.wpfront-close 
    {
        border: 1px solid #555555;
        background-color: #555555;
        color: #000000;
    }

    #wpfront-notification-bar  div.wpfront-close:hover 
    {
        border: 1px solid #aaaaaa;
        background-color: #aaaaaa;
    }
</style>
<div id="wpfront-notification-bar-spacer" style="display: none;">
<div class="top wpfront-bottom-shadow" id="wpfront-notification-bar-open-button"></div>
<div class="wpfront-fixed " id="wpfront-notification-bar">
<table border="0" cellpadding="0" cellspacing="0">
<tr>
<td>
<div class="wpfront-message">
                        Online Admissions                    </div>
<div>
<a class="wpfront-button" href="https://pmlsdps.schoolpad.in/enquiryManager/onlineAdmission/11" target="_blank">Click here</a>
</div>
</td>
</tr>
</table>
</div>
</div>
<style type="text/css">
</style>
<script type="text/javascript">if(typeof wpfront_notification_bar == "function") wpfront_notification_bar({"position":1,"height":0,"fixed_position":"on","animate_delay":0.5,"close_button":false,"button_action_close_bar":false,"auto_close_after":0,"display_after":1,"is_admin_bar_showing":false,"display_open_button":false,"keep_closed":false,"keep_closed_for":0,"position_offset":0,"display_scroll":false,"display_scroll_offset":100});</script><link href="https://pmlsdpublicschool32.ac.in/wp-content/plugins/js_composer/assets/css/js_composer.min.css?ver=4.12" id="js_composer_front-css" media="all" rel="stylesheet" type="text/css"/>
<link href="//fonts.googleapis.com/css?family=Abril+Fatface%3Aregular&amp;ver=4.6.20" id="vc_google_fonts_abril_fatfaceregular-css" media="all" rel="stylesheet" type="text/css"/>
<script src="https://pmlsdpublicschool32.ac.in/wp-content/plugins/contact-form-7/includes/js/jquery.form.min.js?ver=3.51.0-2014.06.20" type="text/javascript"></script>
<script type="text/javascript">
/* <![CDATA[ */
var _wpcf7 = {"recaptcha":{"messages":{"empty":"Please verify that you are not a robot."}}};
/* ]]> */
</script>
<script src="https://pmlsdpublicschool32.ac.in/wp-content/plugins/contact-form-7/includes/js/scripts.js?ver=4.7" type="text/javascript"></script>
<script src="https://pmlsdpublicschool32.ac.in/wp-content/plugins/school-time-plugin//public/js/linp-main.js?ver=4.6.20" type="text/javascript"></script>
<script src="https://pmlsdpublicschool32.ac.in/wp-content/themes/school-time/assets/js/wheels-plugins.min.js" type="text/javascript"></script>
<script src="https://pmlsdpublicschool32.ac.in/wp-content/themes/school-time/assets/js/wheels-main.min.js" type="text/javascript"></script>
<script src="https://pmlsdpublicschool32.ac.in/wp-includes/js/wp-embed.min.js?ver=4.6.20" type="text/javascript"></script>
<script src="https://pmlsdpublicschool32.ac.in/wp-content/plugins/js_composer/assets/js/dist/js_composer_front.min.js?ver=4.12" type="text/javascript"></script>
<script id="tmpl-tribe_customizer_css" type="text/css">.tribe-events-list .tribe-events-loop .tribe-event-featured,
				.tribe-events-list #tribe-events-day.tribe-events-loop .tribe-event-featured,
				.type-tribe_events.tribe-events-photo-event.tribe-event-featured .tribe-events-photo-event-wrap,
				.type-tribe_events.tribe-events-photo-event.tribe-event-featured .tribe-events-photo-event-wrap:hover {
					background-color: #0ea0d7;
				}

				#tribe-events-content table.tribe-events-calendar .type-tribe_events.tribe-event-featured {
					background-color: #0ea0d7;
				}

				.tribe-events-list-widget .tribe-event-featured,
				.tribe-events-venue-widget .tribe-event-featured,
				.tribe-mini-calendar-list-wrapper .tribe-event-featured,
				.tribe-events-adv-list-widget .tribe-event-featured .tribe-mini-calendar-event {
					background-color: #0ea0d7;
				}

				.tribe-grid-body .tribe-event-featured.tribe-events-week-hourly-single {
					background-color: rgba(14,160,215, .7 );
					border-color: #0ea0d7;
				}

				.tribe-grid-body .tribe-event-featured.tribe-events-week-hourly-single:hover {
					background-color: #0ea0d7;
				}</script><style id="tribe_customizer_css" type="text/css">.tribe-events-list .tribe-events-loop .tribe-event-featured,
				.tribe-events-list #tribe-events-day.tribe-events-loop .tribe-event-featured,
				.type-tribe_events.tribe-events-photo-event.tribe-event-featured .tribe-events-photo-event-wrap,
				.type-tribe_events.tribe-events-photo-event.tribe-event-featured .tribe-events-photo-event-wrap:hover {
					background-color: #0ea0d7;
				}

				#tribe-events-content table.tribe-events-calendar .type-tribe_events.tribe-event-featured {
					background-color: #0ea0d7;
				}

				.tribe-events-list-widget .tribe-event-featured,
				.tribe-events-venue-widget .tribe-event-featured,
				.tribe-mini-calendar-list-wrapper .tribe-event-featured,
				.tribe-events-adv-list-widget .tribe-event-featured .tribe-mini-calendar-event {
					background-color: #0ea0d7;
				}

				.tribe-grid-body .tribe-event-featured.tribe-events-week-hourly-single {
					background-color: rgba(14,160,215, .7 );
					border-color: #0ea0d7;
				}

				.tribe-grid-body .tribe-event-featured.tribe-events-week-hourly-single:hover {
					background-color: #0ea0d7;
				}</style></body>
</html>
