<!DOCTYPE html>
<html lang="en">
<head>
<meta charset="utf-8"/>
<meta content="IE=edge" http-equiv="X-UA-Compatible"/>
<meta content="width=device-width, initial-scale=1.0" name="viewport"/>
<meta content="The AMS is a global community committed to advancing weather, water, and climate science and service." name="description"/>
<meta content="" name="keywords"/>
<meta content="Home" property="og:title"/>
<meta content="website" property="og:type"/>
<meta content="The AMS is a global community committed to advancing weather, water, and climate science and service.


	
		
 
	

	
 
" property="og:description"/>
<meta content="https://www.ametsoc.org/themes/ametsoc-new/images/AMSlogoC-web.png" property="og:image"/>
<meta content="https://www.ametsoc.org/index.cfm/ams/" property="og:url"/>
<meta content="American Meteorological Society" property="og:site_name"/>
<link href="/ams/images/favicon.ico" rel="shortcut icon"/>
<link href="https://fonts.googleapis.com/css?family=Lato:400,700|PT+Sans:400,400i,700,700i&amp;display=swap" rel="stylesheet"/>
<title>Home - American Meteorological Society</title>
<link href="/core/modules/v1/core_assets/css/mura.7.1.min.css?v=7.1.269" rel="stylesheet"/>
<script crossorigin="anonymous" src="https://kit.fontawesome.com/5e2e479e97.js"></script>
<link href="/themes/ametsoc-new/compiled/bootstrap.min.css" rel="stylesheet"/>
<link href="/themes/ametsoc-new/dist/style.32b96cb1b4ffbc22619d.css?bb2a31dafccfb0e114f0" rel="stylesheet"/>
<!-- HTML5 shim and Respond.js IE8 -->
<!--[if lt IE 9]>	
            <script src="/themes/ametsoc-new/js/html5shiv/html5shiv.js"></script>	
            <script src="/themes/ametsoc-new/js/respond/respond.min.js"></script>	
        <![endif]-->
<script>
            if(window.document.documentMode){
                var fetchPolyfill = document.createElement('script');
                fetchPolyfill.type="text/javascript"
                fetchPolyfill.src = "/themes/ametsoc-new/compiled/fetch.umd.js"
                document.head.appendChild(fetchPolyfill)
            }
        </script>
<script src="/themes/ametsoc-new/js/libraries/jquery-3.3.1.min.js"></script>
<script src="/themes/ametsoc-new/compiled/bootstrap.bundle.min.js"></script>
<script>
            (function(i, s, o, g, r, a, m) { i['GoogleAnalyticsObject'] = r;
                i[r] = i[r] || function() {
                    (i[r].q = i[r].q || []).push(arguments) }, i[r].l = 1 * new Date();
                a = s.createElement(o), m = s.getElementsByTagName(o)[0];
                a.async = 1;
                a.src = g;
                m.parentNode.insertBefore(a, m) })(window, document, 'script', '//www.google-analytics.com/analytics.js', 'ga');
            ga('create', 'UA-64878395-2', 'auto', { 'allowLinker': true });
            ga('require', 'linker');
            ga('linker:autoLink', ['ams.confex.com, climatepolicy.org, livingontherealworld.org, amspolicyforum.org']);
            ga('send', 'pageview');
        </script>
<script type="text/javascript">
            setTimeout(function() { var a = document.createElement("script"); var b = document.getElementsByTagName("script")[0];
                a.src = document.location.protocol + "//script.crazyegg.com/pages/scripts/0021/7498.js?" + Math.floor(new Date().getTime() / 3600000);
                a.async = true;
                a.type = "text/javascript";
                b.parentNode.insertBefore(a, b) }, 1);
        </script>
<script type="application/ld+json">
            { "@context": "https://schema.org", "@type": "Organization", "name": "American Meteorological Society", "url": "https://www.ametsoc.org/", "sameAs": ["http://www.facebook.com/ametsoc", "http://www.twitter.com/ametsoc"] }
        </script>
<script>
            //-------------------------------------------------------
            var z_account = "A1A5A53C-1010-442C-A904-54A296A6381F";
            var z_collector = "AMETSOC.informz.net";
            var z_cookieDomain = ".ametsoc.org";
            //-------------------------------------------------------
            (function(e, o, n, r, t, a, s) { e[t] || (e.GlobalSnowplowNamespace = e.GlobalSnowplowNamespace || [], e.GlobalSnowplowNamespace.push(t), e[t] = function() {
                    (e[t].q = e[t].q || []).push(arguments) }, e[t].q = e[t].q || [], a = o.createElement(n), s = o.getElementsByTagName(n)[0], a.async = 1, a.src = r, s.parentNode.insertBefore(a, s)) }(window, document, "script", "https://" + z_collector + "/web_trk/sp.js", "informz_trk")), informz_trk("newTracker", "infz", z_collector + "/web_trk/collector/", { appId: z_account, cookieDomain: z_cookieDomain }), informz_trk("setUserIdFromLocation", "_zs"), informz_trk("enableActivityTracking", 30, 15);
            informz_trk("trackPageView", null);
        </script>
<script async="async" src="https://www.googletagservices.com/tag/js/gpt.js"></script>
<script>
                var googletag = googletag || {};
                googletag.cmd = googletag.cmd || [];
            </script>
<script>
                googletag.cmd.push(function() {
                    googletag.defineSlot('/124432009/DFP_ams_careers', [160, 600], 'div-gpt-ad-1511279559046-0').addService(googletag.pubads());
                    googletag.pubads().enableSingleRequest();
                    googletag.enableServices();
                });
            </script>
<script src="https://cdn.jsdelivr.net/npm/vue@2.6.11"></script>
<script defer="defer" src="/core/modules/v1/core_assets/js/mura.min.js?v=7.1.269" type="text/javascript"></script>
<script>
(function(root,config){root.queuedMuraCmds=[],root.queuedMuraPreInitCmds=[],root.deferMuraInit=function(){void 0!==root.Mura&&"function"==typeof root.Mura.init?root.Mura.init(config):("function"!=typeof root.Mura&&(root.mura=root.m=root.Mura=function(o){root.queuedMuraCmds.push(o)},root.Mura.preInit=function(o){root.queuedMuraPreInitCmds.push(o)}),setTimeout(root.deferMuraInit))},root.deferMuraInit();}
)(this,{
loginURL:"?display=login",
siteid:"ams",
contentid:"00000000000000000000000000000000001",
contenthistid:"7AB478A3-9877-96C1-6E49AEFE1E28E3A2",
parentid:"00000000000000000000000000000000END",
context:"",
nocache:0,
assetpath:"/ams",
corepath:"/core",
themepath:"/themes/ametsoc-new",
reCAPTCHALanguage:"en",
preloaderMarkup: "\x3Ci\x20class\x3D\x22mura\x2Dpreloader\x20fa\x20fa\x2Drefresh\x20fa\x2Dspin\x22\x3E\x3C\x2Fi\x3E",
mobileformat: false,
windowdocumentdomain: "",
layoutmanager:true,
type:"Page",
subtype:"Default",
queueObjects: true,
rb:{"formcheckboxlabelclass":"form-check-label","formgeneralcontrolclass":"form-control","formrequiredlabel":"Required","formcheckboxclass":"form-check-input","formradiolabelclass":"form-check-label","formbuttoncancelclass":"form-cancel btn btn-danger","formwrapperbodyclass":"","formbuttonsubmitclass":"form-submit  btn-primary","formtextareaclass":"form-control","formfileclass":"form-control","formbuttoninnerclass":"","formbuttonwrapperclass":"btn-group","formrequiredwrapperclass":"","formbuttonnextlclass":"form-nav","formbuttonclass":"btn btn-primary","formbuttonnextlabel":"Next","formradioclass":"form-check-input","formbuttomsubmitclass":"form-submit btn btn-primary","formfieldlabelclass":"control-label","formbuttonbacklabel":"Back","formwrapperclass":"","formerrorwrapperclass":"","formradiowrapperclass":"form-check","formbuttonbackclass":"form-nav","formresponsewrapperclass":"","formselectclass":"form-control","generalwrapperbodyclass":"","formcheckboxwrapperclass":"form-check","generalwrapperclass":"","forminputclass":"form-control","formfieldwrapperclass":"form-group","formbuttonsubmitlabel":"Submit","formbuttoncancellabel":"Cancel"},
dtExample:"11/10/2024",
dtCh:"/",
dtFormat:[0,1,2],
dtLocale:"en-US"
});
</script>
<link href="/modules/portal/dist/portal.css" rel="stylesheet"/>
<script src="/plugins/AMSCore/includes/js/keep-alive.js"></script></head>
<body class="home" id="homepage">
<!-- Header Include -->
<header id="header">
<div class="mura-region"><div class="mura-region-local"></div></div>
<div class="alert-warning p-5" id="ie-warning" style="display:none">
</div>
<script>
            
            var cfIsLoggedIn = "false";
;


        
            if (window.document.documentMode) {
                var ieWarningText = document.getElementById('ie-warning');
                ieWarningText.insertAdjacentHTML('afterbegin', '<p><strong>Attention Internet Explorer User:</strong> Parts of this website use modern JavaScript, modern CSS, and other features that are not fully supported by Internet Explorer.</p>  <p>Please use a modern browser for more security, speed and the best experience on this site, such as <a href="https://www.google.com/chrome/">Chrome</a>, <a href="https://www.mozilla.org/en-US/firefox/new/">Firefox</a>, or Microsoft Edge.</p>');
                ieWarningText.style.display = 'block';
            }
        </script>
<noscript>
<div class="alert-warning pb-1 pt-3">
<p class="text-center">You seem to have JavaScript disabled on your browser. Since parts of this website are written in JavaScript, please renable it in order to have the best experience possible.</p>
</div>
</noscript>
<nav class="navbar navbar-main navbar-expand-lg navbar-light bg-light pb-0 d-lg-flex align-items-stretch" id="primaryMegaMenu">
<a :href="isExternalSite ? 'https://www.ametsoc.org' : '/' " class="navbar-brand">
<h1><img alt="American Meteorological Society" src="https://www.ametsoc.org/themes/ametsoc-new/images/AMSlogoFull-web.png" width="200"/></h1>
</a>
<button aria-controls="primaryNavigation" aria-expanded="false" aria-label="Toggle navigation" class="navbar-toggler collapsed align-self-center" data-target="#primaryNavigation" data-toggle="collapse" type="button">
<span class="icon-bar top-bar"></span>
<span class="icon-bar middle-bar"></span>
<span class="icon-bar bottom-bar"></span>
</button>
<div class="collapse navbar-collapse flex-grow-1 align-items-stretch" id="primaryNavigation">
<ul class="navbar-nav align-items-stretch" v-cloak="" v-if="pageIsLoaded">
<megamenu-section :is-logged-in="isLoggedIn" :member-details="memberDetails" :mobile-mode="mobileMode" :show-link="showLinks" :show-section="'membership-mega' === sectionToShow" :status="status" figure-caption="&lt;p&gt;Stand up for weather, water, and climate science!&lt;br/&gt;&lt;a class='read-more' href='/index.cfm/ams/membership/'&gt;Become an AMS member today&lt;/a&gt;&lt;br/&gt;&lt;a href='https://amsweatherband.org/index.cfm/weatherband/' class='read-more'&gt;Explore AMS Weather Band&lt;/a&gt;&lt;br/&gt;&lt;a class='read-more' href='/index.cfm/ams/membership/ams-lands-end-apparel/'&gt;AMS Lands' End Merchandise&lt;/a&gt;&lt;/p&gt;" first-line="Membership" image-alt-text="Group of members" image-source="https://www.ametsoc.org/ams/cache/file/C19A7BC3-A7C6-4808-AA13106A787DD69C.jpg" main-link="/index.cfm/ams/membership" second-line="&amp; Giving" section-id="membership-mega">
<div class="p-lg-5 megamenu-list">
<h3>Membership</h3>
<ul class="nav flex-column">
<li class="nav-item"><a class="nav-link" href="https://members.ametsoc.org/eweb">Join AMS</a></li>
<li class="nav-item"><a class="nav-link" href="https://community.ametsoc.org/home">AMS Community</a></li>
<li class="nav-item"><relative-link class-name="nav-link" link-path="/index.cfm/ams/membership/ams-member-resources/" link-text="Member Resources"></relative-link></li>
<li class="nav-item"><relative-link class-name="nav-link" link-path="/index.cfm/ams/education-careers/careers/ams-professional-certification-programs/manage-my-ams-certification/" link-text="Manage My AMS Certification"></relative-link></li>
<li class="nav-item"><relative-link class-name="nav-link" link-path="/index.cfm/ams/membership/ams-corporation-and-institutional-membership/" link-text="Corporate and Institutional Members"></relative-link></li>
<li class="nav-item"><relative-link class-name="nav-link" link-path="/index.cfm/ams/membership/memberships-for/students-early-career/" link-text="Students &amp; Early Careers"></relative-link></li>
<li class="nav-item"><relative-link class-name="nav-link" link-path="/index.cfm/ams/membership/memberships-for/professionals/" link-text="Professionals"></relative-link></li>
<li class="nav-item"><relative-link class-name="nav-link" link-path="/index.cfm/ams/membership/memberships-for/associates/" link-text="Associates"></relative-link></li>
<li class="nav-item"><relative-link class-name="nav-link" link-path="/index.cfm/ams/about-ams/ams-organization-and-administration/ams-code-of-conduct/" link-text="AMS Code of Conduct"></relative-link></li>
</ul>
</div>
<div class="p-lg-5 megamenu-list">
<h3>Giving</h3>
<ul class="nav flex-column">
<li class="nav-item"><a class="nav-link" href="https://www.ametsoc.org/giving/">Donate</a></li>
<li class="nav-item"><a class="nav-link" href="https://www.ametsoc.org/index.cfm/ams100/giving/giving-levels-and-funds/">Giving Levels and Funds</a></li>
<li class="nav-item"><a class="nav-link" href="https://www.ametsoc.org/index.cfm/ams100/giving/other-estate-gifts/">Other Estate Gifts</a></li>
<li class="nav-item"><a class="nav-link" href="https://www.ametsoc.org/index.cfm/ams100/giving/give-a-gift-and-receive-an-income-back/">Give a Gift and Receive an Income Back</a></li>
<li class="nav-item"><a class="nav-link" href="https://www.ametsoc.org/index.cfm/ams100/giving/use-appreciated-assets/">Use Appreciated Assets</a></li>
<li class="nav-item"><a class="nav-link" href="https://www.ametsoc.org/index.cfm/ams100/giving/giving-stories/">Giving Stories</a></li>
<li class="nav-item"><a class="nav-link" href="https://www.ametsoc.org/index.cfm/ams100/giving/">AMS Giving Program</a></li>
</ul>
</div>
</megamenu-section>
<megamenu-section :is-logged-in="isLoggedIn" :member-details="memberDetails" :mobile-mode="mobileMode" :show-link="showLinks" :show-section="'publications-mega' === sectionToShow" :status="status" figure-caption='&lt;p&gt;&lt;strong&gt;Submit to our journals&lt;/strong&gt;. Our high impact, editorial quality and speed, and choice of open access are why AMS journals are the ideal place to share your research with the world. &lt;a class="read-more" href="/index.cfm/ams/publications/why-publish-with-ams/"&gt;Why publish with AMS&lt;/a&gt;&lt;/p&gt;' first-line="Journals &amp;" image-alt-text="Journal covers" image-source="https://www.ametsoc.org/ams/cache/file/88637311-9FD1-00F7-9A51BAAB97FD793A.jpg" main-link="/index.cfm/ams/publications" second-line="Publications" section-id="publications-mega">
<div class="p-lg-5 megamenu-list">
<h3>Our Publications</h3>
<ul class="nav flex-column">
<li class="nav-item"><a class="nav-link" href="https://journals.ametsoc.org/">Journals Online</a></li>
<li class="nav-item"><relative-link class-name="nav-link" link-path="/index.cfm/ams/publications/journals/" link-text="Journals and Monographs"></relative-link></li>
<li class="nav-item"><relative-link class-name="nav-link" link-path="/index.cfm/ams/publications/journals/bulletin-of-the-american-meteorological-society/" link-text="&lt;em&gt;Bulletin of the American Meteorological Society&lt;/em&gt; (&lt;em&gt;BAMS&lt;/em&gt;)"></relative-link></li>
<li class="nav-item"><a class="nav-link" href="http://glossary.ametsoc.org/">Glossary of Meteorology</a></li>
<li class="nav-item"><a class="nav-link" href="https://journals.ametsoc.org/page/collections/">Special Collections</a></li>
<li class="nav-item"><a class="nav-link" href="https://bookstore.ametsoc.org/">AMS Bookstore</a></li>
<li class="nav-item"><relative-link class-name="nav-link" link-path="/index.cfm/ams/publications/subscription-information/" link-text="Subscription Information"></relative-link></li>
<li class="nav-item"><relative-link class-name="nav-link" link-path="/index.cfm/ams/publications/about-ams-publications/" link-text="About AMS Publications"></relative-link></li>
</ul>
</div>
<div class="p-lg-5 megamenu-list">
<h3>Publishing with AMS</h3>
<ul class="nav flex-column">
<li class="nav-item"><relative-link class-name="nav-link" link-path="/index.cfm/ams/publications/authors/journal-and-bams-authors/submit-manuscript/" link-text="Submit a Manuscript"></relative-link></li>
<li class="nav-item"><relative-link class-name="nav-link" link-path="/index.cfm/ams/publications/authors/" link-text="Author Resources"></relative-link></li>
<li class="nav-item"><relative-link class-name="nav-link" link-path="/index.cfm/ams/publications/benefits-of-publishing-with-ams/" link-text="Why Publish with AMS"></relative-link></li>
<li class="nav-item"><relative-link class-name="nav-link" link-path="/index.cfm/ams/publications/editors-and-reviewers/" link-text="For Editors and Reviewers"></relative-link></li>
<li class="nav-item"><relative-link class-name="nav-link" link-path="/index.cfm/ams/publications/ethical-guidelines-and-ams-policies/" link-text="Ethical Guidelines and AMS Policies"></relative-link></li>
<li class="nav-item"><relative-link class-name="nav-link" link-path="/index.cfm/ams/publications/ams-publications-commission-reports/" link-text="Publications Commission Reports"></relative-link></li>
<li class="nav-item"><relative-link class-name="nav-link" link-path="/index.cfm/ams/publications/advertising-in-ams-publications/" link-text="Advertising"></relative-link></li>
<li class="nav-item"><relative-link class-name="nav-link" link-path="/index.cfm/ams/publications/contacts/" link-text="Contact AMS Publications"></relative-link></li>
</ul>
</div>
</megamenu-section>
<megamenu-section :is-logged-in="isLoggedIn" :member-details="memberDetails" :mobile-mode="mobileMode" :show-link="showLinks" :show-section="'meetings-mega' === sectionToShow" :status="status" first-line="Meetings" main-link="/index.cfm/ams/meetings-events" second-line="&amp; Events" section-id="meetings-mega">
<div class="p-lg-5 megamenu-list">
<h3>Annual Meeting</h3>
<ul class="nav flex-column">
<li class="nav-item"><a class="nav-link" href="https://tools.eventpower.com/event_app/display/index/21AMS"><strong>Enter Meeting <i class="fas fa-sign-in-alt"></i></strong></a></li>
<li class="nav-item"><relative-link class-name="nav-link" link-path="/index.cfm/2021/" link-text="Annual Home"></relative-link></li>
<li class="nav-item"><relative-link class-name="nav-link" link-path="/index.cfm/2021/registration/" link-text="Registration"></relative-link></li>
<li class="nav-item"><a class="nav-link" href="https://ams.confex.com/ams/101ANNUAL/meetingapp.cgi/Home/0">Program</a></li>
<li class="nav-item"><relative-link class-name="nav-link" link-path="/index.cfm/2021/about-the-meeting/faq-for-virtual-elements-of-the-annual-meeting/" link-text="FAQs for the Annual"></relative-link></li>
<li class="nav-item"><relative-link class-name="nav-link" link-path='/index.cfm/2021/program-events/dont-miss-sessions/"' link-text="Don't Miss Sessions"></relative-link></li>
<li class="nav-item"><relative-link class-name="nav-link" link-path="/index.cfm/2021/program-events/dont-miss-events/" link-text="Don't Miss Events"></relative-link></li>
</ul>
</div>
<div class="p-lg-5 megamenu-list">
<h3>Attend a Meeting</h3>
<ul class="nav flex-column">
<li class="nav-item"><relative-link class-name="nav-link" link-path="/index.cfm/AMS/meetings-events/upcoming-meetings/" link-text="Upcoming Meetings"></relative-link></li>
<li class="nav-item"><relative-link class-name="nav-link" link-path="/index.cfm/AMS/meetings-events/past-meetings/" link-text="Past Meetings"></relative-link></li>
<li class="nav-item"><relative-link class-name="nav-link" link-path="/index.cfm/AMS/meetings-events/registration/" link-text="Registration"></relative-link></li>
<li class="nav-item"><relative-link class-name="nav-link" link-path="/index.cfm/AMS/meetings-events/attendees/" link-text="Attendees"></relative-link></li>
<li class="nav-item"><relative-link class-name="nav-link" link-path="/index.cfm/AMS/meetings-events/short-courses/" link-text="Short Course Information"></relative-link></li>
<li class="nav-item"><relative-link class-name="nav-link" link-path="/index.cfm/AMS/meetings-events/contacts1/" link-text="Contacts"></relative-link></li>
</ul>
</div>
<div class="p-lg-5 megamenu-list">
<h3>Participate</h3>
<ul class="nav flex-column">
<li class="nav-item"><relative-link class-name="nav-link" link-path="/index.cfm/AMS/meetings-events/abstract-author-and-presenter-information/" link-text="Abstract Authors &amp; Presenters"></relative-link></li>
<li class="nav-item"><relative-link class-name="nav-link" link-path="/index.cfm/AMS/meetings-events/ams-meeting-opportunities-for-students/" link-text="Opportunities for Students"></relative-link></li>
<li class="nav-item"><relative-link class-name="nav-link" link-path="/index.cfm/AMS/meetings-events/program-chair-resource-page-specialty-meetings/" link-text="Program Chair Resource Page - Specialty Meetings"></relative-link></li>
<li class="nav-item"><relative-link class-name="nav-link" link-path="/index.cfm/AMS/meetings-events/exhibitor-and-sponsorship-information/" link-text="Exhibitors &amp; Sponsors"></relative-link></li>
<li class="nav-item"><relative-link class-name="nav-link" link-path="/index.cfm/AMS/meetings-events/presenters-corner/" link-text="Presenter's Corner"></relative-link></li>
</ul>
</div>
</megamenu-section>
<megamenu-section :is-logged-in="isLoggedIn" :member-details="memberDetails" :mobile-mode="mobileMode" :show-link="showLinks" :show-section="'education-mega' === sectionToShow" :status="status" figure-caption="Explore the physical foundations of oceanography in Chestertown, Maryland. &lt;a class='read-more' href='/index.cfm/ams/education-careers/education-program/k-12-teachers/#summer'&gt;Project Ocean&lt;/a&gt;" first-line="Education" image-alt-text="Datastream" image-source="https://www.ametsoc.org/themes/ametsoc-new/images/edu-mega.jpg" main-link="/index.cfm/ams/education-careers" second-line="&amp; Careers" section-id="education-mega">
<div class="p-lg-5 w-75">
<h3>Education</h3>
<div class="d-lg-flex">
<div class="flex-fill megamenu-list">
<h4 class="mt-1"><relative-link link-path="/ams/index.cfm/education-careers/education-program/k-12-teachers/" link-text="K-12 Teachers"></relative-link></h4>
<ul class="nav flex-column">
<li class="nav-item"><relative-link class-name="nav-link" link-path="/index.cfm/ams/education-careers/education-program/k-12-teachers/project-atmosphere/" link-text="Project Atmosphere"></relative-link></li>
<li class="nav-item"><relative-link class-name="nav-link" link-path="/index.cfm/ams/education-careers/education-program/k-12-teachers/project-ocean/" link-text="Project Ocean"></relative-link></li>
<li class="nav-item"><relative-link class-name="nav-link" link-path="/index.cfm/ams/education-careers/education-program/k-12-teachers/datastreme-program/datastreme-atmosphere/" link-text="DataStreme Atmosphere "></relative-link></li>
<li class="nav-item"><relative-link class-name="nav-link" link-path="/index.cfm/ams/education-careers/education-program/k-12-teachers/datastreme-program/datastreme-ocean/" link-text="DataStreme Ocean"></relative-link></li>
<li class="nav-item"><relative-link class-name="nav-link" link-path="/index.cfm/ams/education-careers/education-program/k-12-teachers/datastreme-program/datastreme-earth-s-climate-system/" link-text="DataStreme Earth's Climate System"></relative-link></li>
<li class="nav-item"><relative-link class-name="nav-link" link-path="/ams/index.cfm/education-careers/education-program/weather-resources/" link-text="Weather Resources"></relative-link></li>
</ul>
</div>
<div class="flex-fill megamenu-list">
<h4 class="mt-1"><relative-link link-path="/ams/index.cfm/education-careers/education-program/undergraduate-faculty/" link-text="Undergraduate Faculty"></relative-link></h4>
<ul class="nav flex-column">
<li class="nav-item"><relative-link class-name="nav-link" link-path="/index.cfm/ams/education-careers/education-program/undergraduate-faculty/weather-studies/" link-text="Weather Studies"></relative-link></li>
<li class="nav-item"><relative-link class-name="nav-link" link-path="/index.cfm/ams/education-careers/education-program/undergraduate-faculty/ocean-studies/" link-text="Ocean Studies"></relative-link></li>
<li class="nav-item"><relative-link class-name="nav-link" link-path="/index.cfm/ams/education-careers/education-program/undergraduate-faculty/climate-studies/" link-text="Climate Studies"></relative-link></li>
</ul>
</div>
</div>
</div>
<div class="pt-lg-5 megamenu-list w-25">
<h3>Careers</h3>
<ul class="nav flex-column ">
<li class="nav-item"><relative-link class-name="nav-link" link-path="/index.cfm/ams/education-careers/careers/career-guides-tools/all-about-careers-in-meteorology/" link-text="All About Careers in Meteorology"></relative-link></li>
<li class="nav-item"><relative-link class-name="nav-link" link-path="/index.cfm/ams/education-careers/careers/career-guides-tools/" link-text="Career Guides &amp; Tools"></relative-link></li>
<li class="nav-item"><relative-link class-name="nav-link" link-path="/index.cfm/ams/education-careers/jobs-and-internships/" link-text="Jobs and Internships"></relative-link></li>
<li class="nav-item"><relative-link class-name="nav-link" link-path="/index.cfm/ams/education-careers/careers/mentoring/" link-text="Mentoring"></relative-link></li>
<li class="nav-item"><relative-link class-name="nav-link" link-path="/index.cfm/ams/education-careers/professional-development/" link-text="Professional Development"></relative-link></li>
<li class="nav-item"><relative-link class-name="nav-link" link-path="/index.cfm/ams/education-careers/careers/ams-professional-certification-programs/manage-my-ams-certification/" link-text="Manage My AMS Certification"></relative-link></li>
</ul>
</div>
</megamenu-section>
<megamenu-section :is-logged-in="isLoggedIn" :member-details="memberDetails" :mobile-mode="mobileMode" :show-link="showLinks" :show-section="'pollicy-mega' === sectionToShow" :status="status" figure-caption='Work helps define our lives and the society we live in. This AMS Policy Program study examines workforce influences and needs for the weather, water and climate enterprise. &lt;a href="/index.cfm/ams/policy/studies-analysis/new-minds-for-new-science-the-forecast-for-work-in-the-weather-water-and-climate-enterprise/"&gt;Read the study.&lt;/a&gt;' first-line="Policy" image-alt-text="New Minds for New Science" image-source="https://www.ametsoc.org/ams/cache/file/D449795F-011F-C38C-BA45F96F23687789.jpg" main-link="/index.cfm/ams/policy" second-line="Program" section-id="policy-mega">
<div class="p-lg-5 megamenu-list">
<h3>Stay Informed</h3>
<ul class="nav flex-column">
<li class="nav-item"><relative-link class-name="nav-link" link-path="/ams/index.cfm/policy/learn-the-ropes/" link-text="Learn the Ropes"></relative-link></li>
<li class="nav-item"><relative-link class-name="nav-link" link-path="/index.cfm/ams/policy/studies-analysis/" link-text="Studies &amp; Analysis"></relative-link></li>
<li class="nav-item"><relative-link class-name="nav-link" link-path="/index.cfm/ams/policy/policy-memos/" link-text="Policy Memos"></relative-link></li>
<li class="nav-item"><relative-link class-name="nav-link" link-path="/index.cfm/ams/policy/the-capitol-hill-briefing-series/" link-text="The Capitol Hill Briefing Series"></relative-link></li>
<li class="nav-item"><relative-link class-name="nav-link" link-path="/index.cfm/ams/policy/videos/" link-text="Videos"></relative-link></li>
<li class="nav-item"><relative-link class-name="nav-link" link-path="/index.cfm/ams/policy/the-policy-discussion/" link-text="The Policy Discussion"></relative-link></li>
</ul>
</div>
<div class="p-lg-5 megamenu-list">
<h3>Get Involved</h3>
<ul class="nav flex-column">
<li class="nav-item"><relative-link class-name="nav-link" link-path="/index.cfm/ams/policy/about-the-policy-program/" link-text="About the Policy Program"></relative-link></li>
<li class="nav-item"><relative-link class-name="nav-link" link-path="/index.cfm/ams/policy/who-we-are/" link-text="Who We Are"></relative-link></li>
<li class="nav-item"><relative-link class-name="nav-link" link-path="/index.cfm/ams/policy/summer-policy-colloquium/" link-text="Summer Policy Colloquium"></relative-link></li>
<li class="nav-item"><relative-link class-name="nav-link" link-path="/index.cfm/ams/policy/congressional-science-fellowship/" link-text="Congressional Science Fellowship"></relative-link></li>
<li class="nav-item"><relative-link class-name="nav-link" link-path="/index.cfm/ams/policy/participate-in-a-congressional-visits-day/" link-text="Participate in a Congressional Visits Day"></relative-link></li>
</ul>
</div>
</megamenu-section>
<megamenu-section :is-logged-in="isLoggedIn" :member-details="memberDetails" :mobile-mode="mobileMode" :show-link="showLinks" :show-section="'yourams-mega' === sectionToShow" :status="status" first-line="Get" main-link="/index.cfm/ams/get-involved" second-line="Involved" section-id="yourams-mega">
<div class="p-lg-5 megamenu-list">
<h3>Take Action</h3>
<ul class="nav flex-column">
<li class="nav-item">
<relative-link class-name="nav-link" link-path="/index.cfm/ams/publications/why-publish-with-ams/" link-text="Publish Your Work"></relative-link>
</li>
<li class="nav-item">
<relative-link class-name="nav-link" link-path="/ams/index.cfm/education-careers/education-program/" link-text="Educate with AMS"></relative-link>
</li>
<li class="nav-item">
<relative-link class-name="nav-link" link-path="/index.cfm/ams/propose-a-webinar/" link-text="Organize a Webinar"></relative-link>
</li>
<li class="nav-item">
<relative-link class-name="nav-link" link-path="/index.cfm/ams/education-careers/careers/ams-professional-certification-programs/" link-text="Get Certified"></relative-link>
</li>
</ul>
<br/>
<h3>Join a Community</h3>
<ul class="nav flex-column">
<li class="nav-item">
<relative-link class-name="nav-link" link-path="/index.cfm/ams/membership/" link-text="Become a Member"></relative-link>
</li>
<li class="nav-item">
<relative-link class-name="nav-link" link-path="/ams/index.cfm/information-for/volunteers/" link-text="Volunteer for AMS"></relative-link>
</li>
<li class="nav-item">
<relative-link class-name="nav-link" link-path="/ams/index.cfm/about-ams/ams-local-chapters/" link-text="Join a Local Chapter"></relative-link>
</li>
<li class="nav-item">
<relative-link class-name="nav-link" link-path="/ams/index.cfm/meetings-events/" link-text="Attend a Meeting"></relative-link>
</li>
</ul>
</div>
<div class="p-lg-5 megamenu-list">
<h3>Give to AMS</h3>
<ul class="nav flex-column">
<li class="nav-item">
<relative-link class-name="nav-link" link-path="/index.cfm/ams100/giving/" link-text="Donate to AMS"></relative-link>
</li>
<li class="nav-item">
<relative-link class-name="nav-link" link-path="/ams/index.cfm/information-for/advertisers/" link-text="Advertise with AMS"></relative-link>
</li>
<li class="nav-item">
<a class="nav-link" href="https://annual.ametsoc.org/index.cfm/2020/your-annual/advertisers-and-sponsors/">
                                Sponsor AMS Events
                            </a>
</li>
</ul>
<br/>
<h3>Resources from AMS</h3>
<ul class="nav flex-column">
<li class="nav-item">
<relative-link class-name="nav-link" link-path="/ams/index.cfm/information-for/students/" link-text="Students &amp; AMS"></relative-link>
</li>
<li class="nav-item">
<a class="nav-link" href="https://wcdirectory.ametsoc.org/">
                                Find an Expert
                            </a>
</li>
<li class="nav-item">
<relative-link class-name="nav-link" link-path="/ams/index.cfm/about-ams/news/" link-text="Visit the Newsroom"></relative-link>
</li>
<li class="nav-item">
<relative-link class-name="nav-link" link-path="/index.cfm/ams/webinar-directory/" link-text="Webinar Directory"></relative-link>
</li>
</ul>
</div>
<div class="p-lg-5 megamenu-list">
<h3>Explore AMS</h3>
<ul class="nav flex-column">
<li class="nav-item">
<relative-link class-name="nav-link" link-path="/ams/index.cfm/about-ams/ams-commissions-boards-and-committees/" link-text="Commissions, Boards, and Committees"></relative-link>
</li>
<li class="nav-item">
<relative-link class-name="nav-link" link-path="/ams/index.cfm/about-ams/ams-awards-honors/" link-text="Awards and Honors"></relative-link>
</li>
<li class="nav-item">
<relative-link class-name="nav-link" link-path="/ams/index.cfm/about-ams/ams-statements/" link-text="Statements"></relative-link>
</li>
<li class="nav-item">
<relative-link class-name="nav-link" link-path="/ams/index.cfm/about-ams/ams-election-information/" link-text="Elections"></relative-link>
</li>
<li class="nav-item">
<relative-link class-name="nav-link" link-path="/ams/index.cfm/about-ams/ams-position-letters/" link-text="Position Letters"></relative-link>
</li>
<li class="nav-item">
<relative-link class-name="nav-link" link-path="/ams/index.cfm/about-ams/ams-and-climate-change/" link-text="Climate Change"></relative-link>
</li>
<li class="nav-item">
<relative-link class-name="nav-link" link-path="/ams/index.cfm/about-ams/diversity-and-inclusion-at-ams/" link-text="Diversity and Inclusion"></relative-link>
</li>
</ul>
<p class="mt-3"><relative-link class-name="btn btn-outline-primary" link-path="/ams/index.cfm/about-ams/" link-text="Learn About AMS"></relative-link></p>
</div>
</megamenu-section>
</ul>
<div class="search-login-group w-100 justify-content-end align-items-center">
<a aria-controls="navbarSearch" aria-expanded="false" class="px-2 mx-2" data-toggle="collapse" href="#navbarSearch" role="search" v-if="!isExternalSite">
<span class="sr-only">Search</span><i class="fas fa-search"></i>
</a>
<a class="px-2 mx-2" href="https://www.ametsoc.org/index.cfm/ams/search-results/?cx=006604013691433161533%3Acni8ugxqzym&amp;q=&amp;sa=&amp;cof=FORID%3A11" v-else="">
<span class="sr-only">Search</span><i class="fas fa-search"></i>
</a>
<div class="d-flex megamenu-button-stack flex-column flex-xl-row" v-cloak="">
<a class="btn btn-outline-primary mx-2 mb-lg-2 mb-xl-0" href="https://www.ametsoc.org/giving">Donate</a>
<div class="dropdown m-auto" id="dropdownMenuButton" null="" v-if="isLoggedIn || (customerKey &amp;&amp; customerKey.length &gt; 0)">
<button aria-expanded="false" aria-haspopup="true" class="btn btn-primary dropdown-toggle" type="button">
<span v-if="!memberDetails.firstName">Your Account</span>
<span v-else="">Hi, {{ memberDetails.firstName }}!</span>
</button>
<div :class="(sectionToShow === 'dropdownMenuButton')? 'show' : ''" aria-labelledby="dropdownMenuButton" class="dropdown-menu dropdown-menu-right" style="margin-top: -1px">
<a :href="(isExternalSite) ? 'https://www.ametsoc.org/index.cfm/ams/my-account' : '/index.cfm/ams/my-account'" class="dropdown-item">My Account</a>
<a class="dropdown-item" href="https://community.ametsoc.org">AMS Community</a>
<a class="dropdown-item" href="https://www.ametsoc.org/index.cfm/ams/about-ams/ams-organization-and-administration/ams-code-of-conduct/">AMS Code of Conduct</a>
<a class="dropdown-item" href="http://glossary.ametsoc.org/wiki/Special:Random"><span style="color: red; font-weight: bold">New! </span>Random Glossary Term</a>
<a class="dropdown-item" href="https://www.ametsoc.org/plugins/AMSCore/includes/logout.cfm?referringpage=/index.cfm/ams/" v-if="isExternalSite">Log out</a>
<a :href="'/plugins/AMSCore/includes/logout.cfm?referringpage=' + mainPath" class="dropdown-item" v-else="">Log out</a>
</div>
</div>
<relative-link :link-path="'/index.cfm/ams/log-in/?referringpage=' + ((isExternalSite) ? '/index.cfm/ams/' : mainPath)" class-name="btn btn-primary m-auto" id="loginTab" link-text="Log in" v-else=""></relative-link>
</div>
</div>
</div>
</nav>
<div class="collapse" id="navbarSearch">
<div class="card card-body">
<!-- Google Search Box Begins -->
<form action="/index.cfm/ams/search-results/" class="form-row search" id="amssearchform" method="get" role="search" v-if="!isEWeb">
<input name="cx" type="hidden" value="006604013691433161533:cni8ugxqzym"/>
<input class="form-control search-field" name="q" placeholder="Search the Site" size="20" type="text"/>
<button class="search-button" name="sa" type="submit"><span class="sr-only">Search</span><i class="fas fa-search"></i></button>
<input name="cof" type="hidden" value="FORID:11"/>
</form>
<script src="https://google.com/coop/cse/brand?form=searchbox_006604013691433161533%3Acni8ugxqzym" type="text/javascript"></script>
<!-- Google CSE Search Box Ends -->
</div>
</div>
<script type="text/javascript">
    console.log("here: ", window.location.hostname);
        if(window.location.hostname === "members.ametsoc.org"){
            console.log("Got here at least");
            var formToRemove = document.getElementById("amssearchform");
            formToRemove.remove();
        }
    </script>
<!-- Relative Link -->
<script id="relative-link-template" type="text/x-template">
    <a
        :href="url"
        :target="linkTarget"
        :class="className"
        v-html="linkText"
    ></a>
</script>
<!-- Renew/Rejoin/Join Alert Template -->
<script id="renew-alert-template" type="text/x-template">
    <div class="alert alert-info">
        <div v-if="status === 'renew'">
            <h3>It's Time to Renew!</h3>
            <p>{{ firstName }}, be sure to renew your AMS membership by <strong>{{ prettyExpirationDate }}</strong> so you can keep being an active part of the community that supports you and your work.</p>
            <p>
                <a class="btn btn-primary" href="/index.cfm/my-account">Renew Now</a>
            </p>
        </div>
        <div v-else-if="status === 'rejoin'">
            <p>Now more than ever, weather, water, and climate science needs your support, {{ firstName }}. Let's continue the work together.</p>
            <a class="btn btn-primary" href="/index.cfm/my-account">Rejoin Now</a>
        </div>
        <div v-else-if="status === 'join'">
            <p>Help us advance weather, water, and climate science, {{ firstName }}, and boost your career with the support of our deeply engaged community!</p>
            <p><a href="/index.cfm/membership/benefits">Learn about the benefits of AMS membership</a> or <a class="btn btn-primary" href="/index.cfm/my-account">Become an AMS Member</a></p>
        </div>
        <div v-else-if="status === 'normal'">
            <p>Your membership ({{ membershipType }}) is up to date, {{ firstName }}! </p>
            <p>This diverse and inclusive community is stronger for your support.</p>
        </div>
    </div>
</script>
<!-- Log In Alert -->
<script id="login-alert-template" type="text/x-template">
    <div class="alert alert-warning">
        <p>Log into your AMS account (or create one) for a more personalized AMS experience.</p>
        <p><a :href="'/plugins/AMSCore/includes/authorizeavectra.cfm?referringpage=' + mainPath">Log in</a></p>
    </div>
</script>
<!-- Master Alert Group Template -->
<script id="megamenu-alert-group-template" type="text/x-template">
    <div>
        <div v-if="isLoggedIn">
            <renew-alert
                :first-name="details.firstName"
                :membership-type="details.membershipType"
                :expiration-date="details.expirationDate"
                :status="status"
                :renewals-open="details.renewalsOpen"
            />
        </div>
        <login-alert v-else/>
    </div>
</script>
<script id="megamenu-section-template" type="text/x-template">
    <li 
        class="nav-item dropdown megamenu" 
        :id="sectionId"
    >
        <a 

            v-if="showLink"
            :href="(onExternalSite) ? 'https://www.ametsoc.org' + mainLink : mainLink" 
            aria-haspopup="true" 
            aria-expanded="false" 
            class="nav-link megamenu-link font-weight-bold text-uppercase"
            @click="handleClick($event)"            
        >
                {{ firstLine }}
                <br class="d-none d-lg-block"/>
                {{ secondLine }}
        </a>      
        <button v-if="showSection  &&  mobileMode" v-cloak class="btn btn-primary" @click="$emit('reset-menu')">
            <i class="fas fa-chevron-circle-left"></i>
            &nbsp;Return to Main Menu
        </button>                  
        <div 
            :aria-labelledby="sectionId" 
            class="dropdown-menu" 
            :class="(showSection)? 'show' : ''"
        >
            <div class="d-lg-flex justify-content-center" style="max-width: 1360px; margin: 0 auto;">
                <a v-if="mobileMode" class="btn btn-primary" :href="mainLink">{{firstLine + " " + secondLine}}</a> 
                <div class="d-lg-flex" :style="(imageSource.length > 0) ? 'flex: 1  0 47%' : 'flex: 1  0 69%'">
                    <slot></slot>
                </div>  
                <figure v-if="imageSource.length > 0" class="figure p-4">
                    <img :src="imageSource" class="figure-img img-fluid rounded megamenu-image" :alt="imageAltText">
                    <figcaption class="figure-caption" v-html="figureCaption"></figcaption>
                </figure> 
                <div class="member-area p-4" style="flex: 1 0 31%">
                    <megamenu-alert-group 
                        v-if="!onExternalSite"
                        :details="memberDetails"
                        :status="status"
                        :isLoggedIn="isLoggedIn"
                    />
                </div>
            </div>
        </div>
    </li>
</script>
</header>
<div class="container-fluid">
<div class="row">
<section class="col-sm-12 p-0">
<div class="mura-region"><div class="mura-region-local"><div class="mura-object" data-async="false" data-cssstyles="" data-inited="YES" data-instanceid="CA996E32-AF71-9421-B522A45B277F08F5" data-object="text" data-objecticonclass="mi-font" data-objectid="B04498BA-6BF6-4EF2-BD13832DBF9E708F" data-objectname="" data-render="client" data-source='&lt;div class="p-3"&gt;&lt;a href="https://annual.ametsoc.org"&gt;&lt;img alt="AMS 101st Annual Meeting" class="border rounded shadow-sm d-block mx-auto img-fluid" src="/ams/assets/Image/home_banner/2021_annual_banner.png" /&gt;&lt;/a&gt;&lt;/div&gt;
' data-sourcetype="custom" style=""></div></div></div>
</section>
</div>
</div>
<div class="home-hero home-hero-top d-flex">
<div class="overlay"></div>
<img src="/ams/cache/file/A7013155-9FFD-E1B5-8ED5CF46DCFE8A7A.jpg"/>
<div class="container h-100 align-self-center">
<div class="d-flex h-100 text-center align-items-center">
<div class="w-100 text-white">
<h1 class="display-3">101st Annual Meeting</h1>
<div class="lead">
<p>Join us 10-15 January for the 101st Annual Meeting, virtual for the first time!</p>
</div>
<p><a class="btn btn-primary" href="/index.cfm/ams/homepageslider/101st-annual-meeting/">
                            Learn More 
                        </a></p>
</div>
</div>
</div>
</div>
<div class="container">
<div class="row">
<div class="col-md-8 offset-md-2 col-sm-12 py-5 text-center">
<h2>Who We Are</h2>
<p style="font-size: 1.5em">The AMS is a global community committed to advancing weather, water, and climate science and service.</p>
<p><a class="btn btn-primary" href="/ams/index.cfm/about-ams">Learn about AMS</a></p>
</div>
</div>
</div>
<div class="container-fluid bg-light border-top border-bottom p-5">
<div class="row text-center pb-5">
<div class="col-md-12 pb-3">
<h2>What We Do</h2>
</div>
<div class="col-md-3 d-flex flex-column">
<i class="fas fa-cloud-sun-rain about-icon first-icon"></i>
<h3>Science</h3>
<p class="flex-grow-1">We advance understanding through high-impact, peer-reviewed scientific publications—including the <em>Bulletin of the American Meteorological Society</em> (<em>BAMS</em>).</p>
</div>
<div class="col-md-3 d-flex flex-column">
<i class="fas fa-handshake about-icon second-icon"></i>
<h3>Community</h3>
<p class="flex-grow-1">We bring together atmospheric scientists, professionals, students, authors, educators, researchers, and weather enthusiasts from around the world to share and collaborate.</p>
</div>
<div class="col-md-3 d-flex flex-column">
<i class="fas fa-certificate about-icon third-icon"></i>
<h3>Advancement</h3>
<p class="flex-grow-1">We offer certification programs, online learning, and other professional development opportunities so that our members can learn, grow, and succeed.</p>
</div>
<div class="col-md-3 d-flex flex-column">
<i class="fas fa-bullhorn about-icon fourth-icon"></i>
<h3>Outreach</h3>
<p class="flex-grow-1">We help educators and policy-makers bring the very latest weather, water, and climate science to bear on our nation’s future… and the world’s.</p>
</div>
</div>
</div>
<div class="container-fluid bg-light border-bottom mb-5">
<h2 class="text-center pt-5">Get Involved</h2>
<div class="row">
<div class="col-md-8 offset-md-2">
<ul class="get-involved-list">
<li class="get-involved-item">
<a href="/index.cfm/ams/publications/why-publish-with-ams/">
<i class="fas fa-pencil-alt first-icon"></i><br/>
                                Publish Your Work
                            </a>
</li>
<li class="get-involved-item">
<a href="/ams/index.cfm/education-careers/education-program/">
<i class="fas fa-apple-alt second-icon"></i><br/>
                                Educate with AMS
                            </a>
</li>
<li class="get-involved-item">
<a href="/index.cfm/ams/propose-a-webinar/">
<i class="fas fa-video orange-icon"></i><br/>
                                Organize a Webinar
                            </a>
</li>
<li class="get-involved-item">
<a href="/index.cfm/ams/education-careers/careers/ams-professional-certification-programs/">
<i class="fas fa-certificate fourth-icon"></i><br/>
                                Get Certified
                            </a>
</li>
<li class="get-involved-item">
<a href="/ams/index.cfm/information-for/volunteers/">
<i class="fas fa-hands second-icon"></i><br/>
                                Volunteer for AMS
                            </a>
</li>
<li class="get-involved-item">
<a href="/ams/index.cfm/about-ams/ams-local-chapters/">
<i class="fas fa-map-marker-alt orange-icon"></i><br/>
                                Join a Local Chapter
                            </a>
</li>
<li class="get-involved-item">
<a href="/ams/index.cfm/meetings-events/">
<i class="fas fa-calendar fourth-icon"></i><br/>
                                Attend a Meeting
                            </a>
</li>
<li class="get-involved-item">
<a href="https://amsweatherband.org/index.cfm/weatherband/">
<i class="fas fa-bolt first-icon"></i><br/>
                                Join the Band
                            </a>
</li>
<li class="get-involved-item">
<a href="/index.cfm/ams100/giving/">
<i class="fas fa-gift orange-icon"></i><br/>
                                Donate to AMS
                            </a>
</li>
<li class="get-involved-item">
<a href="/ams/index.cfm/information-for/advertisers/">
<i class="fas fa-images fourth-icon"></i><br/>
                                Advertise with AMS
                            </a>
</li>
<li class="get-involved-item">
<a href="https://annual.ametsoc.org/index.cfm/2020/your-annual/advertisers-and-sponsors/">
<i class="fas fa-calendar-check first-icon"></i><br/>
                                Sponsor AMS Events
                            </a>
</li>
<div class="get-involved-item-spacer">
<p class="mb-0">Join a vibrant community of almost 12,000 professionals, students, and enthusiasts who share knowledge, improve technology, and disseminate science to ensure that our planet can thrive.</p>
<p class="text-center"><a class="btn btn-primary" href="#">Join Today</a></p>
</div>
<li class="get-involved-item">
<a href="/ams/index.cfm/information-for/students/">
<i class="fas fa-graduation-cap fourth-icon"></i><br/>
                                Students &amp; AMS
                            </a>
</li>
<li class="get-involved-item">
<a href="https://wcdirectory.ametsoc.org/">
<i class="fas fa-umbrella first-icon"></i><br/>
                                Find an Expert
                            </a>
</li>
<li class="get-involved-item">
<a href="/ams/index.cfm/about-ams/news/">
<i class="fas fa-rss second-icon"></i><br/>
                                Visit the Newsroom
                            </a>
</li>
</ul>
</div>
</div>
</div>
<div class="container">
<div class="row">
<section class="col-sm-12 col-xs-12">
<div class="row">
<div class="col-sm-12">
<div class="mura-region mura-region-loose">
<div class="mura-region-local"><style type="text/css">@media only screen and (min-width: 480px) {
#annual-2 {display:none;}
}

@media only screen and (max-width: 479px) {
#annual-1 {display: none;}
  
  .intrinsic-container {
  position: relative;
  height: 0;
  overflow: hidden;
}
 
/* 16x9 Aspect Ratio */
.intrinsic-container-16x9 {
  padding-bottom: 56.25%;
}
 
/* 4x3 Aspect Ratio */
.intrinsic-container-4x3 {
  padding-bottom: 75%;
}
 
.intrinsic-container iframe {
  position: absolute;
  top:0;
  left: 0;
  width: 100%;
  height: 100%;
}
  
  
}</style></div>
</div> <div class="mura-region"><div class="mura-region-local"></div></div>
</div>
</div>
<div class="row">
<div class="col-sm-12">
<div class="grid-container grid-stories mb-5">
<div>
<div class="grid-item ">
<a href="/index.cfm/ams/homepageslider/annual-meeting-registration/">
<div class="d-flex align-items-center text-white p-5 home-hero home-story-large">
<div class="overlay"></div>
<img src="/ams/cache/file/09A55E59-02ED-3FA1-D1003513B45626D5.jpg"/>
<div class="container h-100 w-100">
<div class="d-flex h-100 text-center align-items-center">
<div class="w-100 text-white">
<h3 class="text-white">Annual Meeting Registration</h3>
<div class="lead">
<p>Register today for the Virtual AMS 101st Annual Meeting, 10–15 January 2021</p>
</div>
<p><a class="btn btn-primary" href="/index.cfm/ams/homepageslider/annual-meeting-registration/">
                                                                
                                                                    Read More
                                                                                                                    
                                                            </a></p>
</div>
</div>
</div>
</div>
</a>
</div>
</div>
<div>
<div class="grid-item w-100">
<a href="/index.cfm/ams/homepageslider/annual-meeting-program/">
<div class="d-flex align-items-center text-white p-3 home-hero home-story-small w-100">
<div class="overlay"></div>
<img src="/ams/cache/file/C5423E3F-BE23-9E54-EC0FC5E3238C748D.jpg"/>
<div class="container h-100 w-100">
<div class="d-flex h-100 w-100 text-center align-items-center">
<div class="w-100 text-white">
<h3 class="text-white">Annual Meeting Program</h3>
<div class="lead">
<p>The program has been posted for the Virtual 101st AMS Annual Meeting. Start planning your week now!</p>
</div>
<p><a class="btn btn-primary" href="/index.cfm/ams/homepageslider/annual-meeting-program/">
                                                                    
                                                                        Read More
                                                                     
                                                                </a></p>
</div>
</div>
</div>
</div>
</a>
</div>
<div class="grid-item w-100">
<a href="/index.cfm/ams/homepageslider/faq-for-virtual-elements/">
<div class="d-flex align-items-center text-white p-3 home-hero home-story-small w-100">
<div class="overlay"></div>
<img src="/ams/cache/file/1C8B35FC-0C3E-39EE-3B090961270D617F.jpg"/>
<div class="container h-100 w-100">
<div class="d-flex h-100 w-100 text-center align-items-center">
<div class="w-100 text-white">
<h3 class="text-white">FAQ for Virtual Elements</h3>
<div class="lead">
<p>Have a question about the virtual elements of the Virtual 101st AMS Annual Meeting? We have answers!</p>
</div>
<p><a class="btn btn-primary" href="/index.cfm/ams/homepageslider/faq-for-virtual-elements/">
                                                                    
                                                                        Read More
                                                                     
                                                                </a></p>
</div>
</div>
</div>
</div>
</a>
</div>
</div>
</div>
</div>
<div class="row">
<div class="col-sm-12">
</div>
<div class="mura-region"><div class="mura-region-local"></div></div>
</div>
</div>
</section>
</div>
</div><!-- /.container -->
<div class="bg-light border-top border-bottom p-5" style="margin-bottom: -8em;">
<h2 class="text-center">Glossary Term of the Week</h2>
<div class="container">
<div class="row">
<div class="col-md-5 offset-md-1">
<figure class="figure">
<img class="img-fluid img-thumbnail mt-3" src="/ams/cache/file/AA3D8EA1-FC73-E28D-13333539B77DE73D.jpg"/>
</figure>
</div>
<div class="col-md-5 d-flex flex-column justify-content-center">
<h3 class="pt-3">derecho</h3>
<p>A widespread convectively induced straight-line windstorm.</p>
<p>Specifically, the term is defined as any family of particularly damaging downburst clusters produced by a mesoscale convective system. Such systems have sustained bow echoes with book-end vortices and/or rear-inflow jets and can generate considerable damage from straight-line winds. Damage must be incurred either continuously or intermittently over a swath of at least 650 km (~400 mi) and a width of approximately 100 km (~60 mi) or more.</p>
<p class="text-right"><a class="read-more" href="/index.cfm/ams/glossary-terms/derecho/">To the Glossary</a></p>
</div>
</div>
</div>
</div>
<div class="subscribe d-flex flex-columns align-items-center" style="margin-bottom: -1.5em;">
<div class="container">
<div class="row">
<div class="col-md-6">
<h3>Stay Connected</h3>
<e class="lead">Subscribe to our <em>Soundings</em> newsletter or listen to our podcasts.
                        <p><a class="btn btn-primary mb-3" href="/ams/index.cfm/email-subscriptions/ams-soundings-monthly-newsletter/"><i class="fas fa-envelope"></i>  Subscribe to newsletter</a>    <a class="btn btn-secondary mb-3" href="/index.cfm/ams/ams-podcasts/"><i class="fas fa-podcast"></i>  Listen to AMS Podcasts</a></p>
</e></div>
<div class="col-md-6">
<h3>Get Social</h3>
<p class="lead">Real-time updates on contests, meetings, deadlines, and more.</p>
<p class="social">
<a href="https://www.facebook.com/ametsoc" title="Facebook"><i class="icon-custom-fcbk text-facebook"></i><span class="sr-only">Facebook</span></a>
                             <a href="https://www.linkedin.com/company/american-meteorological-society/" title="LinkedIn"><i class="icon-custom-lnkdn text-linkedin"></i><span class="sr-only">LinkedIn</span></a>
                             <a href="https://twitter.com/ametsoc" title="Twitter"><i class="icon-custom-twttr text-twitter"></i><span class="sr-only">Twitter</span></a>
                             <a href="https://www.instagram.com/ametsoc/?hl=en" title="Instagram"><i class="icon-custom-nstgrm text-instagram"></i><span class="sr-only">Instagram</span></a>
                             <a href="https://www.youtube.com/user/ametsoc" title="YouTube"><i class="icon-custom-ytb text-youtube"></i><span class="sr-only">YouTube</span></a> <!--<li><a href="/ams/index.cfm/about-ams/news/ams-rss-feeds/" class="fa fa-rss" title="RSS"><span>RSS</span></a></li>-->
</p>
</div>
</div>
</div>
</div>
<footer class="footer" id="footer">
<div class="footer-top">
<div class="container">
<div class="row align-items-center">
<div class="col-md-3">
<!-- Google CSE Search Box Begins -->
<form action="/index.cfm/ams/search-results/" class="form-row search" id="amssearchformfooter" method="get" role="search">
<input name="cx" type="hidden" value="006604013691433161533:cni8ugxqzym"/>
<input class="search-field" name="q" placeholder="Search the Site" size="20" type="text"/>
<button class="search-button" name="sa" type="submit"><span class="sr-only">Search</span><i class="fas fa-search"></i></button>
<input name="cof" type="hidden" value="FORID:11"/>
</form>
<script src="https://google.com/coop/cse/brand?form=searchbox_006604013691433161533%3Acni8ugxqzym" type="text/javascript"></script>
<!-- Google CSE Search Box Ends -->
</div>
<figure class="figure col-md-6">
<img alt="Lockheed Martin" class="footer__sponsor--logo" src="/themes/ametsoc-new/images/logo-lockheed.png"/>
<figcaption class="figure-caption text-center">Corporate Patron</figcaption>
</figure>
<div class="col-md-3">
<h3>Follow us</h3>
<nav>
<a href="https://www.facebook.com/ametsoc" title="Facebook"><i class="icon-custom-fcbk text-facebook"></i><span class="sr-only">Facebook</span></a>
                             <a href="https://www.linkedin.com/company/american-meteorological-society/" title="LinkedIn"><i class="icon-custom-lnkdn text-linkedin"></i><span class="sr-only">LinkedIn</span></a>
                             <a href="https://twitter.com/ametsoc" title="Twitter"><i class="icon-custom-twttr text-twitter"></i><span class="sr-only">Twitter</span></a>
                             <a href="https://www.instagram.com/ametsoc/?hl=en" title="Instagram"><i class="icon-custom-nstgrm text-instagram"></i><span class="sr-only">Instagram</span></a>
                             <a href="https://www.youtube.com/user/ametsoc" title="YouTube"><i class="icon-custom-ytb text-youtube"></i><span class="sr-only">YouTube</span></a>
</nav>
</div>
</div>
</div>
</div>
<div class="footer-bottom pt-4">
<div class="container">
<div class="row">
<div class="col-sm-3">
<div class="inside">
<div class="mura-object" data-async="false" data-cssstyles="" data-instanceid="CA997554-A924-01A6-DFC12B98B42A67E2" data-object="component" data-objecticonclass="mi-clone" data-objectid="[Footer] Column 1" data-objectname="" data-render="server" style=""><div class="mura-object-content" id="" style=""><h3>Soundings</h3>
<p>Our monthly newsletter for AMS members and friends.</p>
<p><a class="btn btn-outline-primary" href="/ams/index.cfm/email-subscriptions/ams-soundings-monthly-newsletter/">Subscribe</a></p>
<p class="intro"><a class="read-more" href="/ams/index.cfm/email-subscriptions/ams-soundings-monthly-newsletter/">Read the Latest Issue</a></p>
<div id="mouseposition-extension-element-full-container" style="position: fixed; top: 0px; left: 0px; right: 0px; bottom: 0px; pointer-events: none; z-index: 2147483647; font-weight: 400;">
<div id="mouseposition-extension-element-rect-display" style='display: none; position: absolute; background: rgba(255, 255, 255, 0.7); outline: black solid 1px; font-size: 12px; z-index: 2147483647; justify-content: center; align-items: center; user-select: none; cursor: default; color: rgb(0, 0, 0); font-family: "Helvetica Neue", Helvetica, Arial, sans-serif; width: 0px; height: 0px;'>
<pre style="flex: 1 1 0%; text-align: center; background-color: rgba(255, 255, 255, 0.7); color: rgb(0, 0, 0); min-width: 42px; min-height: 12px; transition: all 1s ease 0s;">
 </pre>
</div>
<pre id="mouseposition-extension-element-coordinate-display" style='position: absolute; display: none; background: rgb(255, 255, 255); font-size: 12px; line-height: 14px; border-radius: 3px; border-width: 1px; border-color: rgb(34, 34, 34) black rgb(51, 51, 51); border-style: solid; padding: 3px; z-index: 2147483647; color: rgb(34, 34, 34); user-select: none; cursor: default; font-family: "Helvetica Neue", Helvetica, Arial, sans-serif;'>
 </pre>
</div></div></div>
</div>
</div>
<div class="col-sm-3">
<div class="inside">
<div class="mura-object" data-async="false" data-cssstyles="" data-instanceid="CA997653-9FB5-39F2-68FBAA44C33EAB7A" data-object="component" data-objecticonclass="mi-clone" data-objectid="[Footer] Column 2" data-objectname="" data-render="server" style=""><div class="mura-object-content" id="" style=""><h3>Learn more about AMS</h3>
<ul>
<li><a href="/ams/index.cfm/about-ams/">Mission of AMS</a></li>
<li><a href="https://annual.ametsoc.org">Annual Meeting</a></li>
<li><a href="/ams/index.cfm/about-ams/ams-awards-honors/">Awards &amp; Honors</a></li>
<li><a href="/ams/index.cfm/about-ams/ams-statements/">Statements</a></li>
<li><a href="/ams/index.cfm/about-ams/ams-annual-reports/">Annual Reports</a></li>
<li><a href="/ams/index.cfm/about-ams/ams-organization-and-administration/">Organization and Administration</a></li>
<li><a href="/ams/index.cfm/membership/ams-lands-end-apparel/">AMS Lands' End Apparel</a></li>
</ul></div></div>
</div>
</div>
<div class="col-sm-3">
<div class="inside">
<div class="mura-object" data-async="false" data-cssstyles="" data-instanceid="CA997773-E73B-748E-AAE00AFD63CE8301" data-object="component" data-objecticonclass="mi-clone" data-objectid="[Footer] Column 3" data-objectname="" data-render="server" style=""><div class="mura-object-content" id="" style=""><h3>Affiliate Sites</h3>
<ul>
<li><a href="/ams/index.cfm/ams-external-link-content-types/journals-online/">Journals Online</a></li>
<li><a href="https://community.ametsoc.org/home">AMS Community</a></li>
<li><a href="https://amsweatherband.org">AMS Weather Band</a></li>
<li><a href="http://blog.ametsoc.org/">Front Page Blog</a></li>
<li><a href="/ams/index.cfm/ams-external-link-content-types/ams-bookstore/">AMS Bookstore</a></li>
<li><a href="https://ams.confex.com/ams/archives.cgi">Archived Meeting Presentations</a></li>
<li><a href="/ams/index.cfm/ams-external-link-content-types/living-on-the-real-world-blog/">Living on the Real World Blog</a></li>
</ul></div></div>
</div>
</div>
<div class="col-sm-3">
<div class="inside">
<div class="mura-object" data-async="false" data-cssstyles="" data-instanceid="CA997877-E1FB-62E5-43699954E7730967" data-object="component" data-objecticonclass="mi-clone" data-objectid="[Footer] Column 4" data-objectname="" data-render="server" style=""><div class="mura-object-content" id="" style=""><h3>Contact AMS</h3>
<p><a class="btn btn-outline-primary" href="/ams/index.cfm/ams-staff-email-and-phone-contacts/">Email &amp; Phone Contacts</a></p>
<p><a href="mailto:amsinfo@ametsoc.org"><u>amsinfo@ametsoc.org</u></a><br/>
	Phone: 617-227-2425<br/>
	Fax: 617-742-8718</p>
<p><strong>Headquarters:</strong><br/>
	45 Beacon Street Boston, MA 02108-3693</p>
<p><strong>DC Office:</strong><br/>
	1200 New York Ave NW, Suite 500, Washington, DC 20005-3928</p></div></div>
</div>
</div>
</div>
<div class="row">
<div class="col-lg-12 text-center">
<a href="/ams/index.cfm/publications/ethical-guidelines-and-ams-policies/ams-copyright-policy/#section2"><p class="copyright">© Copyright 2021 American Meteorological Society</p></a>  |  <a href="/index.cfm/ams/privacy-policy-and-disclaimer/">Privacy Policy and Disclaimer</a>
</div>
</div>
</div>
</div>
</footer>
<script>
			//Track Outbound Link Clicks

(function trackOutbounds() {
        
        var hitCallbackHandler = function(url,win) {
            if (win) {
                    window.open(url, win);
            } else {
                window.location.href = url;
        }
    };
    
    var addEvent = function(el, eventName, handler) {
    
                if (el.addEventListener) {
                        el.addEventListener(eventName, handler);
                        } else {
                        el.attachEvent('on' + eventName, function(){
                                handler.call(el);
                    });
                }
        }
        
        if (document.getElementsByTagName) {
                var el = document.getElementsByTagName('a');
                var getDomain = document.domain.split('.').reverse()[1] + '.' + document.domain.split('.').reverse()[0];
                
                // Look thru each a element
                for (var i=0; i < el.length;i++) {
                
                        // Extract it's href attribute
                        var href = (typeof(el[i].getAttribute('href')) == 'string' ) ? el[i].getAttribute('href') : '';
                        
                        // Query the href for the top level domain (xxxxx.com)
                        var myDomain = href.match(getDomain);
                        
                        // If link is outbound and is not to this domain        
                        if ((href.match(/^(https?:|\/\/)/i)  && !myDomain) || href.match(/^mailto\:/i)) {
                        
                                // Add an event to click
                                addEvent(el[i],'click', function(e) {
                                        var url = this.getAttribute('href'), win = (typeof(this.getAttribute('target')) == 'string') ? this.getAttribute('target') : '';
                                                        
                                                        console.log ("add event", url);
                                        // Log even to Analytics, once done, go to the link
                                        ga('send', 'event', 'outbound url', 'click-external', url,
                                                {'hitCallback': hitCallbackHandler(url,win)},
                                                {'nonInteraction': 1}
                                        );
                                        
                                        e.preventDefault();
                                });
                        }
                }
        }
})();

</script>
<script src="/themes/ametsoc-new/dist/main.28e71dc8276bb14cec73.js?bb2a31dafccfb0e114f0"></script>
<script defer="defer" src="//www.ametsoc.org/core/modules/v1/cta/js/mura.displayobject.cta.min.js"></script>
<script src="/modules/portal/dist/portal.1bfb8e50583e8a90ad2b.js"></script></body>
</html>