<html>
<head><meta content="text/html; charset=utf-8" http-equiv="Content-Type"/>
<title>Premagro S.A.</title>
</head>
<body>
<p>Site in constructie!</p>
<p>Premagro S.A.</p>
<p>Str. Fabricilor nr. 8<br/>
Oradea, Bihor</p>
<p>RO73711<br/>
J05/153/1991</p>
<p>email: office@premagro.ro</p>
<p></p>
</body>
</html>