<!DOCTYPE html>
<html lang="en">
<head>
<title>Mobile Auto Glass - Windshield Replacement &amp; Repair</title>
<meta charset="utf-8"/>
<link href="Mobil.css" rel="stylesheet" type="text/css"/>
<link href="https://fonts.googleapis.com/css?family=Abel" rel="stylesheet"/>
<link href="https://fonts.googleapis.com/css?family=Gruppo" rel="stylesheet"/>
<link href="https://fonts.googleapis.com/css?family=Montserrat" rel="stylesheet"/>
<meta content="width=device-width, initial-scale=1" name="viewport"/>
<link href="https://maxcdn.bootstrapcdn.com/bootstrap/3.3.7/css/bootstrap.min.css" rel="stylesheet"/>
<script src="https://ajax.googleapis.com/ajax/libs/jquery/3.1.1/jquery.min.js"></script>
<script src="https://maxcdn.bootstrapcdn.com/bootstrap/3.3.7/js/bootstrap.min.js"></script>
<meta content="public" http-equiv="cache-control"/>
<meta content="Mobile auto glass repair service | Call 703-606-4539 for quotes and pricing today. our goal is to provide you with quality car glass repair and replacement at an affordable price. Our specially trained technicians will repair most windshield damage, without the need for a replacement." name="description"/>
<meta content="Windshield replacement service Northern Virginia. Call 703-581-5850 for windshield repair pricing and discounts, windshield repair, windshield replacement Manassas 20108, 20109, 20110, 20111, 20112, 20113, windshield replacement Manassas Park, windshield replacement Nokesville 20181, 20182, windshield replacement Haymarket 20168, 20169, car window repair Manassas, cracked windshield repair Fairfax, 20151, 20152, 20153, 22030, 22031, 22032, 22033, 22034, 22035, 22036, 22037, 22038, 22039, windshield replacement Centreville 20120, 20121, 20122, auto glass repair Chantilly 20151, 20153, Haymarket 20168, 20169, Gainesville 20155, 21056, Vienna 22027, 22124, 22180, 22181, 2182, 22193, 22184, 22185,  auto glass repair Dulles 20101, 10102, 20103, 20104, 20163, 20166, 20189, 20199, auto glass repair Herndon 20170, 20171, 20172, 20190, 20191, 20192, 20193, 20194, 20195, 20196, 22092, 22095, auto glass repair Reston  20190, 20191, 20192, 20193, 20194, 20195, 20196, 22095, 22096, auto glass repair  20146, 20147, 20172, 20148, 20149, 22093, auto glass repair Leesburg 20175, 20176, 20177, 20178, auto glass repair Vienna 22180, 22181, 22182, 22183, 22185, auto glass repair Oakton 22124, auto glass repair Tyson’s Corner 22102, auto glass repair Great Falls 2206, auto glass repair McLean, 20101, 22102, 22103, 22106, 22107, 22108, 22109, auto glass repair Falls Church 22040, 22041, 22042, 22043, 22044, 22045, 22047, windshield replacement Woodbridge 22191, 22192, 22193, 22194, 22195, windshield replacement Belmont Bay, auto glass repair Occoquan 22125, auto glass repair West Ridge, auto glass repair South Ridge, auto glass repair West Ridge, auto glass repair Fairfax Station 22039, auto glass repair Fairfax  20151, 20152, 20153, 22030, 22031, 22032, 22033, 22034, 22035, 22036, 22037,22038, 22039,  windshield replacement Burke 22009, 22015, windshield replacement Fort Belvoir 22060, auto glass repair Lorton 22079, 22199 auto glass repair Alexandria 22304, 22305, 22306, 22307, 22308, 22309, 22310, 22320, 22331, 22332, windshield replacement Alexandria City 22301, 22302, 22303, 22311, 22312, 22313, auto glass repair Arlington 22201, 22202, 22203, 22204, 22205, 22206, 22207, 22208, 2209, 22210, 22211, 22212, 22213, 22214, 22215, 22216, 22217, 22218, 22219, 22222, 22223, 22225, 22226, 22227, 22229, 22230, 22234, 22240,  22241, 22242, 22243, 2244, 22245, auto glass repair Annandale 22003, auto glass repair Rossyln 22029, auto glass repair Mt. Vernon 22121, 22122, 22124, auto glass repair Springfield  22009, 22015, 22150, 22151, 22152, 22153, 22156, 22158, 22159, 22160, 22161, windshield replacement Clifton 20124,  auto glass repair Dale City, auto glass repair Triangle 22172, auto glass repair Dumfries 22026, auto glass repair Nokesville 20181, auto glass repair Stafford 22405, 22406. windshield replacement Fredericksburg, and in all of Northern Virginia. " name="keywords"/>
<meta content="Mobile Auto Glass" name="author"/>
<meta content="Mobile Auto Glass" name="copyright"/>
<meta content="index" name="robots"/>
<meta content="follow" name="robots"/>
<meta auto="" content="Mobile" glass="" property="og:title" repair="" replacement="" windshield=""/>
<meta content="website" property="og:type"/>
<meta content="http://www.Mobilautoglass.com" property="og:url"/>
<meta content="Mobile Auto Glass does windshield repair, windshield replacement and auto glass repair at amazing prices.  High quality materials and parts are we use." property="og:description"/>
<meta content="summary" name="twitter:card"/>
<meta content="@Mobilautoglass" name="twitter:site"/>
<meta auto="" content="Mobile" glass="" name="twitter:title" repair="" replacement="" windshield=""/>
<meta content="Mobile Auto Glass does windshield repair, windshield replacement and auto glass repair at amazing prices.  High quality materials and parts are we use." name="twitter:description"/>
<meta content="LWUTyOdethTMi2HmFvJMqKe7R-cD8pUluOt36Qm9ZpU" name="google-site-verification"/>
<meta content="7F2768069F0AC80C121F174C38F1F3DD" name="msvalidate.01"/>
<!--CarQuery API -->
<script src="http://www.carqueryapi.com/js/jquery.min.js" type="text/javascript"></script>
<script src="http://www.carqueryapi.com/js/carquery.0.3.4.js" type="text/javascript"></script>
<script>
  (function(i,s,o,g,r,a,m){i['GoogleAnalyticsObject']=r;i[r]=i[r]||function(){
  (i[r].q=i[r].q||[]).push(arguments)},i[r].l=1*new Date();a=s.createElement(o),
  m=s.getElementsByTagName(o)[0];a.async=1;a.src=g;m.parentNode.insertBefore(a,m)
  })(window,document,'script','//www.google-analytics.com/analytics.js','ga');
  ga('create', 'UA-30243998-1', 'auto');
  ga('send', 'pageview');
</script>
<script>(function(w,d,t,r,u){var f,n,i;w[u]=w[u]||[],f=function(){var o={ti:"5990665"};o.q=w[u],w[u]=new UET(o),w[u].push("pageLoad")},n=d.createElement(t),n.src=r,n.async=1,n.onload=n.onreadystatechange=function(){var s=this.readyState;s&&s!=="loaded"&&s!=="complete"||(f(),n.onload=n.onreadystatechange=null)},i=d.getElementsByTagName(t)[0],i.parentNode.insertBefore(n,i)})(window,document,"script","//bat.bing.com/bat.js","uetq");</script><noscript><img height="0" src="//bat.bing.com/action/	0?ti=5990665&amp;Ver=2" style="display:none; visibility: hidden;" width="0"/>
</noscript>
<script type="text/javascript">
	_linkedin_data_partner_id = "234450";
	</script><script type="text/javascript">
	(function(){var s = document.getElementsByTagName("script")[0];
	var b = document.createElement("script");
	b.type = "text/javascript";b.async = true;
	b.src = "https://snap.licdn.com/li.lms-analytics/insight.min.js";
	s.parentNode.insertBefore(b, s);})();
	</script>
<noscript>
<img alt="" height="1" src="https://dc.ads.linkedin.com/collect/?pid=234450&amp;fmt=gif" style="display:none;" width="1"/>
</noscript>
<style>
  *{margin:0 auto; padding:0;}
  #header-row{
  background: linear-gradient(rgba(0,0,0,.7) 5%, transparent 100%, rgba(0,0,0,0)), url(images/wr1.jpg) center !important; height:550px !important;  background-size:cover !important; 
}
  #bnr-txt{}
  #title-welcome{padding:20px 0 0 0; color:black;}
  @media screen and (max-width:950px){#title-welcome{margin-top:;}}
  #title-welcome-text{color:white;}
  @media screen and (max-width:480px){#title-welcome{font-size:20px;}}
  @media screen and (min-width:481px){#title-welcome{font-size:40px;}}
  .btn-danger{width:250px; height:47px;}
  #ok{list-style: none; margin:10px 0px;}
  #ok li{background: url(images/ok.png) no-repeat; padding:5px 0px 15px 45px;}
  #row-about{background-color:rgb(46,48,55);}
  #row-about-more{background-color:rgb(46,48,55);}
  #row-about-more p{color:white;}
  #row-reviews{background-color:#AA2021; text-align:center; padding-bottom:40px;}
  #row-reviews div img{padding:10px 0px;}
  img{max-width:100%;}
  .btn-lg{border-radius:0px;}
  /* .shape{height:0px; width:0px;  border-top:40px solid transparent; border-left:1000px solid #CD2122; border-bottom: 250px solid #CD2122; position:relative; top:-100px;} */
  .shape{ text-align:; background-color:#CD2122; width:1100px; height:240px; line-height:; color:white; margin:20px auto; position:relative; top:-50px; border-radius:0 8px 8px 8px;}
  .shape:before{ content:""; width:0px; height:0px; border-top:45px solid transparent; border-left:1080px solid #CD2122; position:absolute; right:; bottom:100%; border-radius:8px 8px 0 0;}
  @media screen and (max-width:1150px){.shape, .shape p{ text-align:center; background-color:#CD2122; width:900px; height:340px; line-height:; color:white; border-radius:0 8px 8px 8px; margin:20px auto; position:relative;}}
  @media screen and (max-width:1150px){.shape:before{ content:""; width:0px; height:0px; border-top:50px solid transparent; border-left:900px solid #CD2122; position:absolute; right:0%; bottom:100%;}}
  @media screen and (max-width:950px){.shape, .shape p{ text-align:center; background-color:#CD2122; width:820px; height:350px; line-height:; color:white; margin-top:120px; position:relative;}}
  @media screen and (max-width:950px){.shape:before{ content:""; width:0px; height:0px; border-top:50px solid transparent; border-left:820px solid #CD2122; position:absolute; right:; bottom:100%;}}
  @media screen and (max-width:850px){.shape, .shape p{ text-align:center; background-color:#CD2122; width:700px; height:340px; line-height:; color:white; margin-top: 120px ; position:relative;}}
  @media screen and (max-width:850px){.shape:before{ content:""; width:0px; height:0px; border-top:50px solid transparent; border-left:700px solid #CD2122; position:absolute; bottom:100%;}}
  @media screen and (max-width:750px){.shape, .shape p{ text-align:; background-color: #CD2122; width:90vw; height:auto; line-height:; color:white; margin-top:100px auto; position:relative; padding-top:; padding-bottom:160px;}}
  @media screen and (max-width:750px){.shape:before{ content:""; width:0px; height:0px; border-top:50px solid transparent; border-left:90vw solid #CD2122; position:absolute; right:; bottom:100%;}}
  #shape-button{float:right; position:relative; bottom:75px; margin-left:12px; padding:10px 18px; border-radius:5px; border:2px solid #FFFFFF; background-color:#FFFFFF; color:#242424; font-weight:bolder;}
  #shape-button2{float:right; position:relative; bottom:75px; padding:10px 18px; border-radius:5px;  border:2px solid white; background-color:transparent; font-weight:bolder; color:white;}
  @media screen and (max-width:1150px){#shape-button, #shape-button2{position:absolute; top:20px; left:-250px; margin-top:15px;}}
  @media screen and (max-width:750px){#shape-button, #shape-button2{position:relative;left:5px;}}
  .centered {position:absolute; top:5px; left:10%; background:linear-gradient(to right, rgba(0,0,0,.05), rgba(0,0,0,.6)); padding:18px 90px; transform:skewX(12deg); border-radius:8px; font-size:35px; color:white;}
  .centered span{font-weight:bolder;}
  @media screen and (max-width:950px){.centered{position:absolute; top:10px; left:10%; font-size:25px; padding:17px 80px;}}
  @media screen and (max-width:750px){.centered{position:absolute; top:20px; left:10%; font-size:20px; padding:17px 80px;  z-index:9999;}}
  @media screen and (max-width:650px){.centered{position:absolute; top:20px; left:10%; font-size:19px; padding:17px 65px;  z-index:9999;}}
  @media screen and (max-width:650px){.centered{position:absolute; top:18px; left:5%; font-size:17px; padding:15px 50px;  z-index:9999;}}
  .bottom-right {position:absolute; left:50%;top:200px; background-color:#CD2122; background: rgba(205,33,34,.7); color:white;  padding:15px 50px 15px 50px; transform:skewX(12deg);  font-size:30px; border-radius:8px;}
  @media screen and (max-width:950px){.bottom-right{position:absolute; left:40%; top:150px; font-size:25px; padding:15px 45px;}}
  @media screen and (max-width:750px){.bottom-right{position:absolute; left:40%; top:150px; font-size:20px; padding:15px 45px;  z-index:9999;}}
  @media screen and (max-width:750px){.bottom-right{position:absolute; left:40%; top:150px; font-size:18px; padding:14px 40px;  z-index:9999;}}
  @media screen and (max-width:400px){.bottom-right{position:absolute; left:25%; top:110px; font-size:15px; padding:12px 30px; z-index:9999;}}
  @media screen and (min-width:550px){#phone{background:none !important; }}
  @media screen and (min-width:550px){#phone p{margin:20px !important; background:#001BB3 !important; width:250px;}}
  #phone{background:#001BB3; opacity:.8;}
  #itemscope{color:white;}
</style>
</head>
<body>
<div class="container-fluid">
<div class="row" id="header-row">
<div class="row" id="row-navbar">
<div class="row-inner">
<div class="col-sm-9">
<nav class="navbar" role="navigation" style="clear:both;">
<div class="container-fluid">
<div class="navbar-header">
<a href="https://www.amobilautoglass.com/index.php"><img height="80px" src="images/mobil-logo2.jpg" width="100px"/></a>
<button class="navbar-toggle" data-target="#myNavbar" data-toggle="collapse" style="background:#fff;" type="button">
<span class="icon-bar"></span>
<span class="icon-bar"></span>
<span class="icon-bar"></span>
</button>
</div>
<div class="collapse navbar-collapse" id="myNavbar">
<ul class="nav navbar-nav">
<li class="nav-item"><a class="nav-link active" href="index.php">HOME</a></li>
<li class="nav-item"><a class="nav-link" href="auto-glass-repair-quote.php">INSTANT QUOTE</a></li>
<li class="nav-item"><a class="nav-link" href="car-glass-repair-why-us.php">WHY US</a></li>
<li class="nav-item"><a class="nav-link" href="mobile-windshield-replacement-service.php">OUR SERVICES</a></li>
<li class="nav-item"><a class="nav-link" href="auto-glass-replacement-on-site.php">ON SITE REPALEMENT</a></li>
<li class="nav-item"><a class="nav-link" href="service-areas.php">SERVICE AREAS</a></li>
</ul>
</div>
</div>
</nav>
</div>
<div class="col-sm-3" style="text-align:center;">
<a class="btn btn-lg" href="auto-glass-repair-quote.php" style="width:200px; height:55px; padding:15px 0px; margin:-5px 1px; color:white; background-color:#8B0000; transform: scaleX(10deg); ">Instant Quote</a>
</div>
</div>
</div>
<div class="row" id="logo-seal">
<div class="row-inner">
<div class="col-sm-12">
<center><p style="font-size:45px; font-weight:bolder; text-shadow:0px 0px 5px orange, 0px 0px 1px yellow; color:#0000CC; background: linear-gradient(to bottom, #d0e4f7 0%,#73b1e7 7%,#0a77d5 29%,#539fe1 98%);">Mobil Auto Glass</p></center>
</div>
</div>
</div>
<div class="row">
<div class="row-inner">
<div class="col-sm-2" id="phone">
</div>
<div class="col-sm-3" id="phone">
<center><p style="font-size:30px; padding:10px 10px; font-weight:bolder; border:2px solid #666600; color:white; line-height:90%;">703-606-4539<br/>VA Call</p></center>
</div>
<div class="col-sm-3" id="phone">
<center><p style="font-size:30px; padding:10px 10px; font-weight:bolder; border:2px solid #666600; color:white; line-height:90%;">703-622-2551<br/>MD Call</p></center>
</div>
<div class="col-sm-3" id="phone">
<center><p style="font-size:30px; padding:10px 10px; font-weight:bolder; border:2px solid #666600; color:white; line-height:90%;">703-772-8332<br/>DC Call</p></center>
</div>
<div class="col-sm-1" id="phone">
</div>
</div>
</div>
<div class="row" id="bnr-txt">
<div class="col-sm-12">
<h1></h1><p class="centered" style=""><span>Professional Car Glass</span> Repair Service</p><h1>
</h1><p class="bottom-right" style="position:absolute; top:bottom:5px;">Chip &amp; Crack Repair</p>
</div>
</div>
</div>
</div>
<div class="row" id="main">
<div class="row-inner">
<div class="col-sm-12">
<div class="shape">
<p id="shape-text" style="padding:25px;"><span style="font-size:25px;  font-family:Abel;">NEED CAR GLASS REPAIR OR REPLACE IN NORTHERN VIRGINIA?</span><br/>
<span style="font-size:30px; padding:; font-weight:bolder;">LOOKING FOR THE BEST PRICE?</span><br/>
<span style="font-size:25px; padding:; font-weight:; font-family:Gruppo;">Call Us Now and We Will Reach You n Minutes.</span><br/><br/>
<span style="opacity:.70; font-size:16px; font-family:Abel;">Book your appointment now and our experienced technician will assist you with all your car glass repair needs as quickly as they can.</span><br/>
<a href="tel:703-622-2551" id="shape-button">Call Us Now</a>
<a href="mobile-windshield-replacement-service.php" id="shape-button2">CHECK OUT OUR SERVICES</a>
</p>
</div>
<div>
<h1 id="title-welcome"><center style="font-size:40px; font-weight:bolder; color:#595959;">Auto Glass Repair &amp; Windshield Replacement</center></h1>
<hr/>
<h2></h2><p></p><center style="font-size:25px; color:#87898C; font-family:Montserrat;">Get your car glass repair or windshield replacement at the cheapest price in Centreville VA.</center>
<p>We are one of the leading <a href="https://www.amobilautoglass.com/auto-glass-repair-quote.php"> car glass repair</a> agencies in Centreville VA. We have been in the business for the last 25 years. No matter how minute the damage to the car windscreen, side window, or other car glass repair features, we have the efficiency to get it fixed within the shortest possible time. Our aim is simple – to get the windscreen repair or replacement done for your vehicle while ensuring 100% satisfaction. With our services, your vehicle’s windscreen gets fitted in the best way possible while ensuring best competitive price for the service. We offer lifetime warranty on our car glass repair service so that you can safely avail our service to get your car windscreen replaced. We offer windscreen replacement services to sedans, utility vehicles,  and trucks, minibuses, RV's, heavy trucks, etc.
          </p>
<br/>
<br/>
<br/>
</div>
</div>
</div>
</div>
<div class="row">
<div class="row-inner">
<div class="col-sm-3">
<img src="images/windshield-onstand.jpg" style="border:2px solid #0000CC;"/>
<hr/>
<h5>Poor driving conditions and even bad weather can damage your windshield with projectiles such as stones on the highway, debris, and even hail.  regardless of whether the damage is on your windshield, door glass or rear windshield, Mobile Auto Glass can help. call us for a free quote today and we will have you back on the road safely.</h5>
</div>
<div class="col-sm-3">
<img src="images/van-car-autoglass.jpg" style="border:2px solid #0000CC; text-shadow:2px 2px #D3D3D3;"/>
<hr/>
<h5>Mobile Auto Glass has over 15 years of expreience in auto glass repair and windshield replacement experience providing aut glass service to thousands of clients like yourself each year.  Not only are our auto glass technicians certified for windshield replacement and windshield repair to get the job done safely, but they use innovative technology to make sure you get the best car glass replacement possible.</h5>
</div>
<div class="col-sm-3">
<img src="images/Windshield Repair.jpg" style="border:2px solid #0000CC;"/>
<hr/>
<h5>When it comes to auto glass damage we are not limited to windshield replcement.  as certified technicians of the the auto glass repair industly we also replace door glass, vent glass, quarter glass and back windshields as well.  Calling Mobile Auto glass is the most efficient way to get your car or truck back on the road as fast as possible. </h5>
</div>
<div class="col-sm-3">
<div itemscope="" itemtype="http://schema.org/Service">
<meta content="Windshield Repacelemt, Auto Glass Repair" itemprop="serviceType"/>
<span itemprop="provider" itemscope="" itemtype="http://schema.org/LocalBusiness">
<div itemprop="image" itemscope="" itemtype="http://schema.org/ImageObject">
<img itemprop="url" src="https://www.amobilautoglass.com/images/windshield-part.jpg" style="border:2px solid blue;" width="280"/><hr/>
</div>
<span itemprop="name">Mobil Auto Glass</span>
</span>
          offers a variety of services in
          <span itemprop="areaServed" itemscope="" itemtype="http://schema.org/City">
<span itemprop="name">Woodbridge VA, Fairfax, VA, Gainsville VA, and surrouning areas</span>, including
          </span>
<ul itemprop="hasOfferCatalog" itemscope="" itemtype="http://schema.org/OfferCatalog">
<li itemprop="itemListElement" itemscope="" itemtype="http://schema.org/OfferCatalog">
<span itemprop="name">Car Glass Repair and Replacement</span>
<ul itemprop="itemListElement" itemscope="" itemtype="http://schema.org/OfferCatalog">
<li itemprop="itemListElement" itemscope="" itemtype="http://schema.org/Offer">
<div itemprop="itemOffered" itemscope="" itemtype="http://schema.org/Service">
<span itemprop="name">Windshield Repair</span>
</div>
</li>
<li itemprop="itemListElement" itemscope="" itemtype="http://schema.org/Offer">
<div itemprop="itemOffered" itemscope="" itemtype="http://schema.org/Service">
<span itemprop="name">Car Door Glass Replacement</span>
</div>
</li>
<li itemprop="itemListElement" itemscope="" itemtype="http://schema.org/Offer">
<div itemprop="itemOffered" itemscope="" itemtype="http://schema.org/Service">
<span itemprop="name">Auto Glass Repair</span>
</div>
</li>
<li itemprop="itemListElement" itemscope="" itemtype="http://schema.org/Offer">
<div itemprop="itemOffered" itemscope="" itemtype="http://schema.org/Service">
<span itemprop="name">Windshield Replacment</span>
</div>
</li>
</ul>
</li></ul>
</div>
<h5>Auto glass in an important structural component of your vehicle, making sure that you get a quality installation is vey important to your safety.  Mobile Auto Glass warranties the installation of your windshield replacement for as long as you own the car.  We us industly leading tools and materials to give you spectacular installation.</h5>
</div>
</div>
</div>
<div class="row" style="background-color:#AA2021; text-align:center;">
<div class="row-inner">
<div class="col-sm-12">
<p style="font-size:35px; color:white; background-color:#AA2021; margin:35px 0 45px 0;">Happy Clients</p><hr/>
</div>
</div>
</div> <div class="row" id="row-reviews" style="border-bottom:8px solid #CCCC00;">
<div class="row-inner">
<div class="col-sm-4" style="margin:7px 0px;">
<div itemscope="" itemtype="http://schema.org/Service" style="padding:20px 35px; text-align:justify; background-color:white; margin:0px 35px; line-height:90%;">
<span itemprop="name">Windshield Replacement</span>
<div itemprop="aggregateRating" itemscope="" itemtype="http://schema.org/AggregateRating">
           Rated <span itemprop="ratingValue">4.7</span>/5
           based on <span itemprop="reviewCount">66</span> customer reviews
          </div>
<div itemprop="offers" itemscope="" itemtype="http://schema.org/Offer">
<span content="USD" itemprop="priceCurrency">$</span><span content="1000.00" itemprop="price">99 and up</span>
<link href="http://schema.org/InStock" itemprop="availability"/>In stock
          </div>
          Service description:
          <span itemprop="description">This service comes with everything you need to drive away with a brand new windshield.</span>
          Customer reviews:
          <div itemprop="review" itemscope="" itemtype="http://schema.org/Review">
<span itemprop="name">Awsome Service</span> -
            by <span itemprop="author">Alan M</span>,
            <meta content="2011-04-01" itemprop="datePublished"/>April 1, 2011
            <div itemprop="reviewRating" itemscope="" itemtype="http://schema.org/Rating">
<meta content="5" itemprop="worstRating"/>
<span itemprop="ratingValue">5</span>/
              <span itemprop="bestRating">5</span>stars
            </div>
<br/>
<span itemprop="description">I had been driving around with a chip in my windshield for a white but it turned into a loarge crack right across my driver side.  A friend of mine recommended Mobile Auto Glass and they came out the same day to my work place and changed my windshield, bery convenient! Did some research online and looks like i got a very fair deal, plus found out it's small buinsess, I love helping local small businesses grow so that worked out well.</span>
</div>
</div>
</div>
<div class="col-sm-4" style="margin:7px 0px;">
<div itemscope="" itemtype="http://schema.org/Service" style="padding:20px 35px; text-align:justify; background-color:white; margin:0px 35px; line-height:90%;">
<span itemprop="name">Windshield Replacement</span>
<div itemprop="aggregateRating" itemscope="" itemtype="http://schema.org/AggregateRating">
           Rated <span itemprop="ratingValue">4.7</span>/5
           based on <span itemprop="reviewCount">66</span> customer reviews
          </div>
<div itemprop="offers" itemscope="" itemtype="http://schema.org/Offer">
<span content="USD" itemprop="priceCurrency">$</span><span content="1000.00" itemprop="price">99 and up</span>
<link href="http://schema.org/InStock" itemprop="availability"/>In stock
          </div>
          Service description:
          <span itemprop="description">This service comes with everything you need to drive away with a brand new windshield.</span>
          Customer reviews:
          <div itemprop="review" itemscope="" itemtype="http://schema.org/Review">
<span itemprop="name">Friendly and On Time</span> -
            by <span itemprop="author">Ronda A</span>,
            <meta content="2011-04-01" itemprop="datePublished"/>March 4, 2015
            <div itemprop="reviewRating" itemscope="" itemtype="http://schema.org/Rating">
<meta content="5" itemprop="worstRating"/>
<span itemprop="ratingValue">5</span>/
              <span itemprop="bestRating">5</span>stars
            </div>
<br/>
<span itemprop="description">First rate service; couldn't be happier.  A rock chipped my windshield over the weekend and I called them first thing Monday morning.  I received a quote from another company, and not sure what a good price was, I though I'd call Mobile Auto Glass next.  Wouldn't you know they quoted me LESS THAN HALF of what the other company offered.  They stopped by that day; I asked if they could come after 3pm and was told they'd be there between 2-4pm. He showed up 3:15.  The work was quick and nothing short of amazing.  I am absolutely glad I found them. I took a chance based off their previous reviews on Google, and they other reviewers on Google, and the other reviewers definitely knew what they were talking about.  I definitely be returning to them if I ever neew more repairs and will be recommending them to everyone I know.</span>
</div>
</div>
</div>
<div class="col-sm-4" style="margin:7px 0px;">
<div itemscope="" itemtype="http://schema.org/Service" style="padding:20px 35px; text-align:justify; background-color:white; margin:0px 35px; line-height:90%;">
<span itemprop="name">Windshield Replacement</span>
<div itemprop="aggregateRating" itemscope="" itemtype="http://schema.org/AggregateRating">
           Rated <span itemprop="ratingValue">4.7</span>/5
           based on <span itemprop="reviewCount">66</span> customer reviews
          </div>
<div itemprop="offers" itemscope="" itemtype="http://schema.org/Offer">
<span content="USD" itemprop="priceCurrency">$</span><span content="1000.00" itemprop="price">99 and up</span>
<link href="http://schema.org/InStock" itemprop="availability"/>In stock
          </div>
          Service description:
          <span itemprop="description">This service comes with everything you need to drive away with a brand new windshield.</span>
          Customer reviews:
          <div itemprop="review" itemscope="" itemtype="http://schema.org/Review">
<span itemprop="name">Fast and Reliable</span> -
            by <span itemprop="author">Nicole Holmes</span>,
            <meta content="2011-04-01" itemprop="datePublished"/>June 12, 2013
            <div itemprop="reviewRating" itemscope="" itemtype="http://schema.org/Rating">
<meta content="5" itemprop="worstRating"/>
<span itemprop="ratingValue">5</span>/
              <span itemprop="bestRating">5</span>stars
            </div>
<span itemprop="description">I had never had a windshield replaced before. So i was very careful and who I Selected to do the job. Boddy was very professional and knew what he was doing. He showed up on time and completed the job perfectly. not to mention, He also cleanded my car inside from all the glass shards that came through from the window. And he was reasonable! I cannot recommend him enough! Give him a try and repairs or replacements!</span>
</div>
</div>
</div>
</div>
</div>
<!-- end container-fluid -->
<div class="row" id="work-with-us" style=" margin:0 auto; height:auto; padding:50px 0;">
<div class="row-inner">
<div class="col-sm-8">
<p style="color:#CC2122; font-size:30px; font-weight:bolder; font-family:;">Work With Us<br/></p>
<p style="color:black; font-size:20px; font-family:Abel">Top Quality, Best Price and Experienced Staff Quaranteed!</p>
</div>
<div class="col-sm-4">
<a href="auto-glass-repair-quote.php"><button id="getquote-btn-footer">GET A QUOTE</button></a>
</div>
</div>
</div>
<div class="row" id="footer">
<div class="row-inner">
<div class="col-sm-5">
<h3 style="color:#FFF;">Car Glass Repair</h3>
<p>Our company is proud to provide fast and reliable car glass repair services for almost all car makes and madels in Fairfax VA and the surrounding areas.</p>
<p style="color:#FFF;"><span style="font-weight:bolder;">Our Location:</span>
</p><div id="itemscope" itemscope="" itemtype="http://schema.org/LocalBusiness">
<div itemprop="image" itemscope="" itemtype="http://schema.org/ImageObject">
<img itemprop="url" src="https://www.amobilautoglass.com/images/logo-png.png" width="250"/>
</div>
<a href="https://www.amobilautoglass.com" itemprop="url"><div itemprop="name"><strong>Mobile Auto Glass</strong></div></a>
<div itemprop="description">Mobile Windshield Replacement and Auto Glass Repair | Call for Discounts Car Glass Replacement </div>
<meta content="Windshield Replacement" itemprop="MakesOffer"/>
<meta content="Windshield Repair" itemprop="MakesOffer"/>
<meta content="Car Auto Glass Replacement" itemprop="MakesOffer"/>
<div itemprop="telephone">703-606-4539</div>
<div itemprop="geo" itemscope="" itemtype="http://schema.org/GeoCoordinates"><meta content="38.671302" itemprop="latitude"/><meta content="-77.3492220" itemprop="longitude"/></div>
<div itemprop="address" itemscope="" itemtype="http://schema.org/PostalAddress">
<span itemprop="streetAddress">13142 Taverner Loop</span>
<span itemprop="addressLocality">Woodbridge</span>, 
				<span itemprop="addressRegion">VA</span>
<span itemprop="postalCode">22192</span>
<span itemprop="addressCountry">USA</span><br/>
</div>
<a href="https://maps.google.com/maps?q=13142 Taverner Loop+Woodbridge+VA&amp;gl=us&amp;t=h&amp;z=16" itemprop="map" target="map">map</a>
				 		  <a href="https://plus.google.com/u/1/b/105014668739188703784/" rel="author">G+</a>
</div>
<p style="color:white; font-size:18px;">replace@amobilautoglass.com</p>
</div>
<div class="col-sm-4" id="map">
<script>
	          var map;
	          function initMap() {
	            map = new google.maps.Map(document.getElementById('map'), {
	              center: {lat: 38.833618, lng: -77.429318},
	              zoom: 8
	            });
	          }
	        </script>
<script async="" defer="" src="https://maps.googleapis.com/maps/api/js?key= AIzaSyAtXuO-jrKykNVpSUc2UYsgD0NQXfvGgTw &amp;callback=initMap"></script>
</div>
<div class="col-sm-3">
<div itemscope="" itemtype="http://schema.org/LocalBusiness">
<h2 itemprop="name">Mobile Auto Glass</h2>
<p itemprop="description">Quality auto glass replacement and low prices and fast, convenient service.</p>
<p style="font-size:20px; color:white; padding-left:15px; padding-top:20px;">Hours Of Operation</p>
<p>Open: <span content="Mo,Tu,We,Th,Fr,Sa 8:00am-6:30pm" itemprop="openingHours">Monday-Saturday 8am-6:30pm</span></p>
<p>Phone: <span content="703-606-4539" itemprop="telephone">(703)606-4539</span></p>
</div>
<img src="images/paymentoptions1.png" style="border:2px solid grey; margin-top:10px;"/>
<a href="https://www.google.com/search?q=mobil+auto+glass&amp;ie=utf-8&amp;oe=utf-8&amp;client=firefox-b-1-ab#lrd=0x89b657a72f92068f:0xaa5e3a9e777d1144,1,,," target="_blank"> <img src="images/g-review.jpg" style="border:2px solid grey; margin-top:10px;" width="100px"/></a>
<div id="yelp-biz-badge-yelp-Jr4YeUp8OpkCZnGKqgGlRA"><a href="http://yelp.com/biz/mobil-auto-glass-woodbridge?utm_medium=badge_small&amp;utm_source=biz_review_badge" target="_blank">Check out Mobil Auto Glass on Yelp</a></div> <script>(function(d, t) {var g = d.createElement(t);var s = d.getElementsByTagName(t)[0];g.id = "yelp-biz-badge-script-yelp-Jr4YeUp8OpkCZnGKqgGlRA";g.src = "//yelp.com/biz_badge_js/en_US/yelp/Jr4YeUp8OpkCZnGKqgGlRA.js";s.parentNode.insertBefore(g, s);}(document, 'script'));</script>
</div>
</div>
<div class="col-sm-12">
<p>Woodbridge VA | Manassas VA | Centreville VA | Gainsville VA | Fairfax VA | Alexandria VA | Bristow VA <br/> Herndon VA | Chantilly VA | Dale City VA | Springfield VA | Lorton VA | Tysons VA</p>
</div>
</div>
<div class="row" id="footer2">
<div class="row-inner">
<div class="col-sm-12">
<p>Copyright 2018 Mobile Auto Glass - All right reserved.</p>
</div>
</div>
</div>
</body>
</html>
