<!DOCTYPE html>
<html>
<head>
<script type="text/javascript">
    var ismobile = !!navigator.userAgent.match(/AppleWebKit.*Mobile.*/);
    var current_url = window.location.href;
    if(ismobile && window.location.host != 'm.16163.com' && current_url.indexOf('__16163_on_pc') == -1){
      target_url = current_url.replace(/www.16163.com/g,"m.16163.com");
      window.location.href = target_url;
    }
  </script>
<script>

  /**
   * 网站置灰
   *
   * @param  {number} startTime 开始时间
   * @param  {number} endTime 开始时间
   */
  function gray(startTime, endTime) {
    var css =
    'html{' +
    'filter: grayscale(100%);' +
    '-webkit-filter: grayscale(100%);' +
    '-moz-filter: grayscale(100%);' +
    '-ms-filter: grayscale(100%);' +
    '-o-filter: grayscale(100%);' +
    'filter:url("data:image/svg+xml;utf8,<svg xmlns=\'http://www.w3.org/2000/svg\'><filter id=\'grayscale\'><feColorMatrix type=\'matrix\' values=\'0.3333 0.3333 0.3333 0 0 0.3333 0.3333 0.3333 0 0 0.3333 0.3333 0.3333 0 0 0 0 0 1 0\'/></filter></svg>#grayscale");' +
    'filter:progid:DXImageTransform.Microsoft.BasicImage(grayscale=1);' +
    '-webkit-filter: grayscale(1);' +
    '}';
    var now = new Date().getTime();
    if (now >= startTime && now < endTime) {
      var head = document.head || document.getElementsByTagName('head')[0];
      var style = document.createElement('style');

      head.appendChild(style);

      style.type = 'text/css';
      if (style.styleSheet) {
        // This is required for IE8 and below.
        style.styleSheet.cssText = css;
      } else {
        style.appendChild(document.createTextNode(css));
      }
    }
  }
  </script>
<meta charset="utf-8"/>
<meta content="webkit" name="renderer"/>
<meta content="IE=edge,chrome=1" http-equiv="X-UA-Compatible"/>
<meta content="JLZ2RziZ4SMBAq_4TKYWMZ76vmJRc9qV3aU-Bs3QcTY" name="google-site-verification"/>
<base target="_blank"/>
<title>网易游戏专区_网易手机游戏_好玩的手机游戏排行榜_网易16163游戏网</title>
<meta content="16163,好玩的手机游戏,网易游戏,手机游戏排行榜" name="keywords"/>
<meta content="网易16163游戏网,网易游戏官网专区门户。提供最新最全的网易游戏下载,礼包,激活码,好玩的手机游戏,手机游戏排行榜,视频直播等,玩最好玩的手机游戏上16163游戏网!
  " name="description"/>
<meta content="网易，NetEase Inc." name="author"/>
<meta content="网易，NetEase Inc." name="copyright"/>
<link href="//nos.netease.com/gameyw-gbox/cms/images/16163.ico" rel="shortcut icon" type="image/ico"/>
<link href="//www.16163.com/static/v2/css/index.entry.7393f42b.css" rel="stylesheet"/>
<script>!function(e){var t=window.webpackJsonp;window.webpackJsonp=function o(c,l){for(var p,s,i=0,f=[];i<c.length;i++)s=c[i],r[s]&&f.push.apply(f,r[s]),r[s]=0;for(p in l)e[p]=l[p];t&&t(c,l);while(f.length)f.shift().call(null,a);if(l[0])return n[0]=0,a(0)};var n={},r={0:0};function a(t){if(n[t])return n[t].exports;var r=n[t]={exports:{},id:t,loaded:!1};return e[t].call(r.exports,r,r.exports,a),r.loaded=!0,r.exports}a.e=function c(e,t){if(0===r[e])return t.call(null,a);if(void 0!==r[e])r[e].push(t);else{r[e]=[t];var n=document.getElementsByTagName("head")[0],o=document.createElement("script");o.type="text/javascript",o.charset="utf-8",o.async=!0,o.src=a.p+"js/"+e+"."+{1:"84a399f1",2:"4955ff72"}[e]+".js",n.appendChild(o)}},a.m=e,a.c=n,a.p="//www.16163.com/static/v2/"}([]);</script>
</head>
<body>
<!--[if lte IE 7]>
  <div class="browserupgrade">您的浏览器版本过低，请升级浏览器(<a target="_blank" href="http://se.360.cn/">360浏览器</a><a target="_blank" href="http://www.google.cn/chrome/browser/desktop/index.html">Chrome</a><a target="_blank" href="http://www.firefox.com.cn/download/">FireFox</a>)以获得更好的浏览体验。</div>
  <![endif]-->
<div class="m-site-topnav">
<div class="g-main f-cb">
<div class="left">
<a class="js-set-homepage" href="javascript:;">设为主页</a><i class="u-gap">|</i><a class="js-add-favorite" href="javascript:;">添加到收藏夹</a><i class="u-gap">|</i><a href="//m.16163.com">16163手机版</a>
</div>
<div class="right" id="topNavUser">
</div>
</div>
</div>
<div class="m-site-header" id="siteHader">
<div class="g-main f-cb">
<div class="header">
<a class="logo" href="//www.16163.com"></a>
<div class="nav">
<a class="z-active" href="/">首页</a>
<a href="/game/">游戏</a>
<a href="/huodong/">活动</a>
<a href="/zx/">资讯</a>
<a href="/gonglue/">攻略</a>
<a href="/shipin/">视频</a>
<a href="https://bbs.16163.com/">论坛</a>
<a href="https://cbg.163.com/?acti=U029">藏宝阁</a>
</div>
<div class="search">
<form action="/search" name="siteSearchForm" target="_blank">
<div class="search-input">
<input autocomplete="off" name="q" placeholder="请输入关键字" type="text"/>
</div>
<button class="search-btn" type="submit">搜索</button>
</form>
</div>
</div>
</div>
</div>
<div class="page-wrap">
<div class="g-hd-index">
<div class="m-carousel" id="carouselWrap">
<div class="slick" id="slickCarousel">
<div class="item">
<a href="      https://langrensha.163.com/
  ">
<img class="item-img" height="225" src="//ok.166.net/16163/2021-01-05/mm18/1609834843434_n9s5vl.jpg?imageView&amp;thumbnail=300x225" width="300"/>
<div class="item-tt"><p>免费租车？《狼人杀官方》x联动云活动开启！</p></div>
</a>
</div>
<div class="item">
<a href="      https://langrensha.163.com/wbn/ 
  ">
<img class="item-img" height="225" src="//ok.166.net/16163/2020-12-17/mm18/1608185858707_oixzmu.jpg?imageView&amp;thumbnail=300x225" width="300"/>
<div class="item-tt"><p>《狼人杀官方》年度版本“跑跑狼人杀”</p></div>
</a>
</div>
<div class="item">
<a href="      https://ds.163.com/
  ">
<img class="item-img" height="225" src="//ok.166.net/16163/2020-12-11/mm18/1607682176841_tlyjvq.jpg?imageView&amp;thumbnail=300x225" width="300"/>
<div class="item-tt"><p>大神——游戏热爱者兴趣圈</p></div>
</a>
</div>
<div class="item">
<a href="      https://act.ds.163.com/d3e96d4e84c14a6f/5fbdc089ed7dde0630d06ff0
  ">
<img class="item-img" height="225" src="//ok.166.net/16163/2020-11-29/mm18/1606665032196_xx7les.jpg?imageView&amp;thumbnail=300x225" width="300"/>
<div class="item-tt"><p>送神兽！免费抢！梦幻冲分大赛等你来挑战！</p></div>
</a>
</div>
<div class="item">
<a href="      https://ds.163.com/feed/5fbfb5fb517f0f203a82b60f
  ">
<img class="item-img" height="225" src="//ok.166.net/16163/2020-11-28/mm18/1606544229672_te4tb3.jpg?imageView&amp;thumbnail=300x225" width="300"/>
<div class="item-tt"><p>大神秒杀专场-0元抢神兽及海量游戏道具</p></div>
</a>
</div>
<div class="item">
<a href="      https://next.163.com/act/pc/2020/winter_ticket_sales/mobile.html
  ">
<img class="item-img" height="225" src="//ok.166.net/16163/2020-12-21/mm18/1608536743544_ppsuxq.jpg?imageView&amp;thumbnail=300x225" width="300"/>
<div class="item-tt"><p>NeXT冬季赛 售票开启</p></div>
</a>
</div>
<div class="item">
<a href="      http://www.16163.com/app/41109/
  ">
<img class="item-img" height="225" src="//ok.166.net/16163/2020-11-12/mm18/1605170024515_vkfv9f.jpg?imageView&amp;thumbnail=300x225" width="300"/>
<div class="item-tt"><p>《战三国：八阵奇谋》今日首测</p></div>
</a>
</div>
<div class="item">
<a href="      http://www.16163.com/mrzh/41107/
  ">
<img class="item-img" height="225" src="//ok.166.net/16163/2020-11-12/mm18/1605168333764_kn18zz.jpg?imageView&amp;thumbnail=300x225" width="300"/>
<div class="item-tt"><p>Souler集结，闯荡真末世获取生存礼包</p></div>
</a>
</div>
</div>
<div class="mask mask-left"></div>
<div class="mask mask-right"></div>
</div>
</div>
<div class="g-main">
<div class="g-definenav-wrap">
<div class="m-definenav">
<dl>
<dt>热门游戏</dt>
<dd><a href="//my.16163.com/">梦幻西游手游</a></dd>
<dd><a href="//yys.16163.com/">阴阳师</a></dd>
<dd><a href="//stzb.16163.com/">率土之滨</a></dd>
<dd><a href="//dhxy.16163.com">大话西游手游</a></dd>
<dd><a href="//qnm.16163.com/">倩女幽魂手游</a></dd>
<dd><a href="//clx.16163.com/">一梦江湖</a></dd>
<dd><a href="https://mrzh.16163.com/">明日之后</a></dd>
<dd><a href="//moba.netease.com">决战平安京</a></dd>
</dl>
<div class="mark hot"></div>
</div>
<div class="m-definenav">
<dl>
<dt>新游推荐</dt>
<dd><a href="//xyqh5.16163.com">梦幻西游网页版</a></dd>
<dd><a href="//sky.16163.com/">Sky光遇</a></dd>
<dd><a href="//sword.16163.com">轩辕剑龙舞云山</a></dd>
<dd><a href="https://eve.netease.com/">星战前夜：晨曦</a></dd>
<dd><a href="//yysbwp.16163.com">阴阳师：百闻牌</a></dd>
<dd><a href="//pescm.16163.com">实况球会经理</a></dd>
<dd><a href="//qwq.16163.com/">非人学园</a></dd>
<dd><a href="//lz.16163.com/forum-2064-1.html">量子特攻</a></dd>
<dd><a href="////lyzd.16163.com">绿茵之巅</a></dd>
<dd><a href="https://n.netease.com">逆水寒</a></dd>
</dl>
</div>
<div class="m-definenav">
<dl>
<dt>即将上线</dt>
<dd><a href="//pq.163.com/index.html">宝可梦大探险</a></dd>
<dd><a href="https://tym.163.com/">天谕手游</a></dd>
<dd><a href="//sywm.163.com/?from=nietop">神谕文明</a></dd>
<dd><a href="//3v3.16163.com/">战争怒吼</a></dd>
<dd><a href="//sq2.163.com/">有杀气童话2</a></dd>
<dd><a href="//eve.163.com/">星战前夜</a></dd>
<dd><a href="https://ygo.163.com/">游戏王</a></dd>
</dl>
</div>
</div>
<div class="u-banner">
<a href="//yys.16163.com/thread-7654012-1-1.html"><img class="js-lazyimg" data-src="//ok.166.net/16163/2020-12-11/mm18/1607657255791_i2htdr.jpg?imageView&amp;thumbnail=1200x100" height="100" width="1200"/></a>
</div>
<div class="g-row">
<div class="g-col g-col-main">
<div class="g-col-main-con">
<div class="m-herotype">
<div class="typeitem js-herotypeitem z-active">
<div class="typeside">
<div class="typeside-con">
<i class="typeicon news"></i><span class="typename">新闻</span>
</div>
</div>
<div class="typelinks">
<a class="lead" href="      //yys.16163.com/thread-7654014-1-1.html
  ">大神——游戏热爱者兴趣圈</a>
<a href="      /app/41109/
  ">战鼓喧天!《战三国：八阵奇谋》今日首测</a>
<a href="      /mrzh/41107/
  ">Souler集结，闯荡真末世获取生存礼包</a>
</div>
</div>
<div class="typeitem js-herotypeitem">
<div class="typeside">
<div class="typeside-con">
<i class="typeicon broadcast"></i><span class="typename">公告</span>
</div>
</div>
<div class="typelinks">
<a class="lead" href="      https://langrensha.163.com/
  ">免费租车？《狼人杀官方》x联动云活动开启！</a>
<a href="      https://langrensha.163.com/wbn/ 
  ">《跑跑狼人杀》今日公测-3分钟超休闲社交推理</a>
<a href="      /dhxysy/39632/
  ">热血战歌 大话手游无差别PK赛分区四强队伍诞生</a>
</div>
</div>
<div class="typeitem js-herotypeitem">
<div class="typeside">
<div class="typeside-con">
<i class="typeicon activity"></i><span class="typename">活动</span>
</div>
</div>
<div class="typelinks">
<a class="lead" href="      https://next.163.com/act/pc/2020/winter_ticket_sales/mobile.html
  ">NeXT冬季赛 售票开启</a>
<a href="      /mhxysy/38755/
  ">欢聚西安《梦幻西游》手游周年庆 青春盛典火热报名中</a>
<a href="      /dhxysy/38683/
  ">新服桃李春风今日开启冲级赢六福珠宝定制金猪吊坠</a>
</div>
</div>
<div class="typeitem js-herotypeitem">
<div class="typeside">
<div class="typeside-con">
<i class="typeicon video"></i><span class="typename">视频</span>
</div>
</div>
<div class="typelinks">
<a class="lead" href="      /yys/39380/
  ">面世足三载为热爱赋新《阴阳师》520全新CG来袭</a>
<a href="      /qwq/39375/
  ">银白短发英姿飒爽《非人学园》西凉墨曜指挥官造型登场</a>
<a href="      /zgz/39356/
  ">《战国志》周年庆资料片今日上线 全新玩法贺周年</a>
</div>
</div>
</div>
<div class="m-main-newslist">
<div id="mainNews">
<div class="item">
<a class="item-side" href="      https://langrensha.163.com/
  ">
<img class="js-lazyimg" data-src="//ok.166.net/16163/2021-01-05/mm18/1609834030890_ublpek.jpg?imageView&amp;thumbnail=160x120"/>
</a>
<div class="item-main">
<div class="item-hd">
<b class="item-category">新闻</b>
<i class="u-gap">|</i>
<a class="item-tt" href="      https://langrensha.163.com/
  ">免费租车？《狼人杀官方》x联动云活动开启！</a>
</div>
<div class="item-bd">
<p class="item-digest">​　　免费租车？《狼人杀官方》x联动云活动开启！</p>
</div>
<div class="item-ft">
<b class="item-date">日期：2021-01-05</b>
<b class="item-author">作者: 16163</b>
</div>
</div>
</div>
<div class="item">
<a class="item-side" href="      https://langrensha.163.com/wbn/ 
  ">
<img class="js-lazyimg" data-src="//ok.166.net/16163/2020-12-17/mm18/1608207284932_ambgi7.jpg?imageView&amp;thumbnail=160x120"/>
</a>
<div class="item-main">
<div class="item-hd">
<b class="item-category">新闻</b>
<i class="u-gap">|</i>
<a class="item-tt" href="      https://langrensha.163.com/wbn/ 
  ">《跑跑狼人杀》今日公测-3分钟超休闲社交推理</a>
</div>
<div class="item-bd">
<p class="item-digest">　　《狼人杀官方》年度版本“跑跑狼人杀”</p>
</div>
<div class="item-ft">
<b class="item-date">日期：2020-12-17</b>
<b class="item-author">作者: 16163</b>
</div>
</div>
</div>
<div class="item">
<a class="item-side" href="      //yys.16163.com/thread-7654014-1-1.html
  ">
<img class="js-lazyimg" data-src="//ok.166.net/16163/2020-12-11/mm18/1607681922503_nrbu3k.jpg?imageView&amp;thumbnail=160x120"/>
</a>
<div class="item-main">
<div class="item-hd">
<b class="item-category">新闻</b>
<i class="u-gap">|</i>
<a class="item-tt" href="      //yys.16163.com/thread-7654014-1-1.html
  ">大神——游戏热爱者兴趣圈</a>
</div>
<div class="item-bd">
<p class="item-digest">　　网聚大神、独家爆料、特权专享、游戏互通</p>
</div>
<div class="item-ft">
<b class="item-date">日期：2020-12-11</b>
<b class="item-author">作者: 16163</b>
</div>
</div>
</div>
<div class="item">
<a class="item-side" href="      /app/41109/
  ">
<img class="js-lazyimg" data-src="//ok.166.net/16163/2020-11-12/mm18/1605169430777_dz8fn0.jpg?imageView&amp;thumbnail=160x120"/>
</a>
<div class="item-main">
<div class="item-hd">
<b class="item-category">新闻</b>
<i class="u-gap">|</i>
<a class="item-tt" href="      /app/41109/
  ">战鼓喧天!《战三国：八阵奇谋》今日首测</a>
</div>
<div class="item-bd">
<p class="item-digest">　　全自由的策略玩法，原汁原味的自走体验，还有熟悉的三国武将带你进入奇妙的三国乱世、来一场趣味十足的策略对抗！</p>
</div>
<div class="item-ft">
<b class="item-date">日期：2020-11-12</b>
<b class="item-author">作者: 16163</b>
</div>
</div>
</div>
<div class="item">
<a class="item-side" href="      /mrzh/41107/
  ">
<img class="js-lazyimg" data-src="//ok.166.net/16163/2020-11-12/mm18/1605168054558_4qi21d.jpg?imageView&amp;thumbnail=160x120"/>
</a>
<div class="item-main">
<div class="item-hd">
<b class="item-category">新闻</b>
<i class="u-gap">|</i>
<a class="item-tt" href="      /mrzh/41107/
  ">Souler集结，闯荡真末世获取生存礼包</a>
</div>
<div class="item-bd">
<p class="item-digest">　　《明日之后》携手超受年轻人喜爱社交平台SoulApp联合推出：《Souler集结，闯荡真末世》的活动。</p>
</div>
<div class="item-ft">
<b class="item-date">日期：2020-11-12</b>
<b class="item-author">作者: 16163</b>
</div>
</div>
</div>
<div class="item">
<a class="item-side" href="      /lrs/41095/
  ">
<img class="js-lazyimg" data-src="//ok.166.net/16163/2020-11-09/mm18/1604913653757_dhiknc.jpg?imageView&amp;thumbnail=160x120"/>
</a>
<div class="item-main">
<div class="item-hd">
<b class="item-category">新闻</b>
<i class="u-gap">|</i>
<a class="item-tt" href="      /lrs/41095/
  ">《狼人杀官方》×雷诺，三周年限定手表礼盒上线</a>
</div>
<div class="item-bd">
<p class="item-digest">​　　值狼人杀三周年庆典之际，《狼人杀官方》xRARONE雷诺表联名款手表正式上线，同时在活动期间登录狼人杀游戏的玩家还可以领取雷诺表联名号码牌【雷诺表·号码牌】，感受更具科技时尚感的狼人杀游戏，体验更加炫酷刺激的精彩玩法。</p>
</div>
<div class="item-ft">
<b class="item-date">日期：2020-11-09</b>
<b class="item-author">作者: 16163</b>
</div>
</div>
</div>
<div class="item">
<a class="item-side" href="      /mrzh/41093/
  ">
<img class="js-lazyimg" data-src="//ok.166.net/16163/2020-11-06/mm18/1604642120093_ngvlsg.jpg?imageView&amp;thumbnail=160x120"/>
</a>
<div class="item-main">
<div class="item-hd">
<b class="item-category">新闻</b>
<i class="u-gap">|</i>
<a class="item-tt" href="      /mrzh/41093/
  ">《明日之后》第三季“人类重启世界”，重磅开启</a>
</div>
<div class="item-bd">
<p class="item-digest">　　《明日之后》第三季被命名为“人类，重启世界”——无缝大地图、感染体升级、海陆空三栖作战……《明日之后》11月7日将迎来一次前所未有的大变革……</p>
</div>
<div class="item-ft">
<b class="item-date">日期：2020-11-06</b>
<b class="item-author">作者: 16163</b>
</div>
</div>
</div>
<div class="item">
<a class="item-side" href="      /lrs/41091/
  ">
<img class="js-lazyimg" data-src="//ok.166.net/16163/2020-11-05/mm18/1604556990344_9n7uzp.jpg?imageView&amp;thumbnail=160x120"/>
</a>
<div class="item-main">
<div class="item-hd">
<b class="item-category">新闻</b>
<i class="u-gap">|</i>
<a class="item-tt" href="      /lrs/41091/
  ">月夜派对，组局狂欢！《狼人杀官方》三周年活动首曝</a>
</div>
<div class="item-bd">
<p class="item-digest">　　值三周年之际，狼人杀三周年庆典活动即将开启！全新角色版型12人永序之轮正式来袭，大咖主播空降直播间现场解析板子玩法，陪你玩转整个庆典！</p>
</div>
<div class="item-ft">
<b class="item-date">日期：2020-11-05</b>
<b class="item-author">作者: 16163</b>
</div>
</div>
</div>
<div class="item">
<a class="item-side" href="      https://cc.163.com/zt/myl
  ">
<img class="js-lazyimg" data-src="//ok.166.net/16163/2020-11-05/mm18/1604543675910_olekkr.jpg?imageView&amp;thumbnail=160x120"/>
</a>
<div class="item-main">
<div class="item-hd">
<b class="item-category">新闻</b>
<i class="u-gap">|</i>
<a class="item-tt" href="      https://cc.163.com/zt/myl
  ">《梦幻西游》手游武神坛巅峰赛</a>
</div>
<div class="item-bd">
<p class="item-digest">　　《梦幻西游》手游武神坛巅峰赛</p>
</div>
<div class="item-ft">
<b class="item-date">日期：2020-11-05</b>
<b class="item-author">作者: 16163</b>
</div>
</div>
</div>
<div class="item">
<a class="item-side" href="      /dtwsdy/41088/
  ">
<img class="js-lazyimg" data-src="//ok.166.net/16163/2020-11-02/mm18/1604298520192_aglwue.jpg?imageView&amp;thumbnail=160x120"/>
</a>
<div class="item-main">
<div class="item-hd">
<b class="item-category">新闻</b>
<i class="u-gap">|</i>
<a class="item-tt" href="      /dtwsdy/41088/
  ">重磅福利连环送  《大唐无双》双十一血拼外更精彩</a>
</div>
<div class="item-bd">
<p class="item-digest">　　放眼各大电商平台，今年已早早开启了岁末激情的双11狂欢血拼，甚至把游戏规则从双十一当天的零点抢购“光棍节”变成了一个月内两波的“双节棍”。大唐无双就不一样了，我们不做那么复杂的活动，所有福利直接送！</p>
</div>
<div class="item-ft">
<b class="item-date">日期：2020-11-02</b>
<b class="item-author">作者: 16163</b>
</div>
</div>
</div>
<div class="item">
<a class="item-side" href="      /stzb/41085/
  ">
<img class="js-lazyimg" data-src="//ok.166.net/16163/2020-10-21/mm18/1603254757806_dhbqaa.jpg?imageView&amp;thumbnail=160x120"/>
</a>
<div class="item-main">
<div class="item-hd">
<b class="item-category">新闻</b>
<i class="u-gap">|</i>
<a class="item-tt" href="      /stzb/41085/
  ">吃张飞牛肉，沾最棒的火锅《率土之滨》五周年跨界福利大不一样</a>
</div>
<div class="item-bd">
<p class="item-digest">　　《率土之滨》五周年盛典将于10月22日正式启动！同时，游戏还将携手 “张飞牛肉”、“有拈头成都市井火锅”展开跨界合作。</p>
</div>
<div class="item-ft">
<b class="item-date">日期：2020-10-21</b>
<b class="item-author">作者: 16163</b>
</div>
</div>
</div>
<div class="item">
<a class="item-side" href="      /dt/41083/
  ">
<img class="js-lazyimg" data-src="//ok.166.net/16163/2020-10-16/mm18/1602850222432_1zhr96.jpg?imageView&amp;thumbnail=160x120"/>
</a>
<div class="item-main">
<div class="item-hd">
<b class="item-category">新闻</b>
<i class="u-gap">|</i>
<a class="item-tt" href="      /dt/41083/
  ">《大唐无双》手游全新职业“风华”登场</a>
</div>
<div class="item-bd">
<p class="item-digest">　　网易新国风群战佳作《大唐无双》手游的热血嗜斗正在这肃杀秋风中被全面引爆：海棠花落处，首位双武器职业“风华”的惊艳登场</p>
</div>
<div class="item-ft">
<b class="item-date">日期：2020-10-16</b>
<b class="item-author">作者: 16163</b>
</div>
</div>
</div>
<div class="item">
<a class="item-side" href="      https://app.16163.com/ds/ulinks/?action=circle&amp;tab=game&amp;squareId=5bee2d70d545682b8bb8cc76
  ">
<img class="js-lazyimg" data-src="//ok.166.net/16163/2020-10-05/mm18/1601885327591_xdfc80.jpg?imageView&amp;thumbnail=160x120"/>
</a>
<div class="item-main">
<div class="item-hd">
<b class="item-category">新闻</b>
<i class="u-gap">|</i>
<a class="item-tt" href="      https://app.16163.com/ds/ulinks/?action=circle&amp;tab=game&amp;squareId=5bee2d70d545682b8bb8cc76
  ">《梦幻西游》手游大神请你看电影</a>
</div>
<div class="item-bd">
<p class="item-digest">　　海量《姜子牙》电影票等你来拿，还有各种周边福利活动</p>
</div>
<div class="item-ft">
<b class="item-date">日期：2020-10-05</b>
<b class="item-author">作者: 16163</b>
</div>
</div>
</div>
<div class="item">
<a class="item-side" href="      https://url.163.com/RRz
  ">
<img class="js-lazyimg" data-src="//ok.166.net/16163/2020-10-01/mm18/1601540667582_7xfd1g.jpg?imageView&amp;thumbnail=160x120"/>
</a>
<div class="item-main">
<div class="item-hd">
<b class="item-category">新闻</b>
<i class="u-gap">|</i>
<a class="item-tt" href="      https://url.163.com/RRz
  ">《梦幻西游》手游战队送福利-寻找梦幻锦鲤活动</a>
</div>
<div class="item-bd">
<p class="item-digest">　　寻找梦幻锦鲤，独享三千元大奖！</p>
</div>
<div class="item-ft">
<b class="item-date">日期：2020-10-01</b>
<b class="item-author">作者: 16163</b>
</div>
</div>
</div>
<div class="item">
<a class="item-side" href="      https://url.163.com/9Lq
  ">
<img class="js-lazyimg" data-src="//ok.166.net/16163/2020-10-01/mm18/1601540220929_7629xm.jpg?imageView&amp;thumbnail=160x120"/>
</a>
<div class="item-main">
<div class="item-hd">
<b class="item-category">新闻</b>
<i class="u-gap">|</i>
<a class="item-tt" href="      https://url.163.com/9Lq
  ">《梦幻西游电脑版》大神&amp;藏宝阁联动活动</a>
</div>
<div class="item-bd">
<p class="item-digest">　　金秋人团圆，大神送好礼</p>
</div>
<div class="item-ft">
<b class="item-date">日期：2020-10-01</b>
<b class="item-author">作者: 16163</b>
</div>
</div>
</div>
<div class="item">
<a class="item-side" href="      /zm/41072/
  ">
<img class="js-lazyimg" data-src="//ok.166.net/16163/2020-09-30/mm18/1601480001061_s2ockq.jpg?imageView&amp;thumbnail=160x120"/>
</a>
<div class="item-main">
<div class="item-hd">
<b class="item-category">新闻</b>
<i class="u-gap">|</i>
<a class="item-tt" href="      /zm/41072/
  ">《镇魔曲》联动《我和我的家乡》活动福利多</a>
</div>
<div class="item-bd">
<p class="item-digest">　　《镇魔曲》携手《我和我的家乡》影游联动，还有双节庆典同步上线，精彩活动福利不断！</p>
</div>
<div class="item-ft">
<b class="item-date">日期：2020-09-30</b>
<b class="item-author">作者: 16163</b>
</div>
</div>
</div>
<div class="item">
<a class="item-side" href="      /hyj/41071/
  ">
<img class="js-lazyimg" data-src="//ok.166.net/16163/2020-09-30/mm18/1601479366847_e1efun.jpg?imageView&amp;thumbnail=160x120"/>
</a>
<div class="item-main">
<div class="item-hd">
<b class="item-category">新闻</b>
<i class="u-gap">|</i>
<a class="item-tt" href="      /hyj/41071/
  ">“花与剑”与国漫《木兰：横空出世》联动国庆活动</a>
</div>
<div class="item-bd">
<p class="item-digest">　　“花与剑”携手国漫《木兰：横空出世》，双节庆典、联动活动正火热进行中</p>
</div>
<div class="item-ft">
<b class="item-date">日期：2020-09-30</b>
<b class="item-author">作者: 16163</b>
</div>
</div>
</div>
<div class="item">
<a class="item-side" href="      https://act.ds.163.com/caa6e9455189fb93/5f69a287ed7dde35d629a7dd?utm_source=bbs
  ">
<img class="js-lazyimg" data-src="//ok.166.net/16163/2020-09-28/mm18/1601292329253_vcwd57.jpg?imageView&amp;thumbnail=160x120"/>
</a>
<div class="item-main">
<div class="item-hd">
<b class="item-category">新闻</b>
<i class="u-gap">|</i>
<a class="item-tt" href="      https://act.ds.163.com/caa6e9455189fb93/5f69a287ed7dde35d629a7dd?utm_source=bbs
  ">《梦幻西游电脑版》大神&amp;藏宝阁联动活动</a>
</div>
<div class="item-bd">
<p class="item-digest">　　网易大神金秋送爽</p>
</div>
<div class="item-ft">
<b class="item-date">日期：2020-09-28</b>
<b class="item-author">作者: 16163</b>
</div>
</div>
</div>
</div>
<div class="m-more" data-current="2" data-size="9" id="mainNewsMore">
<span class="normal">点击加载更多</span>
<span class="pending">正在加载</span>
<span class="ending">全部数据已加载</span>
</div>
</div>
</div>
</div>
<!-- 侧栏 -->
<div class="g-col g-col-side">
<!-- 礼包 -->
<div class="m-side-mod">
<!-- <div class="mod-hd">
          <div class="mod-tt">
            <div class="mod-tt-zh">礼包</div>
            <div class="mod-tt-en"><i class="triangle"></i>Package</div>
          </div>
          <a class="mod-more" href="//www.16163.com/libao/">礼包中心+</a>
        </div>
        <div class="mod-bd">
          <div class="m-package" style="margin-top: -20px;">
            <table>
              <tbody>
                                <tr class="odd">
                  <td class="game"><div><b>&gt;</b><span><a href="/libao/1187/">礼包福利中心</a></span></div></td>
                  <td class="type"><div>镇魔曲页游新手礼包</div></td>
                  <td class="progress"><div>剩余<b>94%</b></div></td>
                  <td class="handle"><div><a href="/libao/1187/" class="u-btn">领取</a></div></td>
                </tr>
                                <tr class="even">
                  <td class="game"><div><b>&gt;</b><span><a href="/libao/686/">礼包福利中心</a></span></div></td>
                  <td class="type"><div>官网普发礼包</div></td>
                  <td class="progress"><div>剩余<b>100%</b></div></td>
                  <td class="handle"><div><a href="/libao/686/" class="u-btn">领取</a></div></td>
                </tr>
                                <tr class="odd">
                  <td class="game"><div><b>&gt;</b><span><a href="/libao/687/">礼包福利中心</a></span></div></td>
                  <td class="type"><div>渠道初级礼包</div></td>
                  <td class="progress"><div>剩余<b>100%</b></div></td>
                  <td class="handle"><div><a href="/libao/687/" class="u-btn">领取</a></div></td>
                </tr>
                                <tr class="even">
                  <td class="game"><div><b>&gt;</b><span><a href="/libao/688/">礼包福利中心</a></span></div></td>
                  <td class="type"><div>渠道进阶礼包</div></td>
                  <td class="progress"><div>剩余<b>99%</b></div></td>
                  <td class="handle"><div><a href="/libao/688/" class="u-btn">领取</a></div></td>
                </tr>
                              </tbody>
            </table>
          </div>
        </div> -->
</div>
<!-- 社区 -->
<div class="m-side-mod">
<div class="mod-hd">
<div class="mod-tt">
<div class="mod-tt-zh">社区</div>
<div class="mod-tt-en"><i class="triangle"></i>Commnity</div>
</div>
<a class="mod-more" href="//bbs.16163.com/">社区中心+</a>
</div>
<div class="mod-bd">
<div class="m-commnity">
<div class="item">
<div class="item-con">
<div class="item-side">
<a href="https://langrensha.163.com/">
<img class="item-img js-lazyimg" data-src="//ok.166.net/16163/2021-01-05/mm18/1609834500881_unk0lu.jpg?imageView&amp;thumbnail=160x90"/>
</a>
</div>
<div class="item-main">
<a class="item-tt" href="https://langrensha.163.com/">《狼人杀官方》x联动云活动开启！</a>
<p class="item-digest">携手联动云租车平台为大家送福利啦！</p>
</div>
</div>
</div>
<div class="item">
<div class="item-con">
<div class="item-side">
<a href="https://langrensha.163.com/wbn/ ">
<img class="item-img js-lazyimg" data-src="//ok.166.net/16163/2020-12-17/mm18/1608205406060_ltmva2.jpg?imageView&amp;thumbnail=160x90"/>
</a>
</div>
<div class="item-main">
<a class="item-tt" href="https://langrensha.163.com/wbn/ ">《跑跑狼人杀》今日公测</a>
<p class="item-digest">3分钟超休闲社交推理</p>
</div>
</div>
</div>
<div class="item">
<div class="item-con">
<div class="item-side">
<a href="https://next.163.com/act/pc/2020/winter_ticket_sales/mobile.html">
<img class="item-img js-lazyimg" data-src="//ok.166.net/16163/2020-12-21/mm18/1608537006851_fzsvm7.jpg?imageView&amp;thumbnail=160x90"/>
</a>
</div>
<div class="item-main">
<a class="item-tt" href="https://next.163.com/act/pc/2020/winter_ticket_sales/mobile.html">NeXT冬季赛 售票开启</a>
<p class="item-digest">NeXT冬季赛 售票开启</p>
</div>
</div>
</div>
<div class="item">
<div class="item-con">
<div class="item-side">
<a href="//www.16163.com/hy/39846/">
<img class="item-img js-lazyimg" data-src="//ok.166.net/16163/2019-08-13/mm18/1565688801007_qrrpdn.jpg?imageView&amp;thumbnail=160x90"/>
</a>
</div>
<div class="item-main">
<a class="item-tt" href="//www.16163.com/hy/39846/">《荒野行动》荒野之王东京加冕</a>
<p class="item-digest">日本史上最大电竞赛事之一圆满收官</p>
</div>
</div>
</div>
<div class="item">
<div class="item-con">
<div class="item-side">
<a href="//room.163.com/">
<img class="item-img js-lazyimg" data-src="//ok.166.net/16163/2019-05-28/mm18/1559020329009_jmyhey.jpg?imageView&amp;thumbnail=160x90"/>
</a>
</div>
<div class="item-main">
<a class="item-tt" href="//room.163.com/">《迷室3》5月28日安卓首发</a>
<p class="item-digest">《迷室3》5月28日安卓首发</p>
</div>
</div>
</div>
</div>
</div>
</div>
<div class="u-banner">
<a href="https://ds.163.com/">
<img class="js-lazyimg" data-src="//ok.166.net/16163/2020-12-11/mm18/1607682387822_hjfdmi.jpg?imageView&amp;thumbnail=500x150" height="150" width="500"/>
</a>
</div>
<!-- 活动 -->
<div class="m-side-mod">
<div class="mod-hd">
<div class="mod-tt">
<div class="mod-tt-zh">活动</div>
<div class="mod-tt-en"><i class="triangle"></i>Activity</div>
</div>
<a class="mod-more" href="//www.16163.com/huodong/">活动中心+</a>
</div>
<div class="mod-bd">
<div class="m-activity">
<div class="item">
<div class="item-con">
<div class="item-side">
<a href="      /mhxysy/39016/
  ">
<img class="item-img js-lazyimg" data-src="//ok.166.net/16163/2019-03-29/mm18/1553829228263_azsfv9.jpg?imageView&amp;thumbnail=160x120&amp;crop=0_0_160_90"/>
</a>
</div>
<div class="item-main">
<a class="item-tt" href="      /mhxysy/39016/
  ">生日惊喜《梦幻西游》手游周年庆 青春盛典明日开幕</a>
<p class="item-digest">　　3月30日，《梦幻西游》手游周年庆•青春盛典就将在西安君悦酒店拉开帷幕。在这个特别的日子里，《梦幻西游》手游为线上线下玩家准备了多重惊喜活动。无论玩家身处何方，只要参与其中，就能在与游戏同庆生日的</p>
</div>
</div>
</div>
<div class="item">
<div class="item-con">
<div class="item-side">
<a href="      /app/38887/
  ">
<img class="item-img js-lazyimg" data-src="//ok.166.net/16163/2019-03-20/mm18/1553050936693_lkqga4.jpg?imageView&amp;thumbnail=160x120&amp;crop=0_0_160_90"/>
</a>
</div>
<div class="item-main">
<a class="item-tt" href="      /app/38887/
  ">笙歌嘹亮《网易棋牌》我爱打大A 赛事正式启动</a>
<p class="item-digest">　　棋牌一直以来都是人们娱乐消遣的首选方式，而在其中对于内蒙玩家而言，“打大A”以其刺激的规则和充满博弈性的玩法，获得了广大棋牌爱好者的喜爱。现在，《网易棋牌》面向爱好者精心打造了“我爱打大A”赛事，</p>
</div>
</div>
</div>
<div class="item">
<div class="item-con">
<div class="item-side">
<a href="      /lh/38860/
  ">
<img class="item-img js-lazyimg" data-src="//ok.166.net/16163/2019-03-18/mm18/1552876249861_nzkpkl.jpg?imageView&amp;thumbnail=160x120&amp;crop=0_0_160_90"/>
</a>
</div>
<div class="item-main">
<a class="item-tt" href="      /lh/38860/
  ">法老王礼装登场《猎魂觉醒》X美团外卖狩猎季送福利</a>
<p class="item-digest">　　随着网易超真实3D团队狩猎手游《猎魂觉醒》新版本“春日围猎”的更新，艾兰特大陆上的游骑兵们又开始前赴后继地开启讨伐全新巨兽“影蛇龙”征程。此外，“征伐四野”战团争霸赛也即将开启，各个战团的勇士们都</p>
</div>
</div>
</div>
<div class="item">
<div class="item-con">
<div class="item-side">
<a href="      /mhxysy/38755/
  ">
<img class="item-img js-lazyimg" data-src="//ok.166.net/16163/2019-03-11/mm18/1552272079303_17kxrq.jpg?imageView&amp;thumbnail=160x120&amp;crop=0_0_160_90"/>
</a>
</div>
<div class="item-main">
<a class="item-tt" href="      /mhxysy/38755/
  ">欢聚西安《梦幻西游》手游周年庆 青春盛典火热报名中</a>
<p class="item-digest">　　亲临千年古都，同庆梦幻生辰。3月30日，《梦幻西游》手游周年庆·青春盛典就将在西安君悦酒店拉开帷幕。为了能够让更多的玩家近距离参与到这一盛世狂欢中，《梦幻西游》手游也广发英雄帖，邀请各地玩家前来西</p>
</div>
</div>
</div>
<div class="item">
<div class="item-con">
<div class="item-side">
<a href="      /mhxysy/38465/
  ">
<img class="item-img js-lazyimg" data-src="//ok.166.net/16163/2019-02-14/mm18/1550111352364_fqxs9q.jpg?imageView&amp;thumbnail=160x120&amp;crop=0_0_160_90"/>
</a>
</div>
<div class="item-main">
<a class="item-tt" href="      /mhxysy/38465/
  ">集体婚礼《梦幻西游》手游情人节玩法温情上线</a>
<p class="item-digest">　　春节的脚步已经逐渐远去，在这个春暖花开的季节，《梦幻西游》手游情人节活动也如期拉开帷幕。浪漫的集体婚礼、甜蜜的寻找梦幻C位情侣以及面向有情人的浓情巧克力，三大活动等待着玩家前来体验。也许在此过程中</p>
</div>
</div>
</div>
</div>
</div>
</div>
<!-- 专题 -->
<div class="m-side-mod">
<div class="mod-hd">
<div class="mod-tt">
<div class="mod-tt-zh">专题</div>
<div class="mod-tt-en"><i class="triangle"></i>Special</div>
</div>
<a class="mod-more" href="//www.16163.com/zt/mhxysy/hz/">专题中心+</a>
</div>
<div class="mod-bd">
<div class="m-special">
<div class="item">
<div class="item-con">
<a href="//www.16163.com/zt/yys/gwcx/">
<img class="item-img js-lazyimg" data-src="//nos.gameyw.netease.com/gameyw-gbox/2016-12-22/mm18/1482373660125_ashjtq.jpg?imageView&amp;thumbnail=240y80&amp;axis=4&amp;enlarge=1"/>
<div class="item-ft"><p class="item-tt">阴阳师悬赏封印怪物查询</p></div>
</a>
</div>
</div>
<div class="item">
<div class="item-con">
<a href="//www.16163.com/zt/yys/sszj/">
<img class="item-img js-lazyimg" data-src="//nos.gameyw.netease.com/gameyw-gbox/2016-11-25/mm18/1480066802499_tvjg6y.jpg?imageView&amp;thumbnail=240y80&amp;axis=4&amp;enlarge=1"/>
<div class="item-ft"><p class="item-tt">阴阳师式神传记解锁条件查询</p></div>
</a>
</div>
</div>
<div class="item">
<div class="item-con">
<a href="//dhxy.netease.com/zt/qyh/">
<img class="item-img js-lazyimg" data-src="//nos.gameyw.netease.com/gameyw-gbox/1472475191615_8hmh3w.jpg?imageView&amp;thumbnail=240y80&amp;axis=4&amp;enlarge=1"/>
<div class="item-ft"><p class="item-tt">情义匠心铸就 玩家精品集锦</p></div>
</a>
</div>
</div>
<div class="item">
<div class="item-con">
<a href="//www.16163.com/zt/mhxysy/kejudatiqi/">
<img class="item-img js-lazyimg" data-src="//nos.gameyw.netease.com/gameyw-gbox/1462865180691_towdmk.jpg?imageView&amp;thumbnail=240y80&amp;axis=4&amp;enlarge=1"/>
<div class="item-ft"><p class="item-tt">梦幻西游手游科举答题器</p></div>
</a>
</div>
</div>
<div class="item">
<div class="item-con">
<a href="//www.16163.com/zt/dhxysy/dtq/">
<img class="item-img js-lazyimg" data-src="//nos.gameyw.netease.com/gameyw-gbox/1462865243932_ggtdgx.jpg?imageView&amp;thumbnail=240y80&amp;axis=4&amp;enlarge=1"/>
<div class="item-ft"><p class="item-tt">大话西游手游科举答题器</p></div>
</a>
</div>
</div>
<div class="item">
<div class="item-con">
<a href="//www.16163.com/zt/dhxysy/zhsmnq/">
<img class="item-img js-lazyimg" data-src="//nos.gameyw.netease.com/gameyw-gbox/1462865307425_oat2tw.jpg?imageView&amp;thumbnail=240y80&amp;axis=4&amp;enlarge=1"/>
<div class="item-ft"><p class="item-tt">大话西游手游召唤兽属性加点模拟器</p></div>
</a>
</div>
</div>
<div class="item">
<div class="item-con">
<a href="//www.16163.com/zt/mhxysy/sjqydtq/">
<img class="item-img js-lazyimg" data-src="//nos.gameyw.netease.com/gameyw-gbox/1462865339606_uwrrje.jpg?imageView&amp;thumbnail=240y80&amp;axis=4&amp;enlarge=1"/>
<div class="item-ft"><p class="item-tt">梦幻西游手游三界奇缘答题器</p></div>
</a>
</div>
</div>
<div class="item">
<div class="item-con">
<a href="//www.16163.com/zt/dhxysy/zhs/">
<img class="item-img js-lazyimg" data-src="//nos.gameyw.netease.com/gameyw-gbox/1462865379877_hi3llc.jpg?imageView&amp;thumbnail=240y80&amp;axis=4&amp;enlarge=1"/>
<div class="item-ft"><p class="item-tt">大话西游手游召唤兽图鉴</p></div>
</a>
</div>
</div>
</div>
</div>
</div>
<!-- 视频 -->
<div class="m-side-mod">
<div class="mod-hd">
<div class="mod-tt">
<div class="mod-tt-zh">视频</div>
<div class="mod-tt-en"><i class="triangle"></i>Video</div>
</div>
<a class="mod-more" href="//www.16163.com/shipin/">视频中心+</a>
</div>
<div class="mod-bd">
<div class="m-video">
<div class="item">
<div class="item-con">
<a href="      /yys/38920/
  ">
<img class="item-img js-lazyimg" data-src="//ok.166.net/16163/2019-03-21/mm18/1553137681318_4sei9m.jpg?imageView&amp;thumbnail=240x180"/>
<i class="item-play-icon"></i>
<div class="item-ft"><p class="item-tt">赤刃之影《阴阳师》妖刀姬传记视频登场</p></div>
<i class="item-bg"></i>
</a>
</div>
</div>
<div class="item">
<div class="item-con">
<a href="      /zm/38822/
  ">
<img class="item-img js-lazyimg" data-src="//ok.166.net/16163/2019-03-15/mm18/1552617816083_wgj41v.jpg?imageView&amp;thumbnail=240x180"/>
<i class="item-play-icon"></i>
<div class="item-ft"><p class="item-tt">《镇魔曲》携手口碑电影《过春天》邂逅春日美好</p></div>
<i class="item-bg"></i>
</a>
</div>
</div>
<div class="item">
<div class="item-con">
<a href="      /tx/38777/
  ">
<img class="item-img js-lazyimg" data-src="//ok.166.net/16163/2019-03-13/mm18/1552443383726_a1imls.jpg?imageView&amp;thumbnail=240x180"/>
<i class="item-play-icon"></i>
<div class="item-ft"><p class="item-tt">神机尽出箭惊魂《天下》手游全新门派资料片来袭</p></div>
<i class="item-bg"></i>
</a>
</div>
</div>
<div class="item">
<div class="item-con">
<a href="      /yys/38695/
  ">
<img class="item-img js-lazyimg" data-src="//ok.166.net/16163/2019-03-06/mm18/1551840697885_hrhnxn.jpg?imageView&amp;thumbnail=240x180"/>
<i class="item-play-icon"></i>
<div class="item-ft"><p class="item-tt">黑寂夜赤影《阴阳师》全新SP式神赤影妖刀姬登场</p></div>
<i class="item-bg"></i>
</a>
</div>
</div>
</div>
</div>
</div>
<!-- 美图 -->
<div class="m-side-mod js-side-sticker">
<div class="mod-hd">
<div class="mod-tt">
<div class="mod-tt-zh">美图</div>
<div class="mod-tt-en"><i class="triangle"></i>Picture</div>
</div>
<a class="mod-more" href="//www.16163.com/">美图中心+</a>
</div>
<div class="mod-bd">
<div class="m-picture">
<div class="item">
<div class="js-hoverdirer item-con hero">
<a href="      /yxl/39346/
  ">
<img class="item-img js-lazyimg" data-src="//ok.166.net/16163/2019-05-08/mm18/1557282189016_gjngrw.jpg?imageView&amp;thumbnail=240y260&amp;enlarge=1"/>
</a>
<a class="js-hoverelem item-hover-elem" href="      /yxl/39346/
  ">
<div class="item-text">
<p class="item-tt">《神都夜行录》少司命COSPLAY合集大赏</p>
<p class="item-digest">　　竟有这么美的小姐姐？《神都夜行录》少司命COSPLAY合集大赏4月26日，网易新概念妖灵大作《神都夜行录》半周年庆·第三期正式开启，妖灵女神少司命震撼登场！凭借超强的战力以及温柔的形象，少司命瞬间</p>
</div>
<i class="item-bg"></i>
</a>
</div>
</div>
<div class="item">
<div class="js-hoverdirer item-con">
<a href="      /yys/39109/
  ">
<img class="item-img js-lazyimg" data-src="//ok.166.net/16163/2019-04-08/mm18/1554701139107_eceghg.jpg?imageView&amp;thumbnail=240y120"/>
</a>
<a class="js-hoverelem item-hover-elem" href="      /yys/39109/
  ">
<div class="item-text">
<p class="item-tt">《阴阳师》绮妆魅服cosplay大赛佳作展示</p>
<p class="item-digest">　　 　　绮妆魅服，一展英姿。《阴阳师》大触觉醒创作大赛之绮妆魅服Cosplay大赛正在火热进行中！看着精心打扮，在现世中化作一个个爱崽的阴阳师们，寮办决定将美图拿出来与各位一同分享！ 　　【作品鉴赏</p>
</div>
<i class="item-bg"></i>
</a>
</div>
</div>
<div class="item">
<div class="js-hoverdirer item-con">
<a href="      /yys/38946/
  ">
<img class="item-img js-lazyimg" data-src="//ok.166.net/16163/2019-03-25/mm18/1553483750600_tp5bsu.jpg?imageView&amp;thumbnail=240y120"/>
</a>
<a class="js-hoverelem item-hover-elem" href="      /yys/38946/
  ">
<div class="item-text">
<p class="item-tt">百绘罗衣佳作集锦第一弹《阴阳师》创作大赛火热进行时</p>
<p class="item-digest">　　春风袭来，新绿初发，粉嫩的云樱开满了庭院。第二届大触觉醒·阴阳师创作大赛正在如火如荼地进行着，寮办也时刻关注着大触们的投稿！ 　　本届百绘罗衣·式神皮肤设计大赛中涌现了非常多优秀的作品，快来一起欣</p>
</div>
<i class="item-bg"></i>
</a>
</div>
</div>
<div class="item">
<div class="js-hoverdirer item-con">
<a href="      /qwq/38919/
  ">
<img class="item-img js-lazyimg" data-src="//ok.166.net/16163/2019-03-21/mm18/1553136739088_fnb5bf.jpg?imageView&amp;thumbnail=240y120"/>
</a>
<a class="js-hoverelem item-hover-elem" href="      /qwq/38919/
  ">
<div class="item-text">
<p class="item-tt">重工组长于彦舒主笔《非人学园》漫画SP金银双子篇</p>
<p class="item-digest">　　热血没头脑，高冷不高兴！《非人学园》漫画开启崭新篇章，正式推出SP《三只角》，为你讲述金角银角兄弟俩的故事。学园漫画SP《三只角》金银双子篇，由知名漫画家于彦舒主笔，现已在网易漫画和bilibil</p>
</div>
<i class="item-bg"></i>
</a>
</div>
</div>
<div class="item">
<div class="js-hoverdirer item-con">
<a href="      /yys/38881/
  ">
<img class="item-img js-lazyimg" data-src="//ok.166.net/16163/2019-03-20/mm18/1553048136901_s13ktg.jpg?imageView&amp;thumbnail=240y120"/>
</a>
<a class="js-hoverelem item-hover-elem" href="      /yys/38881/
  ">
<div class="item-text">
<p class="item-tt">百鬼对戏你是导演《阴阳师》春樱小剧场开启</p>
<p class="item-digest">　　在漫至天际的樱粉下，式神们在女子会上所诉说的故事，各位阴阳师还记得吗？春林中，再次盛开的樱花树下，来参加樱花祭的大家似乎在筹备着什么…式神们的手里都拿着厚厚的台本，原来正在对台词呢！即将开演的春樱</p>
</div>
<i class="item-bg"></i>
</a>
</div>
</div>
</div>
</div>
</div>
</div>
</div>
<div class="u-banner js-bottom-banner">
<a href="//yys.16163.com/thread-7654012-1-1.html">
<img class="js-lazyimg" data-src="//ok.166.net/16163/2020-12-11/mm18/1607656966948_5wbutw.jpg?imageView&amp;thumbnail=1200x100" height="100" width="1200"/>
</a>
</div>
</div>
<div class="m-friendly-link" id="friendlyLink">
<div class="g-main">
<div class="tt">友情链接</div>
<p class="links">
<a href="http://www.16163.com/mhxysy/">梦幻西游手游</a>
<i class="u-gap">|</i>
<a href="https://ds.163.com/">网易大神</a>
<i class="u-gap">|</i>
<a href="http://bbs.16163.com">网易手机游戏论坛</a>
<i class="u-gap">|</i>
<a href="https://myl.163.com/">靠谱助手</a>
<i class="u-gap">|</i>
<a href="http://www.kaopu001.com/">安卓模拟器</a>
<i class="u-gap">|</i>
<a href="http://dhxy.16163.com/">大话西游手游</a>
<i class="u-gap">|</i>
<a href="http://www.16163.com/">网易手机游戏</a>
<i class="u-gap">|</i>
<a href="http://ty.netease.com/">天谕官网论坛</a>
<i class="u-gap">|</i>
<a href="http://cjyx.sjwyx.com/">超级英雄官网</a>
<i class="u-gap">|</i>
<a href="http://www.sfw.cn/">上方网</a>
<i class="u-gap">|</i>
<a href="http://news.tongbu.com/">同步推资讯</a>
<i class="u-gap">|</i>
<a href="http://u.360.cn/">360游戏大厅</a>
<i class="u-gap">|</i>
<a href="http://www.candou.com/">蚕豆网</a>
<i class="u-gap">|</i>
<a href="http://www.diyiyou.com/">手机网游</a>
<i class="u-gap">|</i>
<a href="http://www.16163.com/zt/mhxysy/kejudatiqi/">梦幻西游手游科举答题器</a>
<i class="u-gap">|</i>
<a href="http://www.987you.com/">新浪手游助手</a>
<i class="u-gap">|</i>
<a href="http://www.jdbbx.com/">简单百宝箱</a>
<i class="u-gap">|</i>
<a href="http://www.oneplusbbs.com/">一加手机</a>
<i class="u-gap">|</i>
<a href="http://www.97973.com/">97973手游</a>
<i class="u-gap">|</i>
<a href="http://m.16163.com/">16163游戏手机版</a>
<i class="u-gap">|</i>
<a href="http://www.16163.com/game/">网易游戏排行榜</a>
<i class="u-gap">|</i>
<a href="http://www.99danji.com/new/">最新单机游戏</a>
<i class="u-gap">|</i>
<a href="http://lushi.163.com/">炉石传说</a>
<i class="u-gap">|</i>
<a href="http://lushi.16163.com/">炉石传说论坛</a>
<i class="u-gap">|</i>
<a href="http://iphone.gamedog.cn/">iphone中文网</a>
<i class="u-gap">|</i>
<a href="http://tx.16163.com/">天下手游论坛</a>
<i class="u-gap">|</i>
<a href="http://yys.16163.com/">阴阳师论坛</a>
<i class="u-gap">|</i>
<a href="http://cc.163.com/category/30/">倩女幽魂手游</a>
<i class="u-gap">|</i>
<a href="http://www.crxz.com/soft/">电脑软件下载</a>
<i class="u-gap">|</i>
<a href="http://www.8090app.com/">手机游戏</a>
<i class="u-gap">|</i>
<a href="http://37.com.cn/">37手游</a>
<i class="u-gap">|</i>
<a href="http://www.doudou.in/">在线小游戏</a>
<i class="u-gap">|</i>
<a href="http://www.ccplay.cc/">虫虫游戏 </a>
<i class="u-gap">|</i>
<a href="http://mc.netease.com/">网易我的世界论坛</a>
<i class="u-gap">|</i>
<a href="http://cc.163.com/">CC直播</a>
<i class="u-gap">|</i>
<a href="https://next.163.com/">NeXT</a>
<i class="u-gap">|</i>
<a href="http://cc.163.com/category/9050/">明日之后直播</a>
<i class="u-gap">|</i>
<a href="http://cc.163.com/category/9028/">终结者2：审判日</a>
<i class="u-gap">|</i>
<a href="http://cc.163.com/category/1005/">炉石传说直播</a>
<i class="u-gap">|</i>
<a href="http://cc.163.com/category/1007/">守望先锋</a>
<i class="u-gap">|</i>
<a href="http://cc.163.com/category/9074/">绝地求生</a>
<i class="u-gap">|</i>
<a href="http://cc.163.com/category/9043/">非人学园</a>
<i class="u-gap">|</i>
<a href="http://cc.163.com/category/9006/">我的世界</a>
<i class="u-gap">|</i>
<a href="http://cc.163.com/category/9053/">神都夜行录</a>
<i class="u-gap">|</i>
<a href="http://next.163.com/match/nextyys_2018winter">阴阳师</a>
<i class="u-gap">|</i>
<a href="http://next.163.com/match/nextid5_winter">第五人格</a>
<i class="u-gap">|</i>
<a href="http://next.163.com/match/nextxyq_winter">梦幻西游</a>
<i class="u-gap">|</i>
<a href="https://www.mcmod.cn/">MC百科</a>
<i class="u-gap">|</i>
<a href="http://cc.163.com/category/9046/">堡垒前线直播</a>
<i class="u-gap">|</i>
<a href="http://cc.163.com/category/9077/">猫和老鼠直播</a>
<i class="u-gap">|</i>
<a href="https://cc.163.com/390227/">张小臣直播间</a>
</p>
</div>
</div>
</div>
<div class="m-site-footer" id="siteFooter">
<div class="g-main">
<div class="links">
<a href="http://gb.corp.163.com/gb/about/overview.html">公司简介</a><i class="u-gap">|</i>
<a href="http://gm.163.com/">客户服务</a><i class="u-gap">|</i>
<a href="http://gb.corp.163.com/gb/legal.html">网易集团隐私政策及儿童个人信息保护规则</a><i class="u-gap">|</i>
<a href="http://game.163.com/contact/">联系我们</a><i class="u-gap">|</i>
<a href="http://game.163.com/contact/business.html">商务合作</a><i class="u-gap">|</i>
<a href="http://game.163.com/job/">加入我们</a><i class="u-gap">|</i>
<a href="https://game.16163.com/report/"> 不良信息举报</a><i class="u-gap">|</i>
<a href="http://m.16163.com/">16163手机版</a>
</div>
<p>Copyright 2014-2021 16163 , All Rights Reserved <a href="http://www.beian.miit.gov.cn" rel="nofollow" target="_blank">浙B2-20090185-4</a> <a href="http://www.beian.gov.cn/portal/registerSystemInfo?recordcode=33010002000110" rel="nofollow" target="_blank">浙公网安备33010002000110号</a></p>
<p>
        杭州网易雷火科技有限公司版权所有 ©1997-2021 <i class="u-gap">|</i>
<a class="highlight" href="https://jiazhang.gm.163.com/">点击查看家长关爱平台  &gt;</a>
</p>
<p style="margin-top:20px;">违法和不良信息举报电话：0571-89853167　举报邮箱：<a href="mailto:jubao@vip.163.com">jubao@vip.163.com</a>
</p>
</div>
</div>
<div class="m-stock-sidebar" id="stockSidebar">
<a class="item item-bbsapp" href="https://ds.163.com/?from=16163">
<i class="icon"></i><span class="text">客户端</span>
<div class="flag">
<em></em>
<img src="https://ok.166.net/16163/2018-05-24/mm18/1527145308788_tvk2ep.jpg"/>
</div>
</a>
<a class="item item-bbs" href="http://bbs.16163.com/">
<i class="icon"></i><span class="text">论坛</span>
</a>
<a class="item item-backtop" href="javascript:;" id="backTop" target="_self">
<i class="icon"></i>
</a>
</div>
<style>
    .m-banner-sidebar{height: 283px;width: 147px;}
    .m-banner-sidebar.left{right:inherit;left: 0;}
  </style>
<div class="m-banner-sidebar" id="bannerSidebar">
<a class="close" href="javascript:;" id="bannerSidebarClose"></a>
<a href="https://ds.163.com?from=16163" target="_blank"><img src="https://ok.166.net/16163/2018-05-24/mm18/1527143214176_dtss2r.jpg"/></a>
</div>
<script src="//www.16163.com/static/v2/js/vendor.84a399f1.js"></script>
<script src="//www.16163.com/static/v2/js/index.entry.4955ff72.js"></script>
<script src="//analytics.163.com/ntes.js"></script>
<script>
    _ntes_nacc = "www16163";neteaseTracker();

          var _hmt = _hmt || [];
      (function() {
        //百度统计
        var hm = document.createElement("script");
        hm.src = "//hm.baidu.com/hm.js?f3c3b60ac3050074e7f4e6ea815d2cc8";
        var s = document.getElementsByTagName("script")[0];
        s.parentNode.insertBefore(hm, s);
      })();
      </script>
</body>
</html>
