<!DOCTYPE html>
<html lang="en">
<head>
<title></title>
<meta content="" name="description"/>
<meta content="" name="keywords"/>
<meta charset="utf-8"/>
<meta content="width=device-width, initial-scale=1" name="viewport"/>
<meta content="AMWUA" property="og:site_name"/>
<meta content="" property="og:title"/>
<meta content="" property="og:description"/>
<meta content="" property="og:image"/>
<meta content="" property="og:type"/>
<meta content="https://www.amwua.org/Signin%09%0A" property="og:url"/>
<meta content="" property="fb:app_id"/>
<meta content="" name="twitter:image"/>
<meta content="" itemprop="image"/>
<meta content="" name="google-site-verification"/>
<link href="https://www.amwua.org/apple-icon-57x57.png" rel="apple-touch-icon" sizes="57x57"/>
<link href="https://www.amwua.org/apple-icon-60x60.png" rel="apple-touch-icon" sizes="60x60"/>
<link href="https://www.amwua.org/apple-icon-72x72.png" rel="apple-touch-icon" sizes="72x72"/>
<link href="https://www.amwua.org/apple-icon-76x76.png" rel="apple-touch-icon" sizes="76x76"/>
<link href="https://www.amwua.org/apple-icon-114x114.png" rel="apple-touch-icon" sizes="114x114"/>
<link href="https://www.amwua.org/apple-icon-120x120.png" rel="apple-touch-icon" sizes="120x120"/>
<link href="https://www.amwua.org/apple-icon-144x144.png" rel="apple-touch-icon" sizes="144x144"/>
<link href="https://www.amwua.org/apple-icon-152x152.png" rel="apple-touch-icon" sizes="152x152"/>
<link href="https://www.amwua.org/apple-icon-180x180.png" rel="apple-touch-icon" sizes="180x180"/>
<link href="https://www.amwua.org/android-icon-192x192.png" rel="icon" sizes="192x192" type="image/png"/>
<link href="https://www.amwua.org/favicon-32x32.png" rel="icon" sizes="32x32" type="image/png"/>
<link href="https://www.amwua.org/favicon-96x96.png" rel="icon" sizes="96x96" type="image/png"/>
<link href="https://www.amwua.org/favicon-16x16.png" rel="icon" sizes="16x16" type="image/png"/>
<link href="https://www.amwua.org/css/main.css" rel="stylesheet"/>
<script type="text/javascript">
            var CS = CS || {};
            CS.messages = null;
            CS.basePath = 'https://www.amwua.org/';
            CS.basePathImages = 'https://www.amwua.org/uploads/';
        </script>
</head>
<body class="page-404">
<div id="fb-root"></div>
<header class="no-print">
<nav id="nav">
<div class="top-nav">
<ul>
<li class="contact"><a href="https://www.amwua.org/contact">Contact</a></li>
<li class="search"><a href="#">Search</a></li>
</ul>
</div>
<ul class="primary_nav">
<li class="home"><a href="https://www.amwua.org">Home</a></li>
<li class="who-we-are">
<a href="https://www.amwua.org/who-we-are">Who We Are</a>
<ul>
<li class="has-image">
<a href="https://www.amwua.org/who-we-are#our-members">
<p><img src="https://www.amwua.org/images/nav-who-we-are-members.jpg"/></p>
                      Our Members
                    </a>
</li>
<li class="has-image">
<a href="https://www.amwua.org/who-we-are#story">
<p><img src="https://www.amwua.org/images/nav-who-we-are-history.jpg"/></p>
                      Our History
                    </a>
</li>
<li class="has-image">
<a href="https://www.amwua.org/who-we-are#vision">
<p><img src="https://www.amwua.org/images/nav-who-we-are-vision.jpg"/></p>
                      Our Vision
                    </a>
</li>
<li class="has-image">
<a href="https://www.amwua.org/who-we-are#our-people">
<p><img src="https://www.amwua.org/images/nav-who-we-are-people.jpg"/></p>
                      Our People
                    </a>
</li>
<div>
<li><a href="https://www.amwua.org/blog">Blog</a></li>
<li><a href="https://www.amwua.org/where-we-stand/issues/drought-and-shortage">Drought</a></li>
<li><a href="https://www.amwua.org/news">News</a></li>
<li><a href="https://www.amwua.org/what-we-do/public-meetings">Meetings</a></li>
<li><a href="https://www.amwua.org/what-you-can-do">Conservation</a></li>
</div>
</ul>
</li>
<li class="what-we-do">
<a href="https://www.amwua.org/what-we-do">What We Do</a>
<ul>
<li class="has-image">
<a href="https://www.amwua.org/what-we-do#collaborate">
<p><img src="https://www.amwua.org/images/nav-what-we-do-collaborate.jpg"/></p>
                      Collaborate
                    </a>
</li>
<li class="has-image">
<a href="https://www.amwua.org/what-we-do#advocate">
<p><img src="https://www.amwua.org/images/nav-what-we-do-advocate.jpg"/></p>
                      Advocate
                    </a>
</li>
<li class="has-image">
<a href="https://www.amwua.org/what-we-do#protect">
<p><img src="https://www.amwua.org/images/nav-what-we-do-protect.jpg"/></p>
                      Protect
                    </a>
</li>
<li class="has-image">
<a href="https://www.amwua.org/what-we-do#the-value-of-water">
<p><img src="https://www.amwua.org/images/nav-value-of-water.jpg"/></p>
                      The Value of Water
                    </a>
</li>
<div>
<li><a href="https://www.amwua.org/blog">Blog</a></li>
<li><a href="https://www.amwua.org/news">News</a></li>
<li><a href="https://www.amwua.org/where-we-stand/issues/drought-and-shortage">Drought</a></li>
<li><a href="https://www.amwua.org/what-we-do/public-meetings">Meetings</a></li>
<li><a href="https://www.amwua.org/what-you-can-do">Conservation</a></li>
</div>
</ul>
</li>
<li class="where-we-stand">
<a href="https://www.amwua.org/where-we-stand">Where We Stand</a>
<ul>
<li class="has-image">
<a href="https://www.amwua.org/where-we-stand/issues">
<p><img src="https://www.amwua.org/images/nav-where-we-stand-issues.jpg"/></p>
                      On the Issues
                    </a>
</li>
<li class="has-image">
<a href="https://www.amwua.org/where-we-stand#legislation">
<p><img src="https://www.amwua.org/images/nav-where-we-stand-bills-were-tracking.jpg"/></p>
                      Bills We're Tracking
                    </a>
</li>
<li class="has-image">
<a href="https://www.amwua.org/news">
<p><img src="https://www.amwua.org/images/nav-where-we-stand-news.jpg"/></p>
                      AMWUA in the News
                    </a>
</li>
<li class="has-image">
<a href="https://www.amwua.org/blog">
<p><img src="https://www.amwua.org/images/nav-where-we-stand-blog.jpg"/></p>
                      The AMWUA Blog
                    </a>
</li>
<div>
<li><a href="https://www.amwua.org/who-we-are#our-members">Our Members</a></li>
<li><a href="https://www.amwua.org/blog">Blog</a></li>
<li><a href="https://www.amwua.org/news">News</a></li>
<li><a href="https://www.amwua.org/what-you-can-do">Conservation</a></li>
<li><a href="https://www.amwua.org/where-we-stand/issues/drought-and-shortage">Drought</a></li>
<li><a href="https://www.amwua.org/what-we-do/public-meetings">Meetings</a></li>
</div>
</ul>
</li>
<li class="what-you-can-do">
<a href="https://www.amwua.org/what-you-can-do">What You Can Do</a>
<ul>
<li class="has-image">
<a href="https://www.amwua.org/what-you-can-do/landscape-and-garden">
<p><img src="https://www.amwua.org/images/nav-what-you-can-do-landscape.jpg"/></p>
                      Landscape &amp; Garden
                    </a>
</li>
<li class="has-image">
<a href="https://www.amwua.org/what-you-can-do/ask-an-expert">
<p><img src="https://www.amwua.org/images//nav-what-you-can-do-expert.jpg"/></p>
                      Ask An Expert
                    </a>
</li>
<li class="has-image">
<a href="https://www.amwua.org/what-you-can-do/diy">
<p><img src="https://www.amwua.org/images//nav-what-you-can-do-diy.jpg"/></p>
                     DIY
                    </a>
</li>
<li class="has-image">
<a href="https://www.amwua.org/what-you-can-do/professional-resources">
<p><img src="https://www.amwua.org/images//nav-what-you-can-do-professional.jpg"/></p>
                      Professional Resources
                    </a>
</li>
<div>
<li><a href="https://www.amwua.org/blog">Blog</a></li>
<li><a href="https://www.amwua.org/where-we-stand/issues/drought-and-shortage">Drought</a></li>
<li><a href="https://www.amwua.org/news">News</a></li>
<li><a href="https://www.amwua.org/what-we-do/public-meetings">Meetings</a></li>
</div>
</ul>
</li>
<li class="contact"><a href="https://www.amwua.org/contact">Contact</a></li>
</ul>
<form action="https://www.amwua.org/search" id="search" method="get">
<div class="input-group input-group-btn">
<input class="form-control" id="keyword" name="keyword" placeholder="Keyword" type="text"/>
<span>
<button class="btn btn-default" type="submit">Search</button>
</span>
</div>
</form>
</nav>
</header>
<section class="container" id="content">
<div class="row">
<div class="col-sm-12 text-center">
<div class="top">Page not found</div>
          Something went wrong!  <a href="https://www.amwua.org">Click here to go home</a>.
          <div class="bottom"></div>
</div>
</div>
</section>
<footer class="no-print">
<nav class="top">
<ul class="primary_nav">
<li class="home"><a href="https://www.amwua.org">Home</a></li>
<li class="who-we-are">
<a href="https://www.amwua.org/who-we-are">Who We Are</a>
<ul>
<li><a href="https://www.amwua.org/who-we-are#our-members">Our Members</a></li>
<li><a href="https://www.amwua.org/who-we-are#vision">Our Vision</a></li>
<li><a href="https://www.amwua.org/who-we-are#story">Our Story</a></li>
<li><a href="https://www.amwua.org/who-we-are#our-people">Our People</a></li>
</ul>
</li>
<li class="what-we-do">
<a href="https://www.amwua.org/what-we-do">What We Do</a>
<ul>
<li><a href="https://www.amwua.org/what-we-do#collaborate">Collaborate</a></li>
<li><a href="https://www.amwua.org/what-we-do#advocate">Advocate</a></li>
<li><a href="https://www.amwua.org/what-we-do#protect">Protect</a></li>
<li><a href="https://www.amwua.org/what-we-do#the-value-of-water">The Value of Water</a></li>
</ul>
</li>
<li class="where-we-stand">
<a href="https://www.amwua.org/where-we-stand">Where We Stand</a>
<ul>
<li><a href="https://www.amwua.org/where-we-stand/issues">On the Issues</a></li>
<li><a href="https://www.amwua.org/where-we-stand#legislation">Bills We're Tracking</a></li>
<li><a href="https://www.amwua.org/news">AMWUA in the News</a></li>
<li><a href="https://www.amwua.org/blog">The AMWUA Blog</a></li>
</ul>
</li>
<li class="what-you-can-do">
<a href="https://www.amwua.org/what-you-can-do">What You Can Do</a>
<ul>
<li><a href="https://www.amwua.org/what-you-can-do/landscape-and-garden">Landscape &amp; Garden</a></li>
<li><a href="https://www.amwua.org/what-you-can-do/ask-an-expert">Ask An Expert</a></li>
<li><a href="https://www.amwua.org/what-you-can-do/diy">DIY</a></li>
<li><a href="https://www.amwua.org/what-you-can-do/professional-resources">Professional Resources</a></li>
</ul>
</li>
</ul>
</nav>
<section class="bottom">
<nav class="inner">
<ul class="social">
<li class="facebook"><a href="https://www.facebook.com/amwua/" target="_blank">Facebook</a></li>
<li class="twitter"><a href="https://twitter.com/AMWUA" target="_blank">Twitter</a></li>
<li class="instagram"><a href="https://www.instagram.com/amwua.arizona/" target="_blank">Instagram</a></li>
<li class="youtube"><a href="https://www.youtube.com/channel/UCcswvKVTtcxkwRUUvurJv_Q" target="_blank">YouTube</a></li>
</ul>
<section class="contact">
<p>AMWUA (Arizona Municipal Water Users Association)</p>
<p>3003 N. Central Ave., Suite 1550, Phoenix, AZ 85012</p>
<p>602-248-8482</p>
</section>
<p class="legal">© 2021 Arizona Municipal Water Users Association</p>
</nav>
</section>
</footer>
<script src="https://www.amwua.org/js/app.js"></script>
<script>
            var _gaq = _gaq || [];
            _gaq.push(['_setAccount', 'UA-4627431-1']);
            _gaq.push(['_setDomainName', 'none']);
            _gaq.push(['_setAllowLinker', true]);
            _gaq.push(['_addIgnoredRef', 'amwua.org']);
            _gaq.push(['_trackPageview']);
            
            (function() {
              var ga = document.createElement('script'); ga.type = 'text/javascript'; ga.async = true;
              ga.src = ('https:' == document.location.protocol ? 'https://' : 'http://') + 'stats.g.doubleclick.net/dc.js';
              var s = document.getElementsByTagName('script')[0]; s.parentNode.insertBefore(ga, s);
            })();     
          </script>
</body>
</html> 