<html><body><p>ï»¿
<!DOCTYPE html>

</p>
<meta charset="utf-8"/>
<meta content="IE=edge" http-equiv="X-UA-Compatible"/>
<title>Qlik - Temporarily Unavailable</title>
<meta content="" name="description"/>
<meta content="user-scalable=no, initial-scale=1.0, maximum-scale=1.0, width=device-width" name="viewport"/>
<style>


        body {
            font-family: SourceSansPro, 'Segoe Ui',Helvetica,Roboto,Arial,sans-serif;
        }

        @charset "UTF-8"; /*! normalize.css v3.0.3 | MIT License | github.com/necolas/normalize.css */
        img, legend {
            border: 0
        }

        legend, td, th {
            padding: 0
        }

        .hide-text, .no-wrap {
            white-space: nowrap
        }

        .hidden, .invisible {
            visibility: hidden
        }

        .list-with-disc li, .scrolling-feature__copy-wrap li {
            list-style-type: disc
        }

        html {
            font-family: SourceSansPro, 'Segoe Ui',Helvetica,Roboto,Arial,sans-serif;
            -ms-text-size-adjust: 100%;
            -webkit-text-size-adjust: 100%
        }

        body {
            margin: 0
        }

        article, aside, details, figcaption, figure, footer, header, hgroup,
        main, menu, nav, section, summary {
            display: block
        }

        audio, canvas, progress, video {
            display: inline-block;
            vertical-align: baseline
        }

            audio:not([controls]) {
                display: none;
                height: 0
            }

        [hidden], template {
            display: none
        }

        a {
            background-color: transparent
        }

            a:active, a:hover {
                outline: 0
            }

        abbr[title] {
            border-bottom: 1px dotted
        }

        b, optgroup, strong {
            font-weight: 700
        }

        dfn {
            font-style: italic
        }

        mark {
            background: #ff0;
            color: #000
        }

        small {
            font-size: 80%
        }

        sub, sup {
            font-size: 75%;
            line-height: 0;
            position: relative;
            vertical-align: baseline
        }

        sup {
            top: -.5em
        }

        sub {
            bottom: -.25em
        }

        svg:not(:root) {
            overflow: hidden
        }

        hr {
            box-sizing: content-box
        }

        pre, textarea {
            overflow: auto
        }

        code, kbd, pre, samp {
            font-family: monospace, monospace;
            font-size: 1em
        }

        button, input, optgroup, select, textarea {
            color: inherit;
            font: inherit;
            margin: 0
        }

        button {
            overflow: visible
        }

        button, select {
            text-transform: none
        }

        button, html input[type=button], input[type=reset], input[type=submit] {
            -webkit-appearance: button;
            cursor: pointer
        }

            button[disabled], html input[disabled] {
                cursor: default
            }

            button::-moz-focus-inner, input::-moz-focus-inner {
                border: 0;
                padding: 0
            }

        input[type=checkbox], input[type=radio] {
            height: 12px;
            margin-top: 15px;
            margin-right: 10px;
            box-sizing: border-box;
            padding: 0
        }

        input[type=number]::-webkit-inner-spin-button, input[type=number]::-webkit-outer-spin-button {
            height: auto
        }

        input[type=search] {
            -webkit-appearance: textfield;
            box-sizing: content-box
        }

            input[type=search]::-webkit-search-cancel-button, input[type=search]::-webkit-search-decoration {
                -webkit-appearance: none
            }

        table {
            border-spacing: 0
        }

        dt, h1, h2, h3, h4, h5, h6 {
            font-weight: 400;
            line-height: 1.1em
        }

        dl, h1, h2, h3, h4, h5, h6, ol, ul {
            color: #7e8083;
            line-height: inherit
        }

        li {
            list-style: none
        }

        embed, img, object, video {
            max-width: 100%;
            height: auto
        }

        dl {
            margin-top: 0;
            margin-bottom: 0
        }

        dd {
            margin-left: 0
        }

        address {
            font-style: normal
        }

        figure {
            padding: 0;
            margin: 0
        }

        blockquote {
            margin: 0;
            padding: 0
        }

        .focus-style, a:focus, button:focus {
            outline: #000 dotted 1px
        }

        button {
            background: 0 0;
            border: none
        }

        html {
            overflow-y: scroll
        }

        button, html, input, select, textarea {
            color: #222
        }

        ::-moz-selection {
            background: #b3d4fc;
            text-shadow: none
        }

        ::selection {
            background: #b3d4fc;
            text-shadow: none
        }

        <!-- hr {
            display: block;
            height: 1px;
            border-top: 1px solid #ccc;
            margin: 1em 0
        }
        -->

        img {
            vertical-align: middle
        }

        fieldset {
            margin: 0
        }

        input {
            -moz-border-radius: 0;
            -webkit-border-radius: 0;
            border-radius: 0
        }

        .ir, .visuallyhidden {
            border: 0;
            overflow: hidden
        }

            .break, .ir:before {
                display: block
            }

        .underline {
            text-decoration: underline
        }

        .uppercase {
            text-transform: uppercase
        }

        .hide-text {
            text-indent: 100%;
            overflow: hidden
        }

        .no-margin-bottom {
            margin-bottom: 0 !important
        }

        .no-margin-top {
            margin-top: 0 !important
        }

        .margin-top--kilo {
            margin-top: 40px
        }

        .margin-top--ultra {
            margin-top: 70px
        }

        .list-with-disc {
            padding-left: 1em
        }

        .ir {
            background-color: transparent
        }

            .ir:before {
                content: "";
                width: 0;
                height: 150%
            }

        .hidden {
            display: none !important
        }

        .visuallyhidden {
            clip: rect(0 0 0 0);
            height: 1px;
            margin: -1px;
            padding: 0;
            position: absolute;
            width: 1px
        }

            .visuallyhidden.focusable:active, .visuallyhidden.focusable:focus {
                clip: auto;
                height: auto;
                margin: 0;
                overflow: visible;
                position: static;
                width: auto
            }

        .clearfix:after, .clearfix:before {
            content: " ";
            display: table
        }

        .clearfix:after {
            clear: both
        }

        body {
            font-size: 1em;
            line-height: 1.4;
            background-color: #fff
        }

        .section {
            margin-bottom: 80px background-color: #f3f5f8;
        }

        @media (min-width:39.4375em) {
            .section {
                margin-bottom: 100px background-color: #f3f5f8;
            }
        }

        .row {
            margin-bottom: 40px
        }

        @media (min-width:39.4375em) {
            .row {
                margin-bottom: 60px
            }
        }

        .modal-open {
            overflow: hidden
        }

            .modal-open body {
                overflow-y: scroll
            }

        h1 {
            font-size: 82px;
            font-size: 5.125rem
        }

        h2 {
            font-size: 62px;
            font-size: 3.875rem
        }

        h3 {
            font-size: 32px;
            font-size: 2rem
        }

        h4 {
            font-size: 24px;
            font-size: 1.5rem
        }

        h5 {
            font-size: 18px;
            font-size: 1.125rem
        }

        h6 {
            font-size: 16px;
            font-size: 1rem
        }

        .sc__rich-text p, dl, ol, p, ul {
            font-size: 16px;
            font-family: SourceSansPro, 'Segoe Ui',Helvetica,Roboto,Arial,sans-serif;
            font-weight: 400;
            font-style: normal
        }

        h1, h2, h3, h4, h5, h6 {
            font-family: SourceSansPro, 'Segoe Ui',Helvetica,Roboto,Arial,sans-serif;
            font-weight: 400;
            font-style: normal;
            margin-bottom: 20px
        }

        dl, ol, ul {
            font-size: 1rem
        }

        .sc__rich-text p, p {
            font-size: 1rem;
            color: #7e8083;
            line-height: inherit;
            margin-bottom: 20px
        }

        blockquote, button {
            font-size: 16px;
            color: #7e8083;
            line-height: inherit
        }

        a {
            color: #60a628;
            text-decoration: none
        }

            a:hover {
                text-decoration: underline
            }

        blockquote {
            font-size: 1rem;
            font-family: SourceSansPro, 'Segoe Ui',Helvetica,Roboto,Arial,sans-serif;
            font-style: normal
        }

        button, input, label, select {
            font-family: SourceSansPro, 'Segoe Ui',Helvetica,Roboto,Arial,sans-serif;
        }

        button {
            font-size: 1rem
        }

        input, label {
            font-size: 16px;
            font-size: 1rem;
            font-weight: 400;
            color: #7e8083;
            font-style: normal;
            line-height: inherit
        }

        .cta, .cta-external, .cta-external--green, .cta-form-submit-btn,
        .cta-form-submit-btn--green, .cta-pdf, .cta-std, .cta-std--green,
        .view-more__toggle {
            font-family: SourceSansPro, 'Segoe Ui',Helvetica,Roboto,Arial,sans-serif;
            text-transform: uppercase
        }

            .cta-std--green:after, .cta-std:after {
                content: ' >>'
            }

            .back.cta-std--green:before, .cta-std.back:before {
                content: "<< "
            }

            .back.cta-std--green:after, .cta-pdf a:after, .cta-std.back:after {
                content: ''
            }

            .cta-std--green a {
                color: #60a628
            }

            .cta-std--green:after, .cta-std--green:before {
                color: #faba45
            }

            .cta-external a:after, .cta-external--green a:after {
                content: '';
                margin-left: 8px;
                margin-top: -3px
            }

            .cta-external--green a {
                color: #60a628
            }

            .cta-pdf a:after {
                margin-left: 8px;
                margin-top: -3px
            }

        .cta-block--scrolling-feature {
            margin-bottom: 80px
        }

        .cta-form-submit-btn, .cta-form-submit-btn--green {
            font-size: 18px;
            font-size: 1.125rem
        }

            .cta-form-submit-btn--green:hover, .cta-form-submit-btn:hover {
                background-color: #469d00
            }

        .cta-form-submit-btn--green {
            color: #fff;
            background-color: #60a628;
            padding: 5px 35px
        }

        input, select {
            height: 35px;
            font-size: 16px
        }

        .footer, .footer__content, .video-header__video {
            background-repeat: no-repeat
        }

        select::-ms-expand {
            display: none
        }

        input {
            font-size: 1rem
        }

            input[type=checkbox] {
                outline: 0;
                border: none
            }

        textarea {
            resize: vertical;
            font-size: 16px;
            font-size: 1rem;
            -moz-border-radius: 0;
            -webkit-border-radius: 0;
            border-radius: 0
        }

        .hr-short--green:after, .hr-short--white:after, .hr-short:after,
        .showcase-resource__title:after {
            content: '';
            display: block;
            width: 80px;
            height: 1px
        }

        .hr-short--white:after {
            background-color: #fff
        }

        .hr-long--green:after, .hr-short--green:after, .showcase-resource__title:after {
            background-color: #60a628
        }

        .hr-long--green:after, .hr-long:after {
            content: '';
            display: block;
            height: 1px
        }

        * {
            -moz-box-sizing: border-box;
            -webkit-box-sizing: border-box;
            box-sizing: border-box
        }

        .grid-construct {
            max-width: 90em;
            padding-left: .625em;
            padding-right: .625em;
            margin-left: auto;
            margin-right: auto
        }

            .grid-construct:after {
                content: "";
                display: table;
                clear: both
            }

        @media (min-width:39.4375em) {
            .grid-construct {
                max-width: 90em;
                padding-left: 1.25em;
                padding-right: 1.25em;
                margin-left: auto;
                margin-right: auto
            }

                .grid-construct:after {
                    content: "";
                    display: table;
                    clear: both
                }
        }

        @media (min-width:63.4375em) {
            .grid-construct {
                max-width: 90em;
                padding-left: 3.1875em;
                padding-right: 3.1875em;
                margin-left: auto;
                margin-right: auto
            }

                .grid-construct:after {
                    content: "";
                    display: table;
                    clear: both
                }
        }

        .sm--1of3, .sm--2of3, .sm--3of3 {
            float: left;
            margin-right: 6.51466%
        }

        .sm--1of3, .sm--2of3, .sm--3of3, .sm--omega {
            display: inline
        }

        .sm--1of3 {
            width: 28.99023%
        }

        .sm--2of3 {
            width: 64.49511%
        }

        .sm--3of3 {
            width: 100%
        }

        @media (min-width:39.4375em) {
            .md--2of3 {
                width: 64.49511%;
                float: left;
                margin-right: 6.51466%;
                display: inline
            }

            .md--2of6 {
                width: 31.23028%;
                float: left;
                margin-right: 3.15457%;
                display: inline
            }

            .md--3of6 {
                width: 48.42271%;
                float: left;
                margin-right: 3.15457%;
                display: inline
            }

            .md--1of5 {
                width: 16.95238%;
                float: left;
                margin-right: 3.80952%;
                display: inline
            }

            .md--1of6 {
                width: 14.03785%;
                float: left;
                margin-right: 3.15457%;
                display: inline
            }

            .md--4of5 {
                width: 79.2381%;
                float: left;
                margin-right: 3.80952%;
                display: inline
            }

            .md--4of6 {
                width: 65.61514%;
                float: left;
                margin-right: 3.15457%;
                display: inline
            }

            .md--6of6 {
                width: 100%;
                float: left;
                margin-right: 3.15457%;
                display: inline
            }

            .md--push-1of6 {
                margin-left: 17.19243%
            }

            .md--prefix-1of6 {
                padding-left: 17.19243%
            }

            .md--suffix-3of6 {
                padding-right: 51.57729%
            }
        }

        @media (min-width:63.4375em) {
            .lg--3of9 {
                width: 31.94589%;
                float: left;
                margin-right: 2.08117%;
                display: inline
            }

            .lg--4of9 {
                width: 43.28824%;
                float: left;
                margin-right: 2.08117%;
                display: inline
            }

            .lg--5of9 {
                width: 54.63059%;
                float: left;
                margin-right: 2.08117%;
                display: inline
            }

            .lg--6of9 {
                width: 65.97294%;
                float: left;
                margin-right: 2.08117%;
                display: inline
            }

            .lg--2of12 {
                width: 15.37267%;
                float: left;
                margin-right: 1.5528%;
                display: inline
            }

            .lg--3of12 {
                width: 23.8354%;
                float: left;
                margin-right: 1.5528%;
                display: inline
            }

            .lg--4of12 {
                width: 32.29814%;
                float: left;
                margin-right: 1.5528%;
                display: inline
            }

            .lg--5of12 {
                width: 40.76087%;
                float: left;
                margin-right: 1.5528%;
                display: inline
            }

            .lg--6of12 {
                width: 49.2236%;
                float: left;
                margin-right: 1.5528%;
                display: inline
            }

            .lg--7of12 {
                width: 57.68634%;
                float: left;
                margin-right: 1.5528%;
                display: inline
            }

            .lg--8of12 {
                width: 66.14907%;
                float: left;
                margin-right: 1.5528%;
                display: inline
            }

            .lg--9of12 {
                width: 74.6118%;
                float: left;
                margin-right: 1.5528%;
                display: inline
            }

            .lg--10of12 {
                width: 83.07453%;
                float: left;
                margin-right: 1.5528%;
                display: inline
            }

            .lg--pre-2of12 {
                margin-left: 16.92547%
            }

            .lg--prefix-2of12 {
                padding-left: 16.92547%
            }

            .lg--suffix-5of12 {
                padding-right: 42.31366%
            }
        }

        @media (min-width:39.4375em) {
            .md--isogrid-2of4 {
                width: 47.59615%;
                float: left;
                display: inline;
                margin-right: -100%
            }

                .md--isogrid-2of4:nth-child(2n + 1) {
                    margin-left: 0;
                    clear: left
                }

                .md--isogrid-2of4:nth-child(2n + 2) {
                    margin-left: 52.40385%;
                    clear: none
                }

            .md--isogrid-2of6 {
                width: 31.23028%;
                float: left;
                display: inline;
                margin-right: -100%
            }

                .md--isogrid-2of6:nth-child(3n + 1) {
                    margin-left: 0;
                    clear: left
                }

                .md--isogrid-2of6:nth-child(3n + 2) {
                    margin-left: 34.38486%;
                    clear: none
                }

                .md--isogrid-2of6:nth-child(3n + 3) {
                    margin-left: 68.76972%;
                    clear: none
                }

            .md--isogrid-3of6 {
                width: 48.42271%;
                float: left;
                display: inline;
                margin-right: -100%
            }

                .md--isogrid-3of6:nth-child(2n + 1) {
                    margin-left: 0;
                    clear: left
                }

                .md--isogrid-3of6:nth-child(2n + 2) {
                    margin-left: 51.57729%;
                    clear: none
                }
        }

        @media (min-width:63.4375em) {
            .lg--isogrid-3of9 {
                width: 31.94589%;
                float: left;
                display: inline;
                margin-right: -100%
            }

                .lg--isogrid-3of9:nth-child(3n + 1) {
                    margin-left: 0;
                    clear: left
                }

                .lg--isogrid-3of9:nth-child(3n + 2) {
                    margin-left: 34.02706%;
                    clear: none
                }

                .lg--isogrid-3of9:nth-child(3n + 3) {
                    margin-left: 68.05411%;
                    clear: none
                }

            .lg--isogrid-2of12 {
                width: 15.37267%;
                float: left;
                display: inline;
                margin-right: -100%
            }

                .lg--isogrid-2of12:nth-child(6n + 1) {
                    margin-left: 0;
                    clear: left
                }

                .lg--isogrid-2of12:nth-child(6n + 2) {
                    margin-left: 16.92547%;
                    clear: none
                }

                .lg--isogrid-2of12:nth-child(6n + 3) {
                    margin-left: 33.85093%;
                    clear: none
                }

                .lg--isogrid-2of12:nth-child(6n + 4) {
                    margin-left: 50.7764%;
                    clear: none
                }

                .lg--isogrid-2of12:nth-child(6n + 5) {
                    margin-left: 67.70186%;
                    clear: none
                }

                .lg--isogrid-2of12:nth-child(6n + 6) {
                    margin-left: 84.62733%;
                    clear: none
                }

            .lg--isogrid-3of12 {
                width: 23.8354%;
                float: left;
                display: inline;
                margin-right: -100%
            }

                .lg--isogrid-3of12:nth-child(4n + 1) {
                    margin-left: 0;
                    clear: left
                }

                .lg--isogrid-3of12:nth-child(4n + 2) {
                    margin-left: 25.3882%;
                    clear: none
                }

                .lg--isogrid-3of12:nth-child(4n + 3) {
                    margin-left: 50.7764%;
                    clear: none
                }

                .lg--isogrid-3of12:nth-child(4n + 4) {
                    margin-left: 76.1646%;
                    clear: none
                }

            .lg--isogrid-4of12 {
                width: 32.29814%;
                float: left;
                display: inline;
                margin-right: -100%
            }

                .lg--isogrid-4of12:nth-child(3n + 1) {
                    margin-left: 0;
                    clear: left
                }

                .lg--isogrid-4of12:nth-child(3n + 2) {
                    margin-left: 33.85093%;
                    clear: none
                }

                .lg--isogrid-4of12:nth-child(3n + 3) {
                    margin-left: 67.70186%;
                    clear: none
                }

            .lg--isogrid-6of12 {
                width: 49.2236%;
                float: left;
                display: inline;
                margin-right: -100%
            }

                .lg--isogrid-6of12:nth-child(2n + 1) {
                    margin-left: 0;
                    clear: left
                }

                .lg--isogrid-6of12:nth-child(2n + 2) {
                    margin-left: 50.7764%;
                    clear: none
                }

            .lg--omega {
                float: right;
                margin-right: 0;
                display: inline
            }
        }

        .sm--omega {
            float: right;
            margin-right: 0
        }

        @media (min-width:39.4375em) {
            .md--omega {
                margin-right: 0;
                display: inline
            }
        }

        .header {
            padding-top: 10px;
            padding-bottom: 10px;
            position: relative;
        }

        @media (min-width:63.4375em) {
            .lg--remove-omega {
                float: left;
                margin-right: 1.5528%
            }

            .header {
                padding-top: 14px;
                padding-bottom: 30px;
                background-color: #fff
            }
        }

        .header__logo_img {
            display: block;
            max-width: 154px;
            max-height: 47px;
            min-width: 154px;
            min-height: 47px;
        }

        .header__sales-cta {
            border-top: solid 1px #9fa1a4;
            padding-top: 25px
        }

            .header__sales-cta .cta-block, .header__sales-cta .cta-block__item--green,
            .header__sales-cta .cta-block__item--transparent {
                display: block;
                margin-left: 20px;
                margin-right: 20px
            }

        @media (min-width:63.4375em) {
            .header__sales-cta {
                border-top: none;
                margin-top: 10px;
                padding-top: 0
            }

                .header__sales-cta .cta-block, .header__sales-cta .cta-block__item--green,
                .header__sales-cta .cta-block__item--transparent {
                    display: inherit;
                    margin-left: 0;
                    margin-right: 0;
                    float: right
                }

            .header__nav-main {
                z-index: 88;
                position: relative
            }
        }

        .header__nav-main_global {
            display: none
        }

        .header__nav-main_item {
            font-family: SourceSansPro, Helvetica, Roboto, Arial,sans-serif!important;
            margin-right: 20px; 
            padding-bottom: 0.5rem;
            display: inline-block;
            font-size: 16.5px;
            font-weight: normal;
            color: #4B4B4B;

        }

            .header__nav-main_item:last-child {
                margin-right: 0
            }

        @media (min-width:42.4375em) {
            .header__nav-main_global {
                display: block;
                margin-top: 20px;
                width:inherit;
            }

            .header__nav-main_item {
                display: inline-block;
                margin-right: 20px
            }
        }

        .header__nav-main_item a {
            color: #4B4B4B;
        }

            .header__nav-main_item a.is-active, .header__nav-main_item a:hover {
                color: #009844;
                text-decoration: none;
            }

        .header__nav-main_sublist {
            display: none
        }

            .header__nav-main_sublist.is-active {
                display: block
            }

            .header__nav-main_sublist .header__nav-sub_item {
                text-transform: none
            }

                .header__nav-main_sublist .header__nav-sub_item a:hover {
                    border-bottom: none
                }

        .header__nav-sub {
            padding: 20px
        }

        .header__nav-sub_item {
            font-family: SourceSansPro, 'Segoe Ui',Helvetica,Roboto,Arial,sans-serif;
            font-size: 18px;
            font-size: 1.125rem;
            margin-right: 10px
        }

            .footer__group > *, .header__actions-item .btn-label, .header__nav-sub_item a.is-active {
                font-family: SourceSansPro, 'Segoe Ui',Helvetica,Roboto,Arial,sans-serif;
            }

        .cta-block, .cta-block__item, .cta-block__item--green, .cta-block__item--transparent {
            text-align: center
        }

        @media (min-width:63.4375em) {
            .header__nav-sub_list {
                margin-top: 20px;
            }

            .header__nav-sub_item--toggle.is-active {
                background-color: #60a628;
                margin-top: -15px;
                margin-left: -15px;
                position: absolute;
                padding: 15px
            }

                .header__nav-sub_item--toggle.is-active > a {
                    color: #fff
                }
        }

        .header__nav-sub_list--level-2 {
            display: none;
            margin-left: 40px;
            margin-top: 10px
        }

        @media (min-width:63.4375em) {
            .header__nav-sub_list--level-2 {
                position: absolute;
                right: 0;
                min-width: 215px;
                background-color: #fff;
                border: 3px solid #60a628;
                padding: 15px;
                margin-top: 10px;
                margin-left: 0;
                -moz-border-radius: 5px;
                -webkit-border-radius: 5px;
                border-radius: 5px;
                -moz-box-shadow: 5px 5px 13px -4px rgba(0, 0, 0, .5);
                -webkit-box-shadow: 5px 5px 13px -4px rgba(0, 0, 0, .5);
                box-shadow: 5px 5px 13px -4px rgba(0, 0, 0, .5)
            }

                .header__nav-sub_list--level-2.is-active {
                    display: block
                }
        }

        .header__nav-sub_item_login--toggle .header__nav-sub_list--level-2 {
            margin-top: 0
        }

        .header__sub-nav-location-icon {
            margin-right: 10px
        }

        .header__sub-nav-location-status {
            color: #60a628
        }

        @media (min-width:63.4375em) {
            .header__nav-sub_item--level-2 {
                display: block;
                margin-bottom: 15px
            }

                .header__nav-sub_item--level-2:last-child {
                    margin-bottom: 0
                }

            .header__sub-nav-location-status {
                display: block;
                margin-top: -4px;
                margin-left: 30px
            }

            .mobile-nav-transition-wrap {
                margin-left: 0
            }
        }

        .header__sub-nav-location-status:hover {
            text-decoration: underline
        }

        .header__nav, .mobile-nav-transition-wrap {
            height: 100%
        }

        .header-nav-max-height {
            min-height: 100%;
            overflow: hidden;
            position: relative
        }

        .footer {
            background-color: #4b4b4b;
            border-top: solid 3px #fff;
        }

        @media (min-width:63.4375em) {
            .footer {
                background-position: 101% 45px
            }
        }

        .footer__content {
            overflow: auto;
        }

        .carousel__wrap, .video-header {
            overflow: hidden
        }

        @media (min-width:39.4375em) {
            .footer__content {
                background-position: 80% 103%
            }
        }

        @media (min-width:63.4375em) {
            .footer__content {
                background-position: 10% 103%
            }
        }



        .footer__copyright {
            font-family: SourceSansPro, 'Segoe Ui',Helvetica,Roboto,Arial,sans-serif;
            font-size: 12px;
            font-size: 0.8333rem;
        }

        .page-title {
            margin-bottom: 30px;
            background-color: #fff
        }

        .page-title__headline {
            font-size: 40px;
            font-size: 2.5rem;
            color: #009844;
            line-height: 1em;
            font-family: SourceSansPro, 'Segoe Ui',Helvetica,Roboto,Arial,sans-serif;
            font-weight: 600;
        }

        @media (min-width:39.4375em) {
            .page-title__headline {
                font-size: 62px;
                font-size: 3.875rem
            }
        }

        .page-title__copy {
            position: fixed;
            width: inherit;
            color: #009844;
            font-size: 60px;
            height: 72.2%;
            display: flex;
            align-items: center;
            
        }

            .page-title__copy div {
                position: fixed;
                top: 40%;
                left: 50%;
                margin-right: -50%;
                transform: translate(-50%, -50%)
            }

        .page-title__bg {
            background-repeat: no-repeat;
            background-position: right top
        }

        html, body {
            height: 99%;
            font-family: SourceSansPro, Helvetica, Roboto, Arial,sans-serif !important;
        }

        .footer {
            position: fixed;
            left: 0;
            bottom: 0;
            width: 100%;
            text-align: center;
            height: 125px;
        }

        .fa {
            color: #fff;
        }

        .main-wrap {
            position: absolute;
            top: 80px;
            bottom: 50px;
            width: 100%;
            background-color: silver;
            overflow: auto;
            background-color: #f3f5f8
        }
    </style>
<!--<![endif]-->
<link href="https://fonts.googleapis.com/css?family=Source+Sans+Pro:300,400,450,550,600,700,300i,400i,450i,550i,600i,700i" rel="stylesheet" type="text/css"/>
<link href="https://cdnjs.cloudflare.com/ajax/libs/font-awesome/4.7.0/css/font-awesome.min.css" rel="stylesheet"/>
<div class="container header-nav-max-height">
<div class="mobile-nav-transition-wrap">
<header class="header header--main" role="banner">
<div class="grid-construct">
<div class="header__wrap">
<div class="header__logo sm--1of3 md--2of6 lg--2of12">
<a class="header__logo_img" height="60%" href="https://www.qlik.com/" width="60%">
<img alt="Qlik" src="https://web-files.qlik.com/offline/qlik-logo-2x.png"/>
</a>
</div>
<!--/header__logo-->
<div class="header__nav" data-controller="header-nav">
<div class="header__nav-main-wrap clearfix">
<nav class="header__nav-main">
<ul class="header__nav-main_global lg--5of12">
<li class="header__nav-main_item"><a href="https://community.qlik.com/">Community</a></li>
<li class="header__nav-main_item"><a href="https://blog.qlik.com/">Blog</a></li>
<li class="header__nav-main_item"><a href="https://support.qlik.com/">Support</a></li>
<li class="header__nav-main_item"><a href="https://qlikworld.qlik.com/">QlikWorld</a></li>
<li class="header__nav-main_item"><a href="https://learning.qlik.com/">Training</a></li>
</ul>
</nav>
</div>
</div>
<!--/header__nav-->
</div>
<!--/header__wrap-->
</div>
<!--/grid-construct-->
</header>
<!--/header-->
<!--/header-->
<div class="section page-title page-title__bg page-title__bg--set-1 main-wrap">
<div class="grid-construct">
<div class="page-title__content lg--suffix-12of12">
<!-- <h2 class="page-title__headline">Site Unavailable.</h2> -->
<div class="page-title__copy">
<div>Page not available.</div>
</div>
</div>
<!--/page-title__content-->
</div>
<!--/grid-construct-->
</div>
<!--/page-title-->
<footer class="footer footer--main" role="contentinfo">
<div class="grid-construct">
<div class="footer__content">
<nav class="footer__nav" role="navigation">
<p style="color:#fff;!important;font-size: 15px;font-size: 0.8333rem;">
                                © 1993-
                                <script>var cyr = new Date().getFullYear(); document.write(cyr)</script> QlikTech International AB, All Rights Reserved <br/><br/>
<a class="twitter" href="https://twitter.com/qlik?ga-link=footer" target="_blank"><i class="fa fa-twitter-square fa-2x"></i></a>  
                                <a class="linkedin" href="https://www.linkedin.com/company/qlik?ga-link=footer" target="_blank"><i class="fa fa-linkedin-square fa-2x"></i></a>  
                                <a class="facebook" href="https://www.facebook.com/qlik?ga-link=footer" target="_blank"><i class="fa fa-facebook-square fa-2x"></i></a>
</p>
</nav><!--/footer__nav-->
</div><!--/footer__content-->
</div><!--/grid-construct-->
</footer><!--/footer-->
<!--/footer-->
</div>
</div>
</body></html>