<!DOCTYPE html>
<html lang="en"><head><base target="_top"/><title>QR.net - Registration</title><meta charset="utf-8"/><meta content="width=device-width, initial-scale=1, maximum-scale=1" name="viewport"/><meta content="3; url=https://qr.de/#button-generator" http-equiv="refresh"/><meta content="" lang="en" name="description"/><meta content="noindex, follow" name="robots"/><link href="https://qr.net/de/qVdmGP	
" hreflang="de" rel="alternate"/><link href="https://qr.net/qVdmGP	
" hreflang="en" rel="alternate"/><link href="https://qr.net/qVdmGP	
" hreflang="x-default" rel="alternate"/><link href="//fonts.googleapis.com/css?family=Lato:400,700,900|Indie+Flower" rel="stylesheet"/><link href="/lib/bootstrap/dist/css/bootstrap.css" rel="stylesheet"/><link href="/lib/font-awesome/css/font-awesome.min.css" rel="stylesheet"/><link href="/lib/flag-icon-css/css/flag-icon.min.css" rel="stylesheet"/><link href="/css/style.css" rel="stylesheet"/><!-- Global site tag (gtag.js) - Google Ads: 871988727 --><script async="" src="https://www.googletagmanager.com/gtag/js?id=AW-871988727"></script><script>
                window.dataLayer = window.dataLayer || [];
                function gtag(){dataLayer.push(arguments);}
                gtag('js', new Date());
                gtag('config', 'AW-871988727');
            </script></head><body><div id="wrapper"><div id="header"></div></div><div id="content"><div class="container"><nav class="navbar navbar-default"><div class="navbar-header"><button aria-expanded="false" class="navbar-toggle collapsed" data-target="#bs-example-navbar-collapse-1" data-toggle="collapse" type="button"><span class="sr-only">Show/hide navigation</span><span class="icon-bar"></span><span class="icon-bar"></span><span class="icon-bar"></span></button><a class="navbar-brand" href="/"><img src="/img/logo-qr.png"/></a></div><div class="collapse navbar-collapse" id="bs-example-navbar-collapse-1"><ul class="nav navbar-nav navbar-right"><li><a href="/"><span class="hidden-sm">QR code generator</span><span class="visible-sm-inline">Generator</span></a></li><li><a href="/scan">Scan</a></li><li><a href="/about">Premium</a></li><li><a href="/faq">FAQ</a></li><li><a href="/user">Statistics</a></li><li><a href="/contact">Contact</a></li></ul><div class="topbar "><div class="login-right"><ul class="loginbar pull-right"><li><a href="/register">Sign up</a></li><li class="topbar-devider"></li><li><a href="/login"><i class="fa fa-fw fa-sign-in text-success"></i> Login</a></li><li class="topbar-devider"></li><li class="dropdown"><a class="dropdown-toggle" data-toggle="dropdown" href="#"><span class="flag-icon flag-icon-gb"></span> English
                                                      <b class="caret"></b></a><ul class="dropdown-menu"><li><a href="/de/qVdmGP	
"><span class="flag-icon flag-icon-de"></span> Deutsch
                                                                                                                                        <small>(German)</small></a></li><li><a href="/qVdmGP	
"><span class="flag-icon flag-icon-gb"></span> English
                                                                                                                                        <i class="fa fa-fw fa-check"></i></a></li><li class="divider"></li><li class="dropdown-header">or ...</li><li><div id="google_translate_element"></div></li></ul></li></ul></div></div></div><div class="container"><div class="alert alert-danger fade in alert-dismissable"><button aria-hidden="true" class="close" data-dismiss="alert" type="button"><i class="fa fa-fw fa-times-circle-o"></i></button><strong>Whoops!</strong>                                                                                             Dynamic QR code does not exist (anymore)
                                                                                    </div></div><div class="container"><div class="alert alert-info fade in alert-dismissable"><button aria-hidden="true" class="close" data-dismiss="alert" type="button"><i class="fa fa-fw fa-times-circle-o"></i></button><strong>Notice!</strong>                                                                                             As a premium member you can reserve this URL
                                                                                    </div></div><div class="content"><div class="container"><h1 class="text-center margin-bottom-60">Create account</h1></div></div><div class="jumbotron"><div class="container"><div class="row"><div class="col-sm-offset-2 col-sm-8"><div class="container"><p>
                            Registration is <u>free</u> and easy:
                        </p><ol><li>Enter your email address below</li><li>Check mailbox and click on the verification link in our email</li></ol><form action="/register" method="post" role="form"><div class="form-group"><label class="control-label" for="formEmail">Email</label><input class="form-control" id="formEmail" name="email" placeholder="" tabindex="1" type="email" value=""/></div><div class="hidden"><div class="form-group"><label class="control-label" for="formFirstname">First name</label><input class="form-control" id="formFirstname" name="firstname" placeholder="" tabindex="2" type="text" value=""/></div></div><div class="form-group hidden"><label class="control-label" for="formUsername">User</label><input class="form-control" id="formUsername" name="username" placeholder="" type="text" value=""/><div class="help-block text-muted">This field must not be filled</div></div><div class="g-recaptcha" id="recaptcha"></div><div class="text-right"><button class="btn btn-primary" tabindex="2" type="submit"><i class="fa fa-fw fa-sign-in"></i>         Sign up
    </button></div></form></div></div></div></div></div><footer><div class="container text-right">
                                ©2011-2021 qr.net
                                                                                                                                    | <a href="/privacy">Privacy</a>
                                                                                                                                    | <a href="/imprint">Imprint</a></div><div class="clear"></div></footer></nav></div></div><script>
                    function googleTranslateElementInit() {
                        new google.translate.TranslateElement({pageLanguage: 'en', layout: google.translate.TranslateElement.InlineLayout.SIMPLE, autoDisplay: false}, 'google_translate_element');
                    }
                </script><script src="//translate.google.com/translate_a/element.js?cb=googleTranslateElementInit"></script><script src="/lib/jquery/dist/jquery.min.js"></script><script src="/lib/bootstrap/dist/js/bootstrap.min.js"></script><script>
                    (function ($) {
                        $('#google_translate_element').on('click.bs.dropdown', function (e) {
                            e.stopPropagation();
                        });
                    })(jQuery);
                </script><script>
                        var _gaq = _gaq || [];
                        _gaq.push(['_setAccount', 'UA-23661299-2']);
                        _gaq.push(['_setDomainName', 'none']);
                        _gaq.push(['_setAllowLinker', true]);
                        _gaq.push(['_trackPageview']);
                        _gaq.push(['_gat._anonymizeIp']);
                        _gaq.push(['_trackPageLoadTime']);
                    
                        (function () {
                            var ga   = document.createElement('script');
                            ga.type  = 'text/javascript';
                            ga.async = true;
                            ga.src   = ('https:' == document.location.protocol ? 'https://ssl' : 'http://www') + '.google-analytics.com/ga.js';
                            var s    = document.getElementsByTagName('script')[0];
                            s.parentNode.insertBefore(ga, s);
                        })();
                    </script><script>(function(w,d,t,r,u){var f,n,i;w[u]=w[u]||[],f=function(){var o={ti:"15321837"};o.q=w[u],w[u]=new UET(o),w[u].push("pageLoad")},n=d.createElement(t),n.src=r,n.async=1,n.onload=n.onreadystatechange=function(){var s=this.readyState;s&&s!=="loaded"&&s!=="complete"||(f(),n.onload=n.onreadystatechange=null)},i=d.getElementsByTagName(t)[0],i.parentNode.insertBefore(n,i)})(window,document,"script","//bat.bing.com/bat.js","uetq");</script><!-- Facebook Pixel Code --><script>
                    !function(f,b,e,v,n,t,s)
                    {if(f.fbq)return;n=f.fbq=function(){n.callMethod?
                    n.callMethod.apply(n,arguments):n.queue.push(arguments)};
                    if(!f._fbq)f._fbq=n;n.push=n;n.loaded=!0;n.version='2.0';
                    n.queue=[];t=b.createElement(e);t.async=!0;
                    t.src=v;s=b.getElementsByTagName(e)[0];
                    s.parentNode.insertBefore(t,s)}(window,document,'script',
                    'https://connect.facebook.net/en_US/fbevents.js');
                    fbq('init', '311459669964517'); 
                    fbq('track', 'PageView');
                                    fbq('trackCustom', 'tracking');
                    fbq('track', 'Search');
                </script><noscript><img height="1" src="https://www.facebook.com/tr?id=311459669964517&amp;ev=PageView&amp;noscript=1" width="1"/></noscript><!-- End Facebook Pixel Code --><!-- Yahoo Code --><script type="application/javascript">(function(w,d,t,r,u){w[u]=w[u]||[];w[u].push({'projectId':'10000','properties':{'pixelId':'10143015'}});var s=d.createElement(t);s.src=r;s.async=true;s.onload=s.onreadystatechange=function(){var y,rs=this.readyState,c=w[u];if(rs&&rs!="complete"&&rs!="loaded"){return}try{y=YAHOO.ywa.I13N.fireBeacon;w[u]=[];w[u].push=function(p){y([p])};y(c)}catch(e){}};var scr=d.getElementsByTagName(t)[0],par=scr.parentNode;par.insertBefore(s,scr)})(window,document,"script","https://s.yimg.com/wi/ytc.js","dotq");</script><!-- Yahoo Code --><script>
            var recaptchaOnloadCallback = function () {
                (function ($) {
                    var $recaptchaForm = $('#recaptcha').parent('form');

                    grecaptcha.render(
                        'recaptcha',
                        {
                            sitekey:  '6LeJs6kUAAAAAKxkdQlDLu8swnP2eNMe5jtx05gm',
                            size:     'invisible',
                            callback: function () {
                                $recaptchaForm.submit();
                            }
                        }
                    );

                    $recaptchaForm.one('submit', function (e) {
                        e.preventDefault();
                        grecaptcha.execute();
                    });
                })(jQuery);
            };
        </script><script async="" defer="" src="https://www.google.com/recaptcha/api.js?onload=recaptchaOnloadCallback&amp;render=explicit"></script></body></html>