<!DOCTYPE html PUBLIC "-//W3C//DTD XHTML 1.0 Transitional//EN" "http://www.w3.org/TR/xhtml1/DTD/xhtml1-transitional.dtd">
<html xmlns="http://www.w3.org/1999/xhtml"><head>
<meta content="text/html; charset=utf-8" http-equiv="Content-Type"/>
<title>系统发生错误</title>
<style type="text/css">
*{ padding: 0; margin: 0; }
html{ overflow-y: scroll; }
body{ background: #fff; font-family: '微软雅黑'; color: #333; font-size: 16px; }
img{ border: 0; }
.error{ padding: 24px 48px; }
.face{ font-size: 100px; font-weight: normal; line-height: 120px; margin-bottom: 12px; }
h1{ font-size: 32px; line-height: 48px; }
.error .content{ padding-top: 10px}
.error .info{ margin-bottom: 12px; }
.error .info .title{ margin-bottom: 3px; }
.error .info .title h3{ color: #000; font-weight: 700; font-size: 16px; }
.error .info .text{ line-height: 24px; }
.copyright{ padding: 12px 48px; color: #999; }
.copyright a{ color: #000; text-decoration: none; }
</style>
</head>
<body>
<div class="error">
<p class="face">:(</p>
<h1>无法加载模块:Ublic2</h1>
<div class="content">
<div class="info">
<div class="title">
<h3>错误位置</h3>
</div>
<div class="text">
<p>FILE: /var/www/html/qfcapp/ThinkPHP/Library/Think/Dispatcher.class.php 　LINE: 176</p>
</div>
</div>
<div class="info">
<div class="title">
<h3>TRACE</h3>
</div>
<div class="text">
<p>#0 /var/www/html/qfcapp/ThinkPHP/Library/Think/Dispatcher.class.php(176): E('\xE6\x97\xA0\xE6\xB3\x95\xE5\x8A\xA0\xE8\xBD\xBD\xE6\xA8\xA1...')<br/>
#1 /var/www/html/qfcapp/ThinkPHP/Library/Think/App.class.php(38): Think\Dispatcher::dispatch()<br/>
#2 /var/www/html/qfcapp/ThinkPHP/Library/Think/App.class.php(193): Think\App::init()<br/>
#3 /var/www/html/qfcapp/ThinkPHP/Library/Think/Think.class.php(120): Think\App::run()<br/>
#4 /var/www/html/qfcapp/ThinkPHP/ThinkPHP.php(97): Think\Think::start()<br/>
#5 /var/www/html/qfcapp/app.php(24): require('/var/www/html/q...')<br/>
#6 {main}</p>
</div>
</div>
</div>
</div>
<div class="copyright">
<p><a href="http://www.thinkphp.cn" title="官方网站">ThinkPHP</a><sup>3.2.3</sup> { Fast &amp; Simple OOP PHP Framework } -- [ WE CAN DO IT JUST THINK ]</p>
</div>
</body>
</html>
