<html><head>
<title>Access Denied</title>
</head><body>
<h1>Access Denied</h1>
 
You don't have permission to access "http://www.anandabazar.com/" on this server.<p>
Reference #18.5267368.1610591160.2422c33
</p></body>
</html>
