<!DOCTYPE html>
<html lang="en">
<head>
<meta charset="utf-8"/>
<meta content="width=device-width, initial-scale=1.0" name="viewport"/>
<title>à¸à¸¥à¸¸à¹à¸¡à¸à¸²à¸à¸à¸¸à¹à¸¡à¸à¸£à¸­à¸à¸à¸¹à¹à¸à¸£à¸´à¹à¸ à¸à¸à¹à¸²à¸à¸ªà¸²à¸à¸²à¸£à¸à¸ªà¸¸à¸</title>
<meta content="à¸à¸¥à¸¸à¹à¸¡à¸à¸²à¸à¸à¸¸à¹à¸¡à¸à¸£à¸­à¸à¸à¸¹à¹à¸à¸£à¸´à¹à¸ à¸à¸à¹à¸²à¸à¸ªà¸²à¸à¸²à¸£à¸à¸ªà¸¸à¸ à¸ªà¸ªà¸.à¸£à¸°à¸¢à¸­à¸" name="descriptison"/>
<meta content="à¸à¸¸à¹à¸¡à¸à¸£à¸­à¸à¸à¸¹à¹à¸à¸£à¸´à¹à¸ à¸,à¹à¸ à¸ªà¸±à¸à¸ªà¸²à¸à¸²à¸£à¸à¸ªà¸¸à¸,à¸£à¸°à¸¢à¸­à¸,à¸ªà¸ªà¸,à¸­à¸¢" name="keywords"/>
<meta content="LMQWzrZ2zhW3upcw3I9TBDKSCVOY3luPQmAcinWMq-0" name="google-site-verification"/>
<!-- Favicons -->
<link href="../new63/img/apple-icon-57x57.png" rel="apple-touch-icon" sizes="57x57"/>
<link href="../new63/img/apple-icon-60x60.png" rel="apple-touch-icon" sizes="60x60"/>
<link href="../new63/img/apple-icon-72x72.png" rel="apple-touch-icon" sizes="72x72"/>
<link href="../new63/img/apple-icon-76x76.png" rel="apple-touch-icon" sizes="76x76"/>
<link href="../new63/img/apple-icon-114x114.png" rel="apple-touch-icon" sizes="114x114"/>
<link href="../new63/img/apple-icon-120x120.png" rel="apple-touch-icon" sizes="120x120"/>
<link href="../new63/img/apple-icon-144x144.png" rel="apple-touch-icon" sizes="144x144"/>
<link href="../new63/img/apple-icon-152x152.png" rel="apple-touch-icon" sizes="152x152"/>
<link href="../new63/img/apple-icon-180x180.png" rel="apple-touch-icon" sizes="180x180"/>
<link href="new63/img/android-icon-192x192.png" rel="icon" sizes="192x192" type="image/png"/>
<link href="../new63/img/favicon-32x32.png" rel="icon" sizes="32x32" type="image/png"/>
<link href="../new63/img/favicon-96x96.png" rel="icon" sizes="96x96" type="image/png"/>
<link href="../new63/img/favicon-16x16.png" rel="icon" sizes="16x16" type="image/png"/>
<link href="new63/img/manifest.json" rel="manifest"/>
<meta content="#ffffff" name="msapplication-TileColor"/>
<meta content="new63/img/ms-icon-144x144.png" name="msapplication-TileImage"/>
<meta content="#ffffff" name="theme-color"/>
<!-- Google Fonts -->
<style type="text/css">
					body{
				font-family: 'sriracha';
							}
		</style>
<!-- Vendor CSS Files -->
<link href="../new63/assets/vendor/bootstrap/css/bootstrap.min.css" rel="stylesheet"/>
<link href="../new63/assets/vendor/icofont/icofont.min.css" rel="stylesheet"/>
<link href="../new63/assets/vendor/boxicons/css/boxicons.min.css" rel="stylesheet"/>
<link href="../new63/assets/vendor/animate.css/animate.min.css" rel="stylesheet"/>
<link href="../new63/assets/vendor/remixicon/remixicon.css" rel="stylesheet"/>
<link href="../new63/assets/vendor/owl.carousel/assets/owl.carousel.min.css" rel="stylesheet"/>
<link href="../new63/assets/vendor/venobox/venobox.css" rel="stylesheet"/>
<link href="../new63/assets/vendor/aos/aos.css" rel="stylesheet"/>
<!-- Template Main CSS File -->
<link href="new63/assets/css/style.css" rel="stylesheet"/>
<!-- =======================================================
  * Template Name: Anyar - v2.0.0
  * Template URL: https://bootstrapmade.com/anyar-free-multipurpose-one-page-bootstrap-theme/
  * Author: BootstrapMade.com
  * License: https://bootstrapmade.com/license/
  ======================================================== -->
</head>
<body>
<!-- ======= Cta Section ======= -->
<section class="cta" id="cta">
<div class="container">
</div>
</section><!-- End Cta Section -->
<!-- ======= Team Section ======= -->
<section class="team section-bg" id="team">
<div class="container" data-aos="fade-up">
<div class="section-title">
<p></p>
</div>
<div class="row">
<div class="col-lg-12" data-aos="fade-up" data-aos-delay="100">
<div class="member d-flex align-items-start">
</div>
</div>
</div>
</div>
</section><!-- End Team Section -->
<div id="fontsi" style="padding-top:100px">
<center>
<h4><a href="javascript:window.history.go(-1);">à¹à¸¡à¹à¸à¸à¸«à¸à¹à¸²à¸à¸µà¹ à¸à¸­à¸¢à¸à¸¥à¸±à¸</a></h4>
<br/>
<h2>à¸à¸¥à¸¸à¹à¸¡à¸à¸²à¸à¸à¸¸à¹à¸¡à¸à¸£à¸­à¸à¸à¸¹à¹à¸à¸£à¸´à¹à¸ à¸à¸à¹à¸²à¸à¸ªà¸²à¸à¸²à¸£à¸à¸ªà¸¸à¸à¸ªà¸ªà¸.à¸£à¸°à¸¢à¸­à¸</h2></center>
</div>
<!-- Vendor JS Files -->
<script src="../new63/assets/vendor/jquery/jquery.min.js"></script>
<script src="../new63/assets/vendor/bootstrap/js/bootstrap.bundle.min.js"></script>
<script src="../new63/assets/vendor/jquery.easing/jquery.easing.min.js"></script>
<script src="../new63/assets/vendor/owl.carousel/owl.carousel.min.js"></script>
<script src="../new63/assets/vendor/venobox/venobox.min.js"></script>
<script src="../new63/assets/vendor/isotope-layout/isotope.pkgd.min.js"></script>
<script src="../new63/assets/vendor/aos/aos.js"></script>
<!-- Template Main JS File -->
<script src="../new63/assets/js/main.js"></script>
</body>
</html>