<!DOCTYPE HTML>
<html class="" lang="ru-RU" prefix="og: http://ogp.me/ns#">
<head>
<meta charset="utf-8"/>
<title>Android Mir - Ваш Гид В Мире Android ⋆ Androidmir.org</title>
<meta content="Только важные новости из мира Android. Интересное видео. Обзоры смартфонов и планшетов. Приложения и игры для Android." name="description"/>
<link href="https://androidmir.org/" rel="canonical"/>
<meta content="ru_RU" property="og:locale"/>
<meta content="website" property="og:type"/>
<meta content="Android Mir - Ваш Гид В Мире Android ⋆ Androidmir.org" property="og:title"/>
<meta content="Только важные новости из мира Android. Интересное видео. Обзоры смартфонов и планшетов. Приложения и игры для Android." property="og:description"/>
<meta content="https://androidmir.org/" property="og:url"/>
<meta content="AndroidMir.org" property="og:site_name"/>
<meta content="summary" name="twitter:card"/>
<meta content="Только важные новости из мира Android. Интересное видео. Обзоры смартфонов и планшетов. Приложения и игры для Android." name="twitter:description"/>
<meta content="Android Mir - Ваш Гид В Мире Android ⋆ Androidmir.org" name="twitter:title"/>
<meta content="@twitter" name="twitter:site"/>
<meta content="@twitter" name="twitter:creator"/>
<script class="yoast-schema-graph yoast-schema-graph--main" type="application/ld+json">{"@context":"https://schema.org","@graph":[{"@type":"Person","@id":"https://androidmir.org/#person","name":"AndroidMir","image":{"@type":"ImageObject","@id":"https://androidmir.org/#personlogo","url":"https://secure.gravatar.com/avatar/84490c09101b336fddcb0199f593e96d?s=96&d=mm&r=g","caption":"AndroidMir"},"description":"\u041f\u043e\u0434\u043f\u0438\u0441\u044b\u0432\u0430\u0439\u0442\u0435\u0441\u044c \u0432 \u043d\u0430\u0448\u0438 \u0433\u0440\u0443\u043f\u043f\u044b\u00a0<a title=\"\u0413\u0440\u0443\u043f\u043f\u0430 \u0412\u043a\u043e\u043d\u0442\u0430\u043a\u0442\u0435\" href=\"https://vk.com/andrmr\" rel=\"nofollow\">\u0412\u043a\u043e\u043d\u0442\u0430\u043a\u0442\u0435</a>\u00a0<a title=\"\u0413\u0440\u0443\u043f\u043f\u0430\u00a0Fasebook\" href=\"https://www.facebook.com/groups/1530438567239250/\" rel=\"nofollow\">Facebook</a>\u00a0<a title=\"\u0413\u0440\u0443\u043f\u043f\u0430 Google+\" href=\"https://plus.google.com/u/0/communities/103586666558219857593\" rel=\"nofollow\">Google+</a>\u00a0\u0431\u0443\u0434\u044c\u0442\u0435 \u0432 \u043a\u0443\u0440\u0441\u0435 \u043f\u043e\u0441\u043b\u0435\u0434\u043d\u0438\u0445 \u043d\u043e\u0432\u043e\u0441\u0442\u0435\u0439!","sameAs":["fasebook","https://twitter.com/twitter"]},{"@type":"WebSite","@id":"https://androidmir.org/#website","url":"https://androidmir.org/","name":"AndroidMir.org","publisher":{"@id":"https://androidmir.org/#person"},"potentialAction":{"@type":"SearchAction","target":"https://androidmir.org/?s={search_term_string}","query-input":"required name=search_term_string"}},{"@type":"WebPage","@id":"https://androidmir.org/#webpage","url":"https://androidmir.org/","inLanguage":"ru-RU","name":"Android Mir - \u0412\u0430\u0448 \u0413\u0438\u0434 \u0412 \u041c\u0438\u0440\u0435 Android &#8902; Androidmir.org","isPartOf":{"@id":"https://androidmir.org/#website"},"about":{"@id":"https://androidmir.org/#person"},"datePublished":"2016-03-27T04:51:48+00:00","dateModified":"2020-11-07T23:58:16+00:00","description":"\u0422\u043e\u043b\u044c\u043a\u043e \u0432\u0430\u0436\u043d\u044b\u0435 \u043d\u043e\u0432\u043e\u0441\u0442\u0438 \u0438\u0437 \u043c\u0438\u0440\u0430 Android. \u0418\u043d\u0442\u0435\u0440\u0435\u0441\u043d\u043e\u0435 \u0432\u0438\u0434\u0435\u043e. \u041e\u0431\u0437\u043e\u0440\u044b \u0441\u043c\u0430\u0440\u0442\u0444\u043e\u043d\u043e\u0432 \u0438 \u043f\u043b\u0430\u043d\u0448\u0435\u0442\u043e\u0432. \u041f\u0440\u0438\u043b\u043e\u0436\u0435\u043d\u0438\u044f \u0438 \u0438\u0433\u0440\u044b \u0434\u043b\u044f Android."}]}</script>
<link href="//fonts.googleapis.com" rel="dns-prefetch"/>
<link href="//s.w.org" rel="dns-prefetch"/>
<link href="https://androidmir.org/feed/" rel="alternate" title="AndroidMir.org » Лента" type="application/rss+xml"/>
<link href="https://androidmir.org/comments/feed/" rel="alternate" title="AndroidMir.org » Лента комментариев" type="application/rss+xml"/>
<meta content="width=device-width, initial-scale=1" name="viewport"/>
<meta content="SKYPE_TOOLBAR_PARSER_COMPATIBLE" name="SKYPE_TOOLBAR"/>
<script>window._wpemojiSettings={"baseUrl":"https:\/\/s.w.org\/images\/core\/emoji\/11.2.0\/72x72\/","ext":".png","svgUrl":"https:\/\/s.w.org\/images\/core\/emoji\/11.2.0\/svg\/","svgExt":".svg","source":{"concatemoji":"https:\/\/androidmir.org\/wp-includes\/js\/wp-emoji-release.min.js?ver=5.1.8"}};!function(a,b,c){function d(a,b){var c=String.fromCharCode;l.clearRect(0,0,k.width,k.height),l.fillText(c.apply(this,a),0,0);var d=k.toDataURL();l.clearRect(0,0,k.width,k.height),l.fillText(c.apply(this,b),0,0);var e=k.toDataURL();return d===e}function e(a){var b;if(!l||!l.fillText)return!1;switch(l.textBaseline="top",l.font="600 32px Arial",a){case"flag":return!(b=d([55356,56826,55356,56819],[55356,56826,8203,55356,56819]))&&(b=d([55356,57332,56128,56423,56128,56418,56128,56421,56128,56430,56128,56423,56128,56447],[55356,57332,8203,56128,56423,8203,56128,56418,8203,56128,56421,8203,56128,56430,8203,56128,56423,8203,56128,56447]),!b);case"emoji":return b=d([55358,56760,9792,65039],[55358,56760,8203,9792,65039]),!b}return!1}function f(a){var c=b.createElement("script");c.src=a,c.defer=c.type="text/javascript",b.getElementsByTagName("head")[0].appendChild(c)}var g,h,i,j,k=b.createElement("canvas"),l=k.getContext&&k.getContext("2d");for(j=Array("flag","emoji"),c.supports={everything:!0,everythingExceptFlag:!0},i=0;i<j.length;i++)c.supports[j[i]]=e(j[i]),c.supports.everything=c.supports.everything&&c.supports[j[i]],"flag"!==j[i]&&(c.supports.everythingExceptFlag=c.supports.everythingExceptFlag&&c.supports[j[i]]);c.supports.everythingExceptFlag=c.supports.everythingExceptFlag&&!c.supports.flag,c.DOMReady=!1,c.readyCallback=function(){c.DOMReady=!0},c.supports.everything||(h=function(){c.readyCallback()},b.addEventListener?(b.addEventListener("DOMContentLoaded",h,!1),a.addEventListener("load",h,!1)):(a.attachEvent("onload",h),b.attachEvent("onreadystatechange",function(){"complete"===b.readyState&&c.readyCallback()})),g=c.source||{},g.concatemoji?f(g.concatemoji):g.wpemoji&&g.twemoji&&(f(g.twemoji),f(g.wpemoji)))}(window,document,window._wpemojiSettings);</script>
<style>img.wp-smiley,img.emoji{display:inline!important;border:none!important;box-shadow:none!important;height:1em!important;width:1em!important;margin:0 .07em!important;vertical-align:-.1em!important;background:none!important;padding:0!important}</style>
<link href="https://androidmir.org/wp-content/plugins/structured-content/dist/blocks.style.css?ver=1.0.0" id="structured-content-frontend-css" media="all" rel="stylesheet" type="text/css"/>
<link href="https://androidmir.org/wp-includes/css/dist/block-library/style.min.css?ver=5.1.8" id="wp-block-library-css" media="all" rel="stylesheet" type="text/css"/>
<link href="https://androidmir.org/wp-content/plugins/youtube-channel/assets/lib/magnific-popup/magnific-popup.min.css?ver=3.0.11.8" id="magnific-popup-au-css" media="all" rel="stylesheet" type="text/css"/>
<link href="https://androidmir.org/wp-content/plugins/youtube-channel/assets/css/youtube-channel.css?ver=3.0.11.8" id="youtube-channel-css" media="all" rel="stylesheet" type="text/css"/>
<link href="https://androidmir.org/wp-content/plugins/youtube-embed/css/main.min.css?ver=5.1.8" id="ye_dynamic-css" media="all" rel="stylesheet" type="text/css"/>
<link href="https://fonts.googleapis.com/css?family=Roboto%3A400%2C700%2C400italic%2C300&amp;subset=cyrillic&amp;ver=5.1.8" id="us-font-1-css" media="all" rel="stylesheet" type="text/css"/>
<link href="//androidmir.org/wp-content/themes/Zephyr/framework/css/us-base.css?ver=2.10" id="us-base-css" media="all" rel="stylesheet" type="text/css"/>
<link href="//androidmir.org/wp-content/themes/Zephyr/framework/css/font-awesome.css?ver=4.6.0" id="us-font-awesome-css" media="all" rel="stylesheet" type="text/css"/>
<link href="//androidmir.org/wp-content/themes/Zephyr/framework/css/font-mdfi.css?ver=1" id="us-font-mdfi-css" media="all" rel="stylesheet" type="text/css"/>
<link href="//androidmir.org/wp-content/themes/Zephyr/css/style.css?ver=2.10" id="us-style-css" media="all" rel="stylesheet" type="text/css"/>
<link href="//androidmir.org/wp-content/themes/Zephyr/css/responsive.css?ver=2.10" id="us-responsive-css" media="all" rel="stylesheet" type="text/css"/>
<script>if(document.location.protocol!="https:"){document.location=document.URL.replace(/^http:/i,"https:");}</script><script src="https://androidmir.org/wp-includes/js/jquery/jquery.js?ver=1.12.4"></script>
<script src="https://androidmir.org/wp-includes/js/jquery/jquery-migrate.min.js?ver=1.4.1"></script>
<script src="https://androidmir.org/wp-includes/js/jquery/jquery.query.js?ver=2.1.7"></script>
<script>//<![CDATA[
var ajaxizeParams={"_wpnonce":"5e58345f62","is_404":""};
//]]></script>
<script src="https://androidmir.org/wp-content/plugins/ajaxize/ajaxize_this.js?ver=5.1.8"></script>
<link href="https://androidmir.org/wp-json/" rel="https://api.w.org/"/>
<link href="https://androidmir.org/xmlrpc.php?rsd" rel="EditURI" title="RSD" type="application/rsd+xml"/>
<link href="https://androidmir.org/wp-includes/wlwmanifest.xml" rel="wlwmanifest" type="application/wlwmanifest+xml"/>
<meta content="WordPress 5.1.8" name="generator"/>
<link href="https://androidmir.org/" rel="shortlink"/>
<link href="https://androidmir.org/wp-json/oembed/1.0/embed?url=https%3A%2F%2Fandroidmir.org%2F" rel="alternate" type="application/json+oembed"/>
<script src="https://androidmir.org/wp-content/plugins/copy-link/script/jscript3.js"></script><script>var wp_copy={tag:"AndroidMir.org ",ex:0,url:"https://androidmir.org/wp-content/plugins/copy-link",nonce:"efe25ab2d7",ip:"210.75.253.169",save:0,save_content:0};</script>
<style>.fve-video-wrapper{position:relative;overflow:hidden;height:0;background-color:transparent;padding-bottom:56.25%;margin:.5em 0}.fve-video-wrapper iframe,.fve-video-wrapper object,.fve-video-wrapper embed{position:absolute;display:block;top:0;left:0;width:100%;height:100%}.fve-video-wrapper a.hyperlink-image{position:relative;display:none}.fve-video-wrapper a.hyperlink-image img{position:relative;z-index:2;width:100%}.fve-video-wrapper a.hyperlink-image .fve-play-button{position:absolute;left:35%;top:35%;right:35%;bottom:35%;z-index:3;background-color:rgba(40,40,40,.75);background-size:100% 100%;border-radius:10px}.fve-video-wrapper a.hyperlink-image:hover .fve-play-button{background-color:rgba(0,0,0,.85)}</style>
<script async="" charset="UTF-8" src="//cdn.sendpulse.com/js/push/e46fa5b6fb1e829b223cc5a3b7a27362_1.js"></script>
<script async="" src="https://pagead2.googlesyndication.com/pagead/js/adsbygoogle.js"></script>
<script>(adsbygoogle=window.adsbygoogle||[]).push({google_ad_client:"ca-pub-1070026413450330",enable_page_level_ads:true});</script><script src="https://androidmir.org/wp-content/plugins/youtube-embed/js/jquery.fitvids.js"></script>
<script>$(".youtube-embed").fitVids();</script>
<style>.recentcomments a{display:inline!important;padding:0!important;margin:0!important}</style>
<style id="us-theme-options-css">body{font-family:"Roboto",sans-serif;font-size:15px;line-height:24px;font-weight:400}.w-blog-post{font-size:15px}.l-header .menu-item-language,.l-header .w-nav-item{font-family:"Roboto",sans-serif;font-weight:300}.type_desktop .menu-item-language>a,.l-header .type_desktop .w-nav-anchor.level_1,.type_desktop [class*="columns"] .menu-item-has-children .w-nav-anchor.level_2{font-size:16px}.type_desktop .submenu-languages .menu-item-language>a,.l-header .type_desktop .w-nav-anchor.level_2,.l-header .type_desktop .w-nav-anchor.level_3,.l-header .type_desktop .w-nav-anchor.level_4{font-size:15px}.type_mobile .menu-item-language>a,.l-header .type_mobile .w-nav-anchor.level_1{font-size:16px}.l-header .type_mobile .w-nav-anchor.level_2,.l-header .type_mobile .w-nav-anchor.level_3,.l-header .type_mobile .w-nav-anchor.level_4{font-size:15px}h1,h2,h3,h4,h5,h6,.w-blog-post.format-quote blockquote,.w-counter-number,.w-logo-title,.w-pricing-item-title,.w-pricing-item-price,.w-tabs-item-title,.ult_price_figure,.ult_countdown-amount,.ultb3-box .ultb3-title,.stats-block .stats-desc .stats-number{font-family:"Roboto",sans-serif;font-weight:400}h1{font-size:24px;letter-spacing:0}h2{font-size:21px;letter-spacing:0}h3{font-size:20px;letter-spacing:0}h4,.widgettitle,.comment-reply-title{font-size:19px;letter-spacing:0}h5,.w-blog:not(.cols_1) .w-blog-list .w-blog-post-title {font-size:19px;letter-spacing:0}h6{font-size:19px;letter-spacing:0}@media (max-width:767px){body{font-size:15px;line-height:22px}.w-blog-post{font-size:15px}h1{font-size:20px}h2{font-size:20px}h3{font-size:19px}h4,.widgettitle,.comment-reply-title{font-size:18px}h5{font-size:17px}h6{font-size:16px}}.l-body,.l-header.pos_fixed{min-width:1300px}.l-canvas.type_boxed,.l-canvas.type_boxed .l-subheader,.l-canvas.type_boxed ~ .l-footer .l-subfooter {max-width:1300px}.l-subheader-h,.l-titlebar-h,.l-main-h,.l-section-h,.l-subfooter-h,.w-tabs-section-content-h,.w-blog-post-body{max-width:1100px}.l-sidebar{width:33%}.l-content{width:63%}@media (max-width:1017px){.g-cols.offset_none,.g-cols.offset_none>div{display:block}.g-cols>div{width:100%!important;margin-left:0!important;margin-right:0!important;margin-bottom:30px}.l-subfooter.at_top .g-cols>div{margin-bottom:10px}.g-cols.offset_none>div,.g-cols>div:last-child{margin-bottom:0!important}}@media (min-width:901px){.l-subheader.at_middle{line-height:50px}.l-header.layout_advanced .l-subheader.at_middle,.l-header.layout_centered .l-subheader.at_middle{height:50px}.l-header.layout_standard.sticky .l-subheader.at_middle,.l-header.layout_extended.sticky .l-subheader.at_middle{line-height:50px}.l-header.layout_advanced.sticky .l-subheader.at_middle,.l-header.layout_centered.sticky .l-subheader.at_middle{line-height:50px;height:50px}.l-subheader.at_top{height:40px}.l-subheader.at_top,.l-subheader.at_bottom{line-height:40px}.l-header.layout_extended.sticky .l-subheader.at_top{line-height:0;height:0}.l-header.layout_advanced.sticky .l-subheader.at_bottom,.l-header.layout_centered.sticky .l-subheader.at_bottom{line-height:40px}.l-header.layout_standard.pos_fixed ~ .l-titlebar,.l-canvas.titlebar_none.sidebar_left .l-header.layout_standard.pos_fixed ~ .l-main,.l-canvas.titlebar_none.sidebar_right .l-header.layout_standard.pos_fixed ~ .l-main,.l-canvas.titlebar_none.sidebar_none .l-header.layout_standard.pos_fixed ~ .l-main .l-section:first-child,.l-header.layout_standard.pos_static.bg_transparent ~ .l-titlebar,.l-canvas.titlebar_none.sidebar_left .l-header.layout_standard.pos_static.bg_transparent ~ .l-main,.l-canvas.titlebar_none.sidebar_right .l-header.layout_standard.pos_static.bg_transparent ~ .l-main,.l-canvas.titlebar_none.sidebar_none .l-header.layout_standard.pos_static.bg_transparent ~ .l-main .l-section:first-child {padding-top:50px}.l-header.layout_extended.pos_fixed ~ .l-titlebar,.l-canvas.titlebar_none.sidebar_left .l-header.layout_extended.pos_fixed ~ .l-main,.l-canvas.titlebar_none.sidebar_right .l-header.layout_extended.pos_fixed ~ .l-main,.l-canvas.titlebar_none.sidebar_none .l-header.layout_extended.pos_fixed ~ .l-main .l-section:first-child,.l-header.layout_extended.pos_static.bg_transparent ~ .l-titlebar,.l-canvas.titlebar_none.sidebar_left .l-header.layout_extended.pos_static.bg_transparent ~ .l-main,.l-canvas.titlebar_none.sidebar_right .l-header.layout_extended.pos_static.bg_transparent ~ .l-main,.l-canvas.titlebar_none.sidebar_none .l-header.layout_extended.pos_static.bg_transparent ~ .l-main .l-section:first-child {padding-top:90px}.l-header.layout_advanced.pos_fixed ~ .l-titlebar,.l-canvas.titlebar_none.sidebar_left .l-header.layout_advanced.pos_fixed ~ .l-main,.l-canvas.titlebar_none.sidebar_right .l-header.layout_advanced.pos_fixed ~ .l-main,.l-canvas.titlebar_none.sidebar_none .l-header.layout_advanced.pos_fixed ~ .l-main .l-section:first-child,.l-header.layout_advanced.pos_static.bg_transparent ~ .l-titlebar,.l-canvas.titlebar_none.sidebar_left .l-header.layout_advanced.pos_static.bg_transparent ~ .l-main,.l-canvas.titlebar_none.sidebar_right .l-header.layout_advanced.pos_static.bg_transparent ~ .l-main,.l-canvas.titlebar_none.sidebar_none .l-header.layout_advanced.pos_static.bg_transparent ~ .l-main .l-section:first-child {padding-top:90px}.l-header.layout_centered.pos_fixed ~ .l-titlebar,.l-canvas.titlebar_none.sidebar_left .l-header.layout_centered.pos_fixed ~ .l-main,.l-canvas.titlebar_none.sidebar_right .l-header.layout_centered.pos_fixed ~ .l-main,.l-canvas.titlebar_none.sidebar_none .l-header.layout_centered.pos_fixed ~ .l-main .l-section:first-child,.l-header.layout_centered.pos_static.bg_transparent ~ .l-titlebar,.l-canvas.titlebar_none.sidebar_left .l-header.layout_centered.pos_static.bg_transparent ~ .l-main,.l-canvas.titlebar_none.sidebar_right .l-header.layout_centered.pos_static.bg_transparent ~ .l-main,.l-canvas.titlebar_none.sidebar_none .l-header.layout_centered.pos_static.bg_transparent ~ .l-main .l-section:first-child {padding-top:90px}.l-body.header_aside{padding-left:200px;position:relative}.rtl.l-body.header_aside{padding-left:0;padding-right:200px}.l-header.layout_sided,.l-header.layout_sided .w-cart-notification{width:200px}.l-body.header_aside .l-navigation-item.to_next{left:0}.no-touch .l-body.header_aside .l-navigation-item.to_next:hover{left:200px}.rtl.l-body.header_aside .l-navigation-item.to_next{right:0}.no-touch .rtl.l-body.header_aside .l-navigation-item.to_next:hover{right:200px}.w-nav.layout_ver.type_desktop [class*="columns"] .w-nav-list.level_2{width:calc(100vw - 200px);max-width:980px}}.w-nav.type_desktop .w-nav-anchor.level_1{padding:0 20px}.w-nav.type_desktop .btn.w-nav-item.level_1{margin:0 10px}.rtl .w-nav.type_desktop .btn.w-nav-item.level_1:last-child{margin-right:10px}.l-header.layout_sided .w-nav.type_desktop{line-height:40px}@media (min-width:901px){.w-logo-img{height:30px}.w-logo.with_transparent .w-logo-img>img.for_default{margin-bottom:-30px}.l-header.layout_standard.sticky .w-logo-img,.l-header.layout_extended.sticky .w-logo-img{height:30px}.l-header.layout_standard.sticky .w-logo.with_transparent .w-logo-img>img.for_default,.l-header.layout_extended.sticky .w-logo.with_transparent .w-logo-img>img.for_default{margin-bottom:-30px}.l-header.layout_advanced.sticky .w-logo-img,.l-header.layout_centered.sticky .w-logo-img{height:30px}.l-header.layout_advanced.sticky .w-logo.with_transparent .w-logo-img>img.for_default,.l-header.layout_centered.sticky .w-logo.with_transparent .w-logo-img>img.for_default{margin-bottom:-30px}.l-header.layout_sided .w-logo-img>img{width:200px}.w-logo-title{font-size:27px}}@media (min-width:601px) and (max-width:900px){.w-logo-img{height:30px}.w-logo.with_transparent .w-logo-img>img.for_default{margin-bottom:-30px}.w-logo-title{font-size:24px}}@media (max-width:600px){.w-logo-img{height:30px}.w-logo.with_transparent .w-logo-img>img.for_default{margin-bottom:-30px}.w-logo-title{font-size:20px}}.l-body{background-color:#d7e0df}.l-subheader.at_middle,.l-subheader.at_middle .w-lang-list,.l-subheader.at_middle .type_mobile .w-nav-list.level_1{background-color:#33691e}.l-subheader.at_middle,.transparent .l-subheader.at_middle .type_mobile .w-nav-list.level_1{color:#fff}.l-subheader.at_middle .w-nav-anchor.level_1 .ripple{background-color:#fff}.no-touch .w-logo-link:hover,.no-touch .l-subheader.at_middle .w-contacts-item-value a:hover,.no-touch .l-subheader.at_middle .w-lang-item:hover,.no-touch .transparent .l-subheader.at_middle .w-lang.active .w-lang-item:hover,.no-touch .l-subheader.at_middle .w-socials-item-link:hover,.no-touch .l-subheader.at_middle .w-search-open:hover,.no-touch .l-subheader.at_middle .w-cart-h:hover .w-cart-link{color:#fff}.l-subheader.at_top,.l-subheader.at_top .w-lang-list,.l-subheader.at_bottom,.l-subheader.at_bottom .type_mobile .w-nav-list.level_1{background-color:#33691e}.l-subheader.at_top,.l-subheader.at_bottom,.transparent .l-subheader.at_bottom .type_mobile .w-nav-list.level_1,.w-lang.active .w-lang-item{color:#ccff90}.l-subheader.at_bottom .w-nav-anchor.level_1 .ripple{background-color:#ccff90}.no-touch .l-subheader.at_top .w-contacts-item-value a:hover,.no-touch .l-subheader.at_top .w-lang-item:hover,.no-touch .transparent .l-subheader.at_top .w-lang.active .w-lang-item:hover,.no-touch .l-subheader.at_top .w-socials-item-link:hover,.no-touch .l-subheader.at_bottom .w-search-open:hover,.no-touch .l-subheader.at_bottom .w-cart-h:hover .w-cart-link{color:#fff}.l-header.transparent .l-subheader{color:#fff}.no-touch .l-header.transparent .type_desktop .menu-item-language>a:hover,.no-touch .l-header.transparent .type_desktop .menu-item-language:hover>a,.no-touch .l-header.transparent .w-logo-link:hover,.no-touch .l-header.transparent .l-subheader .w-contacts-item-value a:hover,.no-touch .l-header.transparent .l-subheader .w-lang-item:hover,.no-touch .l-header.transparent .l-subheader .w-socials-item-link:hover,.no-touch .l-header.transparent .l-subheader .w-search-open:hover,.no-touch .l-header.transparent .l-subheader .w-cart-h:hover .w-cart-link,.no-touch .l-header.transparent .type_desktop .w-nav-item.level_1:hover .w-nav-anchor.level_1{color:#fff}.w-search-background,.w-search.layout_fullwidth .w-form,.w-search.layout_simple .w-form input,.w-search.layout_modern .w-form input{background-color:#fff!important}.w-search .w-form{color:#33691e}.w-search.layout_fullscreen .w-form-row-field:after,.w-search.layout_fullscreen .w-form-row.focused .w-form-row-field-bar:before,.w-search.layout_fullscreen .w-form-row.focused .w-form-row-field-bar:after{background-color:#33691e}.no-touch .l-header .menu-item-language>a:hover,.no-touch .type_desktop .menu-item-language:hover>a,.no-touch .l-header .w-nav-item.level_1:hover .w-nav-anchor.level_1{background-color:#689f38}.no-touch .l-header .menu-item-language>a:hover,.no-touch .type_desktop .menu-item-language:hover>a,.no-touch .l-header .w-nav-item.level_1:hover .w-nav-anchor.level_1{color:#fff}.l-header .w-nav-item.level_1.active .w-nav-anchor.level_1,.l-header .w-nav-item.level_1.current-menu-item .w-nav-anchor.level_1,.l-header .w-nav-item.level_1.current-menu-ancestor .w-nav-anchor.level_1{color:#b2ff59}.l-header.transparent .type_desktop .w-nav-item.level_1.active .w-nav-anchor.level_1,.l-header.transparent .type_desktop .w-nav-item.level_1.current-menu-item .w-nav-anchor.level_1,.l-header.transparent .type_desktop .w-nav-item.level_1.current-menu-ancestor .w-nav-anchor.level_1{color:#8cff66}.type_desktop .submenu-languages,.l-header .w-nav-list.level_2,.l-header .w-nav-list.level_3,.l-header .w-nav-list.level_4{background-color:#33691e}.type_desktop .submenu-languages,.l-header .w-nav-anchor.level_2,.l-header .w-nav-anchor.level_3,.l-header .w-nav-anchor.level_4,.type_desktop [class*="columns"] .w-nav-item.menu-item-has-children.active .w-nav-anchor.level_2,.type_desktop [class*="columns"] .w-nav-item.menu-item-has-children.current-menu-item .w-nav-anchor.level_2,.type_desktop [class*="columns"] .w-nav-item.menu-item-has-children.current-menu-ancestor .w-nav-anchor.level_2,.no-touch .type_desktop [class*="columns"] .w-nav-item.menu-item-has-children:hover .w-nav-anchor.level_2{color:#fff}.l-header .w-nav-anchor.level_2 .ripple,.l-header .w-nav-anchor.level_3 .ripple,.l-header .w-nav-anchor.level_4 .ripple{background-color:#fff}.no-touch .type_desktop .submenu-languages .menu-item-language:hover>a,.no-touch .l-header .w-nav-item.level_2:hover .w-nav-anchor.level_2,.no-touch .l-header .w-nav-item.level_3:hover .w-nav-anchor.level_3,.no-touch .l-header .w-nav-item.level_4:hover .w-nav-anchor.level_4{background-color:#558b2f}.no-touch .type_desktop .submenu-languages .menu-item-language:hover>a,.no-touch .l-header .w-nav-item.level_2:hover .w-nav-anchor.level_2,.no-touch .l-header .w-nav-item.level_3:hover .w-nav-anchor.level_3,.no-touch .l-header .w-nav-item.level_4:hover .w-nav-anchor.level_4{color:#fff}.l-header .w-nav-item.level_2.current-menu-item .w-nav-anchor.level_2,.l-header .w-nav-item.level_2.current-menu-ancestor .w-nav-anchor.level_2,.l-header .w-nav-item.level_3.current-menu-item .w-nav-anchor.level_3,.l-header .w-nav-item.level_3.current-menu-ancestor .w-nav-anchor.level_3,.l-header .w-nav-item.level_4.current-menu-item .w-nav-anchor.level_4,.l-header .w-nav-item.level_4.current-menu-ancestor .w-nav-anchor.level_4{background-color:#33691e}.l-header .w-nav-item.level_2.current-menu-item .w-nav-anchor.level_2,.l-header .w-nav-item.level_2.current-menu-ancestor .w-nav-anchor.level_2,.l-header .w-nav-item.level_3.current-menu-item .w-nav-anchor.level_3,.l-header .w-nav-item.level_3.current-menu-ancestor .w-nav-anchor.level_3,.l-header .w-nav-item.level_4.current-menu-item .w-nav-anchor.level_4,.l-header .w-nav-item.level_4.current-menu-ancestor .w-nav-anchor.level_4{color:#b2ff59}.btn.w-nav-item .w-nav-anchor.level_1{background-color:#fff!important}.btn.w-nav-item .w-nav-anchor.level_1{color:#33691e!important}.no-touch .btn.w-nav-item:hover .w-nav-anchor.level_1{background-color:#fff!important}.no-touch .btn.w-nav-item:hover .w-nav-anchor.level_1{color:#33691e!important}.l-preloader,.l-canvas,.w-blog.layout_masonry .w-blog-post-h,.w-cart-dropdown,.w-pricing.style_1 .w-pricing-item-h,.w-person.layout_card,#lang_sel ul ul,#lang_sel_click ul ul,#lang_sel_footer,.woocommerce .form-row .chosen-drop,.woocommerce-ordering:after,.woocommerce-type_2 .product-h,.no-touch .woocommerce-type_2 .product-meta,.woocommerce #payment .payment_box,.widget_layered_nav ul li.chosen,.wpcf7-form-control-wrap.type_select:after{background-color:#f9f9f9}button.w-btn.color_contrast.style_raised,a.w-btn.color_contrast.style_raised,.w-iconbox.style_circle.color_contrast .w-iconbox-icon{color:#f9f9f9}.l-section.color_alternate,.l-titlebar.color_alternate,.no-touch .l-titlebar .g-nav-item:hover,.l-section.for_blogpost .w-blog-post-preview,.l-section.for_author .l-section-h,.l-section.for_related .l-section-h,.l-canvas.sidebar_none .l-section.for_comments,.w-actionbox.color_light,.w-blog.layout_latest .w-blog-post-meta-date,.no-touch .w-btn.style_flat:hover,.no-touch .pagination a.page-numbers:hover,.g-filters-item .ripple,.w-form.for_protected,.w-iconbox.style_circle.color_light .w-iconbox-icon,.g-loadmore-btn,.no-touch .w-logos .owl-prev:hover,.no-touch .w-logos .owl-next:hover,.w-profile,.w-pricing.style_1 .w-pricing-item-header,.w-pricing.style_2 .w-pricing-item-h,.w-progbar-bar,.w-progbar.style_3 .w-progbar-bar:before,.w-progbar.style_3 .w-progbar-bar-count,.w-socials-item-link,.w-tabs-item .ripple,.w-tabs.layout_timeline .w-tabs-item,.w-testimonial.style_1,.widget_calendar #calendar_wrap,.no-touch .l-main .widget_nav_menu a:hover,.no-touch #lang_sel ul ul a:hover,.no-touch #lang_sel_click ul ul a:hover,.woocommerce .login,.woocommerce .checkout_coupon,.woocommerce .register,.no-touch .woocommerce-type_2 .product-h .button:hover,.woocommerce .variations_form,.woocommerce .variations_form .variations td.value:after,.woocommerce .comment-respond,.woocommerce .stars span a:after,.woocommerce .cart_totals,.no-touch .woocommerce .product-remove a:hover,.woocommerce .checkout #order_review,.woocommerce ul.order_details,.widget_shopping_cart,.widget_layered_nav ul,.smile-icon-timeline-wrap .timeline-wrapper .timeline-block,.smile-icon-timeline-wrap .timeline-feature-item.feat-item{background-color:#fff}.timeline-wrapper .timeline-post-right .ult-timeline-arrow l,.timeline-wrapper .timeline-post-left .ult-timeline-arrow l,.timeline-feature-item.feat-item .ult-timeline-arrow l{border-color:#fff}hr,td,th,input:not([type="submit"]),textarea,select,.l-section,.g-cols > div,.w-form-row-field input:focus,.w-form-row-field textarea:focus,.widget_search input[type="text"]:focus,.w-separator,.w-sharing-item,.w-tabs-list,.w-tabs-section,.w-tabs-section-header:before,.l-main .widget_nav_menu > div,.l-main .widget_nav_menu .menu-item a,#lang_sel a.lang_sel_sel,#lang_sel_click a.lang_sel_sel,.woocommerce .quantity.buttons_added input.qty,.woocommerce .quantity.buttons_added .plus,.woocommerce .quantity.buttons_added .minus,.woocommerce-tabs .tabs,.woocommerce .related,.woocommerce .upsells,.woocommerce .cross-sells,.woocommerce ul.order_details li,.woocommerce .shop_table.my_account_orders,.select2-container a.select2-choice,.smile-icon-timeline-wrap .timeline-line {border-color:#7cb342}.w-iconbox.style_default.color_light .w-iconbox-icon,.w-separator,.w-testimonial.style_2:before,.pagination .page-numbers,.woocommerce .star-rating:before{color:#7cb342}.no-touch .l-titlebar.color_alternate .g-nav-item:hover,button.w-btn.color_light.style_raised,a.w-btn.color_light.style_raised,.no-touch .color_alternate .w-btn.style_flat:hover,.no-touch .g-loadmore-btn:hover,.color_alternate .g-filters-item .ripple,.color_alternate .w-tabs-item .ripple,.no-touch .color_alternate .w-logos .owl-prev:hover,.no-touch .color_alternate .w-logos .owl-next:hover,.no-touch .color_alternate .pagination a.page-numbers:hover,.widget_price_filter .ui-slider:before{background-color:#7cb342}h1,h2,h3,h4,h5,h6,.w-counter-number,.w-progbar.color_custom .w-progbar-title{color:#616161}.w-progbar.color_contrast .w-progbar-bar-h{background-color:#616161}.l-canvas,button.w-btn.color_light.style_raised,a.w-btn.color_light.style_raised,.w-blog.layout_masonry .w-blog-post-h,.w-cart-dropdown,.w-iconbox.style_circle.color_light .w-iconbox-icon,.w-pricing-item-h,.w-person.layout_card,.w-tabs.layout_timeline .w-tabs-item,.w-testimonial.style_1,.woocommerce .form-row .chosen-drop,.woocommerce-type_2 .product-h{color:#424242}button.w-btn.color_contrast.style_raised,a.w-btn.color_contrast.style_raised,.w-iconbox.style_circle.color_contrast .w-iconbox-icon{background-color:#424242}a,.highlight_primary,.l-preloader,button.w-btn.color_primary.style_flat,a.w-btn.color_primary.style_flat,.w-counter.color_primary .w-counter-number,.w-iconbox.style_default.color_primary .w-iconbox-icon,.g-filters-item.active,.w-form-row.focused:before,.w-form-row.focused>i,.no-touch .w-sharing.type_simple.color_primary .w-sharing-item:hover .w-sharing-icon,.w-separator.color_primary,.w-tabs-item.active,.w-tabs-section.active .w-tabs-section-header,.l-main .widget_nav_menu .menu-item.current-menu-item>a,.no-touch .woocommerce-type_2 .product-h a.button,.woocommerce-tabs .tabs li.active,input[type="radio"]:checked+.wpcf7-list-item-label:before,input[type="checkbox"]:checked+.wpcf7-list-item-label:before{color:#0091ea}.l-section.color_primary,.l-titlebar.color_primary,.no-touch .l-navigation-item:hover .l-navigation-item-arrow,.highlight_primary_bg,.w-actionbox.color_primary,.w-blog-post-preview-icon,button,input[type="submit"],a.w-btn.color_primary.style_raised,.pagination .page-numbers.current,.w-form-row.focused .w-form-row-field-bar:before,.w-form-row.focused .w-form-row-field-bar:after,.w-iconbox.style_circle.color_primary .w-iconbox-icon,.w-pricing.style_1 .type_featured .w-pricing-item-header,.w-pricing.style_2 .type_featured .w-pricing-item-h,.w-progbar.color_primary .w-progbar-bar-h,.w-sharing.type_solid.color_primary .w-sharing-item,.w-sharing.type_fixed.color_primary .w-sharing-item,.w-tabs-list-bar,.w-tabs.layout_timeline .w-tabs-item.active,.no-touch .w-tabs.layout_timeline .w-tabs-item:hover,.w-tabs.layout_timeline .w-tabs-section.active .w-tabs-section-header-h,.rsDefault .rsThumb.rsNavSelected,.woocommerce .button.alt,.woocommerce .button.checkout,.widget_price_filter .ui-slider-range,.widget_price_filter .ui-slider-handle,.smile-icon-timeline-wrap .timeline-separator-text .sep-text,.smile-icon-timeline-wrap .timeline-wrapper .timeline-dot,.smile-icon-timeline-wrap .timeline-feature-item .timeline-dot{background-color:#0091ea}.l-content blockquote,.g-filters-item.active,input:focus,textarea:focus,.w-separator.color_primary,.woocommerce .quantity.buttons_added input.qty:focus,.validate-required.woocommerce-validated input:focus,.validate-required.woocommerce-invalid input:focus,.woocommerce .button.loading:before,.woocommerce .button.loading:after,.woocommerce .form-row .chosen-search input[type="text"]:focus,.woocommerce-tabs .tabs li.active,.select2-dropdown-open.select2-drop-above a.select2-choice{border-color:#0091ea}input:focus,textarea:focus,.select2-dropdown-open a.select2-choice{box-shadow:0 -1px 0 0 #0091ea inset}.no-touch a:hover,.highlight_secondary,.no-touch a:hover+.w-blog-post-body .w-blog-post-title a,.no-touch .w-blog-post-title a:hover,.no-touch .w-blognav-prev:hover .w-blognav-title,.no-touch .w-blognav-next:hover .w-blognav-title,button.w-btn.color_secondary.style_flat,a.w-btn.color_secondary.style_flat,.w-counter.color_secondary .w-counter-number,.w-iconbox.style_default.color_secondary .w-iconbox-icon,.w-iconbox.style_default .w-iconbox-link:active .w-iconbox-icon,.no-touch .w-iconbox.style_default .w-iconbox-link:hover .w-iconbox-icon,.w-iconbox-link:active .w-iconbox-title,.no-touch .w-iconbox-link:hover .w-iconbox-title,.no-touch .w-sharing.type_simple.color_secondary .w-sharing-item:hover .w-sharing-icon,.w-separator.color_secondary,.no-touch .l-main .widget_tag_cloud a:hover,.no-touch .l-main .widget_product_tag_cloud .tagcloud a:hover,.woocommerce .star-rating span:before,.woocommerce .stars span a:after{color:#2196f3}.l-section.color_secondary,.l-titlebar.color_secondary,.highlight_secondary_bg,.no-touch .w-blog.layout_tiles .w-blog-post-meta-category a:hover,.no-touch .l-section.preview_trendy .w-blog-post-meta-category a:hover,button.w-btn.color_secondary.style_raised,a.w-btn.color_secondary.style_raised,.w-actionbox.color_secondary,.w-iconbox.style_circle.color_secondary .w-iconbox-icon,.w-progbar.color_secondary .w-progbar-bar-h,.w-sharing.type_solid.color_secondary .w-sharing-item,.w-sharing.type_fixed.color_secondary .w-sharing-item,.no-touch .w-toplink.active:hover,.no-touch .tp-leftarrow.tparrows.custom:hover,.no-touch .tp-rightarrow.tparrows.custom:hover,p.demo_store,.woocommerce .onsale,.woocommerce .form-row .chosen-results li.highlighted{background-color:#2196f3}.w-separator.color_secondary{border-color:#2196f3}.highlight_faded,button.w-btn.color_light.style_flat,a.w-btn.color_light.style_flat,.w-blog-post-meta>*,.w-comments-item-date,.w-comments-item-answer a,.w-profile-link.for_logout,.w-socials.style_desaturated .w-socials-item-link,.g-tags,.w-testimonial-person-meta,.l-main .widget_tag_cloud a,.l-main .widget_product_tag_cloud .tagcloud a,.woocommerce .stars span:after{color:#9e9e9e}.w-btn.style_flat .ripple,.w-btn.color_light.style_raised .ripple,.w-iconbox.style_circle.color_light .ripple,.w-socials.style_desaturated_inv .w-socials-item-link{background-color:#9e9e9e}.l-subfooter.at_top,.l-subfooter.at_top #lang_sel ul ul,.l-subfooter.at_top #lang_sel_click ul ul,.l-subfooter.at_top .wpcf7-form-control-wrap.type_select:after{background-color:#285218}.no-touch .l-subfooter.at_top #lang_sel ul ul a:hover,.no-touch .l-subfooter.at_top #lang_sel_click ul ul a:hover,.l-subfooter.at_top .w-socials-item-link,.l-subfooter.at_top .widget_calendar #calendar_wrap,.l-subfooter.at_top .widget_shopping_cart{background-color:#1e3d12}.l-subfooter.at_top,.l-subfooter.at_top #lang_sel a.lang_sel_sel,.l-subfooter.at_top #lang_sel_click a.lang_sel_sel,.l-subfooter.at_top input,.l-subfooter.at_top textarea,.l-subfooter.at_top select,.l-subfooter.at_top .w-form-row-field input:focus,.l-subfooter.at_top .w-form-row-field textarea:focus,.l-subfooter.at_top .widget_search input[type="text"]:focus{border-color:#424242}.l-subfooter.at_top h1,.l-subfooter.at_top h2,.l-subfooter.at_top h3,.l-subfooter.at_top h4,.l-subfooter.at_top h5,.l-subfooter.at_top h6{color:#64dd17}.l-subfooter.at_top{color:#8bc34a}.l-subfooter.at_top a,.l-subfooter.at_top .widget_tag_cloud .tagcloud a,.l-subfooter.at_top .widget_product_tag_cloud .tagcloud a{color:#b2ff59}.no-touch .l-subfooter.at_top a:hover,.l-subfooter.at_top .w-form-row.focused:before,.l-subfooter.at_top .w-form-row.focused>i,.no-touch .l-subfooter.at_top .widget_tag_cloud .tagcloud a:hover,.no-touch .l-subfooter.at_top .widget_product_tag_cloud .tagcloud a:hover{color:#2196f3}.l-subfooter.at_top .w-form-row.focused .w-form-row-field-bar:before,.l-subfooter.at_top .w-form-row.focused .w-form-row-field-bar:after{background-color:#2196f3}.l-subfooter.at_top input:focus,.l-subfooter.at_top textarea:focus{border-color:#2196f3}.l-subfooter.at_top input:focus,.l-subfooter.at_top textarea:focus{box-shadow:0 -1px 0 0 #2196f3 inset}.l-subfooter.at_bottom{background-color:#1e3d12}.l-subfooter.at_bottom{color:#8bc34a}.l-subfooter.at_bottom a{color:#b2ff59}.no-touch .l-subfooter.at_bottom a:hover{color:#0091ea}.simpleblock, form, .inner-section, .widget_search, .page .l-main > div > div > section:nth-child(3) > div, .single .l-main > div > div > section:nth-child(2) > div,.question2,.question1,.g-loadmore-btn,.rell-g,section.l-section.for_author {background:#fff;border-radius:2px;box-shadow:0 2px 2px 0 rgba(0,0,0,.14) , 0 3px 1px -2px rgba(0,0,0,.2) , 0 1px 5px 0 rgba(0,0,0,.12);display:block;overflow:hidden;z-index:10;transition:all 500ms ease-out;position:relative}.hoverblock:hover,aside.l-sidebar.at_right>div>h3:hover,aside.l-sidebar.at_right>div>h4:hover,ul#menu-goryachie-temy a:hover,.w-blog-post-h:hover,.su-posts-list-loop a:hover,ul.su-subpages a:hover{box-shadow:0 20px 20px 0 rgba(0,0,0,.14) , 0 30px 10px -20px rgba(0,0,0,.2) , 0 10px 50px 0 rgba(0,0,0,.12);z-index:100;transition:all 500ms ease-out}p,h1,h2,h3,h4,h5,h6{padding-left:20px;padding-right:20px}h1,h2,h3,h4,h5,h6{margin:20px 0 0 0;font-weight:600}.h-home-post-meta-author:before,.h-home-post-meta-tags:before,.h-home-post-meta-date:before,.h-home-post-meta-category:before{font-family:mdfonticon;vertical-align:top;margin-right:5px;color:#9da6a5}.h-home-post-meta-author:before{content:'\e613'}.h-home-post-meta-tags:before{content:'\e8df'}.h-home-post-meta-category ul{list-style-type:none;margin:0}.h-home-post-meta-category:before{content:'\e747';float:left}.h-home-post-meta-date:before{content:'\e77f'}.ads1,.ads2{margin:25px 20px 25px 20px}.l-subheader.at_middle{line-height:50px}@media (max-width:900px){.l-subheader.at_middle{line-height:35px}}.home .inner-section{border-radius:none;box-shadow:none}.l-sidebar{padding:40px 0}.widget{margin-bottom:20px}.textwidget h4,aside.l-sidebar.at_right>div>h3,aside.l-sidebar.at_right>div>h4{background:#33691e;text-transform:uppercase;font-size:15px;font-weight:bold;color:#fff;padding:7px 13px!important;margin:0 0 15px!important;border-radius:2px;display:block;position:relative;transition:all 500ms ease-out!important}ul#menu-goryachie-temy a{border-radius:2px;border:0;display:block;box-shadow:0 2px 2px 0 rgba(0,0,0,.14) , 0 3px 1px -2px rgba(0,0,0,.2) , 0 1px 5px 0 rgba(0,0,0,.12);position:relative;background-color:#fff;margin-bottom:1px;transition:all 500ms ease-out!important;z-index:10}#menu-goryachie-temy .sub-menu>.menu-item>a{padding:8px 8px 8px 40px}.menu-goryachie-temy-container{border:none!important}.l-section h2,.l-section h3,.l-section h4,.l-section h5,.l-section h6{padding-top:20px;margin-bottom:20px;font-weight:600}.l-section p{margin:0 0 20px 0}.l-section-h{padding:40px 0 0 0}.l-section.for_blogpost+.l-section{padding-bottom:0}.l-section h2:first-child,.l-section h3:first-child,.l-section h4:first-child,.l-section h5:first-child,.l-section h6:first-child,.l-section h1+h2,.l-section h1+h3,.l-section h1+h4,.l-section h1+h5,.l-section h1+h6,.l-section h2+h3,.l-section h2+h4,.l-section h2+h5,.l-section h2+h6,.l-section h3+h4,.l-section h3+h5,.l-section h3+h6,.l-section h4+h6,.l-section h4+h5,.l-section h5+h6{padding-top:20px}.l-section.for_blogpost+.l-section .l-section-h{padding-bottom:10px}.l-section.for_comments .l-section-h{padding:0!important}.l-canvas.titlebar_default .pos_fixed ~ .l-titlebar,.l-canvas.titlebar_none.sidebar_left .pos_fixed ~ .l-main,.l-canvas.titlebar_none.sidebar_right .pos_fixed ~ .l-main,.l-canvas.titlebar_none.sidebar_none .pos_fixed ~ .l-main .l-section:first-child {padding-top:45px}.l-canvas.sidebar_left .l-main,.l-canvas.sidebar_right .l-main{padding-left:0;padding-right:0}.l-canvas.sidebar_none .l-section{padding:0 0}.l-titlebar.size_medium .l-titlebar-h{padding:20px 0}.l-titlebar.size_small.color_alternate{box-shadow:0 2px 2px 0 rgba(0,0,0,.14) , 0 3px 1px -2px rgba(0,0,0,.2) , 0 1px 5px 0 rgba(0,0,0,.12);transition:all 500ms ease-out}.l-titlebar-h.i-cf p{width:60%;font-style:italic;text-align:end}.l-titlebar.size_medium.color_alternate{border-radius:2px;border:0;display:block;box-shadow:0 2px 2px 0 rgba(0,0,0,.14) , 0 3px 1px -2px rgba(0,0,0,.2) , 0 1px 5px 0 rgba(0,0,0,.12);position:relative;transition:all 500ms ease-out!important}.w-blog-post-title{padding-left:0}.w-blog.layout_smallcircle.cols_1 .w-blog-post,.w-blog.layout_smallsquare.cols_1 .w-blog-post{margin-bottom:30px}.w-blog-post{margin-bottom:30px}h2.w-blog-post-title,.w-blog-post-content p{padding-left:0;padding-right:0}h2.w-blog-post-title{margin-bottom:5px;font-size:1.3em}span.w-blog-post-meta-tags{display:-webkit-box}span.entry-title{color:#616161}.w-blog-post-h{width:100%;padding:10px;display:inline-block;position:relative;background:#fff;box-shadow:0 2px 2px 0 rgba(0,0,0,.14) , 0 3px 1px -2px rgba(0,0,0,.2) , 0 1px 5px 0 rgba(0,0,0,.12);border-radius:2px!important;z-index:0;transition:all 500ms ease-out}span.w-blog-post-preview{float:right!important;padding-left:10px}.w-blog.layout_smallsquare .w-blog-post-title,.w-blog.layout_smallcircle .w-blog-post-title,.w-blog.layout_smallsquare .w-blog-post-body{margin-left:0;padding-top:0}@media (max-width:475px){.w-blog.layout_smallsquare .w-blog-post-preview{width:100%!important}span.w-blog-post-preview{padding-left:0}}.question1{padding:20px}form#cse-search-box{padding-top:10px}#adBlock{background-color:#fff!important;border-left:1px solid #fff!important;border-right:1px solid #fff!important;border-top:1px solid #fff!important;border-bottom:1px solid #fff!important}.question2{padding:20px;margin-top:20px}section.l-section.for_author{margin-top:20px}.l-section.for_author .l-section-h{padding:20px}ul.w-nav-list.level_1{max-height:60px}.w-author-bio{max-height:60px}@media (max-width:480px){.w-author-img{float:left!important}.w-author-bio{max-height:70px;padding-left:100px}}section.l-section.for_tags{padding:20px 0 0 0}.g-tags{display:block;font-size:14px;vertical-align:baseline;line-height:120%;padding-left:8px}.g-tags a{position:relative;z-index:10;display:inline-block!important;padding:7px 10px!important;margin:0 3px 8px 0;background-color:#fff!important;box-shadow:0 2px 2px 0 rgba(0,0,0,.14) , 0 3px 1px -2px rgba(0,0,0,.2) , 0 1px 5px 0 rgba(0,0,0,.12);border-radius:2px!important;color:gray;z-index:0;transition:all 500ms ease-out}.l-section.for_tags{padding:10px 0}#simpletags-3>h4,#simpletags-4>h3{background:#c62828!important}.tagcloud a,.tag-cloud a,.st-tag-cloud a{position:relative;display:inline-block!important;padding:5px 7px!important;margin-left:5px;background-color:#fff!important;box-shadow:0 2px 2px 0 rgba(0,0,0,.14) , 0 3px 1px -2px rgba(0,0,0,.2) , 0 1px 5px 0 rgba(0,0,0,.12);border-radius:2px!important;margin-top:5px;z-index:0;transition:all 500ms ease-out}.st-tag-cloud{margin-left:10px;margin-right:10px}.st-tag-cloud a{margin-left:1px!important}.g-tags a:hover,.tagcloud a:hover,.tag-cloud a:hover,.st-tag-cloud a:hover{z-index:100;background-color:#689f38!important;color:#fff!important;box-shadow:0 20px 20px 0 rgba(0,0,0,.14) , 0 30px 10px -20px rgba(0,0,0,.2) , 0 10px 50px 0 rgba(0,0,0,.12);z-index:10;transition:all 500ms ease-out}.l-section.for_tags .l-section-h{padding:0 0}.privacy{display:table-caption}.l-subfooter.at_top{background:#f5f5f5}.l-section.for_blogpost~.l-section:last-child {margin-bottom:0}.l-subfooter.at_top{padding-top:10px;padding-bottom:10px}.l-canvas.sidebar_right.type_wide.titlebar_default{padding-bottom:20px}.mdfi_action_visibility{font-family:"Roboto",sans-serif!important;padding-top:3px}.mdfi_action_visibility .fn{line-height:18px}div#views-2 li,.widget_recent_entries ul li,li.recentcomments{border-radius:2px;border:0;display:block;box-shadow:0 2px 2px 0 rgba(0,0,0,.14) , 0 3px 1px -2px rgba(0,0,0,.2) , 0 1px 5px 0 rgba(0,0,0,.12);position:relative;background-color:#fff;margin:5px 0;margin-bottom:-4px;transition:all 500ms ease-out;background:#fff}div#views-2 a,.widget_recent_entries a,li.recentcomments a{display:block;width:100%;color:inherit;padding:12px 20px;white-space:nowrap;overflow:hidden}div#views-2 a::after,.widget_recent_entries a::after,li.recentcomments a::after{content:'';position:absolute;right:0;top:0;width:40px;height:100%;background:rgba(255,255,255,0);background:-moz-linear-gradient(left,rgba(255,255,255,0) 0%,rgba(255,255,255,1) 50%,rgba(255,255,255,1) 100%);background:-webkit-gradient(left top,right top,color-stop(0%,rgba(255,255,255,0)),color-stop(50%,rgba(255,255,255,1)),color-stop(100%,rgba(255,255,255,1)));background:-webkit-linear-gradient(left,rgba(255,255,255,0) 0%,rgba(255,255,255,1) 50%,rgba(255,255,255,1) 100%);background:-o-linear-gradient(left,rgba(255,255,255,0) 0%,rgba(255,255,255,1) 50%,rgba(255,255,255,1) 100%);background:-ms-linear-gradient(left,rgba(255,255,255,0) 0%,rgba(255,255,255,1) 50%,rgba(255,255,255,1) 100%);background:linear-gradient(to right,rgba(255,255,255,0) 0%,rgba(255,255,255,1) 50%,rgba(255,255,255,1) 100%);filter:progid:DXImageTransform.Microsoft.gradient( startColorstr='#ffffff', endColorstr='#ffffff', GradientType=1 )}div#views-2 li:hover,.widget_recent_entries ul li:hover,li.recentcomments:hover{box-shadow:0 20px 20px 0 rgba(0,0,0,.14) , 0 30px 10px -20px rgba(0,0,0,.2) , 0 10px 50px 0 rgba(0,0,0,.12);transition:all 500ms ease-out;z-index:10!important}.widget_recent_entries ul li,li.recentcomments{padding:0}.widget_recent_entries ul li:before,li.recentcomments:before{display:none}.recentcomments a{display:block!important}.widget_recent_comments .recentcomments{margin:5px 0;margin-bottom:-4px}.cc-last .mc-comment-info{position:relative!important;background:#fff!important;border-radius:2px!important;box-shadow:0 2px 2px 0 rgba(0,0,0,.14) , 0 3px 1px -2px rgba(0,0,0,.2) , 0 1px 5px 0 rgba(0,0,0,.12)!important;padding:10px!important;transition:all 500ms ease-out!important;z-index:0!important}.cc-last .mc-comment-info:hover,.cc-last .mc-avatar-wrap:hover{box-shadow:0 20px 20px 0 rgba(0,0,0,.14) , 0 30px 10px -20px rgba(0,0,0,.2) , 0 10px 50px 0 rgba(0,0,0,.12)!important;transition:all 500ms ease-out;z-index:10!important}.cc-last .mc-comment-wrap{margin:-12px 10px 10px 0!important}.cc-last .mc-avatar-wrap{box-shadow:0 2px 2px 0 rgba(0,0,0,.14) , 0 3px 1px -2px rgba(0,0,0,.2) , 0 1px 5px 0 rgba(0,0,0,.12)!important;transition:all 500ms ease-out!important;height:36px!important;width:36px!important;border-radius:8px!important;background-color:rgba(240,248,255,0)!important;transition:all 500ms ease-out!important}.cc-last .mc-comment .mc-avatar-wrap{top:auto!important;margin-left:7px!important}#mc-last>div>div>div>div>div.mc-comment-info>div.mc-comment-footer>a:hover{color:#0091ea!important;transition:color .3s}.l-section-h.i-cf{z-index:0}.cc .mc-comment-wrap{margin:10px!important}.cc .mc-comment{transition:all 500ms ease-out!important}.cc .mc-comment:hover{background:#fff!important;border-radius:2px;border:0;transition:all 500ms ease-out!important;box-shadow:0 20px 20px 0 rgba(0,0,0,.14) , 0 30px 10px -20px rgba(0,0,0,.2) , 0 10px 50px 0 rgba(0,0,0,.12)!important}.mc-comment-child>.mc-comment:hover{box-shadow:none!important}.mc-nocomments{display:none!important}button.mc-btn2.mc-btn2-bck.mc-comment-next{margin-bottom:20px!important}svg{margin-right:10px}.su-expand.su-expand-collapsed.su-expand-link-style-default{background:#f7f7f7;box-shadow:0 2px 2px 0 rgba(0,0,0,.14) , 0 3px 1px -2px rgba(0,0,0,.2) , 0 1px 5px 0 rgba(0,0,0,.12);margin-left:5px;margin-right:5px;padding-bottom:10px;transition:all 500ms ease-out}.su-expand.su-expand-collapsed.su-expand-link-style-default:hover{box-shadow:0 20px 20px 0 rgba(0,0,0,.14) , 0 30px 10px -20px rgba(0,0,0,.2) , 0 10px 50px 0 rgba(0,0,0,.12);transition:all 500ms ease-out}.su-divider.su-divider-style-dashed a{padding-right:20px}a.su-button.su-button-style-soft{margin-left:20px}.su-expand-link,.su-list,section>div>ul{padding-left:20px;padding-right:20px}.su-tabs-pane{font-size:15px!important}ul.su-subpages li{list-style:none}.su-posts-list-loop a,ul.su-subpages a{border-radius:2px;border:0;display:block;box-shadow:0 2px 2px 0 rgba(0,0,0,.14) , 0 3px 1px -2px rgba(0,0,0,.2) , 0 1px 5px 0 rgba(0,0,0,.12);position:relative;background-color:#fff;margin-bottom:1px;transition:all 500ms ease-out!important;z-index:10;line-height:1.5em;padding:12px 20px;color:inherit}ul.su-posts.su-posts-list-loop{margin:0 12px 20px 10px}ul.su-posts.su-posts-list-loop li{margin:0}.l-section.for_comments{border-top-width:0;border-top-style:none}.relap-default__item-inner{background:#fff;margin:8px;box-shadow:0 2px 2px 0 rgba(0,0,0,.14) , 0 3px 1px -2px rgba(0,0,0,.2) , 0 1px 5px 0 rgba(0,0,0,.12);transition:all 500ms ease-out;border-radius:2px;border:0}.relap-default__item-inner:hover{background:#fff!important;box-shadow:0 20px 20px 0 rgba(0,0,0,.14) , 0 30px 10px -20px rgba(0,0,0,.2) , 0 10px 50px 0 rgba(0,0,0,.12);transition:all 500ms ease-out}.relap-default-wrapper{padding-left:7px;padding-right:7px}.rhtitle,.rh20,a.rhtitle>span{font-size:17px!important}@media (max-width:600px){.relap-default-wrapper{padding-left:16px;padding-right:16px}}span.entry-title{font-weight:600;color:#444}section:nth-child(2) > div > p:nth-child(1) {padding-top:20px}.w-nav.type_desktop .w-nav-anchor.level_1{padding:0 20px}.g-loadmore-btn{margin-bottom:40px}.cc-last .mc-comment{padding-right:7px!important}.mc-comment:last-child{padding-bottom:7px!important}.w-gallery{padding-bottom:20px}.w-gallery-item img{max-width:100%!important;max-height:400px!important;width:initial!important}div#search-2,div#search-3{padding:0 20px 20px 20px}div#search-2 h4{padding-top:0;margin-bottom:0;font-weight:400}.most_viewed{display:none}.mdfi_action_visibility{display:none!important}ol{padding-left:10px}ul{padding-left:0!important}@media (max-width:767px){.l-titlebar.size_small h1,.l-titlebar.size_medium h1{font-size:18px;padding-top:10px}.l-section-h{padding:0}.w-blog{padding-left:10px}p,h1,h2,h3,h4,h5,h6{padding-left:10px;padding-right:10px}ol{padding-left:10px}}.ads12{padding-left:10px;padding-right:10px}.page-id-21486 .st-related-posts,.page-id-19852 .st-related-posts,.page-id-9801 .st-related-posts,.page-id-22027 .st-related-posts,.page-id-21976 .st-related-posts,.page-id-1052 .st-related-posts,.page-id-24992 .st-related-posts,.home .st-related-posts{display:none}ul.su-subpages{margin:0}#mc-container{padding:0!important}h4.st-related-posts{padding-top:0}@media (max-width:900px){.l-main-h.i-cf{max-width:700px}}@media (max-width:1130px){.l-main-h.i-cf{padding:0 1% 0}}@media (max-width:767px){.l-main-h.i-cf{padding:0}}.inner-section{padding-bottom:10px}.w-search-open{line-height:30px}.l-section ul{padding-bottom:10px}div#views-2 a:hover{color:#009eef}#commentbanner{position:fixed;bottom:10px;left:10px;width:auto;z-index:999999;padding:5px 0}div#commentbanner a{background-color:#0091ea;width:100%;white-space:nowrap;overflow:hidden;padding:8px 15px;color:#fff}.l-section-h{padding:20px 0 0 0}div#adswidget10-quick-adsense{margin-bottom:0}.home .l-section-h{padding:10px 0 0 0}aside.l-sidebar.at_right>div>p,aside.l-sidebar.at_right>div>p,.widgettitle{background:#33691e;font-family:"Roboto",sans-serif;text-transform:uppercase;font-size:15px;font-weight:bold;color:#fff;padding:5.5px 13px!important;margin:0 0 15px!important;border-radius:2px;display:block;position:relative;transition:all 500ms ease-out!important}aside.l-sidebar.at_right>div>p:hover,aside.l-sidebar.at_right>div>p:hover,.widgettitle:hover{box-shadow:0 20px 20px 0 rgba(0,0,0,.14) , 0 30px 10px -20px rgba(0,0,0,.2) , 0 10px 50px 0 rgba(0,0,0,.12);z-index:100;transition:all 500ms ease-out}.dmca-badge,.w-copyright{display:inline-block;width:100%}.w-nav.layout_hor{display:inline-block;float:none!important}.home.page-id-19852 #text-57 .textwidget,.page-id-1052 #text-57 .textwidget a{display:none!important}.home.page-id-19852 #text-57{margin-bottom:30px}.home.page-id-19852 #text-57 .textwidget div,.page-id-1052 #text-57 .textwidget div{padding-top:20px!important}section>div>ul{padding-left:25px!important}.l-section h2,.l-section h3,.l-section h4,.l-section h5,.l-section h6{padding-left:10px}.l-section.for_sharing .l-section-h{padding:20px 0 0}.inner-section{background:none;box-shadow:none}.home-b{display:inline-block}div#hp-b-1{display:inherit}.hp-bloks{width:100%;background:#fff;border-radius:2px;box-shadow:0 2px 2px 0 rgba(0,0,0,.14) , 0 3px 1px -2px rgba(0,0,0,.2) , 0 1px 5px 0 rgba(0,0,0,.12);display:inline-block;font-family:"RobotoDraft",sans-serif;left:28px;overflow:hidden;top:350px;z-index:10;transition:all 500ms ease-out}.hp-bloks .hp-b-3{position:relative}.hp-b-4{background:rgba(51,105,30,.71);color:#fff;border-radius:2px;display:block;position:absolute;right:5px;top:5px;z-index:11;padding:0 5px;font-size:12px}.hp-b-5-graphic{position:absolute;width:100%}.hp-b-6{display:flex;position:relative}.hp-b-6-title{padding:10px 10px}.hp-b-6-txt{align-self:flex-end;color:#fff;font-size:16px;font-weight:400;width:100%;background:rgba(51,105,30,.80);font-family:Verdana,Geneva,sans-serif;text-align:center}.hp-b-7{border-top:1px solid rgba(0,0,0,.1);padding:3px 8px;position:relative;height:110px}.hp-b-7-1{color:#616161;padding:5px;text-align:justify}.home-t h2 a,.home-t h2 a:hover{color:#fff}.home-t h2{margin-left:5px;margin-right:5px;text-transform:uppercase;font-size:15px;font-weight:bold;color:#fff;padding:7px 13px!important;margin:0 0 10px 0;border-radius:2px;display:block;position:relative;transition:all 500ms ease-out}.home-t1 h2{background:#33691e}.home-t2 h2{background:#b71c1c}.home-b2 .hp-b-6-txt,.home-b2 .hp-b-4{background:rgba(183,28,28,.7)}.home-t3 h2{background:#0d47a1}.home-b3 .hp-b-6-txt,.home-b3 .hp-b-4{background:rgba(13,71,161,.7)}.home-t4 h2{background:#00695c}.home-b4 .hp-b-6-txt,.home-b4 .hp-b-4{background:rgba(0,105,92,.65)}.home-t5 h2{background:#9c27b0}.home-b5 .hp-b-6-txt,.home-b5 .hp-b-4{background:rgba(156,39,176,.65)}.home-t6 h2{background:#ff5722}.home-b6 .hp-b-6-txt,.home-b6 .hp-b-4{background:rgba(255,87,34,.65)}.home-t2,.home-t3,.home-t4,.home-t5,.home-t6{padding-top:30px}@media (min-width:1245px){div#hp-b-1{width:50%;padding:.8%}.hp-b-5-graphic{height:220px}.hp-b-6{height:220px}}@media (max-width:1390px){.hp-b-5-graphic{height:220px}.hp-b-6{height:220px}.hp-b-7{height:110px}}@media (max-width:1245px){div#hp-b-1{width:50%;padding:.8%}.hp-b-5-graphic{height:220px}.hp-b-6{height:220px}.hp-b-7{height:130px}}@media (max-width:1130px){div#hp-b-1{width:50%;padding:.8%}.hp-b-7{height:135px}div#hp-b-1:nth-child(3n) {display:none}.hp-b-5-graphic{height:220px}.hp-b-6{height:220px}}@media (max-width:1075px){.hp-b-5-graphic{height:220px}.hp-b-6{height:220px}}@media (max-width:970px){.hp-b-7{height:135px}.hp-b-6-txt,.hp-b-7-1-text{font-size:14px}}@media (max-width:900px){.hp-b-5-graphic{height:220px}.hp-b-6{height:220px}.hp-b-7{height:120px}.hp-b-6-txt,.hp-b-7-1-text{font-size:15px}}}@media (max-width:780px) {.hp-b-5-graphic {height:220px;}.hp-b-6 {height:220px;}}@media (max-width:775px){.hp-b-7{height:110px}}@media (max-width:680px){.hp-b-5-graphic{height:220px}.hp-b-6{height:220px}.hp-b-7{height:120px}}@media (max-width:645px){.hp-b-5-graphic,.hp-b-6{height:200px}.hp-b-6-txt,h2.hoverblock{font-size:13px}}@media (max-width:625px){.hp-b-5-graphic,.hp-b-6{height:180px}}@media (max-width:545px){div#hp-b-1{width:100%;padding:3%}.hp-b-6-txt{height:auto}.hp-b-7{height:auto}.hp-b-5-graphic,.hp-b-6{height:340px}.hp-b-6-txt,h2.hoverblock{font-size:15px}}@media (max-width:525px){.hp-b-5-graphic,.hp-b-6{height:320px}}@media (max-width:495px){.hp-b-5-graphic,.hp-b-6{height:300px}}@media (max-width:475px){.hp-b-5-graphic,.hp-b-6{height:290px}}@media (max-width:455px){.hp-b-5-graphic,.hp-b-6{height:280px}}@media (max-width:435px){.hp-b-5-graphic,.hp-b-6{height:260px}}@media (max-width:415px){.hp-b-5-graphic,.hp-b-6{height:240px}}@media (max-width:385px){.hp-b-5-graphic,.hp-b-6{height:220px}}@media (max-width:355px){.hp-b-5-graphic,.hp-b-6{height:200px}.hp-b-7{display:none}}@media (max-width:335px){.hp-b-5-graphic,.hp-b-6{height:190px}.hp-b-7{display:none}}@media (max-width:305px){.hp-b-5-graphic,.hp-b-6{height:170px}.hp-b-7{display:none}}.home .l-section-h.i-cf .inner-section{background:none;border-radius:0;box-shadow:none;display:block;overflow:hidden;z-index:10;transition:all 500ms ease-out;position:relative}.l-section-h.i-cf .inner-section{background:#fff;border-radius:2px;box-shadow:0 2px 2px 0 rgba(0,0,0,.14) , 0 3px 1px -2px rgba(0,0,0,.2) , 0 1px 5px 0 rgba(0,0,0,.12);display:block;overflow:hidden;z-index:10;transition:all 500ms ease-out;position:relative}.search.search-results .hp-b-5-graphic{background:none!important}.search.search-results .w-blog-post-content{height:auto}@media (max-width:540px){body{line-height:24px!important;font-size:18px!important}.hp-b-6-txt,.hp-b-7-1-text{line-height:24px!important;font-size:18px!important}.w-blog-post-title{line-height:28px!important;font-size:24px!important;padding-bottom:15px}}@media only screen and (max-width:767px){.l-canvas.sidebar_right{margin-bottom:55px}}@media only screen and (min-width:768px){.l-canvas.sidebar_right .l-sidebar,.w-blog-post-meta{display:block}.l-canvas.sidebar_right{margin-bottom:0}}a.relap-default__logo.js-relap__logo{display:none!important}.comments-area{padding:10px}.inner-section{padding-top:20px}.home .inner-section{padding-top:unset}.l-sidebar #youtube_embed_widget-2 .youtube-embed{position:relative;width:100%;height:0;margin-bottom:21%;padding-bottom:56%}.l-sidebar #youtube_embed_widget-2 .youtube-embed iframe{position:absolute;width:100%;height:130%;left:0;top:0}ol{padding-right:10px}.boxzilla{padding:5px;background:none!important;border-radius:8px!important}.w-blog-post-meta{display:none!important}h1.w-blog-post-title.entry-title{padding-bottom:20px}.mc-logo a img{display:none!important;visibility:hidden!important}form{margin:10px;padding:10px}</style>
<meta content="c446104c73" name="verify-admitad"/>
</head>
<body class="home page-template-default page page-id-19852 l-body us-theme_zephyr_2-10" data-rsssl="1">
<div class="l-canvas sidebar_right type_wide titlebar_none">
<div class="l-header layout_standard pos_fixed bg_solid">
<div class="l-subheader at_middle">
<div class="l-subheader-h i-cf">
<div class="w-logo with_title"><a class="w-logo-link" data-wpel-link="internal" href="https://androidmir.org/"><span class="w-logo-title"><strong>AndroidMir</strong></span></a></div>
<div class="w-search layout_fullscreen">
<div class="w-search-open"></div>
<div class="w-search-background"></div>
<div class="w-form for_search" id="us_form_1">
<form action="https://androidmir.org/" autocomplete="off" class="w-form-h">
<div class="w-form-row for_s">
<div class="w-form-row-label">
<label for="us_form_1_s">Наберите текст и нажмите Enter</label>
</div>
<div class="w-form-row-field">
<input id="us_form_1_s" name="s" placeholder="поиск ..." type="text" value=""/>
<span class="w-form-row-field-bar"></span>
</div>
<div class="w-form-row-state"></div>
</div>
<div class="w-form-row for_submit">
<div class="w-form-row-field">
<button class="w-btn" type="submit"><span class="g-preloader type_1"></span><span class="w-btn-label">Поиск</span></button>
</div>
</div>
<div class="w-form-message"></div>
<div class="w-search-close"></div> </form>
</div>
</div>
<nav class="w-nav layout_hor type_desktop animation_mdesign">
<div class="w-nav-control"></div>
<ul class="w-nav-list level_1 hover_none hidden">
<li class="menu-item menu-item-type-post_type menu-item-object-page w-nav-item level_1 menu-item-22048" id="menu-item-22048"><a class="w-nav-anchor level_1" data-wpel-link="internal" href="https://androidmir.org/faq/update/"><span class="w-nav-title">Обновления</span><span class="w-nav-arrow"></span></a></li>
<li class="menu-item menu-item-type-custom menu-item-object-custom w-nav-item level_1 menu-item-58445" id="menu-item-58445"><a class="w-nav-anchor level_1" data-wpel-link="internal" href="https://androidmir.org/alex/8554/"><span class="w-nav-title">Root</span><span class="w-nav-arrow"></span></a></li>
<li class="menu-item menu-item-type-taxonomy menu-item-object-category w-nav-item level_1 menu-item-42237" id="menu-item-42237"><a class="w-nav-anchor level_1" data-wpel-link="internal" href="https://androidmir.org/reviews/"><span class="w-nav-title">Обзоры устройств и приложений от AndroidMir</span><span class="w-nav-arrow"></span></a></li>
<li class="menu-item menu-item-type-taxonomy menu-item-object-category w-nav-item level_1 menu-item-25311" id="menu-item-25311"><a class="w-nav-anchor level_1" data-wpel-link="internal" href="https://androidmir.org/app/"><span class="w-nav-title">Приложения</span><span class="w-nav-arrow"></span></a></li>
<li class="menu-item menu-item-type-post_type menu-item-object-page menu-item-has-children w-nav-item level_1 menu-item-42234" id="menu-item-42234"><a class="w-nav-anchor level_1" data-wpel-link="internal" href="https://androidmir.org/faq/"><span class="w-nav-title">Задай вопрос</span><span class="w-nav-arrow"></span></a>
<ul class="w-nav-list level_2">
<li class="menu-item menu-item-type-post_type menu-item-object-page w-nav-item level_2 menu-item-53428" id="menu-item-53428"><a class="w-nav-anchor level_2" data-wpel-link="internal" href="https://androidmir.org/faq/"><span class="w-nav-title">Задай вопрос о Android!</span><span class="w-nav-arrow"></span></a> </li>
<li class="menu-item menu-item-type-custom menu-item-object-custom w-nav-item level_2 menu-item-36519" id="menu-item-36519"><a class="w-nav-anchor level_2" data-wpel-link="exclude" href="https://delpc.ru" rel="follow noopener noreferrer" target="_blank"><span class="w-nav-title">Задай вопрос о Windows!</span><span class="w-nav-arrow"></span></a> </li>
</ul>
</li>
</ul>
</nav>
</div>
</div>
</div>
<div class="l-main">
<div class="l-main-h i-cf">
<div class="l-content">
<div class="widget_text widget widget_custom_html" id="custom_html-38"><div class="textwidget custom-html-widget"></div></div>
<section class="l-section"><div class="l-section-h i-cf "><div class="inner-section"><style>.ads01{display:none!important}div#custom_html-14{margin-bottom:30px}div#custom_html-38{padding-top:10px}</style>
<div class="home-t home-t1 hjk1">
<h2 class="hoverblock"><a data-wpel-link="internal" href="/news/" title="Категория: Android Новости">Android Новости</a></h2>
</div>
<div class="home-b home-b1"> <div id="hp-b-1">
<div class="hp-bloks hoverblock" id="hp-b-2">
<div class="hp-b-3">
<a data-wpel-link="internal" href="https://androidmir.org/andrey/78525/">
<div class="hp-b-4">
<span class="hp-date">15.12.2020</span>
<span class="hp-autor">Andrey</span>
</div>
<div class="hp-b-5-graphic" style=" background: #78909b url(https://androidmir.org/wp-content/uploads/2020/12/Outdoor-pictures-4.jpg) 100% 0 no-repeat;background-size: cover;"></div>
<div class="hp-b-6">
<div class="hp-b-6-txt">
<div class="hp-b-6-title">Сила в ваших руках с DOOGEE S59 PRO</div>
</div>
</div>
<div class="hp-b-7">
<div class="hp-b-7-1">
<div class="hp-b-7-1-text">DOOGEE S59 PRO - это интересная новинка от Doogee с мощным аккумулятором, громким динамиком и 128 ГБ памяти на борту!</div>
</div>
</div>
</a>
</div>
</div>
</div>
<div id="hp-b-1">
<div class="hp-bloks hoverblock" id="hp-b-2">
<div class="hp-b-3">
<a data-wpel-link="internal" href="https://androidmir.org/andrey/78499/">
<div class="hp-b-4">
<span class="hp-date">07.12.2020</span>
<span class="hp-autor">Andrey</span>
</div>
<div class="hp-b-5-graphic" style=" background: #78909b url(https://androidmir.org/wp-content/uploads/2020/12/WP10-deal-poster.png) 100% 0 no-repeat;background-size: cover;"></div>
<div class="hp-b-6">
<div class="hp-b-6-txt">
<div class="hp-b-6-title">6 причин купить Oukitel WP10</div>
</div>
</div>
<div class="hp-b-7">
<div class="hp-b-7-1">
<div class="hp-b-7-1-text">Oukitel WP10 - Лидер на рынке среди защищенных смартфонов с 5G. Dimensity 800, крутая камера, огромная батарея и потрясающая защита менее, чем 400$!</div>
</div>
</div>
</a>
</div>
</div>
</div>
</div>
<div class="home-t home-t4">
<h2 class="hoverblock"><a data-wpel-link="internal" href="/reviews/" title="Категория: Обзоры устройств и приложений от AndroidMir">Обзоры устройств и приложений от AndroidMir</a></h2>
</div>
<div class="home-b home-b4"> <div id="hp-b-1">
<div class="hp-bloks hoverblock" id="hp-b-2">
<div class="hp-b-3">
<a data-wpel-link="internal" href="https://androidmir.org/andrey/78553/">
<div class="hp-b-4">
<span class="hp-date">24.12.2020</span>
<span class="hp-autor">Andrey</span>
</div>
<div class="hp-b-5-graphic" style=" background: #78909b url(https://androidmir.org/wp-content/uploads/2020/12/BQ-Magic-L-komplektatsiya.jpg) 100% 0 no-repeat;background-size: cover;"></div>
<div class="hp-b-6">
<div class="hp-b-6-txt">
<div class="hp-b-6-title">Обзор смартфона BQ Magic L 6630L [ВИДЕО]</div>
</div>
</div>
<div class="hp-b-7">
<div class="hp-b-7-1">
<div class="hp-b-7-1-text">В нашем обзоре BQ 6630L Magic L вы увидите основные особенности смартфона и стоит ли его покупать, а также увидите результаты некоторых тестов и фото.</div>
</div>
</div>
</a>
</div>
</div>
</div>
<div id="hp-b-1">
<div class="hp-bloks hoverblock" id="hp-b-2">
<div class="hp-b-3">
<a data-wpel-link="internal" href="https://androidmir.org/andrey/78474/">
<div class="hp-b-4">
<span class="hp-date">29.11.2020</span>
<span class="hp-autor">Andrey</span>
</div>
<div class="hp-b-5-graphic" style=" background: #78909b url(https://androidmir.org/wp-content/uploads/2020/11/Obzor-BQ-2824-Tank-T.jpg) 100% 0 no-repeat;background-size: cover;"></div>
<div class="hp-b-6">
<div class="hp-b-6-txt">
<div class="hp-b-6-title">Обзор BQ 2824 Tank T с термометром [ВИДЕО]</div>
</div>
</div>
<div class="hp-b-7">
<div class="hp-b-7-1">
<div class="hp-b-7-1-text">BQ 2824 Tank T - это большой экран, ёмкий аккумулятор и конечно же инфрокрасный термометр для измерения температуры тела всего за 2790 рублей</div>
</div>
</div>
</a>
</div>
</div>
</div>
<div id="hp-b-1">
<div class="hp-bloks hoverblock" id="hp-b-2">
<div class="hp-b-3">
<a data-wpel-link="internal" href="https://androidmir.org/andrey/78442/">
<div class="hp-b-4">
<span class="hp-date">23.11.2020</span>
<span class="hp-autor">Andrey</span>
</div>
<div class="hp-b-5-graphic" style=" background: #78909b url(https://androidmir.org/wp-content/uploads/2020/11/Obzor-INOI-5-2021-mini.jpg) 100% 0 no-repeat;background-size: cover;"></div>
<div class="hp-b-6">
<div class="hp-b-6-txt">
<div class="hp-b-6-title">Обзор смартфона INOI 5 2021 за 4990 руб [ВИДЕО]</div>
</div>
</div>
<div class="hp-b-7">
<div class="hp-b-7-1">
<div class="hp-b-7-1-text">INOI 5 2021 - Недорогой смартфон с 4G, приемлемым быстродействием и отличной ценой. Что еще можно получить за эти деньги читайте в нашем обзоре!</div>
</div>
</div>
</a>
</div>
</div>
</div>
<div id="hp-b-1">
<div class="hp-bloks hoverblock" id="hp-b-2">
<div class="hp-b-3">
<a data-wpel-link="internal" href="https://androidmir.org/anna/77672/">
<div class="hp-b-4">
<span class="hp-date">23.10.2020</span>
<span class="hp-autor">Анна</span>
</div>
<div class="hp-b-5-graphic" style=" background: #78909b url(https://androidmir.org/wp-content/uploads/2020/10/Obzor-smart-chasy-Rogbid-GT-mini.jpg) 100% 0 no-repeat;background-size: cover;"></div>
<div class="hp-b-6">
<div class="hp-b-6-txt">
<div class="hp-b-6-title">Rogbid GT – обзор классических смарт часов за 20$</div>
</div>
</div>
<div class="hp-b-7">
<div class="hp-b-7-1">
<div class="hp-b-7-1-text">Большой металлический корпус и большой сенсорный экран! Много полезных функций и просто красивый дизайн - это смарт часы Rogbid GT.</div>
</div>
</div>
</a>
</div>
</div>
</div>
</div>
<div class="home-t home-t2">
<h2 class="hoverblock"><a data-wpel-link="internal" href="/tips-tricks/" title="Категория: Решение проблем и хитрости для Android">Решение проблем и хитрости для Android</a></h2>
</div>
<div class="home-b home-b2"> <div id="hp-b-1">
<div class="hp-bloks hoverblock" id="hp-b-2">
<div class="hp-b-3">
<a data-wpel-link="internal" href="https://androidmir.org/alexis/77724/">
<div class="hp-b-4">
<span class="hp-date">24.10.2020</span>
<span class="hp-autor">Alexis</span>
</div>
<div class="hp-b-5-graphic" style="background:#78909b url(https://androidmir.org/wp-content/uploads/2020/10/Prestigio-Grace-P5-425x300.jpg) 100% 0 no-repeat;background-size:cover"></div>
<div class="hp-b-6">
<div class="hp-b-6-txt">
<div class="hp-b-6-title">Как сбросить аккаунт Prestigio Grace P5</div>
</div>
</div>
<div class="hp-b-7">
<div class="hp-b-7-1">
<div class="hp-b-7-1-text">Сбросили настройки на телефоне и не можете войти в систему? Узнайте как сбросить аккаунт Prestigio Grace P5 после сброса настроек и разблокировать FRP Lock!</div>
</div>
</div>
</a>
</div>
</div>
</div>
<div id="hp-b-1">
<div class="hp-bloks hoverblock" id="hp-b-2">
<div class="hp-b-3">
<a data-wpel-link="internal" href="https://androidmir.org/alexis/77722/">
<div class="hp-b-4">
<span class="hp-date">24.10.2020</span>
<span class="hp-autor">Alexis</span>
</div>
<div class="hp-b-5-graphic" style="background:#78909b url(https://androidmir.org/wp-content/uploads/2020/10/homtom-s99-425x300.jpg) 100% 0 no-repeat;background-size:cover"></div>
<div class="hp-b-6">
<div class="hp-b-6-txt">
<div class="hp-b-6-title">Разблокировка аккаунта Google FRP Homtom S99</div>
</div>
</div>
<div class="hp-b-7">
<div class="hp-b-7-1">
<div class="hp-b-7-1-text">Сбросили настройки на телефоне и не можете войти в систему? Узнайте как обойти Гугл аккаунт после сброса настроек и разблокировать Google FRP Homtom S99!</div>
</div>
</div>
</a>
</div>
</div>
</div>
<div id="hp-b-1">
<div class="hp-bloks hoverblock" id="hp-b-2">
<div class="hp-b-3">
<a data-wpel-link="internal" href="https://androidmir.org/alexis/77710/">
<div class="hp-b-4">
<span class="hp-date">24.10.2020</span>
<span class="hp-autor">Alexis</span>
</div>
<div class="hp-b-5-graphic" style="background:#78909b url(https://androidmir.org/wp-content/uploads/2020/10/lenovo-vibe-p1-425x300.jpg) 100% 0 no-repeat;background-size:cover"></div>
<div class="hp-b-6">
<div class="hp-b-6-txt">
<div class="hp-b-6-title">Как сбросить аккаунт Lenovo Vibe P1</div>
</div>
</div>
<div class="hp-b-7">
<div class="hp-b-7-1">
<div class="hp-b-7-1-text">Сбросили настройки на телефоне и не можете войти в систему? Узнайте как сбросить аккаунт Lenovo Vibe P1 после сброса настроек и разблокировать FRP Lock!</div>
</div>
</div>
</a>
</div>
</div>
</div>
<div id="hp-b-1">
<div class="hp-bloks hoverblock" id="hp-b-2">
<div class="hp-b-3">
<a data-wpel-link="internal" href="https://androidmir.org/alexis/77702/">
<div class="hp-b-4">
<span class="hp-date">24.10.2020</span>
<span class="hp-autor">Alexis</span>
</div>
<div class="hp-b-5-graphic" style="background:#78909b url(https://androidmir.org/wp-content/uploads/2020/10/xperiaz5-425x300.png) 100% 0 no-repeat;background-size:cover"></div>
<div class="hp-b-6">
<div class="hp-b-6-txt">
<div class="hp-b-6-title">Как сбросить аккаунт Sony Xperia Z5 и Sony Xperia Z5 Dual</div>
</div>
</div>
<div class="hp-b-7">
<div class="hp-b-7-1">
<div class="hp-b-7-1-text">Сбросили настройки на телефоне и не можете войти в систему? Узнайте как сбросить аккаунт Sony Xperia Z5 после сброса настроек и разблокировать FRP Lock</div>
</div>
</div>
</a>
</div>
</div>
</div>
</div>
<div class="home-t home-t3">
<h2 class="hoverblock"><a data-wpel-link="internal" href="/app/" title="Категория: Всё о приложениях для Android">Всё о приложениях для Android</a></h2>
</div>
<div class="home-b home-b3"> <div id="hp-b-1">
<div class="hp-bloks hoverblock" id="hp-b-2">
<div class="hp-b-3">
<a data-wpel-link="internal" href="https://androidmir.org/anna/76635/">
<div class="hp-b-4">
<span class="hp-date">14.03.2020</span>
<span class="hp-autor">Анна</span>
</div>
<div class="hp-b-5-graphic" style="background:#78909b url(https://androidmir.org/wp-content/uploads/2020/03/2.jpg) 100% 0 no-repeat;background-size:cover"></div>
<div class="hp-b-6">
<div class="hp-b-6-txt">
<div class="hp-b-6-title">Родительский контроль: какое приложение выбрать в 2020 году?</div>
</div>
</div>
<div class="hp-b-7">
<div class="hp-b-7-1">
<div class="hp-b-7-1-text">ТОП 5 приложений родительского контроля для вашего ребёнка! Какое приложение лучше выбрать и легче настроить, а какое обойдётся вам недешего? Ответы тут!</div>
</div>
</div>
</a>
</div>
</div>
</div>
<div id="hp-b-1">
<div class="hp-bloks hoverblock" id="hp-b-2">
<div class="hp-b-3">
<a data-wpel-link="internal" href="https://androidmir.org/alexis/76140/">
<div class="hp-b-4">
<span class="hp-date">12.11.2019</span>
<span class="hp-autor">Alexis</span>
</div>
<div class="hp-b-5-graphic" style="background:#78909b url(https://androidmir.org/wp-content/uploads/2019/11/Androidmir_Montazhnaya-oblast-1.jpg) 100% 0 no-repeat;background-size:cover"></div>
<div class="hp-b-6">
<div class="hp-b-6-txt">
<div class="hp-b-6-title">Менеджеры паролей – стоит ли использовать?</div>
</div>
</div>
<div class="hp-b-7">
<div class="hp-b-7-1">
<div class="hp-b-7-1-text">Посмотрим, как менеджер паролей исправляет недостатки браузеров в хранении паролей пользователей на Android и других платформах!</div>
</div>
</div>
</a>
</div>
</div>
</div>
<div id="hp-b-1">
<div class="hp-bloks hoverblock" id="hp-b-2">
<div class="hp-b-3">
<a data-wpel-link="internal" href="https://androidmir.org/alexis/76138/">
<div class="hp-b-4">
<span class="hp-date">12.11.2019</span>
<span class="hp-autor">Alexis</span>
</div>
<div class="hp-b-5-graphic" style="background:#78909b url(https://androidmir.org/wp-content/uploads/2019/11/Androidmir-03.jpg) 100% 0 no-repeat;background-size:cover"></div>
<div class="hp-b-6">
<div class="hp-b-6-txt">
<div class="hp-b-6-title">Сохранение паролей в браузере – безопасно?</div>
</div>
</div>
<div class="hp-b-7">
<div class="hp-b-7-1">
<div class="hp-b-7-1-text">Уже много лет популярные браузеры предлагают сохранить пароль от сайта в своей базе, но насколько такое сохранение паролей в браузере безопасно?</div>
</div>
</div>
</a>
</div>
</div>
</div>
<div id="hp-b-1">
<div class="hp-bloks hoverblock" id="hp-b-2">
<div class="hp-b-3">
<a data-wpel-link="internal" href="https://androidmir.org/alexis/76136/">
<div class="hp-b-4">
<span class="hp-date">12.11.2019</span>
<span class="hp-autor">Alexis</span>
</div>
<div class="hp-b-5-graphic" style="background:#78909b url(https://androidmir.org/wp-content/uploads/2019/11/Androidmir-02.jpg) 100% 0 no-repeat;background-size:cover"></div>
<div class="hp-b-6">
<div class="hp-b-6-txt">
<div class="hp-b-6-title">Как безопасно хранить пароли на вашем телефоне?</div>
</div>
</div>
<div class="hp-b-7">
<div class="hp-b-7-1">
<div class="hp-b-7-1-text">Узнайте, как безопасно хранить пароли! Лучше запоминать ии записывать пароли, доверится браузеру, или использовать менеджеры паролей?</div>
</div>
</div>
</a>
</div>
</div>
</div>
</div>
<div style="font-size: 0px; height: 0px; line-height: 0px; margin: 0; padding: 0; clear: both;"></div><div class="simpleblock hoverblock" style="background-color:#ffffba;margin-bottom: 27px;padding: 10px;text-align: center;">Cвежая прошивка по запросу в комментариях!</div></div></div></section>
<style>.l-section.related{background:#fff;border-radius:2px;box-shadow:0 2px 2px 0 rgba(0,0,0,.14) , 0 3px 1px -2px rgba(0,0,0,.2) , 0 1px 5px 0 rgba(0,0,0,.12);display:block;overflow:hidden;z-index:10;margin-top:20px;transition:all 500ms ease-out;position:relative}</style>
</div>
<aside class="l-sidebar at_right DefaultSidebar">
<div class="widget widget_recent_comments" id="recent-comments-2"><div class="widgettitle">Свежие комментарии</div><ul id="recentcomments"><li class="recentcomments"><span class="comment-author-link">Константин</span> к записи <a data-wpel-link="internal" href="https://androidmir.org/faq/update/obnovlenie-telefonov-explay/explay-surfer-8-31-3g-obnovlenie-i-proshivka/comment-page-1/#comment-189150">Explay Surfer 8.31 3G – обновление и прошивка</a></li><li class="recentcomments"><span class="comment-author-link">Alexis</span> к записи <a data-wpel-link="internal" href="https://androidmir.org/faq/update/obnovlenie-telefonov-explay/explay-surfer-8-31-3g-obnovlenie-i-proshivka/comment-page-1/#comment-189149">Explay Surfer 8.31 3G – обновление и прошивка</a></li><li class="recentcomments"><span class="comment-author-link">Alexis</span> к записи <a data-wpel-link="internal" href="https://androidmir.org/faq/update/obnovlenie-telefonov-lenovo/lenovo-z5-obnovlenie-i-proshivka/comment-page-2/#comment-189148">Lenovo Z5 – обновление и прошивка</a></li><li class="recentcomments"><span class="comment-author-link">Alexis</span> к записи <a data-wpel-link="internal" href="https://androidmir.org/faq/update/obnovlenie-telefonov-blackview/comment-page-13/#comment-189147">Обновление телефонов Blackview</a></li><li class="recentcomments"><span class="comment-author-link">Влад Гонтарь</span> к записи <a data-wpel-link="internal" href="https://androidmir.org/faq/update/obnovlenie-telefonov-lenovo/lenovo-z5-obnovlenie-i-proshivka/comment-page-2/#comment-189146">Lenovo Z5 – обновление и прошивка</a></li></ul></div> <div class="widget widget_recent_entries" id="recent-posts-2"> <div class="widgettitle">Свежие записи</div> <ul>
<li>
<a data-wpel-link="internal" href="https://androidmir.org/andrey/78553/">Обзор смартфона BQ Magic L 6630L [ВИДЕО]</a>
</li>
<li>
<a data-wpel-link="internal" href="https://androidmir.org/andrey/78525/">Сила в ваших руках с DOOGEE S59 PRO</a>
</li>
<li>
<a data-wpel-link="internal" href="https://androidmir.org/andrey/78499/">6 причин купить Oukitel WP10</a>
</li>
<li>
<a data-wpel-link="internal" href="https://androidmir.org/andrey/78474/">Обзор BQ 2824 Tank T с термометром [ВИДЕО]</a>
</li>
<li>
<a data-wpel-link="internal" href="https://androidmir.org/andrey/78442/">Обзор смартфона INOI 5 2021 за 4990 руб [ВИДЕО]</a>
</li>
</ul>
</div><div class="widget widget_youtube-channel" id="youtube-channel-5"><div class="widgettitle">Обновление на YouTube</div><div class="youtube_channel default responsive ytc_display_thumbnail"><div class="ytc_video_container ytc_video_1 ytc_video_first ar16_9" style="width:306px"><a class="ytc_thumb ytc-lightbox ar16_9" data-wpel-link="external" href="//www.youtube.com/watch?v=xIGZHfQdIPQ" rel="nofollow external noopener noreferrer" title="🔑 Как и где посмотреть пароли в Яндекс Браузере на Android"><span id="ytc_xIGZHfQdIPQ" style="background-image:url(//img.youtube.com/vi/xIGZHfQdIPQ/sddefault.jpg)" title="🔑 Как и где посмотреть пароли в Яндекс Браузере на Android"></span></a></div></div><div class="clearfix"></div></div><div class="widget widget_views" id="views-2"><div class="widgettitle">Популярные записи</div><ul>
<li><a data-wpel-link="internal" href="https://androidmir.org/" title="Android Mir – Ваш Гид в мире Android">Android Mir – Ваш Гид в мире Android</a><span class="most_viewed"> - 2 039 801</span></li><li><a data-wpel-link="internal" href="https://androidmir.org/alex/8554/" title="Как получить ROOT права на android – инструкция">Как получить ROOT права на android – инструкция</a><span class="most_viewed"> - 1 308 392</span></li><li><a data-wpel-link="internal" href="https://androidmir.org/android/1123/" title="Как обновить Android – пошаговая инструкция">Как обновить Android – пошаговая инструкция</a><span class="most_viewed"> - 947 280</span></li><li><a data-wpel-link="internal" href="https://androidmir.org/alexis/32192/" title="Обход Гугл аккаунта после сброса Андроид (Google FRP Lo...">Обход Гугл аккаунта после сброса Андроид (Google FRP Lo...</a><span class="most_viewed"> - 804 336</span></li><li><a data-wpel-link="internal" href="https://androidmir.org/android/1825/" title="Как использовать телефон как модем через USB">Как использовать телефон как модем через USB</a><span class="most_viewed"> - 518 687</span></li><li><a data-wpel-link="internal" href="https://androidmir.org/android/4901/" title="Режим разработчика Android: включение и использование">Режим разработчика Android: включение и использование</a><span class="most_viewed"> - 472 884</span></li><li><a data-wpel-link="internal" href="https://androidmir.org/alexsandr/12910/" title="ВК невидимка на Android – как активировать?">ВК невидимка на Android – как активировать?</a><span class="most_viewed"> - 402 798</span></li><li><a data-wpel-link="internal" href="https://androidmir.org/android/3523/" title="Как войти в аккаунт Google на телефоне с Android?">Как войти в аккаунт Google на телефоне с Android?</a><span class="most_viewed"> - 360 578</span></li><li><a data-wpel-link="internal" href="https://androidmir.org/alexsandr/12534/" title="Телефон не видит сим карту, что делать?">Телефон не видит сим карту, что делать?</a><span class="most_viewed"> - 349 225</span></li><li><a data-wpel-link="internal" href="https://androidmir.org/andrey/9321/" title="Как настроить громкость на Андроид">Как настроить громкость на Андроид</a><span class="most_viewed"> - 322 631</span></li><li><a data-wpel-link="internal" href="https://androidmir.org/faq/update/" title="Обновления и прошивки для Android устройств">Обновления и прошивки для Android устройств</a><span class="most_viewed"> - 314 833</span></li><li><a data-wpel-link="internal" href="https://androidmir.org/anna/31360/" title="Обзор и обновление Android 8.0 Oreo">Обзор и обновление Android 8.0 Oreo</a><span class="most_viewed"> - 283 015</span></li><li><a data-wpel-link="internal" href="https://androidmir.org/utor/5534/" title="Не заряжается телефон или планшет? Решаем проблему!">Не заряжается телефон или планшет? Решаем проблему!</a><span class="most_viewed"> - 266 832</span></li><li><a data-wpel-link="internal" href="https://androidmir.org/utor/5561/" title="Калибровка уровня заряда батареи на Android">Калибровка уровня заряда батареи на Android</a><span class="most_viewed"> - 266 024</span></li><li><a data-wpel-link="internal" href="https://androidmir.org/andrey/8683/" title="Как сделать бэкап Андроид (backup Android) – инструкция">Как сделать бэкап Андроид (backup Android) – инструкция</a><span class="most_viewed"> - 257 503</span></li><li><a data-wpel-link="internal" href="https://androidmir.org/andrey/10265/" title="Исправляем “com android systemui” и “com android phone”">Исправляем “com android systemui” и “com android phone”</a><span class="most_viewed"> - 237 599</span></li><li><a data-wpel-link="internal" href="https://androidmir.org/alexis/19432/" title="Как установить TWRP Recovery или CWM Recovery">Как установить TWRP Recovery или CWM Recovery</a><span class="most_viewed"> - 235 713</span></li><li><a data-wpel-link="internal" href="https://androidmir.org/anna/44924/" title="Как получить Root права на Андроид с помощью KingRoot?">Как получить Root права на Андроид с помощью KingRoot?</a><span class="most_viewed"> - 233 388</span></li></ul>
</div><div class="widget_text widget widget_custom_html" id="custom_html-41"><div class="textwidget custom-html-widget">
<div id="yandex_rtb_R-A-184158-5"></div>
<script>(function(w,d,n,s,t){w[n]=w[n]||[];w[n].push(function(){Ya.Context.AdvManager.render({blockId:"R-A-184158-5",renderTo:"yandex_rtb_R-A-184158-5",async:true});});t=d.getElementsByTagName("script")[0];s=d.createElement("script");s.type="text/javascript";s.src="//an.yandex.ru/system/context.js";s.async=true;t.parentNode.insertBefore(s,t);})(this,this.document,"yandexContextAsyncCallbacks");</script></div></div>
</aside>
</div>
</div>
</div>
<div class="l-footer">
<div class="l-subfooter at_top">
<div class="l-subfooter-h i-cf">
<div class="g-cols offset_medium">
<div class="full-width">
</div>
</div>
</div>
</div>
<div class="l-subfooter at_bottom">
<div class="l-subfooter-h i-cf">
<nav class="w-nav layout_hor">
<ul class="w-nav-list level_1">
<li class="menu-item menu-item-type-custom menu-item-object-custom w-nav-item level_1 menu-item-30114" id="menu-item-30114"><a class="w-nav-anchor level_1" data-wpel-link="external" href="https://www.youtube.com/channel/UCXm9BpdjOxqREC1KLwnyenA" rel="nofollow external noopener noreferrer" target="_blank"><span class="w-nav-title">YouTube</span><span class="w-nav-arrow"></span></a></li>
<li class="menu-item menu-item-type-custom menu-item-object-custom w-nav-item level_1 menu-item-20069" id="menu-item-20069"><a class="w-nav-anchor level_1" data-wpel-link="external" href="https://vk.com/andrmr" rel="nofollow external noopener noreferrer" target="_blank"><span class="w-nav-title">VK</span><span class="w-nav-arrow"></span></a></li>
<li class="menu-item menu-item-type-custom menu-item-object-custom w-nav-item level_1 menu-item-20074" id="menu-item-20074"><a class="w-nav-anchor level_1" data-wpel-link="external" href="https://www.facebook.com/groups/1530438567239250/" rel="nofollow external noopener noreferrer" target="_blank"><span class="w-nav-title">FB</span><span class="w-nav-arrow"></span></a></li>
<li class="menu-item menu-item-type-custom menu-item-object-custom w-nav-item level_1 menu-item-37581" id="menu-item-37581"><a class="w-nav-anchor level_1" data-wpel-link="external" href="https://www.instagram.com/androidmir/" rel="nofollow external noopener noreferrer" target="_blank"><span class="w-nav-title">instagram</span><span class="w-nav-arrow"></span></a></li>
<li class="menu-item menu-item-type-custom menu-item-object-custom w-nav-item level_1 menu-item-20649" id="menu-item-20649"><a class="w-nav-anchor level_1" data-wpel-link="exclude" href="https://wtffix.com/" rel="follow noopener noreferrer" target="_blank"><span class="w-nav-title">EN</span><span class="w-nav-arrow"></span></a></li>
<li class="menu-item menu-item-type-post_type menu-item-object-page w-nav-item level_1 menu-item-19534" id="menu-item-19534"><a class="w-nav-anchor level_1" data-wpel-link="internal" href="https://androidmir.org/contacts/" rel="nofollow"><span class="w-nav-title">Сontacts</span><span class="w-nav-arrow"></span></a></li>
<li class="menu-item menu-item-type-post_type menu-item-object-page w-nav-item level_1 menu-item-76125" id="menu-item-76125"><a class="w-nav-anchor level_1" data-wpel-link="internal" href="https://androidmir.org/politika-konfidentsialnosti/"><span class="w-nav-title">Сonfidential</span><span class="w-nav-arrow"></span></a></li>
</ul>
</nav>
<div class="w-copyright">При использовании материалов сайта, оставляйте активную ссылку на источник.</div>
<a class="dmca-badge" data-wpel-link="external" href="//www.dmca.com/Protection/Status.aspx?ID=0ece710a-d453-4c2a-a211-948c5785a03d" rel="nofollow external noopener noreferrer" target="_blank" title="DMCA.com Protection Status"> <img alt="DMCA.com Protection Status" src="//images.dmca.com/Badges/dmca-badge-w150-5x1-06.png?ID=0ece710a-d453-4c2a-a211-948c5785a03d"/></a> <script src="//images.dmca.com/Badges/DMCABadgeHelper.min.js"></script>
</div>
</div>
</div>
<script>if(window.$us===undefined)window.$us={};$us.canvasOptions=($us.canvasOptions||{});$us.canvasOptions.disableStickyHeaderWidth=1200;$us.canvasOptions.disableEffectsWidth=940;$us.canvasOptions.headerScrollBreakpoint=1;$us.canvasOptions.responsive=true;$us.langOptions=($us.langOptions||{});$us.langOptions.magnificPopup=($us.langOptions.magnificPopup||{});$us.langOptions.magnificPopup.tPrev='Предыдущее (клавиша влево)'
$us.langOptions.magnificPopup.tNext='Следующее (клавиша вправо)'
$us.langOptions.magnificPopup.tCounter='%curr% из %total%'
$us.navOptions=($us.navOptions||{});$us.navOptions.mobileWidth=1080;$us.navOptions.togglable=true;</script>
<script>(function(m,e,t,r,i,k,a){m[i]=m[i]||function(){(m[i].a=m[i].a||[]).push(arguments)};m[i].l=1*new Date();k=e.createElement(t),a=e.getElementsByTagName(t)[0],k.async=1,k.src=r,a.parentNode.insertBefore(k,a)})(window,document,"script","https://cdn.jsdelivr.net/npm/yandex-metrica-watch/tag.js","ym");ym(23696158,"init",{clickmap:true,trackLinks:true,accurateTrackBounce:true});</script> <noscript><div><img alt="" src="https://mc.yandex.ru/watch/23696158" style="position:absolute; left:-9999px;"/></div></noscript>
<script async="" src="https://www.googletagmanager.com/gtag/js?id=UA-122511821-1"></script>
<script>window.dataLayer=window.dataLayer||[];function gtag(){dataLayer.push(arguments);}gtag('js',new Date());gtag('config','UA-122511821-1');</script> <div id="sc-fs-faq-entry" style="display:none"></div>
<script>window.addEventListener('DOMContentLoaded',function(){function ytc_init_MPAU(){jQuery('.ytc-lightbox').magnificPopupAU({disableOn:320,type:'iframe',mainClass:'ytc-mfp-lightbox',removalDelay:160,preloader:false,fixedContentPos:false});}jQuery(window).on('load',function(){ytc_init_MPAU();});jQuery(document).ajaxComplete(function(){ytc_init_MPAU();});});</script><link href="https://androidmir.org/wp-content/plugins/shortcodes-ultimate/includes/css/shortcodes.css?ver=5.3.0" id="su-shortcodes-css" media="all" rel="stylesheet" type="text/css"/>
<script src="https://androidmir.org/wp-content/plugins/youtube-channel/assets/lib/magnific-popup/jquery.magnific-popup.min.js?ver=3.0.11.8"></script>
<script src="//androidmir.org/wp-content/themes/Zephyr/framework/js/jquery.easing.min.js?ver=5.1.8"></script>
<script src="//androidmir.org/wp-content/themes/Zephyr/framework/js/jquery.magnific-popup.js?ver=1.1.0"></script>
<script src="//androidmir.org/wp-content/themes/Zephyr/framework/js/jquery.simpleplaceholder.js?ver=5.1.8"></script>
<script src="//androidmir.org/wp-content/themes/Zephyr/framework/js/imagesloaded.js?ver=5.1.8"></script>
<script src="//androidmir.org/wp-content/themes/Zephyr/framework/js/us.core.js?ver=2.10"></script>
<script src="//androidmir.org/wp-content/themes/Zephyr/framework/js/us.widgets.js?ver=2.10"></script>
<script src="//androidmir.org/wp-content/themes/Zephyr/js/us.theme.js?ver=2.10"></script>
<script src="https://androidmir.org/wp-includes/js/comment-reply.min.js?ver=5.1.8"></script>
<script src="https://androidmir.org/wp-includes/js/wp-embed.min.js?ver=5.1.8"></script>
</body>
</html>
