<html><head>
<title>Access Denied</title>
</head><body>
<h1>Access Denied</h1>
 
You don't have permission to access "http://www.angloamerican.com/" on this server.<p>
Reference #18.377a19b8.1610590735.7678250
</p></body>
</html>
