<!DOCTYPE html>
<html lang="ja">
<head>
<meta charset="utf-8"/>
<meta content="width=device-width, initial-scale=1.0, maximum-scale=1.0" name="viewport"/>
<title>アニメンバー 無料エロアニメ動画</title>
<meta content="アニメンバーはみんなで作るエロアニメ動画のまとめサイトです。動画を保存したり、保存した動画でリストを作ることもできます。利用はすべて無料です。" name="description"/>
<meta content="エロ,アニメ,無料,動画,XVIDEOS" name="keywords"/>
<meta content="origin" name="referrer"/>
<link href="//animember.net/css/reset.css" rel="stylesheet"/>
<link href="//animember.net/css/styles.css" rel="stylesheet"/>
<link href="//fonts.googleapis.com/earlyaccess/nicomoji.css" rel="stylesheet"/>
<link href="//fonts.googleapis.com/css?family=Quicksand:400,700" rel="stylesheet"/>
<link href="//code.ionicframework.com/ionicons/2.0.1/css/ionicons.min.css" rel="stylesheet"/>
<script src="//ajax.googleapis.com/ajax/libs/jquery/2.0.2/jquery.min.js" type="text/javascript"></script>
<script src="//animember.net/js/jquery.pjax.js" type="text/javascript"></script>
<script src="//animember.net/js/headroom.min.js" type="text/javascript"></script>
<script src="//animember.net/js/jquery.headroom.min.js" type="text/javascript"></script>
<script src="//animember.net/js/common.js" type="text/javascript"></script>
<script src="//fam-ad.com/ad/js/fam-tagify.min.js" type="text/javascript"></script>
<script>
	(function(i,s,o,g,r,a,m){i['GoogleAnalyticsObject']=r;i[r]=i[r]||function(){
	(i[r].q=i[r].q||[]).push(arguments)},i[r].l=1*new Date();a=s.createElement(o),
	m=s.getElementsByTagName(o)[0];a.async=1;a.src=g;m.parentNode.insertBefore(a,m)
	})(window,document,'script','https://www.google-analytics.com/analytics.js','ga');

	ga('create', 'UA-58930446-1', 'auto');
	ga('send', 'pageview');

</script>
<script type="application/ld+json">
{
	"@context": "http://schema.org",
	"@type": "WebSite",
	"url": "https://animember.net/",
	"potentialAction": {
		"@type": "SearchAction",
		"target": "https://animember.net/search/{words}/",
		"query-input": "required name=words"
	}
}
</script>
</head>
<body>
<header>
<h1><a href="/">アニメンバー</a></h1>
<button id="btn_search"></button>
<div id="search">
<input placeholder="キーワードを入力" type="text"/>
<ul>
<li><a href="/search/%E5%B7%A8%E4%B9%B3/">巨乳</a></li>
<li><a href="/search/%E4%B8%AD%E5%87%BA%E3%81%97/">中出し</a></li>
<li><a href="/search/%E7%BE%8E%E5%B0%91%E5%A5%B3/">美少女</a></li>
<li><a href="/search/%E7%97%B4%E5%A5%B3/">痴女</a></li>
<li><a href="/search/%E3%81%B6%E3%81%A3%E3%81%8B%E3%81%91/">ぶっかけ</a></li>
<li><a href="/search/%E3%83%AC%E3%82%A4%E3%83%97%E3%83%BB%E5%BC%B7%E5%A7%A6/">レイプ・強姦</a></li>
<li><a href="/search/%E3%83%AD%E3%83%AA/">ロリ</a></li>
<li><a href="/search/3P%E3%83%BB4P/">3P・4P</a></li>
<li><a href="/search/3DCG/">3DCG</a></li>
<li><a href="/search/%E5%A5%B3%E5%AD%90%E6%A0%A1%E7%94%9F/">女子校生</a></li>
<li><a href="/search/%E5%87%A6%E5%A5%B3/">処女</a></li>
<li><a href="/search/%E5%AD%A6%E5%9C%92%E3%82%82%E3%81%AE/">学園もの</a></li>
</ul>
</div>
<button id="btn_menu" type="button"></button>
<div id="guest">
<a href="/login/" id="btn_login">ログイン</a>
<a href="/signup/" id="btn_signup">アカウント作成</a>
</div>
</header>
<div id="wrap">
<section id="cnt">
<aside class="mb150p" id="div_fam_async_191273_100">
<script language="javascript"><!--
fam_js_async('https://fam-ad.com/ad', '_site=58077&_loc=191273&_mstype=100&_width=&_height=');
//--></script>
</aside>
<div class="atop">
<a href="https://click.dtiserv2.com/Click/1122001-122-7548" rel="noopener" target="_blank"><img border="0" src="https://affiliate.dtiserv.com/image/netcomic/122-725-01.jpg"/></a>
</div>
<div class="idx">
<h1><a href="/all/">すべて</a></h1>
<a href="/all/">もっとみる</a>
<div>
<div class="article_list">
<div class="fam_article" id="div_fam_async_191345_91">
<script language="javascript"><!--
fam_js_async('https://fam-ad.com/ad', '_site=58077&_loc=191345&_mstype=91&_width=120&_height=90');
//--></script>
</div>
<article>
<figure>
<a href="/video/91411/">
<img src="//animember.net/files/thumbs/91411.jpg"/>
</a>
<span class="label SpankBang">SpankBang</span>
<span class="duration">16:24</span>
</figure>
<div class="details">
<h2><a href="/video/91411/">【NTR】嫌いな男のチンポで狂ったほど感じる雌♡完堕ちした女子校...</a></h2>
</div>
</article>
<article>
<figure>
<a href="/video/91410/">
<img src="//animember.net/files/thumbs/91410.jpg"/>
</a>
<span class="label XVIDEOS"><strong>X</strong>VIDEOS</span>
<span class="duration">24:00</span>
</figure>
<div class="details">
<h2><a href="/video/91410/">【新作】まだ汚れを知らない無垢な女教師が絶倫チンコに調教されて連...</a></h2>
</div>
</article>
<article>
<figure>
<a href="/video/91409/">
<img src="//animember.net/files/thumbs/91409.jpg"/>
</a>
<span class="label SpankBang">SpankBang</span>
<span class="duration">18:42</span>
</figure>
<div class="details">
<h2><a href="/video/91409/">これは鬼畜！処女だろうが一切の手抜きナシ！姉妹揃って処女膜をぶち...</a></h2>
</div>
</article>
<article>
<figure>
<a href="/video/91408/">
<img src="//animember.net/files/thumbs/91408.jpg"/>
</a>
<span class="label SpankBang">SpankBang</span>
<span class="duration">28:09</span>
</figure>
<div class="details">
<h2><a href="/video/91408/">「これ気持ちぃんでしょ？♡」男を確実に逝かせる凄テク美女によって...</a></h2>
</div>
</article>
<article>
<figure>
<a href="/video/91407/">
<img src="//animember.net/files/thumbs/91407.jpg"/>
</a>
<span class="label SpankBang">SpankBang</span>
<span class="duration">15:30</span>
</figure>
<div class="details">
<h2><a href="/video/91407/">荒れ狂うピストンで汗だくファック！レズふたなりチンポで責め続けら...</a></h2>
</div>
</article>
<article>
<figure>
<a href="/video/91406/">
<img src="//animember.net/files/thumbs/91406.jpg"/>
</a>
<span class="label SpankBang">SpankBang</span>
<span class="duration">49:18</span>
</figure>
<div class="details">
<h2><a href="/video/91406/">そ、そんなに膣をキューーっと締め付けられたら中で出ちゃうって！！</a></h2>
</div>
</article>
<article>
<figure>
<a href="/video/91405/">
<img src="//animember.net/files/thumbs/91405.jpg"/>
</a>
<span class="label ShareVideos">ShareVideos</span>
<span class="duration">17:15</span>
</figure>
<div class="details">
<h2><a href="/video/91405/">まだ体は育ちきっていないけど…美少女な優等生JKのキツマンから溢...</a></h2>
</div>
</article>
<article>
<figure>
<a href="/video/91404/">
<img src="//animember.net/files/thumbs/91404.jpg"/>
</a>
<span class="label ShareVideos">ShareVideos</span>
<span class="duration">15:38</span>
</figure>
<div class="details">
<h2><a href="/video/91404/">「どろどろなのこんなに出てる…♡」口からお触れ出したザーメンに厭...</a></h2>
</div>
</article>
<article>
<figure>
<a href="/video/91403/">
<img src="//animember.net/files/thumbs/91403.jpg"/>
</a>
<span class="label SpankBang">SpankBang</span>
<span class="duration">16:24</span>
</figure>
<div class="details">
<h2><a href="/video/91403/">【新作】「外に…外に出すなら///」ゴム使い尽くして生ハメ中出し...</a></h2>
</div>
</article>
<article>
<figure>
<a href="/video/91402/">
<img src="//animember.net/files/thumbs/91402.jpg"/>
</a>
<span class="label SpankBang">SpankBang</span>
<span class="duration">16:19</span>
</figure>
<div class="details">
<h2><a href="/video/91402/">【向日葵ハ夜ニ咲ク】止まらない寝取り調教！夫上司の絶倫チンポでバ...</a></h2>
</div>
</article>
<div class="fam_article" id="div_fam_async_191345_91">
<script language="javascript"><!--
fam_js_async('https://fam-ad.com/ad', '_site=58077&_loc=191345&_mstype=91&_width=120&_height=90');
//--></script>
</div>
<a class="btn_more" href="/all/"></a>
</div>
</div>
</div>
<div class="idx">
<h1><a href="/rank/">人気ランキング</a></h1>
<a href="/rank/">もっとみる</a>
<div>
<div class="article_list">
<div class="fam_article" id="div_fam_async_191345_91">
<script language="javascript"><!--
fam_js_async('https://fam-ad.com/ad', '_site=58077&_loc=191345&_mstype=91&_width=120&_height=90');
//--></script>
</div>
<article>
<figure>
<a href="/video/91403/">
<img src="//animember.net/files/thumbs/91403.jpg"/>
</a>
<span class="label SpankBang">SpankBang</span>
<span class="duration">16:24</span>
</figure>
<div class="details">
<h2><a href="/video/91403/">【新作】「外に…外に出すなら///」ゴム使い尽くして生ハメ中出し...</a></h2>
</div>
</article>
<article>
<figure>
<a href="/video/91402/">
<img src="//animember.net/files/thumbs/91402.jpg"/>
</a>
<span class="label SpankBang">SpankBang</span>
<span class="duration">16:19</span>
</figure>
<div class="details">
<h2><a href="/video/91402/">【向日葵ハ夜ニ咲ク】止まらない寝取り調教！夫上司の絶倫チンポでバ...</a></h2>
</div>
</article>
<article>
<figure>
<a href="/video/91400/">
<img src="//animember.net/files/thumbs/91400.jpg"/>
</a>
<span class="label ShareVideos">ShareVideos</span>
<span class="duration">23:39</span>
</figure>
<div class="details">
<h2><a href="/video/91400/">嫌がりながらもおじさんチンポで調教されるJK！ギンギンに勃起した...</a></h2>
</div>
</article>
<article>
<figure>
<a href="/video/91394/">
<img src="//animember.net/files/thumbs/91394.jpg"/>
</a>
<span class="label SpankBang">SpankBang</span>
<span class="duration">16:27</span>
</figure>
<div class="details">
<h2><a href="/video/91394/">【最新作】向日葵ハ夜ニ咲ク　夫の失敗のせいで絶倫上にネトラレた巨...</a></h2>
</div>
</article>
<article>
<figure>
<a href="/video/91409/">
<img src="//animember.net/files/thumbs/91409.jpg"/>
</a>
<span class="label SpankBang">SpankBang</span>
<span class="duration">18:42</span>
</figure>
<div class="details">
<h2><a href="/video/91409/">これは鬼畜！処女だろうが一切の手抜きナシ！姉妹揃って処女膜をぶち...</a></h2>
</div>
</article>
<article>
<figure>
<a href="/video/91406/">
<img src="//animember.net/files/thumbs/91406.jpg"/>
</a>
<span class="label SpankBang">SpankBang</span>
<span class="duration">49:18</span>
</figure>
<div class="details">
<h2><a href="/video/91406/">そ、そんなに膣をキューーっと締め付けられたら中で出ちゃうって！！</a></h2>
</div>
</article>
<article>
<figure>
<a href="/video/91392/">
<img src="//animember.net/files/thumbs/91392.jpg"/>
</a>
<span class="label SpankBang">SpankBang</span>
<span class="duration">29:57</span>
</figure>
<div class="details">
<h2><a href="/video/91392/">「私も…先輩のこと好き♡」相思相愛な美少女JKマンコにドクドク大...</a></h2>
</div>
</article>
<article>
<figure>
<a href="/video/91399/">
<img src="//animember.net/files/thumbs/91399.jpg"/>
</a>
<span class="label ShareVideos">ShareVideos</span>
<span class="duration">18:53</span>
</figure>
<div class="details">
<h2><a href="/video/91399/">顔は童顔・体はドスケベ♡アンバランスJKの尻を鷲掴みにしながらガ...</a></h2>
</div>
</article>
<article>
<figure>
<a href="/video/91410/">
<img src="//animember.net/files/thumbs/91410.jpg"/>
</a>
<span class="label XVIDEOS"><strong>X</strong>VIDEOS</span>
<span class="duration">24:00</span>
</figure>
<div class="details">
<h2><a href="/video/91410/">【新作】まだ汚れを知らない無垢な女教師が絶倫チンコに調教されて連...</a></h2>
</div>
</article>
<article>
<figure>
<a href="/video/91391/">
<img src="//animember.net/files/thumbs/91391.jpg"/>
</a>
<span class="label SpankBang">SpankBang</span>
<span class="duration">16:37</span>
</figure>
<div class="details">
<h2><a href="/video/91391/">【準新作】「私も逝きますぅーー♡」美人母子揃っての最高な親子丼！...</a></h2>
</div>
</article>
<div class="fam_article" id="div_fam_async_191345_91">
<script language="javascript"><!--
fam_js_async('https://fam-ad.com/ad', '_site=58077&_loc=191345&_mstype=91&_width=120&_height=90');
//--></script>
</div>
<a class="btn_more" href="/rank/"></a>
</div>
</div>
</div>
<div class="mb150p" id="div_fam_async_237061_100">
<script language="javascript">fam_js_async('https://fam-ad.com/ad', '_site=58077&_loc=237061&_mstype=100&_width=&_height=');</script>
</div>
<div class="idx">
<h1><a href="/list/">公開リスト</a></h1>
<a href="/list/">もっとみる</a>
<div>
<div class="article_list list">
<article>
<figure>
<a href="/list/1590/">
<img src="//img.share-videos.se/imgs/41/51814541/3_.jpg"/>
</a>
<span class="duration"><strong>32</strong>本</span>
</figure>
<div class="details">
<h2><a href="/list/1590/">淫乱・痴女</a></h2>
<ul class="thumb_list">
<li><a href="/list/1590/"><img src="//animember.net/files/thumbs/86654.jpg"/></a></li>
<li><a href="/list/1590/"><img src="//img.share-videos.se/imgs/49/131004849/7_.jpg"/></a></li>
<li><a href="/list/1590/"><img src="//animember.net/files/thumbs/86237.jpg"/></a></li>
</ul>
</div>
</article>
<article>
<figure>
<a href="/list/1589/">
<img src="//img.share-videos.se/imgs/77/107787477/8_.jpg"/>
</a>
<span class="duration"><strong>23</strong>本</span>
</figure>
<div class="details">
<h2><a href="/list/1589/">乱交・3P</a></h2>
<ul class="thumb_list">
<li><a href="/list/1589/"><img src="//animember.net/files/thumbs/85447.jpg"/></a></li>
<li><a href="/list/1589/"><img src="//animember.net/files/thumbs/85128.jpg"/></a></li>
<li><a href="/list/1589/"><img src="//animember.net/files/thumbs/84420.jpg"/></a></li>
</ul>
</div>
</article>
<article>
<figure>
<a href="/list/1588/">
<img src="//img.share-videos.se/imgs/62/142864362/7_.jpg"/>
</a>
<span class="duration"><strong>24</strong>本</span>
</figure>
<div class="details">
<h2><a href="/list/1588/">熟女・人妻・NTR</a></h2>
<ul class="thumb_list">
<li><a href="/list/1588/"><img src="//img.share-videos.se/imgs/87/148079287/7_.jpg"/></a></li>
<li><a href="/list/1588/"><img src="//animember.net/files/thumbs/88326.jpg"/></a></li>
<li><a href="/list/1588/"><img src="//img.share-videos.se/imgs/65/125250365/7_.jpg"/></a></li>
</ul>
</div>
</article>
<article>
<figure>
<a href="/list/1566/">
<img src="//img.share-videos.se/imgs/55/133374555/7_.jpg"/>
</a>
<span class="duration"><strong>18</strong>本</span>
</figure>
<div class="details">
<h2><a href="/list/1566/">時間・催眠・媚薬</a></h2>
<ul class="thumb_list">
<li><a href="/list/1566/"><img src="//animember.net/files/thumbs/88094.jpg"/></a></li>
<li><a href="/list/1566/"><img src="//img.share-videos.se/imgs/55/65558055/7_.jpg"/></a></li>
<li><a href="/list/1566/"><img src="//animember.net/files/thumbs/86468.jpg"/></a></li>
</ul>
</div>
</article>
<article>
<figure>
<a href="/list/1565/">
<img src="//img.share-videos.se/imgs/84/131333284/7_.jpg"/>
</a>
<span class="duration"><strong>14</strong>本</span>
</figure>
<div class="details">
<h2><a href="/list/1565/">詰め合わせ</a></h2>
<ul class="thumb_list">
<li><a href="/list/1565/"><img src="//animember.net/files/thumbs/82224.jpg"/></a></li>
<li><a href="/list/1565/"><img src="//img.share-videos.se/imgs/85/80902685/3_.jpg"/></a></li>
<li><a href="/list/1565/"><img src="//animember.net/files/thumbs/81651.jpg"/></a></li>
</ul>
</div>
</article>
<article>
<figure>
<a href="/list/1530/">
<img src="//animember.net/files/thumbs/82203.jpg"/>
</a>
<span class="duration"><strong>32</strong>本</span>
</figure>
<div class="details">
<h2><a href="/list/1530/">近親相姦</a></h2>
<ul class="thumb_list">
<li><a href="/list/1530/"><img src="//animember.net/files/thumbs/86385.jpg"/></a></li>
<li><a href="/list/1530/"><img src="//animember.net/files/thumbs/86331.jpg"/></a></li>
<li><a href="/list/1530/"><img src="//img.share-videos.se/imgs/88/144211688/4_.jpg"/></a></li>
</ul>
</div>
</article>
<article>
<figure>
<a href="/list/1508/">
<img src="//img.share-videos.se/imgs/31/108721431/3_.jpg"/>
</a>
<span class="duration"><strong>31</strong>本</span>
</figure>
<div class="details">
<h2><a href="/list/1508/">レイプ・無理やり</a></h2>
<ul class="thumb_list">
<li><a href="/list/1508/"><img src="//img.share-videos.se/imgs/98/106205398/3_.jpg"/></a></li>
<li><a href="/list/1508/"><img src="//img.share-videos.se/imgs/51/105495351/7_.jpg"/></a></li>
<li><a href="/list/1508/"><img src="//img.share-videos.se/imgs/18/140333818/7_.jpg"/></a></li>
</ul>
</div>
</article>
<article>
<figure>
<a href="/list/1539/">
<img src="//animember.net/files/thumbs/88980.jpg"/>
</a>
<span class="duration"><strong>17</strong>本</span>
</figure>
<div class="details">
<h2><a href="/list/1539/">近親相姦</a></h2>
<ul class="thumb_list">
<li><a href="/list/1539/"><img src="//animember.net/files/thumbs/58669.jpg"/></a></li>
<li><a href="/list/1539/"><img src="//animember.net/files/thumbs/62860.jpg"/></a></li>
<li><a href="/list/1539/"><img src="//animember.net/files/thumbs/62267.jpg"/></a></li>
</ul>
</div>
</article>
<article>
<figure>
<a href="/list/1570/">
<img src="//animember.net/files/thumbs/89918.jpg"/>
</a>
<span class="duration"><strong>90</strong>本</span>
</figure>
<div class="details">
<h2><a href="/list/1570/">JK</a></h2>
<ul class="thumb_list">
<li><a href="/list/1570/"><img src="//animember.net/files/thumbs/89743.jpg"/></a></li>
<li><a href="/list/1570/"><img src="//img.share-videos.se/imgs/35/141706235/7_.jpg"/></a></li>
<li><a href="/list/1570/"><img src="//animember.net/files/thumbs/88976.jpg"/></a></li>
</ul>
</div>
</article>
<article>
<figure>
<a href="/list/1569/">
<img src="//ci.phncdn.com/videos/202005/26/317798871/original/(m=e0YHGgaaaa)(mh=GbIw2yOOlmQyzG-1)8.jpg"/>
</a>
<span class="duration"><strong>23</strong>本</span>
</figure>
<div class="details">
<h2><a href="/list/1569/">人妻</a></h2>
<ul class="thumb_list">
<li><a href="/list/1569/"><img src="//animember.net/files/thumbs/88012.jpg"/></a></li>
<li><a href="/list/1569/"><img src="//img.share-videos.se/imgs/69/113508369/4_.jpg"/></a></li>
<li><a href="/list/1569/"><img src="//img.share-videos.se/imgs/17/67157517/7_.jpg"/></a></li>
</ul>
</div>
</article>
<a class="btn_more" href="/list/"></a>
</div>
</div>
</div>
<div class="idx">
<h1>急上昇</h1>
<div>
<div class="article_list">
<div class="fam_article" id="div_fam_async_191345_91">
<script language="javascript"><!--
fam_js_async('https://fam-ad.com/ad', '_site=58077&_loc=191345&_mstype=91&_width=120&_height=90');
//--></script>
</div>
<article>
<figure>
<a href="/video/91396/">
<img src="//animember.net/files/thumbs/91396.jpg"/>
</a>
<span class="label SpankBang">SpankBang</span>
<span class="duration">14:09</span>
</figure>
<div class="details">
<h2><a href="/video/91396/">ロリ王女様が放尿をのぞき見！まだ汚れを知らない体を弄ぶ快感♡</a></h2>
</div>
</article>
<article>
<figure>
<a href="/video/91407/">
<img src="//animember.net/files/thumbs/91407.jpg"/>
</a>
<span class="label SpankBang">SpankBang</span>
<span class="duration">15:30</span>
</figure>
<div class="details">
<h2><a href="/video/91407/">荒れ狂うピストンで汗だくファック！レズふたなりチンポで責め続けら...</a></h2>
</div>
</article>
<article>
<figure>
<a href="/video/91405/">
<img src="//animember.net/files/thumbs/91405.jpg"/>
</a>
<span class="label ShareVideos">ShareVideos</span>
<span class="duration">17:15</span>
</figure>
<div class="details">
<h2><a href="/video/91405/">まだ体は育ちきっていないけど…美少女な優等生JKのキツマンから溢...</a></h2>
</div>
</article>
<article>
<figure>
<a href="/video/91408/">
<img src="//animember.net/files/thumbs/91408.jpg"/>
</a>
<span class="label SpankBang">SpankBang</span>
<span class="duration">28:09</span>
</figure>
<div class="details">
<h2><a href="/video/91408/">「これ気持ちぃんでしょ？♡」男を確実に逝かせる凄テク美女によって...</a></h2>
</div>
</article>
<article>
<figure>
<a href="/video/91400/">
<img src="//animember.net/files/thumbs/91400.jpg"/>
</a>
<span class="label ShareVideos">ShareVideos</span>
<span class="duration">23:39</span>
</figure>
<div class="details">
<h2><a href="/video/91400/">嫌がりながらもおじさんチンポで調教されるJK！ギンギンに勃起した...</a></h2>
</div>
</article>
<article>
<figure>
<a href="/video/88970/">
<img src="//img.share-videos.se/imgs/62/149198762/7_.jpg"/>
</a>
<span class="label ShareVideos">ShareVideos</span>
<span class="duration">13:43</span>
</figure>
<div class="details">
<h2><a href="/video/88970/">妹の性欲処理してあげよう</a></h2>
</div>
</article>
<article>
<figure>
<a href="/video/91361/">
<img src="//animember.net/files/thumbs/91361.jpg"/>
</a>
<span class="label ShareVideos">ShareVideos</span>
<span class="duration">27:00</span>
</figure>
<div class="details">
<h2><a href="/video/91361/">キモチンポ相手でも発情しちゃったドスケベボディの肉食女子が大しゅ...</a></h2>
</div>
</article>
<article>
<figure>
<a href="/video/91404/">
<img src="//animember.net/files/thumbs/91404.jpg"/>
</a>
<span class="label ShareVideos">ShareVideos</span>
<span class="duration">15:38</span>
</figure>
<div class="details">
<h2><a href="/video/91404/">「どろどろなのこんなに出てる…♡」口からお触れ出したザーメンに厭...</a></h2>
</div>
</article>
<article>
<figure>
<a href="/video/91406/">
<img src="//animember.net/files/thumbs/91406.jpg"/>
</a>
<span class="label SpankBang">SpankBang</span>
<span class="duration">49:18</span>
</figure>
<div class="details">
<h2><a href="/video/91406/">そ、そんなに膣をキューーっと締め付けられたら中で出ちゃうって！！</a></h2>
</div>
</article>
<article>
<figure>
<a href="/video/91397/">
<img src="//animember.net/files/thumbs/91397.jpg"/>
</a>
<span class="label SpankBang">SpankBang</span>
<span class="duration">18:28</span>
</figure>
<div class="details">
<h2><a href="/video/91397/">ムチムチ女教師のパンストを破って力の限り犯す！まだ成長途中な思春...</a></h2>
</div>
</article>
<div class="fam_article" id="div_fam_async_191345_91">
<script language="javascript"><!--
fam_js_async('https://fam-ad.com/ad', '_site=58077&_loc=191345&_mstype=91&_width=120&_height=90');
//--></script>
</div>
</div>
</div>
</div>
<div class="idx">
<h1><a href="/users/">ユーザーランキング</a></h1>
<a href="/users/">もっとみる</a>
<div>
<div class="user_list">
<article>
<figure>
<a href="/user/4806/">
<img class="icon" src="//animember.net/files/users/4806.jpg"/>
<span class="label">1</span>
</a>
</figure>
<div class="details">
<h2><a href="/user/4806/">ケイブリス</a></h2>
</div>
</article>
<article>
<figure>
<a href="/user/4802/">
<img class="icon" src="//animember.net/files/users/4802.jpg"/>
<span class="label">1</span>
</a>
</figure>
<div class="details">
<h2><a href="/user/4802/">2chのキング</a></h2>
</div>
</article>
<article>
<figure>
<a href="/user/4/">
<img class="icon" src="//animember.net/files/users/4.jpg"/>
<span class="label">3</span>
</a>
</figure>
<div class="details">
<h2><a href="/user/4/">レムりんりん</a></h2>
</div>
</article>
<article>
<figure>
<a href="/user/10/">
<img class="icon" src="//animember.net/files/users/10.jpg"/>
<span class="label">3</span>
</a>
</figure>
<div class="details">
<h2><a href="/user/10/">たまき</a></h2>
</div>
</article>
<article>
<figure>
<a href="/user/11/">
<img class="icon" src="//animember.net/files/users/11.jpg"/>
<span class="label">5</span>
</a>
</figure>
<div class="details">
<h2><a href="/user/11/">大日本帝国海軍</a></h2>
</div>
</article>
<a class="btn_more" href="/users/"></a>
</div>
</div>
</div>
<div class="abottom">
<a href="https://click.dtiserv2.com/Click903/1021018-21-7548" rel="noopener" target="_blank"><img border="0" src="https://affiliate.dtiserv.com/image/xgallery/1021018_b.jpg"/></a>
</div>
</section>
<nav>
<ul>
<li><a href="/search/%E5%B7%A8%E4%B9%B3/">巨乳</a></li>
<li><a href="/search/%E4%B8%AD%E5%87%BA%E3%81%97/">中出し</a></li>
<li><a href="/search/%E7%BE%8E%E5%B0%91%E5%A5%B3/">美少女</a></li>
<li><a href="/search/%E7%97%B4%E5%A5%B3/">痴女</a></li>
<li><a href="/search/%E3%81%B6%E3%81%A3%E3%81%8B%E3%81%91/">ぶっかけ</a></li>
<li><a href="/search/%E3%83%AC%E3%82%A4%E3%83%97%E3%83%BB%E5%BC%B7%E5%A7%A6/">レイプ・強姦</a></li>
<li><a href="/search/%E3%83%AD%E3%83%AA/">ロリ</a></li>
<li><a href="/search/3P%E3%83%BB4P/">3P・4P</a></li>
<li><a href="/search/3DCG/">3DCG</a></li>
<li><a href="/search/%E5%A5%B3%E5%AD%90%E6%A0%A1%E7%94%9F/">女子校生</a></li>
<li><a href="/search/%E5%87%A6%E5%A5%B3/">処女</a></li>
<li><a href="/search/%E5%AD%A6%E5%9C%92%E3%82%82%E3%81%AE/">学園もの</a></li>
<li><a href="/search/%E3%83%A1%E3%82%A4%E3%83%89/">メイド</a></li>
<li><a href="/search/%E4%BA%BA%E5%A6%BB/">人妻</a></li>
<li><a href="/search/%E3%81%8A%E5%AC%A2%E6%A7%98%E3%83%BB%E4%BB%A4%E5%AC%A2/">お嬢様・令嬢</a></li>
<li><a href="/search/%E8%AA%BF%E6%95%99%E3%83%BB%E5%A5%B4%E9%9A%B7/">調教・奴隷</a></li>
<li><a href="/search/%E5%A7%89%E3%83%BB%E5%A6%B9/">姉・妹</a></li>
<li><a href="/search/%E8%BF%91%E8%A6%AA%E7%9B%B8%E5%A7%A6/">近親相姦</a></li>
<li><a href="/search/%E6%B0%B4%E7%9D%80/">水着</a></li>
<li><a href="/search/%E3%81%B5%E3%81%9F%E3%81%AA%E3%82%8A/">ふたなり</a></li>
<li><a href="/search/%E3%83%AC%E3%82%BA/">レズ</a></li>
<li><a href="/search/%E4%B9%B1%E4%BA%A4/">乱交</a></li>
<li><a href="/search/%E9%AC%BC%E7%95%9C/">鬼畜</a></li>
<li><a href="/search/%E8%A7%A6%E6%89%8B/">触手</a></li>
<li><a href="/search/%E3%82%AF%E3%83%AA%E3%83%A0%E3%82%BE%E3%83%B3%E3%82%AC%E3%83%BC%E3%83%AB%E3%82%BA/">クリムゾンガールズ</a></li>
<li><a href="/search/%E5%AF%BE%E9%AD%94%E5%BF%8D%E3%82%A2%E3%82%B5%E3%82%AE/">対魔忍アサギ</a></li>
<li><a href="/search/%E5%AF%BE%E9%AD%94%E5%BF%8D%E3%83%A6%E3%82%AD%E3%82%AB%E3%82%BC/">対魔忍ユキカゼ</a></li>
<li><a href="/search/%E8%81%96%E3%83%A4%E3%83%AA%E3%83%9E%E3%83%B3%E5%AD%A6%E5%9C%92%E3%82%B7%E3%83%AA%E3%83%BC%E3%82%BA/">聖ヤリマン学園シリーズ</a></li>
<li><a href="/search/%E5%BD%BC%E5%A5%B3%C3%97%E5%BD%BC%E5%A5%B3%C3%97%E5%BD%BC%E5%A5%B3/">彼女×彼女×彼女</a></li>
<li><a href="/search/%E7%82%8E%E3%81%AE%E5%AD%95%E3%81%BE%E3%81%9B%E3%82%B7%E3%83%AA%E3%83%BC%E3%82%BA/">炎の孕ませシリーズ</a></li>
<li><a href="/search/%E6%9C%80%E7%B5%82%E7%97%B4%E6%BC%A2%E9%9B%BB%E8%BB%8A/">最終痴漢電車</a></li>
<li><a href="/search/%E3%83%95%E3%82%A9%E3%83%AB%E3%83%88%21%21/">フォルト!!</a></li>
<li><a href="/search/%E3%83%A4%E3%82%8C%E3%82%8B%E5%AD%90%EF%BC%81%E9%9B%BB%E8%BB%8A%E3%82%A8%E3%83%83%E3%83%81/">ヤれる子！電車エッチ</a></li>
<li><a href="/search/SISTERS/">SISTERS</a></li>
<li><a href="/search/%E3%83%A9%E3%83%B3%E3%82%B9%E3%82%B7%E3%83%AA%E3%83%BC%E3%82%BA/">ランスシリーズ</a></li>
<li><a href="/search/%E3%82%82%E3%82%93%E3%82%80%E3%81%99%E3%81%8F%E3%81%88%E3%81%99%E3%81%A8%EF%BC%81/">もんむすくえすと！</a></li>
<li><a href="/search/%E9%83%BD%E5%90%88%E3%81%AE%E3%82%88%E3%81%84%E3%82%BB%E3%83%83%E3%82%AF%E3%82%B9%E3%83%95%E3%83%AC%E3%83%B3%E3%83%89%EF%BC%9F/">都合のよいセックスフレンド？</a></li>
<li><a href="/search/%E3%81%84%E3%81%A1%E3%81%94%E3%82%B7%E3%83%A7%E3%82%B3%E3%83%A9%E3%81%B5%E3%82%8C%E3%83%BC%E3%81%B0%E3%83%BC/">いちごショコラふれーばー</a></li>
<li><a href="/search/%E8%87%AA%E5%AE%85%E8%AD%A6%E5%82%99%E5%93%A1/">自宅警備員</a></li>
<li><a href="/search/%E6%81%8B%E9%A8%8E%E5%A3%AB+Purely%E2%98%86Kiss/">恋騎士 Purely☆Kiss</a></li>
<li><a href="/search/%E3%83%9E%E3%83%A8%E3%83%92%E3%82%AC%E3%81%AE%E3%81%8A%E5%A7%89%E3%81%95%E3%82%93/">マヨヒガのお姉さん</a></li>
<li><a href="/search/%E9%AC%BC%E7%88%B6/">鬼父</a></li>
<li><a href="/search/%E9%83%BD%E5%B8%82%E4%BC%9D%E8%AA%AC%E3%82%B7%E3%83%AA%E3%83%BC%E3%82%BA/">都市伝説シリーズ</a></li>
<li><a href="/search/PRETTY%C3%97CATION/">PRETTY×CATION</a></li>
</ul>
</nav>
</div>
<div id="alert">
<div>
<button class="btn_close"></button>
<p>動画を保存するにはログインが必要です</p>
<a class="btn_login" href="/login/">ログイン</a>
<h2>まだ会員でない方は</h2>
<a class="btn_signup" href="/signup/">新規会員登録（無料）</a>
</div>
</div>
<div id="div_fam_async_237062_100">
<script language="javascript">fam_js_async('https://fam-ad.com/ad', '_site=58077&_loc=237062&_mstype=100&_width=&_height=');</script>
</div>
<footer>
<p>© 2020 アニメンバー.</p>
<a href="//www.123formbuilder.com/form-5594861/form" target="_blank">お問い合わせ</a>
</footer>
<script language="javascript"><!--
fam_js_sync('https://fam-ad.com/ad', '_site=58077&_loc=191271&_mstype=111&_width=&_height=');
//--></script>
</body>
</html>
