<!DOCTYPE html>
<html itemscope="" itemtype="http://schema.org/WebPage" lang="en"><head><meta content="Search the world's information, including webpages, images, videos and more. Google has many special features to help you find exactly what you're looking for." name="description"/><meta content="noodp" name="robots"/><meta content="text/html; charset=utf-8" http-equiv="Content-Type"/><meta content="/images/branding/googleg/1x/googleg_standard_color_128dp.png" itemprop="image"/><title>Google</title><script nonce="JqupBJIo9jZfCEW6yh0D0Q==">(function(){window.google={kEI:'TLH-X7K-GpLV9AP4hJ3oCQ',kEXPI:'0,18167,1341242,731,223,5105,206,3204,10,1145,81,364,925,574,817,383,246,5,1354,4414,3,65,454,314,217,1261,864,2998,7,2125,418,1630,1112996,1232,1196474,577,6,302673,26305,51224,16114,17444,11240,9188,8384,4858,1362,283,9007,3030,4738,2646,10195,4020,978,7931,5297,2054,920,873,4192,6430,1142,13385,4517,2778,919,2277,8,570,2226,1593,1279,2212,530,149,1103,842,516,1465,56,4258,312,1135,1,3,2669,2023,1777,143,378,1946,2209,113,328,1284,2943,2246,3600,3227,2845,7,12353,5097,7877,4928,108,1456,27,1924,908,2,941,2614,2397,1386,6082,1,2844,432,3,346,1200,44,1,820,1,4623,149,5990,7985,4,1528,2304,1236,1145,4658,74,462,40,1215,266,2163,17,447,459,1555,4,1297,3801,6025,374,2110,557,1157,603,1,408,287,1751,2658,239,974,3029,519,912,564,1120,30,1303,1408,1143,139,1670,1424,990,52,3286,2213,2305,640,37,1455,130,466,2,1492,92,2053,1032,319,992,1369,55,745,212,3625,2208,559,28,11,731,665,337,524,836,448,1768,2,772,667,470,2474,11,48,308,171,12,130,487,637,2,1206,545,233,88,256,19,18,18,354,1020,847,273,608,8,906,3,107,56,426,2,3,2,2,715,214,336,1678,1,806,116,2402,749,1217,59,577,91,60,430,90,2,400,614,90,149,772,27,643,384,197,414,4,2,7,143,409,251,348,718,2,5,2,8,603,1472,447,1,232,954,513,152,245,38,671,263,1761,70,1862,1127,495,617,734,526,505,700,32,19,307,149,1126,4,371,1195,756,3,705,22,407,57,5712087,3869,35,5996795,2801216,549,333,444,1,2,80,1,900,896,1,9,2,2551,1,748,141,59,736,563,1,4265,1,1,2,1017,9,305,3299,248,595,1,2406,7,136,48,2,1,5,5,1,10,1,23957639,2735260',kBL:'IboA'};google.sn='webhp';google.kHL='en';})();(function(){
google.lc=[];google.li=0;google.getEI=function(a){for(var b;a&&(!a.getAttribute||!(b=a.getAttribute("eid")));)a=a.parentNode;return b||google.kEI};google.getLEI=function(a){for(var b=null;a&&(!a.getAttribute||!(b=a.getAttribute("leid")));)a=a.parentNode;return b};google.ml=function(){return null};google.time=function(){return Date.now()};google.log=function(a,b,c,d,g){if(c=google.logUrl(a,b,c,d,g)){a=new Image;var e=google.lc,f=google.li;e[f]=a;a.onerror=a.onload=a.onabort=function(){delete e[f]};a.src=c;google.li=f+1}};google.logUrl=function(a,b,c,d,g){var e="",f=google.ls||"";c||-1!=b.search("&ei=")||(e="&ei="+google.getEI(d),-1==b.search("&lei=")&&(d=google.getLEI(d))&&(e+="&lei="+d));d="";!c&&google.cshid&&-1==b.search("&cshid=")&&"slh"!=a&&(d="&cshid="+google.cshid);c=c||"/"+(g||"gen_204")+"?atyp=i&ct="+a+"&cad="+b+e+f+"&zx="+google.time()+d;/^http:/i.test(c)&&"https:"==window.location.protocol&&(google.ml(Error("a"),!1,{src:c,glmm:1}),c="");return c};}).call(this);(function(){google.y={};google.x=function(a,b){if(a)var c=a.id;else{do c=Math.random();while(google.y[c])}google.y[c]=[a,b];return!1};google.lm=[];google.plm=function(a){google.lm.push.apply(google.lm,a)};google.lq=[];google.load=function(a,b,c){google.lq.push([[a],b,c])};google.loadAll=function(a,b){google.lq.push([a,b])};}).call(this);google.f={};(function(){
document.documentElement.addEventListener("submit",function(b){var a;if(a=b.target){var c=a.getAttribute("data-submitfalse");a="1"==c||"q"==c&&!a.elements.q.value?!0:!1}else a=!1;a&&(b.preventDefault(),b.stopPropagation())},!0);document.documentElement.addEventListener("click",function(b){var a;a:{for(a=b.target;a&&a!=document.documentElement;a=a.parentElement)if("A"==a.tagName){a="1"==a.getAttribute("data-nohref");break a}a=!1}a&&b.preventDefault()},!0);}).call(this);
var a=window.location,b=a.href.indexOf("#");if(0<=b){var c=a.href.substring(b+1);/(^|&)q=/.test(c)&&-1==c.indexOf("#")&&a.replace("/search?"+c.replace(/(^|&)fp=[^&]*/g,"")+"&cad=h")};</script><style>#gbar,#guser{font-size:13px;padding-top:1px !important;}#gbar{height:22px}#guser{padding-bottom:7px !important;text-align:right}.gbh,.gbd{border-top:1px solid #c9d7f1;font-size:1px}.gbh{height:0;position:absolute;top:24px;width:100%}@media all{.gb1{height:22px;margin-right:.5em;vertical-align:top}#gbar{float:left}}a.gb1,a.gb4{text-decoration:underline !important}a.gb1,a.gb4{color:#00c !important}.gbi .gb4{color:#dd8e27 !important}.gbf .gb4{color:#900 !important}
</style><style>body,td,a,p,.h{font-family:arial,sans-serif}body{margin:0;overflow-y:scroll}#gog{padding:3px 8px 0}td{line-height:.8em}.gac_m td{line-height:17px}form{margin-bottom:20px}.h{color:#1558d6}em{font-weight:bold;font-style:normal}.lst{height:25px;width:496px}.gsfi,.lst{font:18px arial,sans-serif}.gsfs{font:17px arial,sans-serif}.ds{display:inline-box;display:inline-block;margin:3px 0 4px;margin-left:4px}input{font-family:inherit}body{background:#fff;color:#000}a{color:#4b11a8;text-decoration:none}a:hover,a:active{text-decoration:underline}.fl a{color:#1558d6}a:visited{color:#4b11a8}.sblc{padding-top:5px}.sblc a{display:block;margin:2px 0;margin-left:13px;font-size:11px}.lsbb{background:#f8f9fa;border:solid 1px;border-color:#dadce0 #70757a #70757a #dadce0;height:30px}.lsbb{display:block}#WqQANb a{display:inline-block;margin:0 12px}.lsb{background:url(/images/nav_logo229.png) 0 -261px repeat-x;border:none;color:#000;cursor:pointer;height:30px;margin:0;outline:0;font:15px arial,sans-serif;vertical-align:top}.lsb:active{background:#dadce0}.lst:focus{outline:none}</style><script nonce="JqupBJIo9jZfCEW6yh0D0Q=="></script></head><body bgcolor="#fff"><script nonce="JqupBJIo9jZfCEW6yh0D0Q==">(function(){var src='/images/nav_logo229.png';var iesg=false;document.body.onload = function(){window.n && window.n();if (document.images){new Image().src=src;}
if (!iesg){document.f&&document.f.q.focus();document.gbqf&&document.gbqf.q.focus();}
}
})();</script><div id="mngb"><div id="gbar"><nobr><b class="gb1">Search</b> <a class="gb1" href="https://www.google.com/imghp?hl=en&amp;tab=wi">Images</a> <a class="gb1" href="https://maps.google.com/maps?hl=en&amp;tab=wl">Maps</a> <a class="gb1" href="https://play.google.com/?hl=en&amp;tab=w8">Play</a> <a class="gb1" href="https://www.youtube.com/?gl=US&amp;tab=w1">YouTube</a> <a class="gb1" href="https://news.google.com/?tab=wn">News</a> <a class="gb1" href="https://mail.google.com/mail/?tab=wm">Gmail</a> <a class="gb1" href="https://drive.google.com/?tab=wo">Drive</a> <a class="gb1" href="https://www.google.com/intl/en/about/products?tab=wh" style="text-decoration:none"><u>More</u> »</a></nobr></div><div id="guser" width="100%"><nobr><span class="gbi" id="gbn"></span><span class="gbf" id="gbf"></span><span id="gbe"></span><a class="gb4" href="http://www.google.com/history/optout?hl=en">Web History</a> | <a class="gb4" href="/preferences?hl=en">Settings</a> | <a class="gb4" href="https://accounts.google.com/ServiceLogin?hl=en&amp;passive=true&amp;continue=https://www.google.com/&amp;ec=GAZAAQ" id="gb_70" target="_top">Sign in</a></nobr></div><div class="gbh" style="left:0"></div><div class="gbh" style="right:0"></div></div><center><br clear="all" id="lgpd"/><div id="lga"><img alt="Google" height="92" id="hplogo" src="/images/branding/googlelogo/1x/googlelogo_white_background_color_272x92dp.png" style="padding:28px 0 14px" width="272"/><br/><br/></div><form action="/search" name="f"><table cellpadding="0" cellspacing="0"><tr valign="top"><td width="25%"> </td><td align="center" nowrap=""><input name="ie" type="hidden" value="ISO-8859-1"/><input name="hl" type="hidden" value="en"/><input name="source" type="hidden" value="hp"/><input name="biw" type="hidden"/><input name="bih" type="hidden"/><div class="ds" style="height:32px;margin:4px 0"><input autocomplete="off" class="lst" maxlength="2048" name="q" size="57" style="margin:0;padding:5px 8px 0 6px;vertical-align:top;color:#000" title="Google Search" value=""/></div><br style="line-height:0"/><span class="ds"><span class="lsbb"><input class="lsb" name="btnG" type="submit" value="Google Search"/></span></span><span class="ds"><span class="lsbb"><input class="lsb" id="tsuid1" name="btnI" type="submit" value="I'm Feeling Lucky"/><script nonce="JqupBJIo9jZfCEW6yh0D0Q==">(function(){var id='tsuid1';document.getElementById(id).onclick = function(){if (this.form.q.value){this.checked = 1;if (this.form.iflsig)this.form.iflsig.disabled = false;}
else top.location='/doodles/';};})();</script><input name="iflsig" type="hidden" value="AINFCbYAAAAAX_6_XJKtvxZhPa-iTwIPERS_oN5B5jla"/></span></span></td><td align="left" class="fl sblc" nowrap="" width="25%"><a href="/advanced_search?hl=en&amp;authuser=0">Advanced search</a></td></tr></table><input id="gbv" name="gbv" type="hidden" value="1"/><script nonce="JqupBJIo9jZfCEW6yh0D0Q==">(function(){var a,b="1";if(document&&document.getElementById)if("undefined"!=typeof XMLHttpRequest)b="2";else if("undefined"!=typeof ActiveXObject){var c,d,e=["MSXML2.XMLHTTP.6.0","MSXML2.XMLHTTP.3.0","MSXML2.XMLHTTP","Microsoft.XMLHTTP"];for(c=0;d=e[c++];)try{new ActiveXObject(d),b="2"}catch(h){}}a=b;if("2"==a&&-1==location.search.indexOf("&gbv=2")){var f=google.gbvu,g=document.getElementById("gbv");g&&(g.value=a);f&&window.setTimeout(function(){location.href=f},0)};}).call(this);</script></form><div id="gac_scont"></div><div style="font-size:83%;min-height:3.5em"><br/></div><span id="footer"><div style="font-size:10pt"><div id="WqQANb" style="margin:19px auto;text-align:center"><a href="/intl/en/ads/">Advertising Programs</a><a href="/services/">Business Solutions</a><a href="/intl/en/about.html">About Google</a></div></div><p style="font-size:8pt;color:#70757a">© 2021 - <a href="/intl/en/policies/privacy/">Privacy</a> - <a href="/intl/en/policies/terms/">Terms</a></p></span></center><script nonce="JqupBJIo9jZfCEW6yh0D0Q==">(function(){window.google.cdo={height:0,width:0};(function(){var a=window.innerWidth,b=window.innerHeight;if(!a||!b){var c=window.document,d="CSS1Compat"==c.compatMode?c.documentElement:c.body;a=d.clientWidth;b=d.clientHeight}a&&b&&(a!=google.cdo.width||b!=google.cdo.height)&&google.log("","","/client_204?&atyp=i&biw="+a+"&bih="+b+"&ei="+google.kEI);}).call(this);})();(function(){var u='/xjs/_/js/k\x3dxjs.hp.en_US.47yx1NRLwg8.O/m\x3dsb_he,d/am\x3dAHiCOA/d\x3d1/rs\x3dACT90oGyqtEExhog7jqUcAeZY_cdSbS6wA';
var c=this||self,e=/^[\w+/_-]+[=]{0,2}$/,f=null,g=function(a){return(a=a.querySelector&&a.querySelector("script[nonce]"))&&(a=a.nonce||a.getAttribute("nonce"))&&e.test(a)?a:""},h=function(a){return a};var l;var n=function(a,b){this.g=b===m?a:""},m={};setTimeout(function(){var a=document;var b="SCRIPT";"application/xhtml+xml"===a.contentType&&(b=b.toLowerCase());b=a.createElement(b);a=u;if(void 0===l){var d=null;var k=c.trustedTypes;if(k&&k.createPolicy){try{d=k.createPolicy("goog#html",{createHTML:h,createScript:h,createScriptURL:h})}catch(p){c.console&&c.console.error(p.message)}l=d}else l=d}a=(d=l)?d.createScriptURL(a):a;a=new n(a,m);b.src=a instanceof n&&a.constructor===n?a.g:"type_error:TrustedResourceUrl";(a=b.ownerDocument&&b.ownerDocument.defaultView)&&
a!=c?a=g(a.document):(null===f&&(f=g(c.document)),a=f);a&&b.setAttribute("nonce",a);google.timers&&google.timers.load&&google.tick&&google.tick("load","xjsls");document.body.appendChild(b)},0);})();(function(){window.google.xjsu='/xjs/_/js/k\x3dxjs.hp.en_US.47yx1NRLwg8.O/m\x3dsb_he,d/am\x3dAHiCOA/d\x3d1/rs\x3dACT90oGyqtEExhog7jqUcAeZY_cdSbS6wA';})();function _DumpException(e){throw e;}
function _F_installCss(c){}
(function(){google.jl={dw:false,em:[],emw:false,lls:'default',pdt:0,snet:true,uwp:true};})();(function(){var pmc='{\x22d\x22:{},\x22sb_he\x22:{\x22agen\x22:true,\x22cgen\x22:true,\x22client\x22:\x22heirloom-hp\x22,\x22dh\x22:true,\x22dhqt\x22:true,\x22ds\x22:\x22\x22,\x22ffql\x22:\x22en\x22,\x22fl\x22:true,\x22host\x22:\x22google.com\x22,\x22isbh\x22:28,\x22jsonp\x22:true,\x22msgs\x22:{\x22cibl\x22:\x22Clear Search\x22,\x22dym\x22:\x22Did you mean:\x22,\x22lcky\x22:\x22I\\u0026#39;m Feeling Lucky\x22,\x22lml\x22:\x22Learn more\x22,\x22oskt\x22:\x22Input tools\x22,\x22psrc\x22:\x22This search was removed from your \\u003Ca href\x3d\\\x22/history\\\x22\\u003EWeb History\\u003C/a\\u003E\x22,\x22psrl\x22:\x22Remove\x22,\x22sbit\x22:\x22Search by image\x22,\x22srch\x22:\x22Google Search\x22},\x22nrft\x22:false,\x22ovr\x22:{},\x22pq\x22:\x22\x22,\x22refpd\x22:true,\x22rfs\x22:[],\x22sbas\x22:\x220 3px 8px 0 rgba(0,0,0,0.2),0 0 0 1px rgba(0,0,0,0.08)\x22,\x22sbpl\x22:16,\x22sbpr\x22:16,\x22scd\x22:10,\x22stok\x22:\x22fkYnjtvhy3tt3dPTz0UT798Cjbs\x22,\x22uhde\x22:false}}';google.pmc=JSON.parse(pmc);})();</script> </body></html>