<!DOCTYPE html>
<html lang="fr-FR">
<head>
<meta charset="utf-8"/>
<meta content="width=device-width, initial-scale=1" name="viewport"/>
<link href="http://gmpg.org/xfn/11" rel="profile"/>
<link href="https://www.saintrochthuin.be/xmlrpc.php" rel="pingback"/>
<title>Page non trouvée – 367ème Marche Saint-Roch de Thuin</title>
<link href="//fonts.googleapis.com" rel="dns-prefetch"/>
<link href="//s.w.org" rel="dns-prefetch"/>
<link href="https://www.saintrochthuin.be/feed/" rel="alternate" title="367ème Marche Saint-Roch de Thuin » Flux" type="application/rss+xml"/>
<link href="https://www.saintrochthuin.be/comments/feed/" rel="alternate" title="367ème Marche Saint-Roch de Thuin » Flux des commentaires" type="application/rss+xml"/>
<!-- This site uses the Google Analytics by MonsterInsights plugin v7.14.0 - Using Analytics tracking - https://www.monsterinsights.com/ -->
<script data-cfasync="false" type="text/javascript">
    (window.gaDevIds=window.gaDevIds||[]).push("dZGIzZG");
	var mi_version         = '7.14.0';
	var mi_track_user      = true;
	var mi_no_track_reason = '';
	
	var disableStr = 'ga-disable-UA-50635269-1';

	/* Function to detect opted out users */
	function __gaTrackerIsOptedOut() {
		return document.cookie.indexOf(disableStr + '=true') > -1;
	}

	/* Disable tracking if the opt-out cookie exists. */
	if ( __gaTrackerIsOptedOut() ) {
		window[disableStr] = true;
	}

	/* Opt-out function */
	function __gaTrackerOptout() {
	  document.cookie = disableStr + '=true; expires=Thu, 31 Dec 2099 23:59:59 UTC; path=/';
	  window[disableStr] = true;
	}

	if ( 'undefined' === typeof gaOptout ) {
		function gaOptout() {
			__gaTrackerOptout();
		}
	}
	
	if ( mi_track_user ) {
		(function(i,s,o,g,r,a,m){i['GoogleAnalyticsObject']=r;i[r]=i[r]||function(){
			(i[r].q=i[r].q||[]).push(arguments)},i[r].l=1*new Date();a=s.createElement(o),
			m=s.getElementsByTagName(o)[0];a.async=1;a.src=g;m.parentNode.insertBefore(a,m)
		})(window,document,'script','//www.google-analytics.com/analytics.js','__gaTracker');

		__gaTracker('create', 'UA-50635269-1', 'auto');
		__gaTracker('set', 'forceSSL', true);
		__gaTracker('send','pageview','/404.html?page=' + document.location.pathname + document.location.search + '&from=' + document.referrer);
	} else {
		console.log( "" );
		(function() {
			/* https://developers.google.com/analytics/devguides/collection/analyticsjs/ */
			var noopfn = function() {
				return null;
			};
			var noopnullfn = function() {
				return null;
			};
			var Tracker = function() {
				return null;
			};
			var p = Tracker.prototype;
			p.get = noopfn;
			p.set = noopfn;
			p.send = noopfn;
			var __gaTracker = function() {
				var len = arguments.length;
				if ( len === 0 ) {
					return;
				}
				var f = arguments[len-1];
				if ( typeof f !== 'object' || f === null || typeof f.hitCallback !== 'function' ) {
					console.log( 'Fonction actuellement pas en cours d’exécution __gaTracker(' + arguments[0] + " ....) parce que vous n’êtes pas suivi·e. " + mi_no_track_reason );
					return;
				}
				try {
					f.hitCallback();
				} catch (ex) {

				}
			};
			__gaTracker.create = function() {
				return new Tracker();
			};
			__gaTracker.getByName = noopnullfn;
			__gaTracker.getAll = function() {
				return [];
			};
			__gaTracker.remove = noopfn;
			window['__gaTracker'] = __gaTracker;
					})();
		}
</script>
<!-- / Google Analytics by MonsterInsights -->
<script type="text/javascript">
			window._wpemojiSettings = {"baseUrl":"https:\/\/s.w.org\/images\/core\/emoji\/13.0.1\/72x72\/","ext":".png","svgUrl":"https:\/\/s.w.org\/images\/core\/emoji\/13.0.1\/svg\/","svgExt":".svg","source":{"concatemoji":"https:\/\/www.saintrochthuin.be\/wp-includes\/js\/wp-emoji-release.min.js?ver=5.6"}};
			!function(e,a,t){var r,n,o,i,p=a.createElement("canvas"),s=p.getContext&&p.getContext("2d");function c(e,t){var a=String.fromCharCode;s.clearRect(0,0,p.width,p.height),s.fillText(a.apply(this,e),0,0);var r=p.toDataURL();return s.clearRect(0,0,p.width,p.height),s.fillText(a.apply(this,t),0,0),r===p.toDataURL()}function l(e){if(!s||!s.fillText)return!1;switch(s.textBaseline="top",s.font="600 32px Arial",e){case"flag":return!c([127987,65039,8205,9895,65039],[127987,65039,8203,9895,65039])&&(!c([55356,56826,55356,56819],[55356,56826,8203,55356,56819])&&!c([55356,57332,56128,56423,56128,56418,56128,56421,56128,56430,56128,56423,56128,56447],[55356,57332,8203,56128,56423,8203,56128,56418,8203,56128,56421,8203,56128,56430,8203,56128,56423,8203,56128,56447]));case"emoji":return!c([55357,56424,8205,55356,57212],[55357,56424,8203,55356,57212])}return!1}function d(e){var t=a.createElement("script");t.src=e,t.defer=t.type="text/javascript",a.getElementsByTagName("head")[0].appendChild(t)}for(i=Array("flag","emoji"),t.supports={everything:!0,everythingExceptFlag:!0},o=0;o<i.length;o++)t.supports[i[o]]=l(i[o]),t.supports.everything=t.supports.everything&&t.supports[i[o]],"flag"!==i[o]&&(t.supports.everythingExceptFlag=t.supports.everythingExceptFlag&&t.supports[i[o]]);t.supports.everythingExceptFlag=t.supports.everythingExceptFlag&&!t.supports.flag,t.DOMReady=!1,t.readyCallback=function(){t.DOMReady=!0},t.supports.everything||(n=function(){t.readyCallback()},a.addEventListener?(a.addEventListener("DOMContentLoaded",n,!1),e.addEventListener("load",n,!1)):(e.attachEvent("onload",n),a.attachEvent("onreadystatechange",function(){"complete"===a.readyState&&t.readyCallback()})),(r=t.source||{}).concatemoji?d(r.concatemoji):r.wpemoji&&r.twemoji&&(d(r.twemoji),d(r.wpemoji)))}(window,document,window._wpemojiSettings);
		</script>
<style type="text/css">
img.wp-smiley,
img.emoji {
	display: inline !important;
	border: none !important;
	box-shadow: none !important;
	height: 1em !important;
	width: 1em !important;
	margin: 0 .07em !important;
	vertical-align: -0.1em !important;
	background: none !important;
	padding: 0 !important;
}
</style>
<link href="https://www.saintrochthuin.be/wp-content/themes/sydney/css/bootstrap/bootstrap.min.css?ver=1" id="sydney-bootstrap-css" media="all" rel="stylesheet" type="text/css"/>
<link href="https://www.saintrochthuin.be/wp-includes/css/dist/block-library/style.min.css?ver=5.6" id="wp-block-library-css" media="all" rel="stylesheet" type="text/css"/>
<link href="https://www.saintrochthuin.be/wp-content/plugins/google-analytics-for-wordpress/assets/css/frontend.min.css?ver=7.14.0" id="monsterinsights-popular-posts-style-css" media="all" rel="stylesheet" type="text/css"/>
<link href="https://fonts.googleapis.com/css?family=Raleway%3A400%2C600&amp;subset=latin&amp;display=swap" id="sydney-google-fonts-css" media="all" rel="stylesheet" type="text/css"/>
<link href="https://www.saintrochthuin.be/wp-content/themes/sydney/style.css?ver=20200129" id="sydney-style-css" media="all" rel="stylesheet" type="text/css"/>
<style id="sydney-style-inline-css" type="text/css">
body, #mainnav ul ul a { font-family:Raleway;}
h1, h2, h3, h4, h5, h6, #mainnav ul li a, .portfolio-info, .roll-testimonials .name, .roll-team .team-content .name, .roll-team .team-item .team-pop .name, .roll-tabs .menu-tab li a, .roll-testimonials .name, .roll-project .project-filter li a, .roll-button, .roll-counter .name-count, .roll-counter .numb-count button, input[type="button"], input[type="reset"], input[type="submit"] { font-family:Raleway;}
.site-title { font-size:50px; }
.site-description { font-size:30px; }
#mainnav ul li a { font-size:19px; }
h1 { font-size:52px; }
h2 { font-size:42px; }
h3 { font-size:32px; }
h4 { font-size:25px; }
h5 { font-size:20px; }
h6 { font-size:18px; }
body { font-size:16px; }
.single .hentry .title-post { font-size:36px; }
.header-image { background-size:contain;}
.header-image { height:400px; }
.header-wrap .col-md-4, .header-wrap .col-md-8 { width: 100%; text-align: center;}
#mainnav { float: none;}
#mainnav li { float: none; display: inline-block;}
#mainnav ul ul li { display: block; text-align: left; float:left;}
.site-logo, .header-wrap .col-md-4 { margin-bottom: 15px; }
.btn-menu { margin: 0 auto; float: none; }
.header-wrap .container > .row { display: block; }
.go-top:hover svg,.sydney_contact_info_widget span { fill:#d65050;}
.site-header.float-header { background-color:rgba(0,0,0,0.9);}
@media only screen and (max-width: 1024px) { .site-header { background-color:#000000;}}
.site-title a, .site-title a:hover { color:#1e73be}
.site-description { color:#1e73be}
#mainnav ul li a, #mainnav ul li::before { color:#ffffff}
#mainnav .sub-menu li a { color:#ffffff}
#mainnav .sub-menu li a { background:#1c1c1c}
.text-slider .maintitle, .text-slider .subtitle { color:#1e73be}
body { color:#767676}
#secondary { background-color:#ffffff}
#secondary, #secondary a { color:#ffffff}
.footer-widgets { background-color:#252525}
.btn-menu .sydney-svg-icon { fill:#ffffff}
#mainnav ul li a:hover { color:#d65050}
.site-footer { background-color:#1c1c1c}
.site-footer,.site-footer a { color:#666666}
.overlay { background-color:#000000}
.page-wrap { padding-top:83px;}
.page-wrap { padding-bottom:100px;}
.slide-inner { display:none;}
.slide-inner.text-slider-stopped { display:block;}
@media only screen and (max-width: 1025px) {		
			.mobile-slide {
				display: block;
			}
			.slide-item {
				background-image: none !important;
			}
			.header-slider {
			}
			.slide-item {
				height: auto !important;
			}
			.slide-inner {
				min-height: initial;
			} 
		}
@media only screen and (max-width: 780px) { 
    	h1 { font-size: 32px;}
		h2 { font-size: 28px;}
		h3 { font-size: 22px;}
		h4 { font-size: 18px;}
		h5 { font-size: 16px;}
		h6 { font-size: 14px;}
	}

</style>
<!--[if lte IE 9]>
<link rel='stylesheet' id='sydney-ie9-css'  href='https://www.saintrochthuin.be/wp-content/themes/sydney/css/ie9.css?ver=5.6' type='text/css' media='all' />
<![endif]-->
<script id="monsterinsights-frontend-script-js-extra" type="text/javascript">
/* <![CDATA[ */
var monsterinsights_frontend = {"js_events_tracking":"true","download_extensions":"doc,pdf,ppt,zip,xls,docx,pptx,xlsx","inbound_paths":"[]","home_url":"https:\/\/www.saintrochthuin.be","hash_tracking":"false"};
/* ]]> */
</script>
<script id="monsterinsights-frontend-script-js" src="https://www.saintrochthuin.be/wp-content/plugins/google-analytics-for-wordpress/assets/js/frontend.min.js?ver=7.14.0" type="text/javascript"></script>
<link href="https://www.saintrochthuin.be/wp-json/" rel="https://api.w.org/"/><link href="https://www.saintrochthuin.be/xmlrpc.php?rsd" rel="EditURI" title="RSD" type="application/rsd+xml"/>
<link href="https://www.saintrochthuin.be/wp-includes/wlwmanifest.xml" rel="wlwmanifest" type="application/wlwmanifest+xml"/>
<meta content="WordPress 5.6" name="generator"/>
<style type="text/css">
		.header-image {
			background-image: url(https://www.saintrochthuin.be/wp-content/uploads/2014/04/cropped-cropped-Logo-du-Comite2.jpg);
			display: block;
		}
		@media only screen and (max-width: 1024px) {
			.header-inner {
				display: block;
			}
			.header-image {
				background-image: none;
				height: auto !important;
			}		
		}
	</style>
</head>
<body class="error404 menu-centered">
<div class="preloader">
<div class="spinner">
<div class="pre-bounce1"></div>
<div class="pre-bounce2"></div>
</div>
</div>
<div class="hfeed site" id="page">
<a class="skip-link screen-reader-text" href="#content">Aller au contenu</a>
<header class="site-header" id="masthead" role="banner">
<div class="header-wrap">
<div class="container">
<div class="row">
<div class="col-md-4 col-sm-8 col-xs-12">
<h1 class="site-title"><a href="https://www.saintrochthuin.be/" rel="home">367ème Marche Saint-Roch de Thuin</a></h1>
<h2 class="site-description">15, 16 et 17 mai 2021</h2>
</div>
<div class="col-md-8 col-sm-4 col-xs-12">
<div class="btn-menu"><i class="sydney-svg-icon"><svg viewbox="0 0 448 512" xmlns="http://www.w3.org/2000/svg"><path d="M16 132h416c8.837 0 16-7.163 16-16V76c0-8.837-7.163-16-16-16H16C7.163 60 0 67.163 0 76v40c0 8.837 7.163 16 16 16zm0 160h416c8.837 0 16-7.163 16-16v-40c0-8.837-7.163-16-16-16H16c-8.837 0-16 7.163-16 16v40c0 8.837 7.163 16 16 16zm0 160h416c8.837 0 16-7.163 16-16v-40c0-8.837-7.163-16-16-16H16c-8.837 0-16 7.163-16 16v40c0 8.837 7.163 16 16 16z"></path></svg></i></div>
<nav class="mainnav" id="mainnav" role="navigation">
<div class="menu-menu-1-container"><ul class="menu" id="menu-menu-1"><li class="menu-item menu-item-type-post_type menu-item-object-page menu-item-28" id="menu-item-28"><a href="https://www.saintrochthuin.be/le-culte-de-saint-roch/">Le culte de saint Roch</a></li>
<li class="menu-item menu-item-type-post_type menu-item-object-page menu-item-29" id="menu-item-29"><a href="https://www.saintrochthuin.be/marche-et-procession/">Marche et procession</a></li>
<li class="menu-item menu-item-type-post_type menu-item-object-page menu-item-25" id="menu-item-25"><a href="https://www.saintrochthuin.be/comite/">Comité</a></li>
<li class="menu-item menu-item-type-post_type menu-item-object-page menu-item-23" id="menu-item-23"><a href="https://www.saintrochthuin.be/actualite/">Actualité</a></li>
<li class="menu-item menu-item-type-post_type menu-item-object-page menu-item-24" id="menu-item-24"><a href="https://www.saintrochthuin.be/archives/">Archives</a></li>
<li class="menu-item menu-item-type-post_type menu-item-object-page menu-item-30" id="menu-item-30"><a href="https://www.saintrochthuin.be/ressources/">Ressources</a></li>
<li class="menu-item menu-item-type-post_type menu-item-object-page menu-item-27" id="menu-item-27"><a href="https://www.saintrochthuin.be/evenements/">Evénements</a></li>
<li class="menu-item menu-item-type-post_type menu-item-object-page menu-item-26" id="menu-item-26"><a href="https://www.saintrochthuin.be/contact/">Contact</a></li>
<li class="menu-item menu-item-type-post_type menu-item-object-page menu-item-2044" id="menu-item-2044"><a href="https://www.saintrochthuin.be/nos-membres-dhonneur/">Nos membres d’honneur</a></li>
</ul></div> </nav><!-- #site-navigation -->
</div>
</div>
</div>
</div>
</header><!-- #masthead -->
<div class="sydney-hero-area">
<div class="header-image">
<div class="overlay"></div> </div>
</div>
<div class="page-wrap" id="content">
<div class="container content-wrapper">
<div class="row">
<div class="content-area fullwidth" id="primary">
<main class="site-main" id="main" role="main">
<section class="error-404 not-found">
<header class="page-header">
<h1 class="page-title">Aïe ! Cette page est introuvable.</h1>
</header><!-- .page-header -->
<div class="page-content">
<p>Il semble que rien ne soit trouvé ici. Essayez un des liens ci-dessous ou une recherche ?</p>
<form action="https://www.saintrochthuin.be/" class="search-form" method="get" role="search">
<label>
<span class="screen-reader-text">Rechercher :</span>
<input class="search-field" name="s" placeholder="Rechercher…" type="search" value=""/>
</label>
<input class="search-submit" type="submit" value="Rechercher"/>
</form>
</div><!-- .page-content -->
</section><!-- .error-404 -->
</main><!-- #main -->
</div><!-- #primary -->
</div>
</div>
</div><!-- #content -->
<div class="footer-widgets widget-area" id="sidebar-footer" role="complementary">
<div class="container">
<div class="sidebar-column col-md-4">
<aside class="widget widget_mailpoet_form" id="mailpoet_form-3">
<h3 class="widget-title">Abonnez-vous à notre newsletter</h3>
<div class=" mailpoet_form_popup_overlay "></div>
<div class=" mailpoet_form mailpoet_form_widget mailpoet_form_position_ mailpoet_form_animation_ " id="mailpoet_form_1">
<style type="text/css">.mailpoet_hp_email_label{display:none!important;}#mailpoet_form_1 .mailpoet_form {  }
#mailpoet_form_1 .mailpoet_column_with_background { padding: 10px; }
#mailpoet_form_1 .mailpoet_form_column:not(:first-child) { margin-left: 20px; }
#mailpoet_form_1 .mailpoet_paragraph { line-height: 20px; margin-bottom: 20px; }
#mailpoet_form_1 .mailpoet_segment_label, #mailpoet_form_1 .mailpoet_text_label, #mailpoet_form_1 .mailpoet_textarea_label, #mailpoet_form_1 .mailpoet_select_label, #mailpoet_form_1 .mailpoet_radio_label, #mailpoet_form_1 .mailpoet_checkbox_label, #mailpoet_form_1 .mailpoet_list_label, #mailpoet_form_1 .mailpoet_date_label { display: block; font-weight: normal; }
#mailpoet_form_1 .mailpoet_text, #mailpoet_form_1 .mailpoet_textarea, #mailpoet_form_1 .mailpoet_select, #mailpoet_form_1 .mailpoet_date_month, #mailpoet_form_1 .mailpoet_date_day, #mailpoet_form_1 .mailpoet_date_year, #mailpoet_form_1 .mailpoet_date { display: block; }
#mailpoet_form_1 .mailpoet_text, #mailpoet_form_1 .mailpoet_textarea { width: 200px; }
#mailpoet_form_1 .mailpoet_checkbox {  }
#mailpoet_form_1 .mailpoet_submit {  }
#mailpoet_form_1 .mailpoet_divider {  }
#mailpoet_form_1 .mailpoet_message {  }
#mailpoet_form_1 .mailpoet_form_loading { width: 30px; text-align: center; line-height: normal; }
#mailpoet_form_1 .mailpoet_form_loading > span { width: 5px; height: 5px; background-color: #5b5b5b; }#mailpoet_form_1{;}#mailpoet_form_1 .mailpoet_message {margin: 0; padding: 0 20px;}#mailpoet_form_1 .mailpoet_paragraph.last {margin-bottom: 0} @media (max-width: 500px) {#mailpoet_form_1 {background-image: none;}} @media (min-width: 500px) {#mailpoet_form_1 .last .mailpoet_paragraph:last-child {margin-bottom: 0}}  @media (max-width: 500px) {#mailpoet_form_1 .mailpoet_form_column:last-child .mailpoet_paragraph:last-child {margin-bottom: 0}} </style>
<form action="https://www.saintrochthuin.be/wp-admin/admin-post.php?action=mailpoet_subscription_form" class="mailpoet_form mailpoet_form_form mailpoet_form_widget" data-delay="" data-exit-intent-enabled="" data-font-family="" method="post" novalidate="" target="_self">
<input name="data[form_id]" type="hidden" value="1"/>
<input name="token" type="hidden" value="b7c71674ce"/>
<input name="api_version" type="hidden" value="v1"/>
<input name="endpoint" type="hidden" value="subscribers"/>
<input name="mailpoet_method" type="hidden" value="subscribe"/>
<label class="mailpoet_hp_email_label">Veuillez laisser ce champ vide<input name="data[email]" type="email"/></label><div class="mailpoet_paragraph"><label class="mailpoet_text_label" data-automation-id="form_email_label">E-mail <span class="mailpoet_required">*</span></label><input class="mailpoet_text" data-automation-id="form_email" data-parsley-error-message="Veuillez spécifier une adresse de messagerie valide." data-parsley-maxlength="150" data-parsley-minlength="6" data-parsley-required="true" data-parsley-required-message="Ce champ est nécessaire." name="data[form_field_YmEzZjhiZTQwNzkwX2VtYWls]" title="E-mail" type="email" value=""/></div>
<div class="mailpoet_paragraph"><input class="mailpoet_submit" data-automation-id="subscribe-submit-button" style="border-color:transparent;" type="submit" value="Je m’abonne !"/><span class="mailpoet_form_loading"><span class="mailpoet_bounce1"></span><span class="mailpoet_bounce2"></span><span class="mailpoet_bounce3"></span></span></div>
<div class="mailpoet_message">
<p class="mailpoet_validate_success" style="display:none;">Vérifiez votre boite de réception ou votre répertoire d’indésirables pour confirmer votre abonnement.
        </p>
<p class="mailpoet_validate_error" style="display:none;"> </p>
</div>
</form>
</div>
</aside>
</div>
</div>
</div>
<a class="go-top"><i class="sydney-svg-icon"><svg viewbox="0 0 448 512" xmlns="http://www.w3.org/2000/svg"><path d="M240.971 130.524l194.343 194.343c9.373 9.373 9.373 24.569 0 33.941l-22.667 22.667c-9.357 9.357-24.522 9.375-33.901.04L224 227.495 69.255 381.516c-9.379 9.335-24.544 9.317-33.901-.04l-22.667-22.667c-9.373-9.373-9.373-24.569 0-33.941L207.03 130.525c9.372-9.373 24.568-9.373 33.941-.001z"></path></svg></i></a>
<footer class="site-footer" id="colophon" role="contentinfo">
<div class="site-info container">
<a href="https://fr.wordpress.org/">Fièrement propulsé par WordPress</a>
<span class="sep"> | </span>
			Thème : <a href="https://athemes.com/theme/sydney" rel="nofollow">Sydney</a> par aThemes.		</div><!-- .site-info -->
</footer><!-- #colophon -->
</div><!-- #page -->
<link href="https://www.saintrochthuin.be/wp-content/plugins/mailpoet/assets/dist/css/mailpoet-public.dd713c66.css?ver=5.6" id="mailpoet_public-css" media="all" rel="stylesheet" type="text/css"/>
<link href="https://fonts.googleapis.com/css?family=Abril+FatFace%3A400%2C400i%2C700%2C700i%7CAlegreya%3A400%2C400i%2C700%2C700i%7CAlegreya+Sans%3A400%2C400i%2C700%2C700i%7CAmatic+SC%3A400%2C400i%2C700%2C700i%7CAnonymous+Pro%3A400%2C400i%2C700%2C700i%7CArchitects+Daughter%3A400%2C400i%2C700%2C700i%7CArchivo%3A400%2C400i%2C700%2C700i%7CArchivo+Narrow%3A400%2C400i%2C700%2C700i%7CAsap%3A400%2C400i%2C700%2C700i%7CBarlow%3A400%2C400i%2C700%2C700i%7CBioRhyme%3A400%2C400i%2C700%2C700i%7CBonbon%3A400%2C400i%2C700%2C700i%7CCabin%3A400%2C400i%2C700%2C700i%7CCairo%3A400%2C400i%2C700%2C700i%7CCardo%3A400%2C400i%2C700%2C700i%7CChivo%3A400%2C400i%2C700%2C700i%7CConcert+One%3A400%2C400i%2C700%2C700i%7CCormorant%3A400%2C400i%2C700%2C700i%7CCrimson+Text%3A400%2C400i%2C700%2C700i%7CEczar%3A400%2C400i%2C700%2C700i%7CExo+2%3A400%2C400i%2C700%2C700i%7CFira+Sans%3A400%2C400i%2C700%2C700i%7CFjalla+One%3A400%2C400i%2C700%2C700i%7CFrank+Ruhl+Libre%3A400%2C400i%2C700%2C700i%7CGreat+Vibes%3A400%2C400i%2C700%2C700i%7CHeebo%3A400%2C400i%2C700%2C700i%7CIBM+Plex%3A400%2C400i%2C700%2C700i%7CInconsolata%3A400%2C400i%2C700%2C700i%7CIndie+Flower%3A400%2C400i%2C700%2C700i%7CInknut+Antiqua%3A400%2C400i%2C700%2C700i%7CInter%3A400%2C400i%2C700%2C700i%7CKarla%3A400%2C400i%2C700%2C700i%7CLibre+Baskerville%3A400%2C400i%2C700%2C700i%7CLibre+Franklin%3A400%2C400i%2C700%2C700i%7CMontserrat%3A400%2C400i%2C700%2C700i%7CNeuton%3A400%2C400i%2C700%2C700i%7CNotable%3A400%2C400i%2C700%2C700i%7CNothing+You+Could+Do%3A400%2C400i%2C700%2C700i%7CNoto+Sans%3A400%2C400i%2C700%2C700i%7CNunito%3A400%2C400i%2C700%2C700i%7COld+Standard+TT%3A400%2C400i%2C700%2C700i%7COxygen%3A400%2C400i%2C700%2C700i%7CPacifico%3A400%2C400i%2C700%2C700i%7CPoppins%3A400%2C400i%2C700%2C700i%7CProza+Libre%3A400%2C400i%2C700%2C700i%7CPT+Sans%3A400%2C400i%2C700%2C700i%7CPT+Serif%3A400%2C400i%2C700%2C700i%7CRakkas%3A400%2C400i%2C700%2C700i%7CReenie+Beanie%3A400%2C400i%2C700%2C700i%7CRoboto+Slab%3A400%2C400i%2C700%2C700i%7CRopa+Sans%3A400%2C400i%2C700%2C700i%7CRubik%3A400%2C400i%2C700%2C700i%7CShadows+Into+Light%3A400%2C400i%2C700%2C700i%7CSpace+Mono%3A400%2C400i%2C700%2C700i%7CSpectral%3A400%2C400i%2C700%2C700i%7CSue+Ellen+Francisco%3A400%2C400i%2C700%2C700i%7CTitillium+Web%3A400%2C400i%2C700%2C700i%7CUbuntu%3A400%2C400i%2C700%2C700i%7CVarela%3A400%2C400i%2C700%2C700i%7CVollkorn%3A400%2C400i%2C700%2C700i%7CWork+Sans%3A400%2C400i%2C700%2C700i%7CYatra+One%3A400%2C400i%2C700%2C700i&amp;ver=5.6" id="mailpoet_custom_fonts_css-css" media="all" rel="stylesheet" type="text/css"/>
<script id="sydney-functions-js" src="https://www.saintrochthuin.be/wp-content/themes/sydney/js/functions.min.js?ver=20201221" type="text/javascript"></script>
<script id="wp-embed-js" src="https://www.saintrochthuin.be/wp-includes/js/wp-embed.min.js?ver=5.6" type="text/javascript"></script>
<script id="jquery-core-js" src="https://www.saintrochthuin.be/wp-includes/js/jquery/jquery.min.js?ver=3.5.1" type="text/javascript"></script>
<script id="jquery-migrate-js" src="https://www.saintrochthuin.be/wp-includes/js/jquery/jquery-migrate.min.js?ver=3.3.2" type="text/javascript"></script>
<script id="mailpoet_public-js-extra" type="text/javascript">
/* <![CDATA[ */
var MailPoetForm = {"ajax_url":"https:\/\/www.saintrochthuin.be\/wp-admin\/admin-ajax.php","is_rtl":""};
/* ]]> */
</script>
<script id="mailpoet_public-js" src="https://www.saintrochthuin.be/wp-content/plugins/mailpoet/assets/dist/js/public.27bd06f0.js?ver=3.56.2" type="text/javascript"></script>
<script id="mailpoet_public-js-after" type="text/javascript">
function initMailpoetTranslation() {
  if (typeof MailPoet !== 'undefined') {
    MailPoet.I18n.add('ajaxFailedErrorMessage', 'An error has happened while performing a request, please try again later.')
  } else {
    setTimeout(initMailpoetTranslation, 250);
  }
}
setTimeout(initMailpoetTranslation, 250);
</script>
<script>
	/(trident|msie)/i.test(navigator.userAgent)&&document.getElementById&&window.addEventListener&&window.addEventListener("hashchange",function(){var t,e=location.hash.substring(1);/^[A-z0-9_-]+$/.test(e)&&(t=document.getElementById(e))&&(/^(?:a|select|input|button|textarea)$/i.test(t.tagName)||(t.tabIndex=-1),t.focus())},!1);
	</script>
</body>
</html>
