<!DOCTYPE HTML PUBLIC "-//W3C//DTD HTML 3.2 Final//EN">
<html>
<head>
<title>Index of /wp-includes/images</title>
</head>
<body>
<h1>Index of /wp-includes/images</h1>
<table>
<tr><th valign="top"> </th><th><a href="?C=N;O=D">Name</a></th><th><a href="?C=M;O=A">Last modified</a></th><th><a href="?C=S;O=A">Size</a></th><th><a href="?C=D;O=A">Description</a></th></tr>
<tr><th colspan="5"><hr/></th></tr>
<tr><td valign="top"> </td><td><a href="/wp-includes/">Parent Directory</a> </td><td> </td><td align="right">  - </td><td> </td></tr>
<tr><td valign="top"> </td><td><a href="admin-bar-sprite-2x.png">admin-bar-sprite-2x.png</a></td><td align="right">2018-12-11 12:29  </td><td align="right">3.9K</td><td> </td></tr>
<tr><td valign="top"> </td><td><a href="admin-bar-sprite.png">admin-bar-sprite.png</a> </td><td align="right">2018-12-11 12:29  </td><td align="right">2.4K</td><td> </td></tr>
<tr><td valign="top"> </td><td><a href="arrow-pointer-blue-2x.png">arrow-pointer-blue-2..&gt;</a></td><td align="right">2018-12-11 12:29  </td><td align="right">1.6K</td><td> </td></tr>
<tr><td valign="top"> </td><td><a href="arrow-pointer-blue.png">arrow-pointer-blue.png</a> </td><td align="right">2018-12-11 12:29  </td><td align="right">793 </td><td> </td></tr>
<tr><td valign="top"> </td><td><a href="blank.gif">blank.gif</a> </td><td align="right">2018-12-11 12:29  </td><td align="right"> 43 </td><td> </td></tr>
<tr><td valign="top"> </td><td><a href="crystal/">crystal/</a> </td><td align="right">2018-12-11 12:30  </td><td align="right">  - </td><td> </td></tr>
<tr><td valign="top"> </td><td><a href="down_arrow-2x.gif">down_arrow-2x.gif</a> </td><td align="right">2018-12-11 12:29  </td><td align="right"> 84 </td><td> </td></tr>
<tr><td valign="top"> </td><td><a href="down_arrow.gif">down_arrow.gif</a> </td><td align="right">2018-12-11 12:29  </td><td align="right"> 59 </td><td> </td></tr>
<tr><td valign="top"> </td><td><a href="icon-download.png">icon-download.png</a> </td><td align="right">2019-09-05 01:48  </td><td align="right"> 32K</td><td> </td></tr>
<tr><td valign="top"> </td><td><a href="icon-pointer-flag-2x.png">icon-pointer-flag-2x..&gt;</a></td><td align="right">2018-12-11 12:29  </td><td align="right">1.3K</td><td> </td></tr>
<tr><td valign="top"> </td><td><a href="icon-pointer-flag.png">icon-pointer-flag.png</a> </td><td align="right">2018-12-11 12:29  </td><td align="right">783 </td><td> </td></tr>
<tr><td valign="top"> </td><td><a href="icon-up-flag.png">icon-up-flag.png</a> </td><td align="right">2019-04-20 12:57  </td><td align="right">158 </td><td> </td></tr>
<tr><td valign="top"> </td><td><a href="media/">media/</a> </td><td align="right">2018-12-11 12:30  </td><td align="right">  - </td><td> </td></tr>
<tr><td valign="top"> </td><td><a href="rss-2x.png">rss-2x.png</a> </td><td align="right">2018-12-11 12:29  </td><td align="right">1.3K</td><td> </td></tr>
<tr><td valign="top"> </td><td><a href="rss.png">rss.png</a> </td><td align="right">2018-12-11 12:29  </td><td align="right">608 </td><td> </td></tr>
<tr><td valign="top"> </td><td><a href="smilies/">smilies/</a> </td><td align="right">2018-12-11 12:30  </td><td align="right">  - </td><td> </td></tr>
<tr><td valign="top"> </td><td><a href="spinner-2x.gif">spinner-2x.gif</a> </td><td align="right">2018-12-11 12:59  </td><td align="right">7.4K</td><td> </td></tr>
<tr><td valign="top"> </td><td><a href="spinner.gif">spinner.gif</a> </td><td align="right">2018-12-11 12:59  </td><td align="right">3.6K</td><td> </td></tr>
<tr><td valign="top"> </td><td><a href="toggle-arrow-2x.png">toggle-arrow-2x.png</a> </td><td align="right">2018-12-11 12:29  </td><td align="right">354 </td><td> </td></tr>
<tr><td valign="top"> </td><td><a href="toggle-arrow.png">toggle-arrow.png</a> </td><td align="right">2018-12-11 12:29  </td><td align="right">289 </td><td> </td></tr>
<tr><td valign="top"> </td><td><a href="uploader-icons-2x.png">uploader-icons-2x.png</a> </td><td align="right">2018-12-11 12:29  </td><td align="right">3.5K</td><td> </td></tr>
<tr><td valign="top"> </td><td><a href="uploader-icons.png">uploader-icons.png</a> </td><td align="right">2018-12-11 12:29  </td><td align="right">1.5K</td><td> </td></tr>
<tr><td valign="top"> </td><td><a href="w-logo-blue.png">w-logo-blue.png</a> </td><td align="right">2018-12-11 12:29  </td><td align="right">3.0K</td><td> </td></tr>
<tr><td valign="top"> </td><td><a href="wlw/">wlw/</a> </td><td align="right">2018-12-11 12:30  </td><td align="right">  - </td><td> </td></tr>
<tr><td valign="top"> </td><td><a href="wpicons-2x.png">wpicons-2x.png</a> </td><td align="right">2018-12-11 12:29  </td><td align="right"> 15K</td><td> </td></tr>
<tr><td valign="top"> </td><td><a href="wpicons.png">wpicons.png</a> </td><td align="right">2018-12-11 12:29  </td><td align="right">6.9K</td><td> </td></tr>
<tr><td valign="top"> </td><td><a href="wpspin-2x.gif">wpspin-2x.gif</a> </td><td align="right">2018-12-11 12:59  </td><td align="right">8.7K</td><td> </td></tr>
<tr><td valign="top"> </td><td><a href="wpspin.gif">wpspin.gif</a> </td><td align="right">2019-04-20 13:00  </td><td align="right">2.0K</td><td> </td></tr>
<tr><td valign="top"> </td><td><a href="xit-2x.gif">xit-2x.gif</a> </td><td align="right">2018-12-11 12:29  </td><td align="right">825 </td><td> </td></tr>
<tr><td valign="top"> </td><td><a href="xit.gif">xit.gif</a> </td><td align="right">2018-12-11 12:29  </td><td align="right">181 </td><td> </td></tr>
<tr><th colspan="5"><hr/></th></tr>
</table>
</body></html>
