<!DOCTYPE HTML PUBLIC "-//W3C//DTD HTML 3.2 Final//EN">
<html>
<head>
<title>Index of /wp-content/languages</title>
</head>
<body>
<h1>Index of /wp-content/languages</h1>
<table>
<tr><th valign="top"> </th><th><a href="?C=N;O=D">Name</a></th><th><a href="?C=M;O=A">Last modified</a></th><th><a href="?C=S;O=A">Size</a></th><th><a href="?C=D;O=A">Description</a></th></tr>
<tr><th colspan="5"><hr/></th></tr>
<tr><td valign="top"> </td><td><a href="/wp-content/">Parent Directory</a> </td><td> </td><td align="right">  - </td><td> </td></tr>
<tr><td valign="top"> </td><td><a href="admin-es_CL.mo">admin-es_CL.mo</a> </td><td align="right">2020-12-12 04:44  </td><td align="right">402K</td><td> </td></tr>
<tr><td valign="top"> </td><td><a href="admin-es_CL.po">admin-es_CL.po</a> </td><td align="right">2020-12-12 04:44  </td><td align="right">551K</td><td> </td></tr>
<tr><td valign="top"> </td><td><a href="admin-network-es_CL.mo">admin-network-es_CL.mo</a> </td><td align="right">2020-12-12 04:44  </td><td align="right"> 45K</td><td> </td></tr>
<tr><td valign="top"> </td><td><a href="admin-network-es_CL.po">admin-network-es_CL.po</a> </td><td align="right">2020-12-12 04:44  </td><td align="right"> 60K</td><td> </td></tr>
<tr><td valign="top"> </td><td><a href="continents-cities-es_CL.mo">continents-cities-es..&gt;</a></td><td align="right">2020-12-12 04:44  </td><td align="right"> 20K</td><td> </td></tr>
<tr><td valign="top"> </td><td><a href="continents-cities-es_CL.po">continents-cities-es..&gt;</a></td><td align="right">2020-12-12 04:44  </td><td align="right"> 43K</td><td> </td></tr>
<tr><td valign="top"> </td><td><a href="es_CL.mo">es_CL.mo</a> </td><td align="right">2020-12-12 04:44  </td><td align="right">256K</td><td> </td></tr>
<tr><td valign="top"> </td><td><a href="es_CL.po">es_CL.po</a> </td><td align="right">2020-12-12 04:44  </td><td align="right">468K</td><td> </td></tr>
<tr><td valign="top"> </td><td><a href="plugins/">plugins/</a> </td><td align="right">2018-03-22 00:36  </td><td align="right">  - </td><td> </td></tr>
<tr><td valign="top"> </td><td><a href="themes/">themes/</a> </td><td align="right">2018-03-22 00:36  </td><td align="right">  - </td><td> </td></tr>
<tr><th colspan="5"><hr/></th></tr>
</table>
</body></html>
