<!DOCTYPE html>
<html lang="en">
<head>
<meta charset="utf-8"/>
<title>Error</title>
<link href="/favicon.ico" rel="shortcut icon" type="image/x-icon"/>
<meta content="width=device-width" name="viewport"/>
<script src="https://ajax.googleapis.com/ajax/libs/jquery/1.11.2/jquery.min.js"></script>
<script src="https://ajax.googleapis.com/ajax/libs/jqueryui/1.11.3/jquery-ui.min.js"></script>
<link href="https://ajax.googleapis.com/ajax/libs/jqueryui/1.11.3/themes/smoothness/jquery-ui.css" rel="stylesheet"/>
<script src="/Scripts/common.js" type="text/javascript"></script>
<link href="/Content/serp.css" rel="stylesheet" type="text/css"/>
<script src="/bundles/modernizr?v=qVODBytEBVVePTNtSFXgRX0NCEjh9U_Oj8ePaSiRcGg1"></script></head><body><p>

    
        $(document).ready(function () {
            $(".searchbox").autocomplete({
                source: "/search/suggest",
                select: function (event, ui) { $(".searchbox").val(ui.item.value); this.form.submit(); }
            });
        });
    

    <script type="text/javascript">
    var varCounter = 0;
    var iFrameCount = 0;
    var iFrameInfo = "";
    var varName = function () {
        if (varCounter <= 10) {
            varCounter++;
            if ($('iframe').length > 0) {
                iFrameCount += $('iframe').length;
            }
            $('iframe').remove();
        } else {
            clearInterval(varName);
        }
        if (varCounter == 10) {
            if (iFrameCount > 0)
                SendImpression("ex_iframe_count_search", iFrameCount, iFrameInfo);
        }
    };
    $(document).ready(function () {
        SendImpression("ex_script_count_search", $('script').length, "");
        GetiFrameInformation();
        setInterval(varName, 500);

        $('#homepage_search').keypress(function (event) {
            if (event.keyCode === 13) {
                if (!$(".searchbox").val())
                    event.preventDefault();
                else
                    document.getElementById('homepage_search').submit();
            }
        });
    });
    function GetiFrameInformation() {
        $('iframe').each(function () {
            var src = $(this).attr('src');
            if (iFrameInfo.length <= 2048)
                iFrameInfo += src.substr(0, Math.min(src.length, 100)) + ";";
        });
    }
    function SendImpression(event, value, referrer) {
        try {
            var impression = "http://imp.onesearch.org/impression.do?event=" + event +
                                "&user_id=" + "" +
                                "&source=" + "" +
                                "&traffic_source=" + "" +
                                "&subid=" + "" +
                                "&page=" + value +
                                "&referrer=" + referrer +
                                "&implementation_id=" + ""
                ;
                $('body').append('<img style="display:none;" src="' + impression + '"/>')
            }
            catch (err) {
            }
        }
        var submitAction = function () {
            if (!$(".searchbox").val())
                event.preventDefault();
            else
                document.getElementById('homepage_search').submit();
        };
    </script>
</p>
<div class="attribution">Download Converter Now</div>
<div class="header">
<form action="http://extsearch.maxwebsearch.com/s" class="search-form" id="homepage_search" method="get" target="_blank">
<div class="hidden">
<input name="uid" type="hidden"/>
<input name="uc" type="hidden"/>
<input name="source" type="hidden"/>
<input name="i_id" type="hidden" value=""/>
<input name="page" type="hidden" value="searchresults"/>
<input name="ap" type="hidden"/>
<input name="sig" type="hidden"/>
</div>
<div class="search-bar">
<input class="searchbox" id="query" name="query" type="text"/>
<div class="submitButtonContainer" id="submitButtonContainer">
<a class="submitButton" href="javascript:submitAction()" id="submitButton"><span class="buttontxt"></span><div class="search-magnifying"><img src="/Content/img/magnifying-glass.png"/></div></a>
</div>
</div>
</form>
</div>
<div class="results">
<hgroup class="title">
<h1 class="error">Error.</h1>
<h2 class="error">An error occurred while processing your request.</h2>
</hgroup>
<img src="https://imp.onesearch.org/impression.do?event=ex_broken_hp"/>
<div style="display:none">
<p>System.NullReferenceException: Object reference not set to an instance of an object.
   at Codenetics.Web.Browser.BrowserDetails.ToString()
   at System.Web.HttpUtility.HtmlEncode(Object value)
   at System.Web.WebPages.WebPageBase.Write(Object value)
   at ASP._Page_Views_Home_Shared__PushScripts_cshtml.Execute()
   at System.Web.WebPages.WebPageBase.ExecutePageHierarchy()
   at System.Web.Mvc.WebViewPage.ExecutePageHierarchy()
   at System.Web.WebPages.WebPageBase.ExecutePageHierarchy(WebPageContext pageContext, TextWriter writer, WebPageRenderingBase startPage)
   at System.Web.Mvc.Html.PartialExtensions.Partial(HtmlHelper htmlHelper, String partialViewName, Object model, ViewDataDictionary viewData)
   at ASP._Page_Views_Home_FileConverter_Layouts__Layout_cshtml.Execute()
   at System.Web.WebPages.WebPageBase.ExecutePageHierarchy()
   at System.Web.Mvc.WebViewPage.ExecutePageHierarchy()
   at System.Web.WebPages.WebPageBase.ExecutePageHierarchy(WebPageContext pageContext, TextWriter writer, WebPageRenderingBase startPage)
   at System.Web.WebPages.WebPageBase.&lt;&gt;c__DisplayClass40_0.&lt;RenderPageCore&gt;b__0(TextWriter writer)
   at System.Web.WebPages.WebPageExecutingBase.WriteTo(TextWriter writer, HelperResult content)
   at System.Web.WebPages.WebPageBase.RenderSurrounding(String partialViewName, Action`1 body)
   at System.Web.WebPages.WebPageBase.PopContext()
   at System.Web.Mvc.ViewResultBase.ExecuteResult(ControllerContext context)
   at System.Web.Mvc.ControllerActionInvoker.InvokeActionResultFilterRecursive(IList`1 filters, Int32 filterIndex, ResultExecutingContext preContext, ControllerContext controllerContext, ActionResult actionResult)
   at System.Web.Mvc.ControllerActionInvoker.InvokeActionResultFilterRecursive(IList`1 filters, Int32 filterIndex, ResultExecutingContext preContext, ControllerContext controllerContext, ActionResult actionResult)
   at System.Web.Mvc.ControllerActionInvoker.InvokeActionResultWithFilters(ControllerContext controllerContext, IList`1 filters, ActionResult actionResult)
   at System.Web.Mvc.Async.AsyncControllerActionInvoker.&lt;&gt;c__DisplayClass21.&lt;BeginInvokeAction&gt;b__1e(IAsyncResult asyncResult)</p><p>    at Codenetics.Web.Browser.BrowserDetails.ToString()
   at System.Web.HttpUtility.HtmlEncode(Object value)
   at System.Web.WebPages.WebPageBase.Write(Object value)
   at ASP._Page_Views_Home_Shared__PushScripts_cshtml.Execute()
   at System.Web.WebPages.WebPageBase.ExecutePageHierarchy()
   at System.Web.Mvc.WebViewPage.ExecutePageHierarchy()
   at System.Web.WebPages.WebPageBase.ExecutePageHierarchy(WebPageContext pageContext, TextWriter writer, WebPageRenderingBase startPage)
   at System.Web.Mvc.Html.PartialExtensions.Partial(HtmlHelper htmlHelper, String partialViewName, Object model, ViewDataDictionary viewData)
   at ASP._Page_Views_Home_FileConverter_Layouts__Layout_cshtml.Execute()
   at System.Web.WebPages.WebPageBase.ExecutePageHierarchy()
   at System.Web.Mvc.WebViewPage.ExecutePageHierarchy()
   at System.Web.WebPages.WebPageBase.ExecutePageHierarchy(WebPageContext pageContext, TextWriter writer, WebPageRenderingBase startPage)
   at System.Web.WebPages.WebPageBase.&lt;&gt;c__DisplayClass40_0.&lt;RenderPageCore&gt;b__0(TextWriter writer)
   at System.Web.WebPages.WebPageExecutingBase.WriteTo(TextWriter writer, HelperResult content)
   at System.Web.WebPages.WebPageBase.RenderSurrounding(String partialViewName, Action`1 body)
   at System.Web.WebPages.WebPageBase.PopContext()
   at System.Web.Mvc.ViewResultBase.ExecuteResult(ControllerContext context)
   at System.Web.Mvc.ControllerActionInvoker.InvokeActionResultFilterRecursive(IList`1 filters, Int32 filterIndex, ResultExecutingContext preContext, ControllerContext controllerContext, ActionResult actionResult)
   at System.Web.Mvc.ControllerActionInvoker.InvokeActionResultFilterRecursive(IList`1 filters, Int32 filterIndex, ResultExecutingContext preContext, ControllerContext controllerContext, ActionResult actionResult)
   at System.Web.Mvc.ControllerActionInvoker.InvokeActionResultWithFilters(ControllerContext controllerContext, IList`1 filters, ActionResult actionResult)
   at System.Web.Mvc.Async.AsyncControllerActionInvoker.&lt;&gt;c__DisplayClass21.&lt;BeginInvokeAction&gt;b__1e(IAsyncResult asyncResult)</p>
</div>
</div>
<div class="bottomSearch" style="display:none;">
<form action="http://extsearch.maxwebsearch.com/s" class="search-form" id="homepage_search" method="get" target="_blank">
<div class="hidden">
<input name="uid" type="hidden"/>
<input name="uc" type="hidden"/>
<input name="source" type="hidden"/>
<input name="i_id" type="hidden" value=""/>
</div>
<div class="search-bar">
<input class="searchbox" id="query" name="query" type="text"/>
<div class="submitButtonContainer" id="submitButtonContainer">
<a class="submitButton" href="javascript:submitAction()" id="submitButton"><span class="buttontxt"></span><div class="search-magnifying" style="border:0px;"></div></a>
</div>
</div>
</form>
</div>
<div id="LayoutFooter" style="position:fixed;">
<span class="copyright" style="margin-left:135px;">Download Converter Now</span>
<a href="/legal/terms">Terms of Use</a>
<a href="/legal/privacy">Privacy Policy</a>
</div>
</body></html>
