<!DOCTYPE html PUBLIC "-//W3C//DTD XHTML 1.0 Strict//EN" "http://www.w3.org/TR/xhtml1/DTD/xhtml1-strict.dtd">
<html lang="en" xml:lang="en" xmlns="http://www.w3.org/1999/xhtml"><head>
<title>404 — Not Found</title>
<meta content="text/html; charset=utf-8" http-equiv="Content-Type"/>
<meta content="Sorry, page not found" name="description"/>
<script src="/cdn-cgi/apps/head/3pX4vou7I7jlG3Ha6oB4WoaCkZI.js"></script><style type="text/css">
        body {font-size:14px; color:#777777; font-family:arial; text-align:center;}
        h1 {font-size:180px; color:#99A7AF; margin: 70px 0 0 0;}
        h2 {color: #DE6C5D; font-family: arial; font-size: 20px; font-weight: bold; letter-spacing: -1px; margin: -3px 0 39px;}
        p {width:320px; text-align:center; margin-left:auto;margin-right:auto; margin-top: 30px }
        div {width:320px; text-align:center; margin-left:auto;margin-right:auto;}
        a:link {color: #34536A;}
        a:visited {color: #34536A;}
        a:active {color: #34536A;}
        a:hover {color: #34536A;}
    </style>
</head>
<body>
<p><a href="http://sendpure.com/">sendpure.com</a></p>
<h1>404</h1>
<h2>Page Not Found</h2>
<div>
It seems that the page you were trying to reach does not exist anymore, or maybe it has just moved.
You can start again from the <a href="http://sendpure.com/">home</a> or go back to <a href="javascript:%20history.go(-1)">previous page</a>.
</div>
</body>
</html>
