<!DOCTYPE html>
<html class="no-js" lang="en-US">
<head>
<meta charset="utf-8"/>
<meta content="IE=edge" http-equiv="X-UA-Compatible"/>
<meta content="width=device-width, initial-scale=1" name="viewport"/>
<title>Page not found – Antelope Ban</title>
<script>
                            /* You can add more configuration options to webfontloader by previously defining the WebFontConfig with your options */
                            if ( typeof WebFontConfig === "undefined" ) {
                                WebFontConfig = new Object();
                            }
                            WebFontConfig['google'] = {families: ['Inconsolata:400,700', 'Playfair+Display:700&subset=latin']};

                            (function() {
                                var wf = document.createElement( 'script' );
                                wf.src = 'https://ajax.googleapis.com/ajax/libs/webfont/1.5.3/webfont.js';
                                wf.type = 'text/javascript';
                                wf.async = 'true';
                                var s = document.getElementsByTagName( 'script' )[0];
                                s.parentNode.insertBefore( wf, s );
                            })();
                        </script>
<link href="//s.w.org" rel="dns-prefetch"/>
<link href="https://www.antelope-ban.com/feed/" rel="alternate" title="Antelope Ban » Feed" type="application/rss+xml"/>
<link href="https://www.antelope-ban.com/comments/feed/" rel="alternate" title="Antelope Ban » Comments Feed" type="application/rss+xml"/>
<script type="text/javascript">
			window._wpemojiSettings = {"baseUrl":"https:\/\/s.w.org\/images\/core\/emoji\/12.0.0-1\/72x72\/","ext":".png","svgUrl":"https:\/\/s.w.org\/images\/core\/emoji\/12.0.0-1\/svg\/","svgExt":".svg","source":{"concatemoji":"https:\/\/www.antelope-ban.com\/wp-includes\/js\/wp-emoji-release.min.js?ver=5.3.6"}};
			!function(e,a,t){var r,n,o,i,p=a.createElement("canvas"),s=p.getContext&&p.getContext("2d");function c(e,t){var a=String.fromCharCode;s.clearRect(0,0,p.width,p.height),s.fillText(a.apply(this,e),0,0);var r=p.toDataURL();return s.clearRect(0,0,p.width,p.height),s.fillText(a.apply(this,t),0,0),r===p.toDataURL()}function l(e){if(!s||!s.fillText)return!1;switch(s.textBaseline="top",s.font="600 32px Arial",e){case"flag":return!c([127987,65039,8205,9895,65039],[127987,65039,8203,9895,65039])&&(!c([55356,56826,55356,56819],[55356,56826,8203,55356,56819])&&!c([55356,57332,56128,56423,56128,56418,56128,56421,56128,56430,56128,56423,56128,56447],[55356,57332,8203,56128,56423,8203,56128,56418,8203,56128,56421,8203,56128,56430,8203,56128,56423,8203,56128,56447]));case"emoji":return!c([55357,56424,55356,57342,8205,55358,56605,8205,55357,56424,55356,57340],[55357,56424,55356,57342,8203,55358,56605,8203,55357,56424,55356,57340])}return!1}function d(e){var t=a.createElement("script");t.src=e,t.defer=t.type="text/javascript",a.getElementsByTagName("head")[0].appendChild(t)}for(i=Array("flag","emoji"),t.supports={everything:!0,everythingExceptFlag:!0},o=0;o<i.length;o++)t.supports[i[o]]=l(i[o]),t.supports.everything=t.supports.everything&&t.supports[i[o]],"flag"!==i[o]&&(t.supports.everythingExceptFlag=t.supports.everythingExceptFlag&&t.supports[i[o]]);t.supports.everythingExceptFlag=t.supports.everythingExceptFlag&&!t.supports.flag,t.DOMReady=!1,t.readyCallback=function(){t.DOMReady=!0},t.supports.everything||(n=function(){t.readyCallback()},a.addEventListener?(a.addEventListener("DOMContentLoaded",n,!1),e.addEventListener("load",n,!1)):(e.attachEvent("onload",n),a.attachEvent("onreadystatechange",function(){"complete"===a.readyState&&t.readyCallback()})),(r=t.source||{}).concatemoji?d(r.concatemoji):r.wpemoji&&r.twemoji&&(d(r.twemoji),d(r.wpemoji)))}(window,document,window._wpemojiSettings);
		</script>
<style type="text/css">
img.wp-smiley,
img.emoji {
	display: inline !important;
	border: none !important;
	box-shadow: none !important;
	height: 1em !important;
	width: 1em !important;
	margin: 0 .07em !important;
	vertical-align: -0.1em !important;
	background: none !important;
	padding: 0 !important;
}
</style>
<link href="https://www.antelope-ban.com/wp-content/plugins/LayerSlider/static/layerslider/css/layerslider.css?ver=6.5.1" id="layerslider-css" media="all" rel="stylesheet" type="text/css"/>
<link href="https://www.antelope-ban.com/wp-includes/css/dist/block-library/style.min.css?ver=5.3.6" id="wp-block-library-css" media="all" rel="stylesheet" type="text/css"/>
<link href="https://www.antelope-ban.com/wp-content/plugins/contact-form-7/includes/css/styles.css?ver=5.1.6" id="contact-form-7-css" media="all" rel="stylesheet" type="text/css"/>
<link href="https://www.antelope-ban.com/wp-content/plugins/revslider/public/assets/css/settings.css?ver=5.4.5.1" id="rs-plugin-settings-css" media="all" rel="stylesheet" type="text/css"/>
<style id="rs-plugin-settings-inline-css" type="text/css">
#rs-demo-id {}
</style>
<link href="https://www.antelope-ban.com/wp-content/plugins/woocommerce/assets/css/woocommerce-layout.css?ver=3.4.3" id="woocommerce-layout-css" media="all" rel="stylesheet" type="text/css"/>
<link href="https://www.antelope-ban.com/wp-content/plugins/woocommerce/assets/css/woocommerce-smallscreen.css?ver=3.4.3" id="woocommerce-smallscreen-css" media="only screen and (max-width: 768px)" rel="stylesheet" type="text/css"/>
<link href="https://www.antelope-ban.com/wp-content/plugins/woocommerce/assets/css/woocommerce.css?ver=3.4.3" id="woocommerce-general-css" media="all" rel="stylesheet" type="text/css"/>
<style id="woocommerce-inline-inline-css" type="text/css">
.woocommerce form .form-row .required { visibility: visible; }
</style>
<link href="https://www.antelope-ban.com/wp-content/plugins/petal-plugin/extensions/mega-submenu/public/css/style.css?ver=1.0.0" id="mega-submenu-css" media="all" rel="stylesheet" type="text/css"/>
<link href="https://www.antelope-ban.com/wp-content/plugins/petal-plugin/extensions/smart-grid-gallery/includes/dist/sgg.min.css?ver=5.3.6" id="smart-grid-css" media="all" rel="stylesheet" type="text/css"/>
<link href="https://www.antelope-ban.com/wp-content/themes/petal/assets/css/theme-icons.css?ver=5.3.6" id="petal-theme-icons-css" media="all" rel="stylesheet" type="text/css"/>
<link href="https://www.antelope-ban.com/wp-content/plugins/js_composer/assets/lib/bower/font-awesome/css/font-awesome.min.css?ver=5.1.1" id="font-awesome-css" media="all" rel="stylesheet" type="text/css"/>
<link href="https://www.antelope-ban.com/wp-content/plugins/petal-plugin/public/css/style.css?ver=5.3.6" id="sp-style-css" media="all" rel="stylesheet" type="text/css"/>
<link href="https://www.antelope-ban.com/wp-content/themes/petal/assets/css/groundwork-responsive.css?ver=5.3.6" id="bricklayer.groundwork-css" media="all" rel="stylesheet" type="text/css"/>
<link href="https://www.antelope-ban.com/wp-content/themes/petal-child/style.css?ver=5.3.6" id="petal-style-css" media="all" rel="stylesheet" type="text/css"/>
<link href="//www.antelope-ban.com/wp-content/uploads/petal_options_style.css?ver=5.3.6" id="petal_options_style-css" media="all" rel="stylesheet" type="text/css"/>
<script type="text/javascript">
/* <![CDATA[ */
var LS_Meta = {"v":"6.5.1"};
/* ]]> */
</script>
<script data-cfasync="false" src="https://www.antelope-ban.com/wp-content/plugins/LayerSlider/static/layerslider/js/greensock.js?ver=1.19.0" type="text/javascript"></script>
<script src="https://www.antelope-ban.com/wp-includes/js/jquery/jquery.js?ver=1.12.4-wp" type="text/javascript"></script>
<script src="https://www.antelope-ban.com/wp-includes/js/jquery/jquery-migrate.min.js?ver=1.4.1" type="text/javascript"></script>
<script data-cfasync="false" src="https://www.antelope-ban.com/wp-content/plugins/LayerSlider/static/layerslider/js/layerslider.kreaturamedia.jquery.js?ver=6.5.1" type="text/javascript"></script>
<script data-cfasync="false" src="https://www.antelope-ban.com/wp-content/plugins/LayerSlider/static/layerslider/js/layerslider.transitions.js?ver=6.5.1" type="text/javascript"></script>
<script src="https://www.antelope-ban.com/wp-content/plugins/revslider/public/assets/js/jquery.themepunch.tools.min.js?ver=5.4.5.1" type="text/javascript"></script>
<script src="https://www.antelope-ban.com/wp-content/plugins/revslider/public/assets/js/jquery.themepunch.revolution.min.js?ver=5.4.5.1" type="text/javascript"></script>
<script type="text/javascript">
/* <![CDATA[ */
var wc_add_to_cart_params = {"ajax_url":"\/wp-admin\/admin-ajax.php","wc_ajax_url":"\/?wc-ajax=%%endpoint%%","i18n_view_cart":"View cart","cart_url":"https:\/\/www.antelope-ban.com","is_cart":"","cart_redirect_after_add":"no"};
/* ]]> */
</script>
<script src="https://www.antelope-ban.com/wp-content/plugins/woocommerce/assets/js/frontend/add-to-cart.min.js?ver=3.4.3" type="text/javascript"></script>
<script src="https://www.antelope-ban.com/wp-content/plugins/js_composer/assets/js/vendors/woocommerce-add-to-cart.js?ver=5.1.1" type="text/javascript"></script>
<script src="https://www.antelope-ban.com/wp-content/plugins/petal-plugin/extensions/mega-submenu/public/js/msm-main.min.js?ver=1.0.0" type="text/javascript"></script>
<script src="https://www.antelope-ban.com/wp-content/plugins/petal-plugin/extensions/smart-grid-gallery/includes/dist/sgg.min.js?ver=5.3.6" type="text/javascript"></script>
<script src="https://www.antelope-ban.com/wp-content/themes/petal/assets/js/vendor/modernizr-2.7.0.min.js" type="text/javascript"></script>
<meta content="Powered by LayerSlider 6.5.1 - Multi-Purpose, Responsive, Parallax, Mobile-Friendly Slider Plugin for WordPress." name="generator"/>
<!-- LayerSlider updates and docs at: https://layerslider.kreaturamedia.com -->
<link href="https://www.antelope-ban.com/wp-json/" rel="https://api.w.org/"/>
<link href="https://www.antelope-ban.com/xmlrpc.php?rsd" rel="EditURI" title="RSD" type="application/rsd+xml"/>
<link href="https://www.antelope-ban.com/wp-includes/wlwmanifest.xml" rel="wlwmanifest" type="application/wlwmanifest+xml"/>
<meta content="WordPress 5.3.6" name="generator"/>
<meta content="WooCommerce 3.4.3" name="generator"/>
<script>
		var petal_plugin = petal_plugin ||
			{
				data: {
					vcWidgets: {}
				}
			};
	</script>
<script>
		var wheels = wheels || {"siteName":"Antelope Ban","data":{"useScrollToTop":true,"useStickyMenu":true,"scrollToTopText":"","isAdminBarShowing":false,"initialWaypointScrollCompensation":"120","preloaderSpinner":4,"preloaderBgColor":"transparent"}};
	</script>
<style>.wh-button, .wh-button:hover {
    border-top: none;
    border-left: none;
    border-right: none;
}
.wh-slider-button:hover {
    background-color: #4975ef !important;
}
.social-icons-footer-width .vc_column-inner {
    width: 235px !important;
    margin: 0 auto;
}</style>
<script id="wh-custom-js-code">
jQuery(document).ready(function(){

});
</script>
<style>
			.header-mobile {
				display: none;
			}

			@media screen and (max-width: 880px) {

				.header-left {
					padding-left: 0;
				}
				.wh-header {
					display: none;
				}
				.header-mobile {
					display: block;
				}
			}
		</style>
<style data-type="vc_shortcodes-custom-css" type="text/css">.vc_custom_1475584164129{padding-top: 20px !important;padding-right: 24px !important;padding-bottom: 17px !important;padding-left: 134px !important;}.vc_custom_1475584198438{margin-bottom: 0px !important;margin-left: -110px !important;}.vc_custom_1475234708675{padding-left: 20px !important;}.vc_custom_1474294401385{padding-right: 20px !important;padding-left: 20px !important;}.vc_custom_1474363453852{padding-right: 20px !important;}</style><style data-type="vc_shortcodes-custom-css" type="text/css">.vc_custom_1475831883995{margin-bottom: 0px !important;padding-top: 20px !important;padding-right: 20px !important;padding-bottom: 20px !important;padding-left: 20px !important;}</style><style data-type="vc_shortcodes-custom-css" type="text/css">.vc_custom_1474967452739{background-color: #ffffff !important;}.vc_custom_1476354553443{background-color: #ffffff !important;}.vc_custom_1476190288053{margin-bottom: 0px !important;}.vc_custom_1476179752372{margin-bottom: 10px !important;}.vc_custom_1476179763803{margin-bottom: 10px !important;}.vc_custom_1476179773733{margin-bottom: 10px !important;}.vc_custom_1476179784482{margin-bottom: 10px !important;}.vc_custom_1476179794235{margin-bottom: 10px !important;}.vc_custom_1476354560230{margin-bottom: 35px !important;padding-top: 0px !important;}.vc_custom_1532649701224{margin-bottom: 0px !important;}</style><style data-type="vc_shortcodes-custom-css" type="text/css">.vc_custom_1532912732781{margin-bottom: 25px !important;}.vc_custom_1475663917467{margin-bottom: 15px !important;}.vc_custom_1476350909617{margin-top: 22px !important;margin-bottom: 30px !important;}.vc_custom_1476096481664{margin-bottom: 25px !important;}.vc_custom_1476184609016{margin-left: -65px !important;padding-left: 50% !important;}</style> <noscript><style>.woocommerce-product-gallery{ opacity: 1 !important; }</style></noscript>
<style id="breadcrumb-trail-css" type="text/css">.breadcrumbs .trail-browse,.breadcrumbs .trail-items,.breadcrumbs .trail-items li {display: inline-block;margin:0;padding: 0;border:none;background:transparent;text-indent: 0;}.breadcrumbs .trail-browse {font-size: inherit;font-style:inherit;font-weight: inherit;color: inherit;}.breadcrumbs .trail-items {list-style: none;}.trail-items li::after {content: "\002F";padding: 0 0.5em;}.trail-items li:last-of-type::after {display: none;}</style>
<meta content="Powered by Visual Composer - drag and drop page builder for WordPress." name="generator"/>
<!--[if lte IE 9]><link rel="stylesheet" type="text/css" href="https://www.antelope-ban.com/wp-content/plugins/js_composer/assets/css/vc_lte_ie9.min.css" media="screen"><![endif]--><meta content="Powered by Slider Revolution 5.4.5.1 - responsive, Mobile-Friendly Slider Plugin for WordPress with comfortable drag and drop interface." name="generator"/>
<script type="text/javascript">function setREVStartSize(e){
				try{ var i=jQuery(window).width(),t=9999,r=0,n=0,l=0,f=0,s=0,h=0;					
					if(e.responsiveLevels&&(jQuery.each(e.responsiveLevels,function(e,f){f>i&&(t=r=f,l=e),i>f&&f>r&&(r=f,n=e)}),t>r&&(l=n)),f=e.gridheight[l]||e.gridheight[0]||e.gridheight,s=e.gridwidth[l]||e.gridwidth[0]||e.gridwidth,h=i/s,h=h>1?1:h,f=Math.round(h*f),"fullscreen"==e.sliderLayout){var u=(e.c.width(),jQuery(window).height());if(void 0!=e.fullScreenOffsetContainer){var c=e.fullScreenOffsetContainer.split(",");if (c) jQuery.each(c,function(e,i){u=jQuery(i).length>0?u-jQuery(i).outerHeight(!0):u}),e.fullScreenOffset.split("%").length>1&&void 0!=e.fullScreenOffset&&e.fullScreenOffset.length>0?u-=jQuery(window).height()*parseInt(e.fullScreenOffset,0)/100:void 0!=e.fullScreenOffset&&e.fullScreenOffset.length>0&&(u-=parseInt(e.fullScreenOffset,0))}f=u}else void 0!=e.minHeight&&f<e.minHeight&&(f=e.minHeight);e.c.closest(".rev_slider_wrapper").css({height:f})					
				}catch(d){console.log("Failure at Presize of Slider:"+d)}
			};</script>
<noscript><style type="text/css"> .wpb_animate_when_almost_visible { opacity: 1; }</style></noscript></head>
<body class="error404 woocommerce-no-js header-top wpb-js-composer js-comp-ver-5.1.1 vc_responsive">
<div class="header-mobile">
<div class="vc_row wpb_row vc_row-fluid"><div class="wpb_column vc_column_container vc_col-sm-12"><div class="vc_column-inner vc_custom_1475831883995"><div class="wpb_wrapper"><div class="respmenu-wrap" id="wh-mobile-menu">
<div class="respmenu-header">
<a class="respmenu-header-logo-link" href="https://www.antelope-ban.com/">
<img alt="mobile-logo" class="respmenu-header-logo" src="http://www.antelope-ban.com/wp-content/uploads/2018/07/logo1.png"/>
</a>
<div class="respmenu-open">
<hr/>
<hr/>
<hr/>
</div>
</div>
<div class="menu-antelope-main-container"><ul class="respmenu" id="menu-antelope-main"><li class="menu-item menu-item-type-post_type menu-item-object-page menu-item-home menu-item-2946" id="menu-item-2946"><a href="https://www.antelope-ban.com/">Home</a></li>
<li class="menu-item menu-item-type-post_type menu-item-object-page menu-item-2951" id="menu-item-2951"><a href="https://www.antelope-ban.com/tires/">Tires</a></li>
<li class="menu-item menu-item-type-post_type menu-item-object-page menu-item-2954" id="menu-item-2954"><a href="https://www.antelope-ban.com/wheels/">Wheels</a></li>
<li class="menu-item menu-item-type-custom menu-item-object-custom menu-item-has-children menu-item-2955" id="menu-item-2955"><a href="#">Portfolio</a>
<div class="respmenu-submenu-toggle cbp-respmenu-more"><i class="fa fa-angle-down"></i></div>
<ul class="sub-menu">
<li class="menu-item menu-item-type-post_type menu-item-object-page menu-item-2978" id="menu-item-2978"><a href="https://www.antelope-ban.com/antelope-1/">2001-2010</a></li>
<li class="menu-item menu-item-type-post_type menu-item-object-page menu-item-3009" id="menu-item-3009"><a href="https://www.antelope-ban.com/antelope-2/">2011-2020</a></li>
</ul>
</li>
<li class="menu-item menu-item-type-custom menu-item-object-custom menu-item-has-children menu-item-2960" id="menu-item-2960"><a href="#">Tech. Section</a>
<div class="respmenu-submenu-toggle cbp-respmenu-more"><i class="fa fa-angle-down"></i></div>
<ul class="sub-menu">
<li class="menu-item menu-item-type-post_type menu-item-object-page menu-item-2967" id="menu-item-2967"><a href="https://www.antelope-ban.com/tire-tech/">Tire Tech</a></li>
<li class="menu-item menu-item-type-post_type menu-item-object-page menu-item-2975" id="menu-item-2975"><a href="https://www.antelope-ban.com/wheel-tech/">Wheel Tech</a></li>
</ul>
</li>
</ul></div></div></div></div></div></div> </div>
<div class="wh-preloader"></div>
<div class="cbp-row wh-header wh-sticky-header-enabled">
<div class="cbp-container">
<div class="vc_row wpb_row vc_row-fluid" data-vc-full-width="true" data-vc-full-width-init="false" data-vc-stretch-content="true"><div class="wpb_column vc_column_container vc_col-sm-12"><div class="vc_column-inner vc_custom_1475584164129"><div class="wpb_wrapper">
<div class="wpb_single_image wpb_content_element vc_align_center vc_custom_1475584198438 wh-absolute">
<figure class="wpb_wrapper vc_figure">
<a href="https://www.antelope-ban.com/"><img alt="logo" class="vc_img-placeholder vc_single_image-img" src="http://www.antelope-ban.com/wp-content/uploads/2018/07/antelopeban.png"/></a>
</figure>
</div>
<div class="wh-quick-sidebar-toggler-wrapper vc_pull-right vc_custom_1475234708675 ">
<a class="wh-quick-sidebar-toggler" href="#">
<i class="icon-menu"></i>
</a>
</div>
<div class="wh-quick-sidebar" style="width:365px;right:-365px;">
<span class="wh-close"><i class="icon-close-1"></i></span>
<div class="vc_row wpb_row vc_row-fluid"><div class="wpb_column vc_column_container vc_col-sm-12"><div class="vc_column-inner "><div class="wpb_wrapper">
<div class="wpb_single_image wpb_content_element vc_align_center vc_custom_1532912732781">
<figure class="wpb_wrapper vc_figure">
<div class="vc_single_image-wrapper vc_box_border_grey"><img alt="" class="vc_single_image-img attachment-full" height="52" src="https://www.antelope-ban.com/wp-content/uploads/2018/07/logo1.png" width="150"/></div>
</figure>
</div>
<div class="vc_separator wpb_content_element vc_separator_align_center vc_sep_width_10 vc_sep_border_width_3 vc_sep_pos_align_center vc_separator_no_text vc_sep_color_blue vc_custom_1475663917467 vc_custom_1475663917467"><span class="vc_sep_holder vc_sep_holder_l"><span class="vc_sep_line"></span></span><span class="vc_sep_holder vc_sep_holder_r"><span class="vc_sep_line"></span></span>
</div><p class="vc_custom_heading" style="font-size: 14px;text-align: center">Wheel &amp; Tire Conversion Specialist</p><div class="vc_separator wpb_content_element vc_separator_align_center vc_sep_width_10 vc_sep_border_width_3 vc_sep_pos_align_center vc_separator_no_text vc_sep_color_blue vc_custom_1476096481664 vc_custom_1476096481664"><span class="vc_sep_holder vc_sep_holder_l"><span class="vc_sep_line"></span></span><span class="vc_sep_holder vc_sep_holder_r"><span class="vc_sep_line"></span></span>
</div><div class="vc_custom_heading" style="font-size: 15px;color: #ffffff;text-align: center">KEEP CONNECTED</div></div></div></div></div><div class="vc_row wpb_row vc_row-fluid"><div class="wh-quick-sidebar-social-icons wpb_column vc_column_container vc_col-sm-12"><div class="vc_column-inner vc_custom_1476184609016"><div class="wpb_wrapper"><div class="vc_icon_element vc_icon_element-outer vc_icon_element-align-left">
<div class="vc_icon_element-inner vc_icon_element-color-custom vc_icon_element-size-xs vc_icon_element-style- vc_icon_element-background-color-grey">
<span class="vc_icon_element-icon fa fa-facebook" style="color:#8a8787 !important"></span></div>
</div>
<div class="vc_icon_element vc_icon_element-outer vc_icon_element-align-left">
<div class="vc_icon_element-inner vc_icon_element-color-custom vc_icon_element-size-xs vc_icon_element-style- vc_icon_element-background-color-grey">
<span class="vc_icon_element-icon fa fa-twitter" style="color:#8a8787 !important"></span></div>
</div>
<div class="vc_icon_element vc_icon_element-outer vc_icon_element-align-left">
<div class="vc_icon_element-inner vc_icon_element-color-custom vc_icon_element-size-xs vc_icon_element-style- vc_icon_element-background-color-grey">
<span class="vc_icon_element-icon fa fa-pinterest-p" style="color:#8a8787 !important"></span></div>
</div>
<div class="vc_icon_element vc_icon_element-outer vc_icon_element-align-left">
<div class="vc_icon_element-inner vc_icon_element-color-custom vc_icon_element-size-xs vc_icon_element-style- vc_icon_element-background-color-grey">
<span class="vc_icon_element-icon fa fa-google-plus" style="color:#8a8787 !important"></span></div>
</div>
</div></div></div></div> </div>
<script>
				var wheels = wheels || {};
				wheels.data = wheels.data || {};
				wheels.data.quickSidebar = {
					position: "right"				};

			</script>
<div class="wh-search-toggler-wrapper vc_pull-right vc_custom_1474294401385 ">
<a class="c-btn-icon wh-search-toggler" href="#">
<i class="icon-loupe-vert"></i>
</a>
<form action="https://www.antelope-ban.com/" class="wh-quick-search">
<input autocomplete="off" class="form-control" name="s" placeholder="Type to search..." type="text" value=""/>
<span class="icon-close-1"></span>
</form>
</div>
<div class="wh-minicart-wrapper vc_pull-right vc_custom_1474363453852 ">
<div class="wh-minicart">
<i class="icon-square-hand-bag"></i>
<span class="count">0</span>
<div id="wh-minicart-top">
<p class="woocommerce-mini-cart__empty-message">No products in the cart.</p>
</div>
</div>
</div>
<div class="cbp-container wh-menu-center msm-wrap" id="cbp-menu-main"><ul class="sf-menu wh-menu-main" id="menu-antelope-main-1"><li class="menu-item menu-item-type-post_type menu-item-object-page menu-item-home menu-item-2946"><a href="https://www.antelope-ban.com/">Home</a></li>
<li class="menu-item menu-item-type-post_type menu-item-object-page menu-item-2951"><a href="https://www.antelope-ban.com/tires/">Tires</a></li>
<li class="menu-item menu-item-type-post_type menu-item-object-page menu-item-2954"><a href="https://www.antelope-ban.com/wheels/">Wheels</a></li>
<li class="menu-item menu-item-type-custom menu-item-object-custom menu-item-has-children menu-item-2955"><a href="#">Portfolio</a>
<ul class="sub-menu">
<li class="menu-item menu-item-type-post_type menu-item-object-page menu-item-2978"><a href="https://www.antelope-ban.com/antelope-1/">2001-2010</a></li>
<li class="menu-item menu-item-type-post_type menu-item-object-page menu-item-3009"><a href="https://www.antelope-ban.com/antelope-2/">2011-2020</a></li>
</ul>
</li>
<li class="menu-item menu-item-type-custom menu-item-object-custom menu-item-has-children menu-item-2960"><a href="#">Tech. Section</a>
<ul class="sub-menu">
<li class="menu-item menu-item-type-post_type menu-item-object-page menu-item-2967"><a href="https://www.antelope-ban.com/tire-tech/">Tire Tech</a></li>
<li class="menu-item menu-item-type-post_type menu-item-object-page menu-item-2975"><a href="https://www.antelope-ban.com/wheel-tech/">Wheel Tech</a></li>
</ul>
</li>
</ul></div></div></div></div></div><div class="vc_row-full-width vc_clearfix"></div> </div>
</div>
<div class="cbp-row wh-page-title-bar">
<div class="cbp-container">
<div class="one whole wh-padding wh-page-title-wrapper">
<h1 class="page-title">Not Found</h1>
</div>
</div>
</div>
<div class="cbp-row wh-content">
<div class="cbp-container">
<div class="double-padded">
<h1 class="entry-title">This is somewhat embarrassing, isn’t it?</h1>
<p>It seems we can’t find what you’re looking for. Perhaps searching can help.</p>
<form action="https://www.antelope-ban.com/" class="search-form form-inline" method="get" role="search">
<input class="search-field" name="s" placeholder="Search" type="search" value=""/>
<label class="hidden">Search for:</label>
<button class="search-submit" type="submit">Search</button>
</form>
</div>
</div>
</div>
<div class="cbp-row wh-footer">
<div class="cbp-container wh-padding">
<div class="vc_row wpb_row vc_row-fluid vc_custom_1474967452739 vc_row-has-fill"><div class="wh-social-icons social-icons-footer-width wpb_column vc_column_container vc_col-sm-12"><div class="vc_column-inner vc_custom_1476190288053"><div class="wpb_wrapper"><div class="vc_icon_element vc_icon_element-outer vc_custom_1476179752372 vc_icon_element-align-left">
<div class="vc_icon_element-inner vc_icon_element-color-black vc_icon_element-size-xs vc_icon_element-style- vc_icon_element-background-color-grey">
<span class="vc_icon_element-icon fa fa-facebook"></span></div>
</div>
<div class="vc_icon_element vc_icon_element-outer vc_custom_1476179763803 vc_icon_element-align-left">
<div class="vc_icon_element-inner vc_icon_element-color-black vc_icon_element-size-xs vc_icon_element-style- vc_icon_element-background-color-grey">
<span class="vc_icon_element-icon fa fa-twitter"></span></div>
</div>
<div class="vc_icon_element vc_icon_element-outer vc_custom_1476179773733 vc_icon_element-align-left">
<div class="vc_icon_element-inner vc_icon_element-color-black vc_icon_element-size-xs vc_icon_element-style- vc_icon_element-background-color-grey">
<span class="vc_icon_element-icon fa fa-behance"></span></div>
</div>
<div class="vc_icon_element vc_icon_element-outer vc_custom_1476179784482 vc_icon_element-align-left">
<div class="vc_icon_element-inner vc_icon_element-color-black vc_icon_element-size-xs vc_icon_element-style- vc_icon_element-background-color-grey">
<span class="vc_icon_element-icon fa fa-linkedin"></span></div>
</div>
<div class="vc_icon_element vc_icon_element-outer vc_custom_1476179794235 vc_icon_element-align-left">
<div class="vc_icon_element-inner vc_icon_element-color-black vc_icon_element-size-xs vc_icon_element-style- vc_icon_element-background-color-grey">
<span class="vc_icon_element-icon fa fa-pinterest"></span></div>
</div>
</div></div></div></div><div class="vc_row wpb_row vc_row-fluid vc_custom_1476354553443 vc_row-has-fill"><div class="wpb_column vc_column_container vc_col-sm-12"><div class="vc_column-inner vc_custom_1476354560230"><div class="wpb_wrapper"><p class="vc_custom_heading vc_custom_1532649701224" style="font-size: 12px;text-align: center">© Antelope Ban  •Jl. Pahlawan No.118 Bogor
Jawa Barat-16710
Indonesia • Tel: +62-251 8323596
</p><p class="vc_custom_heading" style="font-size: 12px;text-align: center">Copyright © 2001 Antelope Ban.</p></div></div></div></div> </div>
</div>
<script type="text/javascript">
		var c = document.body.className;
		c = c.replace(/woocommerce-no-js/, 'woocommerce-js');
		document.body.className = c;
	</script>
<link href="https://www.antelope-ban.com/wp-content/plugins/js_composer/assets/css/js_composer.min.css?ver=5.1.1" id="js_composer_front-css" media="all" rel="stylesheet" type="text/css"/>
<script type="text/javascript">
/* <![CDATA[ */
var wpcf7 = {"apiSettings":{"root":"https:\/\/www.antelope-ban.com\/wp-json\/contact-form-7\/v1","namespace":"contact-form-7\/v1"}};
/* ]]> */
</script>
<script src="https://www.antelope-ban.com/wp-content/plugins/contact-form-7/includes/js/scripts.js?ver=5.1.6" type="text/javascript"></script>
<script src="https://www.antelope-ban.com/wp-content/plugins/woocommerce/assets/js/jquery-blockui/jquery.blockUI.min.js?ver=2.70" type="text/javascript"></script>
<script src="https://www.antelope-ban.com/wp-content/plugins/woocommerce/assets/js/js-cookie/js.cookie.min.js?ver=2.1.4" type="text/javascript"></script>
<script type="text/javascript">
/* <![CDATA[ */
var woocommerce_params = {"ajax_url":"\/wp-admin\/admin-ajax.php","wc_ajax_url":"\/?wc-ajax=%%endpoint%%"};
/* ]]> */
</script>
<script src="https://www.antelope-ban.com/wp-content/plugins/woocommerce/assets/js/frontend/woocommerce.min.js?ver=3.4.3" type="text/javascript"></script>
<script type="text/javascript">
/* <![CDATA[ */
var wc_cart_fragments_params = {"ajax_url":"\/wp-admin\/admin-ajax.php","wc_ajax_url":"\/?wc-ajax=%%endpoint%%","cart_hash_key":"wc_cart_hash_53aac7af014b0391dfb6e2290df7c3eb","fragment_name":"wc_fragments_53aac7af014b0391dfb6e2290df7c3eb"};
/* ]]> */
</script>
<script src="https://www.antelope-ban.com/wp-content/plugins/woocommerce/assets/js/frontend/cart-fragments.min.js?ver=3.4.3" type="text/javascript"></script>
<script src="https://www.antelope-ban.com/wp-content/themes/petal/assets/js/wheels-plugins.min.js" type="text/javascript"></script>
<script src="https://www.antelope-ban.com/wp-content/themes/petal/assets/js/wheels-main.min.js" type="text/javascript"></script>
<script src="https://www.antelope-ban.com/wp-includes/js/wp-embed.min.js?ver=5.3.6" type="text/javascript"></script>
<script src="https://www.antelope-ban.com/wp-content/plugins/js_composer/assets/js/dist/js_composer_front.min.js?ver=5.1.1" type="text/javascript"></script>
</body></html><html><p> –&gt;
</p></html>