<html>
<head>
<meta content="0; url=https://www.anti-scam.de/cgi-bin/yabb2/YaBB.pl" http-equiv="refresh"/>
</head>
<body>
<a href="https://www.anti-scam.de/cgi-bin/yabb2/YaBB.pl"><font size="+3">Go to <b>ANTI-SCAM</b></font> <b>©</b>
</a>
</body>
</html>
