<!DOCTYPE html>
<html lang="en">
<head>
<meta charset="utf-8"/>
<meta content="IE=edge" http-equiv="X-UA-Compatible"/>
<meta content="no-transform" http-equiv="Cache-control"/>
<title>404 Error</title>
<link href="css/style.css" rel="stylesheet" type="text/css"/>
</head>
<body>
<!-- -->
<h1 style="text-align: center;font-size: 100px;padding: 100px 0;float: left;width: 100%;">404 Error<br/><a href="/" style="font-size: 16px;">Go back to home page</a></h1>
<!-- -->
</body>
</html>