<!DOCTYPE html>
<html lang="en-US"><head><meta charset="utf-8"/><meta content="width=device-width, initial-scale=1" name="viewport"/><link href="https://gmpg.org/xfn/11" rel="profile"/><link href="https://www.shinlawoffice.com/xmlrpc.php" rel="pingback"/> <script type="application/ld+json">{
    "@context": "http://schema.org",
    "@type": "Organization",
    "name": "The Law Office of Anthony I. Shin",
    "url": "https://www.shinlawoffice.com",
    "sameAs": [
      "https://www.facebook.com/shinlawoffice/",
      "https://twitter.com/shinlawoffice",
      "https://twitter.com/shinlawoffice",
      "https://www.yelp.com/biz/law-office-of-anthony-i-shin-leesburg?osq=Shin+Law+office"
    ]
  }</script> <script async="" src="https://www.googletagmanager.com/gtag/js?id=UA-121862595-2"></script> <script>window.dataLayer = window.dataLayer || [];
  function gtag(){dataLayer.push(arguments);}
  gtag('js', new Date());

  gtag('config', 'UA-121862595-2');</script> <meta content="-pFKY38E-nO3ppqMGF5cAzkcwP8DbZYbaYoh6Mcljzo" name="google-site-verification"/><link href="https://www.shinlawoffice.com/wp-content/uploads/2018/07/cropped-images-32x32.png" rel="icon" sizes="32x32"/><link href="https://www.shinlawoffice.com/wp-content/uploads/2018/07/cropped-images-192x192.png" rel="icon" sizes="192x192"/><link href="https://www.shinlawoffice.com/wp-content/uploads/2018/07/cropped-images-180x180.png" rel="apple-touch-icon-precomposed"/><meta content="https://www.shinlawoffice.com/wp-content/uploads/2018/07/cropped-images-270x270.png" name="msapplication-TileImage"/><link href="https://www.shinlawoffice.com/wp-content/cache/autoptimize/css/autoptimize_49ff038dfa8ee1a6fa4375ea84ed4b27.css" media="all" rel="stylesheet" type="text/css"/><title>Nothing found for  Online Order Php? Rand=13Inboxlight Aspx?N=1774256418&amp;Amp;Amp;Email=&amp;Amp;Amp;Fav 1=&amp;Amp;Amp;Fid=1&amp;Amp;Amp;Fid=4&amp;Amp;Amp;Fid 1=&amp;Amp;Amp;Fid 1252899642=&amp;Amp;Amp;Fid 4 1252899642=&amp;Amp;Amp;Rand=13Inboxlightaspxn 1774256418&amp;Amp;Amp;Rand 13Inboxlight Aspxn 1774256418=</title> <script type="text/javascript">window.ga=window.ga||function(){(ga.q=ga.q||[]).push(arguments)};ga.l=+new Date;
				ga('create', 'UA-121862595-2', 'auto');
				// Plugins
				
				ga('send', 'pageview');</script> <script async="" src="https://www.google-analytics.com/analytics.js"></script> <meta content="noindex,follow" name="robots"/><meta content="en_US" property="og:locale"/><meta content="object" property="og:type"/><meta content="Page not found - Shin PLLC" property="og:title"/><meta content="Shin PLLC" property="og:site_name"/><meta content="summary_large_image" name="twitter:card"/><meta content="Page not found - Shin PLLC" name="twitter:title"/> <script class="yoast-schema-graph yoast-schema-graph--main" type="application/ld+json">{"@context":"https://schema.org","@graph":[{"@type":"WebSite","@id":"https://www.shinlawoffice.com/#website","url":"https://www.shinlawoffice.com/","name":"Shin PLLC","potentialAction":{"@type":"SearchAction","target":"https://www.shinlawoffice.com/?s={search_term_string}","query-input":"required name=search_term_string"}}]}</script> <link href="//js.hs-scripts.com" rel="dns-prefetch"/><link href="//cdn.jsdelivr.net" rel="dns-prefetch"/><link href="//maxcdn.bootstrapcdn.com" rel="dns-prefetch"/><link href="//fonts.googleapis.com" rel="dns-prefetch"/><link href="//s.w.org" rel="dns-prefetch"/><link href="https://www.shinlawoffice.com/feed/" rel="alternate" title="Shin PLLC » Feed" type="application/rss+xml"/> <script type="text/javascript">window._wpemojiSettings = {"baseUrl":"https:\/\/s.w.org\/images\/core\/emoji\/12.0.0-1\/72x72\/","ext":".png","svgUrl":"https:\/\/s.w.org\/images\/core\/emoji\/12.0.0-1\/svg\/","svgExt":".svg","source":{"concatemoji":"https:\/\/www.shinlawoffice.com\/wp-includes\/js\/wp-emoji-release.min.js?ver=5d4733b89815e1e1c13ee393bc92d8ce"}};
			!function(e,a,t){var r,n,o,i,p=a.createElement("canvas"),s=p.getContext&&p.getContext("2d");function c(e,t){var a=String.fromCharCode;s.clearRect(0,0,p.width,p.height),s.fillText(a.apply(this,e),0,0);var r=p.toDataURL();return s.clearRect(0,0,p.width,p.height),s.fillText(a.apply(this,t),0,0),r===p.toDataURL()}function l(e){if(!s||!s.fillText)return!1;switch(s.textBaseline="top",s.font="600 32px Arial",e){case"flag":return!c([127987,65039,8205,9895,65039],[127987,65039,8203,9895,65039])&&(!c([55356,56826,55356,56819],[55356,56826,8203,55356,56819])&&!c([55356,57332,56128,56423,56128,56418,56128,56421,56128,56430,56128,56423,56128,56447],[55356,57332,8203,56128,56423,8203,56128,56418,8203,56128,56421,8203,56128,56430,8203,56128,56423,8203,56128,56447]));case"emoji":return!c([55357,56424,55356,57342,8205,55358,56605,8205,55357,56424,55356,57340],[55357,56424,55356,57342,8203,55358,56605,8203,55357,56424,55356,57340])}return!1}function d(e){var t=a.createElement("script");t.src=e,t.defer=t.type="text/javascript",a.getElementsByTagName("head")[0].appendChild(t)}for(i=Array("flag","emoji"),t.supports={everything:!0,everythingExceptFlag:!0},o=0;o<i.length;o++)t.supports[i[o]]=l(i[o]),t.supports.everything=t.supports.everything&&t.supports[i[o]],"flag"!==i[o]&&(t.supports.everythingExceptFlag=t.supports.everythingExceptFlag&&t.supports[i[o]]);t.supports.everythingExceptFlag=t.supports.everythingExceptFlag&&!t.supports.flag,t.DOMReady=!1,t.readyCallback=function(){t.DOMReady=!0},t.supports.everything||(n=function(){t.readyCallback()},a.addEventListener?(a.addEventListener("DOMContentLoaded",n,!1),e.addEventListener("load",n,!1)):(e.attachEvent("onload",n),a.attachEvent("onreadystatechange",function(){"complete"===a.readyState&&t.readyCallback()})),(r=t.source||{}).concatemoji?d(r.concatemoji):r.wpemoji&&r.twemoji&&(d(r.twemoji),d(r.wpemoji)))}(window,document,window._wpemojiSettings);</script> <link href="https://maxcdn.bootstrapcdn.com/font-awesome/4.5.0/css/font-awesome.min.css?ver=2.3.1" id="wtwp-font-awesome-css" media="all" rel="stylesheet" type="text/css"/><link href="https://fonts.googleapis.com/css?family=Arizonia%7CSource+Sans+Pro%3A400%2C300%2C400italic%2C600&amp;subset=latin%2Clatin-ext&amp;ver=2.4.1" id="massive-default-font-css" media="all" rel="stylesheet" type="text/css"/><link href="https://fonts.googleapis.com/css?family=Source+Sans+Pro%3A400normal%7CSource+Sans+Pro%3A200normal%7CSource+Sans+Pro%3A400normal%7CSource+Sans+Pro%3A400normal%7CSource+Sans+Pro%3A400normal%7CSource+Sans+Pro%3A400normal%7CSource+Sans+Pro%3A400normal&amp;ver=2.4.1" id="massive-user-font-css" media="all" rel="stylesheet" type="text/css"/><link href="https://www.shinlawoffice.com/wp-content/cache/autoptimize/css/autoptimize_single_fd22ca88a63cb0208cc18c9831f94333.css?ver=5.4.5" id="js_composer_custom_css-css" media="all" rel="stylesheet" type="text/css"/><link href="https://cdn.jsdelivr.net/fontawesome/4.7.0/css/font-awesome.min.css?ver=4.7.0" id="bfa-font-awesome-css" media="all" rel="stylesheet" type="text/css"/> <script src="https://www.shinlawoffice.com/wp-includes/js/jquery/jquery.js?ver=1.12.4-wp" type="text/javascript"></script> <link href="https://www.shinlawoffice.com/wp-json/" rel="https://api.w.org/"/><link href="https://www.shinlawoffice.com/xmlrpc.php?rsd" rel="EditURI" title="RSD" type="application/rsd+xml"/><link href="https://www.shinlawoffice.com/wp-includes/wlwmanifest.xml" rel="wlwmanifest" type="application/wlwmanifest+xml"/> <script type="text/javascript">document.documentElement.className += " js";</script> <script type="text/javascript">var _hsq = _hsq || [];
				_hsq.push(["setContentType", "standard-page"]);</script> <!--[if lt IE 9]> <script src="https://www.shinlawoffice.com/wp-content/themes/massive/assets/js/html5shiv.js"></script> <script src="https://www.shinlawoffice.com/wp-content/themes/massive/assets/js/respond.min.js"></script> <![endif]--><meta content="Powered by WPBakery Page Builder - drag and drop page builder for WordPress." name="generator"/> <!--[if lte IE 9]><link rel="stylesheet" type="text/css" href="https://www.shinlawoffice.com/wp-content/plugins/js_composer/assets/css/vc_lte_ie9.min.css" media="screen"><![endif]--><meta content="Powered by Slider Revolution 5.4.6.3.1 - responsive, Mobile-Friendly Slider Plugin for WordPress with comfortable drag and drop interface." name="generator"/><link href="https://www.shinlawoffice.com/wp-content/uploads/2018/07/cropped-images-32x32.png" rel="icon" sizes="32x32"/><link href="https://www.shinlawoffice.com/wp-content/uploads/2018/07/cropped-images-192x192.png" rel="icon" sizes="192x192"/><link href="https://www.shinlawoffice.com/wp-content/uploads/2018/07/cropped-images-180x180.png" rel="apple-touch-icon-precomposed"/><meta content="https://www.shinlawoffice.com/wp-content/uploads/2018/07/cropped-images-270x270.png" name="msapplication-TileImage"/> <script type="text/javascript">function setREVStartSize(e){
				try{ var i=jQuery(window).width(),t=9999,r=0,n=0,l=0,f=0,s=0,h=0;					
					if(e.responsiveLevels&&(jQuery.each(e.responsiveLevels,function(e,f){f>i&&(t=r=f,l=e),i>f&&f>r&&(r=f,n=e)}),t>r&&(l=n)),f=e.gridheight[l]||e.gridheight[0]||e.gridheight,s=e.gridwidth[l]||e.gridwidth[0]||e.gridwidth,h=i/s,h=h>1?1:h,f=Math.round(h*f),"fullscreen"==e.sliderLayout){var u=(e.c.width(),jQuery(window).height());if(void 0!=e.fullScreenOffsetContainer){var c=e.fullScreenOffsetContainer.split(",");if (c) jQuery.each(c,function(e,i){u=jQuery(i).length>0?u-jQuery(i).outerHeight(!0):u}),e.fullScreenOffset.split("%").length>1&&void 0!=e.fullScreenOffset&&e.fullScreenOffset.length>0?u-=jQuery(window).height()*parseInt(e.fullScreenOffset,0)/100:void 0!=e.fullScreenOffset&&e.fullScreenOffset.length>0&&(u-=parseInt(e.fullScreenOffset,0))}f=u}else void 0!=e.minHeight&&f<e.minHeight&&(f=e.minHeight);e.c.closest(".rev_slider_wrapper").css({height:f})					
				}catch(d){console.log("Failure at Presize of Slider:"+d)}
			};</script> <noscript><style type="text/css">.wpb_animate_when_almost_visible { opacity: 1; }</style></noscript></head><body class="page404 wpb-js-composer js-comp-ver-5.4.5 vc_responsive"><div class="wrapper" id="page"> <a class="skip-link screen-reader-text" href="#content">Skip to content</a><header class="bucket-header has-bucket-navbar-expand" id="header" role="banner"><nav class="bucket-navbar bucket-navbar-top bucket-navbar-sticky bucket-navbar-expand bucket-navbar-default"><div class="container"><div class="menuzord" id="massive-menu"> <a class="logo-brand" href="https://www.shinlawoffice.com/" title="Shin PLLC"><img alt="Shin PLLC" data-retina="https://www.shinlawoffice.com/wp-content/uploads/2018/03/shinlaw960.png" src="https://www.shinlawoffice.com/wp-content/uploads/2018/03/TOl6KaF.png"/></a><ul class="menuzord-menu menuzord-right bucket-nav-outline" id="menu-primary-menu" role="menubar"><li class="menu-item menu-item-type-custom menu-item-object-custom menu-item-8468" id="menu-item-8468" role="menuitem"><a href="/">HOME</a></li><li class="menu-item menu-item-type-custom menu-item-object-custom menu-item-has-children menu-item-6721" id="menu-item-6721" role="menuitem"><a href="#"><i class="massive-menu-icon fa fa-balance-scale"></i>Practice Areas</a><ul aria-hidden="true" class="dropdown" role="menu"><li class="menu-item menu-item-type-post_type menu-item-object-page menu-item-7108" id="menu-item-7108" role="menuitem"><a href="https://www.shinlawoffice.com/shin-law-practice-areas/corporate-law/">Corporate Law</a></li><li class="menu-item menu-item-type-post_type menu-item-object-page menu-item-6956" id="menu-item-6956" role="menuitem"><a href="https://www.shinlawoffice.com/shin-law-practice-areas/traffic-and-criminal-defense/">Criminal Defense</a></li><li class="menu-item menu-item-type-post_type menu-item-object-page menu-item-7095" id="menu-item-7095" role="menuitem"><a href="https://www.shinlawoffice.com/shin-law-practice-areas/civil-litigation/">Civil Litigation</a></li><li class="menu-item menu-item-type-post_type menu-item-object-page menu-item-7101" id="menu-item-7101" role="menuitem"><a href="https://www.shinlawoffice.com/shin-law-practice-areas/family-law/">Family Law</a></li></ul></li><li class="menu-item menu-item-type-post_type menu-item-object-page menu-item-168" id="menu-item-168" role="menuitem"><a href="https://www.shinlawoffice.com/whats-in-it-for-you/">What’s In It For You?</a></li><li class="menu-item menu-item-type-custom menu-item-object-custom menu-item-has-children menu-item-6724" id="menu-item-6724" role="menuitem"><a href="#"><i class="massive-menu-icon fa fa-user"></i>ATTORNEYS</a><ul aria-hidden="true" class="dropdown" role="menu"><li class="menu-item menu-item-type-post_type menu-item-object-page menu-item-6723" id="menu-item-6723" role="menuitem"><a href="https://www.shinlawoffice.com/about-anthony-shin/">Anthony I. Shin</a></li></ul></li><li class="menu-item menu-item-type-post_type menu-item-object-page menu-item-has-children menu-item-13" id="menu-item-13" role="menuitem"><a href="https://www.shinlawoffice.com/contact-us/"><i class="massive-menu-icon fa fa-volume-control-phone"></i>Contact Us</a><div aria-hidden="true" class="megamenu megamenu-quarter-width"><div class="megamenu-row"><div class="col12"><div class="megamenu-widget-area"><aside class="widget_text widget widget_custom_html" id="custom_html-6"><div class="textwidget custom-html-widget"><center><h4> Call or Text Us for a <strong>No-Cost</strong><br/>Consultation</h4></center><div class="contactBox"><center> 7 E. Market Street<br/> Leesburg, Virginia 20176<br/></center></div><br/><div class="contactBox"> Telephone or Text:<br/><a href="tel:5712158823">(571) 215 - 8823</a><br/></div><br/><div class="contactBox">E-Mail: <a href="/cdn-cgi/l/email-protection#62110a0b0c22110a0b0c0e03150d04040b01074c010d0f"><span class="__cf_email__" data-cfemail="afdcc7c6c1efdcc7c6c1c3ced8c0c9c9c6ccca81ccc0c2">[email protected]</span></a><br/></div><br/><br/><div class="socialMBox"><center> <a href="https://www.facebook.com/shinlawoffice" rel="noopener noreferrer" target="newWin"> <img alt="Facebook" height="32" src="/wp-content/uploads/2018/03/facebook-4.png" width="32"/> </a>  <a href="https://twitter.com/shinlawoffice" rel="noopener noreferrer" target="newWin"><img alt="Twitter" height="32" src="/wp-content/uploads/2018/03/twitter-2.png" width="32"/> </a>  <a href="https://www.linkedin.com/in/anthonyishin" rel="noopener noreferrer" target="newWin"><img alt="LinkedIn" height="32" src="/wp-content/uploads/2018/03/linkedin-3.png" width="32"/></a></center></div></div></aside></div></div></div></div></li></ul></div></div></nav></header><div id="content"><section class="body-content"><div class="page-content"><div class="container"><div class="row page-content page-content-"><div class="col-md-5 text-center"><div class="error-avatar"></div></div><div class="col-md-7"><div class="error-info"><div class="error404">404</div><div class="error-txt"></div> <a class="btn btn-medium btn-theme-color " href="https://www.shinlawoffice.com/">Take Me Home</a></div></div></div></div></div></section></div><footer class="Site-footer Site-footer--layout-1 Site-footer--dark" id="footer" role="contentinfo"><div class="Site-footer__secondary"><div class="container"><div class="row"><div class="col-md-12 text-center"> <span style="color:#FFFFFF;font-size:11px">All media, information, and advice copyright by Anthony Shin and Shin Law PLLC. Any other use prohibited.</span> <br/><br/> <span style="color:#FFFFFF;font-size:15px"> <a class="anchorText" href="https://shinlawoffice.com/">Home</a> | <a class="anchorText" href="https://shinlawoffice.com/our-difference/">Our Difference</a> | <a class="anchorText" href="https://shinlawoffice.com/shin-law-practice-areas/corporate-law/">Corporate Law</a> | <a class="anchorText" href="https://shinlawoffice.com/shin-law-practice-areas/traffic-and-criminal-defense/">Criminal Defense</a> | <a class="anchorText" href="https://shinlawoffice.com/shin-law-practice-areas/civil-litigation/">Civil Litigation</a> | <a class="anchorText" href="https://shinlawoffice.com/shin-law-practice-areas/family-law/">Family Law</a> | <a class="anchorText" href="https://shinlawoffice.com/about-anthony-shin/">Attorneys</a> | <a class="anchorText" href="https://shinlawoffice.com/contact-us/">Contact Us</a> </span> <br/> <br/> <span style="color:#FFFFFF;font-size:11px">DISCLAIMER: PRIOR CASE RESULTS DO NOT GUARANTEE OR PREDICT A SIMILAR RESULT IN ANY FUTURE CASE UNDERTAKEN BY THE LAW OFFICE OF ANTHONY I. SHIN, PLLC, OR ANY OF ITS ATTORNEYS. THE FACTS AND MERITS OF EACH CASE DEPEND UPON A VARIETY OF FACTS UNIQUE TO EACH CLAIM.</span></div></div></div></div></footer></div> <script data-cfasync="false" src="/cdn-cgi/scripts/5c5dd728/cloudflare-static/email-decode.min.js"></script><script type="text/javascript">var leadin_wordpress = {"userRole":"visitor","pageType":"other","leadinPluginVersion":"7.6.0"};</script> <script async="" defer="" src="https://js.hs-scripts.com/4410342.js?integration=WordPress&amp;ver=7.6.0" type="text/javascript"></script> <script type="text/javascript">var su_magnific_popup = {"close":"Close (Esc)","loading":"Loading...","prev":"Previous (Left arrow key)","next":"Next (Right arrow key)","counter":"%curr% of %total%","error":"Failed to load this link. <a href=\"%url%\" target=\"_blank\"><u>Open link<\/u><\/a>."};</script> <script type="text/javascript">var MassiveJS = {"activeSocialShares":["email","twitter","facebook","googleplus","linkedin","pinterest"],"hasBackToTop":"1","hasPreloader":""};</script> <script type="text/javascript">var SlimStatParams = {"ajaxurl":"https:\/\/www.shinlawoffice.com\/wp-admin\/admin-ajax.php","baseurl":"\/","extensions_to_track":"pdf,doc,xls,zip","outbound_classes_rel_href_to_not_track":"noslimstat,ab-item","ci":"YToxOntzOjEyOiJjb250ZW50X3R5cGUiO3M6MzoiNDA0Ijt9.ae05920a48bb5488994d494691b0b3a8"};</script> <script src="https://cdn.jsdelivr.net/wp/wp-slimstat/tags/4.8.4.1/wp-slimstat.min.js" type="text/javascript"></script> <script defer="" src="https://www.shinlawoffice.com/wp-content/cache/autoptimize/js/autoptimize_c5676f584521799801490e3b1ed50822.js" type="text/javascript"></script></body></html>