<!DOCTYPE HTML PUBLIC "-//W3C//DTD HTML 3.2 Final//EN">
<html>
<head>
<title>Index of /</title>
</head>
<body>
<h1>Index of /</h1>
<table>
<tr><th valign="top"> </th><th><a href="?C=N;O=D">Name</a></th><th><a href="?C=M;O=A">Last modified</a></th><th><a href="?C=S;O=A">Size</a></th><th><a href="?C=D;O=A">Description</a></th></tr>
<tr><th colspan="5"><hr/></th></tr>
<tr><td valign="top"> </td><td><a href="OmniFolder/">OmniFolder/</a> </td><td align="right">2018-02-28 15:43  </td><td align="right">  - </td><td> </td></tr>
<tr><td valign="top"> </td><td><a href="attackthewind/">attackthewind/</a> </td><td align="right">2018-03-02 12:32  </td><td align="right">  - </td><td> </td></tr>
<tr><td valign="top"> </td><td><a href="cgi-bin/">cgi-bin/</a> </td><td align="right">2018-02-27 17:10  </td><td align="right">  - </td><td> </td></tr>
<tr><td valign="top"> </td><td><a href="crazylego/">crazylego/</a> </td><td align="right">2018-07-07 08:13  </td><td align="right">  - </td><td> </td></tr>
<tr><td valign="top"> </td><td><a href="dumbweighters/">dumbweighters/</a> </td><td align="right">2021-01-12 16:05  </td><td align="right">  - </td><td> </td></tr>
<tr><td valign="top"> </td><td><a href="favicon.ico">favicon.ico</a> </td><td align="right">2018-02-28 11:19  </td><td align="right"> 43 </td><td> </td></tr>
<tr><td valign="top"> </td><td><a href="freshcutdaisies/">freshcutdaisies/</a> </td><td align="right">2018-03-02 19:27  </td><td align="right">  - </td><td> </td></tr>
<tr><td valign="top"> </td><td><a href="grantsaviation/">grantsaviation/</a> </td><td align="right">2020-02-06 05:03  </td><td align="right">  - </td><td> </td></tr>
<tr><td valign="top"> </td><td><a href="grpintl/">grpintl/</a> </td><td align="right">2018-03-09 19:57  </td><td align="right">  - </td><td> </td></tr>
<tr><td valign="top"> </td><td><a href="h2gamericas/">h2gamericas/</a> </td><td align="right">2018-07-07 08:13  </td><td align="right">  - </td><td> </td></tr>
<tr><td valign="top"> </td><td><a href="midamericanmarine/">midamericanmarine/</a> </td><td align="right">2019-04-05 08:41  </td><td align="right">  - </td><td> </td></tr>
<tr><td valign="top"> </td><td><a href="omniglobalrisk/">omniglobalrisk/</a> </td><td align="right">2018-03-02 19:45  </td><td align="right">  - </td><td> </td></tr>
<tr><td valign="top"> </td><td><a href="omnilatam/">omnilatam/</a> </td><td align="right">2018-07-07 08:13  </td><td align="right">  - </td><td> </td></tr>
<tr><td valign="top"> </td><td><a href="omnimexico/">omnimexico/</a> </td><td align="right">2018-07-07 08:13  </td><td align="right">  - </td><td> </td></tr>
<tr><td valign="top"> </td><td><a href="realmansalad/">realmansalad/</a> </td><td align="right">2020-02-22 10:38  </td><td align="right">  - </td><td> </td></tr>
<tr><td valign="top"> </td><td><a href="shipraven/">shipraven/</a> </td><td align="right">2018-07-07 08:14  </td><td align="right">  - </td><td> </td></tr>
<tr><td valign="top"> </td><td><a href="shipravenlogistics/">shipravenlogistics/</a> </td><td align="right">2018-03-02 18:17  </td><td align="right">  - </td><td> </td></tr>
<tr><th colspan="5"><hr/></th></tr>
</table>
</body></html>
