<!DOCTYPE html>
<html lang="ru-RU">
<head>
<meta charset="utf-8"/>
<meta content="width=device-width, initial-scale=1" name="viewport"/>
<title>Психология отношений, страхов и всей жизни для женщин и мужчин</title>
<link href="https://apatii.net/xmlrpc.php" rel="pingback"/>
<link href="https://apatii.net/favicon.ico" rel="shortcut icon"/>
<!-- This site is optimized with the Yoast SEO plugin v15.2.1 - https://yoast.com/wordpress/plugins/seo/ -->
<meta content="Жизнь современных людей стала настолько сложной и насыщенной, что без знания психологии очень трудно выстраивать отношения в обществе и поддерживать психическое здоровье в порядке." name="description"/>
<meta content="index, follow, max-snippet:-1, max-image-preview:large, max-video-preview:-1" name="robots"/>
<link href="https://apatii.net/" rel="canonical"/>
<meta content="ru_RU" property="og:locale"/>
<meta content="website" property="og:type"/>
<meta content="Психология отношений, страхов и всей жизни для женщин и мужчин" property="og:title"/>
<meta content="Жизнь современных людей стала настолько сложной и насыщенной, что без знания психологии очень трудно выстраивать отношения в обществе и поддерживать психическое здоровье в порядке." property="og:description"/>
<meta content="https://apatii.net/" property="og:url"/>
<meta content="Апатии Нет" property="og:site_name"/>
<meta content="2016-06-25T11:40:26+00:00" property="article:modified_time"/>
<meta content="summary" name="twitter:card"/>
<script class="yoast-schema-graph" type="application/ld+json">{"@context":"https://schema.org","@graph":[{"@type":"WebSite","@id":"https://apatii.net/#website","url":"https://apatii.net/","name":"\u0410\u043f\u0430\u0442\u0438\u0438 \u041d\u0435\u0442","description":"\u041f\u0441\u0438\u0445\u043e\u043b\u043e\u0433\u0438\u044f \u0438 \u043f\u0441\u0438\u0445\u043e\u0442\u0435\u0440\u0430\u043f\u0438\u044f \u043f\u0440\u043e\u0442\u0438\u0432 \u0434\u0435\u043f\u0440\u0435\u0441\u0441\u0438\u0438, \u043d\u0435\u0432\u0440\u043e\u0437\u043e\u0432, \u0412\u0421\u0414","potentialAction":[{"@type":"SearchAction","target":"https://apatii.net/?s={search_term_string}","query-input":"required name=search_term_string"}],"inLanguage":"ru-RU"},{"@type":"WebPage","@id":"https://apatii.net/#webpage","url":"https://apatii.net/","name":"\u041f\u0441\u0438\u0445\u043e\u043b\u043e\u0433\u0438\u044f \u043e\u0442\u043d\u043e\u0448\u0435\u043d\u0438\u0439, \u0441\u0442\u0440\u0430\u0445\u043e\u0432 \u0438 \u0432\u0441\u0435\u0439 \u0436\u0438\u0437\u043d\u0438 \u0434\u043b\u044f \u0436\u0435\u043d\u0449\u0438\u043d \u0438 \u043c\u0443\u0436\u0447\u0438\u043d","isPartOf":{"@id":"https://apatii.net/#website"},"datePublished":"2016-06-25T11:35:38+00:00","dateModified":"2016-06-25T11:40:26+00:00","description":"\u0416\u0438\u0437\u043d\u044c \u0441\u043e\u0432\u0440\u0435\u043c\u0435\u043d\u043d\u044b\u0445 \u043b\u044e\u0434\u0435\u0439 \u0441\u0442\u0430\u043b\u0430 \u043d\u0430\u0441\u0442\u043e\u043b\u044c\u043a\u043e \u0441\u043b\u043e\u0436\u043d\u043e\u0439 \u0438 \u043d\u0430\u0441\u044b\u0449\u0435\u043d\u043d\u043e\u0439, \u0447\u0442\u043e \u0431\u0435\u0437 \u0437\u043d\u0430\u043d\u0438\u044f \u043f\u0441\u0438\u0445\u043e\u043b\u043e\u0433\u0438\u0438 \u043e\u0447\u0435\u043d\u044c \u0442\u0440\u0443\u0434\u043d\u043e \u0432\u044b\u0441\u0442\u0440\u0430\u0438\u0432\u0430\u0442\u044c \u043e\u0442\u043d\u043e\u0448\u0435\u043d\u0438\u044f \u0432 \u043e\u0431\u0449\u0435\u0441\u0442\u0432\u0435 \u0438 \u043f\u043e\u0434\u0434\u0435\u0440\u0436\u0438\u0432\u0430\u0442\u044c \u043f\u0441\u0438\u0445\u0438\u0447\u0435\u0441\u043a\u043e\u0435 \u0437\u0434\u043e\u0440\u043e\u0432\u044c\u0435 \u0432 \u043f\u043e\u0440\u044f\u0434\u043a\u0435.","inLanguage":"ru-RU","potentialAction":[{"@type":"ReadAction","target":["https://apatii.net/"]}]}]}</script>
<!-- / Yoast SEO plugin. -->
<link href="//yastatic.net" rel="dns-prefetch"/>
<link href="//maxcdn.bootstrapcdn.com" rel="dns-prefetch"/>
<link crossorigin="" href="https://fonts.gstatic.com" rel="preconnect"/>
<link href="https://apatii.net/wp-includes/css/dist/block-library/style.min.css?ver=5.5.3" id="wp-block-library-css" media="all" rel="stylesheet" type="text/css"/>
<link href="https://apatii.net/wp-content/plugins/table-of-contents-plus/screen.min.css?ver=2002" id="toc-screen-css" media="all" rel="stylesheet" type="text/css"/>
<link href="https://apatii.net/wp-content/plugins/wordpress-popular-posts/assets/css/wpp.css?ver=5.2.4" id="wordpress-popular-posts-css-css" media="all" rel="stylesheet" type="text/css"/>
<link href="https://maxcdn.bootstrapcdn.com/bootswatch/3.3.6/cerulean/bootstrap.min.css?ver=5.5.3" id="bootstrap-css" media="all" rel="stylesheet" type="text/css"/>
<link href="https://maxcdn.bootstrapcdn.com/font-awesome/4.5.0/css/font-awesome.min.css?ver=5.5.3" id="font-awesome-css" media="all" rel="stylesheet" type="text/css"/>
<link href="https://apatii.net/wp-content/themes/gitsta/vendor/octicons/css/octicons.css?ver=5.5.3" id="octicons-css" media="all" rel="stylesheet" type="text/css"/>
<link href="https://apatii.net/wp-content/themes/gitsta/style.css?ver=5.5.3" id="gitsta-style-css" media="all" rel="stylesheet" type="text/css"/>
<link href="https://apatii.net/wp-content/plugins/simple-lightbox/client/css/app.css?ver=2.8.1" id="slb_core-css" media="all" rel="stylesheet" type="text/css"/>
<script id="jquery-core-js" src="https://apatii.net/wp-includes/js/jquery/jquery.js?ver=1.12.4-wp" type="text/javascript"></script>
<script id="wpp-json" type="application/json">
{"sampling_active":0,"sampling_rate":100,"ajax_url":"https:\/\/apatii.net\/wp-json\/wordpress-popular-posts\/v1\/popular-posts","ID":0,"token":"998509f6b0","lang":0,"debug":0}
</script>
<script defer="" id="wpp-js-js" src="https://apatii.net/wp-content/plugins/wordpress-popular-posts/assets/js/wpp.min.js?ver=5.2.4" type="text/javascript"></script>
<script defer="" id="bootstrap-js" src="https://apatii.net/wp-content/themes/gitsta/vendor/bootstrap/js/bootstrap.js?ver=5.5.3" type="text/javascript"></script>
<script defer="" id="marked-js" src="https://apatii.net/wp-content/themes/gitsta/vendor/marked.js?ver=5.5.3" type="text/javascript"></script>
<script defer="" id="yashare-js" src="//yastatic.net/share/share.js?ver=5.5.3" type="text/javascript"></script>
<script id="gitsta-main-js-js-extra" type="text/javascript">
/* <![CDATA[ */
var theme = {"template_directory_uri":"https:\/\/apatii.net\/wp-content\/themes\/gitsta"};
/* ]]> */
</script>
<script defer="" id="gitsta-main-js-js" src="https://apatii.net/wp-content/themes/gitsta/js/main.js?ver=5.5.3" type="text/javascript"></script>
<style type="text/css">div#toc_container {width: 100%;}</style> <meta content="#3ab1cf" name="theme-color"/>
<link as="script" href="https://pagead2.googlesyndication.com/pagead/js/adsbygoogle.js" rel="preload"/>
<link as="script" href="https://an.yandex.ru/system/context.js" rel="preload"/>
</head>
<body class="home page-template page-template-home page-template-home-php page page-id-604">
<nav class="navbar navbar-default navbar-fixed-top">
<div class="container">
<div class="navbar-header">
<!-- Nav button for small resolutions -->
<button class="navbar-toggle" data-target="#main-menu" data-toggle="collapse" type="button">
<span class="sr-only">Переключить навигацию</span>
<span class="icon-bar"></span>
<span class="icon-bar"></span>
<span class="icon-bar"></span>
</button>
<a class="navbar-brand" href="https://apatii.net">Апатии Нет</a>
</div>
<div class="collapse navbar-collapse" id="main-menu">
<ul class="nav navbar-nav" id="menu-top-menu"><li class="menu-item menu-item-type-taxonomy menu-item-object-category menu-item-has-children menu-item-595 dropdown" id="menu-item-595"><a aria-haspopup="true" class="dropdown-toggle" data-toggle="dropdown" href="https://apatii.net/otnosheniya" title="Отношения">Отношения <span class="caret"></span></a>
<ul class=" dropdown-menu" role="menu">
<li class="menu-item menu-item-type-taxonomy menu-item-object-category menu-item-596" id="menu-item-596"><a href="https://apatii.net/otnosheniya/love" title="Любовь">Любовь</a></li>
<li class="menu-item menu-item-type-taxonomy menu-item-object-category menu-item-597" id="menu-item-597"><a href="https://apatii.net/otnosheniya/muzh-i-zhena" title="Муж и жена">Муж и жена</a></li>
<li class="menu-item menu-item-type-taxonomy menu-item-object-category menu-item-598" id="menu-item-598"><a href="https://apatii.net/otnosheniya/rabota" title="На работе">На работе</a></li>
<li class="menu-item menu-item-type-taxonomy menu-item-object-category menu-item-599" id="menu-item-599"><a href="https://apatii.net/otnosheniya/roditeli-i-deti" title="Родители и дети">Родители и дети</a></li>
</ul>
</li>
<li class="menu-item menu-item-type-taxonomy menu-item-object-category menu-item-has-children menu-item-592 dropdown" id="menu-item-592"><a aria-haspopup="true" class="dropdown-toggle" data-toggle="dropdown" href="https://apatii.net/zavisimosti" title="Зависимости">Зависимости <span class="caret"></span></a>
<ul class=" dropdown-menu" role="menu">
<li class="menu-item menu-item-type-taxonomy menu-item-object-category menu-item-594" id="menu-item-594"><a href="https://apatii.net/zavisimosti/kurenie" title="Курение">Курение</a></li>
<li class="menu-item menu-item-type-taxonomy menu-item-object-category menu-item-593" id="menu-item-593"><a href="https://apatii.net/zavisimosti/alkogolizm" title="Алкоголизм">Алкоголизм</a></li>
</ul>
</li>
<li class="menu-item menu-item-type-taxonomy menu-item-object-category menu-item-602" id="menu-item-602"><a href="https://apatii.net/fobii" title="Фобии">Фобии</a></li>
<li class="menu-item menu-item-type-taxonomy menu-item-object-category menu-item-601" id="menu-item-601"><a href="https://apatii.net/farmakologiya" title="Фармакология">Фармакология</a></li>
<li class="menu-item menu-item-type-taxonomy menu-item-object-category menu-item-911" id="menu-item-911"><a href="https://apatii.net/testy" title="Тесты">Тесты</a></li>
</ul> <div class="btn-group pull-right">
</div>
</div>
</div>
</nav>
<!-- Anchor for "Back to top"-Link -->
<a id="top"></a>
<div class="container mid-wrapper">
<div class="subhead">
<div class="container">
<h1>Психология отношений, страхов и всей жизни для женщин и мужчин</h1>
</div>
</div>
<div class="container">
<div class="row">
<div class="col-md-12">
<div class="item" id="post-604">
<div class="post-content">
<div class="bheading">
<span class="h5">Новое на сайте:</span>
</div>
<div class="row recent-posts-row">
<div class="col-lg-3 col-md-6">
<div class="cuadro_intro_hover">
<p>
<img alt="Психоз" class="attachment-420x280 size-420x280 wp-post-image" height="179" loading="lazy" sizes="(max-width: 420px) 100vw, 420px" src="https://apatii.net/wp-content/uploads/2018/12/Psihoz-1-e1545906645838.jpg" srcset="https://apatii.net/wp-content/uploads/2018/12/Psihoz-1-e1545906645838.jpg 940w, https://apatii.net/wp-content/uploads/2018/12/Psihoz-1-e1545906645838-844x360.jpg 844w" width="420"/> </p>
<div class="caption">
<div class="blur"></div>
<div class="caption-text">
<a class="h4" href="https://apatii.net/psixicheskie-rasstrojstva/depressiya/shizoaffektivnyj-psixoz"><span>Шизоаффективный психоз</span></a>
<!--noindex--><p><a href="https://apatii.net/psixicheskie-rasstrojstva/depressiya/shizoaffektivnyj-psixoz">Шизоаффективное расстройство - психическое заболевание, при котором у пациента наблюдается симптоматическая картина шизофрении и аффективного расстройства. Бред и галлюцинации тесно переплетаются с патологией психоэмоционального контроля - депрессивным состоянием или манией.</a></p><!--/noindex-->
</div>
</div>
</div>
</div>
<div class="col-lg-3 col-md-6">
<div class="cuadro_intro_hover">
<p>
<img alt="Помочь мужчине" class="attachment-420x280 size-420x280 wp-post-image" height="179" loading="lazy" src="https://apatii.net/wp-content/uploads/2018/12/Pomoch-mujchine-e1545696925694.jpg" width="420"/> </p>
<div class="caption">
<div class="blur"></div>
<div class="caption-text">
<a class="h4" href="https://apatii.net/psixicheskie-rasstrojstva/depressiya/kak-pomoch-muzhchine-izbavitsya-ot"><span>Как помочь мужчине избавиться от депрессии</span></a>
<!--noindex--><p><a href="https://apatii.net/psixicheskie-rasstrojstva/depressiya/kak-pomoch-muzhchine-izbavitsya-ot">Как выбраться из депрессии вашему любимому мужчине, если не с вашей помощью? Вот несколько советов для тех, чья половинка впала в уныние.</a></p><!--/noindex-->
</div>
</div>
</div>
</div>
<div class="col-lg-3 col-md-6">
<div class="cuadro_intro_hover">
<p>
<img alt="Помочь человеку" class="attachment-420x280 size-420x280 wp-post-image" height="179" loading="lazy" sizes="(max-width: 420px) 100vw, 420px" src="https://apatii.net/wp-content/uploads/2018/12/Pomoch-cheloveky-e1545695444272.jpg" srcset="https://apatii.net/wp-content/uploads/2018/12/Pomoch-cheloveky-e1545695444272.jpg 974w, https://apatii.net/wp-content/uploads/2018/12/Pomoch-cheloveky-e1545695444272-843x360.jpg 843w" width="420"/> </p>
<div class="caption">
<div class="blur"></div>
<div class="caption-text">
<a class="h4" href="https://apatii.net/psixicheskie-rasstrojstva/depressiya/kak-pravilno-pomoch-blizkomu-cheloveku-vyjti-iz"><span>Как правильно помочь близкому человеку выйти из депрессии</span></a>
<!--noindex--><p><a href="https://apatii.net/psixicheskie-rasstrojstva/depressiya/kak-pravilno-pomoch-blizkomu-cheloveku-vyjti-iz">Сложные жизненные условия нередко приводят к различным психическим патологиям, в том числе к депрессивным состояниям. Чтобы помочь человеку выйти из депрессии, требуется немало сил, умений и терпения.</a></p><!--/noindex-->
</div>
</div>
</div>
</div>
<div class="col-lg-3 col-md-6">
<div class="cuadro_intro_hover">
<p>
<img alt="Биполярное расстройство" class="attachment-420x280 size-420x280 wp-post-image" height="179" loading="lazy" sizes="(max-width: 420px) 100vw, 420px" src="https://apatii.net/wp-content/uploads/2018/12/Bipolarnoe-rasstroystvo-1-e1545563545754.jpg" srcset="https://apatii.net/wp-content/uploads/2018/12/Bipolarnoe-rasstroystvo-1-e1545563545754.jpg 890w, https://apatii.net/wp-content/uploads/2018/12/Bipolarnoe-rasstroystvo-1-e1545563545754-843x360.jpg 843w" width="420"/> </p>
<div class="caption">
<div class="blur"></div>
<div class="caption-text">
<a class="h4" href="https://apatii.net/psixicheskie-rasstrojstva/depressiya/bipolyarnoe-affektivnoe-rasstrojstvo"><span>Биполярное аффективное расстройство</span></a>
<!--noindex--><p><a href="https://apatii.net/psixicheskie-rasstrojstva/depressiya/bipolyarnoe-affektivnoe-rasstrojstvo">Термин "биполярное аффективное расстройство (БАР)" употребляют вместо названия "маниакально-депрессивный психоз", т.к. болезнь не всегда сопровождается грубыми нарушениями психических процессов, характерными для психоза.</a></p><!--/noindex-->
</div>
</div>
</div>
</div>
</div>
<div class="row recent-posts-row">
<div class="col-lg-3 col-md-6">
<div class="cuadro_intro_hover">
<p>
<img alt="Алкоголь и антидепрессанты" class="attachment-420x280 size-420x280 wp-post-image" height="179" loading="lazy" sizes="(max-width: 420px) 100vw, 420px" src="https://apatii.net/wp-content/uploads/2018/12/Alkogol-i-antidepressanti-e1545541903562.png" srcset="https://apatii.net/wp-content/uploads/2018/12/Alkogol-i-antidepressanti-e1545541903562.png 900w, https://apatii.net/wp-content/uploads/2018/12/Alkogol-i-antidepressanti-e1545541903562-844x360.png 844w" width="420"/> </p>
<div class="caption">
<div class="blur"></div>
<div class="caption-text">
<a class="h4" href="https://apatii.net/psixicheskie-rasstrojstva/depressiya/sovmestimy-li-alkogol-i-antidepressanty"><span>Совместимы ли алкоголь и антидепрессанты</span></a>
<!--noindex--><p><a href="https://apatii.net/psixicheskie-rasstrojstva/depressiya/sovmestimy-li-alkogol-i-antidepressanty">Антидепрессанты и алкоголь часто принимают вместе, так как они имеют аналогичное влияние на человеческий организм: помогают успокоиться, снимают нервное напряжение и устраняют эмоциональную нестабильность. Чтобы не спровоцировать ухудшение здоровья, необходимо выяснить, можно ли совмещать спиртное и антидепрессанты.</a></p><!--/noindex-->
</div>
</div>
</div>
</div>
<div class="col-lg-3 col-md-6">
<div class="cuadro_intro_hover">
<p>
<img alt="Депрессия" class="attachment-420x280 size-420x280 wp-post-image" height="179" loading="lazy" sizes="(max-width: 420px) 100vw, 420px" src="https://apatii.net/wp-content/uploads/2018/11/Depressiya-3-e1545538488446.jpg" srcset="https://apatii.net/wp-content/uploads/2018/11/Depressiya-3-e1545538488446.jpg 900w, https://apatii.net/wp-content/uploads/2018/11/Depressiya-3-e1545538488446-844x360.jpg 844w" width="420"/> </p>
<div class="caption">
<div class="blur"></div>
<div class="caption-text">
<a class="h4" href="https://apatii.net/psixicheskie-rasstrojstva/depressiya/kak-izbavitsya-ot-posle-insulta"><span>Как избавится от депрессии после инсульта</span></a>
<!--noindex--><p><a href="https://apatii.net/psixicheskie-rasstrojstva/depressiya/kak-izbavitsya-ot-posle-insulta">Наряду с нарушениями памяти, речи и движений у 33% больных, пострадавших от инсульта, возникают расстройства депрессивного характера. Депрессия после инсульта - это состояние психики, характеризующееся снижением самооценки, пессимистическим взглядом на жизнь.</a></p><!--/noindex-->
</div>
</div>
</div>
</div>
<div class="col-lg-3 col-md-6">
<div class="cuadro_intro_hover">
<p>
<img alt="Предродовая депрессия" class="attachment-420x280 size-420x280 wp-post-image" height="179" loading="lazy" src="https://apatii.net/wp-content/uploads/2018/12/Predrodovaya-depressiya-2-e1545399844529.jpg" width="420"/> </p>
<div class="caption">
<div class="blur"></div>
<div class="caption-text">
<a class="h4" href="https://apatii.net/psixicheskie-rasstrojstva/depressiya/chto-delat-pri-predrodovoj"><span>Что делать при предродовой депрессии</span></a>
<!--noindex--><p><a href="https://apatii.net/psixicheskie-rasstrojstva/depressiya/chto-delat-pri-predrodovoj">В период вынашивания ребенка у многих женщин наблюдается предродовая депрессия. В зависимости от причин, повлекших возникновение заболевания, подбирается индивидуальная программа терапевтических мероприятий по выходу будущей матери из депрессии и стабилизации ее психического состояния.</a></p><!--/noindex-->
</div>
</div>
</div>
</div>
<div class="col-lg-3 col-md-6">
<div class="cuadro_intro_hover">
<p>
<img alt="Депрессия" class="attachment-420x280 size-420x280 wp-post-image" height="180" loading="lazy" src="https://apatii.net/wp-content/uploads/2018/12/Depressiya-1-e1545389901522.jpg" width="420"/> </p>
<div class="caption">
<div class="blur"></div>
<div class="caption-text">
<a class="h4" href="https://apatii.net/psixicheskie-rasstrojstva/depressiya/kak-lechit-klinicheskuyu"><span>Как лечить клиническую депрессию</span></a>
<!--noindex--><p><a href="https://apatii.net/psixicheskie-rasstrojstva/depressiya/kak-lechit-klinicheskuyu">Клиническая депрессия - это аффективное расстройство личности, которое сопровождается подавленным настроением, отсутствием интереса к жизни, ухудшением памяти и внимания, а также мышечной слабостью. Такое заболевание чаще встречается у женщин.</a></p><!--/noindex-->
</div>
</div>
</div>
</div>
</div>
<hr/>
<div class="bheading">
<!--noindex--><a class="h5" href="https://apatii.net/otnosheniya/love" rel="nofollow">Отношения между мужчиной и женщиной:</a><!--/noindex-->
</div>
<div class="row">
<div class="col-md-6">
<div class="popular-big">
<a href="https://apatii.net/otnosheniya/muzh-i-zhena/ushla-s-rebenkom-chto-delat" rel="nofollow"><img alt="Брак" class="attachment-420x280 size-420x280 wp-post-image" height="263" loading="lazy" src="https://apatii.net/wp-content/uploads/2016/05/brak.jpg" width="420"/></a>
<div class="caption">
<a class="h4" href="https://apatii.net/otnosheniya/muzh-i-zhena/ushla-s-rebenkom-chto-delat">Жена ушла с ребенком: что делать?</a>
<!--noindex--><p>Жена забирает детей и покидает родной дом. Что в таких случаях испытывает мужчина? Стоит ли возвращать её и пытаться сохранить семью? Что делать и как выйти из этой ситуации с достоинством, сохраняя тёплые человеческие отношения. Какими бы сложными не казались обстоятельства, всегда есть пути решения.</p><!--/noindex-->
</div>
</div>
</div>
<div class="col-md-6">
<div class="popular-small">
<p>
<a class="img-wrap" href="https://apatii.net/otnosheniya/muzh-i-zhena/razlyubil-zhenu-chto-delat" rel="nofollow"><img alt="Разлюбил жену" class="attachment-195x110 size-195x110 wp-post-image" height="110" loading="lazy" src="https://apatii.net/wp-content/uploads/2017/08/Razlubil-jenu-195x110.png" width="195"/></a>
<a class="h4" href="https://apatii.net/otnosheniya/muzh-i-zhena/razlyubil-zhenu-chto-delat">Разлюбил жену – что делать?</a>
</p>
<!--noindex--><p>О том, что чувства к жене у мужчины исчезли, можно догадаться по некоторым признакам. Что делать в этом случае, решает каждый самостоятельно. Но если чувства еще остались, то стоит попробовать сохранить семью.</p><!--/noindex-->
</div>
<div class="popular-small">
<p>
<a class="img-wrap" href="https://apatii.net/otnosheniya/love/kak-ponyat-chto-muzhchina-tebya-xochet" rel="nofollow"><img alt="Симпатии" class="attachment-195x110 size-195x110 wp-post-image" height="110" loading="lazy" src="https://apatii.net/wp-content/uploads/2017/07/Simpatii-195x110.jpg" width="195"/></a>
<a class="h4" href="https://apatii.net/otnosheniya/love/kak-ponyat-chto-muzhchina-tebya-xochet">Как понять, что мужчина тебя хочет?</a>
</p>
<!--noindex--><p>Как понять, девушка вызывает у молодого человека желание? Существует ряд признаков, по которым определить это довольно просто. Стоит обратить внимание на внешние признаки, а также поведение мужчины.</p><!--/noindex-->
</div>
</div>
</div>
<hr/>
<div class="row" id="ask-doctor">
<div class="col-md-3">
<div>
<img alt="Доктор" height="411" src="https://apatii.net/wp-content/themes/gitsta/img/freud.png" width="302"/>
</div>
</div>
<div class="col-md-6">
<div>
<p class="h2">Задайте вопрос эксперту</p>
<ul>
<li><a href="https://apatii.net/fobii/boyus-rozhat-vtoroj-raz-chto-delat">Боюсь рожать второй раз — что делать?</a></li>
<li><a href="https://apatii.net/otnosheniya/roditeli-i-deti/rebenok-ne-xochet-xodit-v-shkolu-chto-delat">Ребенок не хочет ходить в школу: что делать?</a></li>
<li><a href="https://apatii.net/zavisimosti/alkogolizm/kak-brosit-pit-pivo">Как бросить пить пиво?</a></li>
<li><a href="https://apatii.net/otnosheniya/roditeli-i-deti/chto-delat-esli-rebenok-ne-xochet-xodit-v-sadik">Что делать, если ребенок не хочет ходить в садик?</a></li>
<li><a href="https://apatii.net/zavisimosti/kurenie/kak-zastavit-devushku-brosit-kurit">Как заставить девушку бросить курить?</a></li>
<li><a href="https://apatii.net/zavisimosti/kurenie/chto-budet-esli-rezko-brosit-kurit">Что будет, если резко бросить курить?</a></li>
<li><a href="https://apatii.net/zavisimosti/kurenie/chem-zamenit-sigarety-kogda-brosaesh-kurit">Чем можно заменить сигареты когда бросаешь курить?</a></li>
</ul>
<!--noindex--><p class="text-right"><a href="https://apatii.net/tag/voprosy" rel="nofollow">Посмотреть все вопросы</a></p><!--/noindex-->
</div>
</div>
<div class="col-md-3 text-center">
<img alt="Задать вопрос психологу" height="150" src="https://apatii.net/wp-content/themes/gitsta/img/doctor.jpg" width="150"/>
<p>На вопросы отвечает:</p>
<p class="h4">Новикова Елена Александровна</p>
<p>Психолог-психотерапевт с 10 летним стажем</p>
<p>
<a class="btn btn-success btn-big" href="https://apatii.net/vopros-psixologu">Задать вопрос</a>
</p>
</div>
</div>
<hr/>
<div class="bheading">
<!--noindex--><a class="h5" href="https://apatii.net/otnosheniya/rabota" rel="nofollow">Отношения на работе:</a><!--/noindex-->
</div>
<div class="row">
<div class="col-md-6">
<div class="popular-big">
<a href="https://apatii.net/otnosheniya/rabota/kem-rabotat-esli-nichego-ne-nravitsya" rel="nofollow"><img alt="Работа" class="attachment-420x280 size-420x280 wp-post-image" height="280" loading="lazy" sizes="(max-width: 373px) 100vw, 373px" src="https://apatii.net/wp-content/uploads/2016/05/rabota-1.jpg" srcset="https://apatii.net/wp-content/uploads/2016/05/rabota-1.jpg 1600w, https://apatii.net/wp-content/uploads/2016/05/rabota-1-480x360.jpg 480w, https://apatii.net/wp-content/uploads/2016/05/rabota-1-1280x960.jpg 1280w" width="373"/></a>
<div class="caption">
<a class="h4" href="https://apatii.net/otnosheniya/rabota/kem-rabotat-esli-nichego-ne-nravitsya">Кем работать, если ничего не нравится?</a>
<!--noindex--><p>Что делать в ситуации, когда момент выбора профессии затянулся? Иногда люди, достигнув взрослости, не могут понять, куда двигаться дальше, на что направлять свои усилия.</p><!--/noindex-->
</div>
</div>
</div>
<div class="col-md-6">
<div class="popular-small">
<p>
<a class="img-wrap" href="https://apatii.net/otnosheniya/rabota/chto-delat-esli-pridiraetsya-nachalnik" rel="nofollow"><img alt="Начальник и подчиненный" class="attachment-195x110 size-195x110 wp-post-image" height="110" loading="lazy" src="https://apatii.net/wp-content/uploads/2016/05/nacialinik-i-podcinoinnii-195x110.jpg" width="195"/></a>
<a class="h4" href="https://apatii.net/otnosheniya/rabota/chto-delat-esli-pridiraetsya-nachalnik">Что делать, если придирается начальник?</a>
</p>
<!--noindex--><p>Что делать, если начальник срывает на вас свое плохое настроение и домашние проблемы? Почему он придирается именно к вам? Как правильно вести себя в ситуации, когда не хочется потерять работу, но при этом необходимо защитить собственные интересы?</p><!--/noindex-->
</div>
<div class="popular-small">
<p>
<a class="img-wrap" href="https://apatii.net/otnosheniya/rabota/kak-zastavit-podchinennyx-rabotat" rel="nofollow"><img alt="Отсутствие желания работать" class="attachment-195x110 size-195x110 wp-post-image" height="110" loading="lazy" src="https://apatii.net/wp-content/uploads/2016/05/otsutstvie-jelania-rabotati-195x110.jpg" width="195"/></a>
<a class="h4" href="https://apatii.net/otnosheniya/rabota/kak-zastavit-podchinennyx-rabotat">Как заставить подчиненных работать?</a>
</p>
<!--noindex--><p>Почему некоторые сотрудники не спешат выполнять свои обязанности? Как заставить их работать и при этом не спровоцировать массовые увольнения? Каким должен быть грамотный руководитель?</p><!--/noindex-->
</div>
</div>
</div>
<hr/>
<div class="bheading">
<!--noindex--><a class="h5" href="https://apatii.net/otnosheniya/roditeli-i-deti" rel="nofollow">Родители и дети:</a><!--/noindex-->
</div>
<div class="row">
<div class="col-md-6">
<div class="popular-big">
<a href="https://apatii.net/otnosheniya/roditeli-i-deti/pochemu-rebenok-ne-slushaetsya-v-6-let" rel="nofollow"><img alt="Ребенок" class="attachment-420x280 size-420x280 wp-post-image" height="280" loading="lazy" src="https://apatii.net/wp-content/uploads/2016/06/rebionok-5.jpg" width="420"/></a>
<div class="caption">
<a class="h4" href="https://apatii.net/otnosheniya/roditeli-i-deti/pochemu-rebenok-ne-slushaetsya-v-6-let">Почему ребенок не слушается в 6 лет?</a>
<!--noindex--><p>Непослушание ребенка является плодом вашего воспитания. Хорошее поведение детей возможно лишь от правильного подхода и поведения отца с матерью. Неважно сколько крохе лет, ему необходима забота и внимание.</p><!--/noindex-->
</div>
</div>
</div>
<div class="col-md-6">
<div class="popular-small">
<p>
<a class="img-wrap" href="https://apatii.net/otnosheniya/roditeli-i-deti/chto-delat-esli-rebenok-ne-slushaetsya-v-8-let" rel="nofollow"><img alt="Ребенок" class="attachment-195x110 size-195x110 wp-post-image" height="110" loading="lazy" src="https://apatii.net/wp-content/uploads/2016/06/rebionok-9-195x110.jpg" width="195"/></a>
<a class="h4" href="https://apatii.net/otnosheniya/roditeli-i-deti/chto-delat-esli-rebenok-ne-slushaetsya-v-8-let">Что делать, если ребенок не слушается в 8 лет?</a>
</p>
<!--noindex--><p>Ребёнок взрослеет, меняется его характер, и ему хочется быть таким же взрослым и самостоятельным, как его родители. Именно поэтому, доказывая свою самостоятельность, ребёнок не слушается родителей.</p><!--/noindex-->
</div>
<div class="popular-small">
<p>
<a class="img-wrap" href="https://apatii.net/otnosheniya/roditeli-i-deti/rebenok-ne-xochet-xodit-v-shkolu-chto-delat" rel="nofollow"><img alt="Школьники" class="attachment-195x110 size-195x110 wp-post-image" height="110" loading="lazy" src="https://apatii.net/wp-content/uploads/2016/05/shkoliniki-195x110.jpg" width="195"/></a>
<a class="h4" href="https://apatii.net/otnosheniya/roditeli-i-deti/rebenok-ne-xochet-xodit-v-shkolu-chto-delat">Ребенок не хочет ходить в школу: что делать?</a>
</p>
<!--noindex--><p>Школьные годы самое чудесное и беззаботное время. Но, иногда возникает ситуация, в которой самый близкий и родной человечек – ваш ребёнок, категорически отказывается идти в школу. Как поступить? Наказать и насильно отправить или пожалеть и разрешить остаться? Какие проблемы могут скрываться за таким отказом? Стоит прислушаться к мнению специалистов.</p><!--/noindex-->
</div>
</div>
</div>
<hr/>
<div class="bheading">
<!--noindex--><a class="h5" href="https://apatii.net/zavisimosti/kurenie" rel="nofollow">Зависимости:</a><!--/noindex-->
</div>
<div class="row">
<div class="col-md-6">
<div class="popular-big">
<a href="https://apatii.net/zavisimosti/kurenie/kak-zastavit-parnya-brosit-kurit" rel="nofollow"><img alt="Курение" class="attachment-420x280 size-420x280 wp-post-image" height="280" loading="lazy" sizes="(max-width: 420px) 100vw, 420px" src="https://apatii.net/wp-content/uploads/2016/04/kyrenie-542x360.jpg" srcset="https://apatii.net/wp-content/uploads/2016/04/kyrenie-542x360.jpg 542w, https://apatii.net/wp-content/uploads/2016/04/kyrenie.jpg 632w" width="420"/></a>
<div class="caption">
<a class="h4" href="https://apatii.net/zavisimosti/kurenie/kak-zastavit-parnya-brosit-kurit">Как заставить парня бросить курить?</a>
<!--noindex--><p>Девушка курящего парня хоть раз задавалась вопросом о том, как помочь молодому человеку бросить курить. Побороть зависимость можно разными способами, но для этого нужно учитывать и ряд других, не менее важных, аспектов влияния на проблему.</p><!--/noindex-->
</div>
</div>
</div>
<div class="col-md-6">
<div class="popular-small">
<p>
<a class="img-wrap" href="https://apatii.net/zavisimosti/kurenie/kak-zastavit-devushku-brosit-kurit" rel="nofollow"><img alt="Курящая девушка" class="attachment-195x110 size-195x110 wp-post-image" height="110" loading="lazy" src="https://apatii.net/wp-content/uploads/2016/04/kuriashiaia-devushka-195x110.jpg" width="195"/></a>
<a class="h4" href="https://apatii.net/zavisimosti/kurenie/kak-zastavit-devushku-brosit-kurit">Как заставить девушку бросить курить?</a>
</p>
<!--noindex--><p>Курящая женщина обычно не привлекает внимание мужчин, ищущих мать для своих будущих детей. Здравомыслящий мужчина не захочет детей от курящей девушки, потому постарается пресечь вредную привычку. Существует немало способов заставить женщину бросить курить. Выбор тактики зависит от конкретного случая.</p><!--/noindex-->
</div>
<div class="popular-small">
<p>
<a class="img-wrap" href="https://apatii.net/zavisimosti/kurenie/chto-budet-esli-rezko-brosit-kurit" rel="nofollow"><img alt="Сигарета" class="attachment-195x110 size-195x110 wp-post-image" height="110" loading="lazy" src="https://apatii.net/wp-content/uploads/2016/05/sigareta-195x110.jpg" width="195"/></a>
<a class="h4" href="https://apatii.net/zavisimosti/kurenie/chto-budet-esli-rezko-brosit-kurit">Что будет, если резко бросить курить?</a>
</p>
<!--noindex--><p>О вреде курения известно всем, но вредно не только курить, но и резко бросать эту привычку. Такой внезапный отказ от никотина вызывает негативные последствия. Процесс отказа должен быть постепенным.</p><!--/noindex-->
</div>
</div>
</div>
<hr/>
<div class="bheading">
<!--noindex--><a class="h5" href="https://apatii.net/fobii" rel="nofollow">Фобии и страхи:</a><!--/noindex-->
</div>
<div class="row">
<div class="col-md-6">
<div class="popular-big">
<a href="https://apatii.net/fobii/boyazn-neudach-i-oshibok" rel="nofollow"><img alt="Страх неудачи" class="attachment-420x280 size-420x280 wp-post-image" height="280" loading="lazy" sizes="(max-width: 420px) 100vw, 420px" src="https://apatii.net/wp-content/uploads/2017/09/Strah-neudachi-541x360.jpg" srcset="https://apatii.net/wp-content/uploads/2017/09/Strah-neudachi-541x360.jpg 541w, https://apatii.net/wp-content/uploads/2017/09/Strah-neudachi.jpg 700w" width="420"/></a>
<div class="caption">
<a class="h4" href="https://apatii.net/fobii/boyazn-neudach-i-oshibok">Боязнь неудач и ошибок</a>
<!--noindex--><p>Что представляет из себя страх неудачи и как он проявляется физически и психически? Преодолевать такой страх необходимо обязательно. Сделать это можно самостоятельно либо при помощи специалиста.</p><!--/noindex-->
</div>
</div>
</div>
<div class="col-md-6">
<div class="popular-small">
<p>
<a class="img-wrap" href="https://apatii.net/fobii/boyazn-dlinnyx-slov" rel="nofollow"><img alt="Боязнь длинных слов" class="attachment-195x110 size-195x110 wp-post-image" height="110" loading="lazy" src="https://apatii.net/wp-content/uploads/2017/06/Boyan-dlinnih-slov-195x110.jpg" width="195"/></a>
<a class="h4" href="https://apatii.net/fobii/boyazn-dlinnyx-slov">Гиппопотомонстросескиппедалофобия - боязнь длинных слов</a>
</p>
<!--noindex--><p>Среди различных фобий встречается расстройство, под названием «Боязнь длинных слов», которое иногда может появляться у деятелей сцены, ораторов, лекторов и у обычных школьников. Существуют специальные методики, помогающие справиться с таким страхом.</p><!--/noindex-->
</div>
<div class="popular-small">
<p>
<a class="img-wrap" href="https://apatii.net/fobii/chto-delat-esli-ya-boyus-dratsya" rel="nofollow"><img alt="Драка" class="attachment-195x110 size-195x110 wp-post-image" height="110" loading="lazy" src="https://apatii.net/wp-content/uploads/2016/04/draka-195x110.jpg" width="195"/></a>
<a class="h4" href="https://apatii.net/fobii/chto-delat-esli-ya-boyus-dratsya">Что делать если я боюсь драться?</a>
</p>
<!--noindex--><p>Для одних людей драться – не проблема, а для других что-то невероятное от чего появляется дрожь в руках. Существуют ситуации, когда вопрос: что делать при паническом страхе перед дракой – становится актуальным. Особенно при желании заниматься разнообразными единоборствами или проблемах в подростковом возрасте. Прежде всего, нужно понять, почему этот страх появляется и что поможет его преодолеть.</p><!--/noindex-->
</div>
</div>
</div>
<hr/>
<div class="bheading">
<!--noindex--><a class="h5" href="https://apatii.net/farmakologiya" rel="nofollow">Фармакология:</a><!--/noindex-->
</div>
<div class="row">
<div class="col-md-6">
<div class="popular-big">
<a href="https://apatii.net/farmakologiya/chto-luchshe-afobazol-ili-tenoten" rel="nofollow"><img alt="Лекарства" class="attachment-420x280 size-420x280 wp-post-image" height="280" loading="lazy" sizes="(max-width: 420px) 100vw, 420px" src="https://apatii.net/wp-content/uploads/2016/06/lekarstva-7-539x360.jpg" srcset="https://apatii.net/wp-content/uploads/2016/06/lekarstva-7-539x360.jpg 539w, https://apatii.net/wp-content/uploads/2016/06/lekarstva-7.jpg 650w" width="420"/></a>
<div class="caption">
<a class="h4" href="https://apatii.net/farmakologiya/chto-luchshe-afobazol-ili-tenoten">Что лучше: афобазол или тенотен?</a>
<!--noindex--><p>Тенотен или Афобазол назначают для лечения патологий нервной системы: тревог, стресса, бессонницы, раздражительности. Разница в препаратах обусловлена множеством факторов – от типа заболевания и состава лекарства до образа жизни.</p><!--/noindex-->
</div>
</div>
</div>
<div class="col-md-6">
<div class="popular-small">
<p>
<a class="img-wrap" href="https://apatii.net/farmakologiya/chto-luchshe-meksikor-ili-meksidol" rel="nofollow"><img alt="Мексидол" class="attachment-195x110 size-195x110 wp-post-image" height="110" loading="lazy" src="https://apatii.net/wp-content/uploads/2016/06/meksidol-195x110.jpg" width="195"/></a>
<a class="h4" href="https://apatii.net/farmakologiya/chto-luchshe-meksikor-ili-meksidol">Что лучше: мексикор или мексидол?</a>
</p>
<!--noindex--><p>Препараты Мексикор и Мексидор, являясь средствами-синонимами, имеют определенные различия в составе, формах выпуска и действии на человеческий организм. Ввиду этого назначать их для лечения должен только специалист.</p><!--/noindex-->
</div>
<div class="popular-small">
<p>
<a class="img-wrap" href="https://apatii.net/farmakologiya/chto-luchshe-adaptol-ili-mebikar" rel="nofollow"><img alt="" class="attachment-195x110 size-195x110 wp-post-image" height="110" loading="lazy" src="https://apatii.net/wp-content/uploads/2016/06/lekarstva-195x110.jpg" width="195"/></a>
<a class="h4" href="https://apatii.net/farmakologiya/chto-luchshe-adaptol-ili-mebikar">Что лучше: адаптол или мебикар?</a>
</p>
<!--noindex--><p>Мебикар и Адаптол – антидепрессанты, используемые для устранения проблем в работе нервной системы. Являясь абсолютными аналогами, имеют различную дозировку действующего вещества и цену, что и влияет на выбор пациентов.</p><!--/noindex-->
</div>
</div>
</div>
<br/>
</div>
</div>
</div>
</div>
<!--noindex-->
<footer>
<div class="container">
<div class="row">
<div class="scroll-top-wrapper">
<span class="scroll-top-inner">
<i class="fa fa-2x fa-arrow-circle-up"></i>
</span>
</div>
<div class="col-md-2">
<a href="https://apatii.net/sitemap"><i class="fa fa-sitemap"></i> Карта сайта</a>
</div>
<div class="col-md-4">
<small class="text-muted">
                            © <strong>Апатии Нет</strong><br/>
</small>
</div>
<div class="col-md-4" id="copyright">
                        Копирование материалов сайта запрещено без указания активной ссылки на apatii.net
                    </div>
<div class="col-md-2 text-right">
<!--LiveInternet counter--><script type="text/javascript">document.write("<a href='//www.liveinternet.ru/click' target=_blank><img src='//counter.yadro.ru/hit?t45.11;r" + escape(document.referrer) + ((typeof(screen)=="undefined")?"":";s"+screen.width+"*"+screen.height+"*"+(screen.colorDepth?screen.colorDepth:screen.pixelDepth)) + ";u" + escape(document.URL) + ";" + Math.random() + "' border=0 width=31 height=31 alt='' title='LiveInternet'><\/a>")</script><!--/LiveInternet-->
</div>
</div>
</div>
</footer>
<!--/noindex-->
</div>
</div>
<script defer="" id="comment-reply-js" src="https://apatii.net/wp-includes/js/comment-reply.min.js?ver=5.5.3" type="text/javascript"></script>
<script defer="" id="apatiiMainJS-js" src="https://apatii.net/wp-content/plugins/apatii-net/resources/assets/js/main.js?ver=5.5.3" type="text/javascript"></script>
<script defer="" id="aeTest-js" src="https://apatii.net/wp-content/plugins/apatii-net/resources/assets/js/test.js?ver=5.5.3" type="text/javascript"></script>
<script id="toc-front-js-extra" type="text/javascript">
/* <![CDATA[ */
var tocplus = {"visibility_show":"\u043f\u043e\u043a\u0430\u0437\u0430\u0442\u044c","visibility_hide":"\u0441\u043a\u0440\u044b\u0442\u044c","width":"100%"};
/* ]]> */
</script>
<script defer="" id="toc-front-js" src="https://apatii.net/wp-content/plugins/table-of-contents-plus/front.min.js?ver=2002" type="text/javascript"></script>
<script defer="" id="wp-embed-js" src="https://apatii.net/wp-includes/js/wp-embed.min.js?ver=5.5.3" type="text/javascript"></script>
<script id="slb_context" type="text/javascript">/* <![CDATA[ */if ( !!window.jQuery ) {(function($){$(document).ready(function(){if ( !!window.SLB ) { {$.extend(SLB, {"context":["public","user_guest"]});} }})})(jQuery);}/* ]]> */</script>
<script type="text/javascript">            
            setTimeout(function() {                
                var script = document.createElement( "script" );
                script.type = "text/javascript";
                script.onload = function() {
                    ( function( grecaptcha ) {

                        var anr_onloadCallback = function() {
                            grecaptcha.execute(
                                '6LfVzN8UAAAAAAhx9OGHCKzFglEvDMzDm1xi_O2u',
                                { action: 'advanced_nocaptcha_recaptcha' }
                            ).then( function( token ) {
                                for ( var i = 0; i < document.forms.length; i++ ) {
                                    var form = document.forms[i];
                                    var captcha = form.querySelector( 'input[name="g-recaptcha-response"]' );
                                    if ( null === captcha )
                                        continue;

                                    captcha.value = token;
                                }
                            });
                        };

                        grecaptcha.ready( anr_onloadCallback );

                        document.addEventListener( 'wpcf7submit', anr_onloadCallback, false );
                        if ( typeof jQuery !== 'undefined' ) {
                            //Woocommerce
                            jQuery( document.body ).on( 'checkout_error', anr_onloadCallback );
                        }
                        //token is valid for 2 minutes, So get new token every after 1 minutes 50 seconds
                        setInterval(anr_onloadCallback, 110000);

                    } )( grecaptcha );
                };            

                script.src = "https://www.google.com/recaptcha/api.js?render=6LfVzN8UAAAAAAhx9OGHCKzFglEvDMzDm1xi_O2u";
                document.getElementsByTagName( "head" )[0].appendChild( script );
            }, 10000);

			</script>
<script async="" src="https://pagead2.googlesyndication.com/pagead/js/adsbygoogle.js"></script>
<!-- Yandex.Metrika counter --> <script type="text/javascript"> (function(m,e,t,r,i,k,a){m[i]=m[i]||function(){(m[i].a=m[i].a||[]).push(arguments)}; m[i].l=1*new Date();k=e.createElement(t),a=e.getElementsByTagName(t)[0],k.async=1,k.src=r,a.parentNode.insertBefore(k,a)}) (window, document, "script", "https://mc.yandex.ru/metrika/tag.js", "ym"); ym(36846725, "init", { clickmap:true, trackLinks:true, accurateTrackBounce:true, webvisor:true }); </script> <noscript><div><img alt="" src="https://mc.yandex.ru/watch/36846725" style="position:absolute; left:-9999px;"/></div></noscript> <!-- /Yandex.Metrika counter -->
<script>
        (function(i,s,o,g,r,a,m){i['GoogleAnalyticsObject']=r;i[r]=i[r]||function(){
                (i[r].q=i[r].q||[]).push(arguments)},i[r].l=1*new Date();a=s.createElement(o),
            m=s.getElementsByTagName(o)[0];a.async=1;a.src=g;m.parentNode.insertBefore(a,m)
        })(window,document,'script','https://www.google-analytics.com/analytics.js','ga');

        ga('create', 'UA-79891301-1', 'auto');
        ga('send', 'pageview');

    </script>
</body>
</html>
<!-- This website is like a Rocket, isn't it? Performance optimized by WP Rocket. Learn more: https://wp-rocket.me - Debug: cached@1610661139 -->