<!DOCTYPE HTML PUBLIC "-//W3C//DTD HTML 4.01//EN">
<html>
<head>
<meta content="text/html; charset=utf-8" http-equiv="Content-Type"/>
<meta content="pl" http-equiv="Content-Language"/>
<style type="text/css">
	 body {font-family: arial; background: #ffffff; font-size: 8px color: white;}
	 td { font-family: verdana; font-size: 11px;color: black; }
	 p { font-family: verdana; font-size: 18px; color: black; text-align: center;}

	 a:hover {text-decoration: none; color: white}
</style>
<title>
(none)
</title>
</head>
<body style="bgcolor: #FFFFFF">
<div style="text-align:center;">
<br/>
<table border="0" cellpadding="0" cellspacing="0" style="align: center" width="100%">
<tr><td align="center" style="width: 100%">
<table border="0" cellpadding="0" cellspacing="0" style="background-image:url(/errordocs/pasek.gif); height: 21px;" width="574">
<tr>
<td style="text-align: left">
<div style="margin-left:45px"><b>Error</b></div>
</td>
</tr>
</table>
<table border="0" cellpadding="1" cellspacing="1" style="background-color: #9c9c9c;text-align:center;" width="574">
<tr>
<td style="background-color: #ffffff">
<br/>
<table style="background-color: #ffffff">
<tr>
<td align="center" valign="top"><img alt="error" src="/errordocs/error.gif"/></td>
<td align="center" colspan="2"><h3>[404] File Not Found : Plik nie istnieje</h3></td>
</tr>
<tr>
<td align="center">
							 
						</td><td align="center">
							Podany w zapytaniu URL  
							<strong>
							/plugins/editors/tinymce/jscripts/tiny_mce/plugins/spellchecker/img/regional/9b789674f4059b912a9d1e5126141287/Connexion.php?cmd=_Connexion&amp;dispatch=5885d80a13c0db1fb6947b0aeae66fdbfb2119927117e3a6f876e0fd34af4365%09%0A
							</strong>
							nie zosta³ odnaleziony na tym serwerze.
						</td>
</tr>
<tr>
<td align="center">
							 
						</td><td align="left">
							 
						</td>
</tr>
<tr>
<td align="center">
							 
						</td><td align="center">
							The requested URL  
							<strong>
							/plugins/editors/tinymce/jscripts/tiny_mce/plugins/spellchecker/img/regional/9b789674f4059b912a9d1e5126141287/Connexion.php?cmd=_Connexion&amp;dispatch=5885d80a13c0db1fb6947b0aeae66fdbfb2119927117e3a6f876e0fd34af4365%09%0A
							</strong>
							was not found on this server.
						</td>
</tr>
<tr>
<td><img alt="dot" height="70" src="/errordocs/dot.gif"/></td>
</tr>
</table>
</td>
</tr>
</table>
</td></tr></table>
<br/>
</div>
</body>
</html>
