<html><body><div class="powr-social-media-icons" id="5f7a6748_1540315788"></div> <!DOCTYPE html>

<!--[if lt IE 7]><html class="no-js lt-ie9 lt-ie8 lt-ie7" lang="en"> <![endif]-->
<!--[if IE 7]><html class="no-js lt-ie9 lt-ie8" lang="en"> <![endif]-->
<!--[if IE 8]><html class="no-js lt-ie9" lang="en"> <![endif]-->
<!--[if IE 9 ]><html class="ie9 no-js"> <![endif]-->
<!--[if (gt IE 9)|!(IE)]><!--> <!--<![endif]-->
<link href="https://unpkg.com/aos@next/dist/aos.css" rel="stylesheet"/>
<link href="https://fonts.googleapis.com/css?family=Days One" rel="stylesheet"/>
<script src="https://unpkg.com/aos@next/dist/aos.js"></script>
<script>
    AOS.init();
  </script>
<meta content="38f1780b5d2bc8ae89ff8bb45b5d9c70" name="verifyownership"/>
<!-- Facebook Pixel Code -->
<script>
  !function(f,b,e,v,n,t,s)
  {if(f.fbq)return;n=f.fbq=function(){n.callMethod?
  n.callMethod.apply(n,arguments):n.queue.push(arguments)};
  if(!f._fbq)f._fbq=n;n.push=n;n.loaded=!0;n.version='2.0';
  n.queue=[];t=b.createElement(e);t.async=!0;
  t.src=v;s=b.getElementsByTagName(e)[0];
  s.parentNode.insertBefore(t,s)}(window, document,'script',
  'https://connect.facebook.net/en_US/fbevents.js');
  fbq('init', '1335249666630379');
  fbq('track', 'PageView');
</script>
<noscript><img height="1" src="https://www.facebook.com/tr?id=1335249666630379&amp;ev=PageView&amp;noscript=1" style="display:none" width="1"/></noscript>
<!-- End Facebook Pixel Code -->
<!-- Global site tag (gtag.js) - Google Ads: 1004042565 -->
<script async="" src="https://www.googletagmanager.com/gtag/js?id=AW-1004042565"></script>
<script>
  window.dataLayer = window.dataLayer || [];
  function gtag(){dataLayer.push(arguments);}
  gtag('js', new Date());

  gtag('config', 'AW-1004042565');
</script>
<script>(function(H){H.className=H.className.replace(/\bno-js\b/,'js')})(document.documentElement)</script>
<!-- Basic page needs ================================================== -->
<meta charset="utf-8"/>
<meta content="IE=edge,chrome=1" http-equiv="X-UA-Compatible"/>
<!-- Title and description ================================================== -->
<title>
  404 Not Found – SkyDroneStore.com
  </title>
<!-- Product meta ================================================== -->
<!-- /snippets/social-meta-tags.liquid -->
<meta content="SkyDroneStore.com" property="og:site_name"/>
<meta content="" property="og:url"/>
<meta content="404 Not Found" property="og:title"/>
<meta content="website" property="og:type"/>
<meta content="SkyDroneStore.com" property="og:description"/>
<meta content="@skydronestore" name="twitter:site"/>
<meta content="summary_large_image" name="twitter:card"/>
<meta content="404 Not Found" name="twitter:title"/>
<meta content="SkyDroneStore.com" name="twitter:description"/>
<!-- Helpers ================================================== -->
<link href="" rel="canonical"/>
<meta content="width=device-width,initial-scale=1" name="viewport"/>
<!-- CSS ================================================== -->
<link href="//cdn.shopifycdn.net/s/files/1/0346/2194/8035/t/2/assets/theme.scss.css?v=8477968624879399629" media="all" rel="stylesheet" type="text/css"/>
<!-- Header hook for plugins ================================================== -->
<script>window.performance && window.performance.mark && window.performance.mark('shopify.content_for_header.start');</script><meta content="w8Wbk2cZtybWgiqMYFU9lAX-BWQl3hRNvAlE7T3WV0A" name="google-site-verification"/>
<meta content="/34621948035/digital_wallets/dialog" id="shopify-digital-wallet" name="shopify-digital-wallet"/>
<meta content="5b836561030073ad56cd9f142d8ed974" name="shopify-checkout-api-token"/>
<meta data-currency="USD" data-environment="production" data-locale="en_US" data-paypal-v4="true" data-shop-id="34621948035" data-venmo-supported="true" id="in-context-paypal-metadata"/>
<link href="https://monorail-edge.shopifysvc.com" rel="dns-prefetch"/>
<script id="apple-pay-shop-capabilities" type="application/json">{"shopId":34621948035,"countryCode":"US","currencyCode":"USD","merchantCapabilities":["supports3DS"],"merchantId":"gid:\/\/shopify\/Shop\/34621948035","merchantName":"SkyDroneStore.com","requiredBillingContactFields":["postalAddress","email"],"requiredShippingContactFields":["postalAddress","email"],"shippingType":"shipping","supportedNetworks":["visa","masterCard","amex","discover","jcb","elo"],"total":{"type":"pending","label":"SkyDroneStore.com","amount":"1.00"}}</script>
<script id="shopify-features" type="application/json">{"accessToken":"5b836561030073ad56cd9f142d8ed974","betas":["rich-media-storefront-analytics"],"domain":"skydronestore.com","predictiveSearch":true,"shopId":34621948035,"smart_payment_buttons_url":"https:\/\/cdn.shopifycdn.net\/shopifycloud\/payment-sheet\/assets\/latest\/spb.en.js","dynamic_checkout_cart_url":"https:\/\/cdn.shopifycdn.net\/shopifycloud\/payment-sheet\/assets\/latest\/dynamic-checkout-cart.en.js","locale":"en"}</script>
<script>var Shopify = Shopify || {};
Shopify.shop = "skydronestore-com.myshopify.com";
Shopify.locale = "en";
Shopify.currency = {"active":"USD","rate":"1.0"};
Shopify.theme = {"name":"Dronetheme","id":89479086211,"theme_store_id":null,"role":"main"};
Shopify.theme.handle = "null";
Shopify.theme.style = {"id":null,"handle":null};
Shopify.cdnHost = "cdn.shopifycdn.net";</script>
<script type="module">!function(o){(o.Shopify=o.Shopify||{}).modules=!0}(window);</script>
<script>!function(o){function n(){var o=[];function n(){o.push(Array.prototype.slice.apply(arguments))}return n.q=o,n}var t=o.Shopify=o.Shopify||{};t.loadFeatures=n(),t.autoloadFeatures=n()}(window);</script>
<script>window.ShopifyPay = window.ShopifyPay || {};
window.ShopifyPay.apiHost = "pay.shopify.com";</script>
<script>(function() {
  function asyncLoad() {
    var urls = ["https:\/\/intg.snapchat.com\/shopify\/shopify-scevent.js?id=4a4c7946-1153-4922-b89b-add1b173030b\u0026shop=skydronestore-com.myshopify.com"];
    for (var i = 0; i < urls.length; i++) {
      var s = document.createElement('script');
      s.type = 'text/javascript';
      s.async = true;
      s.src = urls[i];
      var x = document.getElementsByTagName('script')[0];
      x.parentNode.insertBefore(s, x);
    }
  };
  if(window.attachEvent) {
    window.attachEvent('onload', asyncLoad);
  } else {
    window.addEventListener('load', asyncLoad, false);
  }
})();</script>
<script id="__st">var __st={"a":34621948035,"offset":-21600,"reqid":"5f68aabd-ddc8-4b64-955a-2b94fb6e30d0","pageurl":"skydronestore.com\/404","u":"8df4a4ee46e1"};</script>
<script>window.ShopifyPaypalV4VisibilityTracking = true;</script>
<script>window.ShopifyAnalytics = window.ShopifyAnalytics || {};
window.ShopifyAnalytics.meta = window.ShopifyAnalytics.meta || {};
window.ShopifyAnalytics.meta.currency = 'USD';
var meta = {"page":{}};
for (var attr in meta) {
  window.ShopifyAnalytics.meta[attr] = meta[attr];
}</script>
<script>window.ShopifyAnalytics.merchantGoogleAnalytics = function() {
  
};
</script>
<script class="analytics">(function () {
  var customDocumentWrite = function(content) {
    var jquery = null;

    if (window.jQuery) {
      jquery = window.jQuery;
    } else if (window.Checkout && window.Checkout.$) {
      jquery = window.Checkout.$;
    }

    if (jquery) {
      jquery('body').append(content);
    }
  };

  var hasLoggedConversion = function(token) {
    if (document.cookie.indexOf('loggedConversion=' + window.location.pathname) !== -1) {
      return true;
    }
    if (token) {
      return document.cookie.indexOf('loggedConversion=' + token) !== -1;
    }
    return false;
  }

  var setCookieIfConversion = function(token) {
    if (token) {
      var twoMonthsFromNow = new Date(Date.now());
      twoMonthsFromNow.setMonth(twoMonthsFromNow.getMonth() + 2);

      document.cookie = 'loggedConversion=' + token + '; expires=' + twoMonthsFromNow;
    }
  }

  var trekkie = window.ShopifyAnalytics.lib = window.trekkie = window.trekkie || [];
  if (trekkie.integrations) {
    return;
  }
  trekkie.methods = [
    'identify',
    'page',
    'ready',
    'track',
    'trackForm',
    'trackLink'
  ];
  trekkie.factory = function(method) {
    return function() {
      var args = Array.prototype.slice.call(arguments);
      args.unshift(method);
      trekkie.push(args);
      return trekkie;
    };
  };
  for (var i = 0; i < trekkie.methods.length; i++) {
    var key = trekkie.methods[i];
    trekkie[key] = trekkie.factory(key);
  }
  trekkie.load = function(config) {
    trekkie.config = config;
    var first = document.getElementsByTagName('script')[0];
    var script = document.createElement('script');
    script.type = 'text/javascript';
    script.onerror = function(e) {
      var scriptFallback = document.createElement('script');
      scriptFallback.type = 'text/javascript';
      scriptFallback.onerror = function(error) {
              var Monorail = {
      produce: function produce(monorailDomain, schemaId, payload) {
        var currentMs = new Date().getTime();
        var event = {
          schema_id: schemaId,
          payload: payload,
          metadata: {
            event_created_at_ms: currentMs,
            event_sent_at_ms: currentMs
          }
        };
        return Monorail.sendRequest("https://" + monorailDomain + "/v1/produce", JSON.stringify(event));
      },
      sendRequest: function sendRequest(endpointUrl, payload) {
        // Try the sendBeacon API
        if (window && window.navigator && typeof window.navigator.sendBeacon === 'function' && typeof window.Blob === 'function' && !Monorail.isIos12()) {
          var blobData = new window.Blob([payload], {
            type: 'text/plain'
          });
    
          if (window.navigator.sendBeacon(endpointUrl, blobData)) {
            return true;
          } // sendBeacon was not successful
    
        } // XHR beacon   
    
        var xhr = new XMLHttpRequest();
    
        try {
          xhr.open('POST', endpointUrl);
          xhr.setRequestHeader('Content-Type', 'text/plain');
          xhr.send(payload);
        } catch (e) {
          console.log(e);
        }
    
        return false;
      },
      isIos12: function isIos12() {
        return window.navigator.userAgent.lastIndexOf('iPhone; CPU iPhone OS 12_') !== -1 || window.navigator.userAgent.lastIndexOf('iPad; CPU OS 12_') !== -1;
      }
    };
    Monorail.produce('monorail-edge.shopifysvc.com',
      'trekkie_storefront_load_errors/1.1',
      {shop_id: 34621948035,
      theme_id: 89479086211,
      app_name: "storefront",
      context_url: window.location.href,
      source_url: "https://cdn.shopifycdn.net/s/trekkie.storefront.401facbeaba5a1259432dab90b42809a64735f6c.min.js"});

      };
      scriptFallback.async = true;
      scriptFallback.src = 'https://cdn.shopifycdn.net/s/trekkie.storefront.401facbeaba5a1259432dab90b42809a64735f6c.min.js';
      first.parentNode.insertBefore(scriptFallback, first);
    };
    script.async = true;
    script.src = 'https://cdn.shopifycdn.net/s/trekkie.storefront.401facbeaba5a1259432dab90b42809a64735f6c.min.js';
    first.parentNode.insertBefore(script, first);
  };
  trekkie.load(
    {"Trekkie":{"appName":"storefront","development":false,"defaultAttributes":{"shopId":34621948035,"isMerchantRequest":null,"themeId":89479086211,"themeCityHash":"7720138740761963046","contentLanguage":"en","currency":"USD"},"isServerSideCookieWritingEnabled":true,"isPixelGateEnabled":true},"Performance":{"navigationTimingApiMeasurementsEnabled":true,"navigationTimingApiMeasurementsSampleRate":1},"Session Attribution":{}}
  );

  var loaded = false;
  trekkie.ready(function() {
    if (loaded) return;
    loaded = true;

    window.ShopifyAnalytics.lib = window.trekkie;
    

    var originalDocumentWrite = document.write;
    document.write = customDocumentWrite;
    try { window.ShopifyAnalytics.merchantGoogleAnalytics.call(this); } catch(error) {};
    document.write = originalDocumentWrite;
      (function () {
        if (window.BOOMR && (window.BOOMR.version || window.BOOMR.snippetExecuted)) {
          return;
        }
        window.BOOMR = window.BOOMR || {};
        window.BOOMR.snippetStart = new Date().getTime();
        window.BOOMR.snippetExecuted = true;
        window.BOOMR.snippetVersion = 12;
        window.BOOMR.application = "core";
        window.BOOMR.shopId = 34621948035;
        window.BOOMR.themeId = 89479086211;
        window.BOOMR.themeName = "Supply";
        window.BOOMR.themeVersion = "7.2.0";
        window.BOOMR.url =
          "https://cdn.shopifycdn.net/shopifycloud/boomerang/shopify-boomerang-1.0.0.min.js";
        var where = document.currentScript || document.getElementsByTagName("script")[0];
        var parentNode = where.parentNode;
        var promoted = false;
        var LOADER_TIMEOUT = 3000;
        function promote() {
          if (promoted) {
            return;
          }
          var script = document.createElement("script");
          script.id = "boomr-scr-as";
          script.src = window.BOOMR.url;
          script.async = true;
          parentNode.appendChild(script);
          promoted = true;
        }
        function iframeLoader(wasFallback) {
          promoted = true;
          var dom, bootstrap, iframe, iframeStyle;
          var doc = document;
          var win = window;
          window.BOOMR.snippetMethod = wasFallback ? "if" : "i";
          bootstrap = function(parent, scriptId) {
            var script = doc.createElement("script");
            script.id = scriptId || "boomr-if-as";
            script.src = window.BOOMR.url;
            BOOMR_lstart = new Date().getTime();
            parent = parent || doc.body;
            parent.appendChild(script);
          };
          if (!window.addEventListener && window.attachEvent && navigator.userAgent.match(/MSIE [67]./)) {
            window.BOOMR.snippetMethod = "s";
            bootstrap(parentNode, "boomr-async");
            return;
          }
          iframe = document.createElement("IFRAME");
          iframe.src = "about:blank";
          iframe.title = "";
          iframe.role = "presentation";
          iframe.loading = "eager";
          iframeStyle = (iframe.frameElement || iframe).style;
          iframeStyle.width = 0;
          iframeStyle.height = 0;
          iframeStyle.border = 0;
          iframeStyle.display = "none";
          parentNode.appendChild(iframe);
          try {
            win = iframe.contentWindow;
            doc = win.document.open();
          } catch (e) {
            dom = document.domain;
            iframe.src = "javascript:var d=document.open();d.domain='" + dom + "';void(0);";
            win = iframe.contentWindow;
            doc = win.document.open();
          }
          if (dom) {
            doc._boomrl = function() {
              this.domain = dom;
              bootstrap();
            };
            doc.write("<body onload='document._boomrl();'>");
          } else {
            win._boomrl = function() {
              bootstrap();
            };
            if (win.addEventListener) {
              win.addEventListener("load", win._boomrl, false);
            } else if (win.attachEvent) {
              win.attachEvent("onload", win._boomrl);
            }
          }
          doc.close();
        }
        var link = document.createElement("link");
        if (link.relList &&
          typeof link.relList.supports === "function" &&
          link.relList.supports("preload") &&
          ("as" in link)) {
          window.BOOMR.snippetMethod = "p";
          link.href = window.BOOMR.url;
          link.rel = "preload";
          link.as = "script";
          link.addEventListener("load", promote);
          link.addEventListener("error", function() {
            iframeLoader(true);
          });
          setTimeout(function() {
            if (!promoted) {
              iframeLoader(true);
            }
          }, LOADER_TIMEOUT);
          BOOMR_lstart = new Date().getTime();
          parentNode.appendChild(link);
        } else {
          iframeLoader(false);
        }
        function boomerangSaveLoadTime(e) {
          window.BOOMR_onload = (e && e.timeStamp) || new Date().getTime();
        }
        if (window.addEventListener) {
          window.addEventListener("load", boomerangSaveLoadTime, false);
        } else if (window.attachEvent) {
          window.attachEvent("onload", boomerangSaveLoadTime);
        }
        if (document.addEventListener) {
          document.addEventListener("onBoomerangLoaded", function(e) {
            e.detail.BOOMR.init({
              producer_url: "https://monorail-edge.shopifysvc.com/v1/produce",
              ResourceTiming: {
                enabled: true,
                trackedResourceTypes: ["script", "img", "css"]
              },
            });
            e.detail.BOOMR.t_end = new Date().getTime();
          });
        } else if (document.attachEvent) {
          document.attachEvent("onpropertychange", function(e) {
            if (!e) e=event;
            if (e.propertyName === "onBoomerangLoaded") {
              e.detail.BOOMR.init({
                producer_url: "https://monorail-edge.shopifysvc.com/v1/produce",
                ResourceTiming: {
                  enabled: true,
                  trackedResourceTypes: ["script", "img", "css"]
                },
              });
              e.detail.BOOMR.t_end = new Date().getTime();
            }
          });
        }
      })();
    

    
        window.ShopifyAnalytics.lib.page(
          null,
          {}
        );
      

    var match = window.location.pathname.match(/checkouts\/(.+)\/(thank_you|post_purchase)/)
    var token = match? match[1]: undefined;
    if (!hasLoggedConversion(token)) {
      setCookieIfConversion(token);
      
    }
  });

  
      var eventsListenerScript = document.createElement('script');
      eventsListenerScript.async = true;
      eventsListenerScript.src = "//cdn.shopifycdn.net/shopifycloud/shopify/assets/shop_events_listener-68ba3f1321f00bf07cb78a03841621079812265e950cdccade3463749ea2705e.js";
      document.getElementsByTagName('head')[0].appendChild(eventsListenerScript);
    
})();</script>
<script>!function(e){e.addEventListener("DOMContentLoaded",function(){var t;null!==e.querySelector('form[action^="/contact"] input[name="form_type"][value="contact"]')&&(window.Shopify=window.Shopify||{},window.Shopify.recaptchaV3=window.Shopify.recaptchaV3||{siteKey:"6LcCR2cUAAAAANS1Gpq_mDIJ2pQuJphsSQaUEuc9"},(t=e.createElement("script")).setAttribute("src","https://cdn.shopifycdn.net/shopifycloud/storefront-recaptcha-v3/v0.1/index.js"),e.body.appendChild(t))})}(document);</script>
<script crossorigin="anonymous" data-source-attribution="shopify.loadfeatures" defer="defer" integrity="sha256-JP8SIsmqE7shdlPA0+ooxAp5aigObaKa1CHuwqYHXIY=" src="//cdn.shopifycdn.net/shopifycloud/shopify/assets/storefront/load_feature-24ff1222c9aa13bb217653c0d3ea28c40a796a280e6da29ad421eec2a6075c86.js"></script>
<script crossorigin="anonymous" defer="defer" src="//cdn.shopifycdn.net/shopifycloud/shopify/assets/shopify_pay/storefront-21b5dddfc8b64c1ad68cee3ba7448d1ffa15c24e969ebc1fbccf1a3784b659ad.js?v=20190107"></script>
<script crossorigin="anonymous" data-source-attribution="shopify.dynamic-checkout" defer="defer" integrity="sha256-h+g5mYiIAULyxidxudjy/2wpCz/3Rd1CbrDf4NudHa4=" src="//cdn.shopifycdn.net/shopifycloud/shopify/assets/storefront/features-87e8399988880142f2c62771b9d8f2ff6c290b3ff745dd426eb0dfe0db9d1dae.js"></script>
<style id="shopify-dynamic-checkout-cart">@media screen and (min-width: 750px) {
  #dynamic-checkout-cart {
    min-height: 50px;
  }
}

@media screen and (max-width: 750px) {
  #dynamic-checkout-cart {
    min-height: 240px;
  }
}
</style><script>window.performance && window.performance.mark && window.performance.mark('shopify.content_for_header.end');</script>
<!--[if lt IE 9]>
<script src="//cdnjs.cloudflare.com/ajax/libs/html5shiv/3.7.2/html5shiv.min.js" type="text/javascript"></script>
<![endif]-->
<!--[if (lte IE 9) ]><script src="//cdn.shopifycdn.net/s/files/1/0346/2194/8035/t/2/assets/match-media.min.js?32" type="text/javascript"></script><![endif]-->
<script src="//cdn.shopifycdn.net/s/files/1/0346/2194/8035/t/2/assets/jquery-2.2.3.min.js?v=5821186314690718683" type="text/javascript"></script>
<!--[if (gt IE 9)|!(IE)]><!--><script async="async" src="//cdn.shopifycdn.net/s/files/1/0346/2194/8035/t/2/assets/lazysizes.min.js?v=814795323333422134"></script><!--<![endif]-->
<!--[if lte IE 9]><script src="//cdn.shopifycdn.net/s/files/1/0346/2194/8035/t/2/assets/lazysizes.min.js?v=814795323333422134"></script><![endif]-->
<!--[if (gt IE 9)|!(IE)]><!--><script defer="defer" src="//cdn.shopifycdn.net/s/files/1/0346/2194/8035/t/2/assets/vendor.js?v=2320453362640655128"></script><!--<![endif]-->
<!--[if lte IE 9]><script src="//cdn.shopifycdn.net/s/files/1/0346/2194/8035/t/2/assets/vendor.js?v=2320453362640655128"></script><![endif]-->
<!--[if (gt IE 9)|!(IE)]><!--><script defer="defer" src="//cdn.shopifycdn.net/s/files/1/0346/2194/8035/t/2/assets/theme.js?v=17399474043451084453"></script><!--<![endif]-->
<!--[if lte IE 9]><script src="//cdn.shopifycdn.net/s/files/1/0346/2194/8035/t/2/assets/theme.js?v=17399474043451084453"></script><![endif]-->
<meta content="70dce743361d1598f688a738e88aea8f" name="p:domain_verify"/>
<div class="shopify-section header-section" id="shopify-section-header"><header class="site-header" data-section-id="header" data-section-type="header-section" role="banner">
<div class="wrapper">
<div class="grid--full">
<div class="grid-item large--one-half">
<div class="h1 header-logo" itemscope="" itemtype="http://schema.org/Organization">
<a href="/" itemprop="url">
<div class="lazyload__image-wrapper no-js header-logo__image" style="max-width:350px;">
<div style="padding-top:14.98929336188437%;">
<img alt="SkyDroneStore.com" class="lazyload js" data-aspectratio="4.67" data-sizes="auto" data-src="//cdn.shopifycdn.net/s/files/1/0346/2194/8035/files/skydronestore_{width}x.png?v=1585084619" data-widths="[180, 360, 540, 720, 900, 1080, 1296, 1512, 1728, 2048]" style="width:350px;"/>
</div>
</div>
<noscript>
<img alt="SkyDroneStore.com" itemprop="logo" src="//cdn.shopifycdn.net/s/files/1/0346/2194/8035/files/skydronestore_350x.png?v=1585084619" srcset="//cdn.shopifycdn.net/s/files/1/0346/2194/8035/files/skydronestore_350x.png?v=1585084619 1x, //cdn.shopifycdn.net/s/files/1/0346/2194/8035/files/skydronestore_350x@2x.png?v=1585084619 2x" style="max-width:350px;"/>
</noscript>
</a>
</div>
</div>
<div class="grid-item large--one-half text-center large--text-right">
<div class="site-header--text-links">
<a href="/collections">
<p>Flash Sale - 10% Off Store Wide SHOP NOW</p>
</a>
<span class="site-header--meta-links medium-down--hide">
<a href="/account/login" id="customer_login_link">Sign in</a>
<span class="site-header--spacer">or</span>
<a href="/account/register" id="customer_register_link">Create an Account</a>
</span>
</div>
<br class="medium-down--hide"/>
<form action="/search" class="search-bar" method="get" role="search">
<input name="type" type="hidden" value="product"/>
<input aria-label="Search all products..." name="q" placeholder="Search all products..." type="search" value=""/>
<button class="search-bar--submit icon-fallback-text" type="submit">
<span aria-hidden="true" class="icon icon-search"></span>
<span class="fallback-text">Search</span>
</button>
</form>
<a class="header-cart-btn cart-toggle" href="/cart">
<span class="icon icon-cart"></span>
          Cart <span class="cart-count cart-badge--desktop hidden-count">0</span>
</a>
</div>
</div>
</div>
</header>
<div id="mobileNavBar">
<div class="display-table-cell">
<button aria-controls="navBar" aria-expanded="false" class="menu-toggle mobileNavBar-link"><span aria-hidden="true" class="icon icon-hamburger"></span>Menu</button>
</div>
<div class="display-table-cell">
<a class="cart-toggle mobileNavBar-link" href="/cart">
<span class="icon icon-cart"></span>
      Cart <span class="cart-count hidden-count">0</span>
</a>
</div>
</div>
<nav class="nav-bar" id="navBar" role="navigation">
<div class="wrapper">
<form action="/search" class="search-bar" method="get" role="search">
<input name="type" type="hidden" value="product"/>
<input aria-label="Search all products..." name="q" placeholder="Search all products..." type="search" value=""/>
<button class="search-bar--submit icon-fallback-text" type="submit">
<span aria-hidden="true" class="icon icon-search"></span>
<span class="fallback-text">Search</span>
</button>
</form>
<ul class="mobile-nav" id="MobileNav">
<li class="large--hide">
<a href="/">Home</a>
</li>
<li aria-haspopup="true" class="mobile-nav--has-dropdown ">
<a class="mobile-nav--link" data-meganav-type="parent" href="/collections/drones">
            DRONES
        </a>
<button aria-expanded="false" aria-label="DRONES Menu" class="icon icon-arrow-down mobile-nav--button">
</button>
<ul class="mobile-nav--dropdown " data-meganav-dropdown="" id="MenuParent-1">
<li>
<a class="mobile-nav--link" data-meganav-type="child" href="/collections/under-50">
                    UNDER $50
                </a>
</li>
<li>
<a class="mobile-nav--link" data-meganav-type="child" href="/collections/50-150">
                    $50 - $150
                </a>
</li>
<li>
<a class="mobile-nav--link" data-meganav-type="child" href="/collections/over-150">
                    OVER $150
                </a>
</li>
</ul>
</li>
<li>
<a class="mobile-nav--link" data-meganav-type="child" href="/collections/drone-accessories">
            DRONE ACCESSORIES
        </a>
</li>
<li>
<a class="mobile-nav--link" data-meganav-type="child" href="/collections/cinematography">
            CINEMATOGRAPHY
        </a>
</li>
<li aria-haspopup="true" class="mobile-nav--has-dropdown ">
<a class="mobile-nav--link" data-meganav-type="parent" href="/collections/top-sellers">
            TOP SELLERS
        </a>
<button aria-expanded="false" aria-label="TOP SELLERS Menu" class="icon icon-arrow-down mobile-nav--button">
</button>
<ul class="mobile-nav--dropdown " data-meganav-dropdown="" id="MenuParent-4">
<li>
<a class="mobile-nav--link" data-meganav-type="child" href="/collections/under-50">
                    UNDER $50
                </a>
</li>
<li>
<a class="mobile-nav--link" data-meganav-type="child" href="/collections/50-150">
                    $50 - $150
                </a>
</li>
<li>
<a class="mobile-nav--link" data-meganav-type="child" href="/collections/over-150">
                    OVER $150
                </a>
</li>
</ul>
</li>
<li aria-haspopup="true" class="mobile-nav--has-dropdown ">
<a class="mobile-nav--link" data-meganav-type="parent" href="/collections/new-in">
            NEW IN
        </a>
<button aria-expanded="false" aria-label="NEW IN Menu" class="icon icon-arrow-down mobile-nav--button">
</button>
<ul class="mobile-nav--dropdown " data-meganav-dropdown="" id="MenuParent-5">
<li>
<a class="mobile-nav--link" data-meganav-type="child" href="/collections/under-50">
                    UNDER $50
                </a>
</li>
<li>
<a class="mobile-nav--link" data-meganav-type="child" href="/collections/50-150">
                    $50 - $150
                </a>
</li>
<li>
<a class="mobile-nav--link" data-meganav-type="child" href="/collections/over-150">
                    OVER $150
                </a>
</li>
</ul>
</li>
<li class="customer-navlink large--hide"><a href="/account/login" id="customer_login_link">Sign in</a></li>
<li class="customer-navlink large--hide"><a href="/account/register" id="customer_register_link">Create an Account</a></li>
</ul>
<ul class="site-nav" id="AccessibleNav">
<li class="large--hide">
<a href="/">Home</a>
</li>
<li aria-haspopup="true" class="site-nav--has-dropdown ">
<a aria-controls="MenuParent-1" aria-expanded="false" class="site-nav--link" data-meganav-type="parent" href="/collections/drones">
            DRONES
            <span aria-hidden="true" class="icon icon-arrow-down"></span>
</a>
<ul class="site-nav--dropdown " data-meganav-dropdown="" id="MenuParent-1">
<li>
<a class="site-nav--link" data-meganav-type="child" href="/collections/under-50" tabindex="-1">
                    UNDER $50
                </a>
</li>
<li>
<a class="site-nav--link" data-meganav-type="child" href="/collections/50-150" tabindex="-1">
                    $50 - $150
                </a>
</li>
<li>
<a class="site-nav--link" data-meganav-type="child" href="/collections/over-150" tabindex="-1">
                    OVER $150
                </a>
</li>
</ul>
</li>
<li>
<a class="site-nav--link" data-meganav-type="child" href="/collections/drone-accessories">
            DRONE ACCESSORIES
        </a>
</li>
<li>
<a class="site-nav--link" data-meganav-type="child" href="/collections/cinematography">
            CINEMATOGRAPHY
        </a>
</li>
<li aria-haspopup="true" class="site-nav--has-dropdown ">
<a aria-controls="MenuParent-4" aria-expanded="false" class="site-nav--link" data-meganav-type="parent" href="/collections/top-sellers">
            TOP SELLERS
            <span aria-hidden="true" class="icon icon-arrow-down"></span>
</a>
<ul class="site-nav--dropdown " data-meganav-dropdown="" id="MenuParent-4">
<li>
<a class="site-nav--link" data-meganav-type="child" href="/collections/under-50" tabindex="-1">
                    UNDER $50
                </a>
</li>
<li>
<a class="site-nav--link" data-meganav-type="child" href="/collections/50-150" tabindex="-1">
                    $50 - $150
                </a>
</li>
<li>
<a class="site-nav--link" data-meganav-type="child" href="/collections/over-150" tabindex="-1">
                    OVER $150
                </a>
</li>
</ul>
</li>
<li aria-haspopup="true" class="site-nav--has-dropdown ">
<a aria-controls="MenuParent-5" aria-expanded="false" class="site-nav--link" data-meganav-type="parent" href="/collections/new-in">
            NEW IN
            <span aria-hidden="true" class="icon icon-arrow-down"></span>
</a>
<ul class="site-nav--dropdown " data-meganav-dropdown="" id="MenuParent-5">
<li>
<a class="site-nav--link" data-meganav-type="child" href="/collections/under-50" tabindex="-1">
                    UNDER $50
                </a>
</li>
<li>
<a class="site-nav--link" data-meganav-type="child" href="/collections/50-150" tabindex="-1">
                    $50 - $150
                </a>
</li>
<li>
<a class="site-nav--link" data-meganav-type="child" href="/collections/over-150" tabindex="-1">
                    OVER $150
                </a>
</li>
</ul>
</li>
<li class="customer-navlink large--hide"><a href="/account/login" id="customer_login_link">Sign in</a></li>
<li class="customer-navlink large--hide"><a href="/account/register" id="customer_register_link">Create an Account</a></li>
</ul>
</div>
</nav>
</div>
<main class="wrapper main-content" role="main">
<nav aria-label="breadcrumbs" class="breadcrumb" role="navigation">
<a href="/" title="Back to the frontpage">Home</a>
<span aria-hidden="true" class="divider">›</span>
<span>404 Not Found</span>
</nav>
<div class="grid">
<div class="grid-item large--two-thirds push--large--one-sixth text-center">
<h1>404 Page Not Found</h1>
<p>The page you requested does not exist. Click <a href="/collections/all">here</a> to continue shopping.</p>
</div>
</div>
</main>
<div class="shopify-section footer-section" id="shopify-section-footer">
<footer class="site-footer small--text-center" role="contentinfo">
<div class="wrapper">
<div class="grid">
<div class="grid-item small--one-whole one-quarter">
<h3>Quick links</h3>
<ul>
<li><a href="/search">Search</a></li>
</ul>
</div>
<div class="grid-item small--one-whole one-third">
<h3>Customer Services</h3>
<ul>
<li><a href="/pages/about-us">About Us</a></li>
<li><a href="/pages/contact-us">Contact Us</a></li>
<li><a href="/pages/privacy-policy">Privacy Policy</a></li>
<li><a href="/pages/terms-of-service">Terms of Service</a></li>
</ul>
</div>
<div class="grid-item small--one-whole one-third">
<h3>Newsletter</h3>
<div class="site-footer__newsletter-subtext">
<p>Promotions, new products and sales. Directly to your inbox.</p>
</div>
<div class="form-vertical">
<form accept-charset="UTF-8" action="/contact#contact_form" class="contact-form" id="contact_form" method="post"><input name="form_type" type="hidden" value="customer"/><input name="utf8" type="hidden" value="✓"/>
<input name="contact[tags]" type="hidden" value="newsletter"/>
<div class="input-group">
<label class="visually-hidden" for="Email">Email</label>
<input aria-label="Email Address" autocapitalize="off" autocorrect="off" class="input-group-field" id="Email" name="contact[email]" placeholder="Email Address" type="email" value=""/>
<span class="input-group-btn">
<button class="btn-secondary btn--small" id="subscribe" name="commit" type="submit">Sign Up</button>
</span>
</div>
</form>
</div>
</div>
</div>
<hr class="hr--small"/>
<div class="grid">
<div class="grid-item one-whole text-center">
<ul class="inline-list social-icons">
<li>
<a class="icon-fallback-text" href="https://twitter.com/skydronestore" title="SkyDroneStore.com on Twitter">
<span aria-hidden="true" class="icon icon-twitter"></span>
<span class="fallback-text">Twitter</span>
</a>
</li>
<li>
<a class="icon-fallback-text" href="https://facebook.com/skydronestore" title="SkyDroneStore.com on Facebook">
<span aria-hidden="true" class="icon icon-facebook"></span>
<span class="fallback-text">Facebook</span>
</a>
</li>
<li>
<a class="icon-fallback-text" href="https://pinterest.com/skydronestore" title="SkyDroneStore.com on Pinterest">
<span aria-hidden="true" class="icon icon-pinterest"></span>
<span class="fallback-text">Pinterest</span>
</a>
</li>
<li>
<a class="icon-fallback-text" href="https://instagram.com/skydronestore" title="SkyDroneStore.com on Instagram">
<span aria-hidden="true" class="icon icon-instagram"></span>
<span class="fallback-text">Instagram</span>
</a>
</li>
</ul>
</div>
</div>
<hr class="hr--small"/>
<div class="grid">
<div class="grid-item large--two-fifths">
<ul class="legal-links inline-list">
<li>
                © 2021 <a href="/" title="">SkyDroneStore.com</a>
</li>
<li>
<a href="https://www.shopify.com?utm_campaign=poweredby&amp;utm_medium=shopify&amp;utm_source=onlinestore" rel="nofollow" target="_blank">Powered by Shopify</a>
</li>
</ul>
</div><div class="grid-item large--three-fifths large--text-right">
<span class="visually-hidden">Payment icons</span>
<ul class="inline-list payment-icons"><li>
<svg aria-labelledby="pi-american_express" class="icon" height="24" role="img" viewbox="0 0 38 24" width="38" xmlns="http://www.w3.org/2000/svg"><title id="pi-american_express">American Express</title><g fill="none"><path d="M35,0 L3,0 C1.3,0 0,1.3 0,3 L0,21 C0,22.7 1.4,24 3,24 L35,24 C36.7,24 38,22.7 38,21 L38,3 C38,1.3 36.6,0 35,0 Z" fill="#000" opacity=".07"></path><path d="M35,1 C36.1,1 37,1.9 37,3 L37,21 C37,22.1 36.1,23 35,23 L3,23 C1.9,23 1,22.1 1,21 L1,3 C1,1.9 1.9,1 3,1 L35,1" fill="#006FCF"></path><path d="M8.971,10.268 L9.745,12.144 L8.203,12.144 L8.971,10.268 Z M25.046,10.346 L22.069,10.346 L22.069,11.173 L24.998,11.173 L24.998,12.412 L22.075,12.412 L22.075,13.334 L25.052,13.334 L25.052,14.073 L27.129,11.828 L25.052,9.488 L25.046,10.346 L25.046,10.346 Z M10.983,8.006 L14.978,8.006 L15.865,9.941 L16.687,8 L27.057,8 L28.135,9.19 L29.25,8 L34.013,8 L30.494,11.852 L33.977,15.68 L29.143,15.68 L28.065,14.49 L26.94,15.68 L10.03,15.68 L9.536,14.49 L8.406,14.49 L7.911,15.68 L4,15.68 L7.286,8 L10.716,8 L10.983,8.006 Z M19.646,9.084 L17.407,9.084 L15.907,12.62 L14.282,9.084 L12.06,9.084 L12.06,13.894 L10,9.084 L8.007,9.084 L5.625,14.596 L7.18,14.596 L7.674,13.406 L10.27,13.406 L10.764,14.596 L13.484,14.596 L13.484,10.661 L15.235,14.602 L16.425,14.602 L18.165,10.673 L18.165,14.603 L19.623,14.603 L19.647,9.083 L19.646,9.084 Z M28.986,11.852 L31.517,9.084 L29.695,9.084 L28.094,10.81 L26.546,9.084 L20.652,9.084 L20.652,14.602 L26.462,14.602 L28.076,12.864 L29.624,14.602 L31.499,14.602 L28.987,11.852 L28.986,11.852 Z" fill="#FFF"></path></g></svg>
</li><li>
<svg aria-labelledby="pi-apple_pay" class="icon" height="24" role="img" version="1.1" viewbox="0 0 165.521 105.965" width="38" x="0" xml:space="preserve" xmlns="http://www.w3.org/2000/svg" y="0"><title id="pi-apple_pay">Apple Pay</title><path d="M150.698 0H14.823c-.566 0-1.133 0-1.698.003-.477.004-.953.009-1.43.022-1.039.028-2.087.09-3.113.274a10.51 10.51 0 0 0-2.958.975 9.932 9.932 0 0 0-4.35 4.35 10.463 10.463 0 0 0-.975 2.96C.113 9.611.052 10.658.024 11.696a70.22 70.22 0 0 0-.022 1.43C0 13.69 0 14.256 0 14.823v76.318c0 .567 0 1.132.002 1.699.003.476.009.953.022 1.43.028 1.036.09 2.084.275 3.11a10.46 10.46 0 0 0 .974 2.96 9.897 9.897 0 0 0 1.83 2.52 9.874 9.874 0 0 0 2.52 1.83c.947.483 1.917.79 2.96.977 1.025.183 2.073.245 3.112.273.477.011.953.017 1.43.02.565.004 1.132.004 1.698.004h135.875c.565 0 1.132 0 1.697-.004.476-.002.952-.009 1.431-.02 1.037-.028 2.085-.09 3.113-.273a10.478 10.478 0 0 0 2.958-.977 9.955 9.955 0 0 0 4.35-4.35c.483-.947.789-1.917.974-2.96.186-1.026.246-2.074.274-3.11.013-.477.02-.954.022-1.43.004-.567.004-1.132.004-1.699V14.824c0-.567 0-1.133-.004-1.699a63.067 63.067 0 0 0-.022-1.429c-.028-1.038-.088-2.085-.274-3.112a10.4 10.4 0 0 0-.974-2.96 9.94 9.94 0 0 0-4.35-4.35A10.52 10.52 0 0 0 156.939.3c-1.028-.185-2.076-.246-3.113-.274a71.417 71.417 0 0 0-1.431-.022C151.83 0 151.263 0 150.698 0z" fill="#000"></path><path d="M150.698 3.532l1.672.003c.452.003.905.008 1.36.02.793.022 1.719.065 2.583.22.75.135 1.38.34 1.984.648a6.392 6.392 0 0 1 2.804 2.807c.306.6.51 1.226.645 1.983.154.854.197 1.783.218 2.58.013.45.019.9.02 1.36.005.557.005 1.113.005 1.671v76.318c0 .558 0 1.114-.004 1.682-.002.45-.008.9-.02 1.35-.022.796-.065 1.725-.221 2.589a6.855 6.855 0 0 1-.645 1.975 6.397 6.397 0 0 1-2.808 2.807c-.6.306-1.228.511-1.971.645-.881.157-1.847.2-2.574.22-.457.01-.912.017-1.379.019-.555.004-1.113.004-1.669.004H14.801c-.55 0-1.1 0-1.66-.004a74.993 74.993 0 0 1-1.35-.018c-.744-.02-1.71-.064-2.584-.22a6.938 6.938 0 0 1-1.986-.65 6.337 6.337 0 0 1-1.622-1.18 6.355 6.355 0 0 1-1.178-1.623 6.935 6.935 0 0 1-.646-1.985c-.156-.863-.2-1.788-.22-2.578a66.088 66.088 0 0 1-.02-1.355l-.003-1.327V14.474l.002-1.325a66.7 66.7 0 0 1 .02-1.357c.022-.792.065-1.717.222-2.587a6.924 6.924 0 0 1 .646-1.981c.304-.598.7-1.144 1.18-1.623a6.386 6.386 0 0 1 1.624-1.18 6.96 6.96 0 0 1 1.98-.646c.865-.155 1.792-.198 2.586-.22.452-.012.905-.017 1.354-.02l1.677-.003h135.875" fill="#FFF"></path><g><g><path d="M43.508 35.77c1.404-1.755 2.356-4.112 2.105-6.52-2.054.102-4.56 1.355-6.012 3.112-1.303 1.504-2.456 3.959-2.156 6.266 2.306.2 4.61-1.152 6.063-2.858" fill="#000"></path><path d="M45.587 39.079c-3.35-.2-6.196 1.9-7.795 1.9-1.6 0-4.049-1.8-6.698-1.751-3.447.05-6.645 2-8.395 5.1-3.598 6.2-.95 15.4 2.55 20.45 1.699 2.5 3.747 5.25 6.445 5.151 2.55-.1 3.549-1.65 6.647-1.65 3.097 0 3.997 1.65 6.696 1.6 2.798-.05 4.548-2.5 6.247-5 1.95-2.85 2.747-5.6 2.797-5.75-.05-.05-5.396-2.101-5.446-8.251-.05-5.15 4.198-7.6 4.398-7.751-2.399-3.548-6.147-3.948-7.447-4.048" fill="#000"></path></g><g><path d="M78.973 32.11c7.278 0 12.347 5.017 12.347 12.321 0 7.33-5.173 12.373-12.529 12.373h-8.058V69.62h-5.822V32.11h14.062zm-8.24 19.807h6.68c5.07 0 7.954-2.729 7.954-7.46 0-4.73-2.885-7.434-7.928-7.434h-6.706v14.894z" fill="#000"></path><path d="M92.764 61.847c0-4.809 3.665-7.564 10.423-7.98l7.252-.442v-2.08c0-3.04-2.001-4.704-5.562-4.704-2.938 0-5.07 1.507-5.51 3.82h-5.252c.157-4.86 4.731-8.395 10.918-8.395 6.654 0 10.995 3.483 10.995 8.89v18.663h-5.38v-4.497h-.13c-1.534 2.937-4.914 4.782-8.579 4.782-5.406 0-9.175-3.222-9.175-8.057zm17.675-2.417v-2.106l-6.472.416c-3.64.234-5.536 1.585-5.536 3.95 0 2.288 1.975 3.77 5.068 3.77 3.95 0 6.94-2.522 6.94-6.03z" fill="#000"></path><path d="M120.975 79.652v-4.496c.364.051 1.247.103 1.715.103 2.573 0 4.029-1.09 4.913-3.899l.52-1.663-9.852-27.293h6.082l6.863 22.146h.13l6.862-22.146h5.927l-10.216 28.67c-2.34 6.577-5.017 8.735-10.683 8.735-.442 0-1.872-.052-2.261-.157z" fill="#000"></path></g></g></svg>
</li><li>
<svg aria-labelledby="pi-diners_club" class="icon" height="24" role="img" viewbox="0 0 38 24" width="38" xmlns="http://www.w3.org/2000/svg"><title id="pi-diners_club">Diners Club</title><path d="M35 0H3C1.3 0 0 1.3 0 3v18c0 1.7 1.4 3 3 3h32c1.7 0 3-1.3 3-3V3c0-1.7-1.4-3-3-3z" opacity=".07"></path><path d="M35 1c1.1 0 2 .9 2 2v18c0 1.1-.9 2-2 2H3c-1.1 0-2-.9-2-2V3c0-1.1.9-2 2-2h32" fill="#fff"></path><path d="M12 12v3.7c0 .3-.2.3-.5.2-1.9-.8-3-3.3-2.3-5.4.4-1.1 1.2-2 2.3-2.4.4-.2.5-.1.5.2V12zm2 0V8.3c0-.3 0-.3.3-.2 2.1.8 3.2 3.3 2.4 5.4-.4 1.1-1.2 2-2.3 2.4-.4.2-.4.1-.4-.2V12zm7.2-7H13c3.8 0 6.8 3.1 6.8 7s-3 7-6.8 7h8.2c3.8 0 6.8-3.1 6.8-7s-3-7-6.8-7z" fill="#3086C8"></path></svg>
</li><li>
<svg aria-labelledby="pi-discover" class="icon" height="24" role="img" viewbox="0 0 38 24" width="38" xmlns="http://www.w3.org/2000/svg"><title id="pi-discover">Discover</title><path d="M35 0H3C1.3 0 0 1.3 0 3v18c0 1.7 1.4 3 3 3h32c1.7 0 3-1.3 3-3V3c0-1.7-1.4-3-3-3z" fill="#000" opacity=".07"></path><path d="M35 1c1.1 0 2 .9 2 2v18c0 1.1-.9 2-2 2H3c-1.1 0-2-.9-2-2V3c0-1.1.9-2 2-2h32" fill="#FFF"></path><path d="M37 16.95V21c0 1.1-.9 2-2 2H23.228c7.896-1.815 12.043-4.601 13.772-6.05z" fill="#EDA024"></path><path d="M9 11h20v2H9z" fill="#494949"></path><path d="M22 12c0 1.7-1.3 3-3 3s-3-1.4-3-3 1.4-3 3-3c1.7 0 3 1.3 3 3z" fill="#EDA024"></path></svg>
</li><li>
<svg aria-labelledby="pi-elo" class="icon" height="24" role="img" viewbox="0 0 38 24" width="38" xmlns="http://www.w3.org/2000/svg"><title id="pi-elo">Elo</title><g fill="none" fill-rule="nonzero"><path d="M35 0H3C1.3 0 0 1.3 0 3v18c0 1.7 1.4 3 3 3h32c1.7 0 3-1.3 3-3V3c0-1.7-1.4-3-3-3z" fill="#000" opacity=".07"></path><path d="M35 1c1.1 0 2 .9 2 2v18c0 1.1-.9 2-2 2H3c-1.1 0-2-.9-2-2V3c0-1.1.9-2 2-2h32" fill="#FFF"></path><g fill="#000"><path d="M13.3 15.5c-.6.6-1.4.9-2.3.9-.6 0-1.2-.2-1.6-.5l-1.2 1.9c.8.6 1.8.9 2.8.9 1.5 0 2.9-.6 3.9-1.6l-1.6-1.6zm-2.1-7.7c-3 0-5.5 2.4-5.5 5.4 0 1.1.3 2.2.9 3.1l9.8-4.2c-.6-2.5-2.7-4.3-5.2-4.3zm-3.3 5.8v-.4c0-1.8 1.5-3.2 3.2-3.2 1 0 1.8.5 2.4 1.1l-5.6 2.5zm11.6-8.3v10.5l1.8.8-.9 2.1-1.8-.8c-.4-.2-.7-.4-.9-.7-.2-.3-.3-.7-.3-1.3V5.3h2.1zM26 10.2c.3-.1.7-.2 1-.2 1.5 0 2.8 1.1 3.1 2.6l2.2-.4c-.5-2.5-2.7-4.4-5.3-4.4-.6 0-1.2.1-1.7.3l.7 2.1zm-2.6 7.1l1.5-1.7c-.7-.6-1.1-1.4-1.1-2.4s.4-1.8 1.1-2.4l-1.5-1.7c-1.1 1-1.8 2.5-1.8 4.1 0 1.7.7 3.1 1.8 4.1zm6.7-3.4c-.3 1.5-1.6 2.6-3.1 2.6-.4 0-.7-.1-1-.2l-.7 2.1c.5.2 1.1.3 1.7.3 2.6 0 4.8-1.9 5.3-4.4l-2.2-.4z"></path></g></g></svg>
</li><li>
<svg aria-labelledby="pi-google_pay" class="icon" height="24" role="img" viewbox="0 0 38 24" width="38" xmlns="http://www.w3.org/2000/svg"><title id="pi-google_pay">Google Pay</title><path d="M35 0H3C1.3 0 0 1.3 0 3v18c0 1.7 1.4 3 3 3h32c1.7 0 3-1.3 3-3V3c0-1.7-1.4-3-3-3z" fill="#000" opacity=".07"></path><path d="M35 1c1.1 0 2 .9 2 2v18c0 1.1-.9 2-2 2H3c-1.1 0-2-.9-2-2V3c0-1.1.9-2 2-2h32" fill="#FFF"></path><path d="M18.093 11.976v3.2h-1.018v-7.9h2.691a2.447 2.447 0 0 1 1.747.692 2.28 2.28 0 0 1 .11 3.224l-.11.116c-.47.447-1.098.69-1.747.674l-1.673-.006zm0-3.732v2.788h1.698c.377.012.741-.135 1.005-.404a1.391 1.391 0 0 0-1.005-2.354l-1.698-.03zm6.484 1.348c.65-.03 1.286.188 1.778.613.445.43.682 1.03.65 1.649v3.334h-.969v-.766h-.049a1.93 1.93 0 0 1-1.673.931 2.17 2.17 0 0 1-1.496-.533 1.667 1.667 0 0 1-.613-1.324 1.606 1.606 0 0 1 .613-1.336 2.746 2.746 0 0 1 1.698-.515c.517-.02 1.03.093 1.49.331v-.208a1.134 1.134 0 0 0-.417-.901 1.416 1.416 0 0 0-.98-.368 1.545 1.545 0 0 0-1.319.717l-.895-.564a2.488 2.488 0 0 1 2.182-1.06zM23.29 13.52a.79.79 0 0 0 .337.662c.223.176.5.269.785.263.429-.001.84-.17 1.146-.472.305-.286.478-.685.478-1.103a2.047 2.047 0 0 0-1.324-.374 1.716 1.716 0 0 0-1.03.294.883.883 0 0 0-.392.73zm9.286-3.75l-3.39 7.79h-1.048l1.281-2.728-2.224-5.062h1.103l1.612 3.885 1.569-3.885h1.097z" fill="#5F6368"></path><path d="M13.986 11.284c0-.308-.024-.616-.073-.92h-4.29v1.747h2.451a2.096 2.096 0 0 1-.9 1.373v1.134h1.464a4.433 4.433 0 0 0 1.348-3.334z" fill="#4285F4"></path><path d="M9.629 15.721a4.352 4.352 0 0 0 3.01-1.097l-1.466-1.14a2.752 2.752 0 0 1-4.094-1.44H5.577v1.17a4.53 4.53 0 0 0 4.052 2.507z" fill="#34A853"></path><path d="M7.079 12.05a2.709 2.709 0 0 1 0-1.735v-1.17H5.577a4.505 4.505 0 0 0 0 4.075l1.502-1.17z" fill="#FBBC04"></path><path d="M9.629 8.44a2.452 2.452 0 0 1 1.74.68l1.3-1.293a4.37 4.37 0 0 0-3.065-1.183 4.53 4.53 0 0 0-4.027 2.5l1.502 1.171a2.715 2.715 0 0 1 2.55-1.875z" fill="#EA4335"></path></svg>
</li><li>
<svg aria-labelledby="pi-jcb" class="icon" height="24" role="img" viewbox="0 0 38 24" width="38" xmlns="http://www.w3.org/2000/svg"><title id="pi-jcb">JCB</title><g fill="none" fill-rule="evenodd"><g fill-rule="nonzero"><path d="M35 0H3C1.3 0 0 1.3 0 3v18c0 1.7 1.4 3 3 3h32c1.7 0 3-1.3 3-3V3c0-1.7-1.4-3-3-3z" fill="#000" opacity=".07"></path><path d="M35 1c1.1 0 2 .9 2 2v18c0 1.1-.9 2-2 2H3c-1.1 0-2-.9-2-2V3c0-1.1.9-2 2-2h32" fill="#FFF"></path></g><path d="M11.5 5H15v11.5a2.5 2.5 0 0 1-2.5 2.5H9V7.5A2.5 2.5 0 0 1 11.5 5z" fill="#006EBC"></path><path d="M18.5 5H22v11.5a2.5 2.5 0 0 1-2.5 2.5H16V7.5A2.5 2.5 0 0 1 18.5 5z" fill="#F00036"></path><path d="M25.5 5H29v11.5a2.5 2.5 0 0 1-2.5 2.5H23V7.5A2.5 2.5 0 0 1 25.5 5z" fill="#2AB419"></path><path d="M10.755 14.5c-1.06 0-2.122-.304-2.656-.987l.78-.676c.068 1.133 3.545 1.24 3.545-.19V9.5h1.802v3.147c0 .728-.574 1.322-1.573 1.632-.466.144-1.365.221-1.898.221zm8.116 0c-.674 0-1.388-.107-1.965-.366-.948-.425-1.312-1.206-1.3-2.199.012-1.014.436-1.782 1.468-2.165 1.319-.49 3.343-.261 3.926.27v.972c-.572-.521-1.958-.898-2.919-.46-.494.226-.737.917-.744 1.448-.006.56.245 1.252.744 1.497.953.467 2.39.04 2.919-.441v1.01c-.358.255-1.253.434-2.129.434zm8.679-2.587c.37-.235.582-.567.582-1.005 0-.438-.116-.687-.348-.939-.206-.207-.58-.469-1.238-.469H23v5h3.546c.696 0 1.097-.23 1.315-.415.283-.25.426-.53.426-.96 0-.431-.155-.908-.737-1.212zm-1.906-.281h-1.428v-1.444h1.495c.956 0 .944 1.444-.067 1.444zm.288 2.157h-1.716v-1.513h1.716c.986 0 1.083 1.513 0 1.513z" fill="#FFF" fill-rule="nonzero"></path></g></svg>
</li><li>
<svg aria-labelledby="pi-master" class="icon" height="24" role="img" viewbox="0 0 38 24" width="38" xmlns="http://www.w3.org/2000/svg"><title id="pi-master">Mastercard</title><path d="M35 0H3C1.3 0 0 1.3 0 3v18c0 1.7 1.4 3 3 3h32c1.7 0 3-1.3 3-3V3c0-1.7-1.4-3-3-3z" opacity=".07"></path><path d="M35 1c1.1 0 2 .9 2 2v18c0 1.1-.9 2-2 2H3c-1.1 0-2-.9-2-2V3c0-1.1.9-2 2-2h32" fill="#fff"></path><circle cx="15" cy="12" fill="#EB001B" r="7"></circle><circle cx="23" cy="12" fill="#F79E1B" r="7"></circle><path d="M22 12c0-2.4-1.2-4.5-3-5.7-1.8 1.3-3 3.4-3 5.7s1.2 4.5 3 5.7c1.8-1.2 3-3.3 3-5.7z" fill="#FF5F00"></path></svg>
</li><li>
<svg aria-labelledby="pi-paypal" class="icon" height="24" role="img" viewbox="0 0 38 24" width="38" xmlns="http://www.w3.org/2000/svg"><title id="pi-paypal">PayPal</title><path d="M35 0H3C1.3 0 0 1.3 0 3v18c0 1.7 1.4 3 3 3h32c1.7 0 3-1.3 3-3V3c0-1.7-1.4-3-3-3z" opacity=".07"></path><path d="M35 1c1.1 0 2 .9 2 2v18c0 1.1-.9 2-2 2H3c-1.1 0-2-.9-2-2V3c0-1.1.9-2 2-2h32" fill="#fff"></path><path d="M23.9 8.3c.2-1 0-1.7-.6-2.3-.6-.7-1.7-1-3.1-1h-4.1c-.3 0-.5.2-.6.5L14 15.6c0 .2.1.4.3.4H17l.4-3.4 1.8-2.2 4.7-2.1z" fill="#003087"></path><path d="M23.9 8.3l-.2.2c-.5 2.8-2.2 3.8-4.6 3.8H18c-.3 0-.5.2-.6.5l-.6 3.9-.2 1c0 .2.1.4.3.4H19c.3 0 .5-.2.5-.4v-.1l.4-2.4v-.1c0-.2.3-.4.5-.4h.3c2.1 0 3.7-.8 4.1-3.2.2-1 .1-1.8-.4-2.4-.1-.5-.3-.7-.5-.8z" fill="#3086C8"></path><path d="M23.3 8.1c-.1-.1-.2-.1-.3-.1-.1 0-.2 0-.3-.1-.3-.1-.7-.1-1.1-.1h-3c-.1 0-.2 0-.2.1-.2.1-.3.2-.3.4l-.7 4.4v.1c0-.3.3-.5.6-.5h1.3c2.5 0 4.1-1 4.6-3.8v-.2c-.1-.1-.3-.2-.5-.2h-.1z" fill="#012169"></path></svg>
</li><li>
<svg aria-labelledby="pi-shopify_pay" class="icon" height="24" role="img" viewbox="0 0 38 24" width="38" xmlns="http://www.w3.org/2000/svg"><title id="pi-shopify_pay">Shop Pay</title><path d="M35 0H3C1.3 0 0 1.3 0 3v18c0 1.7 1.4 3 3 3h32c1.7 0 3-1.3 3-3V3c0-1.7-1.4-3-3-3z" fill="#000" opacity=".07"></path><path d="M35 1c1.1 0 2 .9 2 2v18c0 1.1-.9 2-2 2H3c-1.1 0-2-.9-2-2V3c0-1.1.9-2 2-2h32z" fill="#5A31F4"></path><path d="M21.382 9.713c0 1.668-1.177 2.858-2.821 2.858h-1.549a.133.133 0 00-.12.08.127.127 0 00-.01.049v2.192a.129.129 0 01-.13.129h-1.084a.13.13 0 01-.13-.13V6.986a.127.127 0 01.08-.12.129.129 0 01.05-.01h2.9c1.637 0 2.814 1.19 2.814 2.858v-.001zm-1.352 0c0-.958-.658-1.658-1.55-1.658h-1.468a.13.13 0 00-.13.13v3.05a.127.127 0 00.038.092.129.129 0 00.092.038h1.468c.892.005 1.55-.695 1.55-1.652zm1.674 3.791a1.527 1.527 0 01.647-1.317c.423-.316 1.084-.48 2.055-.514l1.033-.036v-.303c0-.607-.41-.863-1.068-.863-.658 0-1.075.231-1.17.61a.127.127 0 01-.125.09h-1.022a.13.13 0 01-.126-.092.125.125 0 01-.004-.055c.152-.898.904-1.58 2.494-1.58 1.692 0 2.303.783 2.303 2.276v3.172a.13.13 0 01-.132.129h-1.03a.13.13 0 01-.13-.13v-.236a.096.096 0 00-.061-.091.1.1 0 00-.107.022c-.31.334-.808.575-1.607.575-1.175 0-1.95-.607-1.95-1.657zm3.735-.687v-.246l-1.339.07c-.705.036-1.115.326-1.115.816 0 .444.376.69 1.034.69.893 0 1.42-.48 1.42-1.33zm2.316 4.6v-.919a.13.13 0 01.049-.1.132.132 0 01.108-.027c.158.029.318.044.479.044a1.229 1.229 0 001.245-.876l.067-.211a.133.133 0 000-.088l-2.145-5.471a.13.13 0 01.06-.165.13.13 0 01.062-.015h1.04a.132.132 0 01.123.085l1.456 3.859a.131.131 0 00.125.088.133.133 0 00.125-.088l1.265-3.848a.13.13 0 01.126-.09h1.076a.134.134 0 01.132.116.134.134 0 01-.008.063l-2.295 6.076c-.528 1.413-1.433 1.773-2.43 1.773a1.959 1.959 0 01-.561-.066.132.132 0 01-.1-.14h.001zM8.57 6.4a5.363 5.363 0 00-3.683 1.427.231.231 0 00-.029.31l.618.839a.236.236 0 00.362.028 3.823 3.823 0 012.738-1.11c2.12 0 3.227 1.584 3.227 3.15 0 1.7-1.163 2.898-2.835 2.921-1.292 0-2.266-.85-2.266-1.974a1.908 1.908 0 01.713-1.48.231.231 0 00.033-.324l-.65-.815a.236.236 0 00-.339-.034 3.43 3.43 0 00-.942 1.183 3.39 3.39 0 00-.337 1.47c0 1.935 1.655 3.452 3.775 3.464h.03c2.517-.032 4.337-1.884 4.337-4.415 0-2.247-1.667-4.64-4.752-4.64z" fill="#fff"></path></svg>
</li><li>
<svg aria-labelledby="pi-venmo" class="icon" height="24" role="img" viewbox="0 0 38 24" width="38" xmlns="http://www.w3.org/2000/svg"><title id="pi-venmo">Venmo</title><g fill="none" fill-rule="evenodd"><rect fill="#000" fill-opacity=".07" height="24" rx="3" width="38"></rect><path d="M35 1c1.1 0 2 .9 2 2v18c0 1.1-.9 2-2 2H3c-1.1 0-2-.9-2-2V3c0-1.1.9-2 2-2h32" fill="#3D95CE"></path><path d="M24.675 8.36c0 3.064-2.557 7.045-4.633 9.84h-4.74L13.4 6.57l4.151-.402 1.005 8.275c.94-1.566 2.099-4.025 2.099-5.702 0-.918-.154-1.543-.394-2.058l3.78-.783c.437.738.634 1.499.634 2.46z" fill="#FFF" fill-rule="nonzero"></path></g></svg>
</li><li>
<svg aria-labelledby="pi-visa" class="icon" height="24" role="img" viewbox="0 0 38 24" width="38" xmlns="http://www.w3.org/2000/svg"><title id="pi-visa">Visa</title><path d="M35 0H3C1.3 0 0 1.3 0 3v18c0 1.7 1.4 3 3 3h32c1.7 0 3-1.3 3-3V3c0-1.7-1.4-3-3-3z" opacity=".07"></path><path d="M35 1c1.1 0 2 .9 2 2v18c0 1.1-.9 2-2 2H3c-1.1 0-2-.9-2-2V3c0-1.1.9-2 2-2h32" fill="#fff"></path><path d="M28.3 10.1H28c-.4 1-.7 1.5-1 3h1.9c-.3-1.5-.3-2.2-.6-3zm2.9 5.9h-1.7c-.1 0-.1 0-.2-.1l-.2-.9-.1-.2h-2.4c-.1 0-.2 0-.2.2l-.3.9c0 .1-.1.1-.1.1h-2.1l.2-.5L27 8.7c0-.5.3-.7.8-.7h1.5c.1 0 .2 0 .2.2l1.4 6.5c.1.4.2.7.2 1.1.1.1.1.1.1.2zm-13.4-.3l.4-1.8c.1 0 .2.1.2.1.7.3 1.4.5 2.1.4.2 0 .5-.1.7-.2.5-.2.5-.7.1-1.1-.2-.2-.5-.3-.8-.5-.4-.2-.8-.4-1.1-.7-1.2-1-.8-2.4-.1-3.1.6-.4.9-.8 1.7-.8 1.2 0 2.5 0 3.1.2h.1c-.1.6-.2 1.1-.4 1.7-.5-.2-1-.4-1.5-.4-.3 0-.6 0-.9.1-.2 0-.3.1-.4.2-.2.2-.2.5 0 .7l.5.4c.4.2.8.4 1.1.6.5.3 1 .8 1.1 1.4.2.9-.1 1.7-.9 2.3-.5.4-.7.6-1.4.6-1.4 0-2.5.1-3.4-.2-.1.2-.1.2-.2.1zm-3.5.3c.1-.7.1-.7.2-1 .5-2.2 1-4.5 1.4-6.7.1-.2.1-.3.3-.3H18c-.2 1.2-.4 2.1-.7 3.2-.3 1.5-.6 3-1 4.5 0 .2-.1.2-.3.2M5 8.2c0-.1.2-.2.3-.2h3.4c.5 0 .9.3 1 .8l.9 4.4c0 .1 0 .1.1.2 0-.1.1-.1.1-.1l2.1-5.1c-.1-.1 0-.2.1-.2h2.1c0 .1 0 .1-.1.2l-3.1 7.3c-.1.2-.1.3-.2.4-.1.1-.3 0-.5 0H9.7c-.1 0-.2 0-.2-.2L7.9 9.5c-.2-.2-.5-.5-.9-.6-.6-.3-1.7-.5-1.9-.5L5 8.2z" fill="#142688"></path></svg>
</li></ul>
</div></div>
</div>
</footer>
</div>
<script>

  var moneyFormat = '${{amount}}';

  var theme = {
    strings:{
      product:{
        unavailable: "Unavailable",
        will_be_in_stock_after:"Will be in stock after [date]",
        only_left:"Only 1 left!"
      },
      navigation:{
        more_link: "More"
      },
      map:{
        addressError: "Error looking up that address",
        addressNoResults: "No results for that address",
        addressQueryLimit: "You have exceeded the Google API usage limit. Consider upgrading to a \u003ca href=\"https:\/\/developers.google.com\/maps\/premium\/usage-limits\"\u003ePremium Plan\u003c\/a\u003e.",
        authError: "There was a problem authenticating your Google Maps API Key."
      }
    },
    settings:{
      cartType: "modal"
    }
  }
  </script>
<script id="cartTemplate" type="text/template">
  
    <form action="/cart" method="post" class="cart-form" novalidate>
      <div class="ajaxifyCart--products">
        {{#items}}
        <div class="ajaxifyCart--product">
          <div class="ajaxifyCart--row" data-line="{{line}}">
            <div class="grid">
              <div class="grid-item large--two-thirds">
                <div class="grid">
                  <div class="grid-item one-quarter">
                    <a href="{{url}}" class="ajaxCart--product-image"><img src="{{img}}" alt=""></a>
                  </div>
                  <div class="grid-item three-quarters">
                    <a href="{{url}}" class="h4">{{name}}</a>
                    <p>{{variation}}</p>
                  </div>
                </div>
              </div>
              <div class="grid-item large--one-third">
                <div class="grid">
                  <div class="grid-item one-third">
                    <div class="ajaxifyCart--qty">
                      <input type="text" name="updates[]" class="ajaxifyCart--num" value="{{itemQty}}" min="0" data-line="{{line}}" aria-label="quantity" pattern="[0-9]*">
                      <span class="ajaxifyCart--qty-adjuster ajaxifyCart--add" data-line="{{line}}" data-qty="{{itemAdd}}">+</span>
                      <span class="ajaxifyCart--qty-adjuster ajaxifyCart--minus" data-line="{{line}}" data-qty="{{itemMinus}}">-</span>
                    </div>
                  </div>
                  <div class="grid-item one-third text-center">
                    <p>{{price}}</p>
                  </div>
                  <div class="grid-item one-third text-right">
                    <p>
                      <small><a href="/cart/change?line={{line}}&amp;quantity=0" class="ajaxifyCart--remove" data-line="{{line}}">Remove</a></small>
                    </p>
                  </div>
                </div>
              </div>
            </div>
          </div>
        </div>
        {{/items}}
      </div>
      <div class="ajaxifyCart--row text-right medium-down--text-center">
        <span class="h3">Subtotal {{totalPrice}}</span>
        <input type="submit" class="{{btnClass}}" name="checkout" value="Checkout">
      </div>
    </form>
  
  </script>
<script id="drawerTemplate" type="text/template">
  
    <div id="ajaxifyDrawer" class="ajaxify-drawer">
      <div id="ajaxifyCart" class="ajaxifyCart--content {{wrapperClass}}"></div>
    </div>
    <div class="ajaxifyDrawer-caret"><span></span></div>
  
  </script>
<script id="modalTemplate" type="text/template">
  
    <div id="ajaxifyModal" class="ajaxify-modal">
      <div id="ajaxifyCart" class="ajaxifyCart--content"></div>
    </div>
  
  </script>
<script id="ajaxifyQty" type="text/template">
  
    <div class="ajaxifyCart--qty">
      <input type="text" class="ajaxifyCart--num" value="{{itemQty}}" data-id="{{key}}" min="0" data-line="{{line}}" aria-label="quantity" pattern="[0-9]*">
      <span class="ajaxifyCart--qty-adjuster ajaxifyCart--add" data-id="{{key}}" data-line="{{line}}" data-qty="{{itemAdd}}">+</span>
      <span class="ajaxifyCart--qty-adjuster ajaxifyCart--minus" data-id="{{key}}" data-line="{{line}}" data-qty="{{itemMinus}}">-</span>
    </div>
  
  </script>
<script id="jsQty" type="text/template">
  
    <div class="js-qty">
      <input type="text" class="js--num" value="{{itemQty}}" min="1" data-id="{{key}}" aria-label="quantity" pattern="[0-9]*" name="{{inputName}}" id="{{inputId}}">
      <span class="js--qty-adjuster js--add" data-id="{{key}}" data-qty="{{itemAdd}}">+</span>
      <span class="js--qty-adjuster js--minus" data-id="{{key}}" data-qty="{{itemMinus}}">-</span>
    </div>
  
  </script>
<!-- Delete the Beeketing script below after uninstalling Happy Messenger app to remove it from your theme. For more info, read here: https://bit.ly/hmesscode or contact us at hi@beeketing.com. --><!-- BEEKETINGSCRIPT CODE START -->
<script type="text/javascript">




var BKCommerceAnalyticsEnable =  0 ;


if(typeof Shopify === 'undefined') {
    Shopify = {};
}

if (!Shopify.shop) {
  Shopify.shop = 'thehairprofessional.com';
}
var bkRawUrl = function(){return window.location.href}();
(function (doc, scriptPath) {
    var sc, node, today=new Date(),dd=today.getDate(),mm=today.getMonth()+1,yyyy=today.getFullYear();if(dd<10)dd='0'+dd;if(mm<10)mm='0'+mm;today=yyyy+mm+dd;
    
    sc = doc.createElement("script");
    sc.type = "text/javascript";
    sc.async = !0;
    sc.src = scriptPath + '?' + today;
    node = doc.getElementsByTagName("script")[0];
    node.parentNode.insertBefore(sc, node);
})(document, 'https:\/\/sdk.beeketing.com\/js\/beeketing.js');
</script>
<!-- BEEKETINGSCRIPT CODE END --> <script src="https://sdk.qikify.com/tmenu/app-v2.js?shop=skydronestore-com.myshopify.com" type="text/javascript"></script>
<link href="https://productoption.hulkapps.com/bootstrap-tooltip.css" rel="stylesheet" type="text/css"/>
<script>
        if(typeof(jQuery) == "undefined"){
          window.jQuery || document.write('<script src="//ajax.googleapis.com/ajax/libs/jquery/3.2.1/jquery.min.js"><\/script>')
        }
        if (typeof window.hulkapps_config != "object") {
          window.hulkapps_config = {}
        }

        
          window.hulkapps = {
          shop_slug: "skydronestore-com",
          store_id: "skydronestore-com.myshopify.com",
          money_format: "${{amount}}",
          customer: null,
          cart: null,
          is_volume_discount: null,
          product_id: null,
          page_type: null
        }

        

        
          window.hulkapps.cart = {"note":null,"attributes":{},"original_total_price":0,"total_price":0,"total_discount":0,"total_weight":0.0,"item_count":0,"items":[],"requires_shipping":false,"currency":"USD","items_subtotal_price":0,"cart_level_discount_applications":[]}
          if (typeof window.hulkapps.cart.items == "object") {
            for (var i=0; i<window.hulkapps.cart.items.length; i++) {
                ["sku", "grams", "vendor", "url", "image", "handle", "requires_shipping", "product_type", "product_description"].map(function(a) {
                    delete window.hulkapps.cart.items[i][a]
                })
            }
          }
        
        
        
        window.hulkapps.page_type = ""
      </script>
<script>
        
          jQuery(function(){
            jQuery(document).on('click', "input[name='checkout']:not(.hulkapps-ignore), input[value='Checkout']:not(.hulkapps-ignore), button[name='checkout']:not(.hulkapps-ignore), [href$='checkout']:not(.hulkapps-ignore), button[value='Checkout']:not(.hulkapps-ignore), input[name='goto_pp'], button[name='goto_pp'], input[name='goto_gc'], button[name='goto_gc']", function(e){
              e.preventDefault();
              if (typeof hulkappsCheckout != "function") {
                window.location = "/checkout";
              }
              jQuery.ajax({
                          cache: false,
                          contentType: "application/json; charset=utf-8",
                          dataType: "json",
                          type: "GET",
                          url: '/cart.js',
                          success: function(res) {
                            window.hulkapps.cart = res
                            hulkappsCheckout()
                          }
                        });
            });
          });
        
      </script>
</body></html>