<!DOCTYPE html>
<html><head>
<title>180 : think 180 around</title>
<meta content="text/html; charset=utf-8" http-equiv="Content-Type"/>
<meta content="ja" http-equiv="content-language"/>
<meta content="text/javascript" http-equiv="content-script-Type"/>
<meta content="text/css" http-equiv="content-style-Type"/>
<meta content="width=device-width, initial-scale=1.0" name="viewport"/>
<meta content="180Â°èããå¤ããããThink 180 around." name="description"/>
<meta content="çµæ¸çèªç«,ç¬ç«èµ·æ¥­,å¯æ¥­ãã¸ãã¹,æµ·å¤æè³,ãªãã·ã§ã¢æè³,ãªãã·ã§ã³åå¼,åç©åå¼,ããã¸ãã¡ã³ã,ETF,ä¸å ´æè³ä¿¡è¨,ETN,ä¸å ´æè³è¨¼å¸,ADR,ç±³å½é è¨è¨¼å¸,GDR,ã°ã­ã¼ãã«é è¨è¨¼å¸,REIT,ä¸åç£æè³ä¿¡è¨" name="keywords"/>
<meta content="180 LLC All Rights Reserved." name="copyright"/>
<meta content="180 LLC" name="author"/>
<link href="https://www.180.co.jp/secure/images/favicon.ico" rel="shortcut icon"/>
<script src="https://www.180.co.jp/js/scroll.js" type="text/javascript"></script>
<!--Start of Zopim Live Chat Script-->
<script type="text/javascript">
window.$zopim||(function(d,s){var z=$zopim=function(c){z._.push(c)},$=z.s=
d.createElement(s),e=d.getElementsByTagName(s)[0];z.set=function(o){z.set.
_.push(o)};z._=[];z.set._=[];$.async=!0;$.setAttribute('charset','utf-8');
$.src='//v2.zopim.com/?1KNQ2U9ps8iDahVazZq8KimNiANI23Ql';z.t=+new Date;$.
type='text/javascript';e.parentNode.insertBefore($,e)})(document,'script');
</script>
<!--End of Zopim Live Chat Script-->
<style type="text/css">
<!--
a:link {color: #008DB8;	text-decoration: underline;}
a:visited {color: #008DB8; text-decoration: underline;}
a:active {color: #FFB40A; text-decoration: underline;}
a:hover {color: #FFB40A; text-decoration: none;}
body,table {font-family: Arial;	font-size: 13px;}
div.box img {
   border: 0px; /* ãªã³ã¯ç»åã®æ ç·ãæ¶ã */
}
.style1 {font-size: 13px; font-family: Arial; line-height: 180%;}
.style2 {color: #999999}
.style3 {color: #FFB40A}
.style4 {font-size: 11px; font-family: Arial; line-height: 180%; color: #666666;}
-->
</style>
<script type="text/javascript">
<!--
var defImg;
function ImgChange(target, img){
  if(document.getElementById){
    defImg = document.getElementById(target).getAttribute("src");
    document.getElementById(target).setAttribute("src", img);
  }
}
function ImgBack(target){
  if(document.getElementById){
    document.getElementById(target).setAttribute("src",defImg);
  }
}
//-->
</script>
<script type="text/javascript"><!--
   // ç»åã»URLãªã¹ããéåã§ä½ã
   var imglist = [
      [ "secure/png/top01.png", "", "https://www.180.co.jp/our_company/top_message.htm" ] ,
	  [ "secure/png/top02.png", "", "https://www.180.co.jp/our_company/soul_tree.htm" ] ,
	  [ "secure/png/top03.png", "", "https://www.180.co.jp/products_services/cashflow_game.htm#poor_rich" ] ,
	  [ "secure/png/top04.png", "", "https://www.180.co.jp/our_company/soul_tree.htm" ] ,
	  [ "secure/png/top05.png", "", "https://www.180.co.jp/products_services/180success_program.htm" ] ,
	  [ "secure/png/top06.png", "", "https://www.180.co.jp/products_services/180success_program.htm" ] ,
	  [ "secure/png/top08.png", "", "https://twitter.com/180cojp" ] ,
      [ "secure/png/top09.png", "", "https://www.180.co.jp/our_company/soul_tree.htm" ] ,
	  [ "secure/png/top10.png", "", "https://www.180.co.jp/our_company/top_message.htm" ] ,
	  [ "secure/png/top12.png", "", "https://www.180.co.jp/products_services/cashflow_game.htm#poor_rich" ] ,
	  [ "secure/png/top14.png", "", "https://www.180.co.jp/our_company/top_message.htm" ] ,
	  [ "secure/png/top17.png", "", "https://www.180.co.jp/option/index.htm" ] ,
	  [ "secure/png/top18.png", "", "https://www.180.co.jp/world_etf_adr/etf/nikkei225.htm" ] ,
	  [ "secure/png/top19.png", "", "https://www.180.co.jp/products_services/cashflow_game.htm#poor_rich" ] ,
	  [ "secure/png/top20.png", "", "https://www.180.co.jp/our_company/top_message.htm" ] ,
	  [ "secure/png/top21.png", "", "https://www.180.co.jp/option/index.htm" ] ,
	  [ "secure/png/top22.png", "", "https://www.180.co.jp/our_company/soul_tree.htm" ] ,
	  [ "secure/png/top23.png", "", "https://www.180.co.jp/our_company/top_message.htm" ] ,
	  [ "secure/png/top24.png", "", "https://www.180.co.jp/our_company/soul_tree.htm" ] ,
	  [ "secure/png/top25.png", "", "https://www.180.co.jp/world_etf_adr/etf/etf_vs_funds.htm" ] ,
	  [ "secure/png/top26.png", "", "https://www.180.co.jp/products_services/180success_program.htm" ] ,
	  [ "secure/png/top27.png", "", "https://www.180.co.jp/products_services/180success_program.htm" ] ,
	  [ "secure/png/top28.png", "", "https://www.180.co.jp/products_services/180success_program.htm" ] //æ³¨
   ];

   // ã©ã³ãã ã«1ã¤é¸ãã§è¡¨ç¤ºããé¢æ°
   function RandomImageLink() {
      // ã©ããï¼ã¤é¸ã¶
      var selectnum = Math.floor(Math.random() * imglist.length);
      // ç»åã¨ãªã³ã¯ãçæ
      var output =
         '<a target="_blank" href="' + imglist[selectnum][2] + '">' +
         '<img border="0" src="' + imglist[selectnum][0] + '"' +
         imglist[selectnum][1] + '</a>';
      // çæããHTMLãåºå
      document.write(output);
   }
// -->
</script>
<script>
  (function(i,s,o,g,r,a,m){i['GoogleAnalyticsObject']=r;i[r]=i[r]||function(){
  (i[r].q=i[r].q||[]).push(arguments)},i[r].l=1*new Date();a=s.createElement(o),
  m=s.getElementsByTagName(o)[0];a.async=1;a.src=g;m.parentNode.insertBefore(a,m)
  })(window,document,'script','//www.google-analytics.com/analytics.js','ga');

  ga('create', 'UA-18115000-1', '180.co.jp');
  ga('require', 'displayfeatures');
  ga('send', 'pageview');

</script>
<meta content="2fd6d0a0739c189a-854f2eced4385b18-ga6363f20d64f33f2-d" name="google-translate-customization"/>
</head>
<body bgcolor="#ECEFF9" body="" style="margin:0px; padding:0px;" topmargin="0">
<center>
<table bgcolor="#FFFFFF" border="0" cellpadding="0" cellspacing="0" height="600" width="800">
<tr>
<td align="center" valign="top" width="100%"><table border="0" cellpadding="0" cellspacing="0" width="739">
<tr>
<td height="105" valign="middle" width="33%"><a href="https://www.180.co.jp/" target="_parent"><img alt="180 : think 180 around" border="0" height="51" src="secure/images/monogram.gif" width="216"/></a></td>
<td height="105" width="21%"> </td>
<td align="left" height="105" valign="middle" width="46%"><script>
  (function() {
    var cx = '009729875480803042209:jwrsuzhzqdq';
    var gcse = document.createElement('script');
    gcse.type = 'text/javascript';
    gcse.async = true;
    gcse.src = (document.location.protocol == 'https:' ? 'https:' : 'http:') +
        '//www.google.com/cse/cse.js?cx=' + cx;
    var s = document.getElementsByTagName('script')[0];
    s.parentNode.insertBefore(gcse, s);
  })();
</script>
<gcse:search></gcse:search></td>
</tr>
<tr>
<td align="center" colspan="3"><img alt="" border="0" height="30" src="secure/images/menu_bar.gif" usemap="#menu" width="720"/></td>
</tr>
<tr>
<td colspan="3"> </td>
</tr>
<tr>
<td align="center" colspan="3">
<div class="box">
<script type="text/javascript"><!--
         RandomImageLink();
      // --></script>
<noscript>
<img border="0" src="secure/images/top01.jpg"/>
</noscript>
</div> </td>
</tr>
<tr>
<td colspan="3"> </td>
</tr>
<tr>
<td colspan="3"><table border="0" cellpadding="0" cellspacing="0" width="100%">
<tr>
<td align="left" width="240"><a href="option/index.htm" target="_blank"><img alt="" border="0" height="144" src="secure/png/why_option_icon.png" width="233"/></a></td>
<td align="right" width="160"><a href="world_etf_adr/adr/ranking.htm" target="_blank"><img alt="ä¸çæä¾¡ç·é¡ã©ã³ã­ã³ã°" border="0" height="144" id="top-icon01" onmouseout="ImgBack('top-icon01')" onmouseover="ImgChange('top-icon01', 'secure/images/top-icon01_over.gif')" src="secure/images/top-icon01.gif" width="144"/></a></td>
<td align="right" width="160"><a href="products_services/cashflow_game.htm" target="_blank"><img alt="ã­ã£ãã·ã¥ãã­ã¼ã²ã¼ã " border="0" height="144" id="top-icon02" onmouseout="ImgBack('top-icon02')" onmouseover="ImgChange('top-icon02', 'secure/images/top-icon02_over.gif')" src="secure/images/top-icon02.gif" width="144"/></a></td>
<td align="right" width="160"><a href="products_services/180success_program.htm" target="_blank"><img alt="180æåãã­ã°ã©ã " border="0" height="144" id="top-icon03" onmouseout="ImgBack('top-icon03')" onmouseover="ImgChange('top-icon03', 'secure/images/top-icon03_over.gif')" src="secure/images/top-icon03.gif" width="144"/></a></td>
</tr>
</table></td>
</tr>
<tr>
<td colspan="3"> </td>
</tr>
</table></td></tr>
</table>
<table border="0" cellpadding="0" cellspacing="0" height="0" width="800">
<tr>
<td align="center"><table border="0" cellpadding="0" cellspacing="10" width="90%">
<tr>
<td align="center" class="style2" width="30%"><table border="0" cellpadding="0" cellspacing="0" width="80%">
<tr>
<td><img alt="ã¯ããã¦ã®æ¹" height="18" src="secure/images/beginner_mark.gif" width="18"/></td>
<td class="style2"><a href="products_services/road_map.htm" target="_parent">ã¯ããã¦ã®æ¹</a></td>
</tr>
</table></td>
<td align="center" class="style2" width="5%">|</td>
<td align="center" class="style2" width="30%"><a href="javascript:;" onclick="window.open('https://www.180.co.jp/secure/form/inquiry_form.htm' , '' , 'width=460,height=610')" target="_parent">ãåãåãã</a></td>
<td align="center" class="style2" width="5%">|</td>
<td align="center" class="style2" width="30%"><a href="privacy_policy.htm" target="_parent">ãã©ã¤ãã·ã¼ããªã·ã¼</a></td>
</tr>
<tr>
<td align="center" class="style2" colspan="5">Copyright © since 2007 180 LLC All Rights Reserved.</td>
</tr>
</table></td>
</tr>
</table>
</center>
<map id="menu" name="menu">
<area alt="ãã¼ã " coords="3,3,58,27" href="https://www.180.co.jp/" shape="rect" target="_parent"/>
<area alt="ä¼æ¥­æå ±" coords="81,3,151,27" href="https://www.180.co.jp/our_company/top_message.htm" shape="rect" target="_parent"/>
<area alt="180ãµã¼ãã¹" coords="177,3,275,27" href="https://www.180.co.jp/products_services/road_map.htm" shape="rect" target="_parent"/>
<area alt="ä¸çæè³" coords="298,3,409,27" href="https://www.180.co.jp/world_etf_adr/etf_adr_map.htm" shape="rect" target="_parent"/>
<area alt="ãªãã·ã§ã³åå¼ã®å­¦æ ¡" coords="433,3,593,27" href="https://www.180.co.jp/option/index.htm" shape="rect" target="_parent"/>
<area alt="ãåãåãã" coords="618,3,717,27" href="javascript:;" onclick="window.open('https://www.180.co.jp/secure/form/inquiry_form.htm' , '' , 'width=460,height=610')" shape="rect"/>
</map>
</body>
</html>
