<html>
<head>
<meta content="IE=edge" http-equiv="X-UA-Compatible"/>
<title>APONLINE</title>
<style>
  
  body
  {
      background:url("1.jpg");
      background-size:100%;
      background-attachment:fixed;
       font-family: -apple-system,BlinkMacSystemFont,"Segoe UI",Roboto,"Helvetica Neue",Arial,"Noto Sans",sans-serif,"Apple Color Emoji","Segoe UI Emoji","Segoe UI Symbol","Noto Color Emoji"
  }
  .maincontentdiv
  {
          width: 50%;
    margin: 0 auto;
    margin-top: 50px;
    text-align: center;
  }
  .maincontentdiv .maintext
  {
      text-align:center;
      color:#fff;
      font-weight:600;
      font-size:28px;
      margin-top:215px;
  }
  .maincontentdiv .linkdive
  {
      text-align:center;
      color:#fff;
       margin-top:-15px;
  }
  .maincontentdiv .linkdive a
  {
      font-size:23px;
      padding-bottom:1px;
      font-weight:600;
      color:#fff;
      text-decoration:none;
     
      border-bottom:1px solid #fff;
  }

  .logo
  {
/*      margin-left:100px;*/
  }
  @media (max-width:767px)
  {
      .maincontentdiv
  {
      width:100%;
  }
  
  .maincontentdiv .maintext
  {
      margin-top:100px;
  }
  
  }
 
</style>
</head>
<body>
<div class="maincontentdiv">
<img class="logo" src="aponline-logo.png"/>
<p class="maintext">
Please Visit AP State Government Official Portal
</p>
<p class="linkdive"><a href="https://www.ap.gov.in/" target="_blank">https://www.ap.gov.in/</a></p>
</div>
</body>
</html>