<!DOCTYPE HTML PUBLIC "-//W3C//DTD HTML 3.2 Final//EN">
<html>
<head>
<title>Index of /</title>
</head>
<body>
<h1>Index of /</h1>
<table>
<tr><th valign="top"> </th><th><a href="?C=N;O=D">Name</a></th><th><a href="?C=M;O=A">Last modified</a></th><th><a href="?C=S;O=A">Size</a></th><th><a href="?C=D;O=A">Description</a></th></tr>
<tr><th colspan="5"><hr/></th></tr>
<tr><td valign="top"> </td><td><a href="dpto_almacen_cobranza.zip">dpto_almacen_cobranz..&gt;</a></td><td align="right">2019-05-09 09:02  </td><td align="right">3.6M</td><td> </td></tr>
<tr><td valign="top"> </td><td><a href="dpto_almacen_cobranza/">dpto_almacen_cobranza/</a> </td><td align="right">2013-06-26 12:28  </td><td align="right">  - </td><td> </td></tr>
<tr><td valign="top"> </td><td><a href="googleebc1280744df0b62.html">googleebc1280744df0b..&gt;</a></td><td align="right">2019-05-09 08:58  </td><td align="right"> 53 </td><td> </td></tr>
<tr><th colspan="5"><hr/></th></tr>
</table>
</body></html>
