<!DOCTYPE html>
<html class="no-js" lang="zh-CN">
<head>
<meta charset="utf-8"/>
<title>
        ç­äºæ°æ®-Appæ°æ®åæ,ç½ç«æ°æ®ç»è®¡å·¥å·,ABæµè¯äºæå¡å¹³å°
    </title>
<meta content="ãç­äºæ°æ®ãå¸®å©äº§åç»ç/è¿è¥æ¨å¹¿/æ°æ®åæå¸æä¾Appæ°æ®åæãç½ç«æ°æ®åæãç§»å¨æ°æ®ç»è®¡å·¥å·ï¼éè¿ä½ææ¬çABæµè¯åç°åº¦åå¸ä¼åå³ç­ï¼,æåè½¬åãæåçå­ï¼" name="description"/>
<meta content="abæµè¯,a/bæµè¯,ç°åº¦åå¸,abæµè¯å·¥å·,a/bæµè¯å·¥å·,appæ°æ®åæ,appæ°æ®ç»è®¡,ç½ç«æ°æ®åæ,ç½ç«æ°æ®ç»è®¡,appæ°æ®åæå·¥å·,ç½ç«æ°æ®åæå·¥å·" name="keywords"/>
<meta content="info@appadhoc.com" name="author"/>
<meta content="webkit" name="renderer"/>
<meta content="width=device-width, initial-scale=1.0, user-scalable=0" name="viewport"/>
<link href="http://www.appadhoc.com/" rel="canonical"/>
<link href="/favicon.0c0ce91b.ico" rel="icon"/>
<link href="styles/new-vendor.6e12cd43.css" rel="stylesheet"/>
<script src="scripts/vendor/modernizr.cf086204.js"></script>
<meta content="d5Qycne0FWDdSS5TfoqxAvhVI1MBgNONB5UF2cKsYf4" name="google-site-verification"/>
<meta content="wXGZ5gsqHZ" name="baidu-site-verification"/>
<script>
// baidu tongji
var _hmt = _hmt || [];

(function() {

  var hm = document.createElement("script");

  hm.src = "//hm.baidu.com/hm.js?ec73134bb0b31d159da231e82289a7b7";

  var s = document.getElementsByTagName("script")[0];

  s.parentNode.insertBefore(hm, s);

})();

</script>
<script src="https://sdk.appadhoc.com/ab.plus.js"></script>
<script>
    adhoc('init', {
      appKey: 'ADHOC_bc6abfed-7687-40ce-ab61-e71008faf896'
    })

  </script>
<script type="text/javascript">window._pt_lt = new Date().getTime();</script>
<link href="styles/nmain.01ea8036.css" rel="stylesheet"/>
</head>
<body>
<script src="scripts/jquery.6c7dba82.js"></script>
<script>
    $(document).ready(function(){
        // ç¾åº¦ç»è®¡
        $('.htm-track').on('click', function(){
            var category = $(this).attr('data-hmt-category');
            if(category){
                _hmt.push(['_trackEvent', category, 'click']);
            }
        });
    })
    </script>
<script type="text/javascript">

  window._pt_sp_2 = [];

  _pt_sp_2.push('setAccount,619f71de');

  var _protocol = (("https:" == document.location.protocol)
    ? " https://"
    : " http://");

  (function () {

    var atag = document.createElement('script');
    atag.type = 'text/javascript';
    atag.async = true;

    atag.src = _protocol + 'js.ptengine.cn/js/pta.js';

    var stag = document.createElement('script');
    stag.type = 'text/javascript';
    stag.async = true;

    stag.src = _protocol + 'js.ptengine.cn/js/pts.js';

    var s = document.getElementsByTagName('script')[0];

    s.parentNode.insertBefore(atag, s);
    s.parentNode.insertBefore(stag, s);

  })();
</script>
<!--[if lte IE 9]> 
    <div style="width: 100%; height: 100%; position: fixed; background: #fff; z-index: 9999; text-align: center; font-size: 18px; color: #ff8181;">
        è¯·ä½¿ç¨IE9ä»¥ä¸çæ¬çæµè§å¨ï¼æ¨èä¸è½½chromeæµè§å¨æ¥ç
    </div>
<![endif]-->
<header class="ab-nav-container">
<div class="ab-nav-inner">
<a class="reyun-logo" href="https://www.reyun.com/" target="_blank" title="åäº¬ç­äºç§ææéå¬å¸"></a>
<!-- <a href="//www.appadhoc.com/" class="head-logo" title="A/Bæµè¯æ°æ®åæ"></a> -->
<div class="ab-nav-right">
<ul class="ab-nav-menu">
<li class="ab-pop-down-btn"><a class="btn-no-border" href="//www.appadhoc.com/news.html">ææ¯èµè®¯</a>
</li>
<li class="ab-pop-down-btn"><a class="btn-no-border" href="javascript:void(0)">äº§ååæå¡</a>
<div class="ab-pop-down-layer">
<div class="ab-pop-down-container" id="ab-pop-down-container">
<ul class="ab-pop-down-content" id="ab-pop-down-content">
<li><a href="//www.appadhoc.com/productService.html" target="_blank">äº§åæ¦è§</a></li>
<li><a href="//www.appadhoc.com/productDetail.html" target="_blank">äº§åè¯¦æ</a></li>
<li><a href="https://www.reyun.com/" target="_blank">æ°æ®æ´å¯</a></li>
</ul>
</div>
</div>
</li>
<li class="ab-pop-down-btn">
<a class="btn-no-border" href="javascript:void(0)">è§£å³æ¹æ¡</a>
<div class="ab-pop-down-layer">
<div class="ab-pop-down-container" id="ab-pop-down-container">
<ul class="ab-pop-down-content" id="ab-pop-down-content">
<li><a href="//www.appadhoc.com/eshop.html" target="_blank">çµå</a></li>
<li><a href="//www.appadhoc.com/banking.html" target="_blank">éè</a></li>
<li><a href="//www.appadhoc.com/education.html" target="_blank">æè²</a></li>
<li><a href="//www.appadhoc.com/trip.html" target="_blank">ææ¸¸</a></li>
</ul>
</div>
</div>
</li>
<li class="ab-pop-down-btn">
<a class="btn-no-border" href="http://www.appadhoc.com/blog/category/instance/" id="resource-center" target="_blank">æ¡ä¾</a>
</li>
<li class="ab-pop-down-btn">
<a class="btn-no-border" href="http://www.appadhoc.com/blog/" id="resource-center" target="_blank">åå®¢</a>
</li>
<li><a class="btn-no-border" href="https://www.reyun.com/" target="_blank">å³äºæä»¬</a></li>
</ul>
<div class="ab-nav-button-container">
<a class="ab-nav-login btn-no-border" href="https://console.appadhoc.com/#/">ç»å½</a>
<a class="ab-nav-register btn btn-nav-blue" href="javascript:registerPopShow()" id="js-btn-apply03">åè´¹è¯ç¨</a>
</div>
</div>
<script type="text/javascript">
</script>
<div class="ab-nav-mobile-right" id="ab-nav-mobile-right">
<i class="line"></i>
<i class="line"></i>
<i class="line"></i>
</div>
</div>
</header>
<div class="ab-nav-menu-mobile">
<ul class="ab-nav-menu-mobile-container">
<li><a href="//www.appadhoc.com/news.html">ææ¯èµè®¯</a></li>
<li><a class="btn-no-border" href="//www.appadhoc.com/productService.html">äº§ååæå¡</a></li>
<li><a class="btn-no-border" href="//www.appadhoc.com/#d" id="js-btn-solve">è§£å³æ¹æ¡</a></li>
<li><a class="btn-no-border" href="//www.appadhoc.com/startGuide.html">å¿«éä¸ææå</a></li>
<li><a class="btn-no-border" href="http://www.appadhoc.com/blog/">åå®¢</a></li>
<li><a class="btn-no-border" href="https://www.reyun.com/">å³äºæä»¬</a></li>
<li class="register"><a class="btn-no-border htm-track" data-hmt-category="åè´¹è¯ç¨" href="javascript:registerPopShow()">åè´¹è¯ç¨</a></li>
</ul>
</div>
<section class="register-pop-container">
<div class="register-pop-inner">
<div class="register-content">
<p class="reg-title" id="ab-reg-title">åè´¹è¯ç¨</p>
<p class="reg-tip">è¯·å¿ä½¿ç¨IE7.0ä»¥ä¸æå¶ä»è¿èçæµè§å¨çæ¬ï¼å¦åæ æ³åæ¶å¤çæ¨çç³è¯·ã</p>
<form action="" class="reg-form" id="form">
<div class="reg-form-container">
<input class="input name" placeholder="å§å" type="text"/>
<p class="error"></p>
<input class="input phone" placeholder="ææºå·" type="text"/>
<p class="error"></p>
<input class="input email" placeholder="å¬å¸é®ç®±" type="text"/>
<p class="error"></p>
<input class="input city" placeholder="åå¸" type="text"/>
<p class="error"></p>
<input class="input company" placeholder="å¬å¸åç§°" type="text"/>
<p class="error"></p>
<textarea class="input requirements" placeholder="ï¼éå¡«ï¼æ¨èäººæå¡«åéæ±æè¿°ï¼æä»¬å°å°½å¿«ä¸æ¨èç³»" type="input"></textarea>
<p class="error"></p>
</div>
<input class="btn btn-middle btn-nav-blue submit htm-track" data-hmt-category="æäº¤ç³è¯·" id="apply-com" onclick="adhoc('track', 'btn_summit', 1);" type="submit" value="æäº¤ç³è¯·"/>
<a class="back btn btn-no-border" href="javascript:void(0)">è¿å</a>
</form>
<p class="reg-login">å·²ç»æ³¨åï¼ç¹å»<a class="blue" href="https://console.appadhoc.com/#/">ç»å½</a></p>
<div class="result-container" id="ab-reg-result-container">
<img alt="abæµè¯ãç½ç«æ°æ®åæå·¥å·-" class="right-icon" src="images/right.0a38eaad.svg"/>
<p class="title">æè°¢æ¨çç³è¯·</p>
<p class="text">æä»¬å°å¨1ä¸ªå·¥ä½æ¥åä¸æ¨èç³»</p>
<div class="result-bottom">
<p class="time"><span id="reg-second"></span>ç§åèªå¨å³é­</p>
<a class="btn btn-wg-green btn-large btn-no-shadow" href="javascript:registerPopHide()" id="ab-close-reg">å³é­</a>
</div>
</div>
</div>
</div>
</section>
<script type="text/javascript">
(function(){
function checkEmail(email){
    if(email.match(/^([a-zA-Z0-9_\.\-])+\@(([a-zA-Z0-9\-])+\.)+([a-zA-Z0-9]{2,4})+$/)){
        return true;
    }else{
        return false;
    }
}
function checkCompanyEmail(email){
    email = email.toLowerCase();

    if (email.indexOf('@126') != -1 ||
        email.indexOf('@163') != -1 ||
        email.indexOf('@qq') != -1 ||
        email.indexOf('@gmail') != -1 ||
        email.indexOf('@hotmail') != -1 ||
        email.indexOf('@sina') != -1 ||
        email.indexOf('@sohu') != -1 ||
        email.indexOf('@yahoo') != -1 ||
        email.indexOf('@139') != -1 ||
        email.indexOf('@foxmail') != -1 ||
        email.indexOf('@outlook') != -1
        ) {
        return false;
    }else{
        return true;
    }
}

function checkPhone(phone){
    if (!phone.match(/^1\d{10}$/)) {
        return false;
    }else{
        return true;
    }
}

function checkEmpty(self, val, label) {
    if(!val){
        return self.next().html('è¯·è¾å¥'+ label);
    } else {
        return self.next().html('')
    }
}

var nameChange, phoneChange, emailChange, cityChange, companyChange;
//æ³¨åå¼¹çªéç½®
var registerPopConfig = {
	version: 'phoneemail',
	title: 'åè´¹è¯ç¨',
	color: '#58c584'
};
var version = 'phoneemail';

$('#form').on('submit', function(e){
    e.preventDefault();

    var $this = $(this),
        $name = $this.find('.name'),
        $phone = $this.find('.phone'),
        $email = $this.find('.email'),
        $city = $this.find('.city'),
        $company = $this.find('.company'),
        $requirements = $this.find('.requirements'),
        phone = $.trim($phone.val()),
        name = $.trim($name.val()),
        city = $.trim($city.val()),
        company = $.trim($company.val()),
        requirements = $.trim($requirements.val()),
        email = $.trim($email.val());

    if(!name){
        return $name.next().html('è¯·è¾å¥å§å');
    }
    if(!checkPhone(phone)){
        return $phone.next().html('è¯·è¾å¥æ­£ç¡®çææºå·ç ');
    }
    if(!email){
        return $email.next().html('è¯·è¾å¥é®ç®±å°å');
    }
    if(!city){
        return $city.next().html('è¯·è¾å¥åå¸åç§°');
    }
    if(!company){
        return $company.next().html('è¯·è¾å¥å¬å¸åç§°');
    }
    if(!checkEmail(email)){
        return $email.next().html('è¯·è¾å¥æ­£ç¡®çé®ç®±å°å');
    }
    // if(!checkCompanyEmail(email)){
    //     return $email.next().html('è¯·ä½¿ç¨å¬å¸é®ç®±æ³¨å');
    // }

    $this.find('.submit').val('å è½½ä¸­...');
	switch(registerPopConfig.version){
		case 'freetrial':
			_hmt.push(['_trackEvent', 'æ³¨å', 'åè´¹è¯ç¨æäº¤']);
			break;
		case 'contactsales':
			_hmt.push(['_trackEvent', 'æ³¨å', 'èç³»éå®æäº¤']);
			break;
		case '':
			break;
	}
    $.ajax({
        type: 'post',
        dataType: 'json',
        crossDrmain:true,
        contentType: 'application/json',
		url: 'https://auth.appadhoc.com/applied_users',
        data: JSON.stringify({ 
            "email": email,
            "mobile": phone, 
            "name": name, 
            "city": city, 
            "company": company, 
            "requirements": requirements, 
            version: registerPopConfig.version
        }),
        success: function(data){
            TrackingIO.register(`${company}-${phone}`)
            console.log('success', data);
            showRegResult();
        },
        error: function(data){
            console.log('error', data);
            // showRegResult();
            $this.find('.submit').val('éæ°æäº¤');
        }
    });



}).find('.phone').on('keyup', function(){
    var $this = $(this);

    clearTimeout(phoneChange);
    phoneChange = setTimeout(function(){
        if(!checkPhone($this.val())){
            return $this.next().html('è¯·è¾å¥æ­£ç¡®çææºå·ç ');
        }else{
            return $this.next().html('');
        }
    }, 300);
});
$('.name').on('keyup', function(){
    var $this = $(this);

    clearTimeout(nameChange);
    nameChange = setTimeout(function(){
        var value = $this.val();
        checkEmpty($this, value, 'å§å')
    }, 300);
});
$('.email').on('keyup', function(){
    var $this = $(this);

    clearTimeout(emailChange);
    emailChange = setTimeout(function(){
        var email = $this.val();
        if(!checkEmail(email)){
            return $this.next().html('è¯·è¾å¥æ­£ç¡®çé®ç®±å°å');
        }else{
            return $this.next().html('');
        }
    }, 300);
});
$('.city').on('keyup', function(){
    var $this = $(this);

    clearTimeout(cityChange);
    cityChange = setTimeout(function(){
        var value = $this.val();
        checkEmpty($this, value, 'åå¸')
    }, 300);
});
$('.company').on('keyup', function(){
    var $this = $(this);

    clearTimeout(companyChange);
    companyChange = setTimeout(function(){
        var value = $this.val();
        checkEmpty($this, value, 'å¬å¸åç§°')
    }, 300);
});

var intervalHide;

function showRegResult(){
    $('.result-container').show();
    var $sec = $('#reg-second').html('3');
    intervalHide = setInterval(function(){
        var sec = parseInt($sec.html());
        sec--;
        $sec.html(sec);
        if(sec <= 0){
            clearInterval(intervalHide);
            slideUp();
        }
    }, 1000);
}

// éèæ¹æ³
function slideUp(){
    // register-content-slideup
    var $inner = $('.register-pop-inner'),
        hideClassName = 'register-pop-inner-hide';
    if($inner.hasClass(hideClassName)){
        return;
    }
    clearInterval(intervalHide);

    $inner.addClass(hideClassName);
    setTimeout(function(){
        $('.register-pop-container').hide();
        $inner.removeClass(hideClassName);
        $('.result-container').hide();
        $inner.find('.phone, .email').val('');
        $inner.find('.submit').val('æäº¤ç³è¯·');
    }, 600);
}
// ç¹å»éè
$('.register-pop-inner').on('click', function(e){
    var $tar = $(e.target);
    if(e.target == this || $tar.hasClass('back')){
        slideUp();
    }
})
/**
 * [å¼¹åºç³è¯·æ³¨åçå¼¹çª]
 * @method registerPopShow
 * @param  {string} freetrial-åè´¹è¯ç¨ãcontactsales-èç³»éå®ãconsultation-ç³è¯·å¨è¯¢
 * @param  {string} title [å¼¹çªtitle]
 * @param  {string} color [å¼¹çªé¢è²]
 */
window.registerPopShow = function(version, title, color){
	// version = versionValue || 'phoneemail';
	version? registerPopConfig.version = version : '';
	title? registerPopConfig.title = title : '';
	color? registerPopConfig.color = color : '';

	var conf = registerPopConfig;
	$('#ab-reg-title').html(conf.title).css('color', conf.color);
	$('#apply-com').css('background', conf.color);
	$('#ab-reg-result-container').css('background', conf.color);
	$('#ab-close-reg').css('color', conf.color);

    $('.register-pop-container').show();

	switch(registerPopConfig.version){
		case 'freetrial':
			_hmt.push(['_trackEvent', 'æ³¨å', 'åè´¹è¯ç¨æé®']);
			break;
		case 'contactsales':
			_hmt.push(['_trackEvent', 'æ³¨å', 'èç³»éå®æé®']);
			break;
		case '':
			break;
	}
}

var url = window.location.href;
var urlAnchor = url.split('#')[1];
if(urlAnchor == 'apply'){
    registerPopShow();
}

window.registerPopHide = function(){
    slideUp();
}
})();
</script>
<script type="text/javascript">

(function(){
    var $nav = $('header.ab-nav-container'),
        $logo = $('.header-logo'),
        lastTop = $(document).scrollTop(),
        timeout;

    function toggleNav(top, force){
        if(force){
            if(top >= 5){
                $nav.addClass('ab-nav-container-active');
            }
        }else if(lastTop > 5 && top <= 5){
            $nav.removeClass('ab-nav-container-active');
            lastTop = top;
        }else if(lastTop <= 5 && top  > 5){
            $nav.addClass('ab-nav-container-active');
            lastTop = top;
        }
    }

    $(document).on('scroll', function(e){
        var top = $(this).scrollTop();
        toggleNav(top);
    });
    toggleNav(lastTop, true);

    //mobile
    $('#ab-nav-mobile-right').on('click', function(){
        var $this = $(this);

        $this.toggleClass('ab-nav-mobile-right-active');

        $('.ab-nav-menu-mobile')[ $this.hasClass('ab-nav-mobile-right-active')? 'show' : 'hide' ]();
    });

    $(".ab-nav-menu-mobile").on('click', function(e){
        if(e.target == this){
            var $mobileRight = $('#ab-nav-mobile-right');
            $mobileRight.toggleClass('ab-nav-mobile-right-active');

            $('.ab-nav-menu-mobile')[ $mobileRight.hasClass('ab-nav-mobile-right-active')? 'show' : 'hide' ]();
        }
    })

    $("#js-btn-solve").on('click', function(e){
        if(e.target == this){
            var $mobileRight = $('#ab-nav-mobile-right');
            $mobileRight.toggleClass('ab-nav-mobile-right-active');

            $('.ab-nav-menu-mobile')[ $mobileRight.hasClass('ab-nav-mobile-right-active')? 'show' : 'hide' ]();
        }
    })

})();
</script>
<script type="text/javascript">
          var resizeEmit = {
              register: function(func){
                  this.queue.push(func);
              },
              run: function(){
                  this.queue.forEach(function(fn){
                      fn();
                  })
              },
              queue: []
          };
          var resizeTimeout;
          $(window).on('resize', function(){
              clearTimeout(resizeTimeout);
              setTimeout(function(){
                  resizeEmit.run();
              }, 1000);
          })
        </script>
<a id="a"></a>
<div class="page-bg-layer">
<section class="first-screen-bg pc">
<div class="first-screen-inner">
<div class="main">
<div class="left-side">
<p class="first-screen-title">ABæµè¯ï¼è¯éªé©±å¨å¢é¿</p>
<p class="first-screen-intro">å¸®å©ä¼ä¸æåè½¬åççABè¯éªå¼æ</p>
<div class="first-screen-inner-bottom">
<a class="btn btn-free htm-track" data-hmt-category="åè´¹è¯ç¨" href="javascript:registerPopShow()" id="js-btn-apply01">åè´¹è¯ç¨</a>
</div>
</div>
<div class="right-side">
<img alt="ç½ç«æ°æ®åæå·¥å·ãç°åº¦åå¸å·¥å·-ABæµè¯ï¼è¯éªé©±å¨å¢é¿" class="right-side-banner" src="images/nindex/home-banner.fb1e52ed.png" srcset="images/nindex/home-banner@2x.2ecf32b3.png 2x"/>
</div>
</div>
</div>
<div class="first-screen-bottom">
<ul class="first-screen-bottom-inner">
<a class="first-screen-bottom-item" data-hmt-category="çµåè¡ä¸ABè¯éªæä½³å®è·µ" href="javascript:registerPopShow('home1')" id="js-btn-apply01">
<li>
<p class="title">çµåè¡ä¸ABè¯éªæä½³å®è·µ</p>
<p class="desc">éå¯¹ç»åäººç¾¤ï¼åæå®¢æ·éæ±ï¼å®ç°äº§ååæå¡åæ°ã</p>
</li>
</a>
<a class="first-screen-bottom-item" data-hmt-category="å¨çº¿æè²ABè¯éªè§£å³æ¹æ¡" href="javascript:registerPopShow('home2')" id="js-btn-apply01">
<li class="">
<p class="title">å¨çº¿æè²ABè¯éªè§£å³æ¹æ¡</p>
<p class="desc">æåç½ç«/Appä»è·å®¢å°æ¯ä»ï¼æ¯ä¸ªç¯èççå­ä¸è½¬åçã</p>
</li>
</a>
<a class="first-screen-bottom-item" data-hmt-category="éèè¡ä¸ABè¯éªè§£å³æ¹æ¡" href="javascript:registerPopShow('home3')" id="js-btn-apply01">
<li>
<p class="title">éèè¡ä¸ABè¯éªè§£å³æ¹æ¡</p>
<p class="desc">éè¿ç°åº¦åå¸ä¸ABè¯éªæ¹æ³éä½åçåäº§åè¿­ä»£é£é©ã</p>
</li>
</a>
<a class="first-screen-bottom-item" data-hmt-category="ææ¯æ¥å¥æå" href="/doc.html" id="js-btn-apply01">
<li>
<p class="title">ææ¯æ¥å¥æå</p>
<p class="desc">å¿«ééæAppAdhoc SDKï¼éè¿è¯éªé©±å¨å¢é¿ã</p>
</li>
</a>
</ul>
</div>
</section>
<section class="first-screen-bg mobile">
<div class="banner">
<div class="linear"></div>
<div class="area">
<div class="flake"></div>
<div class="flake"></div>
<div class="flake"></div>
<div class="flake"></div>
<div class="flake"></div>
<div class="flake"></div>
<div class="flake"></div>
<div class="flake"></div>
<div class="flake"></div>
<div class="flake"></div>
<div class="flake"></div>
<div class="flake"></div>
<div class="flake"></div>
<div class="flake"></div>
<div class="flake"></div>
<div class="flake"></div>
<div class="flake"></div>
<div class="flake"></div>
<div class="flake"></div>
<div class="flake"></div>
</div>
</div>
<div class="first-screen-inner">
<p class="first-screen-title">è¯éªé©±å¨åæ°</p>
<p class="first-screen-intro">ä¸ä¸ãé«æçA/Bæµè¯äºæå¡</p>
<div class="first-screen-inner-bottom">
<a class="btn btn-more htm-track" href="//www.appadhoc.com/productService.html">äºè§£æ´å¤</a>
<a class="btn btn-free htm-track" data-hmt-category="åè´¹è¯ç¨" href="javascript:registerPopShow()" id="js-btn-apply01">åè´¹è¯ç¨</a>
</div>
</div>
</section>
<script type="text/javascript">
            (function(){
                var dpr = Math.max(Math.min(window.devicePixelRatio, 3), 1);
                if(window.innerWidth*dpr > 800){
                    var $bg = $('.page-bg-layer');
                    $(document).on('scroll', function(e){

                        var top = $(this).scrollTop();
                        $bg.css({'top': '-' + top*0.3 + 'px'});
                    });
                }
            })();
            </script>
</div>
<div class="page-layer">
<section class="first-screen screen"></section>
<script type="text/javascript">
            (function(){
                function setFirstScreenSize(callback){
                    $('.first-screen').height(window.innerHeight);
                    setTimeout(function(){
                        callback && callback();
                    }, 500);
                }
                setFirstScreenSize(function(){
                    $('.first-screen-inner').fadeIn(500);
                });
                resizeEmit.register(setFirstScreenSize);
            })();
            </script>
<a id="b"></a>
<section class="second-screen screen">
<p class="title">å¼ºå¤§çA/Bæµè¯å¨é¢æ¨å¨ä¸å¡åé©</p>
<div class="screen-inner">
<div class="part-content">
<img alt="ç½ç«æ°æ®åæå·¥å·ãabæµè¯-abæµè¯å·¥å·" src="images/nindex/icon01.5c41e938.png" srcset="images/nindex/icon01@2x.bc80c575.png 2x"/>
<p class="sec-section-title">æ°æ®é©±å¨ä¸å¡å³ç­</p>
<p class="sec-section-des">ç²¾åæ°æ®åé¦ï¼ç§å­¦å³ç­æµç¨</p>
</div>
<div class="part-content">
<img alt="ç°åº¦åå¸å·¥å·ãappæ°æ®åæå·¥å·-abæµè¯å·¥å·" src="images/nindex/icon02.b82e9533.png" srcset="images/nindex/icon02@2x.8913b493.png 2x"/>
<p class="sec-section-title">ä¼åäº§åç¨æ·ä½éª</p>
<p class="sec-section-des">éå®ç¨æ·éæ±ï¼æç»­éå¯¹ä¼å</p>
</div>
<div class="part-content">
<img alt="appæ°æ®åæå·¥å·ãç°åº¦åå¸å·¥å·-abæµè¯å·¥å·" src="images/nindex/icon03.539ae1da.png" srcset="images/nindex/icon03@2x.55d13d69.png 2x"/>
<p class="sec-section-title">æåè¿è¥æå¥äº§åºæ¯</p>
<p class="sec-section-des">ç»åè¥éç­ç¥ï¼é«æå©ç¨èµæº</p>
</div>
<div class="part-content">
<img alt="ç°åº¦åå¸å·¥å·ãappæ°æ®åæå·¥å·-abæµè¯å·¥å·" src="images/nindex/icon031.e81af85b.png" srcset="images/nindex/icon031@2x.beeaa69a.png 2x"/>
<p class="sec-section-title">éä½å¸åºæ¨å¹¿ææ¬</p>
<p class="sec-section-des">æåè·å®¢è½¬åï¼æ¿æ´»ç¨æ·è´­ä¹°</p>
</div>
</div>
</section>
<a id="c"></a>
<section class="third-screen screen">
<p class="title"><span>å¨è½çAppadhoc A/B Testing</span><span>å¸®æ¨åºå¯¹å¤åçä¼åéæ±</span></p>
<div class="screen-inner">
<div class="third-screen-section">
<div class="third-screen-section-inner">
<div class="part left pc">
<div class="part-content">
<p class="thi-section-title">æä½çä½¿ç¨ææ¬</p>
<p class="thi-section-des">å­åå¯è§åç¼è¾åè½ï¼äº§åè¿è¥äººåæ éææ¯ä»å¥å³å¯ä¸çº¿è¯éªï¼å¹¶ä¸æ¯æä¸é®å¿«éåå¸ãæ éåºç¨å¸åºå®¡æ ¸</p>
</div>
</div>
<div class="part right pc">
<div class="part-content">
<img alt="appæ°æ®åæå·¥å·ãabæµè¯-æä½çæ¥å¥ææ¬" src="images/nindex/illustration01.e66708ba.png" srcset="images/nindex/illustration01@2x.410683dc.png 2x"/>
</div>
</div>
<div class="part right mobile">
<div class="part-content">
<img alt="abæµè¯ãç°åº¦åå¸å·¥å·-æä½çæ¥å¥ææ¬" src="images/nindex/illustration01.e66708ba.png" srcset="images/nindex/illustration01@2x.410683dc.png 2x"/>
</div>
</div>
<div class="part left mobile">
<div class="part-content">
<p class="thi-section-title">æä½çä½¿ç¨ææ¬</p>
<p class="thi-section-des">å­åå¯è§åç¼è¾åè½ï¼äº§åè¿è¥äººåæ éææ¯ä»å¥å³å¯ä¸çº¿è¯éªï¼å¹¶ä¸æ¯æä¸é®å¿«éåå¸ãæ éåºç¨å¸åºå®¡æ ¸</p>
</div>
</div>
</div>
</div>
<div class="third-screen-section">
<div class="third-screen-section-inner">
<div class="part left pc">
<div class="part-content">
<img alt="abæµè¯ãç°åº¦åå¸å·¥å·-ç§å­¦çæµéåå²" src="images/nindex/illustration02.66f4f351.png" srcset="images/nindex/illustration02@2x.c92df738.png 2x"/>
</div>
</div>
<div class="part right pc">
<div class="part-content">
<p class="thi-section-title">ç§å­¦çæµéåå²</p>
<p class="thi-section-des">ä¿è¯è¿å¥æ¯ä¸ªçæ¬çç¨æ·ç¹å¾ä¸è´ï¼å°æµéè¯éªç»æå¨éå¯ä¿¡ï¼æµéå¨çº¿è°æ´å³æ¶çæ</p>
</div>
</div>
<div class="part right mobile">
<div class="part-content">
<img alt="abæµè¯ãç½ç«æ°æ®åæå·¥å·-ç§å­¦çæµéåå²" src="images/nindex/illustration02.66f4f351.png" srcset="images/nindex/illustration02@2x.c92df738.png 2x"/>
</div>
</div>
<div class="part left mobile">
<div class="part-content">
<p class="thi-section-title">ç§å­¦çæµéåå²</p>
<p class="thi-section-des">ä¿è¯è¿å¥æ¯ä¸ªçæ¬çç¨æ·ç¹å¾ä¸è´ï¼å°æµéè¯éªç»æå¨éå¯ä¿¡ï¼æµéå¨çº¿è°æ´å³æ¶çæ</p>
</div>
</div>
</div>
</div>
<div class="third-screen-section">
<div class="third-screen-section-inner" style="border: 0;">
<div class="part left pc">
<div class="part-content">
<p class="thi-section-title">å¨å¹³å°è¯éªåçµæ´»é¨ç½²</p>
<p class="thi-section-des">æ¯æææå¹³å°è¯éªï¼åæ¬åç«¯ï¼Web/H5ãiOSãAndroidãå¾®ä¿¡å°ç¨åºï¼ååç«¯ï¼Node.jsãPHPãJavaç­ï¼ï¼å¯æ ¹æ®æ¨çå®éä¸å¡æåµéæ©SaaSæç§æåé¨ç½²</p>
</div>
</div>
<div class="part right pc">
<div class="part-content">
<img alt="abæµè¯ãç½ç«æ°æ®åæå·¥å·-ä¸ä¸çæ°æ®åæ" src="images/nindex/illustration03@1x.3dcb8231.png" srcset="images/nindex/illustration03@3x.b11413b2.png 2x"/>
</div>
</div>
<div class="part right mobile">
<div class="part-content">
<img alt="ç°åº¦åå¸å·¥å·ãç½ç«æ°æ®åæå·¥å·-ä¸ä¸çæ°æ®åæ" src="images/nindex/illustration03@1x.3dcb8231.png" srcset="images/nindex/illustration03@3x.b11413b2.png 2x"/>
</div>
</div>
<div class="part left mobile">
<div class="part-content">
<p class="thi-section-title">å¨å¹³å°è¯éªåçµæ´»é¨ç½²</p>
<p class="thi-section-des">æ¯æææå¹³å°è¯éªï¼åæ¬åç«¯ï¼Web/H5ãiOSãAndroidãå¾®ä¿¡å°ç¨åºï¼ååç«¯ï¼Node.jsãPHPãJavaç­ï¼ï¼å¯æ ¹æ®æ¨çå®éä¸å¡æåµéæ©SaaSæç§æåé¨ç½²</p>
</div>
</div>
</div>
</div>
<a class="btn btn-middle btn-white btn-learnmore" href="//www.appadhoc.com/productService.html">äºè§£æ´å¤</a>
</div>
</section>
<a id="d"></a>
<section class="forth-screen screen" id="solution">
<p class="title">å©åå¤é¢åå®¢æ·å®ç°è¯éªé©±å¨å¢é¿</p>
<div class="screen-inner">
<div class="for-screen-section">
<div class="for-screen-section-inner">
<div class="part-content">
<img alt="abæµè¯ãç°åº¦åå¸å·¥å·-abæµè¯å·¥å·" src="images/nindex/eshop.d5e5553b.png" srcset="images/nindex/eshop@2x.7d15d15a.png 2x"/>
<p class="for-section-title">çµå</p>
<p class="for-section-des">ç²¾åä¼åè´­ä¹°è½¬åçï¼ä¸æ­æé«æå¥äº§åºæ¯</p>
<a class="check-details" href="//www.appadhoc.com/eshop.html">æ¥çè¯¦æ</a>
</div>
<div class="part-content">
<img alt="ç½ç«æ°æ®åæå·¥å·ãappæ°æ®åæå·¥å·-abæµè¯å·¥å·" src="images/nindex/finance.979e8eec.png" srcset="images/nindex/finance@2x.eede5caa.png 2x"/>
<p class="for-section-title">éè</p>
<p class="for-section-des">ä½é£é©ä½ææ¬æ¿æ´»ç¨æ·ï¼é«æçé«æ¶çäº§åè¿­ä»£</p>
<a class="check-details" href="//www.appadhoc.com/banking.html">æ¥çè¯¦æ</a>
</div>
</div>
<div class="for-screen-section-inner">
<div class="part-content">
<img alt="ç½ç«æ°æ®åæå·¥å·ãappæ°æ®åæå·¥å·-abæµè¯å·¥å·" src="images/nindex/education.5acff8b3.png" srcset="images/nindex/education@2x.605a1247.png 2x"/>
<p class="for-section-title">æè²</p>
<p class="for-section-des">åæäº§åä¼åæ¹åï¼åé©æè²è¿è¥æ¨¡å¼</p>
<a class="check-details" href="//www.appadhoc.com/education.html">æ¥çè¯¦æ</a>
</div>
<div class="part-content">
<img alt="ç°åº¦åå¸å·¥å·ãç½ç«æ°æ®åæå·¥å·-abæµè¯å·¥å·" src="images/nindex/tourism.a9e25531.png" srcset="images/nindex/tourism@2x.62852445.png 2x"/>
<p class="for-section-title">ææ¸¸</p>
<p class="for-section-des">æ¿æ´»èªææµéåç°ï¼æç»­ä¼åç»èç¨æ·ä½éª</p>
<a class="check-details" href="//www.appadhoc.com/trip.html">æ¥çè¯¦æ</a>
</div>
</div>
</div>
</div>
<div class="btn-more" style="text-align:center;margin:0px 0 90px 0;">
<a class="btn btn-middle btn-white more-product" href="http://www.appadhoc.com/blog/category/instance/">æ´å¤æ¡ä¾</a>
</div>
</section>
<script type="text/javascript">
            $('.forth-screen-pic-list-container').on('click', 'li', function(){
				// åæ¢ææ¡
                var $this = $(this);
                if($this.hasClass('current')){
                    return;
                }

                $this.parent().find('.current').removeClass('current');
                $this.addClass('current');

                var content = $this.attr('content'),
                    sign = $this.attr('sign');
                $('.speak-content').css('opacity', 0).html('<span>'+content+'</span>'+'<span class="sign">'+sign+'</span>').animate({opacity: 1}, 500);
            }).on('click', '.play', function(){
				// // æ­æ¾è§é¢
                var $this = $(this);
				if($this.hasClass('no-video')){
					return;
				}
                var id = $this.parent().attr('data-id');
                try{
                    $('.pop-layer').fadeIn(700).find('.video-play').removeClass('video-play');

                    $('#video-'+id).addClass('video-play')[0].play();
                }catch(e){
                    console.warn(e);
                }
            }).on('click', '.arrow', function(){
				// å·¦å³åæ¢
				if($(this).hasClass('right')){
					if($('.forth-screen-pic-list').css('marginLeft') == '0px'){
						$('.forth-screen-pic-list').animate({
							marginLeft: -$('.forth-screen-pic-list-box').width() - 180
						}, 700, function(){
							$('.forth-screen-pic-list-container').find('.current').removeClass('current');
							var $li = $('.forth-screen-pic-list-container').find('li').eq(3).addClass('current');

							$('.speak-content').css('opacity', 0).html('<span>'+$li.attr('content')+'</span>'+'<span class="sign">'+$li.attr('sign')+'</span>').animate({opacity: 1}, 500);
						});
					}
				}else{
					if($('.forth-screen-pic-list').css('marginLeft') != '0px'){
						$('.forth-screen-pic-list').animate({
							marginLeft: 0
						}, 700, function(){
							$('.forth-screen-pic-list-container').find('.current').removeClass('current');
							var $li = $('.forth-screen-pic-list-container').find('li').eq(0).addClass('current');

							$('.speak-content').css('opacity', 0).html('<span>'+$li.attr('content')+'</span>'+'<span class="sign">'+$li.attr('sign')+'</span>').animate({opacity: 1}, 500);
						});
					}
				}
			});

            </script>
<a id="e"></a>
<section class="fifth-screen screen">
<p class="title">åä»ä»¬ä¸èµ·ç¨è¯éªé©±å¨å¢é¿</p>
<ul class="fifth-screen-content clear">
<li>
<a href="javascript:;"><img class="logo" src="//www.appadhoc.com/images/nindex/logo5.15/logo1.png" srcset="//www.appadhoc.com/images/nindex/logo5.15/logo1@2x.png 2x"/></a>
</li>
<li>
<a href="javascript:;"><img class="logo" src="//www.appadhoc.com/images/nindex/logo5.15/logo2.png" srcset="//www.appadhoc.com/images/nindex/logo5.15/logo2@2x.png 2x"/></a>
</li>
<li>
<a href="http://www.appadhoc.com/blog/zhuishushenqi-baoyuegoumai/"><img class="logo" src="//www.appadhoc.com/images/nindex/logo5.15/logo3.png" srcset="//www.appadhoc.com/images/nindex/logo5.15/logo3@2x.png 2x"/></a>
</li>
<li>
<a href="javascript:;"><img class="logo" src="//www.appadhoc.com/images/nindex/logo5.15/logo4.png" srcset="//www.appadhoc.com/images/nindex/logo5.15/logo4@2x.png 2x"/></a>
</li>
<li>
<a href="http://www.appadhoc.com/blog/%E6%96%97%E7%B1%B3%E6%8A%A5%E5%90%8D%E6%88%90%E5%8A%9F%E4%BC%98%E5%8C%96/"><img class="logo" src="//www.appadhoc.com/images/nindex/logo5.15/logo5.png" srcset="//www.appadhoc.com/images/nindex/logo5.15/logo5@2x.png 2x"/></a>
</li>
<li>
<a href="http://www.appadhoc.com/blog/wework%E9%A2%84%E7%BA%A6%E5%8F%82%E8%A7%82%E8%A1%A8%E5%8D%95%E4%BC%98%E5%8C%96/"><img class="logo" src="//www.appadhoc.com/images/nindex/logo5.15/logo7.png" srcset="//www.appadhoc.com/images/nindex/logo5.15/logo7@2x.png 2x"/></a>
</li>
<li>
<a href="javascript:;"><img class="logo" src="//www.appadhoc.com/images/nindex/logo5.15/logo6.png" srcset="//www.appadhoc.com/images/nindex/logo5.15/logo6@2x.png 2x"/></a>
</li>
<li>
<a href="javascript:;"><img class="logo" src="//www.appadhoc.com/images/nindex/logo5.15/logo8.png" srcset="//www.appadhoc.com/images/nindex/logo5.15/logo8@2x.png 2x"/></a>
</li>
<li>
<a href="javascript:;"><img class="logo" src="//www.appadhoc.com/images/nindex/logo5.15/logo9.png" srcset="//www.appadhoc.com/images/nindex/logo5.15/logo9@2x.png 2x"/></a>
</li>
<li>
<a href="http://www.appadhoc.com/blog/coocaa-appadhoc-tvos-ab-testing/"><img class="logo" src="//www.appadhoc.com/images/nindex/logo5.15/logo10.png" srcset="//www.appadhoc.com/images/nindex/logo5.15/logo10@2x.png 2x"/></a>
</li>
<li>
<a href="javascript:;"><img class="logo" src="//www.appadhoc.com/images/nindex/logo5.15/logo11.png" srcset="//www.appadhoc.com/images/nindex/logo5.15/logo11@2x.png 2x"/></a>
</li>
<li>
<a href="javascript:;"><img class="logo" src="//www.appadhoc.com/images/nindex/logo5.15/logo12.png" srcset="//www.appadhoc.com/images/nindex/logo5.15/logo12@2x.png 2x"/></a>
</li>
<li class="logo-mobile">
<a href="javascript:;"><img class="logo" src="//www.appadhoc.com/images/nindex/logo5.15/logo13.png" srcset="//www.appadhoc.com/images/nindex/logo5.15/logo13@2x.png 2x"/></a>
</li>
<li class="logo-mobile">
<a href="javascript:;"><img class="logo" src="//www.appadhoc.com/images/nindex/logo5.15/logo14.png" srcset="//www.appadhoc.com/images/nindex/logo5.15/logo14@2x.png 2x"/></a>
</li>
<li class="logo-mobile">
<a href="javascript:;"><img class="logo" src="//www.appadhoc.com/images/nindex/logo5.15/logo15.png" srcset="//www.appadhoc.com/images/nindex/logo5.15/logo15@2x.png 2x"/></a>
</li>
<li class="logo-mobile">
<a href="javascript:;"><img class="logo" src="//www.appadhoc.com/images/nindex/logo5.15/logo16.png" srcset="//www.appadhoc.com/images/nindex/logo5.15/logo16@2x.png 2x"/></a>
</li>
<li class="logo-mobile">
<a href="javascript:;"><img class="logo" src="//www.appadhoc.com/images/nindex/logo5.15/logo17.png" srcset="//www.appadhoc.com/images/nindex/logo5.15/logo17@2x.png 2x"/></a>
</li>
<li class="logo-mobile">
<a href="http://www.appadhoc.com/blog/10086-wechat-app/"><img class="logo" src="//www.appadhoc.com/images/nindex/logo5.15/logo18.png" srcset="//www.appadhoc.com/images/nindex/logo5.15/logo18@2x.png 2x"/></a>
</li>
<li class="logo-mobile">
<a href="javascript:;"><img class="logo" src="//www.appadhoc.com/images/nindex/logo5.15/logo19.png" srcset="//www.appadhoc.com/images/nindex/logo5.15/logo19@2x.png 2x"/></a>
</li>
<li class="logo-mobile">
<a href="javascript:;"><img class="logo" src="//www.appadhoc.com/images/nindex/logo5.15/logo20.png" srcset="//www.appadhoc.com/images/nindex/logo5.15/logo20@2x.png 2x"/></a>
</li>
<li class="logo-mobile">
<a href="http://www.appadhoc.com/blog/tangkang-zhuyuanbao-pc/"><img class="logo" src="//www.appadhoc.com/images/nindex/logo5.15/logo21.png" srcset="//www.appadhoc.com/images/nindex/logo5.15/logo21@2x.png 2x"/></a>
</li>
<li class="logo-mobile">
<a href="javascript:;"><img class="logo" src="//www.appadhoc.com/images/nindex/logo5.15/logo22.png" srcset="//www.appadhoc.com/images/nindex/logo5.15/logo22@2x.png 2x"/></a>
</li>
<li class="logo-mobile">
<a href="javascript:;"><img class="logo" src="//www.appadhoc.com/images/nindex/logo5.15/logo23.png" srcset="//www.appadhoc.com/images/nindex/logo5.15/logo23@2x.png 2x"/></a>
</li>
<li class="logo-mobile">
<a href="javascript:;"><img class="logo" src="//www.appadhoc.com/images/nindex/logo5.15/logo24.png" srcset="//www.appadhoc.com/images/nindex/logo5.15/logo24@2x.png 2x"/></a>
</li>
<li class="logo-mobile">
<a href="javascript:;"><img class="logo" src="//www.appadhoc.com/images/nindex/logo5.15/logo25.png" srcset="//www.appadhoc.com/images/nindex/logo5.15/logo25@2x.png 2x"/></a>
</li>
</ul>
</section>
</div>
<section class="pop-layer">
<div class="pop-layer-inner">
<i class="close"></i>
<video controls="controls" id="video" preload="preload" src="https://sdk.appadhoc.com/videos/adhoc_nb.mp4"></video>
<video controls="controls" id="video-ledongli" preload="preload" src="https://sdk.appadhoc.com/videos/ledongli.mp4"></video>
<video controls="controls" id="video-miaomiao" preload="preload" src="https://sdk.appadhoc.com/videos/miaomiao.mp4"></video>
<video controls="controls" id="video-genshuixue" preload="preload" src="https://sdk.appadhoc.com/videos/gengshuixue.mp4"></video>
</div>
</section>
<script type="text/javascript">
    $('.pop-layer').on('click', function(e){
        var $this = $(this);
        if($(e.target).hasClass('pop-layer-inner') || $(e.target).hasClass('close')  ){
            $this.fadeOut(700);
            var v = $this.find('.video-play')[0];
            if(v){
                v.pause();
            }
        }
    })
    $('.first-screen-bg').find('.play').on('click', function(){
        var $cur = $('.pop-layer').fadeIn(700).find('.video-play');
        $cur.removeClass('video-play');
        $('#video').addClass('video-play')[0].play();
    });
</script>
<section class="footer-screen screen">
<div class="footer-line">
<a class="btn btn-white btn-left btn-large" href="//www.appadhoc.com/productService.html">äºè§£æ´å¤</a>
<a class="btn btn-green btn-right btn-large htm-track" data-hmt-category="é©¬ä¸æµè¯" href="javascript:registerPopShow()" id="js-btn-apply02">é©¬ä¸æµè¯</a>
</div>
</section>
<section class="map-screen screen">
<div class="map-screen-content">
<ul class="map-screen-content-inner">
<li>
<dl>
<dt class="map-screen-title">é¦é¡µ</dt>
<dd class="map-screen-list"><a href="//www.appadhoc.com/index.html#b">æ ¸å¿ä»·å¼</a></dd>
<dd class="map-screen-list"><a href="//www.appadhoc.com/index.html#c">äº§åç¹ç¹</a></dd>
<dd class="map-screen-list"><a href="//www.appadhoc.com/index.html#d" rel="nofollow">è§£å³æ¹æ¡</a></dd>
<dd class="map-screen-list"><a href="//www.appadhoc.com/index.html#e" rel="nofollow">æä½³å®è·µ</a></dd>
<dd class="map-screen-list"><a href="https://www.reyun.com/" rel="nofollow" target="_blank">æ°æ®æ´å¯</a></dd>
<dl>
</dl></dl></li>
<li>
<dl>
<dt class="map-screen-title">äº§ååæå¡</dt>
<dd class="map-screen-list"><a href="//www.appadhoc.com/productService.html#a">æ»ä½ç¹å¾</a></dd>
<dd class="map-screen-list"><a href="//www.appadhoc.com/productService.html#b">å·ä½ç¹ç¹</a></dd>
<dd class="map-screen-list"><a href="//www.appadhoc.com/productService.html#c">å®¢æ·æå</a></dd>
<dd class="map-screen-list"><a href="//www.appadhoc.com/productService.html#d">å¨è¯¢</a></dd>
<dd class="map-screen-list"><a href="//www.appadhoc.com/productService.html#e">å¹è®­æå¡</a></dd>
</dl>
</li>
<li>
<dl>
<dt class="map-screen-title">è§£å³æ¹æ¡</dt>
<dd class="map-screen-list"><a href="//www.appadhoc.com/eshop.html">çµå</a></dd>
<dd class="map-screen-list"><a href="//www.appadhoc.com/banking.html">éè</a></dd>
<dd class="map-screen-list"><a href="//www.appadhoc.com/education.html">æè²</a></dd>
<dd class="map-screen-list"><a href="//www.appadhoc.com/trip.html">ææ¸¸</a></dd>
</dl>
</li>
<li>
<dl>
<dt class="map-screen-title">èµæºä¸­å¿</dt>
<dd class="map-screen-list"><a href="http://www.appadhoc.com/blog/category/instance/">æ¡ä¾åº</a></dd>
<dd class="map-screen-list"><a href="//www.appadhoc.com/startGuide.html">å¿«éä¸ææå</a></dd>
<dd class="map-screen-list"><a href="//www.appadhoc.com/doc.html">ææ¡£ä¸­å¿</a></dd>
<dd class="map-screen-list"><a href="http://www.appadhoc.com/blog">åå®¢</a></dd>
</dl>
</li>
</ul>
</div>
<p class="map-footer">åäº¬ççè¶£ç©ç§ææéå¬å¸  Â©Copyright 2014 - 2019 AppAdhoc   äº¬ICPå¤20013318å·-2  ç»è¥æ§è®¸å¯è¯ç¼å·ï¼äº¬ICPè¯151034å·
        <span class="mpa-footer-links">
<a class="blue" href="/clause.html" rel="nofollow">æå¡æ¡æ¬¾</a>
<a class="blue" href="/privacy.html" rel="nofollow">éç§æ¿ç­</a>
<a class="blue" href="https://www.reyun.com/" rel="nofollow" target="_blank">å³äºæä»¬</a>
</span>
</p>
<div style="width:300px;margin:0 auto; padding:0 10px 10px;font-size: 12px;text-align: center;">
<a href="http://www.beian.gov.cn/portal/registerSystemInfo?recordcode=11010502040997" style="display:inline-block;text-decoration:none;height:20px;line-height:20px;" target="_blank">
<img src="images/icp.25797632.png" style="float:left;"/>
<p style="float:left;height:20px;line-height:20px;margin: 0px 0px 0px 5px; color:#939393;">äº¬å¬ç½å®å¤ 11010502040997å·</p></a>
</div>
</section>
<script src="scripts/header.a982303e.js"></script>
<script src="scripts/reyunh5-track.a7adc1ff.js"></script>
<!-- Notice pachong -->
<script>
    (function(){
        var bp = document.createElement('script');
        var curProtocol = window.location.protocol.split(':')[0];
        if (curProtocol === 'https') {
            bp.src = 'https://zz.bdstatic.com/linksubmit/push.js';
        }
        else {
            bp.src = 'http://push.zhanzhang.baidu.com/push.js';
        }
        var s = document.getElementsByTagName("script")[0];
        s.parentNode.insertBefore(bp, s);
    })();
   </script>
<script>
     var code = "\u0020\u0020\u0020\u0020\u0020\u0020\u0020\u0020\u0020\u0020\u0020\u0020\u25e5\u25e4\u007e\u007e\ue822\u007e\u007e\u25e5\u25e4\u000a\u0020\u0020\u0020\u0020\u0020\u0020\u0020\u0020\u0020\u0020\u0020\u0020\u2503\u0020\u3000\u3000\u0020\u0020\u0020\u2503\u000a\u0020\u0020\u0020\u0020\u0020\u0020\u0020\u0020\u0020\u0020\u0020\u0020\u0020\u2261\u2501\u0020\ufe4f\u0020\u2501\u2261\u000a\u0020\u0020\u0020\u0020\u0020\u0020\u0020\u0020\u0020\u0020\u0020\u0020\u2517\u2501\u2501\u2533\u221e\u2533\u2501\u2501\u251b\u000a\u0020\u0020\u0020\u0020\u005f\u002e\u002e\u002c\u002d\u002d\u002d\u002d\u002d\u002d\u250f\u252b\u3000\u2523\u2513\u002d\u002d\u002d\u002d\u002d\u002d\u002c\u002e\u002e\u005f\u000a\u0020\u0020\u0020\u003b\u0027\u002d\u002e\u002c\u002d\u002d\u002d\u002d\u002d\u002d\u002d\u002d\u002d\u002d\u002d\u002d\u002d\u002d\u002d\u002d\u002d\u002d\u002c\u002e\u002d\u0027\u003b\u000a\u0020\u0020\u0020\u007c\u0020\u0020\u0020\u0020\u0020\u0020\u0020\u0020\u0020\u0020\u0020\u0020\u0020\u0020\u0020\u0020\u0020\u0020\u0020\u0020\u0020\u0020\u0020\u0020\u0020\u0020\u007c\u000a\u0020\u0020\u0020\u3001\u0020\u0020\u0020\u0020\u0020\u0020\u0020\u0020\u0020\u0020\u0020\u0020\u0020\u0020\u0020\u0020\u0020\u0020\u0020\u0020\u0020\u0020\u0020\u0020\u0020\u003b\u000a\u0020\u0020\u0020\u0020\u005c\u0020\u0020\u0020\u0020\u0020\u0020\u0020\u0020\u0020\u0020\u0020\u0020\u0020\u0020\u0020\u0020\u0020\u0020\u0020\u0020\u0020\u0020\u0020\u0020\u002f\u000a\u0020\u0020\u002e\u002d\u0027\u0020\u0060\u002c\u002e\u005f\u005f\u005f\u005f\u005f\u005f\u005f\u005f\u005f\u005f\u005f\u005f\u005f\u005f\u005f\u005f\u005f\u002e\u002c\u0027\u0020\u0027\u002d\u002e\u000a\u0028\u0020\u0020\u0020\u0020\u0020\u0020\u0020\u0027\u002d\u002d\u002d\u002d\u002d\u002d\u002d\u002d\u002d\u002d\u002d\u002d\u002d\u002d\u002d\u002d\u0027\u0020\u0020\u0020\u0020\u0020\u0020\u0020\u0029\u000a\u0020\u0060\u002d\u003d\u002e\u002e\u005f\u005f\u005f\u005f\u005f\u005f\u005f\u005f\u005f\u005f\u005f\u005f\u005f\u005f\u005f\u005f\u005f\u005f\u005f\u005f\u005f\u005f\u005f\u005f\u002e\u002e\u002d\u000a\u000a\u5feb\u5230\u7897\u91cc\u6765\uff01\u7b80\u5386\u8bf7\u6295\u653e\u0020\u0077\u0061\u006e\u0040\u0061\u0070\u0070\u0061\u0064\u0068\u006f\u0063\u002e\u0063\u006f\u006d"
     console.log(decodeURIComponent(code));
   </script>
<script>

  (function(i,s,o,g,r,a,m){i['GoogleAnalyticsObject']=r;i[r]=i[r]||function(){

  (i[r].q=i[r].q||[]).push(arguments)},i[r].l=1*new Date();a=s.createElement(o),

  m=s.getElementsByTagName(o)[0];a.async=1;a.src=g;m.parentNode.insertBefore(a,m)

  })(window,document,'script','https://www.google-analytics.com/analytics.js','ga');

  ga('create', 'UA-88671915-1', 'auto');

  ga('send', 'pageview');

</script>
<script>
  TrackingIO.init('5d0f5d55cf725cf69276e4baf9eedd7c')
</script>
</body>
</html>
