<html>
<body>
<noscript>
<meta content="no-cache" http-equiv="pragma"/>
<meta content="-1" http-equiv="Expires"/>
<meta content="5;URL=http://home.appextremes.com" http-equiv="refresh"/>
</noscript>
<script language="JavaScript">

<!--

 

var sTargetURL = "http://home.appextremes.com";

function doRedirect()

{
    setTimeout( "timedRedirect()", 0 );
}

function timedRedirect()

{
    window.location.href = sTargetURL;
}
 
//-->

</script>
<script language="JavaScript1.1">
<!--

function timedRedirect()

{
    window.location.replace( sTargetURL );
}

//-->

</script>
</body></html>
