<!DOCTYPE HTML PUBLIC "-//W3C//DTD HTML 3.2 Final//EN">
<html>
<head>
<title>Index of /</title>
</head>
<body>
<h1>Index of /</h1>
<pre><img alt="Icon " src="/__ovh_icons/blank.gif"/> <a href="?C=N;O=D">Name</a>                    <a href="?C=M;O=A">Last modified</a>      <a href="?C=S;O=A">Size</a>  <a href="?C=D;O=A">Description</a><hr/><img alt="[   ]" src="/__ovh_icons/layout.gif"/> <a href="Cours_STAPS_M1_2020.pdf">Cours_STAPS_M1_2020.pdf</a> 2020-11-05 18:00  680K  
<img alt="[   ]" src="/__ovh_icons/layout.gif"/> <a href="Cours_STAPS_M2_2020.pdf">Cours_STAPS_M2_2020.pdf</a> 2020-11-03 17:16  482K  
<img alt="[DIR]" src="/__ovh_icons/folder.gif"/> <a href="Divers/">Divers/</a>                 2020-11-16 14:54    -   
<img alt="[   ]" src="/__ovh_icons/layout.gif"/> <a href="cm6_css.pdf">cm6_css.pdf</a>             2020-11-03 17:17  1.7M  
<img alt="[TXT]" src="/__ovh_icons/text.gif"/> <a href="exemple.html">exemple.html</a>            2020-11-03 15:51  1.5K  
<img alt="[DIR]" src="/__ovh_icons/folder.gif"/> <a href="wp01/">wp01/</a>                   2020-11-01 23:15    -   
<img alt="[DIR]" src="/__ovh_icons/folder.gif"/> <a href="wp02/">wp02/</a>                   2020-11-01 23:27    -   
<img alt="[DIR]" src="/__ovh_icons/folder.gif"/> <a href="wp03/">wp03/</a>                   2020-11-01 23:38    -   
<img alt="[DIR]" src="/__ovh_icons/folder.gif"/> <a href="wp04/">wp04/</a>                   2020-11-01 23:50    -   
<img alt="[DIR]" src="/__ovh_icons/folder.gif"/> <a href="wp05/">wp05/</a>                   2020-11-02 00:00    -   
<img alt="[DIR]" src="/__ovh_icons/folder.gif"/> <a href="wp06/">wp06/</a>                   2020-11-02 00:10    -   
<img alt="[DIR]" src="/__ovh_icons/folder.gif"/> <a href="wp07/">wp07/</a>                   2020-11-02 00:22    -   
<img alt="[DIR]" src="/__ovh_icons/folder.gif"/> <a href="wp08/">wp08/</a>                   2020-11-02 00:32    -   
<img alt="[DIR]" src="/__ovh_icons/folder.gif"/> <a href="wp09/">wp09/</a>                   2020-11-02 00:45    -   
<img alt="[DIR]" src="/__ovh_icons/folder.gif"/> <a href="wp10/">wp10/</a>                   2020-11-02 00:57    -   
<img alt="[DIR]" src="/__ovh_icons/folder.gif"/> <a href="wp11/">wp11/</a>                   2020-11-02 01:07    -   
<img alt="[DIR]" src="/__ovh_icons/folder.gif"/> <a href="wp12/">wp12/</a>                   2020-11-02 01:18    -   
<img alt="[DIR]" src="/__ovh_icons/folder.gif"/> <a href="wp13/">wp13/</a>                   2020-11-02 01:29    -   
<img alt="[DIR]" src="/__ovh_icons/folder.gif"/> <a href="wp14/">wp14/</a>                   2020-11-02 01:39    -   
<img alt="[DIR]" src="/__ovh_icons/folder.gif"/> <a href="wp15/">wp15/</a>                   2020-11-02 01:50    -   
<img alt="[DIR]" src="/__ovh_icons/folder.gif"/> <a href="wp16/">wp16/</a>                   2020-11-02 02:00    -   
<img alt="[DIR]" src="/__ovh_icons/folder.gif"/> <a href="wp17/">wp17/</a>                   2020-11-02 02:11    -   
<img alt="[DIR]" src="/__ovh_icons/folder.gif"/> <a href="wp18/">wp18/</a>                   2020-11-02 02:22    -   
<img alt="[DIR]" src="/__ovh_icons/folder.gif"/> <a href="wp19/">wp19/</a>                   2020-11-02 02:32    -   
<img alt="[DIR]" src="/__ovh_icons/folder.gif"/> <a href="wp20/">wp20/</a>                   2020-11-02 02:43    -   
<img alt="[DIR]" src="/__ovh_icons/folder.gif"/> <a href="wp21/">wp21/</a>                   2020-11-03 15:57    -   
<hr/></pre>
</body></html>
