<html><body><p>ï»¿<!DOCTYPE html PUBLIC "-//W3C//DTD XHTML 1.0 Transitional//EN" "http://www.w3.org/TR/xhtml1/DTD/xhtml1-transitional.dtd">

</p>
<meta content="width=1700, user-scalable=yes" name="viewport"/>
<meta content="th" name="DC.Language"/>
<meta content="TH-10" name="geo.region"/>
<meta content="text/html; charset=utf-8" http-equiv="Content-Type"/>
<meta content="" property="og:title"/>
<meta content="" property="og:description"/>
<meta content="" property="og:keywords"/>
<!--<title>à¸à¸£à¸´à¸©à¸±à¸ à¸à¹à¸²à¸à¸²à¸à¸ªà¸§à¸à¸à¸²à¸¥à¹à¸¡à¸à¹à¸³à¸¡à¸±à¸à¸­à¸¸à¸à¸ªà¸²à¸«à¸à¸£à¸£à¸¡ à¸à¸³à¸à¸±à¸ à¹à¸à¹à¸à¹à¸£à¸à¸à¸²à¸à¸­à¸¸à¸à¸ªà¸²à¸«à¸à¸£à¸£à¸¡ à¸à¸¥à¸´à¸à¸à¹à¸³à¸¡à¸±à¸à¸à¸²à¸¥à¹à¸¡à¸à¸´à¸ 
à¹à¸¥à¸° à¹à¸£à¸à¸à¸²à¸à¸à¸¥à¸´à¸à¸à¸£à¸°à¹à¸ªà¹à¸à¸à¹à¸²à¸à¸²à¸à¸à¸µà¸§à¸¡à¸§à¸¥</title>-->
<title>à¸à¸¥à¸¸à¹à¸¡à¸à¹à¸²à¸à¸²à¸à¸­à¸¸à¸à¸ªà¸²à¸«à¸à¸£à¸£à¸¡à¸à¸­à¹à¸«à¹à¸à¸³à¸¡à¸±à¹à¸à¸ªà¸±à¸à¸à¸²à¸§à¹à¸² à¸à¸°à¸à¸±à¸à¸ªà¹à¸à¸ªà¸´à¸à¸à¹à¸²à¹à¸¥à¸°à¹à¸«à¹à¸à¸²à¸£à¸à¸£à¸´à¸à¸²à¸£à¸à¸µà¹à¸à¸µà¸à¸µà¹à¸ªà¸¸à¸ à¸ªà¸³à¸«à¸£à¸±à¸à¸¥à¸¹à¸à¸à¹à¸²à¸à¸±à¹à¸à¹à¸à¹à¸¥à¸°à¸à¹à¸²à¸à¸à¸£à¸°à¹à¸à¸¨ à¸ à¸²à¸¢à¹à¸à¹à¸ªà¹à¸¥à¹à¸à¸ "à¸à¸¥à¸´à¸à¸ªà¸´à¸à¸à¹à¸²à¹à¸à¹à¸¡à¸²à¸à¸£à¸à¸²à¸ à¸à¸£à¸´à¸à¸²à¸£à¸à¸±à¸à¹à¸§ à¸à¸±à¸à¸à¸²à¹à¸«à¹à¸à¹à¸²à¸§à¹à¸à¸¥à¸­à¸¢à¹à¸²à¸à¸à¹à¸­à¹à¸à¸·à¹à¸­à¸"</title>
<link href="/favicon-32x32.png" rel="icon" sizes="32x32" type="/image/png"/>
<link href="/css/fonts.css" rel="stylesheet"/>
<link href="/css/style_main.css" rel="stylesheet"/>
<link href="/css/style_th.css" rel="stylesheet"/>
<link href="/css/img-hover-adipoli.css" rel="stylesheet" type="text/css"/>
<script src="/js/jquery.tools.min.js" type="text/javascript"></script>
<script defer="" src="/js/jquery.adipoli.min.js"></script>
<script language="javascript">
$(document).ready(function(){ 
	
	$(function(){
		$('.hoverEffect').adipoli({
			'startEffect' : 'transparent',
			'hoverEffect' : 'boxRainGrowReverse'
		}); 
	});
	
	$('#accordion li a').hover(function () {

			//$('#accordion li').children('ul').slideUp('fast');	
			$(this).siblings('ul').slideDown('slow');
			return false;

		});

});
</script>
<!--<hr class="top_line" />-->
<div id="block_header">
<img id="logo" src="/images/_temp/logo.png"/>
<style>
#lang span {
	color: #225B6E;
	text-align: right;
	font-family: 'Conv_DB-Ozone-X',Sans-Serif;
	font-size: 16px;
	width: 58px;
	display: block;
	line-height: 12px;
	border-right: 2px solid #68D9F7;
	padding-right: 10px;
	text-transform: uppercase; float:left;
}
#lang .i_th {
	background:url(/images/_temp/th.png) no-repeat top center; width:25px; height:25px; float:left; margin:0px 2px; opacity:0.3;
}
#lang .i_th:hover , .i_th_active {
	background:url(/images/_temp/th_a.png) no-repeat top center; width:25px; height:25px; float:left; margin:0px 2px; opacity:1;
}
#lang .i_en {
	background:url(/images/_temp/en.png) no-repeat top center; width:25px; height:25px; float:left; margin:0px 2px; opacity:0.3;
}
#lang .i_en:hover , .i_en_active {
	background:url(/images/_temp/en_a.png) no-repeat top center; width:25px; height:25px; float:left; margin:0px 2px; opacity:1;
}
</style>
<div id="lang">
<span style="font-size:20px">à¹à¸à¸¥à¸µà¹à¸¢à¸à¸ à¸²à¸©à¸²</span>
<a class="i_th_active" href="/changeLang.php?lang=th&amp;uri=/2006-2007/customer_center/customer-IDPP00C916/myaccount/signin/%09%0A"></a>
<a class="i_en" href="/changeLang.php?lang=en&amp;uri=/2006-2007/customer_center/customer-IDPP00C916/myaccount/signin/%09%0A"></a>
</div>
<!-- Start Menu -->
	ï»¿<!-- Topmenu For Thai -->
<ul id="topmenu">
<a href="/"><div>à¸«à¸à¹à¸²à¸«à¸¥à¸±à¸</div></a>
<a href="/aboutus/"><div>à¹à¸à¸µà¹à¸¢à¸§à¸à¸±à¸à¹à¸£à¸²</div></a>
<a href="/event/"><div>à¸à¸´à¸à¸à¸£à¸£à¸¡</div></a>
<a href="/product/"><div>à¸ªà¸´à¸à¸à¹à¸²à¹à¸¥à¸°à¸à¸£à¸´à¸à¸²à¸£</div></a>
<a href="/job/"><div>à¸ªà¸¡à¸±à¸à¸£à¸à¸²à¸</div></a>
<a href="/contactus/"><div>à¸à¸´à¸à¸à¹à¸­à¹à¸£à¸²</div></a>
</ul>
<!-- End Menu -->
</div>





ï»¿<!-- Footer For InnerPage -->
<footer id="innerpage">
<div id="footer_1200">
<div id="footer_menu">
<a href="/">à¸«à¸à¹à¸²à¸«à¸¥à¸±à¸</a>/
            <a href="/aboutus/">à¹à¸à¸µà¹à¸¢à¸§à¸à¸±à¸à¹à¸£à¸²</a>/
            <a href="/event/">à¸à¸´à¸à¸à¸£à¸£à¸¡</a>/
            <a href="/product/">à¸ªà¸´à¸à¸à¹à¸²à¹à¸¥à¸°à¸à¸£à¸´à¸à¸²à¸£</a>/
            <a href="/job/">à¸ªà¸¡à¸±à¸à¸£à¸à¸²à¸</a>/
            <a href="/contactus/">à¸à¸´à¸à¸à¹à¸­à¹à¸£à¸²</a>
</div>
<div id="copyright" style="text-transform:uppercase;">© à¸ªà¸à¸§à¸à¸¥à¸´à¸à¸ªà¸´à¸à¸à¸´à¹ 2558 : à¸à¸¥à¸¸à¹à¸¡à¸à¸£à¸´à¸©à¸±à¸à¸à¹à¸²à¸à¸²à¸à¸­à¸¸à¸à¸ªà¸²à¸«à¸à¸£à¸£à¸¡   à¸à¸±à¸à¸à¸³à¹à¸à¸¢ <a href="http://www.area59.in.th" target="_blank">à¸à¸£à¸´à¸©à¸±à¸ à¹à¸­à¹à¸£à¸µà¸¢59 à¸à¸³à¸à¸±à¸</a></div>
</div>
</footer>
</body></html>