<html xmlns="https://www.w3.org/1999/xhtml">
<head>
<title>Thaidomainhosting provides domain registration, web hosting, email hosting, windows hosting and linux hosting in Thailand</title>
<meta content="web, host, hosting, domain, web hosting, Thai domain, domain name, web hosting, Linux hosting, windows hosting, email hosting." name="subject"/>
<meta content="ThaiDomainhosting provides thai domain registration, business email hosting, Linux hosting and windows hosting in Thailand" name="Description"/>
<meta content="Thai domain, Web Hosting, Host, Email hosting, Windows hosting, Linux hosting, co th domains, .co.th domains, Th domains, thailand domain." name="Keywords"/>
<meta content="Thailand" name="Geography"/>
<meta content="English, Thai" name="Language"/>
<meta content="never" http-equiv="Expires"/>
<meta content="Thaidomainhosting (Thailand)" name="Copyright"/>
<meta content="AquaOrange (Thailand)" name="Publisher"/>
<meta content="Global" name="distribution"/>
<meta content="INDEX,FOLLOW" name="Robots"/>
<meta content="Bangkok" name="city"/>
<meta content="Thailand, Bangkok." name="country"/>
<meta content="text/html; charset=utf-8" http-equiv="Content-Type"/>
<link href="stylesheets/layout.css" media="screen" rel="stylesheet"/>
<link href="stylesheets/v39.004.domain.min.css" rel="stylesheet"/>
<link href="stylesheets/added-ones.css" media="screen" rel="stylesheet"/>
<link href="texts/" media="screen" rel="stylesheet"/>
<link href="css/demo.css" rel="stylesheet" type="text/css"/>
<link href="css/style.css" rel="stylesheet" type="text/css"/>
<style type="text/css">
        #mc_embed_signup {
            background: #fff;
            clear: left;
            font: 14px Helvetica, Arial, sans-serif;
        }
        /* Add your own MailChimp form style overrides in your site stylesheet or in this style block.
                   We recommend moving this block and the preceding CSS link to the HEAD of your HTML file. */
    </style>
<style type="text/css">
        <!--
        .style1 {
            font-size: 18px
        }
        -->
    </style>
<script type="text/javascript">
        var gaJsHost = (("https:" == document.location.protocol) ? "https://ssl." : "https://www.");
        document.write(unescape("%3Cscript src='" + gaJsHost + "google-analytics.com/ga.js' type='text/javascript'%3E%3C/script%3E"));
    </script>
<script type="text/javascript">
        try {
            var pageTracker = _gat._getTracker("UA-4556826-1");
            pageTracker._trackPageview();
        } catch (err) {}
    </script>
<link href="css/global.css" rel="stylesheet"/>
<script src="https://ajax.googleapis.com/ajax/libs/jquery/1.5.1/jquery.min.js"></script>
<script src="js/slides.min.jquery.js"></script>
<script>
        $(function() {
            $('#slides').slides({
                preload: true,
                preloadImage: 'img/loading.gif',
                play: 5000,
                pause: 2500,
                hoverPause: true,
                animationStart: function(current) {
                    $('.caption').animate({
                        bottom: -35
                    }, 100);
                    if (window.console && console.log) {
                        // example return of current slide number
                        console.log('animationStart on slide: ', current);
                    };
                },
                animationComplete: function(current) {
                    $('.caption').animate({
                        bottom: 0
                    }, 200);
                    if (window.console && console.log) {
                        // example return of current slide number
                        console.log('animationComplete on slide: ', current);
                    };
                },
                slidesLoaded: function() {
                    $('.caption').animate({
                        bottom: 0
                    }, 200);
                }
            });
        });
    </script>
</head>
<body style="background-color:#f6f6f6">
<div id="page">
<div id="top_bar">
<p align="left" class="style1" id="nav-helpper"> <span style="float:left"> Thaidomainhosting provides quality web hosting solution and Domain registration service with 100% uptime guarantee. </span></p>
<p class="left"><img alt="TopBarItem_Left" src="images/banners/_01.png"/></p>
<p class="center"><img alt="TopBarItem_Center" src="images/banners/_02.png"/></p>
<p class="right"><img alt="TopBarItem_Right" src="images/banners/_03.png"/></p>
</div>
<div id="header">
<h1 id="brand"><a href="index.html"><img alt="ThaiDomainHosting" src="images/logo.gif"/></a><img alt="Thai Domain Hosting Now Hosting" height="68" src="images/thaidomainhosting-now-hosting.jpg" width="426"/></h1>
<h2 id="top-contact" style="font-size:19px;">CALL CENTER: +662 267 1589</h2>
<div id="nav">
<ul id="nav-main">
<li><a href="index.html">Home</a></li>
<li><a href="domain-name">Register Domain</a></li>
<li><a href="email-hosting">E-mail Hosting</a></li>
<li><a href="linux-hosting">Linux Hosting</a></li>
<li><a href="web-design">Web Design</a></li>
<li><a href="web-marketing">Web Marketing</a></li>
<li><a href="payment">How to pay</a></li>
<li><a href="contact">Contact</a></li>
</ul>
<p> </p>
<p id="nav-languages"> <a href="https://th.thaidomainhosting.com/"><img alt="Thailand" src="images/buttons/thailand.gif"/></a> <a href="https://www.thaidomainhosting.com/"><img alt="US" src="images/buttons/us.gif"/></a></p>
</div>
<div id="container">
<div id="example"> <a href="https://billing.thaidomainhosting.com/clientarea.php"> <img alt="New Ribbon" height="112" id="ribbon" src="img/new-ribbon.png" width="112"/></a>
<div id="slides">
<div class="slides_container">
<div class="slide"> <img alt="Buy now and win an iPad 2" src="img/slide-1.jpg" title="Buy now and win an iPad 2"/> </div>
<div class="slide"> <img alt="Buy now and win an iPad 2" src="img/slide-2.jpg" title="Buy now and win an iPad 2"/> </div>
<div class="slide"> <img alt="Slide 3" src="img/slide-3.jpg"/> </div>
<div class="slide"> <img alt="Slide 4" src="img/slide-4.jpg"/> </div>
</div>
</div>
</div>
</div>
<div id="content"><br/>
<div id="content-main">
<div id="content">
<div id="content-main">
<div class="wrap" id="query-zone">
<div class="container">
<div class="twoColBigLeft" id="ctl00_ctl00_ctl00_ctl00_base_content_web_base_content_home_content_leftColumnDiv">
<div class="searchBox rounded bevel blue" id="ctl00_ctl00_ctl00_ctl00_base_content_web_base_content_home_content_page_products_info_ctl00_searchBoxContainer">
<div class="callout rounded bevel">
<h3 id="ctl00_ctl00_ctl00_ctl00_base_content_web_base_content_home_content_page_products_info_ctl00_calloutHeading" style="margin-top:-5px;">Start Your Domain Search Here</h3>
<form action="https://billing.thaidomainhosting.com/domainchecker.php" method="post">
<div align="center" style="margin-top:5px;">
<input name="token" type="hidden" value="ea9fba5ace2be959ace814ac7e590aa51678a9ea"/>
<input name="direct" type="hidden" value="true"/>
WWW.
<input class="domain" name="domain" placeholder="Enter your domain here" size="20" type="text"/>
<select class="opt" name="ext">
<option>.co.th</option>
<option>.in.th</option>
<option>.com</option>
<option>.net</option>
<option>.org</option>
<option>.info</option>
<option>.biz</option>
<option>.asia</option>
<option>.mobi</option>
<option>.name</option>
<option>.us</option>
<option>.co</option>
<option>.in</option>
</select>
<input class="sub" type="submit" value="SUBMIT"/>
</div>
</form>
</div>
<div class="paragraph" id="ctl00_ctl00_ctl00_ctl00_base_content_web_base_content_home_content_page_content_features_ctl00_paragraphDiv">
<div class="com_icon"><img src="images/buttons/com-icon.png"/></div>
<div class="net_icon"><img src="images/buttons/net-icon.png"/></div>
<div class="org_icon"><img src="images/buttons/org-icon.png"/></div>
<div class="inth_icon"><img src="images/buttons/in-th-icon.png"/></div>
<div class="coth_icon"><img src="images/buttons/co-th-icon.png"/></div>
</div>
</div>
</div>
<div class="widget" id="service-online">
<div class="domain_register"> <img src="images/documents-folder-icon.png" style="display:block; position:relative; left:20px;"/>
<p style="margin-left:80px; margin-top:-45px; font-size:20px; text-align:left; font-family:Tahoma, Geneva, sans-serif"> <a href="domain-document">Documents required for Thailand Domains <span>(.CO.TH .IN.TH)</span></a></p>
<p style="font-size:9px; margin-left:80px">Click <a href="domain-document">here</a> for more information.</p>
</div>
</div>
</div>
</div>
</div>
</div>
<h1 style="font-family: 'BebasNeueRegular', 'Arial Narrow', Arial, sans-serif;font-size:35px;line-height:35px;font-weight:400;color:#3d7489;text-shadow: 1px 1px 1px rgba(0,0,0,0.3);padding: 0px 0px 5px 0px;">Enterprise Quality Web Hosting <span style="color: #80B8CE;">Packages</span></h1>
<div id="our-hosting">
<div class="hosting" id="email-hosting">
<p class="desc"> <br/>
<b>Disk Space:</b> <span class="unlimited">5 GB</span><br/>
<b>Bandwidth:</b><span class="unlimited">10 GB</span><br/>
<b>E-mail Account:</b> 1 Account<br/>
<b>Setup Fee:</b> FREE<br/>
</p><p class="price" style="text-align:center;"><span class="price">42THB /Month</span></p>
<p class="buttons"> <a class="inputbtn try" href="email-hosting">More info</a> <a class="inputbtn" href="https://billing.thaidomainhosting.com/cart.php?a=add&amp;pid=17">Buy Now</a> </p>
</div>
<div class="hosting" id="linux-hosting">
<p class="desc"> <b>Disk Space:</b> <span class="unlimited">2 GB</span><br/>
<b>Bandwidth:</b><span class="unlimited">10 GB</span><br/>
<b>Database:</b> 1 <br/>
<b>Host Domains:</b> 1 <br/>
<b>E-mail Account:</b> 2 Account</p>
<p class="price" style="text-align:center;"><span class="price">59THB /Month</span></p>
<p class="buttons"> <a class="inputbtn try" href="linux-hosting">More info</a> <a class="inputbtn" href="https://billing.thaidomainhosting.com/cart.php?a=add&amp;pid=21">Buy Now</a> </p>
</div>
<div class="hosting" id="windows-hosting">
<p class="desc"> <b>Disk Space:</b> <span class="unlimited">10 GB</span><br/>
<b>Bandwidth:</b> <span class="unlimited">10 GB</span><br/>
<b>Database:</b> 1<br/>
<b>Host Domains:</b> 1<br/>
<b>E-mail Account:</b> 2 Account </p>
<p class="price" style="text-align:center;"><span class="price">75 THB/ Month</span></p>
<p class="buttons"> <a class="inputbtn try" href="windows-hosting">More info</a> <a class="inputbtn" href="https://billing.thaidomainhosting.com/cart.php?a=add&amp;pid=25">Buy Now</a> </p>
</div>
</div>
<div id="cpanel-screenshot">
<div class="container">
<header>
<h1><span style="color:#DE5457;">FREE: </span>What will you <span>Get?</span></h1>
</header>
<section class="ac-container">
<div>
<input checked="" id="ac-1" name="accordion-1" type="radio"/>
<label for="ac-1">Antivirus Spyware/Spam</label>
<article class="ac-small">
<p>Safety data with AntiVirus Spyware to protect all your critical data. Safe to make you trust us. Every action has a Backup data every week. To back up your data secure at all times. Including anti-virus and Spam from email. Make you confident in the security of your information.</p>
<p><img src="images/details/antivirus.png"/></p>
</article>
</div>
<div>
<input id="ac-2" name="accordion-1" type="radio"/>
<label for="ac-2">Webmail</label>
<article class="ac-small">
<p>Webmail system allows you to manage email. For a system such as personal email <a class="__cf_email__" data-cfemail="5821372d2a3639353d1821372d2a3c3735393136763b373576" href="/cdn-cgi/l/email-protection">[email protected]</a> Or with any other domain can choose to change it as you like. Have spam protection spam and viruses. Can be sent through a variety of popular programs such as Outlook, Edora, Thunderbird, etc. It also can manage users, the size of areas, mail alias, mail autoresponse have different needs.</p>
<p><img src="images/details/mail.png"/></p>
</article>
</div>
<div>
<input id="ac-3" name="accordion-1" type="radio"/>
<label for="ac-3">Online Store</label>
<article class="ac-small">
<p>E-Commerce system, or shop online (Online Store) that you can offer. Through management systems and convenience products that can quickly add products and manage product updates immediately add Stockton until the delivery. Payment products. Online Makes it easy to sell and reach all target groups. We provide free installation immediately with instructions on use and instructions for your business. With experts in the Marketing and Advertising.</p>
<p><img src="images/details/ecommerce.jpg"/></p>
</article>
</div>
<div>
<input id="ac-4" name="accordion-1" type="radio"/>
<label for="ac-4">Website Template</label>
<article class="ac-small">
<p>Web Template can make website quickly. You can customize and manage the contents via Content Management System. The completely Content Management with stable and hosting compatible with all CMS like WordPress , Drupal , Joomla </p>
<p><img src="images/details/web-template.jpg"/>
</p></article>
</div>
<div>
<input id="ac-5" name="accordion-1" type="radio"/>
<label for="ac-5">cPanel</label>
<article class="ac-small">
<p>CPanel This system will manage free space automatically for example you use 500 MB plan.At first you use 50 MB for web space, 10MB for databases and another 440MB will be managed to keep e-mail automatically when you use more space for web and databases the space for email will be reduced automatically.</p>
<p><img src="images/details/cpanel.jpg"/>
</p></article>
<div>
<input id="ac-6" name="accordion-1" type="radio"/>
<label for="ac-6">Google Analytics</label>
<article class="ac-small">
<p>Another tool in monitoring visitors from the great Google to track the target of people who visited the site with details. Display a graph keywords that people use to search this site. You do not miss the target with every tool Google Analytics.</p>
<p><img src="images/details/googleanalytics.jpg"/>
</p></article>
</div>
<div>
<input id="ac-7" name="accordion-1" type="radio"/>
<label for="ac-7">Backup Policy Manager</label>
<article class="ac-small">
<p>If your work is to be specially careful we have a backup system to every day. Make every day as the associated Waterworks Authority security whether any circumstances.</p>
<p><img src="images/details/backup.png"/>
</p></article>
</div>
<div>
<input id="ac-8" name="accordion-1" type="radio"/>
<label for="ac-8">IMAP and POP3</label>
<article class="ac-small">
<p>Check the e-mail and will not be difficult to check through the website forever. When an IMAP and POP3 webmail to allow you to bring any message sent to your email program for every program. Whether it is a popular program like Microsoft Outlook or Thunderbird or other programs. It allows to easily check e-mail.</p>
<p><img src="images/details/imap.png"/>
</p></article>
</div>
</div>
</section></div>
<div align="center" id="company_list">
<h1 style="font-family: 'BebasNeueRegular', 'Arial Narrow', Arial, sans-serif;font-size:30px;line-height:35px;font-weight:400;color:#F30;text-shadow: 1px 1px 1px rgba(0,0,0,0.3);padding:5px;text-align:left">Companies</h1>
<table border="0" height="200" width="693">
<tr align="center">
<td><img src="images/company/vkool-logo.jpg"/></td>
<td><img src="images/company/almac-logo.jpg"/></td>
<td><img src="images/company/unifine-logo.jpg"/></td>
<td><img src="images/company/thunder-logo.jpg"/></td>
<td><img src="images/company/novotel-logo.jpg"/></td>
</tr>
<tr align="center">
<td><img src="images/company/mecure-logo.jpg"/></td>
<td><img src="images/company/sofitel-logo.jpg"/></td>
<td><img src="images/company/vejthani-logo.jpg"/></td>
<td><img src="images/company/piyavate-logo.jpg"/></td>
<td><img src="images/company/san-paolo-logo.jpg"/></td>
</tr>
<tr align="center">
<td><img src="images/company/3k-logo.jpg"/></td>
<td><img src="images/company/advertising-logo.jpg"/></td>
<td><img src="images/company/classic-logo.jpg"/></td>
<td><img src="images/company/thai-pc-support-logo.jpg"/></td>
<td><img src="images/company/super-logo.jpg"/></td>
</tr>
</table>
</div>
</div>
<div id="content-sub">
<div class="widget" id="service-online">
<h1 style="font-family: 'BebasNeueRegular', 'Arial Narrow', Arial, sans-serif;font-size:35px;line-height:35px;font-weight:400;color:#F30;text-shadow: 1px 1px 1px rgba(0,0,0,0.3);padding: 0px 0px 5px 0px;">Bulletin</h1>
<div class="widget_body">
<div class="free-domain-features">
<h4 style="font-weight:bold; font-size:18px;">To all .co.th domain applicant</h4>
<ul>
<li>Please prepare your documents before registering</li>
<li>50% refund will be given if the domain application is denied</li>
<li>Can be transferable to other Top-level domain </li>
</ul>
</div>
</div>
</div>
<div align="center" class="widget" id="service-online" style="margin-top:10px;"> <a href="https://x3demob.cpx3demo.com:2082/login/?user=x3demob&amp;pass=x3demob" target="_blank"><img src="images/icons/cpanel-demo-icon.png"/></a> </div>
<div class="widget" id="service-online">
<div class="productBox rounded transferProductBox" style="margin:0;width:287px;float:right;">
<h3>Domain Transfer <em>for<strong><span id="ctl00_ctl00_ctl00_ctl00_base_content_web_base_content_home_content_transferProductBoxPrice"></span><small></small>FREE</strong></em></h3>
<br/>
<fieldset>
<label for="transferInput">Transfer your domain to ThaiDomainHosting</label>
<form action="https://billing.thaidomainhosting.com/cart.php?a=add&amp;domain=transfer" method="post">
<input name="token" type="hidden" value="ea9fba5ace2be959ace814ac7e590aa51678a9ea"/>
<input name="direct" type="hidden" value="true"/>
<input name="domain" placeholder="Enter your domain here" size="37" style="height:30px;width: 100%;" type="text"/>
<button class="ncRedirectButton submitTransfer" name="ctl00$ctl00$ctl00$ctl00$base_content$web_base_content$home_content$ncTransferSubmitButton$actionObjectPlaceHolder" type="submit" value="eyJ1IjoiL2RvbWFpbnMvdHJhbnNmZXItYS1kb21haW4vdHJhbnNmZXIuYXNweCIsIm0iOiJQT1NUIiwiYiI6IkZhbHNlIiwicCI6IFt7Im4iOiJkb21haW5saXN0IiwidiI6IiIsImYiOiJkb21haW5Ub1RyYW5zZmVyIn1dfQ==">
<a href="https://billing.thaidomainhosting.com/cart.php?a=add&amp;domain=transfer"></a>
</button>
</form>
</fieldset>
</div>
</div>
<div class="widget" id="certificate-online"> <img src="images/thaidomain-certificate.png" style="position:relative;top:10px;"/> </div>
<div class="widget_body" style="margin-top:20px">
<div id="mc_embed_signup">
<form action="https://thaidomainhosting.us4.list-manage.com/subscribe/post?u=723b0bb4fabf819c123892777&amp;id=261303b9a9" class="validate" id="mc-embedded-subscribe-form" method="post" name="mc-embedded-subscribe-form" target="_blank">
<label for="mce-EMAIL">Subscribe to our Newsletter</label>
<input class="email" id="mce-EMAIL" name="EMAIL" placeholder="email address" required="" type="email" value=""/>
<div class="clear">
<input class="button" id="mc-embedded-subscribe" name="subscribe" type="submit" value="Subscribe"/>
</div>
</form>
</div>
</div>
<div class="widget" id="certificate-online"> <img src="images/web-awards.jpg" style="position:relative;top:10px;"/> </div>
</div>
</div>
</div>
<div id="down-content">
<h2 style="font-family:Arial, Helvetica, sans-serif; font-size:16px; color:#09F; font-weight:bold; padding-bottom:5px;">What is Web Hosting?</h2>
<p style="padding-bottom:8px; text-align:justify;">Web hosting (aka web site hosting, hosting, and web host) is the most common type of internet hosting service, allowing organizations and individuals to host their own website and make it accessible by other peoples via the www.</p>
<h2 style="font-family:Arial, Helvetica, sans-serif; font-size:16px; color:#09F; font-weight:bold; padding-bottom:5px;">Types of Web Hosting...</h2>
<p style="padding-bottom:8px; text-align:justify;">There are various types of web hosting solutions. Common types of hosting services are Shared Web Hosting, Reseller Hosting, VPS Hosting, Dedicated Hosting, and Collocated Hosting. You need to familiarize yourself with the different types of web hosting services and what makes each unique to really know the best web hosting that suits your needs.</p>
<h2 style="font-family:Arial, Helvetica, sans-serif; font-size:16px; color:#09F; font-weight:bold; padding-bottom:5px;">Choosing a Web Host...</h2>
<p style="padding-bottom:8px; text-align:justify;">The best way to select a decent web hosting provider is to pay attention to things such as speed of access of web host, backup system of web host, availability of web host, reliability of web host, security of web host and much more. Technically competency and speed of responses of hosting service provider are also important factors in determining the quality of a web hosting company.</p>
</div>
<div class="clearfix" id="foot-content">
<table border="0" width="896">
<tr>
<td id="foot-pad" width="213"><a href="domain-name" style="color:#09F">Register Domain</a></td>
<td id="foot-pad" width="177"><a href="email-hosting" style="color:#09F">Email Hosing</a></td>
<td id="foot-pad" width="175"><a href="contact" style="color:#09F">Contact Us</a></td>
<td id="foot-pad" width="129">Connect with us</td>
<td align="right" id="foot-pad" rowspan="4" valign="top" width="121">
</td>
</tr>
<tr>
<td id="foot-pad"><a href="https://billing.thaidomainhosting.com/cart.php?a=add&amp;domain=transfer" style="color:#09F">Transfer Domain</a></td>
<td id="foot-pad"><a href="web-design" style="color:#09F">Web Design</a></td>
<td id="foot-pad"><i style="color:#333; font-size::16px; font-weight:bold;">Affiliate</i></td>
<td id="foot-pad"><a href="https://www.twitter.com/thaidomainhosting"><img alt="twitter" src="images/buttons/twitter.png" style="float:left; margin-right:5px;" title="Follow us on Twitter"/></a><a href="https://www.facebook.com/thaidomainhosting"><img alt="facebook" src="images/buttons/facebook.png" style="float:left;" title="Like us on Facebook"/></a></td>
</tr>
<tr>
<td id="foot-pad"><a href="linux-hosting" style="color:#09F">Linux Web Hosting</a></td>
<td id="foot-pad"><a href="web-marketing" style="color:#09F">Web Marketing</a></td>
<td id="foot-pad"><a href="https://www.advertising.co.th" style="color:#09F">Advertising.co.th</a></td>
<td align="left" class="email-footer" id="foot-pad"><a href="/cdn-cgi/l/email-protection#81f2e0ede4f2c1f5e9e0e8e5eeece0e8efe9eef2f5e8efe6afe2eeec"><span class="__cf_email__" data-cfemail="0675676a637546726e676f62696b676f686e6975726f68612865696b">[email protected]</span></a></td>
</tr>
<tr>
<td id="foot-pad"><a href="windows-hosting" style="color:#09F">Windows Web Hosting</a></td>
<td id="foot-pad"><a href="payment" style="color:#09F">How to Pay</a></td>
<td id="foot-pad"><a href="https://www.thaipcsupport.com" style="color:#09F">Thai PC Support</a></td>
<td id="foot-pad"> </td>
</tr>
</table>
<p class="copyright" style="padding-top:10px;">© 2001-2012 ThaiDomainHosting.com. All Rights Reserved.</p>
<p><a class="ee" href="https://www.Thaidomainhosting.com">Powered by: ThaiDomainHosting.com</a></p>
</div>
<script data-cfasync="false" src="/cdn-cgi/scripts/5c5dd728/cloudflare-static/email-decode.min.js"></script></div></div></body>
</html>
