<html><head>
<title>Access Denied</title>
</head><body>
<h1>Access Denied</h1>
 
You don't have permission to access "http://www.gamestop.com/collectibles?" on this server.<p>
Reference #18.34312b17.1610574735.b991df5d
</p></body>
</html>
