<!DOCTYPE html>
<html style="height: 100%;">
<head>
<meta charset="utf-8"/>
<title>403 Access Forbidden</title>
<style>
            @media screen and (max-width: 800px) {
                body > div > div > div div {
                    display: block !important;
                    padding-right: 0 !important;
                }

                body {
                    text-align: center !important;
                }
            }
        </style>
</head>
<body style="height: 90%;">
<div style="display: flex; align-items: center; justify-content: center; height: 90%;">
<div style="background-color: #eee; width: 70%; border: solid 3px #ddd; padding: 1.5em 3em 3em 3em; font-family: Arial, Helvetica, sans-serif;">
<div style="display: table-row;">
<div style="display: table-cell; font-size: 150px; color: red; vertical-align: top; padding-right: 50px;">
                    ✋
                </div>
<div style="display: table-cell; vertical-align: top;">
<h1 style="margin-top: 0;">We're sorry, you are not allowed to proceed</h1>
<p>Your request looks suspiciously similar to automated requests from spam posting software or it has been denied by a security policy configured by the website administrator.</p>
<p>If you believe you should be able to perform this request, please let us know.</p>
<p style="margin-top: 2em;">
</p><pre style="color: #777">RID: GOZM1IQLAM9C2W3KJFNXJNEU</pre>
</div>
</div>
</div>
</div>
</body>
</html>
