<!DOCTYPE HTML PUBLIC "-//W3C//DTD HTML 4.01 Transitional//EN" "http://www.w3.org/TR/html4/loose.dtd">
<html>
<head>
<meta content="text/html; charset=utf-8" http-equiv="Content-Type"/>
<meta content="Ø´Ø§Øª ÙØ¬ÙÙ Ø§ÙØ¹Ø±Ø¨,Ø¯Ø±Ø¯Ø´Ø© ÙØ¬ÙÙ Ø§ÙØ¹Ø±Ø¨,ÙØ¬ÙÙ Ø§ÙØ¹Ø±Ø¨,Ø´Ø§Øª ÙØ¬ÙÙ,Ø´Ø§Øª ÙØ¬ÙÙ Ø§ÙØ¹Ø±Ø¨,Ø¯Ø±Ø¯Ø´Ø© ÙØ¬ÙÙ Ø§ÙØ¹Ø±Ø¨,ÙØ¬ÙÙ Ø§ÙØ¹Ø±Ø¨,Ø´Ø§Øª ÙØ¬ÙÙ" name="keywords"/>
<meta content="Ø´Ø§Øª ÙØ¬ÙÙ Ø§ÙØ¹Ø±Ø¨,Ø¯Ø±Ø¯Ø´Ø© ÙØ¬ÙÙ Ø§ÙØ¹Ø±Ø¨,ÙØ¬ÙÙ Ø§ÙØ¹Ø±Ø¨,Ø´Ø§Øª ÙØ¬ÙÙ,Ø´Ø§Øª ÙØ¬ÙÙ Ø§ÙØ¹Ø±Ø¨,Ø¯Ø±Ø¯Ø´Ø© ÙØ¬ÙÙ Ø§ÙØ¹Ø±Ø¨,ÙØ¬ÙÙ Ø§ÙØ¹Ø±Ø¨,Ø´Ø§Øª ÙØ¬ÙÙ" name="description"/>
<link href="http://www.arabjostars.net/fonts.css" rel="stylesheet" type="text/css"/>
<link href="http://www.arabjostars.net/style.css" rel="stylesheet" type="text/css"/>
<link href="http://www.arabjostars.net/slider/default.css" media="screen" rel="stylesheet" type="text/css"/>
<link href="http://www.arabjostars.net/slider.css" media="screen" rel="stylesheet" type="text/css"/>
<title>Ø´Ø§Øª ÙØ¬ÙÙ Ø§ÙØ¹Ø±Ø¨,Ø¯Ø±Ø¯Ø´Ø© ÙØ¬ÙÙ Ø§ÙØ¹Ø±Ø¨,ÙØ¬ÙÙ Ø§ÙØ¹Ø±Ø¨,Ø´Ø§Øª ÙØ¬ÙÙ</title>
</head>
<body>
<div id="header">
<div class="logo">
<a href="http://www.arabjostars.net" title="Ø¹Ø±Ø¨ Ø´Ø§Øª"></a></div>
<div class="topbanner">
<script async="" src="//pagead2.googlesyndication.com/pagead/js/adsbygoogle.js"></script>
<ins class="adsbygoogle" data-ad-client="ca-pub-2467393832978994" data-ad-slot="9906996867" style="display:inline-block;width:728px;height:90px">
</ins>
<script>
(adsbygoogle = window.adsbygoogle || []).push({});
</script>
</div>
<div class="menu">
<ul>
<li><a href="http://www.arabjostars.net/chat.html" target="_blank">Ø¯Ø®ÙÙ
Ø§ÙØ¯Ø±Ø¯Ø´Ø©</a></li>
<li>
<a href="http://www.arabjostars.net/radio-arabs/" target="_blank">ØªØ´ØºÙÙ
Ø§ÙØ±Ø§Ø¯ÙÙ</a></li>
<li><a href="http://www.arabjostars.net/ads.html" target="_blank">Ø§ÙØ£Ø´ØªØ±Ø§Ù
ÙØ¯ÙÙØ§</a></li>
<li><a href="http://www.arabjostars.net/help.html" target="_blank">ÙÙØ§ÙÙÙ
Ø§ÙØ¯Ø±Ø¯Ø´Ø© </a></li>
<li>
<a href="http://www.arabjostars.net/privacy-policy.html" target="_blank">
Ø§ÙØ®ØµÙØµÙØ© </a></li>
</ul>
</div>
</div>
<div id="content">
<div class="part1">
<div class="contentbanner">
<script async="" src="//pagead2.googlesyndication.com/pagead/js/adsbygoogle.js"></script>
<ins class="adsbygoogle" data-ad-client="ca-pub-2467393832978994" data-ad-slot="4080789268" style="display:inline-block;width:336px;height:280px">
</ins>
<script>
(adsbygoogle = window.adsbygoogle || []).push({});
</script>
</div>
<div class="slider">
<div class="slider-wrapper theme-default">
<div class="nivoSlider" id="slider">
<img alt="" data-thumb="images/banner1.jpg" src="images/banner1.jpg"/>
<img alt="" data-thumb="images/banner2.jpg" src="images/banner2.jpg"/>
</div>
</div>
</div>
</div>
<div class="part2">
<div class="boxes">
<ul>
<li class="box1"><a href="http://www.arabjostars.net">Ø¯Ø±Ø¯Ø´Ù ÙØ¬ÙÙ
Ø§ÙØ¹Ø±Ø¨</a> ÙØ§Ø¨Ù Ø§ÙØ§Ù Ø§ÙÙØ²ÙØ¯ ÙÙ Ø§ÙØ§Ø´Ø®Ø§Øµ ÙØªØ¹Ø±Ù Ø¹ÙÙ Ø§ØµØ¯ÙØ§Ø¡ Ø¬Ø¯Ø¯ Ø¹Ø¨Ø± Ø®Ø¯ÙÙ
Ø§ÙØ¯Ø±Ø¯Ø´Ù Ø§ÙÙØªØ§Ø¨ÙÙ ÙØ§ÙÙÙÙØ±Ø§ Ø´Ø§ÙØ¯ Ø§Ø­Ø¨Ø§Ø¨Ù ÙØ§ØµØ¯ÙØ§Ø¦Ù ÙØªÙÙÙ ÙÙÙ Ø§Ø¬ÙÙ Ø§ÙØ§ÙÙØ§Øª</li>
<li class="box2">Ø§Ø°Ø§Ø¹Ø© ÙØ¬ÙÙ Ø§ÙØ¹Ø±Ø¨ Ø¨Ø« Ø­Ù ÙÙØ¨Ø§Ø´Ø± ÙÙØ§Ø¦Ø§Øª ÙØ¹ Ø²ÙØ§Ø±ÙØ§
Ø§ÙÙØ±Ø§Ù ÙÙØ§Ø´Ø§Øª Ø­ÙÙ ÙØ§Ø¬ÙÙ Ø§ÙØ¨Ø±Ø§ÙØ¬ Ø§Ø³ØªÙØ¹ Ø§ÙÙÙØ§ Ø§ÙØ§Ù ÙØ§Ø±Ø³Ù Ø§ÙØ¯Ø§Ø¦Ø§ØªÙ
ÙÙÙ ØªØ­Ø¨</li>
<li class="box3">ÙÙ ØªØ¹ÙÙ Ø§ÙÙ Ø¨Ø§ÙÙØ§ÙÙ Ø§ÙØªØ­Ø« ÙØ¹ ÙÙ ØªØ±ÙØ¯ Ø¹Ø¨Ø± Ø§ÙÙØ§ÙÙ
ÙÙØ´Ø§ÙØ¯ØªÙ Ø¹Ø¨Ø± Ø§ÙÙØ§ÙÙØ±Ø§ ÙÙ Ø§ÙØ¯Ø±Ø¯Ø´Ù Ø¨Ø§Ø¯Ø§Ø¡ Ø³Ø±ÙØ¹ ÙØµÙØ±Ù ØªØªÙÙØ² Ø¨Ø§ÙØ¬ÙØ¯Ù
Ø§ÙØ¹Ø§ÙÙÙ</li>
<li class="box4">Ø§ÙØ¯Ø±Ø¯Ø´Ù ÙØ±Ø§ÙØ¨Ù ÙÙ ÙØ¨Ù Ø§ÙÙØ´Ø±ÙÙÙ ÙØªØ£ÙØ¯ ØªÙØ§ÙØ§Ù Ø§Ù
Ø§ÙÙØ´Ø±Ù ÙÙØ¬ÙØ¯ ÙØ®Ø¯ÙØªÙ ÙÙØªÙØ¯ÙÙ Ø§ÙØ´ÙØ§ÙÙ ÙØ§ ØªØªØ±Ø¯Ø¯ Ø¨Ø§Ø¨ÙØ§Øº Ø§ÙÙØ´Ø±Ù Ø¹Ù Ø§Ù
Ø´ÙÙÙ ÙØ§Ø¶Ø­Ù ÙØ³ÙÙÙÙ ÙÙ Ø®Ø¯ÙØªÙ</li>
</ul>
</div>
<div class="homeword">
<b><font size="2">Ø®Ø¯ÙØ© Ø§ÙØ¯Ø±Ø¯Ø´Ø© Ø§ÙÙÙØ¯ÙØ© ÙÙ ÙØ¨Ù Ø¯Ø±Ø¯Ø´Ø© ÙØ´Ø§Øª ÙØ¬ÙÙ Ø§ÙØ¹Ø±Ø¨
ÙØ±Ø§ÙØ¨Ø© Ø¹ÙÙ ÙØ¯Ø§Ø± Ø§ÙØ³Ø§Ø¹Ø© (24/7) ÙÙ ÙØ¨Ù ÙØ±ÙÙ ÙÙ Ø§ÙÙØªØ·ÙØ¹ÙÙ Ø Ø§Ø®ØªØ± ØºØ±ÙØ© Ø§ÙØ´Ø§Øª
Ø§ÙØªÙ ØªØ±ÙØ¯ Ø¯Ø®ÙÙÙØ§Ø Ø£Ù ØªÙØ¬Ù ÙØµÙØ­Ø© Ø§ÙØºØ±Ù ÙØ§Ø®ØªÙØ§Ø±Ø§Øª Ø£ÙØ³Ø¹Ø ÙÙÙÙ Ø®Ø§Ø¯Ù Ø§ÙØ¯Ø±Ø¯Ø´Ø©
Ø¨ÙÙØªØ±Ø© (Ø¥Ø®ÙØ§Ø¡) Ø§ÙÙØ­ØªÙÙ Ø§ÙØºÙØ± ÙØ±ØºÙØ¨ ÙÙÙ (Ø§ÙÙØ®Ø§ÙÙ ÙÙØ¢Ø¯Ø§Ø¨ Ø§ÙØ¹Ø§ÙØ©) Ø¨Ø´ÙÙ
Ø£ÙØªÙÙØ§ØªÙÙÙØ ÙÙØ§ Ø³ÙÙÙÙ Ø§ÙÙØ±Ø§ÙØ¨ÙÙ Ø£Ù Ø®Ø§Ø¯Ù Ø§ÙØ¯Ø±Ø¯Ø´Ø© Ø¨ÙØªÙÙ (ÙÙØ¹Ù ÙÙ Ø§ÙÙØªØ§Ø¨Ø©)
ÙÙ Ø­Ø§ÙØ© ÙØ¶Ø§ÙÙØªÙ ÙÙØ¢Ø®Ø±ÙÙØ ÙØ±Ø¬Ù Ø§ÙØ§Ø·ÙØ§Ø¹ Ø¹ÙÙ ÙÙØ§ÙÙÙ Ø§ÙÙÙÙØ¹ ÙØ³ÙØ§Ø³Ø© Ø§ÙØ®ØµÙØµÙØ©
ÙØ¨Ù Ø§ÙØ¯Ø®ÙÙ ÙØºØ±Ù Ø§ÙØ¯Ø±Ø¯Ø´Ø©Ø Ø®Ø¯ÙØ© Ø§ÙØ¯Ø±Ø¯Ø´Ø© ÙØ¬Ø§ÙÙØ© Ø¨Ø§ÙÙØ§ÙÙØ ÙÙØ§ ÙÙÙÙÙ Ø¥Ø¶Ø§ÙØ©
Ø¨Ø¹Ø¶ Ø§ÙØ®ØµØ§Ø¦Øµ Ø§ÙØ¥Ø¶Ø§ÙÙØ© ÙØ¹Ø¶ÙÙØªÙ ÙÙ Ø®ÙØ§Ù Ø§ÙØ±ØµÙØ¯ Ø§ÙØ§ÙØªØ±Ø§Ø¶Ù Ø¨Ø¯Ø§Ø®Ù ØºØ±Ù Ø§ÙØ¯Ø±Ø¯Ø´Ø©Ø
Ø¥Ø°Ø§ Ø§Ø­ØªØ¬Øª ÙÙØ³Ø§Ø¹Ø¯Ø© ÙØ§ ØªØªØ±Ø¯Ø¯ ÙÙ ÙØ±Ø§Ø³ÙØªÙØ§.</font></b></div>
</div>
<div class="part3">
<div class="footerbanner">
<script async="" src="//pagead2.googlesyndication.com/pagead/js/adsbygoogle.js"></script>
<ins class="adsbygoogle" data-ad-client="ca-pub-2467393832978994" data-ad-slot="9429318864" style="display:inline-block;width:728px;height:90px">
</ins>
<script>
(adsbygoogle = window.adsbygoogle || []).push({});
</script>
</div>
<div class="smallbanner">
<img alt="banermers" src="http://www.arabjostars.net/images/mersal-banner1.jpg"/></div>
</div>
</div>
<div id="footer">
<div class="footer">
<div class="footer-cats">
 </div>
<div class="footer-services">
<h2>ÙÙ ÙÙØ§ÙØ¹ÙØ§</h2>
<ul>
<li><a href="http://www.egypt-chating.com/">Ø´Ø§Øª ÙØµØ±Ù</a></li>
<li><a href="http://www.jostars.info/">Ø´Ø§Øª Ø§ÙØ§Ø±Ø¯Ù</a></li>
<li><a href="http://www.arabjostars.net/">Ø´Ø§Øª ÙØ¬ÙÙ Ø§ÙØ¹Ø±Ø¨</a></li>
<li><a href="http://www.arabjostars.com/">Ø¹Ø±Ø¨ Ø´Ø§Øª</a></li>
</ul>
</div>
</div>
<div class="copyrights">
Ø¬ÙÙØ¹ Ø§ÙØ­ÙÙÙ ÙØ­ÙÙØ¸Ø© ÙØ¹Ø±Ø¨ Ø´Ø§Øª 2016</div>
</div>
<script src="js/jquery-1.9.0.min.js" type="text/javascript"></script>
<script src="js/jquery.nivo.slider.js" type="text/javascript"></script>
<script type="text/javascript">

$(window).load(function() {

    $('#slider').nivoSlider({

        controlNav: false

    });

});

</script>
<script type="text/javascript">// <![CDATA[  
                             
  redirectTime = "0";
 redirectURL = "http://www.arabjostars.com/mobile/";
     var mobile = (/iphone|ipad|ipod|android|blackberry|mini|windows\sce|palm/i.test(navigator.userAgent.toLowerCase()));  
     if (mobile) {  
  setTimeout("location.href = redirectURL;",redirectTime);
     } else{
  
     document.write('   ');
     }
 // ]]></script>
</body>
</html>
