<!DOCTYPE HTML PUBLIC "-//W3C//DTD HTML 3.2 Final//EN">
<html>
<head>
<title>Index of /</title>
</head>
<body>
<h1>Index of /</h1>
<table>
<tr><th valign="top"> </th><th><a href="?C=N;O=D">Name</a></th><th><a href="?C=M;O=A">Last modified</a></th><th><a href="?C=S;O=A">Size</a></th><th><a href="?C=D;O=A">Description</a></th></tr>
<tr><th colspan="5"><hr/></th></tr>
<tr><td valign="top"> </td><td><a href="advocare/">advocare/</a> </td><td align="right">2020-09-17 21:21  </td><td align="right">  - </td><td> </td></tr>
<tr><td valign="top"> </td><td><a href="akhomebuilders/">akhomebuilders/</a> </td><td align="right">2020-09-17 21:21  </td><td align="right">  - </td><td> </td></tr>
<tr><td valign="top"> </td><td><a href="amberdarnell/">amberdarnell/</a> </td><td align="right">2020-09-17 21:21  </td><td align="right">  - </td><td> </td></tr>
<tr><td valign="top"> </td><td><a href="architecturaldesignclanton/">architecturaldesignc..&gt;</a></td><td align="right">2020-09-17 21:21  </td><td align="right">  - </td><td> </td></tr>
<tr><td valign="top"> </td><td><a href="beeinspired/">beeinspired/</a> </td><td align="right">2020-09-11 21:21  </td><td align="right">  - </td><td> </td></tr>
<tr><td valign="top"> </td><td><a href="cgi-bin/">cgi-bin/</a> </td><td align="right">2020-09-12 20:53  </td><td align="right">  - </td><td> </td></tr>
<tr><td valign="top"> </td><td><a href="chiltoncountypt/">chiltoncountypt/</a> </td><td align="right">2020-09-17 21:21  </td><td align="right">  - </td><td> </td></tr>
<tr><td valign="top"> </td><td><a href="clantoncountryclub/">clantoncountryclub/</a> </td><td align="right">2020-09-17 21:21  </td><td align="right">  - </td><td> </td></tr>
<tr><td valign="top"> </td><td><a href="dovecreek/">dovecreek/</a> </td><td align="right">2020-09-11 21:21  </td><td align="right">  - </td><td> </td></tr>
<tr><td valign="top"> </td><td><a href="downbytheseaboutique/">downbytheseaboutique/</a> </td><td align="right">2020-09-17 21:21  </td><td align="right">  - </td><td> </td></tr>
<tr><td valign="top"> </td><td><a href="house4sale/">house4sale/</a> </td><td align="right">2020-09-11 21:21  </td><td align="right">  - </td><td> </td></tr>
<tr><td valign="top"> </td><td><a href="lizhuntley/">lizhuntley/</a> </td><td align="right">2019-08-21 21:29  </td><td align="right">  - </td><td> </td></tr>
<tr><td valign="top"> </td><td><a href="markswindowtint/">markswindowtint/</a> </td><td align="right">2020-09-17 21:21  </td><td align="right">  - </td><td> </td></tr>
<tr><td valign="top"> </td><td><a href="mullinsdecorating/">mullinsdecorating/</a> </td><td align="right">2020-09-17 21:21  </td><td align="right">  - </td><td> </td></tr>
<tr><td valign="top"> </td><td><a href="mullinsdecoratingcenter/">mullinsdecoratingcen..&gt;</a></td><td align="right">2020-09-17 21:21  </td><td align="right">  - </td><td> </td></tr>
<tr><td valign="top"> </td><td><a href="sandrasnursery/">sandrasnursery/</a> </td><td align="right">2020-09-17 21:21  </td><td align="right">  - </td><td> </td></tr>
<tr><td valign="top"> </td><td><a href="shopclassytouch/">shopclassytouch/</a> </td><td align="right">2020-11-29 18:06  </td><td align="right">  - </td><td> </td></tr>
<tr><td valign="top"> </td><td><a href="thepeachtrader/">thepeachtrader/</a> </td><td align="right">2020-09-17 21:21  </td><td align="right">  - </td><td> </td></tr>
<tr><td valign="top"> </td><td><a href="tmicreations/">tmicreations/</a> </td><td align="right">2020-09-11 21:21  </td><td align="right">  - </td><td> </td></tr>
<tr><td valign="top"> </td><td><a href="truvision/">truvision/</a> </td><td align="right">2020-09-17 21:21  </td><td align="right">  - </td><td> </td></tr>
<tr><td valign="top"> </td><td><a href="vanthof/">vanthof/</a> </td><td align="right">2020-09-17 21:21  </td><td align="right">  - </td><td> </td></tr>
<tr><td valign="top"> </td><td><a href="vanthofcustomhomes/">vanthofcustomhomes/</a> </td><td align="right">2020-09-11 21:21  </td><td align="right">  - </td><td> </td></tr>
<tr><th colspan="5"><hr/></th></tr>
</table>
</body></html>
