<!DOCTYPE html>
<html lang="es">
<head>
<meta charset="utf-8"/>
<meta content="width=device-width, initial-scale=1" name="viewport"/>
<link href="http://gmpg.org/xfn/11" rel="profile"/>
<script>
        (function (exports, d) {
            var _isReady = false,
                _event,
                _fns = [];

            function onReady(event) {
                d.removeEventListener("DOMContentLoaded", onReady);
                _isReady = true;
                _event = event;
                _fns.forEach(function (_fn) {
                    var fn = _fn[0],
                        context = _fn[1];
                    fn.call(context || exports, window.jQuery);
                });
            }

            function onReadyIe(event) {
                if (d.readyState === "complete") {
                    d.detachEvent("onreadystatechange", onReadyIe);
                    _isReady = true;
                    _event = event;
                    _fns.forEach(function (_fn) {
                        var fn = _fn[0],
                            context = _fn[1];
                        fn.call(context || exports, event);
                    });
                }
            }

            d.addEventListener && d.addEventListener("DOMContentLoaded", onReady) ||
            d.attachEvent && d.attachEvent("onreadystatechange", onReadyIe);

            function domReady(fn, context) {
                if (_isReady) {
                    fn.call(context, _event);
                }

                _fns.push([fn, context]);
            }

            exports.mesmerizeDomReady = domReady;
        })(window, document);
    </script>
<title>No se encontró la página – TRIMEDIA</title>
<style type="text/css">            .tweeter-info .fts-twitter-text, .fts-twitter-reply-wrap:before, a span.fts-video-loading-notice {
                color: #009 !important;
            }

            
        </style>
<!-- Add Messenger - wp-chatbot - HoliThemes - https://www.holithemes.com/wp-chatbot -->
<script>
            window.fbAsyncInit = function() {
            FB.init({
                appId            : '',
                autoLogAppEvents : false,
                xfbml            : true,
                version          : 'v3.2'
            });
            };

            (function(d, s, id){
                var js, fjs = d.getElementsByTagName(s)[0];
                if (d.getElementById(id)) {return;}
                js = d.createElement(s); js.id = id;
                js.src = '//connect.facebook.net/English/sdk/xfbml.customerchat.js';
                fjs.parentNode.insertBefore(js, fjs);
            }(document, 'script', 'facebook-jssdk'));
        </script>
<!-- / Add Messenger - wp-chatbot - HoliThemes -->
<link href="//cdn.jsdelivr.net" rel="dns-prefetch"/>
<link href="//maxcdn.bootstrapcdn.com" rel="dns-prefetch"/>
<link href="//fonts.googleapis.com" rel="dns-prefetch"/>
<link href="//s.w.org" rel="dns-prefetch"/>
<link href="https://trimediaperu.com/feed/" rel="alternate" title="TRIMEDIA » Feed" type="application/rss+xml"/>
<link href="https://trimediaperu.com/comments/feed/" rel="alternate" title="TRIMEDIA » RSS de los comentarios" type="application/rss+xml"/>
<script type="text/javascript">
			window._wpemojiSettings = {"baseUrl":"https:\/\/s.w.org\/images\/core\/emoji\/12.0.0-1\/72x72\/","ext":".png","svgUrl":"https:\/\/s.w.org\/images\/core\/emoji\/12.0.0-1\/svg\/","svgExt":".svg","source":{"concatemoji":"https:\/\/trimediaperu.com\/wp-includes\/js\/wp-emoji-release.min.js?ver=5.2.9"}};
			!function(a,b,c){function d(a,b){var c=String.fromCharCode;l.clearRect(0,0,k.width,k.height),l.fillText(c.apply(this,a),0,0);var d=k.toDataURL();l.clearRect(0,0,k.width,k.height),l.fillText(c.apply(this,b),0,0);var e=k.toDataURL();return d===e}function e(a){var b;if(!l||!l.fillText)return!1;switch(l.textBaseline="top",l.font="600 32px Arial",a){case"flag":return!(b=d([55356,56826,55356,56819],[55356,56826,8203,55356,56819]))&&(b=d([55356,57332,56128,56423,56128,56418,56128,56421,56128,56430,56128,56423,56128,56447],[55356,57332,8203,56128,56423,8203,56128,56418,8203,56128,56421,8203,56128,56430,8203,56128,56423,8203,56128,56447]),!b);case"emoji":return b=d([55357,56424,55356,57342,8205,55358,56605,8205,55357,56424,55356,57340],[55357,56424,55356,57342,8203,55358,56605,8203,55357,56424,55356,57340]),!b}return!1}function f(a){var c=b.createElement("script");c.src=a,c.defer=c.type="text/javascript",b.getElementsByTagName("head")[0].appendChild(c)}var g,h,i,j,k=b.createElement("canvas"),l=k.getContext&&k.getContext("2d");for(j=Array("flag","emoji"),c.supports={everything:!0,everythingExceptFlag:!0},i=0;i<j.length;i++)c.supports[j[i]]=e(j[i]),c.supports.everything=c.supports.everything&&c.supports[j[i]],"flag"!==j[i]&&(c.supports.everythingExceptFlag=c.supports.everythingExceptFlag&&c.supports[j[i]]);c.supports.everythingExceptFlag=c.supports.everythingExceptFlag&&!c.supports.flag,c.DOMReady=!1,c.readyCallback=function(){c.DOMReady=!0},c.supports.everything||(h=function(){c.readyCallback()},b.addEventListener?(b.addEventListener("DOMContentLoaded",h,!1),a.addEventListener("load",h,!1)):(a.attachEvent("onload",h),b.attachEvent("onreadystatechange",function(){"complete"===b.readyState&&c.readyCallback()})),g=c.source||{},g.concatemoji?f(g.concatemoji):g.wpemoji&&g.twemoji&&(f(g.twemoji),f(g.wpemoji)))}(window,document,window._wpemojiSettings);
		</script>
<style type="text/css">
img.wp-smiley,
img.emoji {
	display: inline !important;
	border: none !important;
	box-shadow: none !important;
	height: 1em !important;
	width: 1em !important;
	margin: 0 .07em !important;
	vertical-align: -0.1em !important;
	background: none !important;
	padding: 0 !important;
}
</style>
<link href="https://trimediaperu.com/wp-includes/css/dist/block-library/style.min.css?ver=5.2.9" id="wp-block-library-css" media="all" rel="stylesheet" type="text/css"/>
<link href="https://trimediaperu.com/wp-content/plugins/contact-form-7/includes/css/styles.css?ver=5.1.1" id="contact-form-7-css" media="all" rel="stylesheet" type="text/css"/>
<link href="https://trimediaperu.com/wp-content/plugins/counter-number-showcase/assets/css/font-awesome/css/font-awesome.min.css?ver=5.2.9" id="wpsm_counter-font-awesome-front-css" media="all" rel="stylesheet" type="text/css"/>
<link href="https://trimediaperu.com/wp-content/plugins/counter-number-showcase/assets/css/bootstrap-front.css?ver=5.2.9" id="wpsm_counter_bootstrap-front-css" media="all" rel="stylesheet" type="text/css"/>
<link href="https://trimediaperu.com/wp-content/plugins/counter-number-showcase/assets/css/counter-column.css?ver=5.2.9" id="wpsm_counter_column-css" media="all" rel="stylesheet" type="text/css"/>
<link href="https://trimediaperu.com/wp-content/plugins/creame-whatsapp-me/public/css/whatsappme.min.css?ver=2.2.3" id="whatsappme-css" media="all" rel="stylesheet" type="text/css"/>
<link href="https://trimediaperu.com/wp-content/plugins/feed-them-social/feeds/css/styles.css?ver=2.6.8" id="fts-feeds-css" media="" rel="stylesheet" type="text/css"/>
<link href="https://trimediaperu.com/wp-content/plugins/instagram-feed/css/sb-instagram.min.css?ver=1.12" id="sb_instagram_styles-css" media="all" rel="stylesheet" type="text/css"/>
<link href="https://maxcdn.bootstrapcdn.com/font-awesome/4.7.0/css/font-awesome.min.css" id="sb-font-awesome-css" media="all" rel="stylesheet" type="text/css"/>
<link href="https://trimediaperu.com/wp-content/plugins/pj-news-ticker/public/css/pj-news-ticker.css?ver=1.5.3" id="pj-news-ticker-css" media="all" rel="stylesheet" type="text/css"/>
<link href="https://trimediaperu.com/wp-includes/css/dashicons.min.css?ver=5.2.9" id="dashicons-css" media="all" rel="stylesheet" type="text/css"/>
<link href="https://trimediaperu.com/wp-content/plugins/post-views-counter/css/frontend.css?ver=1.2.14" id="post-views-counter-frontend-css" media="all" rel="stylesheet" type="text/css"/>
<link href="https://trimediaperu.com/wp-content/themes/mesmerize/style.min.css?ver=5.2.9" id="mesmerize-parent-css" media="all" rel="stylesheet" type="text/css"/>
<link href="https://trimediaperu.com/wp-content/themes/highlight/style.min.css?ver=1.0.15" id="mesmerize-style-css" media="all" rel="stylesheet" type="text/css"/>
<style id="mesmerize-style-inline-css" type="text/css">
img.logo.dark, img.custom-logo{width:auto;max-height:30px !important;}
/** cached kirki style */@media screen and (min-width: 768px){.header{background-position:center center;}}.header-homepage:not(.header-slide).color-overlay:after{filter:invert(5%) ;}.header-homepage-arrow{font-size:calc( 50px * 0.84 );bottom:25px;background:rgba(255,255,255,0);}.header-homepage-arrow > i.fa{width:50px;height:50px;}.header-homepage-arrow > i{color:#ffffff;}.mesmerize-front-page .header-separator .svg-white-bg{fill:#ffffff!important;}.mesmerize-front-page .header-separator path.svg-accent{stroke:rgb(255,0,0)!important;}.mesmerize-front-page .header-separator svg{height:62px!important;}.header.color-overlay:before{background:#000000;}.header .background-overlay,.header.color-overlay::before{opacity:0.6;}.header.color-overlay:after{filter:invert(0%) ;}.header-homepage .header-description-row{padding-top:5%;padding-bottom:5%;}.inner-header-description{padding-top:1%;padding-bottom:1%;}@media screen and (max-width:767px){.header-homepage .header-description-row{padding-top:5%;padding-bottom:5%;}}@media only screen and (min-width: 768px){.header-content .align-holder{width:85%!important;}.inner-header-description{text-align:center!important;}}
</style>
<link href="https://trimediaperu.com/wp-content/themes/mesmerize/assets/css/theme.bundle.min.css?ver=1.0.15" id="mesmerize-style-bundle-css" media="all" rel="stylesheet" type="text/css"/>
<link data-href="https://fonts.googleapis.com/css?family=Open+Sans%3A300%2C400%2C600%2C700%7CMuli%3A300%2C300italic%2C400%2C400italic%2C600%2C600italic%2C700%2C700italic%2C900%2C900italic%7CPlayfair+Display%3A400%2C400italic%2C700%2C700italic&amp;subset=latin%2Clatin-ext" id="mesmerize-fonts-css" media="all" rel="stylesheet" type="text/css"/>
<script src="https://trimediaperu.com/wp-includes/js/jquery/jquery.js?ver=1.12.4-wp" type="text/javascript"></script>
<script type="text/javascript">
    
        (function () {
            function setHeaderTopSpacing() {

                setTimeout(function() {
                  var headerTop = document.querySelector('.header-top');
                  var headers = document.querySelectorAll('.header-wrapper .header,.header-wrapper .header-homepage');

                  for (var i = 0; i < headers.length; i++) {
                      var item = headers[i];
                      item.style.paddingTop = headerTop.getBoundingClientRect().height + "px";
                  }

                    var languageSwitcher = document.querySelector('.mesmerize-language-switcher');

                    if(languageSwitcher){
                        languageSwitcher.style.top = "calc( " +  headerTop.getBoundingClientRect().height + "px + 1rem)" ;
                    }
                    
                }, 100);

             
            }

            window.addEventListener('resize', setHeaderTopSpacing);
            window.mesmerizeSetHeaderTopSpacing = setHeaderTopSpacing
            mesmerizeDomReady(setHeaderTopSpacing);
        })();
    
    
</script>
<script src="https://trimediaperu.com/wp-includes/js/jquery/jquery-migrate.min.js?ver=1.4.1" type="text/javascript"></script>
<script type="text/javascript">
/* <![CDATA[ */
var ftsAjax = {"ajaxurl":"https:\/\/trimediaperu.com\/wp-admin\/admin-ajax.php"};
var ftsAjax = {"ajaxurl":"https:\/\/trimediaperu.com\/wp-admin\/admin-ajax.php"};
/* ]]> */
</script>
<script src="https://trimediaperu.com/wp-content/plugins/feed-them-social/admin/js/developer-admin.js?ver=2.6.8" type="text/javascript"></script>
<script src="https://trimediaperu.com/wp-content/plugins/feed-them-social/feeds/js/powered-by.js?ver=2.6.8" type="text/javascript"></script>
<script src="https://trimediaperu.com/wp-content/plugins/feed-them-social/feeds/js/fts-global.js?ver=2.6.8" type="text/javascript"></script>
<script src="https://trimediaperu.com/wp-content/plugins/pj-news-ticker/public/js/pj-news-ticker.js?ver=1.5.3" type="text/javascript"></script>
<link href="https://trimediaperu.com/wp-json/" rel="https://api.w.org/"/>
<link href="https://trimediaperu.com/xmlrpc.php?rsd" rel="EditURI" title="RSD" type="application/rsd+xml"/>
<link href="https://trimediaperu.com/wp-includes/wlwmanifest.xml" rel="wlwmanifest" type="application/wlwmanifest+xml"/>
<meta content="WordPress 5.2.9" name="generator"/>
<link href="https://trimediaperu.com/wp-content/plugins/count-per-day/counter.css" rel="stylesheet" type="text/css"/>
<script data-name="async-styles" type="text/javascript">
        (function () {
            var links = document.querySelectorAll('link[data-href]');
            for (var i = 0; i < links.length; i++) {
                var item = links[i];
                item.href = item.getAttribute('data-href')
            }
        })();
    </script>
<style type="text/css">.recentcomments a{display:inline !important;padding:0 !important;margin:0 !important;}</style>
<style id="custom-background-css" type="text/css">
body.custom-background { background-color: #ffffff; }
</style>
<link href="https://trimediaperu.com/wp-content/uploads/2019/04/cropped-kisspng-sphere-circle-magenta-maroon-restart-5ac53b981d61f0.5336502115228752881204-1-32x32.jpg" rel="icon" sizes="32x32"/>
<link href="https://trimediaperu.com/wp-content/uploads/2019/04/cropped-kisspng-sphere-circle-magenta-maroon-restart-5ac53b981d61f0.5336502115228752881204-1-192x192.jpg" rel="icon" sizes="192x192"/>
<link href="https://trimediaperu.com/wp-content/uploads/2019/04/cropped-kisspng-sphere-circle-magenta-maroon-restart-5ac53b981d61f0.5336502115228752881204-1-180x180.jpg" rel="apple-touch-icon-precomposed"/>
<meta content="https://trimediaperu.com/wp-content/uploads/2019/04/cropped-kisspng-sphere-circle-magenta-maroon-restart-5ac53b981d61f0.5336502115228752881204-1-270x270.jpg" name="msapplication-TileImage"/>
<style id="wp-custom-css" type="text/css">
			[class*="overlappable-"] {
    background-color: #f5fafd!important;
}
.footer-contact-boxes .footer-bg-accent{
    padding-left: 1rem;
    padding-right: 1rem;
    background-color: #03A9F4;
}
		</style>
<style data-name="header-shapes">
            .header.color-overlay:after {background:url(https://trimediaperu.com/wp-content/themes/mesmerize/assets/images/header-shapes/circles.png) center center/ cover no-repeat}        </style>
<style data-name="background-content-colors">
        .mesmerize-inner-page .page-content,
        .mesmerize-inner-page .content,
        .mesmerize-front-page.mesmerize-content-padding .page-content {
            background-color: #ffffff;
        }
    </style>
</head>
<body class="error404 custom-background wp-custom-logo mesmerize-inner-page">
<div class="header-top" id="page-top">
<div class="header-top-bar no-padding">
<div class="gridContainer">
<div class="header-top-bar-inner row middle-xs start-xs ">
<div class="header-top-bar-area col-xs area-left">
<div class="top-bar-field" data-dynamic-mod="true" data-type="group">
<i class="fa fa-map-marker"></i>
<span>Lima, Perú</span>
</div>
<div class="top-bar-field" data-dynamic-mod="true" data-type="group">
<i class="fa fa-envelope"></i>
<span>info@trimediaperu.com</span>
</div>
</div>
<div class="header-top-bar-area col-xs-fit area-right">
<div class="top-bar-social-icons" data-dynamic-mod="true" data-type="group">
<a class="social-icon" href="https://www.facebook.com/trimediatvoficial/" target="_blank">
<i class="fa fa-facebook-official"></i>
</a>
<a class="social-icon" href="https://twitter.com/luis_vidalserna" target="_blank">
<i class="fa fa-twitter-square"></i>
</a>
<a class="social-icon" href="https://www.instagram.com/luisvidal_tv/" target="_blank">
<i class="fa fa-instagram"></i>
</a>
<a class="social-icon" href="https://www.linkedin.com/in/luisvidalserna/?lipi=urn%3Ali%3Apage%3Ad_flagship3_feed%3Bjp6DJaqTQvSMxMgO2uktOw%3D%3D&amp;licu=urn%3Ali%3Acontrol%3Ad_flagship3_feed-identity_welcome_message" target="_blank">
<i class="fa fa-linkedin-square"></i>
</a>
</div>
</div>
</div>
</div>
</div>
<div class="navigation-bar logo-above-menu boxed" data-sticky="0" data-sticky-mobile="1" data-sticky-to="top">
<div class="navigation-wrapper gridContainer">
<div class="row basis-auto between-xs">
<div class="logo_col col-xs col-sm-12 center-sm">
<a class="logo-link dark" href="https://trimediaperu.com/" itemprop="url" rel="home"><img alt="" class="logo dark" height="100" itemprop="logo" sizes="(max-width: 606px) 100vw, 606px" src="https://trimediaperu.com/wp-content/uploads/2019/05/trimedia-logo-letras-negras-small.png" srcset="https://trimediaperu.com/wp-content/uploads/2019/05/trimedia-logo-letras-negras-small.png 606w, https://trimediaperu.com/wp-content/uploads/2019/05/trimedia-logo-letras-negras-small-300x50.png 300w" width="606"/></a><a class="custom-logo-link" href="https://trimediaperu.com/" rel="home"><img alt="TRIMEDIA" class="custom-logo" height="120" sizes="(max-width: 875px) 100vw, 875px" src="https://trimediaperu.com/wp-content/uploads/2019/05/trimedia-logo-NEW.png" srcset="https://trimediaperu.com/wp-content/uploads/2019/05/trimedia-logo-NEW.png 875w, https://trimediaperu.com/wp-content/uploads/2019/05/trimedia-logo-NEW-300x41.png 300w, https://trimediaperu.com/wp-content/uploads/2019/05/trimedia-logo-NEW-768x105.png 768w" width="875"/></a> </div>
<div class="main_menu_col col-xs-fit col-sm">
<div class="row" id="mainmenu_container"><ul class="active-line-bottom main-menu dropdown-menu" id="main_menu"><li class="menu-item menu-item-type-post_type menu-item-object-page menu-item-home menu-item-76" id="menu-item-76"><a href="https://trimediaperu.com/">Home</a></li>
<li class="menu-item menu-item-type-post_type menu-item-object-page menu-item-2523" id="menu-item-2523"><a href="https://trimediaperu.com/proyectos/">Televisión</a></li>
<li class="menu-item menu-item-type-custom menu-item-object-custom menu-item-has-children menu-item-2520" id="menu-item-2520"><a href="#">Marketing Digital</a>
<ul class="sub-menu">
<li class="menu-item menu-item-type-post_type menu-item-object-page menu-item-419" id="menu-item-419"><a href="https://trimediaperu.com/golden-checkin/">Golden Checkin</a></li>
<li class="menu-item menu-item-type-post_type menu-item-object-page menu-item-405" id="menu-item-405"><a href="https://trimediaperu.com/media-interactiva/">Media Interactiva</a></li>
</ul>
</li>
<li class="menu-item menu-item-type-post_type menu-item-object-page current_page_parent menu-item-311" id="menu-item-311"><a href="https://trimediaperu.com/blog/">Noticias</a></li>
<li class="menu-item menu-item-type-custom menu-item-object-custom menu-item-home menu-item-has-children menu-item-1328" id="menu-item-1328"><a href="https://trimediaperu.com/#contact-1">Contacto</a>
<ul class="sub-menu">
<li class="menu-item menu-item-type-custom menu-item-object-custom menu-item-424" id="menu-item-424"><a href="https://api.whatsapp.com/send?phone=51941374545&amp;text=Hola%20Trimedia%20quiero%20info">Whatsapp</a></li>
</ul>
</li>
<li class="menu-item menu-item-type-custom menu-item-object-custom menu-item-has-children menu-item-2521" id="menu-item-2521"><a href="#">Social Media</a>
<ul class="sub-menu">
<li class="menu-item menu-item-type-post_type menu-item-object-page menu-item-430" id="menu-item-430"><a href="https://trimediaperu.com/instagram/">Instagram</a></li>
<li class="menu-item menu-item-type-post_type menu-item-object-page menu-item-433" id="menu-item-433"><a href="https://trimediaperu.com/twitter/">Twitter</a></li>
</ul>
</li>
</ul></div> <a data-component="offcanvas" data-direction="right" data-push="false" data-target="#offcanvas-wrapper" data-width="300px" href="#">
<div class="bubble"></div>
<i class="fa fa-bars"></i>
</a>
<div class="hide force-hide offcanvas-right" id="offcanvas-wrapper">
<div class="offcanvas-top">
<div class="logo-holder">
<a class="logo-link dark" href="https://trimediaperu.com/" itemprop="url" rel="home"><img alt="" class="logo dark" height="100" itemprop="logo" sizes="(max-width: 606px) 100vw, 606px" src="https://trimediaperu.com/wp-content/uploads/2019/05/trimedia-logo-letras-negras-small.png" srcset="https://trimediaperu.com/wp-content/uploads/2019/05/trimedia-logo-letras-negras-small.png 606w, https://trimediaperu.com/wp-content/uploads/2019/05/trimedia-logo-letras-negras-small-300x50.png 300w" width="606"/></a><a class="custom-logo-link" href="https://trimediaperu.com/" rel="home"><img alt="TRIMEDIA" class="custom-logo" height="120" sizes="(max-width: 875px) 100vw, 875px" src="https://trimediaperu.com/wp-content/uploads/2019/05/trimedia-logo-NEW.png" srcset="https://trimediaperu.com/wp-content/uploads/2019/05/trimedia-logo-NEW.png 875w, https://trimediaperu.com/wp-content/uploads/2019/05/trimedia-logo-NEW-300x41.png 300w, https://trimediaperu.com/wp-content/uploads/2019/05/trimedia-logo-NEW-768x105.png 768w" width="875"/></a> </div>
</div>
<div class="menu-main-menu-container" id="offcanvas-menu"><ul class="offcanvas_menu" id="offcanvas_menu"><li class="menu-item menu-item-type-post_type menu-item-object-page menu-item-home menu-item-76"><a href="https://trimediaperu.com/">Home</a></li>
<li class="menu-item menu-item-type-post_type menu-item-object-page menu-item-2523"><a href="https://trimediaperu.com/proyectos/">Televisión</a></li>
<li class="menu-item menu-item-type-custom menu-item-object-custom menu-item-has-children menu-item-2520"><a href="#">Marketing Digital</a>
<ul class="sub-menu">
<li class="menu-item menu-item-type-post_type menu-item-object-page menu-item-419"><a href="https://trimediaperu.com/golden-checkin/">Golden Checkin</a></li>
<li class="menu-item menu-item-type-post_type menu-item-object-page menu-item-405"><a href="https://trimediaperu.com/media-interactiva/">Media Interactiva</a></li>
</ul>
</li>
<li class="menu-item menu-item-type-post_type menu-item-object-page current_page_parent menu-item-311"><a href="https://trimediaperu.com/blog/">Noticias</a></li>
<li class="menu-item menu-item-type-custom menu-item-object-custom menu-item-home menu-item-has-children menu-item-1328"><a href="https://trimediaperu.com/#contact-1">Contacto</a>
<ul class="sub-menu">
<li class="menu-item menu-item-type-custom menu-item-object-custom menu-item-424"><a href="https://api.whatsapp.com/send?phone=51941374545&amp;text=Hola%20Trimedia%20quiero%20info">Whatsapp</a></li>
</ul>
</li>
<li class="menu-item menu-item-type-custom menu-item-object-custom menu-item-has-children menu-item-2521"><a href="#">Social Media</a>
<ul class="sub-menu">
<li class="menu-item menu-item-type-post_type menu-item-object-page menu-item-430"><a href="https://trimediaperu.com/instagram/">Instagram</a></li>
<li class="menu-item menu-item-type-post_type menu-item-object-page menu-item-433"><a href="https://trimediaperu.com/twitter/">Twitter</a></li>
</ul>
</li>
</ul></div>
</div>
</div>
</div>
</div>
</div>
</div>
<div class="site" id="page">
<div class="header-wrapper">
<div class="header color-overlay custom-mobile-image" data-parallax-depth="20" style='; background-image:url("https://trimediaperu.com/wp-content/uploads/2019/04/cropped-3d-balls-1.png"); background-color:#6a73da'>
<div class="inner-header-description gridContainer">
<div class="row header-description-row">
<div class="col-xs col-xs-12">
<h1 class="hero-title">
            Página no encontrada        </h1>
</div>
</div>
</div>
<script>
        window.mesmerizeSetHeaderTopSpacing();
    </script>
</div>
</div>
<div class="content blog-page">
<div class="gridContainer gridContainer content">
<div class="row">
<div class="col-xs-12 col-sm-8 col-md-9">
<div class="post-list row" data-no-masonry="1">
<div class="" id="post-">
<div class="post-content-single">
<h3 class="page-title">
    No se encontró nada    </h3>
<p>Parece que no podemos encontrar lo que estás buscando. Quizá buscar pueda ayudar.</p>
<form action="https://trimediaperu.com/" class="search-form" method="get" role="search">
<label>
<span class="screen-reader-text">Buscar:</span>
<input class="search-field" name="s" placeholder="Buscar …" type="search" value=""/>
</label>
</form>
</div>
</div>
</div>
<div class="navigation-c">
</div>
</div>
<div class="sidebar col-sm-4 col-md-3">
<div class="panel bg-color-white">
<div class="widget widget_search" id="search-2"><form action="https://trimediaperu.com/" class="search-form" method="get" role="search">
<label>
<span class="screen-reader-text">Buscar:</span>
<input class="search-field" name="s" placeholder="Buscar …" type="search" value=""/>
</label>
</form>
</div> <div class="widget widget_recent_entries" id="recent-posts-2"> <h5 class="widgettitle">Entradas recientes</h5> <ul>
<li>
<a href="https://trimediaperu.com/argentina-afronta-una-dura-prueba-ante-venezuela-en-rio-de-janeiro/">Argentina afronta una dura prueba ante Venezuela en Río de Janeiro</a>
</li>
<li>
<a href="https://trimediaperu.com/detalles-del-look-total-black-que-lucio-juliana-awada-para-el-g20-en-japon/">Detalles del look “total black” que lució Juliana Awada para el G20 en Japón</a>
</li>
<li>
<a href="https://trimediaperu.com/denuncian-la-desaparicion-forzada-de-antonia-turbay-activista-opositora-al-regimen-de-maduro/">Denuncian la desaparición forzada de Antonia Turbay, activista opositora al régimen de Maduro</a>
</li>
<li>
<a href="https://trimediaperu.com/acuerdo-mercosur-ue-uruguay-resalto-los-beneficios-para-sus-exportaciones/">Acuerdo Mercosur-UE: Uruguay resaltó los beneficios para sus exportaciones</a>
</li>
<li>
<a href="https://trimediaperu.com/argentina-de-gran-primer-tiempo-derrota-a-venezuela/">Argentina, de gran primer tiempo, derrota a Venezuela</a>
</li>
</ul>
</div><div class="widget widget_recent_comments" id="recent-comments-2"><h5 class="widgettitle">Comentarios recientes</h5><ul id="recentcomments"></ul></div><div class="widget widget_archive" id="archives-2"><h5 class="widgettitle">Archivos</h5> <ul>
<li><a href="https://trimediaperu.com/2019/06/">junio 2019</a></li>
<li><a href="https://trimediaperu.com/2019/05/">mayo 2019</a></li>
<li><a href="https://trimediaperu.com/2019/04/">abril 2019</a></li>
<li><a href="https://trimediaperu.com/2019/03/">marzo 2019</a></li>
<li><a href="https://trimediaperu.com/2019/02/">febrero 2019</a></li>
<li><a href="https://trimediaperu.com/2017/11/">noviembre 2017</a></li>
<li><a href="https://trimediaperu.com/2017/10/">octubre 2017</a></li>
<li><a href="https://trimediaperu.com/2014/08/">agosto 2014</a></li>
<li><a href="https://trimediaperu.com/2014/07/">julio 2014</a></li>
<li><a href="https://trimediaperu.com/2014/06/">junio 2014</a></li>
<li><a href="https://trimediaperu.com/2014/05/">mayo 2014</a></li>
</ul>
</div><div class="widget widget_categories" id="categories-2"><h5 class="widgettitle">Categorías</h5> <ul>
<li class="cat-item cat-item-17"><a href="https://trimediaperu.com/category/marketing/">Marketing</a>
</li>
<li class="cat-item cat-item-1"><a href="https://trimediaperu.com/category/noticias/" title="Descripción de la categoría Noticias">Noticias</a>
</li>
<li class="cat-item cat-item-18"><a href="https://trimediaperu.com/category/social-media/">Social Media</a>
</li>
</ul>
</div><div class="widget widget_meta" id="meta-2"><h5 class="widgettitle">Meta</h5> <ul>
<li><a href="https://trimediaperu.com/wp-login.php">Acceder</a></li>
<li><a href="https://trimediaperu.com/feed/"><abbr title="Really Simple Syndication">RSS</abbr> de las entradas</a></li>
<li><a href="https://trimediaperu.com/comments/feed/"><abbr title="Really Simple Syndication">RSS</abbr> de los comentarios</a></li>
<li><a href="https://es.wordpress.org/" title="Funciona gracias a WordPress, una avanzada plataforma de publicación personal semántica.">WordPress.org</a></li> </ul>
</div> </div>
</div>
</div>
</div>
</div>
<div class="footer footer-contact-boxes paralax">
<div class="footer-content">
<div class="gridContainer">
<div class="row text-center">
<div class="col-sm-3">
<div data-dynamic-mod="true" data-type="group">
<i class="big-icon fa fa-map-marker"></i>
<p>
            Lima, Perú        </p>
</div>
</div>
<div class="col-sm-3">
<div data-dynamic-mod="true" data-type="group">
<i class="big-icon fa fa-envelope-o"></i>
<p>
            info@trimediaperu.com        </p>
</div>
</div>
<div class="col-sm-3">
<div data-dynamic-mod="true" data-type="group">
<i class="big-icon fa fa-phone"></i>
<p>
</p>
</div>
</div>
<div class="col-sm-3 footer-bg-accent">
<div>
<div class="footer-social-icons" data-dynamic-mod="true" data-type="group">
</div>
</div>
<p class="copyright">©  2021 TRIMEDIA. Construido utilizando WordPress y el <a class="mesmerize-theme-link" href="https://extendthemes.com/go/built-with-highlight/" target="_blank">Highlight Theme</a></p> </div>
</div>
</div>
</div>
</div>
</div>
<div class="whatsappme whatsappme--right" data-settings='{"telephone":"51941374545","message_text":"Hola!\nEn qu\u00e9 podemos ayudarte?","message_delay":5000,"message_badge":false,"message_send":"Hola TRIMEDIA. Quiero m\u00e1s informaci\u00f3n sobre No se encontr\u00f3 la p\u00e1gina https:\/\/trimediaperu.com\/nD\/index.php%09","mobile_only":false,"whastapp_web":false}'>
<div class="whatsappme__button">
<svg height="24" viewbox="0 0 24 24" width="24">
<path d="M.057 24l1.687-6.163a11.867 11.867 0 0 1-1.587-5.946C.16 5.335 5.495 0 12.05 0a11.817 11.817 0 0 1 8.413 3.488 11.824 11.824 0 0 1 3.48 8.414c-.003 6.557-5.338 11.892-11.893 11.892a11.9 11.9 0 0 1-5.688-1.448L.057 24zm6.597-3.807c1.676.995 3.276 1.591 5.392 1.592 5.448 0 9.886-4.434 9.889-9.885.002-5.462-4.415-9.89-9.881-9.892-5.452 0-9.887 4.434-9.889 9.884-.001 2.225.651 3.891 1.746 5.634l-.999 3.648 3.742-.981zm11.387-5.464c-.074-.124-.272-.198-.57-.347-.297-.149-1.758-.868-2.031-.967-.272-.099-.47-.149-.669.149-.198.297-.768.967-.941 1.165-.173.198-.347.223-.644.074-.297-.149-1.255-.462-2.39-1.475-.883-.788-1.48-1.761-1.653-2.059-.173-.297-.018-.458.13-.606.134-.133.297-.347.446-.521.151-.172.2-.296.3-.495.099-.198.05-.372-.025-.521-.075-.148-.669-1.611-.916-2.206-.242-.579-.487-.501-.669-.51l-.57-.01c-.198 0-.52.074-.792.372s-1.04 1.016-1.04 2.479 1.065 2.876 1.213 3.074c.149.198 2.095 3.2 5.076 4.487.709.306 1.263.489 1.694.626.712.226 1.36.194 1.872.118.571-.085 1.758-.719 2.006-1.413.248-.695.248-1.29.173-1.414z" fill="#fff" id="wa_ico"></path>
<path d="M1.101 21.757L23.8 12.028 1.101 2.3l.011 7.912 13.623 1.816-13.623 1.817-.011 7.912z" fill="#fff" id="send_ico"></path>
</svg>
</div>
<div class="whatsappme__box">
<header class="whatsappme__header">
<svg height="28" viewbox="0 0 120 28" width="120"><path d="M117.2 17c0 .4-.2.7-.4 1-.1.3-.4.5-.7.7l-1 .2c-.5 0-.9 0-1.2-.2l-.7-.7a3 3 0 0 1-.4-1 5.4 5.4 0 0 1 0-2.3c0-.4.2-.7.4-1l.7-.7a2 2 0 0 1 1.1-.3 2 2 0 0 1 1.8 1l.4 1a5.3 5.3 0 0 1 0 2.3zm2.5-3c-.1-.7-.4-1.3-.8-1.7a4 4 0 0 0-1.3-1.2c-.6-.3-1.3-.4-2-.4-.6 0-1.2.1-1.7.4a3 3 0 0 0-1.2 1.1V11H110v13h2.7v-4.5c.4.4.8.8 1.3 1 .5.3 1 .4 1.6.4a4 4 0 0 0 3.2-1.5c.4-.5.7-1 .8-1.6.2-.6.3-1.2.3-1.9s0-1.3-.3-2zm-13.1 3c0 .4-.2.7-.4 1l-.7.7-1.1.2c-.4 0-.8 0-1-.2-.4-.2-.6-.4-.8-.7a3 3 0 0 1-.4-1 5.4 5.4 0 0 1 0-2.3c0-.4.2-.7.4-1 .1-.3.4-.5.7-.7a2 2 0 0 1 1-.3 2 2 0 0 1 1.9 1l.4 1a5.4 5.4 0 0 1 0 2.3zm1.7-4.7a4 4 0 0 0-3.3-1.6c-.6 0-1.2.1-1.7.4a3 3 0 0 0-1.2 1.1V11h-2.6v13h2.7v-4.5c.3.4.7.8 1.2 1 .6.3 1.1.4 1.7.4a4 4 0 0 0 3.2-1.5c.4-.5.6-1 .8-1.6.2-.6.3-1.2.3-1.9s-.1-1.3-.3-2c-.2-.6-.4-1.2-.8-1.6zm-17.5 3.2l1.7-5 1.7 5h-3.4zm.2-8.2l-5 13.4h3l1-3h5l1 3h3L94 7.3h-3zm-5.3 9.1l-.6-.8-1-.5a11.6 11.6 0 0 0-2.3-.5l-1-.3a2 2 0 0 1-.6-.3.7.7 0 0 1-.3-.6c0-.2 0-.4.2-.5l.3-.3h.5l.5-.1c.5 0 .9 0 1.2.3.4.1.6.5.6 1h2.5c0-.6-.2-1.1-.4-1.5a3 3 0 0 0-1-1 4 4 0 0 0-1.3-.5 7.7 7.7 0 0 0-3 0c-.6.1-1 .3-1.4.5l-1 1a3 3 0 0 0-.4 1.5 2 2 0 0 0 1 1.8l1 .5 1.1.3 2.2.6c.6.2.8.5.8 1l-.1.5-.4.4a2 2 0 0 1-.6.2 2.8 2.8 0 0 1-1.4 0 2 2 0 0 1-.6-.3l-.5-.5-.2-.8H77c0 .7.2 1.2.5 1.6.2.5.6.8 1 1 .4.3.9.5 1.4.6a8 8 0 0 0 3.3 0c.5 0 1-.2 1.4-.5a3 3 0 0 0 1-1c.3-.5.4-1 .4-1.6 0-.5 0-.9-.3-1.2zM74.7 8h-2.6v3h-1.7v1.7h1.7v5.8c0 .5 0 .9.2 1.2l.7.7 1 .3a7.8 7.8 0 0 0 2 0h.7v-2.1a3.4 3.4 0 0 1-.8 0l-1-.1-.2-1v-4.8h2V11h-2V8zm-7.6 9v.5l-.3.8-.7.6c-.2.2-.7.2-1.2.2h-.6l-.5-.2a1 1 0 0 1-.4-.4l-.1-.6.1-.6.4-.4.5-.3a4.8 4.8 0 0 1 1.2-.2 8.3 8.3 0 0 0 1.2-.2l.4-.3v1zm2.6 1.5v-5c0-.6 0-1.1-.3-1.5l-1-.8-1.4-.4a10.9 10.9 0 0 0-3.1 0l-1.5.6c-.4.2-.7.6-1 1a3 3 0 0 0-.5 1.5h2.7c0-.5.2-.9.5-1a2 2 0 0 1 1.3-.4h.6l.6.2.3.4.2.7c0 .3 0 .5-.3.6-.1.2-.4.3-.7.4l-1 .1a21.9 21.9 0 0 0-2.4.4l-1 .5c-.3.2-.6.5-.8.9-.2.3-.3.8-.3 1.3s.1 1 .3 1.3c.1.4.4.7.7 1l1 .4c.4.2.9.2 1.3.2a6 6 0 0 0 1.8-.2c.6-.2 1-.5 1.5-1a4 4 0 0 0 .2 1H70l-.3-1v-1.2zm-11-6.7c-.2-.4-.6-.6-1-.8-.5-.2-1-.3-1.8-.3-.5 0-1 .1-1.5.4a3 3 0 0 0-1.3 1.2v-5h-2.7v13.4H53v-5.1c0-1 .2-1.7.5-2.2.3-.4.9-.6 1.6-.6.6 0 1 .2 1.3.6.3.4.4 1 .4 1.8v5.5h2.7v-6c0-.6 0-1.2-.2-1.6 0-.5-.3-1-.5-1.3zm-14 4.7l-2.3-9.2h-2.8l-2.3 9-2.2-9h-3l3.6 13.4h3l2.2-9.2 2.3 9.2h3l3.6-13.4h-3l-2.1 9.2zm-24.5.2L18 15.6c-.3-.1-.6-.2-.8.2A20 20 0 0 1 16 17c-.2.2-.4.3-.7.1-.4-.2-1.5-.5-2.8-1.7-1-1-1.7-2-2-2.4-.1-.4 0-.5.2-.7l.5-.6.4-.6v-.6L10.4 8c-.3-.6-.6-.5-.8-.6H9c-.2 0-.6.1-.9.5C7.8 8.2 7 9 7 10.7c0 1.7 1.3 3.4 1.4 3.6.2.3 2.5 3.7 6 5.2l1.9.8c.8.2 1.6.2 2.2.1.6-.1 2-.8 2.3-1.6.3-.9.3-1.5.2-1.7l-.7-.4zM14 25.3c-2 0-4-.5-5.8-1.6l-.4-.2-4.4 1.1 1.2-4.2-.3-.5A11.5 11.5 0 0 1 22.1 5.7 11.5 11.5 0 0 1 14 25.3zM14 0A13.8 13.8 0 0 0 2 20.7L0 28l7.3-2A13.8 13.8 0 1 0 14 0z" fill="#fff" fill-rule="evenodd"></path></svg>
<div class="whatsappme__close"><svg height="24" viewbox="0 0 24 24" width="24"><path d="M24 2.4L21.6 0 12 9.6 2.4 0 0 2.4 9.6 12 0 21.6 2.4 24l9.6-9.6 9.6 9.6 2.4-2.4-9.6-9.6L24 2.4z" fill="#fff"></path></svg></div>
</header>
<div class="whatsappme__message">Hola!<br/>En qué podemos ayudarte?</div>
<div class="whatsappme__copy">Powered by <a href="https://wame.chat" rel="noopener" target="_blank"><svg height="17" viewbox="0 0 72 17" width="72"><path d="M25.371 10.429l2.122-6.239h.045l2.054 6.239h-4.22zm32.2 2.397c-.439.495-.88.953-1.325 1.375-.797.755-1.332 1.232-1.604 1.43-.622.438-1.156.706-1.604.805-.447.1-.787.13-1.02.09a3.561 3.561 0 0 1-.7-.239c-.66-.318-1.02-.864-1.079-1.64-.058-.774.03-1.619.263-2.533.35-1.987 1.108-4.133 2.274-6.438a73.481 73.481 0 0 0-2.8 3.04c-.816.954-1.7 2.096-2.653 3.428a44.068 44.068 0 0 0-2.77 4.441c-.738 0-1.341-.159-1.808-.477-.427-.278-.748-.695-.962-1.252-.214-.556-.165-1.41.146-2.563l.204-.626c.097-.298.204-.606.32-.924.117-.318.234-.626.35-.924.117-.298.195-.507.234-.626v.06c.272-.756.603-1.56.991-2.415a56.92 56.92 0 0 1 1.4-2.832 62.832 62.832 0 0 0-3.266 3.875 61.101 61.101 0 0 0-2.945 3.995 57.072 57.072 0 0 0-2.886 4.71c-.387 0-.736-.044-1.048-.131l.195.545h-3.72l-1.23-3.786h-6.093L23.158 17h-3.605l6.16-17h3.674l4.357 12.16c.389-1.35.97-2.736 1.74-4.16a41.336 41.336 0 0 0 2.013-4.232.465.465 0 0 0 .058-.18c0-.039.02-.098.058-.178.04-.08.078-.199.117-.358.039-.159.097-.337.175-.536.039-.12.078-.219.117-.298a.465.465 0 0 0 .058-.18c.078-.277.175-.575.292-.893.116-.318.194-.597.233-.835V.25c-.039-.04-.039-.08 0-.119l.233-.12c.117-.039.292.02.525.18.156.08.292.179.408.298.272.199.564.427.875.685.311.259.583.557.816.895a2.9 2.9 0 0 1 .467 1.043c.078.358.039.735-.117 1.133a8.127 8.127 0 0 1-.35.775c0 .08-.038.159-.116.238a2.93 2.93 0 0 1-.175.298 7.05 7.05 0 0 0-.35.656c-.039.04-.058.07-.058.09 0 .02-.02.05-.059.089a61.988 61.988 0 0 1-1.633 2.385c-.544.755-.913 1.35-1.108 1.788a79.39 79.39 0 0 1 3.5-4.233 101.59 101.59 0 0 1 3.12-3.398C45.651 1.82 46.612.986 47.468.43c.739.278 1.341.596 1.808.954.428.318.768.676 1.02 1.073.253.398.244.835-.029 1.312l-1.4 2.325a36.928 36.928 0 0 0-1.749 3.279 53.748 53.748 0 0 1 1.633-1.848 46.815 46.815 0 0 1 4.024-3.875c.7-.597 1.38-1.113 2.041-1.55.739.278 1.341.596 1.808.953.428.318.768.676 1.02 1.073.253.398.243.835-.029 1.312-.155.318-.408.795-.758 1.43a152.853 152.853 0 0 0-2.04 3.846 97.87 97.87 0 0 0-.467.924c-.35.835-.632 1.55-.846 2.146-.214.597-.282.934-.204 1.014a.63.63 0 0 0 .291-.06c.234-.119.564-.348.992-.685.428-.338.875-.736 1.341-1.193.467-.457.914-.914 1.341-1.37.217-.232.409-.45.575-.657a15.4 15.4 0 0 1 .957-2.514c.34-.696.708-1.333 1.108-1.91.399-.576.778-1.044 1.137-1.402a19.553 19.553 0 0 1 1.796-1.7 32.727 32.727 0 0 1 1.497-1.164 8.821 8.821 0 0 1 1.317-.835C66.292.989 66.83.83 67.269.83c.32 0 .649.11.988.328.34.22.649.478.928.776.28.299.519.607.718.925.2.318.3.557.3.716.04.597-.06 1.253-.3 1.97a7.14 7.14 0 0 1-1.107 2.058 8.534 8.534 0 0 1-1.826 1.76 6.522 6.522 0 0 1-2.395 1.074c-.2.08-.36.06-.48-.06a.644.644 0 0 1-.179-.477c0-.358.14-.616.42-.776.837-.318 1.536-.735 2.095-1.253.559-.517.998-1.034 1.317-1.551.4-.597.699-1.213.898-1.85 0-.199-.09-.308-.27-.328a4.173 4.173 0 0 0-.448-.03 4.83 4.83 0 0 0-1.318.597c-.399.239-.848.577-1.347 1.014-.499.438-1.028 1.015-1.586 1.73-.918 1.154-1.587 2.298-2.006 3.432-.42 1.134-.629 1.979-.629 2.536 0 .915.19 1.482.569 1.7.38.22.728.329 1.048.329.638 0 1.347-.15 2.125-.448a16.248 16.248 0 0 0 2.305-1.104 30.05 30.05 0 0 0 2.126-1.342 27.256 27.256 0 0 0 1.646-1.224c.08-.04.18-.1.3-.179l.24-.12a.54.54 0 0 1 .239-.059c.08 0 .16.02.24.06.08.04.119.16.119.358 0 .239-.08.457-.24.656a19.115 19.115 0 0 1-2.245 1.82 35.445 35.445 0 0 1-2.185 1.403c-.759.437-1.497.855-2.215 1.253a8.461 8.461 0 0 1-1.647.387c-.499.06-.968.09-1.407.09-.998 0-1.796-.16-2.395-.477-.599-.319-1.048-.706-1.347-1.164a4.113 4.113 0 0 1-.599-1.372c-.1-.457-.15-.843-.15-1.161zm-42.354-1.111L17.887 0h3.514L17.02 17h-3.56L10.7 5.428h-.046L7.94 17H4.312L0 0h3.582L6.16 11.571h.045L9.035 0h3.354l2.783 11.715h.045z" fill="#fff" fill-rule="evenodd"></path></svg></a></div> </div>
</div>
<!-- Instagram Feed JS -->
<script type="text/javascript">
var sbiajaxurl = "https://trimediaperu.com/wp-admin/admin-ajax.php";
</script>
<!-- Start of StatCounter Code -->
<script>
			<!--
			var sc_project=12003706;
			var sc_security="e76c9e9a";
						var scJsHost = (("https:" == document.location.protocol) ?
				"https://secure." : "http://www.");
			//-->
			
document.write("<sc"+"ript src='" +scJsHost +"statcounter.com/counter/counter.js'></"+"script>");		</script>
<noscript><div class="statcounter"><a href="https://statcounter.com/" title="web analytics"><img alt="web analytics" class="statcounter" src="https://c.statcounter.com/12003706/0/e76c9e9a/0/"/></a></div></noscript>
<!-- End of StatCounter Code -->
<!-- Add Messenger - wp-chatbot - HoliThemes - https://www.holithemes.com/wp-chatbot -->
<div class="htcc-messenger" id="htcc-messenger">
<div class="fb-customerchat" greeting_dialog_delay="" greeting_dialog_display="" id="htcc-customerchat" logged_in_greeting="" logged_out_greeting="" page_id="" ref="" theme_color="">
</div>
</div>
<!-- / Add Messenger - wp-chatbot - HoliThemes -->
<script type="text/javascript">
/* <![CDATA[ */
var wpcf7 = {"apiSettings":{"root":"https:\/\/trimediaperu.com\/wp-json\/contact-form-7\/v1","namespace":"contact-form-7\/v1"}};
/* ]]> */
</script>
<script src="https://trimediaperu.com/wp-content/plugins/contact-form-7/includes/js/scripts.js?ver=5.1.1" type="text/javascript"></script>
<script src="https://trimediaperu.com/wp-content/plugins/counter-number-showcase/assets/js/bootstrap.js?ver=5.2.9" type="text/javascript"></script>
<script src="https://trimediaperu.com/wp-content/plugins/counter-number-showcase/assets/js/counter_nscript.js?ver=5.2.9" type="text/javascript"></script>
<script src="https://trimediaperu.com/wp-content/plugins/counter-number-showcase/assets/js/waypoints.min.js?ver=5.2.9" type="text/javascript"></script>
<script src="https://trimediaperu.com/wp-content/plugins/counter-number-showcase/assets/js/jquery.counterup.min.js?ver=5.2.9" type="text/javascript"></script>
<script src="https://trimediaperu.com/wp-content/plugins/creame-whatsapp-me/public/js/whatsappme.min.js?ver=2.2.3" type="text/javascript"></script>
<script type="text/javascript">
/* <![CDATA[ */
var sb_instagram_js_options = {"sb_instagram_at":"","font_method":"svg"};
/* ]]> */
</script>
<script src="https://trimediaperu.com/wp-content/plugins/instagram-feed/js/sb-instagram.min.js?ver=1.12" type="text/javascript"></script>
<script defer="defer" src="https://trimediaperu.com/wp-includes/js/imagesloaded.min.js?ver=3.2.0" type="text/javascript"></script>
<script defer="defer" src="https://trimediaperu.com/wp-includes/js/masonry.min.js?ver=3.3.2" type="text/javascript"></script>
<script defer="defer" src="https://trimediaperu.com/wp-content/themes/mesmerize/assets/js/theme.bundle.min.js?ver=1.0.15" type="text/javascript"></script>
<script src="https://trimediaperu.com/wp-content/themes/highlight/assets/js/theme-child.js" type="text/javascript"></script>
<script type="text/javascript">
/* <![CDATA[ */
var SlimStatParams = {"ajaxurl":"https:\/\/trimediaperu.com\/wp-admin\/admin-ajax.php","extensions_to_track":"pdf,doc,xls,zip","outbound_classes_rel_href_to_not_track":"noslimstat,ab-item","ci":"YToxOntzOjEyOiJjb250ZW50X3R5cGUiO3M6MzoiNDA0Ijt9.d91cd0d4918e381c7e31f67fff3f1427"};
/* ]]> */
</script>
<script src="https://cdn.jsdelivr.net/wp/wp-slimstat/tags/4.7.9.1/wp-slimstat.min.js" type="text/javascript"></script>
<script defer="defer" src="https://trimediaperu.com/wp-includes/js/wp-embed.min.js?ver=5.2.9" type="text/javascript"></script>
</body>
</html>
