<!DOCTYPE html>
<!--[if IE 6]>
<html id="ie6" lang="en-US" prefix="og: http://ogp.me/ns#">
<![endif]--><!--[if IE 7]>
<html id="ie7" lang="en-US" prefix="og: http://ogp.me/ns#">
<![endif]--><!--[if IE 8]>
<html id="ie8" lang="en-US" prefix="og: http://ogp.me/ns#">
<![endif]--><!--[if !(IE 6) | !(IE 7) | !(IE 8)  ]><!--><html lang="en-US" prefix="og: http://ogp.me/ns#">
<!--<![endif]-->
<head>
<meta charset="utf-8"/>
<!-- Powered by Foodie Order https://foodieorder.com -->
<!--
	$$$$$$$$\                        $$\ $$\                  $$$$$$\                  $$\                     
	$$  _____|                       $$ |\__|                $$  __$$\                 $$ |                    
	$$ |    $$$$$$\   $$$$$$\   $$$$$$$ |$$\  $$$$$$\        $$ /  $$ | $$$$$$\   $$$$$$$ | $$$$$$\   $$$$$$\  
	$$$$$\ $$  __$$\ $$  __$$\ $$  __$$ |$$ |$$  __$$\       $$ |  $$ |$$  __$$\ $$  __$$ |$$  __$$\ $$  __$$\ 
	$$  __|$$ /  $$ |$$ /  $$ |$$ /  $$ |$$ |$$$$$$$$ |      $$ |  $$ |$$ |  \__|$$ /  $$ |$$$$$$$$ |$$ |  \__|
	$$ |   $$ |  $$ |$$ |  $$ |$$ |  $$ |$$ |$$   ____|      $$ |  $$ |$$ |      $$ |  $$ |$$   ____|$$ |      
	$$ |   \$$$$$$  |\$$$$$$  |\$$$$$$$ |$$ |\$$$$$$$\        $$$$$$  |$$ |      \$$$$$$$ |\$$$$$$$\ $$ |      
	\__|    \______/  \______/  \_______|\__| \_______|       \______/ \__|       \_______| \_______|\__|   
	-->
<link href="" rel="pingback"/>
<link href="https://fonts.googleapis.com/css?family=Amaranth:400,700|Source+Sans+Pro" rel="stylesheet"/>
<link href="https://maxcdn.bootstrapcdn.com/font-awesome/4.7.0/css/font-awesome.min.css" rel="stylesheet"/>
<!--[if lt IE 9]>
	<script src="https://tuttopizzapasta.com/wp-content/themes/Divi/js/html5.js" type="text/javascript"></script>
	<![endif]-->
<script type="text/javascript">document.documentElement.className='js';</script>
<title>Tutto Pizza &amp; Pasta • Order Online Now</title>
<!-- This site is optimized with the Yoast SEO Premium plugin v4.2.1 - https://yoast.com/wordpress/plugins/seo/ -->
<meta content="Come and try our delicious Italian. Now you can order online directly from us and get exclusive deals for your Delivery and Takeout orders" name="description"/>
<meta content="noodp" name="robots"/>
<link href="https://tuttopizzapasta.com/" rel="canonical"/>
<meta content="en_US" property="og:locale"/>
<meta content="website" property="og:type"/>
<meta content="Tutto Pizza &amp; Pasta • Order Online Now" property="og:title"/>
<meta content="Come and try our delicious Italian. Now you can order online directly from us and get exclusive deals for your Delivery and Takeout orders" property="og:description"/>
<meta content="https://tuttopizzapasta.com/" property="og:url"/>
<meta content="Tutto Pizza &amp; Pasta" property="og:site_name"/>
<meta content="summary" name="twitter:card"/>
<meta content="Come and try our delicious Italian. Now you can order online directly from us and get exclusive deals for your Delivery and Takeout orders" name="twitter:description"/>
<meta content="Tutto Pizza &amp; Pasta • Order Online Now" name="twitter:title"/>
<meta content="2017-01-27T09:50:58-05:00" property="DC.date.issued"/>
<script type="application/ld+json">{"@context":"http:\/\/schema.org","@type":"WebSite","@id":"#website","url":"https:\/\/tuttopizzapasta.com\/","name":"Tutto Pizza &amp; Pasta","potentialAction":{"@type":"SearchAction","target":"https:\/\/tuttopizzapasta.com\/?s={search_term_string}","query-input":"required name=search_term_string"}}</script>
<!-- / Yoast SEO Premium plugin. -->
<link href="//maxcdn.bootstrapcdn.com" rel="dns-prefetch"/>
<link href="//fonts.googleapis.com" rel="dns-prefetch"/>
<link href="//s.w.org" rel="dns-prefetch"/>
<link href="https://tuttopizzapasta.com/feed/" rel="alternate" title="Tutto Pizza &amp; Pasta » Feed" type="application/rss+xml"/>
<link href="https://tuttopizzapasta.com/comments/feed/" rel="alternate" title="Tutto Pizza &amp; Pasta » Comments Feed" type="application/rss+xml"/>
<script type="text/javascript">window._wpemojiSettings={"baseUrl":"https:\/\/s.w.org\/images\/core\/emoji\/2.2.1\/72x72\/","ext":".png","svgUrl":"https:\/\/s.w.org\/images\/core\/emoji\/2.2.1\/svg\/","svgExt":".svg","source":{"concatemoji":"https:\/\/tuttopizzapasta.com\/wp-includes\/js\/wp-emoji-release.min.js?ver=4.7.17"}};!function(a,b,c){function d(a){var b,c,d,e,f=String.fromCharCode;if(!k||!k.fillText)return!1;switch(k.clearRect(0,0,j.width,j.height),k.textBaseline="top",k.font="600 32px Arial",a){case"flag":return k.fillText(f(55356,56826,55356,56819),0,0),!(j.toDataURL().length<3e3)&&(k.clearRect(0,0,j.width,j.height),k.fillText(f(55356,57331,65039,8205,55356,57096),0,0),b=j.toDataURL(),k.clearRect(0,0,j.width,j.height),k.fillText(f(55356,57331,55356,57096),0,0),c=j.toDataURL(),b!==c);case"emoji4":return k.fillText(f(55357,56425,55356,57341,8205,55357,56507),0,0),d=j.toDataURL(),k.clearRect(0,0,j.width,j.height),k.fillText(f(55357,56425,55356,57341,55357,56507),0,0),e=j.toDataURL(),d!==e}return!1}function e(a){var c=b.createElement("script");c.src=a,c.defer=c.type="text/javascript",b.getElementsByTagName("head")[0].appendChild(c)}var f,g,h,i,j=b.createElement("canvas"),k=j.getContext&&j.getContext("2d");for(i=Array("flag","emoji4"),c.supports={everything:!0,everythingExceptFlag:!0},h=0;h<i.length;h++)c.supports[i[h]]=d(i[h]),c.supports.everything=c.supports.everything&&c.supports[i[h]],"flag"!==i[h]&&(c.supports.everythingExceptFlag=c.supports.everythingExceptFlag&&c.supports[i[h]]);c.supports.everythingExceptFlag=c.supports.everythingExceptFlag&&!c.supports.flag,c.DOMReady=!1,c.readyCallback=function(){c.DOMReady=!0},c.supports.everything||(g=function(){c.readyCallback()},b.addEventListener?(b.addEventListener("DOMContentLoaded",g,!1),a.addEventListener("load",g,!1)):(a.attachEvent("onload",g),b.attachEvent("onreadystatechange",function(){"complete"===b.readyState&&c.readyCallback()})),f=c.source||{},f.concatemoji?e(f.concatemoji):f.wpemoji&&f.twemoji&&(e(f.twemoji),e(f.wpemoji)))}(window,document,window._wpemojiSettings);</script>
<meta content="Restaurant Website v3.0 v." name="generator"/><style type="text/css">img.wp-smiley,img.emoji{display:inline!important;border:none!important;box-shadow:none!important;height:1em!important;width:1em!important;margin:0 .07em!important;vertical-align:-.1em!important;background:none!important;padding:0!important}</style>
<link href="https://tuttopizzapasta.com/wp-content/plugins/foodmenu/css/jquery.fancybox.css?ver=4.7.17" id="fmlight-css-css" media="all" rel="stylesheet" type="text/css"/>
<link href="https://maxcdn.bootstrapcdn.com/bootstrap/3.3.7/css/bootstrap.min.css?ver=4.7.17" id="botstp-css-css" media="all" rel="stylesheet" type="text/css"/>
<link href="https://maxcdn.bootstrapcdn.com/font-awesome/4.7.0/css/font-awesome.min.css?ver=4.7.17" id="afontaw-css-css" media="all" rel="stylesheet" type="text/css"/>
<link href="https://tuttopizzapasta.com/wp-content/plugins/foodmenu/css/foodmenu.css?ver=4.7.17" id="foodmenu-css-css" media="all" rel="stylesheet" type="text/css"/>
<link href="https://tuttopizzapasta.com/wp-content/plugins/ltgallery/css/jquery.fancybox.css?ver=4.7.17" id="lt-fancycss-css" media="all" rel="stylesheet" type="text/css"/>
<link href="https://tuttopizzapasta.com/wp-content/themes/Divi/style.css?ver=4.7.17" id="parent-style-css" media="all" rel="stylesheet" type="text/css"/>
<link href="https://tuttopizzapasta.com/wp-content/themes/websiteplatform3/style.css?ver=4.7.17" id="child-style-css" media="all" rel="stylesheet" type="text/css"/>
<link href="https://tuttopizzapasta.com/wp-content/themes/websiteplatform3/menu-style.css?ver=4.7.17" id="menu-style-css" media="all" rel="stylesheet" type="text/css"/>
<link href="https://fonts.googleapis.com/css?family=Open+Sans:300italic,400italic,600italic,700italic,800italic,400,300,600,700,800&amp;subset=latin,latin-ext" id="divi-fonts-css" media="all" rel="stylesheet" type="text/css"/>
<link href="https://fonts.googleapis.com/css?family=Bitter:400,400italic,700&amp;subset=latin,latin-ext" id="et-gf-bitter-css" media="all" rel="stylesheet" type="text/css"/>
<link href="https://fonts.googleapis.com/css?family=Source+Sans+Pro:400,200,200italic,300,300italic,400italic,600,600italic,700,700italic,900,900italic&amp;subset=latin,latin-ext" id="et-gf-source-sans-pro-css" media="all" rel="stylesheet" type="text/css"/>
<link href="https://tuttopizzapasta.com/wp-content/themes/websiteplatform3/style.css?ver=3.0.24" id="divi-style-css" media="all" rel="stylesheet" type="text/css"/>
<link href="https://tuttopizzapasta.com/wp-content/themes/Divi/epanel/shortcodes/css/shortcodes.css?ver=3.0.24" id="et-shortcodes-css-css" media="all" rel="stylesheet" type="text/css"/>
<link href="https://tuttopizzapasta.com/wp-content/themes/Divi/epanel/shortcodes/css/shortcodes_responsive.css?ver=3.0.24" id="et-shortcodes-responsive-css-css" media="all" rel="stylesheet" type="text/css"/>
<link href="https://tuttopizzapasta.com/wp-content/themes/Divi/includes/builder/styles/magnific_popup.css?ver=3.0.24" id="magnific-popup-css" media="all" rel="stylesheet" type="text/css"/>
<script src="https://tuttopizzapasta.com/wp-includes/js/jquery/jquery.js?ver=1.12.4" type="text/javascript"></script>
<script src="https://tuttopizzapasta.com/wp-includes/js/jquery/jquery-migrate.min.js?ver=1.4.1" type="text/javascript"></script>
<link href="https://tuttopizzapasta.com/wp-includes/wlwmanifest.xml" rel="wlwmanifest" type="application/wlwmanifest+xml"/>
<link href="https://tuttopizzapasta.com/" rel="shortlink"/>
<link href="https://tuttopizzapasta.com/wp-json/oembed/1.0/embed?url=https%3A%2F%2Ftuttopizzapasta.com%2F" rel="alternate" type="application/json+oembed"/>
<link href="https://tuttopizzapasta.com/wp-json/oembed/1.0/embed?url=https%3A%2F%2Ftuttopizzapasta.com%2F&amp;format=xml" rel="alternate" type="text/xml+oembed"/>
<style id="cstm-css-for-icons">#headeroptions li a i{color:#fff}#headeroptions li a:hover i{color:#48a718}</style><meta content="width=device-width, initial-scale=1.0, maximum-scale=1.0, user-scalable=0" name="viewport"/> <style id="theme-customizer-css">.woocommerce #respond input#submit,.woocommerce-page #respond input#submit,.woocommerce #content input.button,.woocommerce-page #content input.button,.woocommerce-message,.woocommerce-error,.woocommerce-info{background:#48a718!important}#et_search_icon:hover,.mobile_menu_bar:before,.mobile_menu_bar:after,.et_toggle_slide_menu:after,.et-social-icon a:hover,.et_pb_sum,.et_pb_pricing li a,.et_pb_pricing_table_button,.et_overlay:before,.entry-summary p.price ins,.woocommerce div.product span.price,.woocommerce-page div.product span.price,.woocommerce #content div.product span.price,.woocommerce-page #content div.product span.price,.woocommerce div.product p.price,.woocommerce-page div.product p.price,.woocommerce #content div.product p.price,.woocommerce-page #content div.product p.price,.et_pb_member_social_links a:hover,.woocommerce .star-rating span:before,.woocommerce-page .star-rating span:before,.et_pb_widget li a:hover,.et_pb_filterable_portfolio .et_pb_portfolio_filters li a.active,.et_pb_filterable_portfolio .et_pb_portofolio_pagination ul li a.active,.et_pb_gallery .et_pb_gallery_pagination ul li a.active,.wp-pagenavi span.current,.wp-pagenavi a:hover,.nav-single a,.posted_in a{color:#48a718}.et_pb_contact_submit,.et_password_protected_form .et_submit_button,.et_pb_bg_layout_light .et_pb_newsletter_button,.comment-reply-link,.form-submit .et_pb_button,.et_pb_bg_layout_light .et_pb_promo_button,.et_pb_bg_layout_light .et_pb_more_button,.woocommerce a.button.alt,.woocommerce-page a.button.alt,.woocommerce button.button.alt,.woocommerce-page button.button.alt,.woocommerce input.button.alt,.woocommerce-page input.button.alt,.woocommerce #respond input#submit.alt,.woocommerce-page #respond input#submit.alt,.woocommerce #content input.button.alt,.woocommerce-page #content input.button.alt,.woocommerce a.button,.woocommerce-page a.button,.woocommerce button.button,.woocommerce-page button.button,.woocommerce input.button,.woocommerce-page input.button{color:#48a718}.footer-widget h4{color:#48a718}.et-search-form,.nav li ul,.et_mobile_menu,.footer-widget li:before,.et_pb_pricing li:before,blockquote{border-color:#48a718}.et_pb_counter_amount,.et_pb_featured_table .et_pb_pricing_heading,.et_quote_content,.et_link_content,.et_audio_content,.et_pb_post_slider.et_pb_bg_layout_dark,.et_slide_in_menu_container{background-color:#48a718}.container, .et_pb_row, .et_pb_slider .et_pb_container, .et_pb_fullwidth_section .et_pb_title_container, .et_pb_fullwidth_section .et_pb_title_featured_container, .et_pb_fullwidth_header:not(.et_pb_fullscreen) .et_pb_fullwidth_header_container {max-width:1150px}.et_boxed_layout #page-container,.et_fixed_nav.et_boxed_layout #page-container #top-header,.et_fixed_nav.et_boxed_layout #page-container #main-header,.et_boxed_layout #page-container .container,.et_boxed_layout #page-container .et_pb_row{max-width:1310px}a{color:#48a718}#top-header,#et-secondary-nav li ul{background-color:#48a718}.et_header_style_centered .mobile_nav .select_page,.et_header_style_split .mobile_nav .select_page,.et_nav_text_color_light #top-menu>li>a,.et_nav_text_color_dark #top-menu>li>a,#top-menu a,.et_mobile_menu li a,.et_nav_text_color_light .et_mobile_menu li a,.et_nav_text_color_dark .et_mobile_menu li a,#et_search_icon:before,.et_search_form_container input,span.et_close_search_field:after,#et-top-navigation .et-cart-info{color:#fff}.et_search_form_container input::-moz-placeholder{color:#fff}.et_search_form_container input::-webkit-input-placeholder{color:#fff}.et_search_form_container input:-ms-input-placeholder{color:#fff}#main-header .nav li ul a{color:rgba(0,0,0,.65)}#top-menu li a{font-size:13px}body.et_vertical_nav .container.et_search_form_container .et-search-form input{font-size:13px!important}#top-menu li a,.et_search_form_container input{font-weight:bold;font-style:normal;text-transform:uppercase;text-decoration:none}.et_search_form_container input::-moz-placeholder{font-weight:bold;font-style:normal;text-transform:uppercase;text-decoration:none}.et_search_form_container input::-webkit-input-placeholder{font-weight:bold;font-style:normal;text-transform:uppercase;text-decoration:none}.et_search_form_container input:-ms-input-placeholder{font-weight:bold;font-style:normal;text-transform:uppercase;text-decoration:none}#top-menu li.current-menu-ancestor>a,#top-menu li.current-menu-item>a,.et_color_scheme_red #top-menu li.current-menu-ancestor>a,.et_color_scheme_red #top-menu li.current-menu-item>a,.et_color_scheme_pink #top-menu li.current-menu-ancestor>a,.et_color_scheme_pink #top-menu li.current-menu-item>a,.et_color_scheme_orange #top-menu li.current-menu-ancestor>a,.et_color_scheme_orange #top-menu li.current-menu-item>a,.et_color_scheme_green #top-menu li.current-menu-ancestor>a,.et_color_scheme_green #top-menu li.current-menu-item>a{color:#48a718}#main-footer{background-color:#211d1c}#main-footer .footer-widget h4{color:#fff}.footer-widget li:before{border-color:#fff}#footer-bottom{background-color:#1d1715}#footer-info,#footer-info a{color:#868686}#footer-info{font-size:13px}@media only screen and (min-width:981px ){.et-fixed-header#top-header,.et-fixed-header#top-header #et-secondary-nav li ul{background-color:#48a718}.et-fixed-header #top-menu li a{font-size:13px}.et-fixed-header #top-menu a,.et-fixed-header #et_search_icon:before,.et-fixed-header #et_top_search .et-search-form input,.et-fixed-header .et_search_form_container input,.et-fixed-header .et_close_search_field:after,.et-fixed-header #et-top-navigation .et-cart-info{color:#000!important}.et-fixed-header .et_search_form_container input::-moz-placeholder{color:#000!important}.et-fixed-header .et_search_form_container input::-webkit-input-placeholder{color:#000!important}.et-fixed-header .et_search_form_container input:-ms-input-placeholder{color:#000!important}.et-fixed-header #top-menu li.current-menu-ancestor>a,.et-fixed-header #top-menu li.current-menu-item>a{color:#48a718!important}.et-fixed-header#top-header a{color:#212121}}@media only screen and (min-width:1437px){.et_pb_row{padding:28px 0}.et_pb_section{padding:57px 0}.single.et_pb_pagebuilder_layout.et_full_width_page .et_post_meta_wrapper{padding-top:86px}.et_pb_section.et_pb_section_first{padding-top:inherit}.et_pb_fullwidth_section{padding:0}}@media only screen and (max-width:980px ){.et_header_style_centered .mobile_nav .select_page,.et_header_style_split .mobile_nav .select_page,.et_mobile_menu li a,.mobile_menu_bar:before,.et_nav_text_color_light #top-menu>li>a,.et_nav_text_color_dark #top-menu>li>a,#top-menu a,.et_mobile_menu li a,#et_search_icon:before,#et_top_search .et-search-form input,.et_search_form_container input,#et-top-navigation .et-cart-info{color:#161616}.et_close_search_field:after{color:#161616!important}.et_search_form_container input::-moz-placeholder{color:#161616}.et_search_form_container input::-webkit-input-placeholder{color:#161616}.et_search_form_container input:-ms-input-placeholder{color:#161616}}</style>
<style class="et_heading_font">h1,h2,h3,h4,h5,h6{font-family:'Bitter',Georgia,"Times New Roman",serif}</style>
<style class="et_body_font">body,input,textarea,select{font-family:'Source Sans Pro',Helvetica,Arial,Lucida,sans-serif}</style>
<style class="et_primary_nav_font">#main-header,#et-top-navigation{font-family:'Source Sans Pro',Helvetica,Arial,Lucida,sans-serif}</style>
<style id="module-customizer-css"></style>
<link href="https://assets.foodieorderwebsites.com/tuttopizzapasta/favicon.ico" rel="shortcut icon"/> <style type="text/css">.recentcomments a{display:inline!important;padding:0!important;margin:0!important}</style>
<style id="wp-custom-css" type="text/css">._home_contact_form{margin:0 auto}._home_contact_form:after{content:"";display:block;clear:both}._home_contact_form input[type="text"],._home_contact_form input[type="password"],._home_contact_form input[type="tel"],._home_contact_form input[type="email"],._home_contact_form input.text,._home_contact_form input.title,._home_contact_form textarea,._home_contact_form select{padding:8px 20px;border:1px solid #bbb;color:#4e4e4e;background-color:#fff;width:100%;border-radius:1px;font-size:16px;height:48px}._home_contact_form .mauticform-errormsg{color:#f31414;font-size:12px}.mauticform-has-error input{border:1px solid red!important}.submit_button{text-align:center}.submit_button button{color:#fff;background:#48a718;border:0;border-radius:4px;font-size:20px;text-transform:uppercase;padding:8px 10px;width:100%;cursor:pointer;height:48px}.submit_button button:hover{opacity:.8;cursor:pointer;color:#fff;background-color:#48a718}._col_2,._col_1{position:relative;margin-bottom:20px}.mauticform-label{position:absolute;top:14px;left:22px;font-weight:500;font-size:16px}._col_captcha input[type="text"]{padding-left:130px}._col_2,_col_month,._col_year,_col_day,._col_captcha,._col_submit{position:relative;margin-bottom:20px}._col_1.hr{border-top:1px solid #ccc;margin-left:10px;margin-right:10px;margin:20px 10px 40px;width:96%}.birthday_title{font-size:16px;color:#272727;font-weight:500}@media only screen and (min-width:981px){._col_2{width:50%;padding:0 10px;display:inline-block;float:left}._col_month,._col_year{width:30%;padding:0 10px;display:inline-block;float:left}._col_day{width:40%;padding:0 10px;display:inline-block;float:left}._col_captcha{width:70%;padding:0 10px;display:inline-block;float:left}._col_submit{width:30%;padding:0 10px;display:inline-block;float:right}._col_1{width:100%;padding:0 10px;float:left}.submit_button{text-align:right}}.fdtitle h3 strong,.fdtitle h3 span{font-family:'Roboto',Helvetica,Arial,Lucida,sans-serif}@media only screen and (min-width:981px){.et_header_style_left #et-top-navigation,.et_header_style_split #et-top-navigation{padding-top:41px}.et_header_style_left .logo_container{height:auto!important;width:auto!important}#logo{max-height:75px!important;margin:0;width:auto!important;max-width:350px!important}#top-menu li{padding-right:20px!important}.et_fixed_nav #main-header,.et_fixed_nav #top-header{top:30px!important}.et_fixed_nav #main-header.et-fixed-header{top:0!important}#main-header.et-fixed-header{min-height:75px!important}#headeroptions{top:30px!important}#headeroptions .socialiconlst{margin-left:10px}.et-fixed-header #headeroptions{top:15px!important}.et_header_style_left .et-fixed-header #et-top-navigation,.et_header_style_split .et-fixed-header #et-top-navigation{padding-top:25px}#et-main-area{margin-top:-61px}#top-menu li a{font-size:14px}}.logo_container a{background-repeat:no-repeat;background-position:-1000px -2000px;display:-ms-flexbox;display:-webkit-flex;display:flex;-ms-flex-align:center;-webkit-align-items:center;-webkit-box-align:center;width:350px;height:75px}.et-fixed-header .logo_container{margin-top:0!important}.et-fixed-header .logo_container a{display:inline-block!important;margin-top:0;display:block;background-size:contain;background-position:center left;width:350px;height:60px}@media only screen and (max-width:767px){#headeroptions{padding-right:0!important}#main-header .container{padding:0 10px!important}#main-header .container.et_menu_container .logo_container a{position:absolute;top:5px;height:45px;width:180px;display:block;background-size:contain;background-position:center}#logo.sticky-logo-rec,#logo.sticky-logo{display:inline-block;margin:0;padding:0;max-height:45px}#logo.sticky-logo-rec,#logo.sticky-logo{display:block;margin-top:0!important}}span.logo_helper{display:none}</style>
<link href="https://fonts.googleapis.com/css2?family=Roboto:wght@400;700&amp;display=swap" rel="stylesheet"/>
<link href="https://fonts.googleapis.com/css2?family=Montserrat:wght@500&amp;display=swap" rel="stylesheet"/>
<link href="https://fonts.googleapis.com/css2?family=Source+Sans+Pro&amp;display=swap" rel="stylesheet"/>
<link href="//cdn.jsdelivr.net/npm/slick-carousel@1.8.1/slick/slick.css" rel="stylesheet" type="text/css"/>
<script src="//cdn.jsdelivr.net/npm/slick-carousel@1.8.1/slick/slick.min.js" type="text/javascript"></script>
<style type="text/css">body.home .et_pb_section_0{font-size:35px}#main-content .container:before{background:transparent}#headeroptions li a.orderbtn,.big-order-btn a,.small-order-btn a,.newsletter a{background:#48a718!important;color:#fff!important;text-shadow:0 1px 1px #000}#headeroptions li a.orderbtn:hover,.big-order-btn a:hover,.small-order-btn a:hover,.newsletter a:hover{background:#5fd425!important}#top-menu li.current-menu-ancestor>a,#top-menu li.current-menu-item>a,.et_color_scheme_red #top-menu li.current-menu-ancestor>a,.et_color_scheme_red #top-menu li.current-menu-item>a,.et_color_scheme_pink #top-menu li.current-menu-ancestor>a,.et_color_scheme_pink #top-menu li.current-menu-item>a,.et_color_scheme_orange #top-menu li.current-menu-ancestor>a,.et_color_scheme_orange #top-menu li.current-menu-item>a,.et_color_scheme_green #top-menu li.current-menu-ancestor>a,.et_color_scheme_green #top-menu li.current-menu-item>a,.et-fixed-header #top-menu li.current-menu-ancestor>a,.et-fixed-header #top-menu li.current-menu-item>a,ul#top-menu li a:hover{color:#5fd425!important}#main-content .et_pb_section_0.et_pb_with_background h1{text-shadow:0 0 50px rgba(0,0,0,1) , 0 0 25px rgba(0,0,0,1) , 0 0 10px rgba(0,0,0,1) , 0 3px 3px rgba(0,0,0,.3)}@media only screen and (max-width:767px){#main-header .container.et_menu_container .logo_container a{width:150px}}#top-menu li.current-menu-item a li a{border-bottom:1px solid;padding-bottom:5px!important}#top-menu li.current-menu-item li>a{border-bottom:none!important}#top-menu li.current-menu-item li.current-menu-item>a{color:#48a718!important}.et_pb_section_0.et_pb_with_background.et_section_regular:after{display:block;height:140px;position:absolute;z-index:999;background: #2525257d;width:100%;content:" ";top:0;background:linear-gradient(180deg,rgba(0,0,0,1) 16%,rgba(5,33,38,0) 100%)}.location_row h1{color:#000!important}.et_pb_contact_submit{color:!important}.et_pb_section_0.et_pb_with_background.et_section_regular:after{background: linear-gradient(180deg, #000000FF 16%, #00000000 100%)}#top-menu ul.sub-menu{background:transparent;border:none!important;box-shadow:none}#top-menu ul.sub-menu li{background: #000000cc;border-bottom:1px solid #464646;padding:0 10px;width:200px}#top-menu ul.sub-menu li a{color:#fff;font-size:13px;line-height:35px}#top-menu .sub-menu li.menu-item-has-children>a:first-child:after{left:-20px!important;right:auto;top:0}#top-menu .sub-menu li.menu-item-has-children.current-menu-item>a:first-child:after{content:"2"}#top-menu ul.sub-menu li.menu-item-has-children{text-indent:15px}#top-menu ul.sub-menu ul.sub-menu{position:initial;display:block;width:100%;visibility:visible;display:none;padding:0 0 0 10px}#top-menu ul.sub-menu ul.sub-menu.clicked{display:block;padding-bottom:10px}#top-menu ul.sub-menu li ul.sub-menu li{width:100%;display:block}#top-menu ul.sub-menu li ul{opacity:1}#top-menu ul.sub-menu li ul.sub-menu li{background:transparent;padding:0;border:none}#top-menu ul.sub-menu li .sub-menu li a{border:none;padding:0;width:auto;text-indent:0;padding-left:15px!important;text-transform:uppercase;font-size:13px;line-height:17px}#top-menu ul.sub-menu li.current-menu-item a{border:none!important}#top-menu ul.sub-menu li .sub-menu li a:before{content:".";position:absolute;top:-7px;left:5px;font-size:20px}#top-header #et-info{display:block;float:none;text-align:center}@media only screen and (min-width:981px){#top-menu.extended_navigation li{padding-right:19px!important}#top-menu.extended_navigation li a{font-size:13px!important}#top-header #et-info{float:right}}.et_pb_gallery_0 .et_overlay:before,#loading i{color:#48a718!important}body h1{font-size:60px;line-height:110%}body h2{font-size:52px;line-height:110%}body h3{font-size:44px;line-height:110%}body h4{font-size:36px;line-height:110%}body h5{font-size:28px;line-height:110%}body h6{font-size:20px;line-height:110%}@media only screen and (max-width:981px){body h1{font-size:40px;line-height:110%}body h2{font-size:35px;line-height:110%}body h3{font-size:30px;line-height:110%}body h4{font-size:26px;line-height:110%}body h5{font-size:22px;line-height:110%}body h6{font-size:18px;line-height:110%}}body h1 span{display:inline-block}li.li_social_icon{margin:0 10px}li.li_social_icon.show_hidden{display:none!important}#headeroptions li{float:left}li.li_social_icon{line-height:35px}#social_links_list{position:relative;top:20px}#social_links_list a{clear:both;margin:0 auto;display:block;padding:10px;width:500px;max-width:90%;text-align:left;color:#000}#social_links_list a i{background:#0d0d0d none repeat scroll 0 0;border-radius:50%;font-size:17px;height:35px;margin-right:10px;padding:10px;text-align:center;width:35px;color:#fff}li.li_social_icon span{display:none}.mfp-wrap .mfp-container #close_social_poup{z-index:9999;color:#000;font-size:3em;top:0;right:0;opacity:1;background:#fff}.mfp-wrap .mfp-container #close_social_poup:hover{background:#fff!important;color:#999!important}#social_holder{background:#fff;width:400px;max-width:100%;display:block;margin:0 auto;padding-bottom:40px;position:relative;border:2px solid #000}#social_holder #social_pre_holder{position:absolute;width:100%}#social_links_block{display:block;text-align:center}#social_links_list a:hover{color:#48a718}#social_links_list a:hover i{background:#48a718}#social_popup_cont{display:none}@media only screen and (max-width:767px){#headeroptions li.li_social_icon{line-height:45px}}#footer-widgets li.li_social_icon{list-style:none;margin-left:0;display:inline-block}#footer-widgets .footer-widget li.li_social_icon:before{display:none}#footer-widgets .footer-widget li.li_social_icon i{color:#fff;font-size:26px}div#restaurant_logo a img#logodsk{display:inline-flex}div#restaurant_logo a img#logombl{display:none}#main-header.et-fixed-header div#restaurant_logo a img#logodsk{display:none}#main-header.et-fixed-header div#restaurant_logo a img#logombl{display:inline-flex}div#restaurant_logo a{display:inline-flex;flex-direction:column}div#restaurant_logo a img{max-width:100%;max-height:85px;display:inline-flex}div#restaurant_logo.wd2 img{height:70px;max-width:none}.et-fixed-header div#restaurant_logo.sq1,div#restaurant_logo.sq1{height:80px}div#restaurant_logo.sq1 img{max-height:75px}.et-fixed-header div#restaurant_logo.sq2,div#restaurant_logo.sq2{height:100px;top:0}div#restaurant_logo.sq2 img{max-height:100px}.et-fixed-header div#restaurant_logo.sq3,div#restaurant_logo.sq3{height:125px;top:0}div#restaurant_logo.sq3 img{max-height:125px}#mbl_menu{display:none}#nav_mnu_mbl{display:none}div#restaurant_logo{position:absolute;z-index:1;height:85px;display:flex;align-items:center;justify-content:center;top:8px;max-width:250px;transition:all .3s ease-in 0s;-webkit-transition:all .3s ease-in 0s}.et-fixed-header div#restaurant_logo{height:65px;top:0}body.has_phone_bar{padding-top:45px}body.has_phone_bar #phone_address_bar{top:0;position:absolute;width:100%;height:45px;text-align:center;z-index:99999;background: }body.has_phone_bar #top_phone,body.has_phone_bar #top_address{display:inline-block;line-height:45px;font-size:17px;color: }body.has_phone_bar #top_phone{}body.has_phone_bar #top_phone span{display:none}body.has_phone_bar #top_address{margin-right:50px}#mbl_menu_powered_by a span{margin-left:10px}div#mbl_menu_powered_by{background:#1d1715;width:100%;height:65px;text-align:center;padding-bottom:10px}#mbl_menu div#mbl_menu_powered_by{margin-top:-80px;background:#292929;height:80px;padding-bottom:10px;padding-top:10px}#mbl_menu_powered_by a span{background-image:url(https://assets.foodieorderwebsites.com/utils/FoodieOrderLogo.svg);background-repeat:no-repeat;font-size:0;width:100px;display:inline-block;background-position:center 10px}#mbl_menu_powered_by a{height:60px;background-position:right;margin:0 auto;line-height:60px;font-family:Montserrat;color:#9f9f9f;display:block;text-align:center;font-size:9px}#mbl_menu div#mbl_menu_powered_by a{color:#fff}.home_review{padding:5px}.review_holder{background:#dbd4d2;padding:30px;height:100%}.home_review h3{font-size:20px;text-align:center;font-weight:bold}.home_review .stars{text-align:center;color:#fff;font-size:20px}.home_review .stars i{margin-right:3px}.home_review p{font-size:16px;text-align:center}.home_review em{text-align:center;display:block}.home_review h4{font-size:16px;font-weight:bold;text-align:center;margin-top:15px}.review_logo_Google{background:url(https://assets.foodieorderwebsites.com/global/Facebook-Logo-White.png)}.review_logo_Facebook{background:url(https://assets.foodieorderwebsites.com/global/Google-Logo-White.png)}.review_logo_Yelp{background:url(https://assets.foodieorderwebsites.com/global/Yelp-Logo-White.png)}.home_review em{text-align:center;display:block;max-width:300px;background-size:contain;background-repeat:no-repeat;background-position:center;font-size:0;margin-top:20px}button.slick-prev.slick-arrow,button.slick-next.slick-arrow{position:absolute;top:50%;margin-top:-18px;width:36px;height:36px;border-radius:20px;border:none;font-size:0;z-index:5}button.slick-prev.slick-arrow{left:-70px}button.slick-next.slick-arrow{right:-70px}button.slick-next.slick-arrow:before{content:">";display:block;font-size:20px;line-height:35px;color:#fff;font-weight:bold;font-family:monospace;font-weight:bold}button.slick-prev.slick-arrow:before{content:"<";display:block;font-size:20px;line-height:35px;color:#fff;font-weight:bold;font-family:monospace;font-weight:bold}@media only screen and (max-width:981px){div#restaurant_logo{align-items:center;justify-content:left;padding-right:210px}div#restaurant_logo a{align-items:center;justify-content:center}div#restaurant_logo a img#logodsk{display:none}div#restaurant_logo a img#logombl{display:inline-flex}div#restaurant_logo{top:-13px;width:100%;max-width:none;left:5px}body.has_phone_bar #phone_address_bar{top:80px;background:transparent;position:fixed}body.has_phone_bar:before{content:" ";background: ;height:45px;top:80px;position:fixed;width:100%;z-index:10}div#restaurant_logo{height:80px}div#restaurant_logo a img{max-height:75px}body.restarurant_logo_style_sq1 #phone_address_bar,body.restarurant_logo_style_sq2 #phone_address_bar,body.restarurant_logo_style_sq3 #phone_address_bar{position:fixed;text-align:right;padding-right:10px}body.has_phone_bar #phone_address_bar #top_address{display:none}body.has_phone_bar #phone_address_bar #top_phone span{display:inline-block;padding-right:10px}body.has_phone_bar.showing_mbl_menu #phone_address_bar{display:none}body.home #main-header #restaurant_logo{padding-right:150px}body.home #main-header.et-fixed-header #restaurant_logo{padding-right:210px}.et-fixed-header div#restaurant_logo{height:80px;top:-13px}.et-fixed-header div#restaurant_logo.sq3,div#restaurant_logo.sq3{top:-10px}.et-fixed-header div#restaurant_logo.sq2,div#restaurant_logo.sq2{top:-10px}#headeroptions li.li_social_icon{display:none!important}#mbl_menu{display:block}#et-top-navigation{float:right}#main-header .container.et_menu_container .logo_container a{width:155px}.et_non_fixed_nav.et_transparent_nav #main-header,.et_fixed_nav #main-header{height:80px;padding-bottom:16px;padding-top:14px}div#et-top-navigation{float:right}body.home #headeroptions{opacity:0;transition:all .3s ease-in .3s;-webkit-transition:all .3s ease-in 0s}body.home #main-header.et-fixed-header #headeroptions{opacity:1;transition:all .3s ease-in .3s;-webkit-transition:all .3s ease-in .3s}#headeroptions{float:right;position:absolute;right:50px;z-index:10}#headeroptions li{margin-left:0}.nav-toggle-btn{display:inline-block;font-weight:300;text-align:center;white-space:nowrap;vertical-align:middle;cursor:pointer;-webkit-user-select:none;-moz-user-select:none;-ms-user-select:none;user-select:none;border:1px solid transparent;padding:1rem 2rem;font-size:1rem;line-height:1.5;border-radius:2px;-webkit-transition:all .2s ease-in-out 0s;transition:all .2s ease-in-out 0s;padding:0 10px;background-color:transparent;height:45px}.nav-toggle-btn span{width:25px;height:3px;-webkit-transform-origin:50% 50%;-ms-transform-origin:50% 50%;transform-origin:50% 50%;-webkit-transition:all .2s ease-in-out 0s;transition:all .2s ease-in-out 0s;display:block;background-color:#1e1e1e;margin-bottom:5px}.et_non_fixed_nav.et_transparent_nav #main-header,.et_fixed_nav #main-header{background-color:#fff!important}.nav-toggle-btn.isactive span:nth-of-type(2) {-webkit-transform:translateY(8px) rotate(45deg);-ms-transform:translateY(8px) rotate(45deg);transform:translateY(8px) rotate(45deg)}.nav-toggle-btn.isactive span:nth-of-type(3) {-webkit-transform:translateY(8px);-ms-transform:translateY(8px);transform:translateY(8px);opacity:0}.nav-toggle-btn.isactive span:nth-of-type(4) {-webkit-transform:translateY(-8px) rotate(-45deg);-ms-transform:translateY(-8px) rotate(-45deg);transform:translateY(-8px) rotate(-45deg)}.nav-toggle-btn.isactive span{background:#292929}#mbl_navigation_holder{padding:4rem .9375rem 1.5rem}div#mbl_nav_main_content{min-height:100%;padding-bottom:80px}div#mbl_navigation_holder li{display:block;text-align:center;padding:.5em .5em;font-size:20px}div#mbl_navigation_holder li ul li{padding:.5em .2em}div#mbl_navigation_holder li ul li:last-child{padding-bottom:0}div#mbl_navigation_holder li.current_page_item{}div#mbl_navigation_holder li.current_page_item a{position:relative}div#mbl_navigation_holder li.order_online a{position:relative}div#mbl_navigation_holder li.order_online a:after{background:#48a718;height:2px;width:100%;content:" ";position:absolute;bottom:-5px;left:0}div#mbl_navigation_holder ul li .sub-menu{display:none}div#mbl_navigation_holder ul li .sub-menu.show_childrens{display:block}div#mbl_navigation_holder ul li.menu-item-has-children>a:after{font-family:"ETmodules";font-weight:800;content:"3"}div#mbl_navigation_holder ul li.menu-item-has-children>a.sub-menu-opened:after{content:"2"}div#mbl_navigation_holder li a.sub-menu-opened{color:#48a718}div#mbl_navigation_holder li a{text-transform:uppercase;font-family:Montserrat,Arial;color:#1e1e1e;font-weight:bold;font-size:1.1rem;line-height:1.2}div#mbl_navigation_holder li ul.sub-menu a{font-size:13px}#nav_mnu_mbl{display:block;position:fixed;z-index:9999;right:0;top:20px}#mbl_menu{position:fixed;bottom:100%;left:0;z-index:2000;width:100%;-webkit-transform:translateY(0);-ms-transform:translateY(0);transform:translateY(0);-webkit-transition:transform .3s cubic-bezier(.77,0,.175,1) 0s;transition:transform .3s cubic-bezier(.77,0,.175,1) 0s;background-color:#fff;overflow:hidden;visibility:hidden}#mbl_menu.open{-webkit-transform:translateY(100%);-ms-transform:translateY(100%);transform:translateY(100%);overflow:auto;-webkit-overflow-scrolling:touch}#mbl_menu.shownavmenu{visibility:visible}div#mbl_social_holder{width:330px;max-width:90%;margin:0 auto;border-top:2px solid #d4d4d4;padding-top:20px}div#mbl_social_holder ul{text-align:center}div#mbl_social_holder li{display:inline-block;margin:0}div#mbl_social_holder li a{color:#1e1e1e;font-size:20px;padding:10px}.et_fixed_nav #main-header{z-index:1000}body.showing_mbl_menu .userway.userway_p5{padding-bottom:120px}body.showing_mbl_menu #mbl_menu_holder{height:100vh;overflow-y:hidden;position:fixed;z-index:9999;width:100%;top:0}body.showing_mbl_menu .et_pb_scroll_top.et-pb-icon{display:none!important}.et_pb_section_0.et_pb_with_background.et_section_regular:after{z-index:12;height:50px}.page_title.et_pb_section .et_pb_row{z-index:20}.et_pb_section{padding:30px 0}#slidecontp{padding-top:90px}#main-footer{padding-top:0;position:static}#footer_navigation_links{display:none}#footer-bottom li.li_social_icon{float:none}button.slick-prev.slick-arrow,button.slick-next.slick-arrow{width:30px;height:30px;margin-top:-15px}button.slick-prev.slick-arrow:before,button.slick-next.slick-arrow:before{line-height:30px}button.slick-prev.slick-arrow{left:-29px}button.slick-next.slick-arrow{right:-29px}}div#welcome-sec{max-width:100%;overflow:hidden}.et_pb_scroll_top.et-pb-icon{bottom:10px;right:10px;height:45px;width:45px;border-radius:0}body.page-template-menu-page #main-content .container{padding-top:0}.et_pb_section_parallax .et_pb_parallax_css,.et_pb_slides .et_parallax_bg.et_pb_parallax_css{background-attachment:initial}#main-header.et-fixed-header{background-color:#fff!important}@media only screen and (min-width:981px){body.has_phone_bar.et_fixed_nav #main-header{top:75px!important}body.has_phone_bar.et_fixed_nav #main-header.et-fixed-header{top:0!important}#footer_pwrd_by.force_bottom_position{position:absolute;width:100%;bottom:0}}.backtotop{z-index:1}.cookieconsent{display:block;position:fixed;width:100%;bottom:0;left:0;z-index:99999999999;text-align:left;background:#fff;padding:1rem;line-height:35px;font-size:16px}.cookieconsent a{float:right!important;color:#4679a0}#footer-bottom li.li_social_icon a i{font-size:33px;color:#fff}#footer-bottom #social_links{text-align:center}#footer-bottom li.li_social_icon{display:inline-block}#footer-bottom #social_links.full_width_menu{width:100%;text-align:center}#footer-bottom #social_links.full_width_menu li.li_social_icon{display:inline-block}#footer_navigation_links{float:right}#footer_navigation_links li{margin-left:20px;float:left}#footer_navigation_links li a{font-size:15px;line-height:28px;color:#fff;text-transform:uppercase;font-weight:bold}div#facebook_home_container{float:left;width:100%;clear:both;margin:0}div#facebook_home_container h5{text-align:center;font-size:16px}div#facebook_home{display:block;float:left;width:100%}div#facebook_home .instagram_image{float:left;width:33.3%;overflow:hidden}div#facebook_home .instagram_image a{display:block}div#facebook_home .instagram_image a:hover{opacity:.8}@media only screen and (min-width:982px){.et_fixed_nav.et_show_nav #page-container{padding-top:60px!important}body .userway.userway_p5,body.page-template .userway.userway-the-big.userway_p5{bottom:90px}#main-footer{position:fixed;bottom:0;width:100%;z-index:99999}#footer-bottom li.li_social_icon{float:left;margin-left:0;margin-right:20px}#footer-bottom #social_links.full_width_menu li.li_social_icon{float:none;margin-left:10px;margin-right:10px}.et_fixed_nav.et_show_nav #page-container{padding-top:60px}ul#top-menu{margin-top:30px;float:right}#top-menu li{line-height:45px;padding-right:40px!important}#top-menu ul.sub-menu{padding:0}#top-menu ul.sub-menu li{display:block}#top-menu li a,.et-fixed-header #top-menu li a{font-size:19px;text-transform:uppercase;font-weight:bold}#headeroptions li a.orderbtn{height:45px;padding:0 15px;line-height:45px;font-size:17px}#main-header.et-fixed-header ul#top-menu{margin-top:10px}#main-header.et-fixed-header #headeroptions{top:10px!important}#main-header.et-fixed-header div#restaurant_logo a img#logombl{max-height:70px}div#facebook_home_container{margin:40px 0}div#facebook_home_container h5{margin-bottom:20px}div#facebook_home .instagram_image{width:20%;height:auto}div#facebook_home .instagram_image:nth-of-type(6) {display:none}}@media only screen and (min-width:1600px){.container{max-width:1600px}div#restaurant_logo{max-width:350px}div#restaurant_logo a img{max-height:125px}#top-menu li a{font-size:19px}#headeroptions li a.orderbtn{font-size:19px}}div#about_us_home{position:relative;overflow:hidden;padding:0}div#about_us_home_col_2{height:100%;position:absolute}#about_us_home_col_1{float:right;margin-right:0}.et_fixed_nav.et_show_nav #page-container{margin-top:0!important}.et_pb_contact_main_title{font-size:55px;margin-bottom:30px}@media only screen and (max-width:981px){div#about_us_home_col_2{position:initial;display:block;min-height:250px;max-width:400px;margin:0 auto!important;float:none;clear:both}.et_pb_contact_main_title{font-size:45px}}div#contact_form{width:580px;max-width:100%;margin:0 auto;text-align:center}</style>
<script type="text/javascript">(function($){$(window).load(function(){$("#loading").fadeOut("slow");});})(jQuery);</script>
<script type="application/ld+json">{"@context":"http:\/\/schema.org","@type":"Organization","name":"Tutto Pizza &amp; Pasta","image":"https:\/\/assets.foodieorderwebsites.com\/tuttopizzapasta\/Logo.jpg","@id":"https:\/\/tuttopizzapasta.com","url":"https:\/\/tuttopizzapasta.com","location":[{"@type":"Restaurant","parentOrganization":{"name":"Tutto Pizza &amp; Pasta"},"name":"Tutto Pizza &amp; Pasta - Key Biscayne","image":"https:\/\/assets.foodieorderwebsites.com\/tuttopizzapasta\/Logo.jpg","telephone":"(305) 361-2224","url":"https:\/\/tuttopizzapasta.com\/key-biscayne\/","priceRange":"$$","address":{"@type":"PostalAddress","addressLocality":"Key Biscayne","addressRegion":"Florida","postalCode":"33149","streetAddress":"328 Crandon Boulevard"},"geo":{"@type":"GeoCoordinates","latitude":"25.6955126","longitude":"-80.1638773"},"openingHoursSpecification":[{"type":"OpeningHoursSpecification","dayOfWeek":["http:\/\/schema.org\/Sunday","http:\/\/schema.org\/Monday","http:\/\/schema.org\/Tuesday","http:\/\/schema.org\/Wednesday","http:\/\/schema.org\/Thursday"],"opens":"11:30:00","closes":"22:30:00"},{"type":"OpeningHoursSpecification","dayOfWeek":["http:\/\/schema.org\/Friday","http:\/\/schema.org\/Saturday"],"opens":"11:30:00","closes":"23:00:00"}]}]}</script>
</head>
<body class="home page-template page-template-fullwidthpage page-template-fullwidthpage-php page page-id-70 restarurant_logo_style_sq3 et_pb_button_helper_class et_fixed_nav et_show_nav et_cover_background et_pb_gutter et_pb_gutters3 et_primary_nav_dropdown_animation_fade et_secondary_nav_dropdown_animation_fade et_pb_footer_columns2 et_header_style_left et_pb_pagebuilder_layout et_right_sidebar et_divi_theme unknown">
<div id="mbl_menu_holder">
<div id="mbl_menu">
<div id="mbl_nav_main_content">
<div id="mbl_navigation_holder"><nav id="site-nav"><ul></ul></nav></div>
<div id="mbl_social_holder"></div>
</div>
<div id="mbl_menu_powered_by"><a href="https://foodieorder.com/?utm_source=tuttopizzapasta-com&amp;utm_medium=referrer&amp;utm_campaign=poweredby-mbl" target="_blank">POWERED BY <span>Foodie Order</span></a></div>
</div>
</div>
<!-- Loading -->
<div id="loading">
<i class="fa fa-spinner fa-pulse fa-3x fa-fw"></i>
</div>
<!-- Loading end -->
<div id="page-container">
<div id="phone_address_bar">
</div>
<div id="nav_mnu_mbl">
<button aria-expanded="false" class="nav-toggle-btn" style="" type="button"><span class="sr-only">Toggle Navigation</span><span></span><span></span><span></span></button>
</div>
<header data-height-onload="65" id="main-header">
<div class="container clearfix et_menu_container">
<ul id="headeroptions">
<li> <div class="textwidget"><a class="orderbtn" href="https://tuttopizzapasta.foodieordersecure.com/" target="_blank"> Order Online</a>
</div>
</li> <?php // if (get_option("show_social_on_header","options") !== false) {echo do_shortcode("[social-network-links]"); }?>
</ul>
<div class="sq3" id="restaurant_logo">
<a href="https://tuttopizzapasta.com/">
<img alt="Tutto Pizza &amp; Pasta" id="logodsk" src="https://assets.foodieorderwebsites.com/tuttopizzapasta/Logo.png"/>
<img alt="Tutto Pizza &amp; Pasta" id="logombl" src="https://assets.foodieorderwebsites.com/tuttopizzapasta/Logo.png"/>
</a>
</div>
<ul class="nav" id="top-menu"><li class="menu-item menu-item-type-custom menu-item-object-custom current-menu-item current_page_item menu-item-631" id="menu-item-631"><a href="/#welcome-sec">About Us</a></li>
<li class="menu-item menu-item-type-custom menu-item-object-custom menu-item-has-children menu-item-1510" id="menu-item-1510"><a href="#">Beer &amp; Wine</a>
<ul class="sub-menu">
<li class="menu-item menu-item-type-post_type menu-item-object-page menu-item-1508" id="menu-item-1508"><a href="https://tuttopizzapasta.com/beer-wine/beer-selection/">Beer Selection</a></li>
<li class="menu-item menu-item-type-post_type menu-item-object-page menu-item-1509" id="menu-item-1509"><a href="https://tuttopizzapasta.com/beer-wine/__trashed/">Wine Selection</a></li>
</ul>
</li>
<li class="menu-item menu-item-type-post_type menu-item-object-page menu-item-87" id="menu-item-87"><a href="https://tuttopizzapasta.com/menu/">Menu</a></li>
<li class="menu-item menu-item-type-post_type menu-item-object-page menu-item-1471" id="menu-item-1471"><a href="https://tuttopizzapasta.com/catering/">Catering</a></li>
<li class="menu-item menu-item-type-post_type menu-item-object-page menu-item-1487" id="menu-item-1487"><a href="https://tuttopizzapasta.com/gallery/">Gallery</a></li>
<li class="menu-item menu-item-type-custom menu-item-object-custom menu-item-1764" id="menu-item-1764"><a href="https://tuttopizzapasta.com/key-biscayne/">Location</a></li>
<li class="menu-item menu-item-type-custom menu-item-object-custom current-menu-item current_page_item menu-item-463" id="menu-item-463"><a href="/#contact">CONTACT</a></li>
</ul>
</div> <!-- .container -->
<div class="et_search_outer">
<div class="container et_search_form_container">
<form action="https://tuttopizzapasta.com/" class="et-search-form" method="get" role="search">
<input class="et-search-field" name="s" placeholder="Search …" title="Search for:" type="search" value=""/> </form>
<span class="et_close_search_field"></span>
</div>
</div>
</header> <!-- #main-header -->
<div id="et-main-area">
<div class="tfullwidthpage" id="main-content">
<article class="post-70 page type-page status-publish hentry" id="post-70">
<div class="entry-content">
<div class="et_pb_section et_pb_section_parallax sliderpart et_pb_section_0 et_pb_with_background et_section_regular">
<div class="et_parallax_bg et_pb_parallax_css" style="background-image:url(https://assets.foodieorderwebsites.com/tuttopizzapasta/Home-MainBanner.jpg)"></div>
<div class=" et_pb_row et_pb_row_0" id="slidecontp">
<div class="et_pb_column et_pb_column_4_4 et_pb_column_0">
<div class="et_pb_text et_pb_module et_pb_bg_layout_light et_pb_text_align_center et-waypoint et_pb_animation_top my-text et_pb_text_0">
<h1>Authentic Italian Food</h1>
</div> <!-- .et_pb_text --><div class="et_pb_text et_pb_module et_pb_bg_layout_light et_pb_text_align_center et-waypoint et_pb_animation_top my-text et_pb_text_1">
<p class="description"></p><p>in Key Biscayne</p>
</div> <!-- .et_pb_text --><div class="et_pb_text et_pb_module et_pb_bg_layout_light et_pb_text_align_center et-waypoint et_pb_animation_top my-text et_pb_text_2">
<p><strong>Get 10% OFF your first online order.</strong></p>
</div> <!-- .et_pb_text --><div class="et_pb_text et_pb_module et_pb_bg_layout_light et_pb_text_align_center et-waypoint et_pb_animation_top my-text et_pb_text_3">
<p class="description"></p><p><strong>Use Code: WELCOME</strong></p>
</div> <!-- .et_pb_text --><div class="et_pb_text et_pb_module et_pb_bg_layout_light et_pb_text_align_center et_pb_text_4">
<div class="big-order-btn et_pb_animation_bottom et-animated et-waypoint"><a href="https://tuttopizzapasta.foodieordersecure.com/" target="_blank">Order Online</a></div>
</div> <!-- .et_pb_text -->
</div> <!-- .et_pb_column -->
</div> <!-- .et_pb_row -->
</div> <!-- .et_pb_section --><div class="et_pb_section welcome-sec et_pb_section_1 et_section_regular" id="welcome-sec">
<div class=" et_pb_row et_pb_row_1">
<div class="et_pb_column et_pb_column_4_4 et_pb_column_1">
<div class="et_pb_text et_pb_module et_pb_bg_layout_light et_pb_text_align_center welcome-title et_pb_text_5">
<h1>Welcome</h1>
<p class="description">
</p></div> <!-- .et_pb_text -->
</div> <!-- .et_pb_column -->
</div> <!-- .et_pb_row --><div class=" et_pb_row et_pb_row_2">
<div class="et_pb_column et_pb_column_1_2 et_pb_column_2">
<div class="et_pb_module et-waypoint et_pb_image et_pb_animation_left et_pb_image_0 et_always_center_on_mobile">
<img alt="" src="https://assets.foodieorderwebsites.com/tuttopizzapasta/Home-AboutUs.jpg"/>
</div><div class="et_pb_module et_pb_space et_pb_divider_0 et-hide-mobile"></div>
</div> <!-- .et_pb_column --><div class="et_pb_column et_pb_column_1_2 et_pb_column_3">
<div class="et_pb_text et_pb_module et_pb_bg_layout_light et_pb_text_align_justified et-waypoint et_pb_animation_right et_pb_text_6">
<p>Welcome to Tutto Pizza &amp; Pasta! Located in Galleria Mall in Key Biscayne, Florida, Tutto Pizza &amp; Pasta is a welcoming trattoria where one feels comfortable dining with the entire family. Yet, our casual elegance paired with our delicious menu and wine list makes us a perfect date spot as well!</p>
<p>From the Polenta served with wild mushroom, mascarpone cheese and white truffle oil to the handmade Cavatelli simply prepared with organic cherry tomatoes, olive oil garlic and basil, you taste the freshness in every bite of our dishes. “I try to use as many local and organic ingredients as I can find,” says owner and Executive chef, Joao “Juca” Oliveira. “I feel you can taste the difference.”</p>
<p>We pride ourselves in making our own pastas daily in our pasta factory located right outside the Island. Our breads, pizza dough and desserts are also prepared daily in-house.</p>
<p>We cook our pizzas and many of our entrees in our firewood-burning oven giving our dishes a truly special and authentic taste! From the Branzino in cape-butter, white wine lemon and parsley to the traditional Lasagna made with ground tenderloin, porcini mushrooms, and fresh mozzarella the firewood-burning oven really adds to the depth of flavor.</p>
<p>If you find yourself visiting Key Biscayne or the surrounding areas please stop by and join us for a meal. It will be our pleasure to have you!</p>
<p class="description">
</p></div> <!-- .et_pb_text -->
</div> <!-- .et_pb_column -->
</div> <!-- .et_pb_row -->
</div> <!-- .et_pb_section --><div class="et_pb_section et_pb_section_2 et_pb_with_background et_section_regular" id="our-dishes">
<div class=" et_pb_row et_pb_row_3 et_pb_gutters1">
<div class="et_pb_column et_pb_column_4_4 et_pb_column_4">
<div class="et_pb_text et_pb_module et_pb_bg_layout_light et_pb_text_align_center et_pb_text_7">
<h1>Our <strong>Dishes</strong></h1>
<p class="description">
</p></div> <!-- .et_pb_text --><div class="et_pb_module et_pb_gallery mpgallery et_pb_gallery_0 et_pb_gallery_grid et_pb_bg_layout_light clearfix">
<div class="et_pb_gallery_items et_post_gallery" data-per_page="10"><div class="et_pb_gallery_item et_pb_grid_item et_pb_bg_layout_light">
<div class="et_pb_gallery_image landscape">
<a href="https://assets.foodieorderwebsites.com/tuttopizzapasta/Home-OurDishes-1.jpg" title="Home-OurDishes-1">
<img alt="Home-OurDishes-1" src="https://assets.foodieorderwebsites.com/tuttopizzapasta/Home-OurDishes-1-400x284.jpg"/>
<span class="et_overlay"></span>
</a>
</div></div><div class="et_pb_gallery_item et_pb_grid_item et_pb_bg_layout_light">
<div class="et_pb_gallery_image landscape">
<a href="https://assets.foodieorderwebsites.com/tuttopizzapasta/Home-OurDishes-2.jpg" title="Home-OurDishes-2">
<img alt="Home-OurDishes-2" src="https://assets.foodieorderwebsites.com/tuttopizzapasta/Home-OurDishes-2-400x284.jpg"/>
<span class="et_overlay"></span>
</a>
</div></div><div class="et_pb_gallery_item et_pb_grid_item et_pb_bg_layout_light">
<div class="et_pb_gallery_image landscape">
<a href="https://assets.foodieorderwebsites.com/tuttopizzapasta/Home-OurDishes-3.jpg" title="Home-OurDishes-3">
<img alt="Home-OurDishes-3" src="https://assets.foodieorderwebsites.com/tuttopizzapasta/Home-OurDishes-3-400x284.jpg"/>
<span class="et_overlay"></span>
</a>
</div></div><div class="et_pb_gallery_item et_pb_grid_item et_pb_bg_layout_light">
<div class="et_pb_gallery_image landscape">
<a href="https://assets.foodieorderwebsites.com/tuttopizzapasta/Home-OurDishes-4.jpg" title="Home-OurDishes-4">
<img alt="Home-OurDishes-4" src="https://assets.foodieorderwebsites.com/tuttopizzapasta/Home-OurDishes-4-400x284.jpg"/>
<span class="et_overlay"></span>
</a>
</div></div><div class="et_pb_gallery_item et_pb_grid_item et_pb_bg_layout_light">
<div class="et_pb_gallery_image landscape">
<a href="https://assets.foodieorderwebsites.com/tuttopizzapasta/Home-OurDishes-5.jpg" title="Home-OurDishes-5">
<img alt="Home-OurDishes-5" src="https://assets.foodieorderwebsites.com/tuttopizzapasta/Home-OurDishes-5-400x284.jpg"/>
<span class="et_overlay"></span>
</a>
</div></div><div class="et_pb_gallery_item et_pb_grid_item et_pb_bg_layout_light">
<div class="et_pb_gallery_image landscape">
<a href="https://assets.foodieorderwebsites.com/tuttopizzapasta/Home-OurDishes-6.jpg" title="Home-OurDishes-6">
<img alt="Home-OurDishes-6" src="https://assets.foodieorderwebsites.com/tuttopizzapasta/Home-OurDishes-6-400x284.jpg"/>
<span class="et_overlay"></span>
</a>
</div></div><div class="et_pb_gallery_item et_pb_grid_item et_pb_bg_layout_light">
<div class="et_pb_gallery_image landscape">
<a href="https://assets.foodieorderwebsites.com/tuttopizzapasta/Home-OurDishes-7.jpg" title="Home-OurDishes-7">
<img alt="Home-OurDishes-7" src="https://assets.foodieorderwebsites.com/tuttopizzapasta/Home-OurDishes-7-400x284.jpg"/>
<span class="et_overlay"></span>
</a>
</div></div><div class="et_pb_gallery_item et_pb_grid_item et_pb_bg_layout_light">
<div class="et_pb_gallery_image landscape">
<a href="https://assets.foodieorderwebsites.com/tuttopizzapasta/Home-OurDishes-8.jpg" title="Home-OurDishes-8">
<img alt="Home-OurDishes-8" src="https://assets.foodieorderwebsites.com/tuttopizzapasta/Home-OurDishes-8-400x284.jpg"/>
<span class="et_overlay"></span>
</a>
</div></div></div><!-- .et_pb_gallery_items --></div><!-- .et_pb_gallery -->
</div> <!-- .et_pb_column -->
</div> <!-- .et_pb_row -->
</div> <!-- .et_pb_section --><div class="et_pb_section et_pb_section_3 et_section_regular" id="sectionprt3">
<div class=" et_pb_row et_pb_row_4">
<div class="et_pb_column et_pb_column_1_2 et_pb_column_5">
<div class="et_pb_text et_pb_module et_pb_bg_layout_light et_pb_text_align_left appsimg et-waypoint et_pb_animation_left my-text et_pb_text_8">
<h1>Order Online</h1>
<p>Getting your favorite Italian food delivered to doorsteps has never been so easy. Now you can order delivery or pickup online and avoid waiting on hold or repeating your credit card number over the phone.</p>
<p>Here at Tutto Pizza &amp; Pasta, we want to make things as convenient as possible for you. That’s why <strong>we offer 10% OFF your first order</strong> when ordering online, just use promo code: <strong>WELCOME</strong> at checkout.</p>
<p>Download our app or order directly from our Website and enjoy ordering our delicious food today. We pledge that your order will be right and right on time.</p>
<p> </p>
<p class="description"><a href="https://apps.apple.com/us/app/tutto-pizza-and-pasta/id1236604147" rel="noopener noreferrer" target="_blank"><img alt="" class="alignnone size-full" height="53" src="https://assets.foodieorderwebsites.com/tuttopizzapasta/appsstore.png" width="179"/></a><a href="https://play.google.com/store/apps/details?id=com.tuttopizzapasta" rel="noopener noreferrer" target="_blank"><img alt="" class="alignnone size-full" height="53" src="https://assets.foodieorderwebsites.com/tuttopizzapasta/googleplay.png" width="179"/></a>
</p></div> <!-- .et_pb_text --><div class="et_pb_text et_pb_module et_pb_bg_layout_light et_pb_text_align_left et_pb_text_9">
<div class="big-order-btn et_pb_animation_bottom et-animated et-waypoint"><a href="https://tuttopizzapasta.foodieordersecure.com/" target="_blank">Order Online</a></div>
</div> <!-- .et_pb_text --><div class="et_pb_module et_pb_space et_pb_divider_1 et-hide-mobile"></div>
</div> <!-- .et_pb_column --><div class="et_pb_column et_pb_column_1_2 et_pb_column_6">
<div class="et_pb_module et-waypoint et_pb_image et_pb_animation_right et_pb_image_1 et_always_center_on_mobile">
<img alt="" src="https://assets.foodieorderwebsites.com/tuttopizzapasta/Home-OrderOnline.png"/>
</div>
</div> <!-- .et_pb_column -->
</div> <!-- .et_pb_row -->
</div> <!-- .et_pb_section --><div class="et_pb_section lroeimgbg intro-sec et_pb_section_4 et_pb_with_background et_section_regular" id="sectionprt2">
<div class="intro-row et_pb_row et_pb_row_5">
<div class="et_pb_column et_pb_column_1_4 et_pb_column_7 et_pb_column_empty">
</div> <!-- .et_pb_column --><div class="et_pb_column et_pb_column_1_2 et_pb_column_8">
<div class="et_pb_text et_pb_module et_pb_bg_layout_light et_pb_text_align_center et-waypoint et_pb_animation_top my-text et_pb_text_10">
<h4>INTRODUCING THE</h4>
<h1><strong>Perfect </strong>Pasta</h1>
<p class="description">
</p></div> <!-- .et_pb_text --><div class="et_pb_module et_pb_space et_pb_divider et_pb_divider_2 et_pb_divider_position_center"></div><div class="et_pb_text et_pb_module et_pb_bg_layout_light et_pb_text_align_center et_pb_text_11">
<p>Our pastas are made daily in our own factory and cooked “al dente.” Our sauces are made-to-order using the freshest local herbs produce and the highest quality imported ingredients. This is our secret for preparing the perfect pasta dish for you.</p>
<p class="description">
</p></div> <!-- .et_pb_text -->
</div> <!-- .et_pb_column --><div class="et_pb_column et_pb_column_1_4 et_pb_column_9 et_pb_column_empty">
</div> <!-- .et_pb_column -->
</div> <!-- .et_pb_row -->
</div> <!-- .et_pb_section --><div class="et_pb_section et_pb_section_5 et_pb_with_background et_section_regular" id="contact">
<div class=" et_pb_row et_pb_row_6">
<div class="et_pb_column et_pb_column_4_4 et_pb_column_10">
<div class="et_pb_text et_pb_module et_pb_bg_layout_light et_pb_text_align_center my-text et_pb_text_12">
<h1 class="my-text">Get In Touch<span id="transmark" style="width: 0px;height: 0px"></span></h1>
<p class="description">
</p></div> <!-- .et_pb_text -->
</div> <!-- .et_pb_column -->
</div> <!-- .et_pb_row --><div class=" et_pb_row et_pb_row_7">
<div class="et_pb_column et_pb_column_4_4 et_pb_column_11">
<div class="et_pb_module et_pb_contact_form_container clearfix et_pb_contact_form_0" data-form_unique_num="0" id="et_pb_contact_form_0">
<div class="et-pb-contact-message"></div>
<div class="et_pb_contact">
<form action="https://tuttopizzapasta.com/" class="et_pb_contact_form clearfix" method="post">
<p class="et_pb_contact_field et_pb_contact_field_0 et_pb_contact_field_half">
<label class="et_pb_contact_form_label" for="et_pb_contact_name_1">Name</label>
<input class="input" data-field_type="input" data-original_id="name" data-required_mark="required" id="et_pb_contact_name_1" name="et_pb_contact_name_1" type="text" value="Name"/>
</p><p class="et_pb_contact_field et_pb_contact_field_1 et_pb_contact_field_half et_pb_contact_field_last">
<label class="et_pb_contact_form_label" for="et_pb_contact_email_1">Email Address</label>
<input class="input" data-field_type="email" data-original_id="email" data-required_mark="required" id="et_pb_contact_email_1" name="et_pb_contact_email_1" type="text" value="Email Address"/>
</p><p class="et_pb_contact_field et_pb_contact_field_2 et_pb_contact_field_last">
<label class="et_pb_contact_form_label" for="et_pb_contact_message_1">Message</label>
<textarea class="et_pb_contact_message input" data-field_type="text" data-original_id="message" data-required_mark="required" id="et_pb_contact_message_1" name="et_pb_contact_message_1">Message</textarea>
</p>
<input name="et_pb_contactform_submit_0" type="hidden" value="et_contact_proccess"/>
<input class="et_pb_contactform_validate_field" name="et_pb_contactform_validate_0" type="text" value=""/>
<div class="et_contact_bottom_container">
<div class="et_pb_contact_right">
<p class="clearfix">
<span class="et_pb_contact_captcha_question">2 + 14</span> = <input class="input et_pb_contact_captcha" data-first_digit="2" data-required_mark="required" data-second_digit="14" name="et_pb_contact_captcha_0" size="2" type="text" value=""/>
</p>
</div> <!-- .et_pb_contact_right -->
<button class="et_pb_contact_submit et_pb_button" type="submit">Submit</button>
</div>
<input id="_wpnonce-et-pb-contact-form-submitted" name="_wpnonce-et-pb-contact-form-submitted" type="hidden" value="c6710d4c04"/><input name="_wp_http_referer" type="hidden" value="/"/>
</form>
</div> <!-- .et_pb_contact -->
</div> <!-- .et_pb_contact_form_container -->
</div> <!-- .et_pb_column -->
</div> <!-- .et_pb_row -->
</div> <!-- .et_pb_section -->
</div> <!-- .entry-content -->
</article> <!-- .et_pb_post -->
</div> <!-- #main-content -->
<span class="et_pb_scroll_top et-pb-icon"></span>
<footer id="main-footer">
<div id="social_popup_cont"><div class="white-popup-block" id="social_popup"><div id="social_pre_holder"><div id="social_holder"><button class="mfp-close" id="close_social_poup" title="Close (Esc)." type="button">×</button><div id="social_links_block"></div></div></div></div></div>
<div id="footer-bottom">
<div class="container clearfix">
<ul class="full_width_menu" id="social_links"><li class="li_social_icon " data-network="instagram"><a href="https://www.instagram.com/tuttopizzapasta/" target="_blank" title="Instagram"><i class="fa fa-instagram"></i><span>Instagram</span></a></li><li class="li_social_icon " data-network="facebook"><a href="https://www.facebook.com/tuttopizzapasta/" target="_blank" title="facebook"><i class="fa fa-facebook"></i><span>facebook</span></a></li><li class="li_social_icon " data-network="yelp"><a href="https://www.yelp.com/biz/tutto-pizza-and-pasta-key-biscayne" target="_blank" title="yelp"><i class="fa fa-yelp"></i><span>yelp</span></a></li></ul> </div> <!-- .container -->
</div>
</footer> <!-- #main-footer -->
</div> <!-- #et-main-area -->
</div> <!-- #page-container -->
<div id="footer_pwrd_by">
<div id="mbl_menu_powered_by"><a href="https://foodieorder.com/?utm_source=tuttopizzapasta-com&amp;utm_medium=referrer&amp;utm_campaign=poweredby-mbl" target="_blank">POWERED BY <span>Foodie Order</span></a></div>
</div>
<script>(function($){$(document).ready(function(){var initial_menu_width=jQuery("#top-menu").width();$(window).scroll(function(){place_bottom_bar();});$(window).resize(function(){place_bottom_bar();place_pwrd_bar();navigation_resize();});function navigation_resize(){resulting_width=jQuery(".et_menu_container").width()-jQuery("#restaurant_logo").width()-initial_menu_width-jQuery("#headeroptions").width();if(resulting_width<100)jQuery("#top-menu").addClass("extended_navigation");else
jQuery("#top-menu").removeClass("extended_navigation");}navigation_resize();function place_bottom_bar(){if(jQuery(window).width()>981){if($(window).scrollTop()+$(window).height()>$(document).height()-65){difference=65-($(window).scrollTop()+$(window).height()-$(document).height())*-1
if(difference>65)difference=65;jQuery("#main-footer").css("bottom",difference);u_w=difference+85;jQuery("body .userway.userway_p5.userway-the-big").css("bottom",u_w);}else{jQuery("#main-footer").css("bottom","0px");jQuery("body .userway.userway_p5.userway-the-big").css("bottom","90px");}}else{if(jQuery(window).scrollTop()+jQuery(window).height()>jQuery(document).height()-150){jQuery("body .userway.userway_p5").css("bottom","135px");}else{jQuery("body .userway.userway_p5").css("bottom","13px");}}}function place_pwrd_bar(){if(jQuery(window).height()>jQuery("body").height())jQuery("#footer_pwrd_by").addClass("force_bottom_position");else
jQuery("#footer_pwrd_by").removeClass("force_bottom_position");}place_bottom_bar();place_pwrd_bar();if(jQuery(".locations-mnu").html()=="")jQuery(".locations-mnu").remove();$('#home_reviews').slick({dots:false,infinite:true,speed:300,slidesToShow:4,slidesToScroll:2,responsive:[{breakpoint:1024,settings:{slidesToShow:2,slidesToScroll:2}},{breakpoint:600,settings:{slidesToShow:1,slidesToScroll:1}},{breakpoint:480,settings:{slidesToShow:1,slidesToScroll:1}}]}).on('setPosition',function(event,slick){slick.$slides.css('height',slick.$slideTrack.height()+'px');}).on('breakpoint',function(event,slick){slick.$slides.css('height',slick.$slideTrack.height()+'px');}).on('init',function(event,slick){slick.$slides.css('height',slick.$slideTrack.height()+'px');});jQuery("#top-menu ul.sub-menu li.menu-item-has-children>a").click(function(e){e.preventDefault();jQuery(this).parent().find(".sub-menu").toggleClass("clicked");if(!jQuery(this).parent().find(".sub-menu").hasClass("clicked"))jQuery(this).parent().removeClass("current-menu-item");else
jQuery(this).parent().addClass("current-menu-item");});$("#top-menu li").removeClass("current-menu-item");$("#top-menu li").removeClass("current-menu-ancestor");$("#top-menu > li a").click(function(){$("#top-menu li").removeClass("current-menu-item");$(this).parent().addClass("current-menu-item");});});jQuery(".li_social_icon").click(function(e){link_network=jQuery(this).data("network");ul_container=jQuery(this).closest("ul");if(jQuery(ul_container).find(".li_social_icon[data-network="+link_network+"]").length==1)return;e.preventDefault();jQuery.magnificPopup.open({closeOnBgClick:true,items:{src:jQuery("#social_popup")[0].innerHTML},type:"inline",callbacks:{open:function(){jQuery("#social_links_block").html("<div id=\'social_links_list\'></div>");jQuery(ul_container).find(".li_social_icon[data-network="+link_network+"]").each(function(e,i){jQuery(jQuery(this).html()).appendTo("#social_links_list");})}}});})
jQuery("#nav_mnu_mbl .nav-toggle-btn").click(function(e){jQuery(this).toggleClass("isactive");jQuery("#mbl_menu").css("height",(window.innerHeight+3));jQuery("#mbl_menu").toggleClass("open");jQuery("#mbl_menu").toggleClass("shownavmenu");jQuery("body").toggleClass("showing_mbl_menu");navigation_list=jQuery("#top-menu").html();jQuery("#site-nav ul").html(navigation_list);if(jQuery("#headeroptions a.orderbtn").length==1){oo_link=jQuery("#headeroptions a.orderbtn").attr("href");jQuery("<li class=\"order_online\"><a target=\"_blank\" href=\""+oo_link+"\">Order Online</a></li>").insertAfter(jQuery("#site-nav>ul>li:nth-of-type(1)"));}jQuery("#footer_navigation_links li").each(function(e){jQuery(this).clone().appendTo(jQuery("#site-nav>ul"));})
if(jQuery("#social_links .li_social_icon").length>0){jQuery("#mbl_social_holder").html("<ul></ul>");jQuery("#social_links .li_social_icon").each(function(e,i){jQuery(this).clone().appendTo("#mbl_social_holder ul");});jQuery("#mbl_social_holder ul li a").click(function(e,i){jQuery("#nav_mnu_mbl .nav-toggle-btn").trigger("click");});};})
jQuery("body").on("click","#mbl_navigation_holder #site-nav a",function(e,i){if(jQuery(this).parent().hasClass("menu-item-has-children")){e.preventDefault();imopen=jQuery(this).hasClass("sub-menu-opened");parent_ul=jQuery(this).parent().parent();jQuery(parent_ul).find("ul.sub-menu").removeClass("show_childrens");jQuery(parent_ul).find(".menu-item-has-children a").removeClass("sub-menu-opened");if(imopen){jQuery(this).removeClass("sub-menu-opened");jQuery(this).parent().find("ul.sub-menu").removeClass("show_childrens");}else{jQuery(this).addClass("sub-menu-opened");jQuery(this).parent().find("ul.sub-menu").addClass("show_childrens");}jQuery(this).parent().find("ul.sub-menu .sub-menu").removeClass("show_childrens");}else{if(jQuery(this).attr("href").indexOf("#")!=-1)jQuery("#nav_mnu_mbl .nav-toggle-btn").trigger("click");}});})(jQuery)</script>
<style id="et-builder-advanced-style" type="text/css">.et_pb_text_0 h1{font-size:60px;color:#fff!important}.et_pb_text_7 h1{font-size:48px;color:#252525!important}.et_pb_text_11{font-size:15px}.et_pb_text_11.et_pb_text{color:#fff!important}.et_pb_divider_2:before{border-top-color:#fff;border-top-width:2px}.et_pb_divider_2{margin:0 24%;height:2px}.et_pb_text_10{font-size:24px}.et_pb_text_10.et_pb_text{color:#fff!important}.et_pb_text_10 h1{font-size:60px;color:#fff!important}.et_pb_section_4{background-image:url(https://assets.foodieorderwebsites.com/tuttopizzapasta/Home-Parallax.jpg)}.et_pb_image_1{text-align:center}.et_pb_text_8{font-size:15px;padding-top:30px!important}.et_pb_text_8 h1{font-size:60px;color:#343434!important}.et_pb_text_7{padding-bottom:40px!important}.et_pb_section_2.et_pb_section{background-color:#f8f9f9!important}.et_pb_text_0{padding-bottom:0!important;margin-top:-40px!important;margin-bottom:20px!important}.et_pb_image_0{margin-left:0}.et_pb_text_5 h1{font-size:55px;color:#343434!important}.et_pb_row_1.et_pb_row{padding-top:30px;padding-bottom:30px}.et_pb_text_4{margin-top:-10px!important}.et_pb_text_3{font-weight:bold;font-size:20px;line-height:1.5em;margin-top:-10px!important;margin-bottom:50px!important}.et_pb_text_3 p{line-height:1.5em}.et_pb_text_3 h1{font-size:60px;color:#fff!important}.et_pb_text_2{font-weight:bold;font-size:26px;line-height:1.5em;padding-top:0!important;padding-bottom:0!important;margin-top:0!important;margin-bottom:25px!important}.et_pb_text_2 p{line-height:1.5em}.et_pb_text_2 h1{font-size:60px;color:#fff!important;letter-spacing:3px}.et_pb_text_1{font-size:35px;line-height:1.3em;margin-top:-10px!important;margin-bottom:50px!important;max-width:800px}.et_pb_text_1 p{line-height:1.3em}.et_pb_text_1 h1{font-size:35px;color:#fff!important}.et_pb_section_5.et_pb_section{background-color:#f6f7f7!important}@media only screen and (min-width:981px ){.et_pb_section_2.et_pb_section{padding-bottom:35px}.et_pb_section_4.et_pb_section{padding-top:170px;padding-bottom:170px}.et_pb_row_6.et_pb_row{padding-bottom:20px}.et_pb_row_7.et_pb_row{padding-top:10px}}@media only screen and (max-width:980px ){.et_pb_text_0 h1{font-size:50px}.et_pb_text_0{margin-top:-25px!important;margin-bottom:0!important}.et_pb_text_1{margin-bottom:30px!important}.et_pb_text_2 h1{font-size:40px}.et_pb_text_2{margin-top:-10px!important;margin-bottom:25px!important}.et_pb_text_3 h1{font-size:40px}.et_pb_text_3{margin-top:-10px!important;margin-bottom:30px!important}.et_pb_row_1.et_pb_row{padding-top:0!important;padding-bottom:0!important}.et_pb_text_5 h1{font-size:35px}.et_pb_text_7 h1{font-size:30px}.et_pb_text_8 h1{font-size:40px}.et_pb_text_10 h1{font-size:50px}.et_pb_text_10{font-size:18px}}@media only screen and (max-width:767px ){.et_pb_text_0 h1{font-size:42px}.et_pb_text_0{margin-top:0!important;margin-bottom:20px!important}.et_pb_text_1 h1{font-size:30px}.et_pb_text_1{font-size:30px;margin-top:-10px!important;margin-bottom:25px!important}.et_pb_text_2 h1{font-size:35px}.et_pb_text_2 p{line-height:1.3em}.et_pb_text_2{margin-top:0!important;margin-bottom:23px!important}.et_pb_text_3 h1{font-size:35px}.et_pb_text_3 p{line-height:1.3em}.et_pb_text_4{margin-top:-5px!important}.et_pb_text_10 h1{font-size:40px}}</style><style id="et-builder-page-custom-style" type="text/css">.et_pb_bg_layout_dark{color:#fff!important}.page.et_pb_pagebuilder_layout #main-content{background-color:rgba(255,255,255,0)}.et_pb_section{background-color:#fff}</style><!-- Global site tag (gtag.js) - Google Analytics -->
<script async="" src="https://www.googletagmanager.com/gtag/js?id=UA-118783282-4"></script>
<script>window.dataLayer=window.dataLayer||[];function gtag(){dataLayer.push(arguments);}gtag('js',new Date());gtag('config','UA-118783282-4');</script>
<script src="https://tuttopizzapasta.com/wp-content/themes/Divi/includes/builder/scripts/frontend-builder-global-functions.js?ver=3.0.24" type="text/javascript"></script>
<script src="https://tuttopizzapasta.com/wp-content/plugins/foodmenu/js/jquery.fancybox.pack.js?ver=4.7.17" type="text/javascript"></script>
<script src="https://maxcdn.bootstrapcdn.com/bootstrap/3.3.7/js/bootstrap.min.js?ver=4.7.17" type="text/javascript"></script>
<script src="https://tuttopizzapasta.com/wp-content/plugins/foodmenu/js/foodmenu.js?ver=4.7.17" type="text/javascript"></script>
<script src="https://tuttopizzapasta.com/wp-content/plugins/ltgallery/js/jquery.fancybox.pack.js?ver=4.7.17" type="text/javascript"></script>
<script src="https://tuttopizzapasta.com/wp-content/plugins/ltgallery/js/jcscustom.js?ver=4.7.17" type="text/javascript"></script>
<script src="https://tuttopizzapasta.com/wp-content/themes/Divi/includes/builder/scripts/jquery.mobile.custom.min.js?ver=3.0.24" type="text/javascript"></script>
<script src="https://tuttopizzapasta.com/wp-content/themes/Divi/js/custom.js?ver=3.0.24" type="text/javascript"></script>
<script src="https://tuttopizzapasta.com/wp-content/themes/Divi/includes/builder/scripts/jquery.fitvids.js?ver=3.0.24" type="text/javascript"></script>
<script src="https://tuttopizzapasta.com/wp-content/themes/Divi/includes/builder/scripts/waypoints.min.js?ver=3.0.24" type="text/javascript"></script>
<script src="https://tuttopizzapasta.com/wp-content/themes/Divi/includes/builder/scripts/jquery.magnific-popup.js?ver=3.0.24" type="text/javascript"></script>
<script type="text/javascript">//<![CDATA[
var et_pb_custom={"ajaxurl":"https:\/\/tuttopizzapasta.com\/wp-admin\/admin-ajax.php","images_uri":"https:\/\/tuttopizzapasta.com\/wp-content\/themes\/Divi\/images","builder_images_uri":"https:\/\/tuttopizzapasta.com\/wp-content\/themes\/Divi\/includes\/builder\/images","et_frontend_nonce":"77e89fcf55","subscription_failed":"Please, check the fields below to make sure you entered the correct information.","et_ab_log_nonce":"ca4c80fb24","fill_message":"Please, fill in the following fields:","contact_error_message":"Please, fix the following errors:","invalid":"Invalid email","captcha":"Captcha","prev":"Prev","previous":"Previous","next":"Next","wrong_captcha":"You entered the wrong number in captcha.","is_builder_plugin_used":"","is_divi_theme_used":"1","widget_search_selector":".widget_search","is_ab_testing_active":"","page_id":"70","unique_test_id":"","ab_bounce_rate":"5","is_cache_plugin_active":"no","is_shortcode_tracking":""};
//]]></script>
<script src="https://tuttopizzapasta.com/wp-content/themes/Divi/includes/builder/scripts/frontend-builder-scripts.js?ver=3.0.24" type="text/javascript"></script>
<script src="https://tuttopizzapasta.com/wp-includes/js/wp-embed.min.js?ver=4.7.17" type="text/javascript"></script>
<script src="https://tuttopizzapasta.com/wp-content/themes/Divi/includes/builder/scripts/jquery.hashchange.js?ver=3.0.24" type="text/javascript"></script>
<script type="text/javascript">var _userway_config={position:'5',color:'#48a718',account:'WM3jW1NVJe'};</script>
<script src="https://cdn.userway.org/widget.js" type="text/javascript"></script>
</body>
</html>
<!-- Performance optimized by W3 Total Cache. Learn more: https://www.w3-edge.com/products/

Page Caching using disk: enhanced

 Served from: tuttopizzapasta.com @ 2021-01-12 14:10:47 by W3 Total Cache -->