<!DOCTYPE HTML PUBLIC "-//W3C//DTD HTML 3.2 Final//EN">
<html>
<head>
<title>Index of /menu/css</title>
</head>
<body>
<h1>Index of /menu/css</h1>
<table>
<tr><th valign="top"> </th><th><a href="?C=N;O=D">Name</a></th><th><a href="?C=M;O=A">Last modified</a></th><th><a href="?C=S;O=A">Size</a></th><th><a href="?C=D;O=A">Description</a></th></tr>
<tr><th colspan="5"><hr/></th></tr>
<tr><td valign="top"> </td><td><a href="/menu/">Parent Directory</a> </td><td> </td><td align="right">  - </td><td> </td></tr>
<tr><th colspan="5"><hr/></th></tr>
</table>
</body></html>
