<html><head>
<title>Access Denied</title>
</head><body>
<h1>Access Denied</h1>
 
You don't have permission to access "http://www.argos.co.uk/tv/?" on this server.<p>
Reference #18.46302b17.1610535319.939548f
</p></body>
</html>
