<html><body><p>ï»¿<!DOCTYPE html>
<!-- ent-500-system-error@0.0.0 --></p><meta content="nofollow,noindex" name="ROBOTS"/><title data-react-helmet="true">
    
        System Error
    | USAA | USAA</title><meta charset="utf-8"/><meta content="IE=edge" http-equiv="X-UA-Compatible"/><meta content="width=device-width, initial-scale=1" id="Viewport" name="viewport"/><script>var USAA={};USAA.ent={};USAA.ent.digitalData={"page":{"activityType":"ent","attributes":{"appId":"ent-500-system-error"},"businessUnit":"ent","flowType":"ent_error","pageDesc":"ent_error_page","pageName":"","productLOB":"ent","productOffered":"n_a","productQualifier":"n_a:n_a"},"product":[],"event":[],"component":{"attributes":{}},"user":{"attributes":{}},"version":{"version":"1"},"campaign":{}};</script> <script data-react-helmet="true">
(function() {
    var breakpoints = {"0":"xxs","414":"xs","568":"sm","768":"md","1024":"lg","1280":"xl","1440":"xxl","1600":"xxxl"};
    var attempts = 0;

    function getGridLayoutClasses(el) {
        var result = [];

        if (el && typeof el.offsetWidth === 'number') {
            var width = el.offsetWidth;

            for (var breakpointSize in breakpoints) {
                if (width > Number(breakpointSize)) {
                    result.push('layout-' + breakpoints[breakpointSize]);
                }
            }
        }

        return result;
    }

    function updatePageGridClasses() {
        var el = document.querySelector('.mainPanel');
        if (el) {
            var layoutClasses = getGridLayoutClasses(el);
            el.className += ' ' + layoutClasses.join(' ');
        } else {
            if (attempts > 100) return;
            attempts++;
            setTimeout(updatePageGridClasses, 5);
        }
    }

    updatePageGridClasses();
})();
    var requestId = "eda89338"
    var statusCode = "2736803";
    var ipAddress = "210.75.253.169";

    
        
            var errorType = "System Error";
var errorDescription = "Weâve encountered a problem. We are looking into it. ";
var errorDetails = "Please try again later, or for immediate assistance ";



</script><link href="/serverbusy/react2/ent-500-system-error.5f193973b34f26dfcbea.css" rel="stylesheet"/><div id="mainAppRoot"><div class="pageWrapper"><div class="pageWrapper-inner"><header class="pageHeader pageHeader--standard"><a class="pageHeader-iconLink usaa-focusRing" href="/" tabindex="0"><img alt="USAA Home" class="pageHeader-icon" src="https://content.usaa.com/mcontent/static_assets/Media/globalHeader-usaaLogo-2016.svg"/></a><button class="pageHeader-menuLink" type="button"><span class="pageHeader-menuLink-highContrast"><span class="screenReader">Navigation </span>Menu</span><div class="pageHeader-hamburger"><span></span></div></button><nav aria-label="Main Menu" class="navStandard font-normal"><ul></ul></nav><div class="pageHeader-search"><button aria-expanded="false" class="pageHeader-search-button" type="button"><span class="screenReader">Search usaa.com</span><span class="pageHeader-search-icon"><svg fill="#9AB7C4" height="32" viewbox="0 0 32 32" width="32" xmlns="http://www.w3.org/2000/svg"><title>Search</title><path d="M30 26.5L22.5 19c3-4 2.5-10-1.5-14C16.5.5 9.5.5 5 5S.5 16.5 5 21c4 4 10 4.5 14 1.5l7.5 7.5 3.5-3.5zM8 18c-2.9-2.8-2.9-7.2 0-10 2.8-2.8 7.2-2.8 10 0s2.8 7.2 0 10-7.2 2.8-10 0z"></path></svg></span></button><div class="headerDropMenu"><div class="headerDropMenu-content pageHeader-searchMenu navStandard-menuContent"></div></div></div><div class="profileWidget"><div class="profileWidget-wrapper profileWidget-wrapper--static"><a class="profileWidget-button profileWidget-button--logon font-normal" href="/inet/ent_home/CpHome?action=INIT&amp;jump=jp_default"><div class="profileWidget-buttonLeft"><div class="profileWidget-name">Log On</div></div><div class="profileWidget-buttonRight"><div class="pageHeader-flourish"></div></div></a></div><div class="headerDropMenu"><div class="headerDropMenu-content"></div></div></div></header><div aria-hidden="false" class="pageContent"><div class="mainPanel " role="main"><div class="mainContentWrapper"><div class=""><div></div><div class="errorPage"><svg class="errorPage-icon" viewbox="0 -30 90 90" xmlns="http://www.w3.org/2000/svg"><path d="M0-21v15h90v-15H0zm7.5 10.5c-1.7 0-3-1.3-3-3s1.3-3 3-3 3 1.3 3 3-1.3 3-3 3zm10.5 0c-1.7 0-3-1.3-3-3s1.3-3 3-3 3 1.3 3 3-1.3 3-3 3zm10.5 0c-1.7 0-3-1.3-3-3s1.3-3 3-3 3 1.3 3 3-1.3 3-3 3zM0-3v54h90V-3H0zm56.7 34.7l-4.2 4.2-7.5-7.4-7.4 7.4-4.2-4.2 7.4-7.4-7.4-7.4 4.2-4.2L45 20l7.4-7.4 4.2 4.2-7.4 7.4 7.5 7.5z" fill="#0D2F4C"></path></svg><h1 class="errorPage-title">
    
        System Error
    </h1><p class="errorPage-description">errorDescription. <br class="break"/>errorDetails <a class="popover-trigger" href="javascript:;">contact us<span class="screenReader">Â (Opens popup)</span></a>.</p></div></div></div></div></div><div aria-hidden="false" class="pageFooter" role="contentinfo"><div class="linkPack linkPack--standard"><ul class="linkPack-main"><li><a href="/inet/wc/about_usaa_main?wa_ref=pub_subglobal_footer_about_usaa_page">Corporate Info &amp; Media</a></li><li><a href="https://communities.usaa.com/t5/News-Center/ct-p/news-center?wa_ref=pub_subglobal_footer_newscenter">News Center</a></li><li><a href="/inet/pages/security_protect_your_personal_information?wa_ref=pub_subglobal_footer_privacy_promise">Privacy</a></li><li><a href="https://www.usaa.com/careers?wa_ref=pub_subglobal_footer_career_center_page">Careers</a></li><li><a href="/inet/pages/accessibility_at_usaa_main?wa_ref=pub_subglobal_footer_accessibility">Accessibility</a></li><li><a href="/inet/pages/ContactUsMain?wa_ref=pub_subglobal_footerUtility_footerDefaultPublic_CONTACTUS">Contact Us</a></li><li><a href="/inet/pages/site_map?wa_ref=pub_subglobal_footerUtility_footerPublic_SITEMAP">Site Map</a></li><li><a href="/inet/mc_faq/McFAQ?app=CpFaq&amp;FAQPageID=CorpPublicFaq">FAQs</a></li><li><a href="/inet/pages/site_terms_and_conditions_main?wa_ref=pub_subglobal_footerUtility_footerDefaultPublic_TERMCONDITIONS">Site Terms</a></li></ul><ul class="linkPack-secondary"><li><a href="https://communities.usaa.com/?wa_ref=pub_global_social_bar_footer_member_community">Member Community<span class="linkPack-subText">Share. Connect. Explore.</span></a></li><li><a href="https://communities.usaa.com/t5/Ask-USAA/ct-p/ask-usaa">Financial Advice<span class="linkPack-subText">Questions &amp; Answers</span></a></li><li><a href="/inet/wc/usaa_mobile_main?wa_ref=global_socialbar_footer_mobile">Go Mobile<span class="linkPack-subText">Apps &amp; More</span></a></li><li><ul class="linkPack-social"><li><a href="/inet/wc/global-community-bar-fb-redirect?wa_ref=global_socialbar_footer_facebook" rel="noopener noreferrer" target="_blank"><span class="screenReader">USAA Facebook (opens new window)</span><svg height="30px" viewbox="0 0 30 30" width="30px" x="0px" y="0px"><path d="M20.531,16.053l0.555-4.266h-4.23V9.062c0-1.234,0.348-2.078,2.121-2.078h2.254V3.168C20.84,3.117,19.5,3,17.938,3 c-3.258,0-5.484,1.989-5.484,5.64v3.147H8.77v4.266h3.684V27h4.402V16.053H20.531z" fill="#ffffff"></path></svg></a></li><li><a href="/inet/wc/global-community-bar-tw-redirect?wa_ref=global_socialbar_footer_twitter" rel="noopener noreferrer" target="_blank"><span class="screenReader">USAA Twitter (opens new window)</span><svg height="30px" viewbox="0 0 30 30" width="30px" x="0px" y="0px"><path d="M26,8.177c-0.809,0.359-1.68,0.602-2.591,0.711c0.93-0.56,1.647-1.443,1.983-2.498c-0.871,0.518-1.836,0.894-2.865,1.096 c-0.824-0.878-1.996-1.426-3.294-1.426c-2.493,0-4.515,2.021-4.515,4.515c0,0.354,0.04,0.698,0.116,1.028 c-3.75-0.187-7.076-1.984-9.303-4.717c-0.388,0.668-0.61,1.443-0.61,2.271c0,1.565,0.797,2.948,2.007,3.757 c-0.739-0.024-1.435-0.227-2.043-0.565v0.057c0,2.186,1.556,4.01,3.62,4.426c-0.378,0.103-0.778,0.157-1.19,0.157 c-0.29,0-0.573-0.027-0.849-0.082c0.575,1.795,2.242,3.1,4.216,3.137c-1.544,1.21-3.49,1.933-5.606,1.933 c-0.364,0-0.723-0.022-1.076-0.065c1.998,1.281,4.37,2.028,6.92,2.028c8.301,0,12.84-6.876,12.84-12.841 c0-0.196-0.005-0.39-0.012-0.585C24.63,9.878,25.394,9.083,26,8.177z" fill="#ffffff"></path></svg></a></li><li><a href="/inet/wc/global-community-bar-yt-redirect?wa_ref=global_socialbar_footer_youtube" rel="noopener noreferrer" target="_blank"><span class="screenReader">USAA YouTube (opens new window)</span><svg height="30px" viewbox="0 0 30 30" width="30px" x="0px" y="0px"><path d="M12.922,3.001h-1.358l-0.916,3.521L9.696,3.001H8.282c0.281,0.83,0.576,1.668,0.858,2.5 c0.431,1.251,0.701,2.192,0.822,2.838v3.634h1.345V8.339L12.922,3.001z M16.515,9.806v-2.34c0-0.713-0.126-1.235-0.38-1.574 c-0.332-0.456-0.803-0.688-1.411-0.688c-0.605,0-1.075,0.232-1.411,0.688c-0.259,0.339-0.378,0.861-0.378,1.574v2.34 c0,0.713,0.119,1.238,0.378,1.575c0.336,0.456,0.805,0.683,1.411,0.683c0.608,0,1.079-0.227,1.411-0.683 C16.389,11.044,16.515,10.519,16.515,9.806z M15.301,10.038c0,0.618-0.188,0.927-0.577,0.927c-0.392,0-0.58-0.309-0.58-0.927V7.223 c0-0.618,0.188-0.924,0.58-0.924c0.39,0,0.577,0.306,0.577,0.924V10.038z M20.995,11.973V5.287H19.78v5.108 c-0.269,0.379-0.523,0.569-0.761,0.569c-0.166,0-0.259-0.095-0.289-0.285c-0.014-0.04-0.014-0.187-0.014-0.47V5.287h-1.208v5.285 c0,0.472,0.038,0.792,0.11,0.995c0.122,0.339,0.392,0.497,0.78,0.497c0.441,0,0.899-0.268,1.381-0.822v0.731H20.995z" fill="#ffffff"></path><g><path d="M17.198,18.762c-0.199,0-0.402,0.093-0.6,0.29v4.035c0.197,0.195,0.4,0.292,0.6,0.292c0.344,0,0.521-0.292,0.521-0.891 V19.66C17.72,19.066,17.542,18.762,17.198,18.762z" fill="#ffffff"></path><path d="M21.645,18.762c-0.398,0-0.603,0.305-0.603,0.917v0.611h1.196v-0.611C22.238,19.066,22.042,18.762,21.645,18.762z" fill="#ffffff"></path><path d="M24.576,15.395c-0.247-1.053-1.104-1.832-2.147-1.948c-2.46-0.273-4.947-0.273-7.425-0.273c-2.479,0-4.97,0-7.43,0.273 c-1.037,0.116-1.901,0.895-2.142,1.948c-0.346,1.505-0.35,3.141-0.35,4.691s0,3.188,0.344,4.688 c0.244,1.056,1.105,1.835,2.145,1.952c2.461,0.275,4.948,0.275,7.427,0.275c2.477,0,4.971,0,7.431-0.275 c1.036-0.117,1.898-0.896,2.142-1.952c0.346-1.499,0.348-3.138,0.348-4.688S24.92,16.9,24.576,15.395z M10.74,16.749H9.302v7.629 H7.97v-7.629H6.56v-1.25h4.181V16.749z M14.362,24.378h-1.201v-0.724c-0.477,0.548-0.928,0.812-1.368,0.812 c-0.388,0-0.656-0.158-0.775-0.487c-0.064-0.204-0.104-0.522-0.104-0.988v-5.23h1.197v4.871c0,0.282,0,0.429,0.012,0.467 c0.029,0.184,0.118,0.28,0.279,0.28c0.243,0,0.496-0.187,0.759-0.562v-5.057h1.201V24.378z M18.917,22.392 c0,0.614-0.043,1.054-0.124,1.336c-0.161,0.488-0.479,0.739-0.955,0.739c-0.427,0-0.839-0.235-1.239-0.73v0.642h-1.2v-8.879h1.2 V18.4c0.387-0.479,0.794-0.716,1.239-0.716c0.477,0,0.794,0.25,0.955,0.742c0.081,0.265,0.124,0.707,0.124,1.33V22.392z  M23.437,21.287h-2.395v1.175c0,0.609,0.204,0.917,0.611,0.917c0.293,0,0.465-0.16,0.539-0.484c0.007-0.06,0.023-0.329,0.023-0.811 h1.221v0.174c0,0.386-0.013,0.656-0.02,0.771c-0.041,0.272-0.136,0.509-0.283,0.721c-0.334,0.481-0.821,0.717-1.447,0.717 c-0.633,0-1.107-0.223-1.451-0.68c-0.257-0.33-0.384-0.853-0.384-1.552v-2.318c0-0.704,0.114-1.226,0.368-1.555 c0.347-0.457,0.822-0.678,1.434-0.678c0.601,0,1.081,0.221,1.415,0.678c0.251,0.329,0.368,0.851,0.368,1.555V21.287z" fill="#ffffff"></path></g></svg></a></li><li><a href="/inet/wc/usaa_mobile_main?wa_ref=global_socialbar_footer_more" rel="noopener noreferrer" target="_blank"><span class="screenReader">More About USAA Social Media</span><svg height="30px" viewbox="0 0 30 30" width="30px" x="0px" y="0px"><g><path d="M4,11.991h1.306l1.341,2.441l1.324-2.441h1.315v6.018H8.066v-3.842L6.647,16.65H6.622l-1.41-2.467v3.825H4V11.991z" fill="#ffffff"></path><path d="M10.273,15.06v-0.103c0-1.805,1.134-3.068,2.724-3.068c1.6,0,2.717,1.255,2.717,3.052v0.103 c0,1.796-1.135,3.068-2.726,3.068C11.391,18.111,10.273,16.857,10.273,15.06z M14.425,15.035v-0.061 c0-1.187-0.602-1.935-1.437-1.935c-0.842,0-1.435,0.74-1.435,1.926v0.061c0,1.187,0.61,1.935,1.443,1.935 C13.832,16.961,14.425,16.221,14.425,15.035z" fill="#ffffff"></path><path d="M16.701,11.991h2.262c0.695,0,1.254,0.198,1.633,0.576c0.325,0.327,0.506,0.8,0.506,1.393v0.035 c0,0.911-0.455,1.486-1.116,1.778l1.279,2.235h-1.426l-1.11-1.978h-0.78v1.978h-1.247V11.991z M18.867,14.931 c0.636,0,0.979-0.36,0.979-0.902v-0.008c0-0.603-0.367-0.903-1.005-0.903h-0.893v1.813H18.867z" fill="#ffffff"></path><path d="M22.088,11.991h3.878v1.126h-2.64v1.298h2.32v1.127h-2.32v1.34H26v1.127h-3.912V11.991z" fill="#ffffff"></path></g></svg></a></li></ul></li></ul></div><div class="pageFooter-main"><p class="pageFooter-copyright"><span>Copyright Â© 2019 USAA Â  â¢ Â </span><a href="/inet/pages/security_online_information_gathering">About Our Ads</a></p><div class="pageFooter-disclosures pageFooter-disclosures--aboveFootnotes"></div><div class="pageFooter-footnotes"></div><div class="pageFooter-disclosures pageFooter-disclosures--belowFootnotes"></div><div class="pageFooter-icons"><div aria-hidden="true" class="pageFooter-logo">USAA Logo</div></div></div></div><div class="templateMask templateMask--default templateMask--content"></div></div></div></div> <script src="/serverbusy/react2/ent-500-system-error.57b5ed1a178b9d21f7e8.js"></script>
</body></html>