<!DOCTYPE HTML PUBLIC "-//W3C//DTD HTML 4.01 Transitional//EN" "http://www.w3.org/TR/html4/loose.dtd">
<html>
<head>
<meta content="text/html; charset=utf-8" http-equiv="Content-Type"/>
<meta content="width=device-width,initial-scale=1" name="viewport"/>
<link href="https://www.arnoldrenderer.com/favicon.png" rel="shortcut icon" type="image/png"/>
<title>Arnold Renderer | Autodesk | Arnold Renderer</title>
<link href="https://www.arnoldrenderer.com/" id="meta_link_canonical" rel="canonical"/>
<link href="https://www.arnoldrenderer.com/resources/css/main.css?v=6" rel="stylesheet" type="text/css"/>
<link href="https://www.arnoldrenderer.com/resources/css/main_1.css?v=6" rel="stylesheet" type="text/css"/>
<link href="https://www.arnoldrenderer.com/resources/css/main_2.css?v=6" rel="stylesheet" type="text/css"/>
<link href="https://www.arnoldrenderer.com/resources/css/main_3.css?v=6" rel="stylesheet" type="text/css"/>
<link href="https://www.arnoldrenderer.com/resources/css/main_4.css?v=6" rel="stylesheet" type="text/css"/>
<script src="https://www.arnoldrenderer.com/resources/scripts/jquery.js" type="text/javascript"></script>
<script src="https://www.arnoldrenderer.com/resources/scripts/jquery_easing.js" type="text/javascript"></script>
<script src="https://www.arnoldrenderer.com/resources/scripts/utilities.js?v=2" type="text/javascript"></script>
<script src="https://www.arnoldrenderer.com/resources/scripts/main.js?v=2" type="text/javascript"></script>
<script src="https://www.arnoldrenderer.com/resources/scripts/fancybox/jquery.fancybox.js" type="text/javascript"></script>
<link href="https://www.arnoldrenderer.com/resources/scripts/fancybox/jquery.fancybox.css" rel="stylesheet" type="text/css"/>
<script src="https://www.arnoldrenderer.com/resources/scripts/boxes.js?v=1610536255" type="text/javascript"></script>
<script src="https://www.arnoldrenderer.com/resources/scripts/boxes/testimonials.js" type="text/javascript"></script>
<script type="text/javascript">
				
			boxes["default"] = new Array();
		
				var box = {
					id				: 0,
					key				: "default",
					script_name 	: "",
					script_params	: ""
				}
				
				boxes["default"].push(box);
			
				var box = {
					id				: 1,
					key				: "default",
					script_name 	: "",
					script_params	: ""
				}
				
				boxes["default"].push(box);
			
				var box = {
					id				: 2,
					key				: "default",
					script_name 	: "",
					script_params	: ""
				}
				
				boxes["default"].push(box);
			
				var box = {
					id				: 3,
					key				: "default",
					script_name 	: "",
					script_params	: ""
				}
				
				boxes["default"].push(box);
			
				var box = {
					id				: 4,
					key				: "default",
					script_name 	: "",
					script_params	: ""
				}
				
				boxes["default"].push(box);
			
				var box = {
					id				: 5,
					key				: "default",
					script_name 	: "",
					script_params	: ""
				}
				
				boxes["default"].push(box);
			
				var box = {
					id				: 6,
					key				: "default",
					script_name 	: "",
					script_params	: ""
				}
				
				boxes["default"].push(box);
			
				var box = {
					id				: 7,
					key				: "default",
					script_name 	: "",
					script_params	: ""
				}
				
				boxes["default"].push(box);
			
				var box = {
					id				: 8,
					key				: "default",
					script_name 	: "",
					script_params	: ""
				}
				
				boxes["default"].push(box);
			
				var box = {
					id				: 9,
					key				: "default",
					script_name 	: "",
					script_params	: ""
				}
				
				boxes["default"].push(box);
			
				var box = {
					id				: 10,
					key				: "default",
					script_name 	: "",
					script_params	: ""
				}
				
				boxes["default"].push(box);
			
				var box = {
					id				: 11,
					key				: "default",
					script_name 	: "",
					script_params	: ""
				}
				
				boxes["default"].push(box);
			
				var box = {
					id				: 12,
					key				: "default",
					script_name 	: "",
					script_params	: ""
				}
				
				boxes["default"].push(box);
			
				var box = {
					id				: 13,
					key				: "default",
					script_name 	: "",
					script_params	: ""
				}
				
				boxes["default"].push(box);
			
				var box = {
					id				: 14,
					key				: "default",
					script_name 	: "",
					script_params	: ""
				}
				
				boxes["default"].push(box);
			
				var box = {
					id				: 15,
					key				: "default",
					script_name 	: "",
					script_params	: ""
				}
				
				boxes["default"].push(box);
			
				var box = {
					id				: 16,
					key				: "default",
					script_name 	: "",
					script_params	: ""
				}
				
				boxes["default"].push(box);
			
				var box = {
					id				: 17,
					key				: "default",
					script_name 	: "",
					script_params	: ""
				}
				
				boxes["default"].push(box);
			
				var box = {
					id				: 18,
					key				: "default",
					script_name 	: "",
					script_params	: ""
				}
				
				boxes["default"].push(box);
			
				var box = {
					id				: 19,
					key				: "default",
					script_name 	: "testimonials",
					script_params	: ""
				}
				
				boxes["default"].push(box);
			live_boxes.push(box);
			$(document).ready(function() {
				init_tile_set("default", "default-tile-container", "", 20, 20, 0);
			});
					</script>
<script type="text/javascript">
			var site_url = 'https://www.arnoldrenderer.com/';
		</script>
<script src="//tags.tiqcdn.com/utag/autodesk/micro-opt/prod/utag.js"></script>
<style type="text/css">
			div#cookies-box-close-button{
				background-image:url("https://www.arnoldrenderer.com/resources/images/close_icon.png");
			}
			div#cookies-box-close-button:hover{
				background-image:url("https://www.arnoldrenderer.com/resources/images/close_icon_hover.png");
			}
			
			div.tile  a.tile-link, div.tile div.tile-link a{
				background-image:url("https://www.arnoldrenderer.com/resources/images/t.gif");
			}
			
			ul.trial-process-steps li.current-step{
				background-image:url("https://www.arnoldrenderer.com/resources/images/trial_process/select_box.png");
			}
			
			div.trial-process-button-next{
				background-image:url("https://www.arnoldrenderer.com/resources/images/trial_process/select_box.png");
			}

			input[type="submit"].trial-process-button-next{
				background-image:url("https://www.arnoldrenderer.com/resources/images/trial_process/next_button_hover.png");
			}
			
			input[type="submit"].trial-process-button-next:hover{
				background-image:url("https://www.arnoldrenderer.com/resources/images/trial_process/next_button.png");
			}
			
			input[type="submit"].trial-process-button-start{
				background-image: url("https://www.arnoldrenderer.com/resources/images/trial_process/start_button_hover.png");
			}
			
			input[type="submit"].trial-process-button-start:hover{
				background-image: url("https://www.arnoldrenderer.com/resources/images/trial_process/start_button.png");
			}

			@font-face {
			  font-family: 'Noto Sans';
			  font-style: normal;
			  font-weight: 400;
			  src: local('Noto Sans'), local('NotoSans'), url('https://www.arnoldrenderer.com/resources/noto_sans/1.woff') format('woff');
			}
			@font-face {
			  font-family: 'Noto Sans';
			  font-style: normal;
			  font-weight: 700;
			  src: local('Noto Sans Bold'), local('NotoSans-Bold'), url('https://www.arnoldrenderer.com/resources/noto_sans/2.woff') format('woff');
			}
			@font-face {
			  font-family: 'Noto Sans';
			  font-style: italic;
			  font-weight: 400;
			  src: local('Noto Sans Italic'), local('NotoSans-Italic'), url('https://www.arnoldrenderer.com/resources/noto_sans/3.woff') format('woff');
			}
			@font-face {
			  font-family: 'Noto Sans';
			  font-style: italic;
			  font-weight: 700;
			  src: local('Noto Sans Bold Italic'), local('NotoSans-BoldItalic'), url('https://www.arnoldrenderer.com/resources/noto_sans/4.woff') format('woff');
			}
		</style>
<meta content="apiNNT7L4fvR57WHiLqonp5TmhCW-fuDqLxFV9HpBss" name="google-site-verification"/>
</head>
<body>
<script type="text/javascript">
			$(document.body).addClass('js-enabled');
		</script>
<div id="wrapper">
<div id="cookies-box">
						We use cookies on this website. By using this site, you agree that we may store and access cookies on your device. Find out more and set your preferences <a href="https://www.autodesk.com/company/legal-notices-trademarks/privacy-statement" target="_blank">here</a>.
						<div id="cookies-box-close-button"><a href="https://www.arnoldrenderer.com/" style="top:0px; left:0px; bottom:0px; right:0px; position:absolute;"></a></div>
</div>
<div id="header">
<div id="header-logo-container">
<img id="header-logo" src="https://www.arnoldrenderer.com/resources/images/logo35.png?v=1"/>
<img id="header-logo-formula" src="https://www.arnoldrenderer.com/resources/images/formula35.png" style="opacity:0; display:none;"/>
<a href="https://www.arnoldrenderer.com/" style="position:absolute; top:0px; left:0px; right:0px; bottom:0px"></a>
</div>
<div id="header-top-right">
<div id="menu-container">
<div id="menu">
<div id="menu-links-container" style="display:block">
<ul>
<li class=" selected">
<a href="https://www.arnoldrenderer.com/home/">Home</a>
</li>
<li class="">
<a href="https://www.arnoldrenderer.com/arnold/">Arnold</a>
</li>
<li class="">
<a href="https://www.arnoldrenderer.com/news/">News</a>
</li>
<li class="">
<a href="https://www.arnoldrenderer.com/gallery/">Gallery</a>
</li>
<li class="">
<a href="https://www.arnoldrenderer.com/support/">Support</a>
</li>
<li class="">
<a href="https://answers.arnoldrenderer.com/index.html" target="_blank">Community</a>
</li>
<li class="">
<a href="https://www.arnoldrenderer.com/about/">About</a>
</li>
<li class="">
<a href="https://www.arnoldrenderer.com/contact/">Contact</a>
</li>
<li class="">
<a href="https://accounts.autodesk.com/SignIn?openid.ns=http%3A%2F%2Fspecs.openid.net%2Fauth%2F2.0&amp;openid.mode=checkid_setup&amp;openid.return_to=https%3A%2F%2Fwww.arnoldrenderer.com%2Flogin%2Fsso-callback%2F&amp;openid.realm=https%3A%2F%2Fwww.arnoldrenderer.com%2F&amp;openid.ns.ax=http%3A%2F%2Fopenid.net%2Fsrv%2Fax%2F1.0&amp;openid.ax.mode=fetch_request&amp;openid.ax.type.contact_email=http%3A%2F%2Faxschema.org%2Fcontact%2Femail&amp;openid.ax.type.namePerson=http%3A%2F%2Faxschema.org%2FnamePerson&amp;openid.ax.type.namePerson_friendly=http%3A%2F%2Faxschema.org%2FnamePerson%2Ffriendly&amp;openid.ax.type.namePerson_first=http%3A%2F%2Faxschema.org%2FnamePerson%2Ffirst&amp;openid.ax.type.namePerson_last=http%3A%2F%2Faxschema.org%2FnamePerson%2Flast&amp;openid.ax.type.pref_language=http%3A%2F%2Faxschema.org%2Fpref%2Flanguage&amp;openid.ax.type.autodesk_userid=http%3A%2F%2Faxschema.org%2Fautodesk%2Fuserid&amp;openid.ax.type.autodesk_roles=http%3A%2F%2Faxschema.org%2Fautodesk%2Froles&amp;openid.ax.required=contact_email&amp;openid.ax.if_available=namePerson%2CnamePerson_friendly%2CnamePerson_first%2CnamePerson_last%2Cpref_language%2Cautodesk_userid%2Cautodesk_roles&amp;openid.ns.pape=http%3A%2F%2Fspecs.openid.net%2Fextensions%2Fpape%2F1.0&amp;openid.pape.max_auth_age=0&amp;openid.pape.preferred_auth_policies=&amp;openid.ns.alias6=http%3A%2F%2Fautodesk.com%2Fopenid%2Fext%2Fauthtype%2F1.0&amp;openid.alias6.x_openid_mode=socialoradsk&amp;openid.alias6.x_auth_view_mode=popup&amp;openid.ns.alias7=http%3A%2F%2Fautodesk.com%2Fopenid%2Fext%2Fcustomui%2F1.0&amp;openid.alias7.logo_url=https%3A%2F%2Fwww.arnoldrenderer.com%2Fimg%2Fui%2Fblank.gif&amp;openid.alias7.logo_alt_text=AREA+Digital+Entertainment+and+Visualization+Community&amp;openid.claimed_id=http%3A%2F%2Fspecs.openid.net%2Fauth%2F2.0%2Fidentifier_select&amp;openid.identity=http%3A%2F%2Fspecs.openid.net%2Fauth%2F2.0%2Fidentifier_select">Login / Register</a>
</li>
<li class="" id="buy">
<a href="https://www.arnoldrenderer.com/arnold/buy/">Buy</a>
</li>
<li class="" id="try">
<a href="https://www.arnoldrenderer.com/arnold/try/">Try</a>
</li>
</ul>
</div>
<div id="search-container" style="display:none">
<div id="search-box-container" style="background-color:#fff;">
<form action="https://www.arnoldrenderer.com/search/" id="search-form" method="GET">
<input id="search-box" name="q" style="float:left" type="text"/>
<input id="menu-search-button" style="float:left; font-size:14px; height:26px; padding:0px; margin:0px; margin-left:10px; width:100px; line-height:26px" type="submit" value="search"/>
</form>
</div>
<div style="clear:both"></div>
</div>
<div id="menu-search-icon-container">
<a href="https://www.arnoldrenderer.com/search-box/" id="menu-search-link">
<img id="menu-search-icon" src="https://www.arnoldrenderer.com/resources/images/search.jpg" style="height:20px" title="Search"/>
</a>
</div>
<div style="clear:both"></div>
</div>
<div style="clear:both"></div>
</div>
<div style="clear:both"></div>
</div>
<div style="clear:both"></div>
<div id="sub-menu-container">
<div style="clear:both"></div>
</div>
<div style="clear:both"></div>
</div>
<div id="body">
<table>
<tr>
<td id="right-column">
<div id="content">
<div class="four-column" style="margin-top:20px; text-align:left; color:#000;">
<a href="https://www.arnoldrenderer.com/arnold/">Arnold</a> is an advanced Monte Carlo ray tracing renderer built for the demands of feature-length animation and visual effects.
</div>
<div class="four-column" id="default-tile-container" style="margin-top:40px;">
<div class="tile" id="tile-default-0">
<div class="tile-box">
<div class="tile-content-1">
<div class="tile-body">
<img src="https://www.arnoldrenderer.com/dynamic_resources/articles/arnold_6_1/tile.jpg"/>
</div>
</div>
<div class="tile-content-2">
<div class="article-tile-date">
				28 Oct 2020			</div>
<div class="article-tile-title">
<div style="display:table-cell; vertical-align:middle; text-align:center; width:100%">
					Arnold 6.1				</div>
</div>
<div class="tile-link">
<a href="https://www.arnoldrenderer.com/news/arnold-6-1/"></a>
				read more...
			</div>
</div>
<a class="tile-link" href="https://www.arnoldrenderer.com/news/arnold-6-1/"></a>
</div>
<div class="tile-footer">
<a href="https://www.arnoldrenderer.com/news/arnold-6-1/">
			Arnold 6.1		</a>
</div>
</div> <div class="tile" id="tile-default-1">
<div class="tile-box">
<div class="tile-content-1">
<div class="tile-body">
<img src="https://www.arnoldrenderer.com/dynamic_resources/articles/arnold_in_sidefx_Solaris/tile.jpg"/>
</div>
</div>
<div class="tile-content-2">
<div class="article-tile-date">
				9 Jun 2020			</div>
<div class="article-tile-title">
<div style="display:table-cell; vertical-align:middle; text-align:center; width:100%">
					Introduction to Arnold in SideFX Solaris				</div>
</div>
<div class="tile-link">
<a href="https://www.arnoldrenderer.com/news/arnold-in-sidefx-solaris/"></a>
				read more...
			</div>
</div>
<a class="tile-link" href="https://www.arnoldrenderer.com/news/arnold-in-sidefx-solaris/"></a>
</div>
<div class="tile-footer">
<a href="https://www.arnoldrenderer.com/news/arnold-in-sidefx-solaris/">
			Introduction to Arnold in SideFX Solaris		</a>
</div>
</div> <div class="tile" id="tile-default-2">
<div class="tile-box">
<div class="tile-content-1">
<div class="tile-body">
<img src="https://www.arnoldrenderer.com/dynamic_resources/articles/arnold_6/tile.jpg"/>
</div>
</div>
<div class="tile-content-2">
<div class="article-tile-date">
				10 Dec 2019			</div>
<div class="article-tile-title">
<div style="display:table-cell; vertical-align:middle; text-align:center; width:100%">
					Introducing Arnold 6				</div>
</div>
<div class="tile-link">
<a href="https://www.arnoldrenderer.com/news/arnold-6/"></a>
				read more...
			</div>
</div>
<a class="tile-link" href="https://www.arnoldrenderer.com/news/arnold-6/"></a>
</div>
<div class="tile-footer">
<a href="https://www.arnoldrenderer.com/news/arnold-6/">
			Introducing Arnold 6		</a>
</div>
</div> <div class="tile" id="tile-default-3">
<div class="tile-box">
<div class="tile-content-1">
<div class="tile-body">
<img src="https://www.arnoldrenderer.com/dynamic_resources/articles/arnold_single_user/tile.jpg"/>
</div>
</div>
<div class="tile-content-2">
<div class="article-tile-date">
				10 Dec 2019			</div>
<div class="article-tile-title">
<div style="display:table-cell; vertical-align:middle; text-align:center; width:100%">
					Introducing Arnold Single-User Subscriptions				</div>
</div>
<div class="tile-link">
<a href="https://www.arnoldrenderer.com/news/arnold-single-user/"></a>
				read more...
			</div>
</div>
<a class="tile-link" href="https://www.arnoldrenderer.com/news/arnold-single-user/"></a>
</div>
<div class="tile-footer">
<a href="https://www.arnoldrenderer.com/news/arnold-single-user/">
			Introducing Arnold Single-User Subscriptions		</a>
</div>
</div> <div class="tile" id="tile-default-4">
<div class="tile-box">
<div class="tile-content-1">
<div class="tile-body">
<img src="https://www.arnoldrenderer.com/dynamic_resources/articles/toon_shader_calder_moore/tile.jpg"/>
</div>
</div>
<div class="tile-content-2">
<div class="article-tile-date">
				25 Sep 2019			</div>
<div class="article-tile-title">
<div style="display:table-cell; vertical-align:middle; text-align:center; width:100%">
					 Arnold Toon Shader Series by Calder Moore				</div>
</div>
<div class="tile-link">
<a href="https://www.arnoldrenderer.com/news/toon-shader-calder-moore/"></a>
				read more...
			</div>
</div>
<a class="tile-link" href="https://www.arnoldrenderer.com/news/toon-shader-calder-moore/"></a>
</div>
<div class="tile-footer">
<a href="https://www.arnoldrenderer.com/news/toon-shader-calder-moore/">
			 Arnold Toon Shader Series by Calder Moore		</a>
</div>
</div> <div class="tile" id="tile-default-5">
<div class="tile-box">
<div class="tile-content-1">
<div class="tile-body">
<img src="https://www.arnoldrenderer.com/dynamic_resources/articles/arnold_operators/tile.jpg"/>
</div>
</div>
<div class="tile-content-2">
<div class="article-tile-date">
				3 Sep 2019			</div>
<div class="article-tile-title">
<div style="display:table-cell; vertical-align:middle; text-align:center; width:100%">
					Interactive and Flexible Rendering Workflows with Arnold Operators (ft. The Mill)				</div>
</div>
<div class="tile-link">
<a href="https://www.arnoldrenderer.com/news/arnold-operators/"></a>
				read more...
			</div>
</div>
<a class="tile-link" href="https://www.arnoldrenderer.com/news/arnold-operators/"></a>
</div>
<div class="tile-footer">
<a href="https://www.arnoldrenderer.com/news/arnold-operators/">
			Interactive and Flexible Rendering Workflows with Arnold Operators (ft. The Mill)		</a>
</div>
</div> <div class="tile" id="tile-default-6">
<div class="tile-box">
<div class="tile-content-1">
<div class="tile-body">
<img src="https://www.arnoldrenderer.com/dynamic_resources/articles/whats_new_with_arnold_gpu/tile.jpg"/>
</div>
</div>
<div class="tile-content-2">
<div class="article-tile-date">
				3 Sep 2019			</div>
<div class="article-tile-title">
<div style="display:table-cell; vertical-align:middle; text-align:center; width:100%">
					What's New with Arnold GPU				</div>
</div>
<div class="tile-link">
<a href="https://www.arnoldrenderer.com/news/whats-new-with-arnold-gpu/"></a>
				read more...
			</div>
</div>
<a class="tile-link" href="https://www.arnoldrenderer.com/news/whats-new-with-arnold-gpu/"></a>
</div>
<div class="tile-footer">
<a href="https://www.arnoldrenderer.com/news/whats-new-with-arnold-gpu/">
			What's New with Arnold GPU		</a>
</div>
</div> <div class="tile" id="tile-default-7">
<div class="tile-box">
<div class="tile-content-1">
<div class="tile-body">
<img src="https://www.arnoldrenderer.com/dynamic_resources/articles/arnold_5_4/tile.jpg"/>
</div>
</div>
<div class="tile-content-2">
<div class="article-tile-date">
				31 Jul 2019			</div>
<div class="article-tile-title">
<div style="display:table-cell; vertical-align:middle; text-align:center; width:100%">
					Introducing Arnold 5.4				</div>
</div>
<div class="tile-link">
<a href="https://www.arnoldrenderer.com/news/arnold-5-4/"></a>
				read more...
			</div>
</div>
<a class="tile-link" href="https://www.arnoldrenderer.com/news/arnold-5-4/"></a>
</div>
<div class="tile-footer">
<a href="https://www.arnoldrenderer.com/news/arnold-5-4/">
			Introducing Arnold 5.4		</a>
</div>
</div> <div class="tile" id="tile-default-8">
<div class="tile-box">
<div class="tile-content-1">
<div class="tile-body">
<img src="https://www.arnoldrenderer.com/dynamic_resources/articles/cinesite_test_arnoldgpu_with_rtx/tile.jpg"/>
</div>
</div>
<div class="tile-content-2">
<div class="article-tile-date">
				28 Mar 2019			</div>
<div class="article-tile-title">
<div style="display:table-cell; vertical-align:middle; text-align:center; width:100%">
					Cinesite tests Arnold GPU on NVIDIA Quadro RTX				</div>
</div>
<div class="tile-link">
<a href="https://www.arnoldrenderer.com/news/cinesite-test-arnoldgpu-with-nvidia-rtx/"></a>
				read more...
			</div>
</div>
<a class="tile-link" href="https://www.arnoldrenderer.com/news/cinesite-test-arnoldgpu-with-nvidia-rtx/"></a>
</div>
<div class="tile-footer">
<a href="https://www.arnoldrenderer.com/news/cinesite-test-arnoldgpu-with-nvidia-rtx/">
			Cinesite tests Arnold GPU on NVIDIA Quadro RTX		</a>
</div>
</div> <div class="tile" id="tile-default-9">
<div class="tile-box">
<div class="tile-content-1">
<div class="tile-body">
<img src="https://www.arnoldrenderer.com/dynamic_resources/articles/press_release_arnold_5_3/tile.jpg"/>
</div>
</div>
<div class="tile-content-2">
<div class="article-tile-date">
				18 Mar 2019			</div>
<div class="article-tile-title">
<div style="display:table-cell; vertical-align:middle; text-align:center; width:100%">
					Arnold 5.3 and GPU Public Beta				</div>
</div>
<div class="tile-link">
<a href="https://www.arnoldrenderer.com/news/press-release-arnold-5-3-gpu/"></a>
				read more...
			</div>
</div>
<a class="tile-link" href="https://www.arnoldrenderer.com/news/press-release-arnold-5-3-gpu/"></a>
</div>
<div class="tile-footer">
<a href="https://www.arnoldrenderer.com/news/press-release-arnold-5-3-gpu/">
			Arnold 5.3 and GPU Public Beta		</a>
</div>
</div> <div class="tile" id="tile-default-10">
<div class="tile-box">
<div class="tile-content-1">
<div class="tile-body">
<img src="https://www.arnoldrenderer.com/dynamic_resources/articles/mpc_jaguars_a_breed_apart/tile.jpg"/>
</div>
</div>
<div class="tile-content-2">
<div class="article-tile-date">
				5 Mar 2019			</div>
<div class="article-tile-title">
<div style="display:table-cell; vertical-align:middle; text-align:center; width:100%">
					MPC’s photoreal 3D jaguars steal the spotlight for “A Breed Apart”				</div>
</div>
<div class="tile-link">
<a href="https://www.arnoldrenderer.com/news/mpc-jaguars-a-breed-apart/"></a>
				read more...
			</div>
</div>
<a class="tile-link" href="https://www.arnoldrenderer.com/news/mpc-jaguars-a-breed-apart/"></a>
</div>
<div class="tile-footer">
<a href="https://www.arnoldrenderer.com/news/mpc-jaguars-a-breed-apart/">
			MPC’s photoreal 3D jaguars steal the spotlight for “A Breed Apart”		</a>
</div>
</div> <div class="tile" id="tile-default-11">
<div class="tile-box">
<div class="tile-content-1">
<div class="tile-body">
<img src="https://www.arnoldrenderer.com/dynamic_resources/articles/Arnold_Packs/tile.jpg"/>
</div>
</div>
<div class="tile-content-2">
<div class="article-tile-date">
				7 May 2018			</div>
<div class="article-tile-title">
<div style="display:table-cell; vertical-align:middle; text-align:center; width:100%">
					Arnold Packs now available				</div>
</div>
<div class="tile-link">
<a href="https://www.arnoldrenderer.com/news/arnold-packs/"></a>
				read more...
			</div>
</div>
<a class="tile-link" href="https://www.arnoldrenderer.com/news/arnold-packs/"></a>
</div>
<div class="tile-footer">
<a href="https://www.arnoldrenderer.com/news/arnold-packs/">
			Arnold Packs now available		</a>
</div>
</div> <div class="tile" id="tile-default-12">
<div class="tile-box">
<div class="tile-content-1">
<div class="tile-body">
<img src="https://www.arnoldrenderer.com/dynamic_resources/articles/richard_hoover_blade_runner_2049/tile.jpg"/>
</div>
</div>
<div class="tile-content-2">
<div class="article-tile-date">
				9 Mar 2018			</div>
<div class="article-tile-title">
<div style="display:table-cell; vertical-align:middle; text-align:center; width:100%">
					Framestore's Richard Hoover on "Blade Runner 2049"				</div>
</div>
<div class="tile-link">
<a href="https://www.arnoldrenderer.com/news/richard-hoover-blade-runner-2049/"></a>
				read more...
			</div>
</div>
<a class="tile-link" href="https://www.arnoldrenderer.com/news/richard-hoover-blade-runner-2049/"></a>
</div>
<div class="tile-footer">
<a href="https://www.arnoldrenderer.com/news/richard-hoover-blade-runner-2049/">
			Framestore's Richard Hoover on "Blade Runner 2049"		</a>
</div>
</div> <div class="tile" id="tile-default-13">
<div class="tile-box">
<div class="tile-content-1">
<div class="tile-body">
<img src="https://www.arnoldrenderer.com/dynamic_resources/articles/2017_scitech_award_speech/tile.jpg"/>
</div>
</div>
<div class="tile-content-2">
<div class="article-tile-date">
				12 Feb 2017			</div>
<div class="article-tile-title">
<div style="display:table-cell; vertical-align:middle; text-align:center; width:100%">
					Sci-Tech Award Acceptance Speech				</div>
</div>
<div class="tile-link">
<a href="https://www.arnoldrenderer.com/news/2017-scitech-award-speech/"></a>
				read more...
			</div>
</div>
<a class="tile-link" href="https://www.arnoldrenderer.com/news/2017-scitech-award-speech/"></a>
</div>
<div class="tile-footer">
<a href="https://www.arnoldrenderer.com/news/2017-scitech-award-speech/">
			Sci-Tech Award Acceptance Speech		</a>
</div>
</div> <div class="tile" id="tile-default-14">
<div class="tile-box">
<div class="tile-content-1">
<div class="tile-body">
<img alt="Buy Arnold" src="https://www.arnoldrenderer.com/dynamic_resources/pages/29/image.png"/>
</div>
</div>
<div class="tile-content-2">
<div class="page-tile-title">
				Buy Arnold			</div>
<div class="page-tile-description">
<div style="display:table-cell; vertical-align:middle; text-align:center; width:100%">
					Online web shop for buying Arnold licenses, pricing and enquiries				</div>
</div>
<div class="tile-link">
<a href="https://www.arnoldrenderer.com/arnold/buy/"></a>
				read more...
			</div>
</div>
<a class="tile-link" href="https://www.arnoldrenderer.com/arnold/buy/" title="Online web shop for buying Arnold licenses, pricing and enquiries"></a>
</div>
<div class="tile-footer">
<a href="https://www.arnoldrenderer.com/arnold/buy/">
					Buy Arnold					</a>
</div>
</div> <div class="tile" id="tile-default-15">
<div class="tile-box">
<div class="tile-content-1">
<div class="tile-body">
<img alt="Arnold for Maya" src="https://www.arnoldrenderer.com/dynamic_resources/pages/18/image.png"/>
</div>
</div>
<div class="tile-content-2">
<div class="page-tile-title">
				Arnold for Maya			</div>
<div class="page-tile-description">
<div style="display:table-cell; vertical-align:middle; text-align:center; width:100%">
					Features, pricing, documentation, downloads and support				</div>
</div>
<div class="tile-link">
<a href="https://www.arnoldrenderer.com/arnold/arnold-for-maya/"></a>
				read more...
			</div>
</div>
<a class="tile-link" href="https://www.arnoldrenderer.com/arnold/arnold-for-maya/" title="Features, pricing, documentation, downloads and support"></a>
</div>
<div class="tile-footer">
<a href="https://www.arnoldrenderer.com/arnold/arnold-for-maya/">
					Arnold for Maya					</a>
</div>
</div> <div class="tile" id="tile-default-16">
<div class="tile-box">
<div class="tile-content-1">
<div class="tile-body">
<img alt="Arnold for Houdini" src="https://www.arnoldrenderer.com/dynamic_resources/pages/32/image.png"/>
</div>
</div>
<div class="tile-content-2">
<div class="page-tile-title">
				Arnold for Houdini			</div>
<div class="page-tile-description">
<div style="display:table-cell; vertical-align:middle; text-align:center; width:100%">
					Features, pricing, documentation, downloads and support				</div>
</div>
<div class="tile-link">
<a href="https://www.arnoldrenderer.com/arnold/arnold-for-houdini/"></a>
				read more...
			</div>
</div>
<a class="tile-link" href="https://www.arnoldrenderer.com/arnold/arnold-for-houdini/" title="Features, pricing, documentation, downloads and support"></a>
</div>
<div class="tile-footer">
<a href="https://www.arnoldrenderer.com/arnold/arnold-for-houdini/">
					Arnold for Houdini					</a>
</div>
</div> <div class="tile" id="tile-default-17">
<div class="tile-box">
<div class="tile-content-1">
<div class="tile-body">
<img alt="Arnold for 3ds Max" src="https://www.arnoldrenderer.com/dynamic_resources/pages/37/image.png"/>
</div>
</div>
<div class="tile-content-2">
<div class="page-tile-title">
				Arnold for 3ds Max			</div>
<div class="page-tile-description">
<div style="display:table-cell; vertical-align:middle; text-align:center; width:100%">
					Features, pricing, documentation, downloads and support				</div>
</div>
<div class="tile-link">
<a href="https://www.arnoldrenderer.com/arnold/arnold-for-3dsmax/"></a>
				read more...
			</div>
</div>
<a class="tile-link" href="https://www.arnoldrenderer.com/arnold/arnold-for-3dsmax/" title="Features, pricing, documentation, downloads and support"></a>
</div>
<div class="tile-footer">
<a href="https://www.arnoldrenderer.com/arnold/arnold-for-3dsmax/">
					Arnold for 3ds Max					</a>
</div>
</div> <div class="tile" id="tile-default-18">
<div class="tile-box">
<div class="tile-content-1">
<div class="tile-body">
<img alt="Arnold for Cinema 4D" src="https://www.arnoldrenderer.com/dynamic_resources/pages/36/image.png"/>
</div>
</div>
<div class="tile-content-2">
<div class="page-tile-title">
				Arnold for Cinema 4D			</div>
<div class="page-tile-description">
<div style="display:table-cell; vertical-align:middle; text-align:center; width:100%">
					Features, pricing, documentation, downloads and support				</div>
</div>
<div class="tile-link">
<a href="https://www.arnoldrenderer.com/arnold/arnold-for-cinema-4d/"></a>
				read more...
			</div>
</div>
<a class="tile-link" href="https://www.arnoldrenderer.com/arnold/arnold-for-cinema-4d/" title="Features, pricing, documentation, downloads and support"></a>
</div>
<div class="tile-footer">
<a href="https://www.arnoldrenderer.com/arnold/arnold-for-cinema-4d/">
					Arnold for Cinema 4D					</a>
</div>
</div> <div class="tile" id="tile-default-19">
<div class="tile-box">
<div class="tile-content-1">
<div class="tile-body">
<img alt="Testimonials" src="https://www.arnoldrenderer.com/dynamic_resources/pages/6/image.png"/>
</div>
</div>
<div class="tile-content-2">
<div class="page-tile-title">
				Testimonials			</div>
<div class="page-tile-description">
<div style="display:table-cell; vertical-align:middle; text-align:center; width:100%">
					Read what our customers are saying about Arnold				</div>
</div>
<div class="tile-link">
<a href="https://www.arnoldrenderer.com/arnold/testimonials/"></a>
				read more...
			</div>
</div>
<a class="tile-link" href="https://www.arnoldrenderer.com/arnold/testimonials/" title="Read what our customers are saying about Arnold"></a>
</div>
<div class="tile-footer">
<a href="https://www.arnoldrenderer.com/arnold/testimonials/">
					Testimonials					</a>
</div>
</div> </div>
</div>
</td>
</tr>
</table>
</div>
<div id="footer" style="">
<div id="footer-copyright" style="float:left">
						© 2009 - 2021 Solid Angle S.L. All Rights Reserved
					</div>
<div id="footer-right-column">
<div id="footer-links">
<a href="http://www.autodesk.com/company/legal-notices-trademarks" target="__blank">website terms</a> /
							<a href="https://www.autodesk.com/company/legal-notices-trademarks/privacy-statement" target="_blank">privacy/cookies</a> /
							<a href="https://www.arnoldrenderer.com/contact/" style="margin-right:20px">contact</a>
</div>
<div id="footer-social-icons">
<a href="https://twitter.com/arnoldrenderer" style="margin-right:5px;" target="_blank">
<img src="https://www.arnoldrenderer.com/resources/images/menu_boxes/twitter_225.jpg" style="width:20px; vertical-align:middle"/>
</a>
<a href="https://www.linkedin.com/showcase/autodesk-media-&amp;-entertainment/" style="margin-right:5px;" target="_blank">
<img src="https://www.arnoldrenderer.com/resources/images/menu_boxes/linked_in_225.jpg" style="width:20px; vertical-align:middle"/>
</a>
<a href="https://www.youtube.com/user/arnoldrenderer" style="margin-right:5px;" target="_blank">
<img src="https://www.arnoldrenderer.com/resources/images/menu_boxes/youtube225.jpg" style="width:20px; vertical-align:middle"/>
</a>
<div style="clear:both"></div>
</div>
<div style="clear:both"></div>
</div>
<div style="clear:both"></div>
</div>
</div>
</body>
</html>