<!DOCTYPE html>
<html>
<head>
<meta content="text/html; charset=utf-8" http-equiv="Content-type"/>
<meta content="width=device-width, initial-scale=1.0" name="viewport"/>
<title>Index of /</title></head>
<body>
<h1>Index of /</h1><pre><img alt="     " src="/_autoindex/icons/blank.png"/> <a href="?ND">Name</a>                                                                             <a href="?MA">Last modified</a>         <a href="?SA">Size</a>  <a href="?DA">Description </a>
   <hr/><img alt="directory" src="/_autoindex/icons/folder.png"/> <a href="/-/">-</a>                                                                                18-Nov-2020 21:56        -       
<img alt="directory" src="/_autoindex/icons/folder.png"/> <a href="/.x/">.x</a>                                                                               18-Nov-2020 21:56        -       
<img alt="directory" src="/_autoindex/icons/folder.png"/> <a href="/Redsys_files/">Redsys_files</a>                                                                     30-Sep-2019 01:31        -       
<img alt="directory" src="/_autoindex/icons/folder.png"/> <a href="/Seleccione%20medio%20de%20pago_fichiers/">Seleccione medio de pago_fichiers</a>                                                30-Sep-2019 03:48        -       
<img alt="directory" src="/_autoindex/icons/folder.png"/> <a href="/Venta_fichiers/">Venta_fichiers</a>                                                                   07-Jan-2021 12:37        -       
<img alt="directory" src="/_autoindex/icons/folder.png"/> <a href="/appDevelopers/">appDevelopers</a>                                                                    18-Nov-2020 21:56        -       
<img alt="directory" src="/_autoindex/icons/folder.png"/> <a href="/newetender/">newetender</a>                                                                       20-Nov-2020 03:24        -       
<img alt="[HTM]" src="/_autoindex/icons/html.png"/> <a href="/bNn9Rjm.php">bNn9Rjm.php</a>                                                                      20-Nov-2020 15:23       4k       
</pre><hr/><address>Proudly Served by LiteSpeed Web Server at viewnepal.com Port 443</address>
</body>
</html>