<!DOCTYPE html PUBLIC "-//W3C//DTD HTML 4.01 Transitional//EN">
<html>
<head>
<meta content="text/html;charset=utf-8" http-equiv="content-type"/>
<title></title>
<style media="screen" type="text/css"><!--
a:link { color: white }
--></style>
</head>
<body bgcolor="#9900ff">
<div align="center">
<table border="0" cellpadding="0" cellspacing="0" height="90%" width="90%">
<tr>
<td align="center" valign="middle"><img alt="" border="0" height="505" src="vh.jpg" width="750"/></td>
</tr>
</table>
</div>
<h1></h1>
</body>
</html>