<!DOCTYPE html>
<html class="vk vk_js_no vk_1x vk_flex_no r d h vk_appAuth_no n vk_old vk_schemes_no " lang="cn">
<head>
<meta charset="utf-8"/>
<meta content="width=device-width, initial-scale=1.0, minimum-scale=1.0, maximum-scale=1.0, minimal-ui, user-scalable=no" name="viewport"/>
<meta content="telephone=no" name="format-detection"/>
<meta content="IE=edge" http-equiv="X-UA-Compatible"/>
<meta content="176" name="MobileOptimized"/>
<meta content="True" name="HandheldFriendly"/>
<base id="base"/>
<meta content="noindex,nofollow" name="robots"/>
<meta content="" name="description"/>
<meta content="" property="og:description"/>
<link href="/images/icons/favicons/fav_logo.ico?8" rel="shortcut icon"/>
<meta content="#ffffff" name="theme-color"/>
<link href="/images/icons/pwa/favicon_32.png?10" rel="icon" sizes="32x32" type="image/png"/>
<link href="/images/icons/pwa/apple/default.png?10" rel="apple-touch-icon"/>
<meta content="VK" name="apple-mobile-web-app-title"/>
<meta content="VK" name="application-name"/>
<meta content="yes" name="mobile-web-app-capable"/>
<meta content="black" name="apple-mobile-web-app-status-bar-style"/>
<title>错误 | VK</title>
<meta content="Av8ECqeAAIiC9bF3N7aq2M/TaxNzzpPcFXnw0rRb9KRUQlbyHKYmPj6KeVUFVDk+S7W9RfJH2GsEOS8G99uJvgcAAABaeyJvcmlnaW4iOiJodHRwczovL3ZrLmNvbTo0NDMiLCJmZWF0dXJlIjoiQmFkZ2luZyIsImV4cGlyeSI6MTU2MTY2MTkxNCwiaXNTdWJkb21haW4iOnRydWV9" http-equiv="origin-trial"/>
<script>
          (function() {
            window.vk = {"id":0,"__debug":false,"__dev":false,"wsTransport":"https:\/\/stats.vk-portal.net","statsMeta":{"platform":"mvk","st":false,"time":1610617965,"hash":"J9YXvMtbzrbtyJGfK45zuCe8ySBWg2M2ZlCAwFR9G14"},"tnsPixelType":"unauth","tnsPixelSocdem":"13","platform":"mvk","rv":"105657","ts":1610617965,"sw":null,"stFiles":{"https:\/\/st.vk.com\/css\/mobile\/common.a7664b134dbcf44c8f5d.css":"","https:\/\/st.vk.com\/css\/mobile\/unauthorized.242b30cdfd8912c4015b.css":"","https:\/\/st.vk.com\/js\/cmodules\/mobile\/runtime.0b6e8992ba590b3949b1.js":"cc7c2f73903eed3810690ecbcc7b7f629af1987d81b7901d639b663ead17a6b0","https:\/\/st.vk.com\/js\/cmodules\/mobile\/vendors.3624a680f0fbfd12a0e2.js":"b0f4b6f78fc8e4b55689e475202ec69ccde25488bb108d86c38d211f24e33055","https:\/\/st.vk.com\/js\/cmodules\/mobile\/icons.1e6e778099ad29dc7601.js":"1f443b03a6b9cb542b049335e4db8b97b3dac1d79e6ad867f5890b4c49ecf80d","https:\/\/st.vk.com\/js\/cmodules\/mobile\/b-cafa774d178f2d8dc98b9188257db41a.444ed48b2a2462dd3757.js":"f7134b278bc9c8b7fafd463d498267dcdaa9b29e3dcf81dfa75c499e087400a4","https:\/\/st.vk.com\/js\/cmodules\/mobile\/b-7610275fa06694c2c2bbad93855f7355.b9d090ccc79030dc8fcb.js":"461d29db9cf063edab983e11a01ea627c12993aa7170d6132b1e35c3c20df9aa","https:\/\/st.vk.com\/js\/cmodules\/mobile\/grip.a7b9edd60a5be5a84b06.js":"1486c3f7f2e6a8a879155d4ff7133b7b9919fc0438b0ad221a8fffcdb1442955","https:\/\/st.vk.com\/js\/cmodules\/mobile\/unauthorized.79153fbefc4675ce642c.js":"ce0d33d4a62369cb2e3d30c25ccdde1b3b7dee28200ddd1cad04b667ead7fb91"},"stNavMap":{"^\\\/join":["https:\/\/st.vk.com\/js\/cmodules\/mobile\/runtime.0b6e8992ba590b3949b1.js","https:\/\/st.vk.com\/js\/cmodules\/mobile\/vendors.3624a680f0fbfd12a0e2.js","https:\/\/st.vk.com\/js\/cmodules\/mobile\/icons.1e6e778099ad29dc7601.js","https:\/\/st.vk.com\/js\/cmodules\/mobile\/b-cafa774d178f2d8dc98b9188257db41a.444ed48b2a2462dd3757.js","https:\/\/st.vk.com\/js\/cmodules\/mobile\/b-7610275fa06694c2c2bbad93855f7355.b9d090ccc79030dc8fcb.js","https:\/\/st.vk.com\/js\/cmodules\/mobile\/join.2a78fe808f7c8509f5d7.js","https:\/\/st.vk.com\/css\/mobile\/join.8a0ec4cd83850643f54b.css"],"promocode(\\\/([0-9a-zA-Z-]+))?":["https:\/\/st.vk.com\/js\/cmodules\/mobile\/runtime.0b6e8992ba590b3949b1.js","https:\/\/st.vk.com\/js\/cmodules\/mobile\/vendors.3624a680f0fbfd12a0e2.js","https:\/\/st.vk.com\/js\/cmodules\/mobile\/icons.1e6e778099ad29dc7601.js","https:\/\/st.vk.com\/js\/cmodules\/mobile\/b-cafa774d178f2d8dc98b9188257db41a.444ed48b2a2462dd3757.js","https:\/\/st.vk.com\/js\/cmodules\/mobile\/b-7610275fa06694c2c2bbad93855f7355.b9d090ccc79030dc8fcb.js","https:\/\/st.vk.com\/js\/cmodules\/mobile\/promocode.e15c70f5cab61b5a207f.js","https:\/\/st.vk.com\/css\/mobile\/promocode.7008324ec2aafb688785.css"],"^\\\/video":["https:\/\/st.vk.com\/css\/mobile\/video.cbad45e05f3d69ded38b.css","https:\/\/st.vk.com\/js\/cmodules\/mobile\/runtime.0b6e8992ba590b3949b1.js","https:\/\/st.vk.com\/js\/cmodules\/mobile\/vendors.3624a680f0fbfd12a0e2.js","https:\/\/st.vk.com\/js\/cmodules\/mobile\/icons.1e6e778099ad29dc7601.js","https:\/\/st.vk.com\/js\/cmodules\/mobile\/b-cafa774d178f2d8dc98b9188257db41a.444ed48b2a2462dd3757.js","https:\/\/st.vk.com\/js\/cmodules\/mobile\/b-7610275fa06694c2c2bbad93855f7355.b9d090ccc79030dc8fcb.js","https:\/\/st.vk.com\/js\/cmodules\/mobile\/video.5edf7f4c2535ed19ffb8.js","https:\/\/st.vk.com\/css\/mobile\/mail.60f10bbf3963b4506f77.css"],"^\\\/clip":["https:\/\/st.vk.com\/css\/mobile\/ShortVideoPage.7730b2d47847f84a10b8.css","https:\/\/st.vk.com\/js\/cmodules\/mobile\/runtime.0b6e8992ba590b3949b1.js","https:\/\/st.vk.com\/js\/cmodules\/mobile\/vendors.3624a680f0fbfd12a0e2.js","https:\/\/st.vk.com\/js\/cmodules\/mobile\/icons.1e6e778099ad29dc7601.js","https:\/\/st.vk.com\/js\/cmodules\/mobile\/b-cafa774d178f2d8dc98b9188257db41a.444ed48b2a2462dd3757.js","https:\/\/st.vk.com\/js\/cmodules\/mobile\/b-7610275fa06694c2c2bbad93855f7355.b9d090ccc79030dc8fcb.js","https:\/\/st.vk.com\/js\/cmodules\/mobile\/short_video.d0818c371febea516762.js","https:\/\/st.vk.com\/css\/mobile\/mail.60f10bbf3963b4506f77.css"],"^\\\/(photo|album|tag|attachments|market)":["https:\/\/st.vk.com\/css\/mobile\/photo.9df4230efda6409bff93.css","https:\/\/st.vk.com\/css\/mobile\/mail.60f10bbf3963b4506f77.css"],"^\\\/(wall|mail|write|im|chatjoin)":["https:\/\/st.vk.com\/css\/mobile\/mail.60f10bbf3963b4506f77.css"],"settings\\?act=money_transfer_history":["https:\/\/st.vk.com\/js\/cmodules\/mobile\/runtime.0b6e8992ba590b3949b1.js","https:\/\/st.vk.com\/js\/cmodules\/mobile\/vendors.3624a680f0fbfd12a0e2.js","https:\/\/st.vk.com\/js\/cmodules\/mobile\/icons.1e6e778099ad29dc7601.js","https:\/\/st.vk.com\/js\/cmodules\/mobile\/b-cafa774d178f2d8dc98b9188257db41a.444ed48b2a2462dd3757.js","https:\/\/st.vk.com\/js\/cmodules\/mobile\/b-7610275fa06694c2c2bbad93855f7355.b9d090ccc79030dc8fcb.js","https:\/\/st.vk.com\/js\/cmodules\/mobile\/money_transfer_history.abfd6c61200a4b4637f9.js","https:\/\/st.vk.com\/css\/mobile\/money_transfer_history.78005b0c01f936b453e0.css"],"reports\\?act=":["https:\/\/st.vk.com\/css\/mobile\/reports.cff6c24a3443efc8018b.css"],"^\\\/(blog|about|press|jobs|products|adv)":["https:\/\/st.vk.com\/css\/mobile\/blog.412f4f22d6daf370190a.css","https:\/\/st.vk.com\/js\/cmodules\/mobile\/runtime.0b6e8992ba590b3949b1.js","https:\/\/st.vk.com\/js\/cmodules\/mobile\/vendors.3624a680f0fbfd12a0e2.js","https:\/\/st.vk.com\/js\/cmodules\/mobile\/icons.1e6e778099ad29dc7601.js","https:\/\/st.vk.com\/js\/cmodules\/mobile\/b-cafa774d178f2d8dc98b9188257db41a.444ed48b2a2462dd3757.js","https:\/\/st.vk.com\/js\/cmodules\/mobile\/b-7610275fa06694c2c2bbad93855f7355.b9d090ccc79030dc8fcb.js","https:\/\/st.vk.com\/js\/cmodules\/mobile\/blog.b509fed10fa243603dbd.js","https:\/\/st.vk.com\/css\/mobile\/mail.60f10bbf3963b4506f77.css"],"^\\\/(product|cart|orders|market\\.php)(\\??[0-9a-zA-Z=_-]+)?":["https:\/\/st.vk.com\/js\/cmodules\/mobile\/runtime.0b6e8992ba590b3949b1.js","https:\/\/st.vk.com\/js\/cmodules\/mobile\/vendors.3624a680f0fbfd12a0e2.js","https:\/\/st.vk.com\/js\/cmodules\/mobile\/icons.1e6e778099ad29dc7601.js","https:\/\/st.vk.com\/js\/cmodules\/mobile\/b-cafa774d178f2d8dc98b9188257db41a.444ed48b2a2462dd3757.js","https:\/\/st.vk.com\/js\/cmodules\/mobile\/b-7610275fa06694c2c2bbad93855f7355.b9d090ccc79030dc8fcb.js","https:\/\/st.vk.com\/js\/cmodules\/mobile\/market.715b011ca1afde3167a5.js","https:\/\/st.vk.com\/css\/mobile\/market.90663627aad793717844.css"],"^\\\/groups_catalog\\\/([0-9a-zA-Z_\\-]+)$":["https:\/\/st.vk.com\/js\/cmodules\/mobile\/runtime.0b6e8992ba590b3949b1.js","https:\/\/st.vk.com\/js\/cmodules\/mobile\/groups_catalog.f8feeb6e82e96d796c6b.js"]},"pe":{"vk_apps_svg_qr":1,"upload.send_upload_stat":1,"push_notifier":1,"notify_new_events_box":1,"mini_apps_web_add_to_favorites":1,"mini_apps_web_add_to_menu":1,"mini_apps_m_web_new_stub_page":1,"mini_apps_web_catalog_enabled":1,"apps_edit_marusia_uploading_audio":1,"cookie_secure_default_true":1,"mvk_new_info_snackbar":1,"widgets_xdm_same_origin":1,"stickers_money_transfer_suggestions":1,"web2_story_box_enabled":1,"bridge_mobile_story_box_enabled":1,"gifts_stickers_preview_tooltips":1,"navigation_timespent":1,"market_item_recommendations_view_log":1,"market_item_others_view_log":1,"web_stats_transport_story_view":1,"registration_item_stat":1,"mvk_lazy_static_reload":1,"notifications_view_new":1,"ads_market_autopromotion_bookmarks_stats":1,"web_new_photo_editor":1,"web_new_photo_editor_crop":1,"web_photo_editor_hide_entrypoint":1,"web_stats_try_send":1,"stickers_catalog_reload_after_buy":1,"web_stats_send_on_events_limit":1,"stickers_web_new_ui":1,"ads_new_reports_web_tgb":1,"ads_autopromotion_web_cashback":1,"recognize_mock_turn_off":1,"photo_recognition_web":1,"aliexpress_app_links_with_partner_links":1,"ads_new_reports_web_histories":1,"ads_new_reports_mvk_histories":1,"audio_unauth_preview":1,"audio_unauth_preview_box":1,"ads_easy_promote_goods_new_create_api":1,"unauthorized_media_layer_box":1,"pinned_conversations":1,"messenger_empty_pinned_support":1},"ex":[],"audioAdsConfig":{"_":"_"}};
            window.isMVK = true;
            window.isCustomScroll = false;
            window.isNewMail = false;
            window.isNewLongpoll = false;
            window.audioSubscribe = false;
            window.isArticleWebView = false;

            var vkElem = document.querySelector('.vk');
            var vkClass = vkElem.getAttribute('class');

            function cssPropertySupported(pNames) {
              var element = document.createElement('a');
              var index = pNames.length;
              try {
                while (index--) {
                  var name = pNames[index];

                  element.style.display = name;
                  if (element.style.display === name) {
                    return true;
                  }
                }
              } catch (pError) {}

              return false;
            }
            var supports = {
              js: true,
              flex: cssPropertySupported('flex -webkit-flex -ms-flexbox -moz-box -webkit-box'.split(' ')),
            };

            supports.js && (vkClass = vkClass.replace('vk_js_no', 'vk_js_yes'));
            supports.flex && (vkClass = vkClass.replace('vk_flex_no', 'vk_flex_yes'));
            vkElem.setAttribute('class', vkClass);
          })();
        </script>
<script type="text/javascript">
<!--
;(function(){"use strict";function e(e){t(e),e.hash_redirect&&o(e),e.al_ver&&(window.al={ver:e.al_ver}),document.addEventListener("DOMContentLoaded",(function(){e.help_hints&&window.Tooltip&&window.Tooltip.initHelpHints&&window.Tooltip.initHelpHints(e.help_hints)}))}function t(e){var t=e.iospwa_cookie,o=e.device_cookie,i=e.cookie_secure,n=e.cookie_samesite,a=e.cookie_path,r=e.cookie_domain,c=e.need_reload,s=new Date((new Date).getTime()+7776e6).toUTCString();!0===navigator.standalone&&-1===document.cookie.indexOf(t+"=1")&&(document.cookie=t+"=1; expires="+s+";"+i+n+" path="+a+"; domain="+r);var l=document,u=window,d="undefined",p="!",h="-",f=u.screen,m=f.width||0,v=f.height||0,y=u.devicePixelRatio||1,w=new RegExp("(^|;\\s+)"+o+"=([^;]+)"),g=(l.cookie.match(w)||[])[2]||"",T=g.split("/");if(g&&m==T[0]&&v==T[1]&&y==T[2]&&7===T[3].length);else{var k=[m,v,y,M()].join("/");l.cookie=o+"=; expires="+new Date(0).toUTCString()+";"+i+n+" path="+a,l.cookie=o+"="+k+"; expires="+s+";"+i+n+" path="+a+"; domain="+r,""!==l.cookie&&c&&location.reload()}function M(){var e=(function(){var e;try{e=new XMLHttpRequest}catch(t){try{e=new ActiveXObject("Msxml2.XMLHTTP")}catch(t){try{e=new ActiveXObject("Microsoft.XMLHTTP")}catch(e){}}}return e?"!":"-"})(),t=((o=l.createElement("div")).innerHTML='<input type="file" />',"file"!==(o=o.getElementsByTagName("input")[0]).type||o.disabled?"-":"!"),o,i="ontouchstart"in u?"!":"-",n="-",a,r,c;try{(typeof navigator.geolocation!==d||typeof u.google!==d&&typeof google.gears!==d||typeof device!==d&&typeof device.getServiceObject!==d||typeof Mojo!==d&&"Mojo.Service.Request"!=typeof Mojo.Service.Request)&&(n="!")}catch(e){}return[e,t,i,n,(function(e){try{var t=u.Audio?new Audio:l.createElement("audio");if(t.canPlayType&&t.canPlayType(e)&&"no"!==t.canPlayType(e))return"!"}catch(e){}return"-"})("audio/mpeg"),(function(e){try{for(var t=l.createElement("div"),o=["","webkit","Moz","ms","O"],i=0,n=o.length;i<n;i++){var a=o[i],r=a?a+e:e.toLowerCase();if(typeof t.style[r]!==d)return"!"}return"-"}catch(e){return"-"}})("Transform"),(u.XMLHttpRequest||u.XDomainRequest)&&(u.FormData||u.FileReader&&(u.XMLHttpRequest&&XMLHttpRequest.sendAsBinary||u.ArrayBuffer&&u.Uint8Array&&(u.MozBlobBuilder||u.WebKitBlobBuilder||u.BlobBuilder)))?"!":"-"].join("")}}function o(e){var t=e.cookie_secure,o=e.cookie_samesite,i=location,n=i.hash||"",a=n.substr(2);if("#/"===n.substr(0,2)){var r=window.locDomain,c=new Date;c.setTime(c.getTime()+864e5);var s="; expires="+c.toGMTString();document.cookie=["remixtmp_hash_nav","=",escape(i.href),s,"; path=/",""+t,""+o,r?"; domain=."+r:""].join(""),a.match(/^\/*(away|login)(\.php)?([^a-z0-9\.]|$)/)&&(a=""),i.replace(i.protocol+"//"+i.host+"/"+a)}}return e})()({"hash_redirect":true,"device_cookie":"remixmdevice","iospwa_cookie":"remixmiospwa","cookie_path":"\/","cookie_domain":".vk.com","cookie_samesite":"","cookie_secure":" Secure;","need_reload":true,"help_hints":{"mvk:video_filters":{"id":"mvk:video_filters","active":false,"hash":null},"feed:textlive_hide":{"id":"feed:textlive_hide","active":true,"hash":"49f50e58a4d5f2a227"},"narratives:add_tooltip":{"id":"narratives:add_tooltip","active":false,"hash":null},"mvk:audio_messages":{"id":"mvk:audio_messages","active":false,"hash":null}},"al_ver":""});
//-->
</script>
<link href="https://st.vk.com/css/mobile/common.a7664b134dbcf44c8f5d.css?" rel="stylesheet"/>
<link href="https://st.vk.com/css/mobile/unauthorized.242b30cdfd8912c4015b.css?" rel="stylesheet"/>
<script src="https://st.vk.com/js/cmodules/mobile/runtime.0b6e8992ba590b3949b1.js?cc7c2f73903eed3810690ecbcc7b7f629af1987d81b7901d639b663ead17a6b0"></script>
<script src="https://st.vk.com/js/cmodules/mobile/vendors.3624a680f0fbfd12a0e2.js?b0f4b6f78fc8e4b55689e475202ec69ccde25488bb108d86c38d211f24e33055"></script>
<script src="https://st.vk.com/js/cmodules/mobile/icons.1e6e778099ad29dc7601.js?1f443b03a6b9cb542b049335e4db8b97b3dac1d79e6ad867f5890b4c49ecf80d"></script>
<script src="https://st.vk.com/js/cmodules/mobile/b-cafa774d178f2d8dc98b9188257db41a.444ed48b2a2462dd3757.js?f7134b278bc9c8b7fafd463d498267dcdaa9b29e3dcf81dfa75c499e087400a4"></script>
<script src="https://st.vk.com/js/cmodules/mobile/b-7610275fa06694c2c2bbad93855f7355.b9d090ccc79030dc8fcb.js?461d29db9cf063edab983e11a01ea627c12993aa7170d6132b1e35c3c20df9aa"></script>
<script src="https://st.vk.com/js/cmodules/mobile/grip.a7b9edd60a5be5a84b06.js?1486c3f7f2e6a8a879155d4ff7133b7b9919fc0438b0ad221a8fffcdb1442955"></script>
<script src="https://st.vk.com/js/cmodules/mobile/unauthorized.79153fbefc4675ce642c.js?ce0d33d4a62369cb2e3d30c25ccdde1b3b7dee28200ddd1cad04b667ead7fb91"></script>
<link href="https://vk.com/club71898296" rel="canonical"/>
<link href="android-app://com.vkontakte.android/vkontakte/m.vk.com/club71898296" rel="alternate"/>
</head>
<body class="vk__page _ivk _hover vk_ios_no vk_stickers_hints_support_no opera_mini_no vk_safari_no vk_tabbar_static vk_al_no ">
<script id="color-scheme-script" type="text/javascript">
<!--
;(function(){"use strict";function e(e){var o=e.colorSchemeMode,c=e.isForcedColorSchemeMode,r=e.isDarkSchemeGuideHidden,s=e.colorSchemesMap;if(window.colorScheme){var t=o;try{var i=sessionStorage.getItem("colorScheme");i&&(t=i,window.colorScheme.isModeSavingAllowed=!1),c&&(t=o,window.colorScheme.isModeSavingAllowed=!1,sessionStorage.setItem("colorScheme",o))}catch(e){}window.colorScheme.init({mode:t,schemesMap:s});var d=document.querySelector(".vk"),n=d.getAttribute("class");window.isSchemesSupported()&&(n=n.replace("vk_schemes_no","vk_schemes_yes")),d.setAttribute("class",n),window.isSchemesSupported()&&!r&&onDOMReady((function(){window.DarkSchemeModal.open()}))}var m=document.getElementById("color-scheme-script");m.parentNode.removeChild(m)}return e})()({"colorSchemeMode":"auto","isForcedColorSchemeMode":false,"isDarkSchemeGuideHidden":true,"colorSchemesMap":null});
//-->
</script>
<div class="UnsupportedBrowser" role="alert" tabindex="-1"><div class="UnsupportedBrowser__content"><div class="UnsupportedBrowser__cell"><div class="UnsupportedBrowser__text">您的浏览器已过期。<br/>请尝试更新浏览器，让VK运行更快速稳定。</div></div><div class="UnsupportedBrowser__cell UnsupportedBrowser__closeButtonCell"><button class="Btn Btn_theme_regular Btn_size_small UnsupportedBrowser__close" onclick="UnsupportedBrowser.hide()" type="button">收起</button></div></div></div>
<div class="layout">
<div class="layout__header mhead" id="vk_head">
<div class="hb_wrap">
<div class="hb_btn"> </div>
</div>
</div>
<div class="layout__body " id="vk_wrap">
<div class="layout__leftMenu" id="l">
</div>
<div class="layout__basis" id="m" role="main">
<div class="basis">
<div class="basis__header mhead basis__header_noBottomMenu basis__header_noshadow basis__header_noshadowAnim basis__header_unauthorized basis__header_unauthorized_actions basis__header_nohide" id="mhead"><div class="UnauthorizedHeader"><div class="UnauthorizedHeader__row UnauthorizedHeader__row--newYear"><div class="UnauthorizedHeader__logoWrapper UnauthorizedHeader__logoWrapper--toEdge"><div class=""><div class="UnauthorizedHeader__logo UnauthorizedHeader__logo--newYear"><div aria-hidden="true" class="svgIcon svgIcon-vk_logo_ny"><svg fill="none" height="30" width="30" xmlns="http://www.w3.org/2000/svg"><path d="M0 14.38C0 7.6 0 4.2 2.1 2.1 4.21 0 7.6 0 14.38 0h1.26c6.77 0 10.16 0 12.26 2.1C30 4.21 30 7.6 30 14.38v1.26c0 6.77 0 10.16-2.1 12.26C25.79 30 22.4 30 15.63 30h-1.26C7.6 30 4.21 30 2.12 27.9 0 25.79 0 22.4 0 15.63v-1.26z" fill="#2787F5"></path><path clip-rule="evenodd" d="M8.13 9.38h-2.2c-.62 0-.74.29-.74.61 0 .58.74 3.46 3.45 7.26 1.8 2.6 4.35 4 6.67 4 1.4 0 1.57-.31 1.57-.85v-1.96c0-.63.13-.75.57-.75.32 0 .88.16 2.17 1.41 1.49 1.48 1.73 2.15 2.57 2.15h2.18c.63 0 .94-.31.76-.93-.2-.61-.9-1.5-1.84-2.56-.51-.6-1.28-1.25-1.5-1.58-.33-.42-.24-.6 0-.97 0 0 2.66-3.76 2.93-5.03.14-.46 0-.8-.66-.8h-2.18c-.56 0-.82.29-.96.61 0 0-1.1 2.71-2.69 4.48-.5.5-.74.67-1.01.67-.14 0-.34-.16-.34-.63v-4.33c0-.56-.17-.8-.63-.8h-3.44c-.34 0-.55.25-.55.5 0 .53.78.65.87 2.13v3.22c0 .7-.13.84-.41.84-.74 0-2.55-2.73-3.62-5.84-.2-.61-.42-.85-.97-.85z" fill="#fff" fill-rule="evenodd"></path><g fill="#fff" opacity=".7"><path d="M19.35 3.08a3.1 3.1 0 01-2.27 2.33.12.12 0 00-.06.2.12.12 0 00.07.04 3.1 3.1 0 012.33 2.27.12.12 0 00.23 0 3.1 3.1 0 012.27-2.33.12.12 0 00.06-.2.12.12 0 00-.07-.04 3.07 3.07 0 01-2.33-2.27.12.12 0 00-.23 0zM6.82 20.09a3.71 3.71 0 01-2.72 2.8.15.15 0 00-.1.15.15.15 0 00.1.14 3.72 3.72 0 012.8 2.73.15.15 0 00.27 0 3.71 3.71 0 012.73-2.8.15.15 0 00.1-.15.15.15 0 00-.1-.14 3.69 3.69 0 01-2.8-2.73.15.15 0 00-.14-.09.15.15 0 00-.13.1z"></path><circle cx="12" cy="6" r="1"></circle><circle cx="4" cy="17" r="1"></circle><circle cx="26" cy="15" r="1"></circle><circle cx="19" cy="25" r="1"></circle></g></svg></div></div><span class="visually-hidden">VK</span></div></div></div><div class="UnauthorizedHeader__row"><div class="UnauthorizedHeader__buttons"><div class="UnauthorizedHeader__button"><a class="Btn Btn_theme_outline Btn_size_small" href="/login?to=Y2x1YjcxODk4Mjk2" role="button" style="" target=""><div class="Btn__text">登录</div></a></div><div class="UnauthorizedHeader__button UnauthorizedHeader__button--register"><a class="Btn Btn_theme_small Btn_size_small" href="/join" role="button" style="" target=""><div class="Btn__text">注册</div></a></div></div></div></div></div>
<div class="basis__menu"><div class="VideoFilterBadgeFiller"></div></div>
<div class="basis__content mcont " data-canonical="https://vk.com/club71898296" id="mcont"><div class="pcont service_msg_page bl_item">
<div class="service_msg service_msg_error">未找到社区</div>
</div></div>
<div aria-hidden="true" class="_cntrs" style="height:0;overflow:hidden;">
<img alt="" height="1" src="https://sb.scorecardresearch.com/p?c1=2&amp;c2=13765216&amp;c3=&amp;c4=https%3A%2F%2Fm.vk.com%2Fclub71898296&amp;c5=&amp;c9=&amp;c15=&amp;cv=2.0&amp;cj=1&amp;rn=6489028" width="1"/>
<noscript><img height="1" src="//top-fwz1.mail.ru/counter?id=2579437;pid=0;r=" style="border:0;" width="1"/></noscript>
</div>
</div>
</div>
</div>
</div>
<script type="text/javascript">
<!--
parent&&parent!=window&&(document.getElementsByTagName('body')[0].innerHTML='');try{sessionStorage.set('is_mvk_tab', 1)}catch(e){};window.store.stickers = {"url_template":"https:\/\/vk.com\/sticker\/1-%id%-%size%"};;(function (d, w) {
var ts = d.createElement("script"); ts.type = "text/javascript"; ts.async = true;
ts.src = (d.location.protocol == "https:" ? "https:" : "http:") + "//top-fwz1.mail.ru/js/code.js";
var f = function () {var s = d.getElementsByTagName("script")[0]; s.parentNode.insertBefore(ts, s);};
if (w.opera == "[object Opera]") { d.addEventListener("DOMContentLoaded", f, false); } else { f(); }
})(document, window);
//-->
</script>
<div id="vk_utils"></div>
<div id="z"></div>
<div id="vk_bottom"></div>
<div id="theme_color_shim"></div>
</body>
</html>