<!DOCTYPE html>
<html lang="en-GB">
<head>
<meta charset="utf-8"/>
<meta content="width=device-width, initial-scale=1" name="viewport"/>
<link href="http://gmpg.org/xfn/11" rel="profile"/>
<!-- MapPress Easy Google Maps Version:2.58.3 (http://www.mappresspro.com/mappress) -->
<script type="text/javascript">mapp = window.mapp || {}; mapp.data = [];</script>
<script>
        (function (exports, d) {
            var _isReady = false,
                _event,
                _fns = [];

            function onReady(event) {
                d.removeEventListener("DOMContentLoaded", onReady);
                _isReady = true;
                _event = event;
                _fns.forEach(function (_fn) {
                    var fn = _fn[0],
                        context = _fn[1];
                    fn.call(context || exports, window.jQuery);
                });
            }

            function onReadyIe(event) {
                if (d.readyState === "complete") {
                    d.detachEvent("onreadystatechange", onReadyIe);
                    _isReady = true;
                    _event = event;
                    _fns.forEach(function (_fn) {
                        var fn = _fn[0],
                            context = _fn[1];
                        fn.call(context || exports, event);
                    });
                }
            }

            d.addEventListener && d.addEventListener("DOMContentLoaded", onReady) ||
            d.attachEvent && d.attachEvent("onreadystatechange", onReadyIe);

            function domReady(fn, context) {
                if (_isReady) {
                    fn.call(context, _event);
                }

                _fns.push([fn, context]);
            }

            exports.mesmerizeDomReady = domReady;
        })(window, document);
    </script>
<!-- Optimized by SG Optimizer plugin version - 5.7.12 -->
<!-- This site is optimized with the Yoast SEO plugin v14.7 - https://yoast.com/wordpress/plugins/seo/ -->
<title>Page not found - Volunteer Monaghan</title>
<meta content="noindex, follow" name="robots"/>
<meta content="en_GB" property="og:locale"/>
<meta content="Page not found - Volunteer Monaghan" property="og:title"/>
<meta content="Volunteer Monaghan" property="og:site_name"/>
<script class="yoast-schema-graph" type="application/ld+json">{"@context":"https://schema.org","@graph":[{"@type":"WebSite","@id":"https://volunteermonaghan.ie/#website","url":"https://volunteermonaghan.ie/","name":"Volunteer Monaghan","description":"Monaghan Volunteer Centre","potentialAction":[{"@type":"SearchAction","target":"https://volunteermonaghan.ie/?s={search_term_string}","query-input":"required name=search_term_string"}],"inLanguage":"en-GB"}]}</script>
<!-- / Yoast SEO plugin. -->
<link href="//www.google.com" rel="dns-prefetch"/>
<link href="//unpkg.com" rel="dns-prefetch"/>
<link href="//fonts.googleapis.com" rel="dns-prefetch"/>
<link href="//s.w.org" rel="dns-prefetch"/>
<link href="https://volunteermonaghan.ie/feed/" rel="alternate" title="Volunteer Monaghan » Feed" type="application/rss+xml"/>
<!-- This site uses the Google Analytics by MonsterInsights plugin v7.14.0 - Using Analytics tracking - https://www.monsterinsights.com/ -->
<script data-cfasync="false" type="text/javascript">
    (window.gaDevIds=window.gaDevIds||[]).push("dZGIzZG");
	var mi_version         = '7.14.0';
	var mi_track_user      = true;
	var mi_no_track_reason = '';
	
	var disableStr = 'ga-disable-UA-107600307-1';

	/* Function to detect opted out users */
	function __gaTrackerIsOptedOut() {
		return document.cookie.indexOf(disableStr + '=true') > -1;
	}

	/* Disable tracking if the opt-out cookie exists. */
	if ( __gaTrackerIsOptedOut() ) {
		window[disableStr] = true;
	}

	/* Opt-out function */
	function __gaTrackerOptout() {
	  document.cookie = disableStr + '=true; expires=Thu, 31 Dec 2099 23:59:59 UTC; path=/';
	  window[disableStr] = true;
	}

	if ( 'undefined' === typeof gaOptout ) {
		function gaOptout() {
			__gaTrackerOptout();
		}
	}
	
	if ( mi_track_user ) {
		(function(i,s,o,g,r,a,m){i['GoogleAnalyticsObject']=r;i[r]=i[r]||function(){
			(i[r].q=i[r].q||[]).push(arguments)},i[r].l=1*new Date();a=s.createElement(o),
			m=s.getElementsByTagName(o)[0];a.async=1;a.src=g;m.parentNode.insertBefore(a,m)
		})(window,document,'script','//www.google-analytics.com/analytics.js','__gaTracker');

		__gaTracker('create', 'UA-107600307-1', 'auto');
		__gaTracker('set', 'forceSSL', true);
		__gaTracker('require', 'displayfeatures');
		__gaTracker('require', 'linkid', 'linkid.js');
		__gaTracker('send','pageview','/404.html?page=' + document.location.pathname + document.location.search + '&from=' + document.referrer);
	} else {
		console.log( "" );
		(function() {
			/* https://developers.google.com/analytics/devguides/collection/analyticsjs/ */
			var noopfn = function() {
				return null;
			};
			var noopnullfn = function() {
				return null;
			};
			var Tracker = function() {
				return null;
			};
			var p = Tracker.prototype;
			p.get = noopfn;
			p.set = noopfn;
			p.send = noopfn;
			var __gaTracker = function() {
				var len = arguments.length;
				if ( len === 0 ) {
					return;
				}
				var f = arguments[len-1];
				if ( typeof f !== 'object' || f === null || typeof f.hitCallback !== 'function' ) {
					console.log( 'Not running function __gaTracker(' + arguments[0] + " ....) because you are not being tracked. " + mi_no_track_reason );
					return;
				}
				try {
					f.hitCallback();
				} catch (ex) {

				}
			};
			__gaTracker.create = function() {
				return new Tracker();
			};
			__gaTracker.getByName = noopnullfn;
			__gaTracker.getAll = function() {
				return [];
			};
			__gaTracker.remove = noopfn;
			window['__gaTracker'] = __gaTracker;
					})();
		}
</script>
<!-- / Google Analytics by MonsterInsights -->
<script type="text/javascript">
			window._wpemojiSettings = {"baseUrl":"https:\/\/s.w.org\/images\/core\/emoji\/12.0.0-1\/72x72\/","ext":".png","svgUrl":"https:\/\/s.w.org\/images\/core\/emoji\/12.0.0-1\/svg\/","svgExt":".svg","source":{"concatemoji":"https:\/\/volunteermonaghan.ie\/wp-includes\/js\/wp-emoji-release.min.js?ver=5.3.6"}};
			!function(e,a,t){var r,n,o,i,p=a.createElement("canvas"),s=p.getContext&&p.getContext("2d");function c(e,t){var a=String.fromCharCode;s.clearRect(0,0,p.width,p.height),s.fillText(a.apply(this,e),0,0);var r=p.toDataURL();return s.clearRect(0,0,p.width,p.height),s.fillText(a.apply(this,t),0,0),r===p.toDataURL()}function l(e){if(!s||!s.fillText)return!1;switch(s.textBaseline="top",s.font="600 32px Arial",e){case"flag":return!c([127987,65039,8205,9895,65039],[127987,65039,8203,9895,65039])&&(!c([55356,56826,55356,56819],[55356,56826,8203,55356,56819])&&!c([55356,57332,56128,56423,56128,56418,56128,56421,56128,56430,56128,56423,56128,56447],[55356,57332,8203,56128,56423,8203,56128,56418,8203,56128,56421,8203,56128,56430,8203,56128,56423,8203,56128,56447]));case"emoji":return!c([55357,56424,55356,57342,8205,55358,56605,8205,55357,56424,55356,57340],[55357,56424,55356,57342,8203,55358,56605,8203,55357,56424,55356,57340])}return!1}function d(e){var t=a.createElement("script");t.src=e,t.defer=t.type="text/javascript",a.getElementsByTagName("head")[0].appendChild(t)}for(i=Array("flag","emoji"),t.supports={everything:!0,everythingExceptFlag:!0},o=0;o<i.length;o++)t.supports[i[o]]=l(i[o]),t.supports.everything=t.supports.everything&&t.supports[i[o]],"flag"!==i[o]&&(t.supports.everythingExceptFlag=t.supports.everythingExceptFlag&&t.supports[i[o]]);t.supports.everythingExceptFlag=t.supports.everythingExceptFlag&&!t.supports.flag,t.DOMReady=!1,t.readyCallback=function(){t.DOMReady=!0},t.supports.everything||(n=function(){t.readyCallback()},a.addEventListener?(a.addEventListener("DOMContentLoaded",n,!1),e.addEventListener("load",n,!1)):(e.attachEvent("onload",n),a.attachEvent("onreadystatechange",function(){"complete"===a.readyState&&t.readyCallback()})),(r=t.source||{}).concatemoji?d(r.concatemoji):r.wpemoji&&r.twemoji&&(d(r.twemoji),d(r.wpemoji)))}(window,document,window._wpemojiSettings);
		</script>
<style type="text/css">
img.wp-smiley,
img.emoji {
	display: inline !important;
	border: none !important;
	box-shadow: none !important;
	height: 1em !important;
	width: 1em !important;
	margin: 0 .07em !important;
	vertical-align: -0.1em !important;
	background: none !important;
	padding: 0 !important;
}
</style>
<link href="https://volunteermonaghan.ie/wp-includes/css/dist/block-library/style.min.css?ver=5.3.6" id="wp-block-library-css" media="all" rel="stylesheet" type="text/css"/>
<link href="https://volunteermonaghan.ie/wp-content/plugins/contact-form-7/includes/css/styles.css?ver=5.2.2" id="contact-form-7-css" media="all" rel="stylesheet" type="text/css"/>
<link href="https://unpkg.com/leaflet@1.7.1/dist/leaflet.css?ver=1.7.1" id="mappress-leaflet-css" media="all" rel="stylesheet" type="text/css"/>
<link href="https://volunteermonaghan.ie/wp-content/plugins/mappress-google-maps-for-wordpress/css/mappress.css?ver=2.58.3" id="mappress-css" media="all" rel="stylesheet" type="text/css"/>
<link href="//volunteermonaghan.ie/wp-content/plugins/social-icons/assets/css/social-icons.css?ver=1.7.2" id="social-icons-general-css" media="all" rel="stylesheet" type="text/css"/>
<link href="https://volunteermonaghan.ie/wp-content/plugins/uk-cookie-consent/assets/css/style.css?ver=5.3.6" id="cookie-consent-style-css" media="all" rel="stylesheet" type="text/css"/>
<link href="https://volunteermonaghan.ie/wp-content/plugins/wpfront-scroll-top/css/wpfront-scroll-top.min.css?ver=2.0.2" id="wpfront-scroll-top-css" media="all" rel="stylesheet" type="text/css"/>
<link href="https://volunteermonaghan.ie/wp-content/plugins/google-analytics-for-wordpress/assets/css/frontend.min.css?ver=7.14.0" id="monsterinsights-popular-posts-style-css" media="all" rel="stylesheet" type="text/css"/>
<link href="https://volunteermonaghan.ie/wp-content/themes/mesmerize/style.min.css?ver=1.6.90" id="mesmerize-style-css" media="all" rel="stylesheet" type="text/css"/>
<style id="mesmerize-style-inline-css" type="text/css">
img.logo.dark, img.custom-logo{width:auto;max-height:70px !important;}
/** cached kirki style */@media screen and (min-width: 768px){.header-homepage{background-position:center center;}}.header-homepage:not(.header-slide).color-overlay:before{background:#000000;}.header-homepage:not(.header-slide) .background-overlay,.header-homepage:not(.header-slide).color-overlay::before{opacity:0.6;}.header.color-overlay:before{background:#000000;}.header .background-overlay,.header.color-overlay::before{opacity:0.6;}.header.color-overlay:after{filter:invert(0%) ;}.header-homepage .header-description-row{padding-top:14%;padding-bottom:14%;}.inner-header-description{padding-top:8%;padding-bottom:8%;}.mesmerize-front-page .navigation-bar.bordered{border-bottom-color:rgba(255, 255, 255, 0.5);border-bottom-width:1px;border-bottom-style:solid;}.mesmerize-inner-page .navigation-bar.bordered{border-bottom-color:rgba(255, 255, 255, 0.5);border-bottom-width:1px;border-bottom-style:solid;}@media screen and (max-width:767px){.header-homepage .header-description-row{padding-top:10%;padding-bottom:10%;}}@media only screen and (min-width: 768px){.header-content .align-holder{width:85%!important;}.inner-header-description{text-align:center!important;}}
</style>
<link href="https://volunteermonaghan.ie/wp-content/themes/mesmerize/assets/css/theme.bundle.min.css?ver=1.6.90" id="mesmerize-style-bundle-css" media="all" rel="stylesheet" type="text/css"/>
<link data-href="https://fonts.googleapis.com/css?family=Open+Sans%3A300%2C400%2C600%2C700%7CMuli%3A300%2C300italic%2C400%2C400italic%2C600%2C600italic%2C700%2C700italic%2C900%2C900italic%7CPlayfair+Display%3A400%2C400italic%2C700%2C700italic&amp;subset=latin%2Clatin-ext" id="mesmerize-fonts-css" media="all" rel="stylesheet" type="text/css"/>
<link href="https://volunteermonaghan.ie?display_custom_css=css&amp;ver=5.3.6" id="wp-add-custom-css-css" media="all" rel="stylesheet" type="text/css"/>
<script type="text/javascript">
/* <![CDATA[ */
var monsterinsights_frontend = {"js_events_tracking":"true","download_extensions":"doc,pdf,ppt,zip,xls,docx,pptx,xlsx","inbound_paths":"[{\"path\":\"\\\/go\\\/\",\"label\":\"affiliate\"},{\"path\":\"\\\/recommend\\\/\",\"label\":\"affiliate\"}]","home_url":"https:\/\/volunteermonaghan.ie","hash_tracking":"false"};
/* ]]> */
</script>
<script src="https://volunteermonaghan.ie/wp-content/plugins/google-analytics-for-wordpress/assets/js/frontend.min.js?ver=7.14.0" type="text/javascript"></script>
<script src="https://volunteermonaghan.ie/wp-includes/js/jquery/jquery.js?ver=1.12.4-wp" type="text/javascript"></script>
<script type="text/javascript">
    
        (function () {
            function setHeaderTopSpacing() {

                setTimeout(function() {
                  var headerTop = document.querySelector('.header-top');
                  var headers = document.querySelectorAll('.header-wrapper .header,.header-wrapper .header-homepage');

                  for (var i = 0; i < headers.length; i++) {
                      var item = headers[i];
                      item.style.paddingTop = headerTop.getBoundingClientRect().height + "px";
                  }

                    var languageSwitcher = document.querySelector('.mesmerize-language-switcher');

                    if(languageSwitcher){
                        languageSwitcher.style.top = "calc( " +  headerTop.getBoundingClientRect().height + "px + 1rem)" ;
                    }
                    
                }, 100);

             
            }

            window.addEventListener('resize', setHeaderTopSpacing);
            window.mesmerizeSetHeaderTopSpacing = setHeaderTopSpacing
            mesmerizeDomReady(setHeaderTopSpacing);
        })();
    
    
</script>
<script src="https://volunteermonaghan.ie/wp-includes/js/jquery/jquery-migrate.min.js?ver=1.4.1" type="text/javascript"></script>
<link href="https://volunteermonaghan.ie/wp-json/" rel="https://api.w.org/"/>
<link href="https://volunteermonaghan.ie/xmlrpc.php?rsd" rel="EditURI" title="RSD" type="application/rsd+xml"/>
<link href="https://volunteermonaghan.ie/wp-includes/wlwmanifest.xml" rel="wlwmanifest" type="application/wlwmanifest+xml"/>
<meta content="WordPress 5.3.6" name="generator"/>
<script>
			var jaberfc = {
				selector: "p.copyright",
				manipulation: "html",
				html: "<p>© 2020 Volunteer Centre Monaghan | <a href=\"https://aura.ie/web-design/\" target=\"blank\">Web Development</a> by <a href=\"https://www.aura.ie/#homePage\" target=\"blank\">Aura Internet</a></p>"
			};
		</script>
<style id="ctcc-css" media="screen" type="text/css">
				#catapult-cookie-bar {
					box-sizing: border-box;
					max-height: 0;
					opacity: 0;
					z-index: 99999;
					overflow: hidden;
					color: #ddd;
					position: fixed;
					left: 0;
					bottom: 0;
					width: 100%;
					background-color: #464646;
				}
				#catapult-cookie-bar a {
					color: #fff;
				}
				#catapult-cookie-bar .x_close span {
					background-color: ;
				}
				button#catapultCookie {
					background:;
					color: ;
					border: 0; padding: 6px 9px; border-radius: 3px;
				}
				#catapult-cookie-bar h3 {
					color: #ddd;
				}
				.has-cookie-bar #catapult-cookie-bar {
					opacity: 1;
					max-height: 999px;
					min-height: 30px;
				}</style> <script data-name="async-styles" type="text/javascript">
        (function () {
            var links = document.querySelectorAll('link[data-href]');
            for (var i = 0; i < links.length; i++) {
                var item = links[i];
                item.href = item.getAttribute('data-href')
            }
        })();
    </script>
<link href="https://volunteermonaghan.ie/wp-content/uploads/2019/12/volunteer-monaghan-icon-150x150.png" rel="icon" sizes="32x32"/>
<link href="https://volunteermonaghan.ie/wp-content/uploads/2019/12/volunteer-monaghan-icon.png" rel="icon" sizes="192x192"/>
<link href="https://volunteermonaghan.ie/wp-content/uploads/2019/12/volunteer-monaghan-icon.png" rel="apple-touch-icon-precomposed"/>
<meta content="https://volunteermonaghan.ie/wp-content/uploads/2019/12/volunteer-monaghan-icon.png" name="msapplication-TileImage"/>
<style data-name="header-shapes">
            .header.color-overlay:after {background:url(https://volunteermonaghan.ie/wp-content/themes/mesmerize/assets/images/header-shapes/circles.png) center center/ cover no-repeat}        </style>
<style data-name="background-content-colors">
        .mesmerize-inner-page .page-content,
        .mesmerize-inner-page .content,
        .mesmerize-front-page.mesmerize-content-padding .page-content {
            background-color: #F5FAFD;
        }
    </style>
</head>
<body class="error404 wp-custom-logo mesmerize-inner-page elementor-default elementor-kit-873">
<style>
        .screen-reader-text[href="#page-content"]:focus {
            background-color: #f1f1f1;
            border-radius: 3px;
            box-shadow: 0 0 2px 2px rgba(0, 0, 0, 0.6);
            clip: auto !important;
            clip-path: none;
            color: #21759b;
           
        }
    </style>
<a class="skip-link screen-reader-text" href="#page-content">Skip to content</a>
<div class="header-top" id="page-top">
<div class="navigation-bar coloured-nav bordered" data-sticky="0" data-sticky-mobile="1" data-sticky-to="top">
<div class="navigation-wrapper ">
<div class="row basis-auto">
<div class="logo_col col-xs col-sm-fit">
<a class="custom-logo-link" data-dynamic-mod="true" data-type="group" href="https://volunteermonaghan.ie/" rel="home"><img alt="Volunteer Monaghan" class="custom-logo" height="93" sizes="(max-width: 496px) 100vw, 496px" src="https://volunteermonaghan.ie/wp-content/uploads/2019/12/logo-1-1.png" srcset="https://volunteermonaghan.ie/wp-content/uploads/2019/12/logo-1-1.png 496w, https://volunteermonaghan.ie/wp-content/uploads/2019/12/logo-1-1-300x56.png 300w" width="496"/></a> </div>
<div class="main_menu_col col-xs">
<div class="row" id="mainmenu_container"><ul class="active-line-bottom main-menu dropdown-menu" id="main_menu"><li class="menu-item menu-item-type-custom menu-item-object-custom menu-item-home menu-item-625" id="menu-item-625"><a href="https://volunteermonaghan.ie/">Home</a></li>
<li class="menu-item menu-item-type-post_type menu-item-object-page menu-item-has-children menu-item-800" id="menu-item-800"><a href="https://volunteermonaghan.ie/about-us/">Home</a>
<ul class="sub-menu">
<li class="menu-item menu-item-type-post_type menu-item-object-page menu-item-820" id="menu-item-820"><a href="https://volunteermonaghan.ie/mid/">Monaghan Integrated Development</a></li>
<li class="menu-item menu-item-type-post_type menu-item-object-page menu-item-595" id="menu-item-595"><a href="https://volunteermonaghan.ie/our-staff/">Our Staff</a></li>
<li class="menu-item menu-item-type-post_type menu-item-object-page menu-item-106" id="menu-item-106"><a href="https://volunteermonaghan.ie/governance/">Governance</a></li>
</ul>
</li>
<li class="menu-item menu-item-type-custom menu-item-object-custom menu-item-has-children menu-item-75" id="menu-item-75"><a href="#">Organisations</a>
<ul class="sub-menu">
<li class="menu-item menu-item-type-custom menu-item-object-custom menu-item-426" id="menu-item-426"><a href="https://www.i-vol.ie/register-your-organisation/" rel="noopener noreferrer" target="_blank">Register an Organisation</a></li>
<li class="menu-item menu-item-type-custom menu-item-object-custom menu-item-822" id="menu-item-822"><a href="https://www.i-vol.ie/post-a-volunteering-opportunity/" rel="noopener noreferrer" target="_blank">Post an Opportunity</a></li>
<li class="menu-item menu-item-type-custom menu-item-object-custom menu-item-753" id="menu-item-753"><a href="https://www.i-vol.ie/organisation-search/" rel="noopener noreferrer" target="_blank">Organisation Search</a></li>
<li class="menu-item menu-item-type-post_type menu-item-object-page menu-item-23" id="menu-item-23"><a href="https://volunteermonaghan.ie/organisation-services/">Organisation Services</a></li>
<li class="menu-item menu-item-type-post_type menu-item-object-page menu-item-38" id="menu-item-38"><a href="https://volunteermonaghan.ie/resources/">Resources</a></li>
<li class="menu-item menu-item-type-custom menu-item-object-custom menu-item-587" id="menu-item-587"><a href="https://volunteermonaghan.ie/dev/organisation-services/#garda-vetting">Garda Vetting</a></li>
<li class="menu-item menu-item-type-post_type menu-item-object-page menu-item-56" id="menu-item-56"><a href="https://volunteermonaghan.ie/corporate-team-volunteers/">Corporate Volunteers</a></li>
<li class="menu-item menu-item-type-post_type menu-item-object-page menu-item-120" id="menu-item-120"><a href="https://volunteermonaghan.ie/organisation-stories/">Organisation Stories</a></li>
</ul>
</li>
<li class="menu-item menu-item-type-custom menu-item-object-custom menu-item-has-children menu-item-74" id="menu-item-74"><a href="#">Volunteers</a>
<ul class="sub-menu">
<li class="menu-item menu-item-type-custom menu-item-object-custom menu-item-425" id="menu-item-425"><a href="https://www.i-vol.ie/sign-up/" rel="noopener noreferrer" target="_blank">Register to Volunteer</a></li>
<li class="menu-item menu-item-type-custom menu-item-object-custom menu-item-424" id="menu-item-424"><a href="https://www.i-vol.ie/advanced-search/" rel="noopener noreferrer" target="_blank">Seach Opportunities</a></li>
<li class="menu-item menu-item-type-custom menu-item-object-custom menu-item-754" id="menu-item-754"><a href="https://www.i-vol.ie/sign-in/" rel="noopener noreferrer" target="_blank">Sign In</a></li>
<li class="menu-item menu-item-type-post_type menu-item-object-page menu-item-47" id="menu-item-47"><a href="https://volunteermonaghan.ie/services/">Volunteers Services</a></li>
<li class="menu-item menu-item-type-post_type menu-item-object-page menu-item-131" id="menu-item-131"><a href="https://volunteermonaghan.ie/volunteer-stories/">Volunteer Stories</a></li>
</ul>
</li>
<li class="menu-item menu-item-type-post_type menu-item-object-page menu-item-17" id="menu-item-17"><a href="https://volunteermonaghan.ie/befriending-monaghan/">Older People</a></li>
<li class="menu-item menu-item-type-taxonomy menu-item-object-category menu-item-364" id="menu-item-364"><a href="https://volunteermonaghan.ie/category/news/">News</a></li>
<li class="menu-item menu-item-type-post_type menu-item-object-page menu-item-902" id="menu-item-902"><a href="https://volunteermonaghan.ie/social/">Social</a></li>
<li class="menu-item menu-item-type-post_type menu-item-object-page menu-item-16" id="menu-item-16"><a href="https://volunteermonaghan.ie/contact-us/">Contact</a></li>
</ul></div> <a data-component="offcanvas" data-direction="right" data-push="false" data-target="#offcanvas-wrapper" data-width="300px" href="#">
<div class="bubble"></div>
<i class="fa fa-bars"></i>
</a>
<div class="hide force-hide offcanvas-right" id="offcanvas-wrapper">
<div class="offcanvas-top">
<div class="logo-holder">
<a class="custom-logo-link" data-dynamic-mod="true" data-type="group" href="https://volunteermonaghan.ie/" rel="home"><img alt="Volunteer Monaghan" class="custom-logo" height="93" sizes="(max-width: 496px) 100vw, 496px" src="https://volunteermonaghan.ie/wp-content/uploads/2019/12/logo-1-1.png" srcset="https://volunteermonaghan.ie/wp-content/uploads/2019/12/logo-1-1.png 496w, https://volunteermonaghan.ie/wp-content/uploads/2019/12/logo-1-1-300x56.png 300w" width="496"/></a> </div>
</div>
<div class="menu-main-menu-container" id="offcanvas-menu"><ul class="offcanvas_menu" id="offcanvas_menu"><li class="menu-item menu-item-type-custom menu-item-object-custom menu-item-home menu-item-625"><a href="https://volunteermonaghan.ie/">Home</a></li>
<li class="menu-item menu-item-type-post_type menu-item-object-page menu-item-has-children menu-item-800"><a href="https://volunteermonaghan.ie/about-us/">Home</a>
<ul class="sub-menu">
<li class="menu-item menu-item-type-post_type menu-item-object-page menu-item-820"><a href="https://volunteermonaghan.ie/mid/">Monaghan Integrated Development</a></li>
<li class="menu-item menu-item-type-post_type menu-item-object-page menu-item-595"><a href="https://volunteermonaghan.ie/our-staff/">Our Staff</a></li>
<li class="menu-item menu-item-type-post_type menu-item-object-page menu-item-106"><a href="https://volunteermonaghan.ie/governance/">Governance</a></li>
</ul>
</li>
<li class="menu-item menu-item-type-custom menu-item-object-custom menu-item-has-children menu-item-75"><a href="#">Organisations</a>
<ul class="sub-menu">
<li class="menu-item menu-item-type-custom menu-item-object-custom menu-item-426"><a href="https://www.i-vol.ie/register-your-organisation/" rel="noopener noreferrer" target="_blank">Register an Organisation</a></li>
<li class="menu-item menu-item-type-custom menu-item-object-custom menu-item-822"><a href="https://www.i-vol.ie/post-a-volunteering-opportunity/" rel="noopener noreferrer" target="_blank">Post an Opportunity</a></li>
<li class="menu-item menu-item-type-custom menu-item-object-custom menu-item-753"><a href="https://www.i-vol.ie/organisation-search/" rel="noopener noreferrer" target="_blank">Organisation Search</a></li>
<li class="menu-item menu-item-type-post_type menu-item-object-page menu-item-23"><a href="https://volunteermonaghan.ie/organisation-services/">Organisation Services</a></li>
<li class="menu-item menu-item-type-post_type menu-item-object-page menu-item-38"><a href="https://volunteermonaghan.ie/resources/">Resources</a></li>
<li class="menu-item menu-item-type-custom menu-item-object-custom menu-item-587"><a href="https://volunteermonaghan.ie/dev/organisation-services/#garda-vetting">Garda Vetting</a></li>
<li class="menu-item menu-item-type-post_type menu-item-object-page menu-item-56"><a href="https://volunteermonaghan.ie/corporate-team-volunteers/">Corporate Volunteers</a></li>
<li class="menu-item menu-item-type-post_type menu-item-object-page menu-item-120"><a href="https://volunteermonaghan.ie/organisation-stories/">Organisation Stories</a></li>
</ul>
</li>
<li class="menu-item menu-item-type-custom menu-item-object-custom menu-item-has-children menu-item-74"><a href="#">Volunteers</a>
<ul class="sub-menu">
<li class="menu-item menu-item-type-custom menu-item-object-custom menu-item-425"><a href="https://www.i-vol.ie/sign-up/" rel="noopener noreferrer" target="_blank">Register to Volunteer</a></li>
<li class="menu-item menu-item-type-custom menu-item-object-custom menu-item-424"><a href="https://www.i-vol.ie/advanced-search/" rel="noopener noreferrer" target="_blank">Seach Opportunities</a></li>
<li class="menu-item menu-item-type-custom menu-item-object-custom menu-item-754"><a href="https://www.i-vol.ie/sign-in/" rel="noopener noreferrer" target="_blank">Sign In</a></li>
<li class="menu-item menu-item-type-post_type menu-item-object-page menu-item-47"><a href="https://volunteermonaghan.ie/services/">Volunteers Services</a></li>
<li class="menu-item menu-item-type-post_type menu-item-object-page menu-item-131"><a href="https://volunteermonaghan.ie/volunteer-stories/">Volunteer Stories</a></li>
</ul>
</li>
<li class="menu-item menu-item-type-post_type menu-item-object-page menu-item-17"><a href="https://volunteermonaghan.ie/befriending-monaghan/">Older People</a></li>
<li class="menu-item menu-item-type-taxonomy menu-item-object-category menu-item-364"><a href="https://volunteermonaghan.ie/category/news/">News</a></li>
<li class="menu-item menu-item-type-post_type menu-item-object-page menu-item-902"><a href="https://volunteermonaghan.ie/social/">Social</a></li>
<li class="menu-item menu-item-type-post_type menu-item-object-page menu-item-16"><a href="https://volunteermonaghan.ie/contact-us/">Contact</a></li>
</ul></div>
</div>
</div>
</div>
</div>
</div>
</div>
<div class="site" id="page">
<div class="header-wrapper">
<div class="header color-overlay" style="; background:#6a73da">
<div class="inner-header-description gridContainer">
<div class="row header-description-row">
<div class="col-xs col-xs-12">
<h1 class="hero-title">
            Page not found        </h1>
<p class="header-subtitle">Monaghan Volunteer Centre</p>
</div>
</div>
</div>
<script>
        window.mesmerizeSetHeaderTopSpacing();
    </script>
</div>
</div>
<div class="content blog-page" id="page-content">
<div class="gridContainer gridContainer content">
<div class="row">
<div class="col-xs-12 col-sm-8 col-md-9">
<div class="post-list row">
<div class="" id="post-">
<div class="post-content-single">
<h3 class="page-title">
    Nothing Found    </h3>
<p>It seems we can’t find what you’re looking for. Perhaps searching can help.</p>
<form action="https://volunteermonaghan.ie/" class="search-form" method="get" role="search">
<label>
<span class="screen-reader-text">Search for:</span>
<input class="search-field" name="s" placeholder="Search …" type="search" value=""/>
</label>
</form>
</div>
</div>
</div>
<div class="navigation-c">
</div>
</div>
<div class="sidebar col-sm-4 col-md-3">
<div class="sidebar-row">
<div class="widget widget_search" id="search-2"><form action="https://volunteermonaghan.ie/" class="search-form" method="get" role="search">
<label>
<span class="screen-reader-text">Search for:</span>
<input class="search-field" name="s" placeholder="Search …" type="search" value=""/>
</label>
</form>
</div> <div class="widget widget_recent_entries" id="recent-posts-2"> <h5 class="widgettitle">Recent Posts</h5> <ul>
<li>
<a href="https://volunteermonaghan.ie/2020/12/08/december-news/">December News</a>
</li>
<li>
<a href="https://volunteermonaghan.ie/2020/11/03/elementor-1344/">November News</a>
</li>
<li>
<a href="https://volunteermonaghan.ie/2020/10/06/october-newsletter/">October Newsletter</a>
</li>
<li>
<a href="https://volunteermonaghan.ie/2020/09/30/interview-with-lean-in-ireland-co-founder-breda-mccague/">Interview with Lean-In Ireland Co-founder Breda McCague</a>
</li>
<li>
<a href="https://volunteermonaghan.ie/2020/09/24/winners-of-county-monaghan-volunteer-awards-2020-announced/">Winners of County Monaghan Volunteer Awards 2020 Announced</a>
</li>
</ul>
</div><div class="widget widget_archive" id="archives-2"><h5 class="widgettitle">Archives</h5> <ul>
<li><a href="https://volunteermonaghan.ie/2020/12/">December 2020</a></li>
<li><a href="https://volunteermonaghan.ie/2020/11/">November 2020</a></li>
<li><a href="https://volunteermonaghan.ie/2020/10/">October 2020</a></li>
<li><a href="https://volunteermonaghan.ie/2020/09/">September 2020</a></li>
<li><a href="https://volunteermonaghan.ie/2020/08/">August 2020</a></li>
<li><a href="https://volunteermonaghan.ie/2020/07/">July 2020</a></li>
<li><a href="https://volunteermonaghan.ie/2020/05/">May 2020</a></li>
<li><a href="https://volunteermonaghan.ie/2020/04/">April 2020</a></li>
<li><a href="https://volunteermonaghan.ie/2020/03/">March 2020</a></li>
</ul>
</div> </div>
</div>
</div>
</div>
</div>
<div class="footer-width full-container">
<div id="footer-widgets">
<div id="footer-widget1-container"><div id="footer-widget1"><img alt="" class="image wp-image-180 attachment-medium size-medium" height="56" sizes="(max-width: 300px) 100vw, 300px" src="https://volunteermonaghan.ie/wp-content/uploads/2019/12/logo-footer-1-300x56.png" srcset="https://volunteermonaghan.ie/wp-content/uploads/2019/12/logo-footer-1-300x56.png 300w, https://volunteermonaghan.ie/wp-content/uploads/2019/12/logo-footer-1.png 496w" style="max-width: 100%; height: auto;" width="300"/></div><div id="footer-widget1"><h2>Follow Us</h2>
<ul class="social-icons-lists icons-background-square">
<li class="social-icons-list-item">
<a class="social-icon" href="https://www.facebook.com/MonaghanVolunteerCentre/" target="_blank">
<span class="socicon socicon-facebook" style="padding: 10px; font-size: 16px; background-color: #3e5b98"></span>
</a>
</li>
<li class="social-icons-list-item">
<a class="social-icon" href="https://twitter.com/VolunteerMonagh" target="_blank">
<span class="socicon socicon-twitter" style="padding: 10px; font-size: 16px; background-color: #4da7de"></span>
</a>
</li>
<li class="social-icons-list-item">
<a class="social-icon" href="https://www.instagram.com/monaghanvolunteercentre/" target="_blank">
<span class="socicon socicon-instagram" style="padding: 10px; font-size: 16px; background-color: #9c7c6e"></span>
</a>
</li>
</ul>
</div><div id="footer-widget1"><img alt="" class="image wp-image-924 attachment-full size-full" height="93" src="https://volunteermonaghan.ie/wp-content/uploads/2020/02/quality-certified-2-e1602859610340.png" style="max-width: 100%; height: auto;" width="200"/></div></div>
<div id="footer-widget2-container"><div id="footer-widget2"><h2>Navigation</h2><div class="menu-footer-menu-container"><ul class="menu" id="menu-footer-menu"><li class="menu-item menu-item-type-post_type menu-item-object-page menu-item-home menu-item-252" id="menu-item-252"><a href="https://volunteermonaghan.ie/">Home</a></li>
<li class="menu-item menu-item-type-post_type menu-item-object-page menu-item-253" id="menu-item-253"><a href="https://volunteermonaghan.ie/about-us/">About</a></li>
<li class="menu-item menu-item-type-custom menu-item-object-custom menu-item-257" id="menu-item-257"><a href="https://www.i-vol.ie/register-your-organisation/" rel="noopener noreferrer" target="_blank">Register an Organisation</a></li>
<li class="menu-item menu-item-type-custom menu-item-object-custom menu-item-258" id="menu-item-258"><a href="https://www.i-vol.ie/sign-up/" rel="noopener noreferrer" target="_blank">Register to Volunteer</a></li>
<li class="menu-item menu-item-type-post_type menu-item-object-page menu-item-255" id="menu-item-255"><a href="https://volunteermonaghan.ie/befriending-monaghan/">Befriending Monaghan</a></li>
<li class="menu-item menu-item-type-taxonomy menu-item-object-category menu-item-365" id="menu-item-365"><a href="https://volunteermonaghan.ie/category/news/">Latest News</a></li>
<li class="menu-item menu-item-type-post_type menu-item-object-page menu-item-525" id="menu-item-525"><a href="https://volunteermonaghan.ie/privacy-cookie-policy/">Privacy &amp; Cookie Policy</a></li>
<li class="menu-item menu-item-type-post_type menu-item-object-page menu-item-254" id="menu-item-254"><a href="https://volunteermonaghan.ie/contact-us/">Contact</a></li>
</ul></div></div></div>
<div id="footer-widget3-container"><div id="footer-widget3"><h2>Contact Us</h2> <div class="textwidget"><p><span style="color: #56a2d6;">ADDRESS</span> Monaghan Volunteer Centre,<br/>
Monaghan Integrated Development,<br/>
North Road, Monaghan Town,<br/>
Co. Monaghan</p>
<p><span style="color: #56a2d6;">TEL </span><a href="tel:00353474772191">+353 (0)47 72191 </a></p>
<p><span style="color: #56a2d6;">EMAIL</span> <a href="mailto:info@volunteermonaghan.ie?Subject=Website%20Enquiry"> info@volunteermonaghan.ie</a></p>
<p><span style="color: #56a2d6;">WEB</span> <a href="https://volunteermonaghan.ie/">www.volunteermonaghan.ie</a></p>
</div>
</div></div>
<div id="footer-widget4-container"><div id="footer-widget4"><h2>Supported By:</h2><a href="https://www.gov.ie/en/"><img alt="" class="image wp-image-187 attachment-medium size-medium" height="100" sizes="(max-width: 300px) 100vw, 300px" src="https://volunteermonaghan.ie/wp-content/uploads/2019/12/footer-logo-2-300x100.png" srcset="https://volunteermonaghan.ie/wp-content/uploads/2019/12/footer-logo-2-300x100.png 300w, https://volunteermonaghan.ie/wp-content/uploads/2019/12/footer-logo-2.png 496w" style="max-width: 100%; height: auto;" width="300"/></a></div><div id="footer-widget4"> <div class="textwidget"><p>Supported by the Department of Rural and Community Development</p>
</div>
</div><div id="footer-widget4"><a href="https://midl.ie/"><img alt="" class="image wp-image-655 attachment-full size-full" height="56" src="https://volunteermonaghan.ie/wp-content/uploads/2020/01/mid-logo-2.png" style="max-width: 100%; height: auto;" width="300"/></a></div><div id="footer-widget4"><a href="https://www.volunteer.ie/"><img alt="" class="image wp-image-1327 attachment-full size-full" height="131" src="https://volunteermonaghan.ie/wp-content/uploads/2020/10/VILogo_For_Digital_White_with_Clear_Background_A6_With_Margin-2-e1602857800284.png" style="max-width: 100%; height: auto;" width="250"/></a></div></div>
</div>
<div style="clear-both"></div><div style="clear:both;"></div>
</div>
<div class="footer footer-simple">
<div class="footer-content center-xs">
<div class="gridContainer">
<div class="row middle-xs footer-content-row">
<div class="footer-content-col col-xs-12">
<p class="copyright">©  2021 Volunteer Monaghan. Built using WordPress and the <a class="mesmerize-theme-link" href="https://extendthemes.com/go/built-with-mesmerize/" target="_blank">Mesmerize Theme</a></p> </div>
</div>
</div>
</div>
</div>
</div>
<div id="wpfront-scroll-top-container">
<img alt="" src="https://volunteermonaghan.ie/wp-content/plugins/wpfront-scroll-top/images/icons/114.png"/> </div>
<script type="text/javascript">function wpfront_scroll_top_init() {if(typeof wpfront_scroll_top == "function" && typeof jQuery !== "undefined") {wpfront_scroll_top({"scroll_offset":100,"button_width":0,"button_height":0,"button_opacity":0.8000000000000000444089209850062616169452667236328125,"button_fade_duration":200,"scroll_duration":400,"location":1,"marginX":20,"marginY":20,"hide_iframe":false,"auto_hide":false,"auto_hide_after":2,"button_action":"top","button_action_element_selector":"","button_action_container_selector":"html, body","button_action_element_offset":0});} else {setTimeout(wpfront_scroll_top_init, 100);}}wpfront_scroll_top_init();</script><script type="text/javascript">
/* <![CDATA[ */
var wpcf7 = {"apiSettings":{"root":"https:\/\/volunteermonaghan.ie\/wp-json\/contact-form-7\/v1","namespace":"contact-form-7\/v1"}};
/* ]]> */
</script>
<script src="https://volunteermonaghan.ie/wp-content/plugins/contact-form-7/includes/js/scripts.js?ver=5.2.2" type="text/javascript"></script>
<script type="text/javascript">
/* <![CDATA[ */
var ctcc_vars = {"expiry":"30","method":"1","version":"1"};
/* ]]> */
</script>
<script src="https://volunteermonaghan.ie/wp-content/plugins/uk-cookie-consent/assets/js/uk-cookie-consent-js.js?ver=2.3.0" type="text/javascript"></script>
<script src="https://volunteermonaghan.ie/wp-content/plugins/wpfront-scroll-top/js/wpfront-scroll-top.min.js?ver=2.0.2" type="text/javascript"></script>
<script src="https://www.google.com/recaptcha/api.js?render=6Lf7UtEUAAAAAIoQ3VYKD0J0ABYyX4oXxiZePbvs&amp;ver=3.0" type="text/javascript"></script>
<script type="text/javascript">
/* <![CDATA[ */
var wpcf7_recaptcha = {"sitekey":"6Lf7UtEUAAAAAIoQ3VYKD0J0ABYyX4oXxiZePbvs","actions":{"homepage":"homepage","contactform":"contactform"}};
/* ]]> */
</script>
<script src="https://volunteermonaghan.ie/wp-content/plugins/contact-form-7/modules/recaptcha/script.js?ver=5.2.2" type="text/javascript"></script>
<script defer="defer" src="https://volunteermonaghan.ie/wp-includes/js/imagesloaded.min.js?ver=3.2.0" type="text/javascript"></script>
<script defer="defer" src="https://volunteermonaghan.ie/wp-includes/js/masonry.min.js?ver=3.3.2" type="text/javascript"></script>
<script defer="defer" src="https://volunteermonaghan.ie/wp-content/themes/mesmerize/assets/js/theme.bundle.min.js?ver=1.6.90" type="text/javascript"></script>
<script src="https://volunteermonaghan.ie/wp-content/plugins/easy-remove-footer-credit/script.js?ver=5.3.6" type="text/javascript"></script>
<script defer="defer" src="https://volunteermonaghan.ie/wp-includes/js/wp-embed.min.js?ver=5.3.6" type="text/javascript"></script>
<script>
        /(trident|msie)/i.test(navigator.userAgent) && document.getElementById && window.addEventListener && window.addEventListener("hashchange", function () {
            var t, e = location.hash.substring(1);
            /^[A-z0-9_-]+$/.test(e) && (t = document.getElementById(e)) && (/^(?:a|select|input|button|textarea)$/i.test(t.tagName) || (t.tabIndex = -1), t.focus())
        }, !1);
    </script>
<script type="text/javascript">
					jQuery(document).ready(function($){
												if(!catapultReadCookie("catAccCookies")){ // If the cookie has not been set then show the bar
							$("html").addClass("has-cookie-bar");
							$("html").addClass("cookie-bar-bottom-bar");
							$("html").addClass("cookie-bar-bar");
													}
																	});
				</script>
<div class="" id="catapult-cookie-bar"><div class="ctcc-inner "><span class="ctcc-left-side">This site uses cookies:  <a class="ctcc-more-info-link" href="https://volunteermonaghan.ie/privacy-cookie-policy/" tabindex="0" target="_blank">Find out more.</a></span><span class="ctcc-right-side"><button id="catapultCookie" onclick="catapultAcceptCookies();" tabindex="0">Okay, thanks</button></span></div><!-- custom wrapper class --></div><!-- #catapult-cookie-bar --></body>
</html>
