<!DOCTYPE html>
<html><head><base href="/"/><title>vPlan</title><meta charset="utf-8"/><meta content="width=device-width,initial-scale=1,maximum-scale=1,user-scalable=no" name="viewport"/><meta content="vPlan" name="author"/><meta content="" name="description"/><link href="favicon.png" rel="shortcut icon" type="image/png"/><script>var gtm = null;

            switch (window.location.host)
            {
                case 'www.vplan.com':
                case 'www.getvplan.com':
                    gtm = 'GTM-WLXC298';
                    break;
                case 'www.vplan.nl':
                    gtm = 'GTM-5JCGVM3';
                    break;
                default:
                    gtm = 'GTM-WLXC298';
            }

            (function(w,d,s,l,i){w[l]=w[l]||[];w[l].push({'gtm.start':
            new Date().getTime(),event:'gtm.js'});var f=d.getElementsByTagName(s)[0],
            j=d.createElement(s),dl=l!='dataLayer'?'&l='+l:'';j.async=true;j.src=
            'https://www.googletagmanager.com/gtm.js?id='+i+dl;f.parentNode.insertBefore(j,f);
            })(window,document,'script','dataLayer',gtm);</script><script>!function(f,b,e,v,n,t,s)
            {if(f.fbq)return;n=f.fbq=function(){n.callMethod?
            n.callMethod.apply(n,arguments):n.queue.push(arguments)};
            if(!f._fbq)f._fbq=n;n.push=n;n.loaded=!0;n.version='2.0';
            n.queue=[];t=b.createElement(e);t.async=!0;
            t.src=v;s=b.getElementsByTagName(e)[0];
            s.parentNode.insertBefore(t,s)}(window, document,'script',
            'https://connect.facebook.net/en_US/fbevents.js');
            fbq('init', '577807462810532');
            fbq('track', 'PageView');</script><script>(function(m,a,i,l,e,r){ m['MailerLiteObject']=e;function f(){
            var c={ a:arguments,q:[]};var r=this.push(c);return "number"!=typeof r?r:f.bind(c.q);}
            f.q=f.q||[];m[e]=m[e]||f.bind(f.q);m[e].q=m[e].q||f.q;r=a.createElement(i);
            var _=a.getElementsByTagName(i)[0];r.async=1;r.src=l+'?v'+(~~(new Date().getTime()/1000000));
            _.parentNode.insertBefore(r,_);})(window, document, 'script', 'https://static.mailerlite.com/js/universal.js', 'ml');

            var ml_account = ml('accounts', '1653276', 'y7z1c4l4o4', 'load');</script><link as="style" href="/css/app.7e894ac6.css" rel="preload"/><link as="script" href="/js/app.3f48ea3f.js" rel="preload"/><link as="script" href="/js/chunk-vendors.e511c74d.js" rel="preload"/><link href="/css/app.7e894ac6.css" rel="stylesheet"/><link href="/img/icons/favicon-32x32.png" rel="icon" sizes="32x32" type="image/png"/><link href="/img/icons/favicon-16x16.png" rel="icon" sizes="16x16" type="image/png"/><link href="/manifest.json" rel="manifest"/><meta content="#4DBA87" name="theme-color"/><meta content="no" name="apple-mobile-web-app-capable"/><meta content="default" name="apple-mobile-web-app-status-bar-style"/><meta content="www.vplan.com" name="apple-mobile-web-app-title"/><link href="/img/icons/apple-touch-icon-152x152.png" rel="apple-touch-icon"/><link color="#4DBA87" href="/img/icons/safari-pinned-tab.svg" rel="mask-icon"/><meta content="/img/icons/msapplication-icon-144x144.png" name="msapplication-TileImage"/><meta content="#000000" name="msapplication-TileColor"/></head><body><div id="app"></div><script>window._linkedin_data_partner_ids = window._linkedin_data_partner_ids || [];
            window._linkedin_data_partner_ids.push("635481");</script><script>(function(){var s = document.getElementsByTagName("script")[0];
            var b = document.createElement("script");
            b.type = "text/javascript";b.async = true;
            b.src = "https://snap.licdn.com/li.lms-analytics/insight.min.js";
            s.parentNode.insertBefore(b, s);})();</script><noscript><img alt="" height="1" src="https://dc.ads.linkedin.com/collect/?pid=635481&amp;fmt=gif" style="display:none;" width="1"/></noscript><noscript><img alt="" height="1" src="https://www.facebook.com/tr?id=577807462810532&amp;ev=PageView&amp;noscript=1" style="display:none;" width="1"/></noscript><script async="" defer="" id="hs-script-loader" src="//js.hs-scripts.com/3964763.js"></script><script>/*<![CDATA[*/window.zEmbed||function(e,t){var n,o,d,i,s,a=[],r=document.createElement("iframe");window.zEmbed=function(){a.push(arguments)},window.zE=window.zE||window.zEmbed,r.src="javascript:false",r.title="",r.role="presentation",(r.frameElement||r).style.cssText="display: none",d=document.getElementsByTagName("script"),d=d[d.length-1],d.parentNode.insertBefore(r,d),i=r.contentWindow,s=i.document;try{o=s}catch(e){n=document.domain,r.src='javascript:var d=document.open();d.domain="'+n+'";void(0);',o=s}o.open()._l=function(){var o=this.createElement("script");n&&(this.domain=n),o.id="js-iframe-async",o.src=e,this.t=+new Date,this.zendeskHost=t,this.zEQueue=a,this.body.appendChild(o)},o.write('<body onload="document._l();">'),o.close()}("https://assets.zendesk.com/embeddable_framework/main.js","vplan.zendesk.com");/*]]>*/</script><script>zE(function()
            {
                var path = window.location.pathname.split('/');
                var language = path[1];

                if (language !== undefined)
                {
                    zE.setLocale(language);
                }

                zE.hide();
            });

            window.zESettings = {
                webWidget: {
                    contactForm: {
                        attachments: false
                    },
                }
            };</script><script async="" src="//widget.trustpilot.com/bootstrap/v5/tp.widget.bootstrap.min.js"></script><script src="/js/chunk-vendors.e511c74d.js"></script><script src="/js/app.3f48ea3f.js"></script></body></html>