<!DOCTYPE html>
<html lang="pt-BR">
<head>
<meta charset="utf-8"/>
<meta content="width=device-width, initial-scale=1" name="viewport"/>
<!-- This site is optimized with the Yoast SEO plugin v15.5 - https://yoast.com/wordpress/plugins/seo/ -->
<title>192.168.o.1: veja para que serve, como configurar e usar o 192.168.0.1</title>
<meta content="index, follow, max-snippet:-1, max-image-preview:large, max-video-preview:-1" name="robots"/>
<link href="https://ip19216801.com.br/" rel="canonical"/>
<meta content="pt_BR" property="og:locale"/>
<meta content="website" property="og:type"/>
<meta content="192.168.o.1: veja para que serve, como configurar e usar o 192.168.0.1" property="og:title"/>
<meta content="A configuração básica de qualquer roteador começa a partir do IP 192.168.0.1 ou ainda por sua variação que é o IP 192.168.1.1. Esses números bastante complexos fazem parte das principais configurações de roteadores de internet distribuídos por diversas marcas. Mas você sabe o que esses números significam? Ou mesmo, quais configurações você pode realizar a […]" property="og:description"/>
<meta content="https://ip19216801.com.br/" property="og:url"/>
<meta content="192.168.0.1 | 192.168.o.1" property="og:site_name"/>
<meta content="2018-10-20T16:39:25+00:00" property="article:modified_time"/>
<meta content="https://ip19216801.com.br/wp-content/uploads/2017/08/192.168.0.1.jpg" property="og:image"/>
<meta content="summary" name="twitter:card"/>
<meta content="Est. reading time" name="twitter:label1"/>
<meta content="4 minutos" name="twitter:data1"/>
<script class="yoast-schema-graph" type="application/ld+json">{"@context":"https://schema.org","@graph":[{"@type":"WebSite","@id":"https://ip19216801.com.br/#website","url":"https://ip19216801.com.br/","name":"192.168.0.1 | 192.168.o.1","description":"IP, configura\u00e7\u00f5es, informa\u00e7\u00f5es, senha, login, admin","potentialAction":[{"@type":"SearchAction","target":"https://ip19216801.com.br/?s={search_term_string}","query-input":"required name=search_term_string"}],"inLanguage":"pt-BR"},{"@type":"ImageObject","@id":"https://ip19216801.com.br/#primaryimage","inLanguage":"pt-BR","url":"https://ip19216801.com.br/wp-content/uploads/2017/08/192.168.0.1.jpg","width":683,"height":552,"caption":"192.168.0.1"},{"@type":"WebPage","@id":"https://ip19216801.com.br/#webpage","url":"https://ip19216801.com.br/","name":"192.168.o.1: veja para que serve, como configurar e usar o 192.168.0.1","isPartOf":{"@id":"https://ip19216801.com.br/#website"},"primaryImageOfPage":{"@id":"https://ip19216801.com.br/#primaryimage"},"datePublished":"2018-10-19T21:29:40+00:00","dateModified":"2018-10-20T16:39:25+00:00","inLanguage":"pt-BR","potentialAction":[{"@type":"ReadAction","target":["https://ip19216801.com.br/"]}]}]}</script>
<!-- / Yoast SEO plugin. -->
<link href="//fonts.googleapis.com" rel="dns-prefetch"/>
<link href="//code.ionicframework.com" rel="dns-prefetch"/>
<link href="//s.w.org" rel="dns-prefetch"/>
<link href="https://ip19216801.com.br/feed/" rel="alternate" title="Feed para 192.168.0.1  |  192.168.o.1 »" type="application/rss+xml"/>
<link href="https://ip19216801.com.br/comments/feed/" rel="alternate" title="Feed de comentários para 192.168.0.1  |  192.168.o.1 »" type="application/rss+xml"/>
<script type="text/javascript">
			window._wpemojiSettings = {"baseUrl":"https:\/\/s.w.org\/images\/core\/emoji\/13.0.1\/72x72\/","ext":".png","svgUrl":"https:\/\/s.w.org\/images\/core\/emoji\/13.0.1\/svg\/","svgExt":".svg","source":{"concatemoji":"https:\/\/ip19216801.com.br\/wp-includes\/js\/wp-emoji-release.min.js?ver=5.6"}};
			!function(e,a,t){var r,n,o,i,p=a.createElement("canvas"),s=p.getContext&&p.getContext("2d");function c(e,t){var a=String.fromCharCode;s.clearRect(0,0,p.width,p.height),s.fillText(a.apply(this,e),0,0);var r=p.toDataURL();return s.clearRect(0,0,p.width,p.height),s.fillText(a.apply(this,t),0,0),r===p.toDataURL()}function l(e){if(!s||!s.fillText)return!1;switch(s.textBaseline="top",s.font="600 32px Arial",e){case"flag":return!c([127987,65039,8205,9895,65039],[127987,65039,8203,9895,65039])&&(!c([55356,56826,55356,56819],[55356,56826,8203,55356,56819])&&!c([55356,57332,56128,56423,56128,56418,56128,56421,56128,56430,56128,56423,56128,56447],[55356,57332,8203,56128,56423,8203,56128,56418,8203,56128,56421,8203,56128,56430,8203,56128,56423,8203,56128,56447]));case"emoji":return!c([55357,56424,8205,55356,57212],[55357,56424,8203,55356,57212])}return!1}function d(e){var t=a.createElement("script");t.src=e,t.defer=t.type="text/javascript",a.getElementsByTagName("head")[0].appendChild(t)}for(i=Array("flag","emoji"),t.supports={everything:!0,everythingExceptFlag:!0},o=0;o<i.length;o++)t.supports[i[o]]=l(i[o]),t.supports.everything=t.supports.everything&&t.supports[i[o]],"flag"!==i[o]&&(t.supports.everythingExceptFlag=t.supports.everythingExceptFlag&&t.supports[i[o]]);t.supports.everythingExceptFlag=t.supports.everythingExceptFlag&&!t.supports.flag,t.DOMReady=!1,t.readyCallback=function(){t.DOMReady=!0},t.supports.everything||(n=function(){t.readyCallback()},a.addEventListener?(a.addEventListener("DOMContentLoaded",n,!1),e.addEventListener("load",n,!1)):(e.attachEvent("onload",n),a.attachEvent("onreadystatechange",function(){"complete"===a.readyState&&t.readyCallback()})),(r=t.source||{}).concatemoji?d(r.concatemoji):r.wpemoji&&r.twemoji&&(d(r.twemoji),d(r.wpemoji)))}(window,document,window._wpemojiSettings);
		</script>
<style type="text/css">
img.wp-smiley,
img.emoji {
	display: inline !important;
	border: none !important;
	box-shadow: none !important;
	height: 1em !important;
	width: 1em !important;
	margin: 0 .07em !important;
	vertical-align: -0.1em !important;
	background: none !important;
	padding: 0 !important;
}
</style>
<link href="https://ip19216801.com.br/wp-content/themes/no-sidebar-pro/style.css?ver=1.0.4" id="no-sidebar-pro-css" media="all" rel="stylesheet" type="text/css"/>
<link href="https://ip19216801.com.br/wp-includes/css/dist/block-library/style.min.css?ver=5.6" id="wp-block-library-css" media="all" rel="stylesheet" type="text/css"/>
<link crossorigin="anonymous" href="//fonts.googleapis.com/css?family=Lato%3A400%2C400italic%2C700%7COswald%3A300%7CPlayfair+Display%3A400%2C400italic%2C700&amp;ver=1.0.4" id="google-fonts-css" media="all" rel="stylesheet" type="text/css"/>
<link href="//code.ionicframework.com/ionicons/2.0.1/css/ionicons.min.css?ver=1.0.4" id="ionicons-css" media="all" rel="stylesheet" type="text/css"/>
<script id="jquery-core-js" src="https://ip19216801.com.br/wp-includes/js/jquery/jquery.min.js?ver=3.5.1" type="text/javascript"></script>
<script id="jquery-migrate-js" src="https://ip19216801.com.br/wp-includes/js/jquery/jquery-migrate.min.js?ver=3.3.2" type="text/javascript"></script>
<link href="https://ip19216801.com.br/wp-json/" rel="https://api.w.org/"/><link href="https://ip19216801.com.br/wp-json/wp/v2/pages/117" rel="alternate" type="application/json"/><link href="https://ip19216801.com.br/xmlrpc.php?rsd" rel="EditURI" title="RSD" type="application/rsd+xml"/>
<link href="https://ip19216801.com.br/wp-includes/wlwmanifest.xml" rel="wlwmanifest" type="application/wlwmanifest+xml"/>
<meta content="WordPress 5.6" name="generator"/>
<link href="https://ip19216801.com.br/" rel="shortlink"/>
<link href="https://ip19216801.com.br/wp-json/oembed/1.0/embed?url=https%3A%2F%2Fip19216801.com.br%2F" rel="alternate" type="application/json+oembed"/>
<link href="https://ip19216801.com.br/wp-json/oembed/1.0/embed?url=https%3A%2F%2Fip19216801.com.br%2F&amp;format=xml" rel="alternate" type="text/xml+oembed"/>
<link href="https://ip19216801.com.br/xmlrpc.php" rel="pingback"/>
<meta content="AN74CFB7O7Lqt2mAwIvY_FTxM6JVFKTdjwy1m6e8xzY" name="google-site-verification"/>
<script async="" src="//pagead2.googlesyndication.com/pagead/js/adsbygoogle.js"></script>
<script>
     (adsbygoogle = window.adsbygoogle || []).push({
          google_ad_client: "ca-pub-1930204957119198",
          enable_page_level_ads: true
     });
</script>
<script async="" custom-element="amp-auto-ads" src="https://cdn.ampproject.org/v0/amp-auto-ads-0.1.js">
</script>
<script async="" custom-element="amp-sticky-ad" src="https://cdn.ampproject.org/v0/amp-sticky-ad-1.0.js"></script><style type="text/css">.site-title a { background: url(https://ip19216801.com.br/wp-content/uploads/2018/10/cropped-ip19216801.png) no-repeat !important; }</style>
<style type="text/css">.broken_link, a.broken_link {
	text-decoration: line-through;
}</style><!-- Não existe versão amphtml disponível para essa URL. --><link href="https://ip19216801.com.br/wp-content/uploads/2018/10/cropped-ip19216801-1-32x32.png" rel="icon" sizes="32x32"/>
<link href="https://ip19216801.com.br/wp-content/uploads/2018/10/cropped-ip19216801-1-192x192.png" rel="icon" sizes="192x192"/>
<link href="https://ip19216801.com.br/wp-content/uploads/2018/10/cropped-ip19216801-1-180x180.png" rel="apple-touch-icon"/>
<meta content="https://ip19216801.com.br/wp-content/uploads/2018/10/cropped-ip19216801-1-270x270.png" name="msapplication-TileImage"/>
</head>
<body class="home page-template-default page page-id-117 custom-header header-image header-full-width full-width-content genesis-breadcrumbs-hidden"><div class="site-container"><ul class="genesis-skip-link"><li><a class="screen-reader-shortcut" href="#genesis-nav-primary"> Skip to primary navigation</a></li><li><a class="screen-reader-shortcut" href="#genesis-content"> Skip to main content</a></li></ul><header class="site-header"><div class="wrap"><div class="title-area"><p class="site-title"><a href="https://ip19216801.com.br/">192.168.0.1  |  192.168.o.1</a></p><p class="site-description">IP, configurações, informações, senha, login, admin</p></div><nav aria-label="Main" class="nav-primary" id="genesis-nav-primary"><div class="wrap"><ul class="menu genesis-nav-menu menu-primary js-superfish" id="menu-top"><li class="menu-item menu-item-type-post_type menu-item-object-post menu-item-70" id="menu-item-70"><a href="https://ip19216801.com.br/192-168-o-1-d-link/"><span>D Link</span></a></li>
<li class="menu-item menu-item-type-post_type menu-item-object-post menu-item-71" id="menu-item-71"><a href="https://ip19216801.com.br/192-168-o-1-tp-link/"><span>TP Link</span></a></li>
<li class="menu-item menu-item-type-post_type menu-item-object-post menu-item-72" id="menu-item-72"><a href="https://ip19216801.com.br/192-168-o-1-link-one/"><span>Link One</span></a></li>
<li class="menu-item menu-item-type-post_type menu-item-object-post menu-item-76" id="menu-item-76"><a href="https://ip19216801.com.br/192-168-0-1-multilaser/"><span>Multilaser</span></a></li>
<li class="menu-item menu-item-type-post_type menu-item-object-post menu-item-120" id="menu-item-120"><a href="https://ip19216801.com.br/192-168-0-254/"><span>192.168.0.254</span></a></li>
<li class="menu-item menu-item-type-post_type menu-item-object-post menu-item-134" id="menu-item-134"><a href="https://ip19216801.com.br/192-168-o-1-mudar-senha/"><span>Mudar senha Wifi</span></a></li>
<li class="menu-item menu-item-type-post_type menu-item-object-post menu-item-143" id="menu-item-143"><a href="https://ip19216801.com.br/192-168-15-1-vivo/"><span>192.168.15.1 Vivo</span></a></li>
</ul></div></nav><form action="https://ip19216801.com.br/" class="search-form" method="get" role="search"><label class="search-form-label screen-reader-text" for="searchform-1">BUSCAR</label><input class="search-form-input" id="searchform-1" name="s" placeholder="BUSCAR" type="search"/><input class="search-form-submit" type="submit" value="Search"/><meta content="https://ip19216801.com.br/?s={s}"/></form></div></header><div class="full-screen"><div class="widget-area"><h2 class="screen-reader-text">Welcome Content</h2></div></div><div class="site-inner"><div class="content-sidebar-wrap"><main class="content" id="genesis-content"><article class="post-117 page type-page status-publish entry"><header class="entry-header"><h1 class="entry-title">192.168.o.1: Veja para que serve o IP e como você pode configurar seu modem ou roteador</h1>
</header><div class="entry-content"><p>A configuração básica de qualquer roteador começa a partir do <strong>IP 192.168.0.1</strong> ou ainda por sua variação que é o <strong>IP 192.168.1.1</strong>. Esses números bastante complexos fazem parte das principais configurações de roteadores de internet distribuídos por diversas marcas. Mas você sabe o que esses números significam? Ou mesmo, quais configurações você pode realizar a partir desse IP?</p><div class="code-block code-block-2" style="margin: 8px auto; text-align: center; display: block; clear: both;">
<script async="" src="//pagead2.googlesyndication.com/pagead/js/adsbygoogle.js"></script>
<!-- bloco-links-azul -->
<ins class="adsbygoogle" data-ad-client="ca-pub-1930204957119198" data-ad-format="link" data-ad-slot="1424676210" data-full-width-responsive="true" style="display:block"></ins>
<script>
(adsbygoogle = window.adsbygoogle || []).push({});
</script><script async="" src="//pagead2.googlesyndication.com/pagead/js/adsbygoogle.js"></script>
<!-- bloco-links-azul -->
<ins class="adsbygoogle" data-ad-client="ca-pub-1930204957119198" data-ad-format="link" data-ad-slot="1424676210" data-full-width-responsive="true" style="display:block"></ins>
<script>
(adsbygoogle = window.adsbygoogle || []).push({});
</script>
<amp-auto-ads data-ad-client="ca-pub-1930204957119198" type="adsense">
</amp-auto-ads></div>
<p>Neste post, falaremos em detalhes o que é IP 192.168.0.1, para que ele serve, quais são as suas principais aplicações e configurações realizadas em roteador ou modem de internet. Além disso, falaremos sobre os principais erros que podem ocorrer ao utilizar esse endereço IP. Confira tudo isso a seguir e muito mais:</p>
<p> </p>
<h2>O que é IP 192.168.0.1?</h2>
<p>O IP 192.168.0.1 é um tipo de endereço interligado ao roteador ou modem de internet. A partir desse endereço é possível acessar configurações desses dispositivos e alterá-las conforme a preferência do usuário. Todas as alterações que podem ser feitas nesses dispositivos só podem ser acessadas com a utilização do IP correto. No caso do IP 192.168.0.1, esse é um endereço padrão que alterna com o IP 192.168.1.1, que também tem a mesma finalidade.</p>
<p>No entanto, nem todos os roteadores possuem o mesmo IP, em todos os casos é necessário conferir no aparelho o IP correspondente ao modelo e marca do dispositivo. Esse tipo de informação pode ser conferida de várias formas, podendo ser na parte inferior do aparelho, no manual de instruções ou ainda por meio do Prompt de comando. Independente da forma que você escolha, o IP será o mesmo em todas as opções.</p>
<p><a href="https://ip19216801.com.br/wp-content/uploads/2017/08/192.168.0.1.jpg"><img alt="192.168.0.1" class="lazy lazy-hidden aligncenter size-full wp-image-114" data-lazy-sizes="(max-width: 683px) 100vw, 683px" data-lazy-src="https://ip19216801.com.br/wp-content/uploads/2017/08/192.168.0.1.jpg" data-lazy-srcset="https://ip19216801.com.br/wp-content/uploads/2017/08/192.168.0.1.jpg 683w, https://ip19216801.com.br/wp-content/uploads/2017/08/192.168.0.1-300x242.jpg 300w" data-lazy-type="image" height="552" loading="lazy" src="data:image/gif;base64,R0lGODlhAQABAIAAAAAAAP///yH5BAEAAAAALAAAAAABAAEAAAIBRAA7" width="683"/><noscript><img alt="192.168.0.1" class="aligncenter size-full wp-image-114" height="552" loading="lazy" sizes="(max-width: 683px) 100vw, 683px" src="https://ip19216801.com.br/wp-content/uploads/2017/08/192.168.0.1.jpg" srcset="https://ip19216801.com.br/wp-content/uploads/2017/08/192.168.0.1.jpg 683w, https://ip19216801.com.br/wp-content/uploads/2017/08/192.168.0.1-300x242.jpg 300w" width="683"/></noscript></a></p><div class="code-block code-block-3" style="margin: 8px auto; text-align: center; display: block; clear: both;">
<script async="" src="//pagead2.googlesyndication.com/pagead/js/adsbygoogle.js"></script>
<!-- bloco-links-azul -->
<ins class="adsbygoogle" data-ad-client="ca-pub-1930204957119198" data-ad-format="link" data-ad-slot="1424676210" data-full-width-responsive="true" style="display:block"></ins>
<script>
(adsbygoogle = window.adsbygoogle || []).push({});
</script><script async="" src="//pagead2.googlesyndication.com/pagead/js/adsbygoogle.js"></script>
<!-- bloco-links-azul -->
<ins class="adsbygoogle" data-ad-client="ca-pub-1930204957119198" data-ad-format="link" data-ad-slot="1424676210" data-full-width-responsive="true" style="display:block"></ins>
<script>
(adsbygoogle = window.adsbygoogle || []).push({});
</script></div>
<p> </p>
<h2>Para que serve?</h2>
<p>O IP 192.168.0.1 serve para diversas finalidades. A sua principal função é interligar as configurações de um roteador ao próprio dispositivo, com a finalidade de permitir alterações necessárias e de preferências do usuário. Confira a seguir as principais possibilidades por meio deste endereço IP:</p>
<ul>
<li>Acesso a interface de configuração do roteador ou modem de internet;</li>
<li>Troca de nome de usuário e senha do roteador;</li>
<li><a class="broken_link" href="https://ip19216801.com.br/192-168-o-1-mudar-senha/">Troca de nome e senha da rede Wifi</a>;</li>
<li>Definições básicas de internet.</li>
</ul>
<p>Essas são apenas algumas das possibilidades que você pode conferir utilizando o IP 192.168.0.1 em seu navegador de internet. Há ainda várias outras aplicações importantes que podem ser realizadas por meio desse endereço, como a abertura de portas ou mesmo o fechamento de portas do roteador.</p>
<p> </p>
<h2>Principais aparelhos que utilizam o IP 192.168.0.1</h2>
<p>Atualmente, há uma infinita gama de aparelhos que utilizam o IP 192.168.0.1 como endereço eletrônico para configurações de internet. Esses aparelhos se dividem entre modelos e marcas diferentes. No entanto, há alguns modelos de roteadores e algumas marcas que já utilizam esse IP como um padrão para configuração do dispositivo. Confira a seguir uma lista com os principais aparelhos que utilizam esse IP:</p>
<ul>
<li><a class="broken_link" href="https://ip19216801.com.br/192-168-0-1-multilaser/">Roteadores da marca Multilaser</a>;</li>
<li><a href="https://ip19216801.com.br/192-168-o-1-d-link/">Roteadores da marca D-Link</a>;</li>
<li><a class="broken_link" href="https://ip19216801.com.br/192-168-o-1-link-one/">Roteadores da marca Link One</a>;</li>
<li><a class="broken_link" href="https://ip19216801.com.br/192-168-o-1-tp-link/">Roteadores da marca TP Link</a>.</li>
</ul>
<p>Em resumo, podemos dizer que o IP 192.168.0.1 é utilizado exclusivamente por modelos de roteador e modem de internet. Já o acesso a esse IP deve ocorrer por meio de outros dispositivos como computadores, tablets e smartphones.</p><div class="code-block code-block-4" style="margin: 8px 0; clear: both;">
<script async="" src="//pagead2.googlesyndication.com/pagead/js/adsbygoogle.js"></script>
<!-- bloco-links-azul -->
<ins class="adsbygoogle" data-ad-client="ca-pub-1930204957119198" data-ad-format="link" data-ad-slot="1424676210" data-full-width-responsive="true" style="display:block"></ins>
<script>
(adsbygoogle = window.adsbygoogle || []).push({});
</script><script async="" src="//pagead2.googlesyndication.com/pagead/js/adsbygoogle.js"></script>
<!-- bloco-links-azul -->
<ins class="adsbygoogle" data-ad-client="ca-pub-1930204957119198" data-ad-format="link" data-ad-slot="1424676210" data-full-width-responsive="true" style="display:block"></ins>
<script>
(adsbygoogle = window.adsbygoogle || []).push({});
</script></div>
<p><a href="https://ip19216801.com.br/wp-content/uploads/2017/08/tp-link-192-168-0-1-setup-guide-1-1024x615.png"><img alt="tp link 192.168.0.1 interface" class="lazy lazy-hidden aligncenter size-full wp-image-115" data-lazy-sizes="(max-width: 1024px) 100vw, 1024px" data-lazy-src="https://ip19216801.com.br/wp-content/uploads/2017/08/tp-link-192-168-0-1-setup-guide-1-1024x615.png" data-lazy-srcset="https://ip19216801.com.br/wp-content/uploads/2017/08/tp-link-192-168-0-1-setup-guide-1-1024x615.png 1024w, https://ip19216801.com.br/wp-content/uploads/2017/08/tp-link-192-168-0-1-setup-guide-1-1024x615-300x180.png 300w, https://ip19216801.com.br/wp-content/uploads/2017/08/tp-link-192-168-0-1-setup-guide-1-1024x615-768x461.png 768w" data-lazy-type="image" height="615" loading="lazy" src="data:image/gif;base64,R0lGODlhAQABAIAAAAAAAP///yH5BAEAAAAALAAAAAABAAEAAAIBRAA7" width="1024"/><noscript><img alt="tp link 192.168.0.1 interface" class="aligncenter size-full wp-image-115" height="615" loading="lazy" sizes="(max-width: 1024px) 100vw, 1024px" src="https://ip19216801.com.br/wp-content/uploads/2017/08/tp-link-192-168-0-1-setup-guide-1-1024x615.png" srcset="https://ip19216801.com.br/wp-content/uploads/2017/08/tp-link-192-168-0-1-setup-guide-1-1024x615.png 1024w, https://ip19216801.com.br/wp-content/uploads/2017/08/tp-link-192-168-0-1-setup-guide-1-1024x615-300x180.png 300w, https://ip19216801.com.br/wp-content/uploads/2017/08/tp-link-192-168-0-1-setup-guide-1-1024x615-768x461.png 768w" width="1024"/></noscript></a></p>
<p> </p>
<h2>Erros comuns do IP 192.168.0.1</h2>
<p>O IP em si não apresenta nenhum tipo de erro, mas você pode não conseguir acessar as configurações da sua internet caso digite o IP incorretamente. Esse é o erro mais comum, que pode ainda ser dividido em várias formas erradas de digitar o IP no navegador. Por exemplo, se você digitar o IP 192.168.o.1, o endereço IP estará errado, pois você terá trocado o número 0 pela letra o.</p>
<p>Esse é um dos erros mais comuns, mas não é o último. Tem pessoas que cometem o erro de dar espaços entre os dígitos ou ainda de colocar os números todos juntos sem a utilização do ponto final. Todas essas formas ocasionam erro e impossibilitam o acesso as configurações do seu roteador. Veja a seguir alguns erros muito comuns de digitação do IP 192.168.0.1:</p>
<ul>
<li>19216801;</li>
<li>192.168. 0. 1;</li>
<li>192 .168 .0 .1;</li>
<li>192.168.o.1.</li>
</ul>
<p>A forma correta é<strong> 192.168.0.1</strong> utilizando pontos e apenas números. Isso porque o endereço IP de um roteador é formado apenas por números e ponto final que deve ser sempre colocado entre os números como mostramos anteriormente.</p>
<p> </p>
<h2>Configurações realizadas pelo IP 192.168.0.1</h2>
<p>Como já mencionamos, esse endereço IP é responsável principalmente por permitir o acesso do roteador a rede de internet. No entanto, é a partir deste endereço IP que o usuário pode trocar informações básicas como senha da internet, senha das configurações do roteador e até mesmo abrir ou fechar portas do dispositivo.</p>
<p>Veja a seguir um resumo das principais configurações que podem ser realizadas através do IP 192.168.0.1 de um roteador:</p>
<p> </p>
<h3>Configurações de internet</h3>
<p>A primeira utilização do roteador exige que o usuário realize a configuração da internet de acordo com a sua preferência ou modalidade de internet. Como o roteador é responsável por transmitir o sinal de internet sem o uso de fio, o usuário precisará habilitar essa configuração a partir do IP 192.168.0.1.</p>
<p> </p>
<h3>Nome e senha da rede Wifi</h3>
<p>Outro detalhe muito importante é que o nome de usuário da rede Wifi, assim como a senha, são fornecidos ao consumidor em um padrão estabelecido por cada marca de roteador. Nesse caso, para que o usuário tenha maior segurança em sua conexão com a internet é aconselhado a troca dessas informações por informações de sua preferência. Esse tipo de aplicação também exige a utilização do IP 192.168.0.1 para ter acesso as configurações do roteador.</p>
<p> </p>
<h3>Abrir ou fechar portas</h3>
<p>Essa é uma aplicação exigida também para todos os roteadores. Se o usuário deseja abrir ou fechar uma porta, é necessário acessar as configurações do dispositivo por meio do endereço IP do roteador. Há ainda algumas marcas de roteadores que exigem o endereço IP na hora de realizar a abertura ou fechamento de alguma porta nas configurações do roteador.</p>
<div class="code-block code-block-1" style="margin: 8px auto; text-align: center; display: block; clear: both;">
<div style="background-color: #f5f5f5; padding: 15px 0px 10px 0px; text-align: center; display: block; margin-top: 60px;">
<h2>VEJA MAIS ARTIGOS</h2>
</div>
<script async="" src="//pagead2.googlesyndication.com/pagead/js/adsbygoogle.js"></script>
<ins class="adsbygoogle" data-ad-client="ca-pub-1930204957119198" data-ad-format="autorelaxed" data-ad-slot="4500724585" style="display:block"></ins>
<script>
     (adsbygoogle = window.adsbygoogle || []).push({});
</script></div>
<!-- AI CONTENT END 2 -->
</div></article></main></div></div><footer class="site-footer"><div class="wrap"><p>Copyright © 2021 · <a href="http://my.studiopress.com/themes/no-sidebar/">No Sidebar Pro</a> on <a href="https://www.studiopress.com/">Genesis Framework</a> · <a href="https://wordpress.org/">WordPress</a> · <a href="https://ip19216801.com.br/wp1988login/" rel="nofollow">Log in</a></p></div></footer></div><script>
  (function(i,s,o,g,r,a,m){i['GoogleAnalyticsObject']=r;i[r]=i[r]||function(){
  (i[r].q=i[r].q||[]).push(arguments)},i[r].l=1*new Date();a=s.createElement(o),
  m=s.getElementsByTagName(o)[0];a.async=1;a.src=g;m.parentNode.insertBefore(a,m)
  })(window,document,'script','https://www.google-analytics.com/analytics.js','ga');

  ga('create', 'UA-105114711-3', 'auto');
  ga('send', 'pageview');

</script>
<amp-sticky-ad layout="nodisplay">
<amp-ad data-slot="/9232727013/amptesting/formats/sticky" height="50" type="doubleclick" width="320">
</amp-ad>
</amp-sticky-ad><script id="hoverIntent-js" src="https://ip19216801.com.br/wp-includes/js/hoverIntent.min.js?ver=1.8.1" type="text/javascript"></script>
<script id="superfish-js" src="https://ip19216801.com.br/wp-content/themes/genesis/lib/js/menu/superfish.min.js?ver=1.7.10" type="text/javascript"></script>
<script id="superfish-args-js" src="https://ip19216801.com.br/wp-content/themes/genesis/lib/js/menu/superfish.args.min.js?ver=3.1.3" type="text/javascript"></script>
<script id="skip-links-js" src="https://ip19216801.com.br/wp-content/themes/genesis/lib/js/skip-links.min.js?ver=3.1.3" type="text/javascript"></script>
<script id="ns-responsive-menu-js-extra" type="text/javascript">
/* <![CDATA[ */
var NoSidebarL10n = {"mainMenu":"Menu","subMenu":"Menu"};
/* ]]> */
</script>
<script id="ns-responsive-menu-js" src="https://ip19216801.com.br/wp-content/themes/no-sidebar-pro/js/responsive-menu.js?ver=1.0.0" type="text/javascript"></script>
<script id="ns-search-box-js" src="https://ip19216801.com.br/wp-content/themes/no-sidebar-pro/js/search-box.js?ver=1.0.0" type="text/javascript"></script>
<script id="BJLL-js" src="https://ip19216801.com.br/wp-content/plugins/bj-lazy-load/js/bj-lazy-load.min.js?ver=2" type="text/javascript"></script>
<script id="wp-embed-js" src="https://ip19216801.com.br/wp-includes/js/wp-embed.min.js?ver=5.6" type="text/javascript"></script>
</body></html>
<!--
Performance optimized by Redis Object Cache. Learn more: https://wprediscache.com

Recuperados 2164 objetos (181 KB) do Redis usando PhpRedis (v5.3.2RC1).
-->
