<!DOCTYPE HTML PUBLIC "-//W3C//DTD HTML 3.2 Final//EN">
<html>
<head>
<title>Index of /2-uncategorised</title>
</head>
<body>
<h1>Index of /2-uncategorised</h1>
<table>
<tr><th valign="top"> </th><th><a href="?C=N;O=D">Name</a></th><th><a href="?C=M;O=A">Last modified</a></th><th><a href="?C=S;O=A">Size</a></th><th><a href="?C=D;O=A">Description</a></th></tr>
<tr><th colspan="5"><hr/></th></tr>
<tr><td valign="top"> </td><td><a href="/">Parent Directory</a> </td><td> </td><td align="right">  - </td><td> </td></tr>
<tr><td valign="top"> </td><td><a href="2-welkom-bij-schoonmaakbedrijf-wimpys.html">2-welkom-bij-schoonm..&gt;</a></td><td align="right">2018-05-11 14:37  </td><td align="right">207 </td><td> </td></tr>
<tr><th colspan="5"><hr/></th></tr>
</table>
</body></html>
