<html>
<head>
<meta charset="utf-8"/>
<meta content="noindex, nofollow, noarchive" name="robots"/>
<title>Website moved to avistaz.to...</title>
<style>
        body {
            margin: 0;
            padding: 0;
            width: 100%;
            height: 100%;
            color: #B0BEC5;
            display: table;
            font-weight: 100;
            font-family: Menlo, Monaco, Consolas, "Courier New", monospace;
        }

        .container {
            text-align: center;
            display: table-cell;
            vertical-align: middle;
        }

        .content {
            text-align: center;
            font-size: 18px;
            display: inline-block;
        }

        .content a {
            color: #5bc0de;
            text-decoration: none;
        }
    </style>
</head>
<body>
<div class="container">
<div class="content">
<h1>Website moved to <a href="https://avistaz.to" rel="nofollow" title="https://avistaz.to">https://avistaz.to</a></h1>
</div>
</div>
</body>
</html>
