<!DOCTYPE html>
<html lang="ko">
<head>
<meta charset="utf-8"/>
<meta content="IE=edge" http-equiv="X-UA-Compatible"/>
<meta content="width=device-width, initial-scale=1.0" name="viewport"/>
<title>요청하신 작업을 처리할 수 없습니다.</title>
<style type="text/css">
        .blackout {
            width: 578px;
            margin: 12% auto 0;
            padding: 210px 0 90px;
            background: url('/admin/gd_share/img/icon_error.png') no-repeat center 69px;
            text-align: center;
        }

        .blackout > strong {
            color: #222222;
            font-size: 28px;
        }

        .blackout > strong > em {
            font-style: normal;
            color: #EC1C23;
        }

        * {
            font-family: Malgun Gothic, "맑은 고딕", AppleGothic, Dotum, "돋움", sans-serif;
        }

        .blackout p {
            padding: 20px 0 0;
            color: #222222;
            font-size: 13px;
            line-height: 1.5;
            color: #666666;
        }

        .blackout-admin {
            background-color: #f3f6f3;
            padding: 20px;
        }

        .blackout-admin h1 {
            margin-bottom: 40px;
        }

        .blackout-admin hr {
            margin: 10px auto 20px;
            background-color: #f9f9f9;
        }

        .blackout-admin pre {
            background-color: #ffe;
        }

        .blackout-admin .code {
            font-size: 0.8em;
            line-height: 1.5em;
            padding: 10px;
            background-color: #ffe;
            border: 1px solid #ccc;
            border-radius: 4px;
        }

        .blackout-admin .code * {
            background-color: #ffe;
        }

        .blackout-admin .code table {
            width: 100%;
            table-layout: fixed;
        }

        .blackout-admin .code table td {
            white-space: pre;
            text-overflow: ellipsis;
            overflow: hidden;
            background-color: #ffe;
        }

        .blackout-admin .code table td.current {
            background-color: #fee000;
        }

        /*20160510 윤태건 404error*/
        * {
            margin: 0;
            padding: 0;
        }

        body {
            -webkit-text-size-adjust: none;
        }

        .c-point {
            color: #EC1C23;
        }

        .submitbtn .skinbtn {
            width: 130px;
        }

        .skinbtn {
            display: inline-block;
            *display: inline;
            *zoom: 1;
            height: 40px;
            padding: 0 5px;
            text-align: center;
            vertical-align: top;
            box-sizing: border-box;
            cursor: pointer;
            font-size: 14px;

            border: 1px solid #B1B1B1;
            background: #FFFFFF;
            color: #777777;
        }

        .btn-m2 {
            height: 44px;
        }

        .submitbtn {
            margin: 30px 0 0;
        }

        @media (max-width: 768px) {
            .blackout,
            .blackout-admin {
                width: auto;
                padding: 190px 0 90px;
                /*background-size: 97px 84px;*/
            }

            .blackout > strong {
                font-size: 20px;
            }

            .blackout p {
                padding: 10px 0 0;
                font-size: 14px;
                line-height: 18px;
                letter-spacing: -0.05em;
            }

            .submitbtn {
                margin: 20px 0 0;
            }
        }
        /*20160510 윤태건 404error // */
    </style>
<!-- HTML5 shim and Respond.js IE8 support of HTML5 elements and media queries -->
<!--[if lt IE 9]>
    <script src="https://oss.maxcdn.com/libs/html5shiv/3.7.0/html5shiv.js"></script>
    <script src="https://oss.maxcdn.com/libs/respond.js/1.3.0/respond.min.js"></script>
    <![endif]-->
<script src="/admin/gd_share/script/jquery/jquery.min.js"></script>
<script type="text/javascript">
        $(function() {
            $('#btnGoBack').click(function(e){
                window.history.back();
            });
            $('#btnGoHome').click(function(e){
                location.replace('https://worldrun.net:443');
            });
        });
    </script>
</head>
<body>
<div class="blackout">
<strong>요청하신 작업을 <em>처리할 수 없습니다.</em></strong>
<p>
            오류 관련 문의는 <strong></strong>로 연락하시기 바랍니다.<br/>
            서비스 이용에 불편을 드려서 죄송합니다.
        </p>
<div class="submitbtn">
<button class="skinbtn default btn-m2" id="btnGoBack" type="button"><b>뒤로가기</b></button>
<button class="skinbtn default btn-m2" id="btnGoHome" type="button"><b>홈 바로가기</b></button>
</div>
</div>
</body>
</html>