<!DOCTYPE HTML PUBLIC "-//W3C//DTD HTML 4.01 Transitional//EN" "http://www.w3.org/TR/html4/loose.dtd">
<html>
<head>
<meta content="text/html; charset=utf-8" http-equiv="Content-Type"/>
<title>Welcome to Ass 4 All !</title>
<style type="text/css">
<!--
a:hover img 
{
	border: 2px solid #ffffff;

}
a:visited img 
{
	border: 2px solid #D50000;

}
body {
	background-color: #FFFFFF;
	margin-left: 0px;
	margin-top: 0px;
	margin-right: 0px;
	margin-bottom: 0px;
}
body,td,th {
	font-family: Verdana, Arial, Helvetica, sans-serif;
	font-size: 1px;
	color: #000000;
}
a:link {
	color: #D50000;
}
a:visited {
	color: #D50000;
}
a:hover {
	color: #000000;
}
a:active {
	color: #000000;
}

.border {
border: 1px solid #000000;
	background-color: #FB0000;
	height: 366px;
	width: 488px;
}
.style10 {color: #FB0000}
.style11 {color: #333366}
.style4 {font-size: 36px}
.style12 {font-size: 16px}

-->
</style></head>
<body>
<div align="center">
<p><span class="style4">Welcome to <strong>ASS4ALL.XXX</strong></span></p>
<br/>
<br/>
<span class="style12">Click here for <a href="http://ass4all.com/" rel="nofollow" target="_top">ASS 4 ALL!</a></span><br/>
</div>
</body>
</html>
