<!DOCTYPE html>
<html lang="zh-CN">
<head>
<meta content="text/html; charset=utf-8" http-equiv="Content-Type"/>
<meta content="webkit|ie-comp|ie-stand" name="renderer"/>
<meta content="IE=edge" http-equiv="X-UA-Compatible"/>
<meta content="width=device-width, initial-scale=1.0, maximum-scale=1.0, user-scalable=0" name="viewport"/>
<meta content="no-cache, no-store, must-revalidate" http-equiv="Cache-Control"/>
<meta content="no-cache" http-equiv="Pragma"/>
<meta content="0" http-equiv="Expires"/>
<title>åèå½±é¢</title>
<meta content="åèå½±é¢ï¼4huï¼åèå½±åº" name="keywords"/>
<meta content="åèå½±é¢ï¼4huï¼åèå½±åº" name="description"/>
<meta content="no-siteapp" http-equiv="Cache-Control"/>
<meta content="no-transform" http-equiv="Cache-Control"/>
<meta content="pc,mobile" name="applicable-device"/>
<script language="javascript" src="/js/ss.html" type="text/javascript"></script>
<link href="/css/bootstrap/3.3.7/css/bootstrap.min.css" rel="stylesheet" type="text/css"/>
<link href="/css/js/swiper.min.css" rel="stylesheet" type="text/css"/>
<link href="/css/css/style.css" rel="stylesheet" type="text/css"/>
<link href="/css/css/white.css" rel="stylesheet" type="text/css"/>
<script src="/css/js/jquery-3.3.1.min.js"></script>
<script src="/css/bootstrap/3.3.7/js/bootstrap.min.js" type="text/javascript"></script>
<script src="/content/system.html"></script>
<link href="/Tpl/css/style.css" rel="stylesheet"/>
</head>
<body>
<nav class="navbar navbar-inverse" role="navigation">
<div class="container">
<div class="row">
<div class="navbar-header">
<div class="navbar-toggle navbar-navmore" data-target="#example-navbar-collapse" data-toggle="collapse"><i class="icon iconfont"> - æ ç®</i></div>
<span class="domain">
<div id="logo">åèå½±åºæ°ç(4hu.tv)</div>
</span>
</div>
<div class="collapse navbar-collapse" id="example-navbar-collapse">
<ul class="nav navbar-nav navbar-left" style="display:block;">
<li id="nav-index"><a href="/">é¦é¡µ</a></li>
<li class="" id="nav-dianshiju"><a href="/vod/html1/">å½äº§ç²¾å</a></li><li class="" id="nav-dianshiju"><a href="/vod/html9/">äºæ´²æ ç </a></li><li class="" id="nav-dianshiju"><a href="/vod/html16/">ä¸­ææç </a></li><li class="" id="nav-dianshiju"><a href="/vod/html17/">èåå¥³ä¼</a></li><li class="" id="nav-dianshiju"><a href="/vod/html26/">å¨æ¼«å¡é</a></li><li class="" id="nav-dianshiju"><a href="/vod/html27/">æ¬§ç¾ç³»å</a></li><li class="" id="nav-dianshiju"><a href="/pic/html28/">èªæå¾ç</a></li><li class="" id="nav-dianshiju"><a href="/novel/list1/">æäººå°è¯´</a></li>
</ul>
</div>
</div>
</div>
</nav>
<div class="top_box" id="htmltop"></div>
<div id="sihu"></div>
<div class="container">
<div class="row">
<div class="layout-box clearfix">
<div class="box-title">
<h3 class="m-0"><i class="icon iconfont text-color">î«</i>æè¿æ´æ°</h3>
<!--  <div class="more pull-right"><a href="/" class="text-muted" title="æ´å¤">æ´å¤ <i class="icon iconfont">î</i></a></div>-->
</div>
<ul class="clearfix">
<li class="col-md-2 col-sm-3 col-xs-4 ">
<a class="video-pic loading" data-original="https://pppp.642p.com/image/202004/iQ31ewKB.jpg" href="/vod/html9/html22/41327.html" target="_blank">
<span class="player"></span>
<span class="note text-bg-r">2021-01-14</span>
</a>
<div class="title">
<h5 class="text-overflow"><a href="/vod/html9/html22/41327.html" target="_blank">HEYZO 2118 è¡å¦ç»ææç²¾æ¶²åä¸</a></h5>
</div>
<!--div class="subtitle text-time text-overflow"></div-->
</li>
<li class="col-md-2 col-sm-3 col-xs-4 ">
<a class="video-pic loading" data-original="https://pppp.642p.com/image/202004/FUf8vZX5.jpg" href="/vod/html9/html22/41326.html" target="_blank">
<span class="player"></span>
<span class="note text-bg-r">2021-01-14</span>
</a>
<div class="title">
<h5 class="text-overflow"><a href="/vod/html9/html22/41326.html" target="_blank">021019 857 åæ»¡è¯±æçå¥³äºº åé³</a></h5>
</div>
<!--div class="subtitle text-time text-overflow"></div-->
</li>
<li class="col-md-2 col-sm-3 col-xs-4 ">
<a class="video-pic loading" data-original="https://pppp.642p.com/images/202010/5f98629d1d290d0b0846c3fa/poster350.jpg" href="/vod/html34/202101/41325.html" target="_blank">
<span class="player"></span>
<span class="note text-bg-r">2021-01-14</span>
</a>
<div class="title">
<h5 class="text-overflow"><a href="/vod/html34/202101/41325.html" target="_blank">å¤§åæ³åæçå°ä¾¿åææå¸</a></h5>
</div>
<!--div class="subtitle text-time text-overflow"></div-->
</li>
<li class="col-md-2 col-sm-3 col-xs-4 ">
<a class="video-pic loading" data-original="https://pppp.642p.com/image/202004/gTkM8Ne8.jpg" href="/vod/html9/html22/41324.html" target="_blank">
<span class="player"></span>
<span class="note text-bg-r">2021-01-14</span>
</a>
<div class="title">
<h5 class="text-overflow"><a href="/vod/html9/html22/41324.html" target="_blank">111617_606 é»å±å¤§å§ç¨èº«ä½ææ</a></h5>
</div>
<!--div class="subtitle text-time text-overflow"></div-->
</li>
<li class="col-md-2 col-sm-3 col-xs-4 ">
<a class="video-pic loading" data-original="https://pppp.642p.com/images/202010/5f98629d1d290d0b0846c3fb/poster350.jpg" href="/vod/html34/202101/41323.html" target="_blank">
<span class="player"></span>
<span class="note text-bg-r">2021-01-14</span>
</a>
<div class="title">
<h5 class="text-overflow"><a href="/vod/html34/202101/41323.html" target="_blank">è¥å®å ±å¾©èç¿»å¦³</a></h5>
</div>
<!--div class="subtitle text-time text-overflow"></div-->
</li>
<li class="col-md-2 col-sm-3 col-xs-4 ">
<a class="video-pic loading" data-original="https://pppp.642p.com/images/202011/5fa8b9321d290d0b0846d99c/1.gif" href="/vod/html7/41322.html" target="_blank">
<span class="player"></span>
<span class="note text-bg-r">2021-01-14</span>
</a>
<div class="title">
<h5 class="text-overflow"><a href="/vod/html7/41322.html" target="_blank">ææºå°è§é¢ç¬¬1863é</a></h5>
</div>
<!--div class="subtitle text-time text-overflow"></div-->
</li>
<li class="col-md-2 col-sm-3 col-xs-4 ">
<a class="video-pic loading" data-original="https://pppp.642p.com/images/202011/5fac98861d290d0b0846e05e/1.gif" href="/vod/html5/41321.html" target="_blank">
<span class="player"></span>
<span class="note text-bg-r">2021-01-14</span>
</a>
<div class="title">
<h5 class="text-overflow"><a href="/vod/html5/41321.html" target="_blank">ä¸¤æåäººå¦»è­¦å¯å¶æè¯±æäºç¸ç±æ</a></h5>
</div>
<!--div class="subtitle text-time text-overflow"></div-->
</li>
<li class="col-md-2 col-sm-3 col-xs-4 ">
<a class="video-pic loading" data-original="https://pppp.642p.com/images/202011/5fa3ac911d290d0b0846d2ab/1.gif" href="/vod/html6/41320.html" target="_blank">
<span class="player"></span>
<span class="note text-bg-r">2021-01-14</span>
</a>
<div class="title">
<h5 class="text-overflow"><a href="/vod/html6/41320.html" target="_blank">ç½çº¢ä¸»æ­ç¬¬1803é</a></h5>
</div>
<!--div class="subtitle text-time text-overflow"></div-->
</li>
<li class="col-md-2 col-sm-3 col-xs-4 ">
<a class="video-pic loading" data-original="https://pppp.642p.com/109/2019/3/PMTn63BJ.jpg" href="/vod/html8/41319.html" target="_blank">
<span class="player"></span>
<span class="note text-bg-r">2021-01-14</span>
</a>
<div class="title">
<h5 class="text-overflow"><a href="/vod/html8/41319.html" target="_blank">ä¸çº§å§æ(ä¸­æå­å¹)æ éæ¥å27 I</a></h5>
</div>
<!--div class="subtitle text-time text-overflow"></div-->
</li>
<li class="col-md-2 col-sm-3 col-xs-4 ">
<a class="video-pic loading" data-original="https://pppp.642p.com/images/202011/5fa8b9321d290d0b0846d99d/1.gif" href="/vod/html7/41318.html" target="_blank">
<span class="player"></span>
<span class="note text-bg-r">2021-01-14</span>
</a>
<div class="title">
<h5 class="text-overflow"><a href="/vod/html7/41318.html" target="_blank">ææºå°è§é¢ç¬¬1804é</a></h5>
</div>
<!--div class="subtitle text-time text-overflow"></div-->
</li>
<li class="col-md-2 col-sm-3 col-xs-4 ">
<a class="video-pic loading" data-original="https://pppp.642p.com/images/202011/5fa3ac911d290d0b0846d2ac/1.gif" href="/vod/html6/41317.html" target="_blank">
<span class="player"></span>
<span class="note text-bg-r">2021-01-14</span>
</a>
<div class="title">
<h5 class="text-overflow"><a href="/vod/html6/41317.html" target="_blank">ç½çº¢ä¸»æ­ç¬¬1813é</a></h5>
</div>
<!--div class="subtitle text-time text-overflow"></div-->
</li>
<li class="col-md-2 col-sm-3 col-xs-4 ">
<a class="video-pic loading" data-original="https://pppp.642p.com/images/202011/5fac98861d290d0b0846e05f/1.gif" href="/vod/html5/41316.html" target="_blank">
<span class="player"></span>
<span class="note text-bg-r">2021-01-14</span>
</a>
<div class="title">
<h5 class="text-overflow"><a href="/vod/html5/41316.html" target="_blank">äººå¦»éå¤é²åºå¾å¼æ©çå¸æºæéæ</a></h5>
</div>
<!--div class="subtitle text-time text-overflow"></div-->
</li>
<li class="col-md-2 col-sm-3 col-xs-4 ">
<a class="video-pic loading" data-original="https://pppp.642p.com/images/202011/5faa2b7b1d290d0b0846dc0c/1.gif" href="/vod/html4/41315.html" target="_blank">
<span class="player"></span>
<span class="note text-bg-r">2021-01-14</span>
</a>
<div class="title">
<h5 class="text-overflow"><a href="/vod/html4/41315.html" target="_blank">ååä½å¥³åäºå·æèªæå½±çå¤æµ</a></h5>
</div>
<!--div class="subtitle text-time text-overflow"></div-->
</li>
<li class="col-md-2 col-sm-3 col-xs-4 ">
<a class="video-pic loading" data-original="https://pppp.642p.com/images/202011/5fbdd6ea1d290d0b08471350/1.gif" href="/vod/html3/41314.html" target="_blank">
<span class="player"></span>
<span class="note text-bg-r">2021-01-14</span>
</a>
<div class="title">
<h5 class="text-overflow"><a href="/vod/html3/41314.html" target="_blank">äººå¦»å®¾é¦å¼æ¿å·æè¢«å·å½ä¸</a></h5>
</div>
<!--div class="subtitle text-time text-overflow"></div-->
</li>
<li class="col-md-2 col-sm-3 col-xs-4 ">
<a class="video-pic loading" data-original="https://pppp.642p.com/89/2019/11/fRPjvifN.gif" href="/vod/html2/41313.html" target="_blank">
<span class="player"></span>
<span class="note text-bg-r">2021-01-14</span>
</a>
<div class="title">
<h5 class="text-overflow"><a href="/vod/html2/41313.html" target="_blank">å·¨ä¹³ç³»ä¸»æ­å èµåè¾åå®¶äº§æ¹è¡é»</a></h5>
</div>
<!--div class="subtitle text-time text-overflow"></div-->
</li>
<li class="col-md-2 col-sm-3 col-xs-4 ">
<a class="video-pic loading" data-original="https://pppp.642p.com/images/202011/5faa2b7b1d290d0b0846dc0d/1.gif" href="/vod/html4/41312.html" target="_blank">
<span class="player"></span>
<span class="note text-bg-r">2021-01-14</span>
</a>
<div class="title">
<h5 class="text-overflow"><a href="/vod/html4/41312.html" target="_blank">åå§å±çµ²ç·æ¹é¢éæ¿ç©3P</a></h5>
</div>
<!--div class="subtitle text-time text-overflow"></div-->
</li>
<li class="col-md-2 col-sm-3 col-xs-4 ">
<a class="video-pic loading" data-original="https://pppp.642p.com/images/202011/5fbdd6ea1d290d0b08471351/1.gif" href="/vod/html3/41311.html" target="_blank">
<span class="player"></span>
<span class="note text-bg-r">2021-01-14</span>
</a>
<div class="title">
<h5 class="text-overflow"><a href="/vod/html3/41311.html" target="_blank">å¤«å¦»ä¸èµ·è¿å¨å¥½å¹¸ç¦å</a></h5>
</div>
<!--div class="subtitle text-time text-overflow"></div-->
</li>
<li class="col-md-2 col-sm-3 col-xs-4 ">
<a class="video-pic loading" data-original="https://pppp.642p.com/89/2019/11/V2BMdhwT.gif" href="/vod/html2/41310.html" target="_blank">
<span class="player"></span>
<span class="note text-bg-r">2021-01-14</span>
</a>
<div class="title">
<h5 class="text-overflow"><a href="/vod/html2/41310.html" target="_blank">å·¨ä¹³ç¾å¥³ä¸»æ­ä¸ºäºææåºæ¿åå®¶å°</a></h5>
</div>
<!--div class="subtitle text-time text-overflow"></div-->
</li>
<li class="col-md-2 col-sm-3 col-xs-4 ">
<a class="video-pic loading" data-original="https://pppp.642p.com/image/202006/hyf5smta.jpg" href="/vod/html14/41309.html" target="_blank">
<span class="player"></span>
<span class="note text-bg-r">2021-01-14</span>
</a>
<div class="title">
<h5 class="text-overflow"><a href="/vod/html14/41309.html" target="_blank">ä¸ä¼è¢«ä½ ç·åç¥éçæ²¡äºçï½çæ­£æ</a></h5>
</div>
<!--div class="subtitle text-time text-overflow"></div-->
</li>
<li class="col-md-2 col-sm-3 col-xs-4 ">
<a class="video-pic loading" data-original="https://pppp.642p.com/videos/mvkf/202004/x8ahc7yt.jpg" href="/vod/html16/41308.html" target="_blank">
<span class="player"></span>
<span class="note text-bg-r">2021-01-14</span>
</a>
<div class="title">
<h5 class="text-overflow"><a href="/vod/html16/41308.html" target="_blank">æ·«è¡æ¤å£«çé3pæ¿æéæ¨ãã¨ã¿æ³¢</a></h5>
</div>
<!--div class="subtitle text-time text-overflow"></div-->
</li>
<li class="col-md-2 col-sm-3 col-xs-4 ">
<a class="video-pic loading" data-original="https://pppp.642p.com/image/202005/suespwt4.jpg" href="/vod/html12/41307.html" target="_blank">
<span class="player"></span>
<span class="note text-bg-r">2021-01-14</span>
</a>
<div class="title">
<h5 class="text-overflow"><a href="/vod/html12/41307.html" target="_blank">ä¸çºç»ãã£ã¦ã¾ãä¸çºavå¥³ä¼ãã</a></h5>
</div>
<!--div class="subtitle text-time text-overflow"></div-->
</li>
<li class="col-md-2 col-sm-3 col-xs-4 ">
<a class="video-pic loading" data-original=" https://pppp.642p.com/image/202005/cpyde38h.jpg" href="/vod/html13/41306.html" target="_blank">
<span class="player"></span>
<span class="note text-bg-r">2021-01-14</span>
</a>
<div class="title">
<h5 class="text-overflow"><a href="/vod/html13/41306.html" target="_blank">c0930æç°å®æ±33</a></h5>
</div>
<!--div class="subtitle text-time text-overflow"></div-->
</li>
<li class="col-md-2 col-sm-3 col-xs-4 ">
<a class="video-pic loading" data-original="https://pppp.642p.com/image/202006/qyj87bfy.jpg" href="/vod/html11/41305.html" target="_blank">
<span class="player"></span>
<span class="note text-bg-r">2021-01-14</span>
</a>
<div class="title">
<h5 class="text-overflow"><a href="/vod/html11/41305.html" target="_blank">ã²ã¨ãæ®ããã®å¥³ã®å­ã®ãé¨å±æ</a></h5>
</div>
<!--div class="subtitle text-time text-overflow"></div-->
</li>
<li class="col-md-2 col-sm-3 col-xs-4 ">
<a class="video-pic loading" data-original="https://pppp.642p.com/image/202007/c4gduuuw.jpg" href="/vod/html15/41304.html" target="_blank">
<span class="player"></span>
<span class="note text-bg-r">2021-01-14</span>
</a>
<div class="title">
<h5 class="text-overflow"><a href="/vod/html15/41304.html" target="_blank">å¤ã æµ·ã æ°´çã§h</a></h5>
</div>
<!--div class="subtitle text-time text-overflow"></div-->
</li>
</ul> </div>
</div>
</div>
<div class="row">
<div style="display:none">
<script type="text/javascript">var _Hasync= _Hasync|| [];
_Hasync.push(['Histats.start', '1,3699098,4,0,0,0,00010000']);
_Hasync.push(['Histats.fasi', '1']);
_Hasync.push(['Histats.track_hits', '']);
(function() {
var hs = document.createElement('script'); hs.type = 'text/javascript'; hs.async = true;
hs.src = ('//s10.histats.com/js15_as.js');
(document.getElementsByTagName('head')[0] || document.getElementsByTagName('body')[0]).appendChild(hs);
})();</script>
</div>
<div class="top_box" id="htmlfoot"></div>
</div>
<div class="footer-nav hidden-sm hidden-xs">
<a href="/help/index.html" target="_blank" title="ç½ç«å¸®å©">ç½ç«å¸®å©</a>-<a href="/help/ad.html" target="_blank" title="å¹¿åèç³»">å¹¿åèç³»</a>-<a href="/help/dz.html" target="_blank" title="ææ°å°å">ææ°å°å</a>-<a href="/help/delete.html" target="_blank" title="è§é¢å é¤">è§é¢å é¤</a>
</div>
<div class="box-footer clearfix">
<div class="container">
<p class="m-0 text-muted">
</p><p>è­¦åï¸°æ¬ç¶²ç«åªéååå«æ­²æä»¥ä¸äººå£«è§çãå§å®¹å¯è½ä»¤äººåæï¼ä¸å¯å°æ¬ç¶²ç«çå§å®¹æ´¾ç¼ãå³é±ãåºå®ãåºç§ãäº¤çµ¦æåäºå¹´é½¡æªæ»¿18æ­²çäººå£«æå°æ¬ç¶²ç«å§å®¹åè©²äººå£«åºç¤ºãæ­æ¾ææ¾æ ã
				LEGAL DISCLAIMER WARNING: THIS FORUM CONTAINS MATERIAL WHICH MAY OFFEND AND MAY NOT BE DISTRIBUTED, CIRCULATED, SOLD, HIRED, GIVEN, LENT,SHOWN, PLAYED OR PROJECTED TO A PERSON UNDER THE AGE OF 18 YEARS.
			</p>
<p><b style=" font:Verdana, Arial, Helvetica, sans-serif"><font color="#CC0000">ç«ç¹ç³æï¼æä»¬ç«è¶³äºç¾å©ååä¼å½ï¼ååç¾æ³å¾ä¿æ¤,æªæ»¡18å²æè¢«è¯¯å¯¼æ¥å°è¿éï¼è¯·ç«å³ç¦»å¼ï¼</font></b></p>
</div>
</div>
<ul class="slider-extra clearfix">
<li><a class="backtop" href="javascript:scroll(0,0)" style="display: none;"><i class="icon iconfont"></i></a></li>
</ul>
<div style="display:none">
<script language="javascript" src="/js/logo.js" type="text/javascript"></script>
<script language="javascript" src="/js/tj.js" type="text/javascript"></script>
</div>
</body>
</html>