<!DOCTYPE html>
<html class="XC" id="html" lang="en" xmlns="http://www.w3.org/1999/xhtml">
<head id="Head1">
<base href="/CrossCountry/"/>
<script type="text/javascript">
        var googletag = googletag || {};
        googletag.cmd = googletag.cmd || [];

        var pbjs = pbjs || {};
        pbjs.que = pbjs.que || [];
    </script>
<script>
        var PREBID_TIMEOUT = 2000;
        var FAILSAFE_TIMEOUT = 3000;

        googletag.cmd.push(function () {
            googletag.pubads().disableInitialLoad();
        });

        var prebid_bidders_720 = [{ bidder: 'appnexus', params: { placementId: '12769519',reserve:0.90}, labelAny: ['phone'] },{ bidder: 'appnexus', params: { placementId: '12769520',reserve:0.90}, labelAny: ['display', 'tablet'] },{ bidder: 'conversant', params: { site_id: '116164',bidfloor:0.10, secure: 1 } },{ bidder: 'criteo', params: { zoneId: 1144130 }, labelAny: ['phone'] },{ bidder: 'criteo', params: { zoneId: 1143004 }, labelAny: ['display', 'tablet'] },{ bidder: 'lockerdome', params: { adUnitId: 'LD12644243462403686' }, labelAny: ['phone'] },{ bidder: 'lockerdome', params: { adUnitId: 'LD12644244469036646' }, labelAny: ['display', 'tablet'] },{ bidder: 'rubicon', params: { accountId: '18102', siteId: '188796', zoneId: '919942',floor:0.10} },{ bidder: 'gumgum', params: { inSlot: 7161 }, labelAny: ['phone'] },{ bidder: 'gumgum', params: { inSlot: 7162 }, labelAny: ['display', 'tablet'] },{ bidder: 'sovrn', params: { tagid: '539836',reserve:0.90}, labelAny: ['phone'] },{ bidder: 'sovrn', params: { tagid: '539833',reserve:0.90}, labelAny: ['display', 'tablet'] }];
        var prebid_bidders_320_300Box = [{ bidder: 'appnexus', params: { placementId: '12769519',reserve:0.90}, labelAny: ['phone'] },{ bidder: 'appnexus', params: { placementId: '12769518',reserve:0.90}, labelAny: ['display', 'tablet'] },{ bidder: 'conversant', params: { site_id: '116164',bidfloor:0.10, secure: 1 } },{ bidder: 'criteo', params: { zoneId: 1144130 }, labelAny: ['phone'] },{ bidder: 'criteo', params: { zoneId: 1143002 }, labelAny: ['display', 'tablet'] },{ bidder: 'lockerdome', params: { adUnitId: 'LD12644243462403686' }, labelAny: ['phone'] },{ bidder: 'lockerdome', params: { adUnitId: 'LD12644242455770726' }, labelAny: ['display', 'tablet'] },{ bidder: 'rubicon', params: { accountId: '18102', siteId: '188796', zoneId: '919942',floor:0.10} },{ bidder: 'gumgum', params: { inSlot: 7161 }, labelAny: ['phone'] },{ bidder: 'gumgum', params: { inSlot: 7160 }, labelAny: ['display', 'tablet'] },{ bidder: 'sovrn', params: { tagid: '539836',reserve:0.90}, labelAny: ['phone'] },{ bidder: 'sovrn', params: { tagid: '539834',reserve:0.90}, labelAny: ['display', 'tablet'] },{ bidder: 'teads', params: { placementId:99443, pageId:91758 }, labelAny: ['display', 'tablet'] },{ bidder: 'teads', params: { placementId:100743, pageId:92989 }, labelAny: ['phone'] }];
        var prebid_bidders_300Box = [{ bidder: 'appnexus', params: { placementId: '12769518',reserve:0.90} },{ bidder: 'conversant', params: { site_id: '116164',bidfloor:0.10, secure: 1 } },{ bidder: 'criteo', params: { zoneId: 1143002 } },{ bidder: 'lockerdome', params: { adUnitId: 'LD12644242455770726' } },{ bidder: 'rubicon', params: { accountId: '18102', siteId: '188796', zoneId: '919942',floor:0.10} },{ bidder: 'gumgum', params: { inSlot: 7160 } },{ bidder: 'sovrn', params: { tagid: '539834',reserve:0.90} },{ bidder: 'teads', params: { placementId:99443, pageId:91758 }, labelAny: ['display', 'tablet'] },{ bidder: 'teads', params: { placementId:100743, pageId:92989 }, labelAny: ['phone'] }];
        var prebid_bidders_outstream640 = [{ bidder: 'appnexus', params: { placementId: 13979005, allowSmallerSizes: true,reserve:1.00}, labelAny: ['display', 'tablet'] },{ bidder: 'teads', params: { placementId:100744, pageId:92990 } }];
        var prebid_bidders_outstream320 = [{ bidder: 'appnexus', params: { placementId: 14089865,reserve:1.00}, labelAny: ['phone'] }];
        var prebid_sizes_banner = [[970, 90], [728, 90], [320, 50], [300, 100], [300, 50]];
        var prebid_sizes_300Box = [[300, 250]];
        var prebid_sizes_colapsingBox = [[300, 250], [320, 50], [300, 100], [300, 50]];

        pbjs.que.push(function () {
            pbjs.setConfig({
                // enableSendAllBids: true,
                priceGranularity: { 'buckets': [{ 'min': 0, 'max': 3, 'increment': 0.10 }, { 'min': 3, 'max': 8, 'increment': 0.25 }, { 'min': 8, 'max': 20, 'increment': 1 }] },
                sizeConfig: [
                    { mediaQuery: '(min-width: 1200px)', sizesSupported: [[970, 90], [728, 90], [300, 250], [640, 480], [320, 240], [1, 1]], labels: ['display'] },
                    { mediaQuery: '(min-width: 768px) and (max-width: 1199px)', sizesSupported: [[728, 90], [468, 60], [300, 250], [320, 50], [300, 100], [300, 50], [640, 480], [320, 240], [1, 1]], labels: ['tablet'] },
                    { mediaQuery: '(min-width: 0px) and (max-width: 767px)', sizesSupported: [[480, 80], [468, 60], [300, 250], [320, 50], [300, 100], [300, 50], [120, 20], [168, 28], [640, 480], [320, 240], [1, 1]], labels: ['phone'] }
                ]
            });
            pbjs.addAdUnits([{code:'ad_ATF_Banner',mediaTypes:{banner:{sizes:prebid_sizes_banner}},bids:prebid_bidders_720},{code:'ad_InPage_Box',mediaTypes:{banner:{sizes:prebid_sizes_300Box}},bids:prebid_bidders_300Box},{code:'ad_InPage_320',mediaTypes:{banner:{sizes:prebid_sizes_colapsingBox}},bids:prebid_bidders_320_300Box},{code:'ad_BTF_Banner',mediaTypes:{banner:{sizes:prebid_sizes_banner}},bids:prebid_bidders_720},{code:'ad_video1x1',mediaTypes:{video:{context:'outstream',playerSize:[640, 480]}},bids:prebid_bidders_outstream640},{code:'ad_video1x1',mediaTypes:{video:{context:'outstream',playerSize:[320, 240]}},bids:prebid_bidders_outstream320}]);
            pbjs.requestBids({ bidsBackHandler: initAdserver, timeout: PREBID_TIMEOUT });
        });

        function initAdserver(data) {
            if (pbjs.initAdserverSet) return;
            pbjs.initAdserverSet = true;
            googletag.cmd.push(function () {
                pbjs.que.push(function () {
                    pbjs.setTargetingForGPTAsync();
                    googletag.pubads().refresh();
                    // console.log('sendAdserverRequest:', data);console.log('BidResponses',pbjs.getBidResponses());console.log('AdserverTargeting',pbjs.getAdserverTargeting());
                });
            });
        }

        setTimeout(function () { // in case PBJS doesn't load
            if (!pbjs.initAdserverSet) gtag('event', 'FAILSAFE_TIMEOUT', { event_category: 'Prebid.js FAILSAFE_TIMEOUT', event_label: 'TimeOut', value: 1, non_interaction: true });
            initAdserver('timeout');
        }, FAILSAFE_TIMEOUT);

    </script>
<script async="" src="https://stage.athletic.net/Shared/scripts/prebid/prebid3.25.0.js"></script>
<script type="text/javascript">
        googletag.cmd.push(function () {
            var bannerMapping = googletag.sizeMapping().addSize([100, 100], [88, 31]).addSize([320, 400], [[300, 100], [300, 50], [320, 50], [300, 50]]).addSize([768, 200], [[300, 100], [300, 50], [320, 50], [468, 60], [728, 90]]).addSize([1050, 200], [[300, 100], [300, 50], [320, 50], [468, 60], [728, 90], [970, 90], [1024, 120]]).build();
            var boxMapping = googletag.sizeMapping().addSize([100, 100], [88, 31]).addSize([320, 320], [[300, 100], [300, 50], [320, 50], [350, 400]]).addSize([900, 550], [[300, 250]]).build();
            var takeoverMapping = googletag.sizeMapping().addSize([0, 0], []).addSize([1200, 500], [1, 1]).build();
            var pixleMapping = googletag.sizeMapping().addSize([320, 320], [1, 1]).build();
             googletag.defineSlot('/1011615/Responsive//ATF_Banner', [728, 90], 'ad_ATF_Banner').defineSizeMapping(bannerMapping).addService(googletag.pubads());
googletag.defineSlot('/1011615/Responsive//InPage_Box', [300, 250], 'ad_InPage_Box').addService(googletag.pubads());
googletag.defineSlot('/1011615/Responsive//InPage_320', [300, 250], 'ad_InPage_320').defineSizeMapping(boxMapping).addService(googletag.pubads());
googletag.defineSlot('/1011615/Responsive//BTF_Banner', [728, 90], 'ad_BTF_Banner').defineSizeMapping(bannerMapping).addService(googletag.pubads());
googletag.defineSlot('/1011615/bg_takeover', [1, 1], 'bgTakeover').defineSizeMapping(takeoverMapping).addService(googletag.pubads());
googletag.defineSlot('/1011615/video1x1', [1, 1], 'ad_video1x1').defineSizeMapping(pixleMapping).addService(googletag.pubads());
googletag.defineSlot('/1011615/bottom1x1', [1, 1], 'ad_bottom1x1').defineSizeMapping(pixleMapping).addService(googletag.pubads());
googletag.pubads().setTargeting('Page', 'AthleteProfile');
googletag.pubads().setTargeting('Section', 'XC');
googletag.pubads().setTargeting('SSupport', '0');
googletag.pubads().setTargeting('UserRole', 'General');
googletag.pubads().setTargeting('Tag', 'notag');

            googletag.pubads().enableSingleRequest();
            googletag.enableServices();
        });
    </script>
<!-- Quantcast Tag, part 1 - part 2 in footer-->
<script type="text/javascript">
        var _qevents = _qevents || []; (function () { var a = document.createElement("script"); a.src = ("https:" == document.location.protocol ? "https://secure" : "http://edge") + ".quantserve.com/quant.js"; a.async = !0; a.type = "text/javascript"; var b = document.getElementsByTagName("script")[0]; b.parentNode.insertBefore(a, b) })();
    </script>
<title>
	Bianca Nunez - OR Cross Country Bio
</title><meta content="Athletic.net" name="application-name"/><link href="/favicon.png" rel="icon" type="image/x-icon"/><meta content="width=device-width, initial-scale=1" name="viewport"/><meta content="IE=edge,chrome=1" http-equiv="X-UA-Compatible"/><meta content="169507956425670" property="fb:app_id"/><meta content="Athletic.net" property="og:site_name"/>
<meta content="https://www.athletic.net/CrossCountry/Athlete.aspx?AID=91107" property="og:url"/>
<meta content="@AthleticNet" name="twitter:site"/><link href="../opensearch.xml" id="Link1" rel="search" title="Athletic.net Search" type="application/opensearchdescription+xml"/>
<script type="text/javascript">var anetBSVersion = 'Bootstrap4Transition';</script>
<link href="https://stage.athletic.net/css/Bootstrap4Transition-v-Kpx4q3snVzlHlGBHwVxKcnSZxc3QQF4SIvGxR2kuxN01" rel="stylesheet"/>
<link crossorigin="anonymous" href="https://pro.fontawesome.com/releases/v5.15.1/css/all.css" integrity="sha384-9ZfPnbegQSumzaE7mks2IYgHoayLtuto3AS6ieArECeaR8nCfliJVuLh/GaQ1gyM" rel="stylesheet"/>
<link href="https://www.athletic.net/CrossCountry/Athlete.aspx?AID=91107" rel="canonical"/>
<meta content="TF-Bianca Nunez" name="favTitle"/>
<meta content="Bianca Nunez - OR Track &amp; Field results and photos on Athletic.net" name="description"/>
<meta content="Bianca Nunez" property="og:title"/>
<meta content="athlete" property="og:type"/>
<meta content="https://www.athletic.net/images/Logo/AthleticNet-OG-Image_1200x630.jpg" property="og:image"/>
<meta content="https://www.athletic.net/CrossCountry/Athlete.aspx?AID=91107" property="og:url"/>
<meta content="Athletic.net" property="og:site_name"/>
<meta content="DavidBowdoin,joshua.bowdoin" property="fb:admins"/>
<meta content="25581885951" property="fb:page_id"/>
<meta content="7060951934" property="fb:app_id"/>
<script type="text/javascript">
        var anetSiteAppParams = {"footerRecentVideos":true,"footerShowSignup":true,"app":"net","isProduction":true,"siteVersion":"1.1.7684.16361","uid":0,"tree":[{"type":"sport","id":"xc","title":"Cross Country","url":"/CrossCountry/"},{"type":"div","id":54491,"title":"High School","url":"/CrossCountry/Division/List.aspx?DivID=54491","HomePage":"./","BaseDivID":79},{"type":"div","id":54771,"title":"United States","url":"/CrossCountry/Division/List.aspx?DivID=54771","HomePage":"","BaseDivID":2},{"type":"div","id":56836,"title":"Washington","url":"/CrossCountry/Division/List.aspx?DivID=56836","HomePage":"Washington/","BaseDivID":196},{"type":"div","id":56897,"title":"3A","url":"/CrossCountry/Division/List.aspx?DivID=56897","HomePage":"","BaseDivID":198},{"type":"div","id":56909,"title":"District 8","url":"/CrossCountry/Division/List.aspx?DivID=56909","HomePage":"","BaseDivID":4621},{"type":"div","id":56911,"title":"Mid-Columbia","url":"/CrossCountry/Division/List.aspx?DivID=56911","HomePage":"","BaseDivID":5946},{"type":"team","id":261,"title":"Hermiston","url":"/CrossCountry/School.aspx?SchoolID=261"},{"type":"athlete","id":91107,"title":"Bianca Nunez","url":"/CrossCountry/Athlete.aspx?AID=91107"}]};
    </script>
<script type="application/ld+json">{"@context":"http://schema.org","@type":"BreadcrumbList","itemListElement":[{"@type":"ListItem","position":1,"name":"Cross Country","item":"https://www.athletic.net/CrossCountry/"},{"@type":"ListItem","position":2,"name":"High School","item":"https://www.athletic.net/CrossCountry/Division/List.aspx?DivID=54491"},{"@type":"ListItem","position":3,"name":"United States","item":"https://www.athletic.net/CrossCountry/Division/List.aspx?DivID=54771"},{"@type":"ListItem","position":4,"name":"Washington","item":"https://www.athletic.net/CrossCountry/Division/List.aspx?DivID=56836"},{"@type":"ListItem","position":5,"name":"3A","item":"https://www.athletic.net/CrossCountry/Division/List.aspx?DivID=56897"},{"@type":"ListItem","position":6,"name":"District 8","item":"https://www.athletic.net/CrossCountry/Division/List.aspx?DivID=56909"},{"@type":"ListItem","position":7,"name":"Mid-Columbia","item":"https://www.athletic.net/CrossCountry/Division/List.aspx?DivID=56911"},{"@type":"ListItem","position":8,"name":"Hermiston","item":"https://www.athletic.net/CrossCountry/School.aspx?SchoolID=261"}]}</script>
<script src="https://stage.athletic.net/js/moment-v-4uBI_Vj5PSeJoMBRlWCjQjI0slTmm0L9XXBzYZhzUaY1"></script>
<script src="https://www.gstatic.com/firebasejs/8.2.1/firebase-app.js"></script>
<script src="https://www.gstatic.com/firebasejs/8.2.1/firebase-auth.js"></script>
<script src="https://www.gstatic.com/firebasejs/8.2.1/firebase-database.js"></script>
<script src="https://ajax.googleapis.com/ajax/libs/jquery/1.11.3/jquery.min.js" type="text/javascript"></script>
<script crossorigin="" src="https://ajax.googleapis.com/ajax/libs/angularjs/1.7.8/angular.min.js"></script>
<script src="https://cdnjs.cloudflare.com/ajax/libs/lodash.js/4.17.11/lodash.min.js"></script>
<script async="" src="https://securepubads.g.doubleclick.net/tag/js/gpt.js"></script>
<link href="https://stage.athletic.net/css/AthleteProfile-v-Z9I3spM_ofM6wxwZYmvdBxH9_tISX0cIrouN7p0LwtY1" rel="stylesheet"/>
<link href="https://stage.athletic.net/css/signedOutBlur-v-PO_aa4X0UwQEBnTr5HfZ0_BCwcXs_GDruSo_LKWuyXY1" rel="stylesheet"/>
<script src="https://stage.athletic.net/js/AthleteProfile1-v-pg0wwooy9cs62m3XqE9aVG_USSO9EHCrnjzcEWqHPo1"></script>
<script src="https://stage.athletic.net/js/AthleteProfile-v-4qpUNEw4Axk28_JiD_JGtMU0fqAa5Z2SjIBRPf8w1"></script>
<script>
            angular.module('angularPartialsBundles', []);
            angular.module('athleteProfile')
                .constant('params', {"photoStyle":"TaggedOnly","athleteId":91107,"coach":false,"first":"Bianca","last":"Nunez","gender":"F","teamId":261,"seasonId":2020,"userId":0,"MembershipLevel":1,"sport":"XC","publicToken":"7zfmzol4aepnhpst9vof0g","admin":false,"canEdit":false,"noSearch":false,"isAuthenticatedWithGoodStanding":false,"rankings":false})
            .constant('initialData', {"photos":[],"tlogModuleData":{"canViewLog":true,"canModifyLog":false,"canClaimAthlete":true,"athleteIsClaimed":false,"userIdOfOwner":null,"usersWhoManage":[],"logIsActive":false,"defaultUnit":"mi","athleteId":91107,"athleteName":"Bianca Nunez","workouts":[{"Type":"XC","Name":"Intermountain Conference Championships","Date":"2008-10-25T00:00:00","Meters":5000,"ApiId":null},{"Type":"XC","Name":"Richland Invitational","Date":"2008-10-11T00:00:00","Meters":4828,"ApiId":null},{"Type":"XC","Name":"Puma Cross Country Invitational","Date":"2008-10-04T00:00:00","Meters":5000,"ApiId":null},{"Type":"XC","Name":"Hermiston Education Foundation Fun Run","Date":"2008-09-27T00:00:00","Meters":5000,"ApiId":null},{"Type":"XC","Name":"La Bodega de Los Pajaritos","Date":"2007-10-19T00:00:00","Meters":5000,"ApiId":null}],"claimToken":"vq32sphz5kpg1dotesdijq"}});
        var anetAngularJsApp = 'athleteProfile';

    </script>
<script src="https://stage.athletic.net/partials/AthleteProfile-v-TkKkmOyJgDdPw6o4OIcsTN0LU2jUnZjZhdqe1gV2x7o1"></script>
</head>
<body id="body">
<anet-athletic-header></anet-athletic-header>
<main class="d-flex flex-column" id="anetMain">
<div class="ad-takeover visible-lg hidden-md-down d-none d-lg-block">
<div class="container">
<div id="bgTakeoverLeft"></div>
<div id="bgTakeoverRight"></div>
</div>
</div>
<div id="printHeader" style="display: none;">
<img src="/images/Logo/Athletic_net_red.svg" style="margin-bottom: 4px;" width="175"/>
<span style="float: right; margin-top: 8px">Team Results Management</span>
</div>
<div ng-controller="TeamNavCtrl as teamNavC">
<team-nav athlete-id="91107" class="team-nav-min-height" hide-switch-to="true" season-id="2020" sport="'xc'" team-id="teamNavC.params.teamId" user-id="0"></team-nav>
</div>
<div aria-hidden="true" class="Ad ATF Banner" id="ad_ATF_Banner">
<script type="text/javascript">
                googletag.cmd.push(function () { googletag.display('ad_ATF_Banner'); });
            </script>
</div>
<div class="small text-center hidden-print d-print-none" id="ATF_Remove_Ads" style="margin: -5px 0 5px;">
<a href="/features/athletes" style="background: #ededed; border-radius: 2px; padding: 0 7px;">View Athletic.net Ad Free</a>
</div>
<div class="container ng-cloak" ng-controller="AppCtrl as appC">
<script>angular.module('athleteProfile').constant('xsltData', {seasons:[{id:2008,name:'2008'},{id:2007,name:'2007'},{id:2006,name:'2006'},],grades:[{id:0,name:'Graduated'},{id:1,name:'MS - 1st Grade'},{id:2,name:'MS - 2nd Grade'},{id:3,name:'MS - 3rd Grade'},{id:4,name:'MS - 4th Grade'},{id:5,name:'MS - 5th Grade'},{id:6,name:'MS - 6th Grade'},{id:7,name:'MS - 7th Grade'},{id:8,name:'MS - 8th Grade'},{id:9,name:'HS - 9th Grade'},{id:10,name:'HS - 10th Grade'},{id:11,name:'HS - 11th Grade'},{id:12,name:'HS - 12th Grade'},{id:21,name:'College - Freshman'},{id:22,name:'College - Sophomores'},{id:23,name:'College - Juniors'},{id:24,name:'College - Seniors'},{id:98,name:'College - Redshirt'},{id:99,name:'?'},{id:201,name:'HS - Senior (CA)'},{id:202,name:'HS - Junior (CA)'},{id:203,name:'HS - Midget (CA)'},{id:400,name:'Club - Age 6U'},{id:401,name:'Club - Age 7-8'},{id:402,name:'Club - Age 9-10'},{id:403,name:'Club - Age 11-12'},{id:404,name:'Club - Age 13-14'},{id:405,name:'Club - Age 15-16'},{id:406,name:'Club - Age 17-18'},{id:407,name:'Club - Age 19+'},{id:501,name:'Varsity'},{id:502,name:'Junior Varsity'},{id:503,name:'Frosh/Soph'},],levels:[{id:0,short:'All',long:'All', teamId:261},{id:4,short:'HS',long:'High School',teamId:'261'}],initialLevel:4,states:[{code:'AK',name:'Alaska'},{code:'AL',name:'Alabama'},{code:'AR',name:'Arkansas'},{code:'AZ',name:'Arizona'},{code:'CA',name:'California'},{code:'CO',name:'Colorado'},{code:'CT',name:'Connecticut'},{code:'DC',name:'District of Columbia'},{code:'DE',name:'Delaware'},{code:'FL',name:'Florida'},{code:'GA',name:'Georgia'},{code:'HI',name:'Hawaii'},{code:'IA',name:'Iowa'},{code:'ID',name:'Idaho'},{code:'IL',name:'Illinois'},{code:'IN',name:'Indiana'},{code:'KS',name:'Kansas'},{code:'KY',name:'Kentucky'},{code:'LA',name:'Louisiana'},{code:'MA',name:'Massachusetts'},{code:'MD',name:'Maryland'},{code:'ME',name:'Maine'},{code:'MI',name:'Michigan'},{code:'MN',name:'Minnesota'},{code:'MO',name:'Missouri'},{code:'MS',name:'Mississippi'},{code:'MT',name:'Montana'},{code:'NC',name:'North Carolina'},{code:'ND',name:'North Dakota'},{code:'NE',name:'Nebraska'},{code:'NH',name:'New Hampshire'},{code:'NJ',name:'New Jersey'},{code:'NM',name:'New Mexico'},{code:'NV',name:'Nevada'},{code:'NY',name:'New York'},{code:'OH',name:'Ohio'},{code:'OK',name:'Oklahoma'},{code:'OR',name:'Oregon'},{code:'PA',name:'Pennsylvania'},{code:'RI',name:'Rhode Island'},{code:'SC',name:'South Carolina'},{code:'SD',name:'South Dakota'},{code:'TN',name:'Tennessee'},{code:'TX',name:'Texas'},{code:'UT',name:'Utah'},{code:'VA',name:'Virginia'},{code:'VT',name:'Vermont'},{code:'WA',name:'Washington'},{code:'WI',name:'Wisconsin'},{code:'WV',name:'West Virginia'},{code:'WY',name:'Wyoming'},]});</script><h2 class="mt-2 d-flex flex-wrap align-items-baseline"><img class="mr-1" height="20px" src="/images/5/icons/gender/f.3_20.png" width="21px"/><span class="mr-2">Bianca Nunez</span><small class="text-nowrap text-success mr-2">Cross Country Bio</small><small class="text-nowrap text-danger" ng-if="::appC.params.admin" ng-show="appC.params.noSearch"><i class="fas fa-user-secret"></i> Hidden in search results <i class="far fa-key"></i></small><follow-plugin athlete-id="91107" class="hidden-print mr-1" user-id="{{appC.params.userId}}"></follow-plugin><button class="btn btn-outline-sport mt-2 mt-md-0 hidden-print" ng-click="appC.claimAthlete()" ng-if="appC.canClaimAthlete" type="button" uib-tooltip="Track your training progress and comment on event results.">
        Claim this Athlete
      </button></h2><anet-photo-slider></anet-photo-slider><uib-tabset active="appC.activeTab" class="underline-uib-tabs mt-2 pl-1 hidden-print" style="margin-bottom: 0.5px;"><uib-tab index="tab.id" ng-repeat="tab in appC.levels" select="appC.tabClick(tab)"><uib-tab-heading><span class="hidden-sm-down">{{tab.long}}</span><span class="hidden-md-up">{{tab.short}}</span></uib-tab-heading></uib-tab><li class="dropdown ml-auto" ng-if="appC.params.userId == 0 || (appC.params.userId &gt; 0 &amp;&amp; appC.params.isAuthenticatedWithGoodStanding)" uib-dropdown=""><a class="btn btn-link-sport dropdown-toggle no-caret" href="" uib-dropdown-toggle=""><i class="far fa-pencil"></i><span class="hidden-xs-down">
            {{appC.params.canEdit ? 'Make a Correction' : 'Suggest a Correction'}}
          </span></a><ul class="dropdown-menu dropdown-menu-right" uib-dropdown-menu=""><li ng-if="appC.params.canEdit"><a class="dropdown-item" href="" ng-click="appC.params.edit=appC.params.edit=='editAthlete'?null:'editAthlete'; $event.stopPropagation()"><i class="far fa-pencil fa-fw"></i> Edit this athlete
            </a></li><li class="dropdown-header" ng-show="appC.params.edit=='editAthlete'">Choose a season to edit:</li><li ng-show="appC.params.edit=='editAthlete'"><a class="dropdown-item" href="/edit/team/261/xc/2008/athletes/roster/f/91107" target="_blank" value="2008"><span class="text-success">2008</span></a></li><li ng-show="appC.params.edit=='editAthlete'"><a class="dropdown-item" href="/edit/team/261/xc/2007/athletes/roster/f/91107" target="_blank" value="2007"><span class="text-success">2007</span></a></li><li ng-show="appC.params.edit=='editAthlete'"><a class="dropdown-item" href="/edit/team/261/xc/2006/athletes/roster/f/91107" target="_blank" value="2006"><span class="text-success">2006</span></a></li><li class="divider" ng-show="appC.params.edit=='editAthlete'"></li><li><a class="dropdown-item" href="" ng-click="appC.params.edit = 'merge'"><i class="fas fa-users fa-fw"></i> Athlete has two bios
            </a></li><li><a class="dropdown-item" href="" ng-click="appC.params.edit = 'name'" ng-if="!appC.params.canEdit"><i class="fal fa-highlighter fa-fw"></i> Athlete's name is misspelled
            </a><a class="dropdown-item" href="" ng-click="appC.params.edit=appC.params.edit=='editAthlete'?null:'editAthlete'; $event.stopPropagation()" ng-if="appC.params.canEdit"><i class="fal fa-highlighter fa-fw"></i> Athlete's name is misspelled
            </a></li><li><a class="dropdown-item" href="" ng-click="appC.params.edit = 'grade'" ng-if="!appC.params.canEdit"><i class="fal fa-sort-numeric-down fa-fw"></i> A grade or age division is incorrect
            </a><a class="dropdown-item" href="" ng-click="appC.params.edit = ((appC.params.edit == 'editAthlete') ? null : 'editAthlete'); $event.stopPropagation()" ng-if="appC.params.canEdit"><i class="fal fa-sort-numeric-down fa-fw"></i> A grade or age division is incorrect
            </a></li><li><a class="dropdown-item" href="" ng-click="appC.params.edit = 'mark'"><i class="far fa-clock fa-fw"></i> A time or mark is incorrect
            </a></li><li ng-if="::appC.params.admin"><a class="dropdown-item" href="" ng-click="appC.toggleNoSearch()"><i class="fas fa-user-secret"></i> {{appC.params.noSearch ? 'Unhide profile in search results' : 'Hide profile in search results'}} <i class="far fa-key"></i></a></li></ul></li></uib-tabset><div class="alert alert-success mt-2" ng-if="appC.params.edit=='mark'"><button class="close" ng-click="appC.params.edit=null" type="button"><span><i class="far fa-times"></i></span></button><span ng-if="appC.params.canEdit"><strong>Click</strong> the <i class="far fa-pencil"></i> next to the incorrect mark below.
      </span><span ng-if="!appC.params.canEdit">
        Corrections are the responsibility of the team coach. <strong>Tell your coach</strong> about the error.
      </span></div><div class="row"><div class="col-md-5 push-md-7 col-xl-4 push-xl-8 col-print-5 d-flex flex-column seasonRecords" id="seasonRecords"><div ng-include="'corrections/correct.tpl.html' | templatesURL"></div><div class="Ad ATF Ad300x250 hidden-print text-center mb-2" id="ad_InPage_320"><script type="text/javascript">
            googletag.cmd.push(function () { googletag.display('ad_InPage_320'); });
          </script></div><rankings></rankings><training-log-overview athlete-id="91107" show-claims="true"></training-log-overview><div class="card mb-2 flex-first flex-md-unordered"><div class="card-header pointer p-3" ng-click="seasonRecordsCollapsed = !seasonRecordsCollapsed"><h4 class="mb-0"><i class="far fa-trophy"></i> Season Records
              </h4></div><div class="card-block p-3 collapse in DataTable" uib-collapse="seasonRecordsCollapsed"><table class="table table-sm histEvent"><tbody><tr><td colspan="3"><h5 class="bold">3 Miles</h5></td></tr><tr class="tT1 L4 histSeason"><td style="width: 46px;">2008</td><td class="text-success" style="width:110px;">12th Grade</td><td><span style="padding-left:20px"></span><a href="/result/2qFlvYswprd">24:13.0</a><a href="/post/2qFlvYswprd" rel="nofollow"><small class="text-muted pr-text" data-toggle="tooltip" style="font-weight:normal; margin-left: 4px;" title="Personal Record">PR</small></a></td></tr></tbody></table><table class="table table-sm histEvent"><tbody><tr><td colspan="3"><h5 class="bold">5,000 Meters</h5></td></tr><tr class="tT1 L4 histSeason"><td style="width: 46px;">2006</td><td class="text-success" style="width:110px;">10th Grade</td><td><span style="padding-left:20px"></span><a href="/result/NwF2P2HQPdw">23:55.0</a><span style="padding-left:20px"></span></td></tr><tr class="tT1 L4 histSeason"><td style="width: 46px;">2007</td><td class="text-success" style="width:110px;">11th Grade</td><td><span style="padding-left:20px"></span><a href="/result/pwFY0kuV6jX">23:10.0</a><a href="/post/pwFY0kuV6jX" rel="nofollow"><small class="text-muted pr-text" data-toggle="tooltip" style="font-weight:normal; margin-left: 4px;" title="Personal Record">PR</small></a><span class="text-muted" style="font-weight:normal;" tooltip-placement="bottom" uib-tooltip="Improvement from previous Season Records"> *</span></td></tr><tr class="tT1 L4 histSeason"><td style="width: 46px;">2008</td><td class="text-success" style="width:110px;">12th Grade</td><td><span style="padding-left:20px"></span><a href="/result/kVFjdgUY0eR">25:08.0</a><span style="padding-left:20px"></span></td></tr></tbody></table><span class="text-muted">*Improvement</span></div></div><div class="hidden-print" id="ad_InPage_Box" style="text-align:center; margin-bottom: 10px;"><script type="text/javascript">
            googletag.cmd.push(function () { googletag.display('ad_InPage_Box'); });
          </script></div></div><div class="col-md-7 pull-md-5 col-xl-8 pull-xl-4 col-print-7 athleteResults"><div class="card mb-2 L4 season S2008 T261" id="L-4_S-2008_T-261"><div class="card-header py-3 px-2 pointer" ng-click="season_20084261 = !season_20084261"><h5 class="mb-0">2008 Season 
                    <br class="hidden-lg-up"/><small><a href="School.aspx?SchoolID=261" ng-click="$event.stopPropagation();"><b>Hermiston HS</b></a><span class="float-right" style="margin-top:4px;">12th Grade</span></small></h5></div><div class="card-block px-2 pt-2 pb-0 collapse in" uib-collapse="season_20084261"><h5>3 Miles</h5><table class="table table-sm table-responsive table-hover"><tbody><tr id="rID_487604"><td class="text-nowrap" style="width:35px;"><a href="" ng-click="appC.edit(487604)" ng-if="appC.params.edit=='mark' &amp;&amp; appC.params.canEdit"><i class="far fa-pencil text-success mr-2"></i></a><i>71 </i></td><td class="text-nowrap" style="width: 105px;"><span style="padding-left:20px"></span><a href="/result/2qFlvYswprd">24:13.0</a><a href="/post/2qFlvYswprd" rel="nofollow"><small class="text-muted pr-text" style="font-weight:normal; margin-left: 4px;" uib-tooltip="Personal Record">PR</small></a></td><td class="text-nowrap" style="width: 60px;">Oct 11</td><td><a href="meet/10464/results/63353">Richland Invitational</a></td><td class="text-right"></td></tr></tbody></table><h5>5,000 Meters</h5><table class="table table-sm table-responsive table-hover"><tbody><tr id="rID_426717"><td class="text-nowrap" style="width:35px;"><a href="" ng-click="appC.edit(426717)" ng-if="appC.params.edit=='mark' &amp;&amp; appC.params.canEdit"><i class="far fa-pencil text-success mr-2"></i></a></td><td class="text-nowrap" style="width: 105px;"><span style="padding-left:20px"></span><a href="/result/kVFjdgUY0eR">25:08.0<small class="text-muted sr-text" style="font-weight:normal; margin-left: 4px;" uib-tooltip="Season Record">SR</small></a></td><td class="text-nowrap" style="width: 60px;">Sep 27</td><td><a href="meet/17260/results/77063">Hermiston Education Foundation Fun Run</a></td><td class="text-right"></td></tr><tr id="rID_456422"><td class="text-nowrap" style="width:35px;"><a href="" ng-click="appC.edit(456422)" ng-if="appC.params.edit=='mark' &amp;&amp; appC.params.canEdit"><i class="far fa-pencil text-success mr-2"></i></a><i>69 </i></td><td class="text-nowrap" style="width: 105px;"><span style="padding-left:20px"></span><a href="/result/LnFjVeCWzE4">26:15.8</a><span style="padding-left:20px"></span></td><td class="text-nowrap" style="width: 60px;">Oct 4</td><td><a href="meet/9531/results/58390">Puma Cross Country Invitational</a></td><td class="text-right"></td></tr><tr id="rID_546266"><td class="text-nowrap" style="width:35px;"><a href="" ng-click="appC.edit(546266)" ng-if="appC.params.edit=='mark' &amp;&amp; appC.params.canEdit"><i class="far fa-pencil text-success mr-2"></i></a><i>46 </i></td><td class="text-nowrap" style="width: 105px;"><span style="padding-left:20px"></span><a href="/result/RxFE4XfqKDm">25:18.2</a><span style="padding-left:20px"></span></td><td class="text-nowrap" style="width: 60px;">Oct 25</td><td><a href="meet/10465/results/48432">Intermountain Conference Championships</a></td><td class="text-right"></td></tr></tbody></table></div></div><div class="card mb-2 L4 season S2007 T261" id="L-4_S-2007_T-261"><div class="card-header py-3 px-2 pointer" ng-click="season_20074261 = !season_20074261"><h5 class="mb-0">2007 Season 
                    <br class="hidden-lg-up"/><small><a href="School.aspx?SchoolID=261" ng-click="$event.stopPropagation();"><b>Hermiston HS</b></a><span class="float-right" style="margin-top:4px;">11th Grade</span></small></h5></div><div class="card-block px-2 pt-2 pb-0 collapse in" uib-collapse="season_20074261"><h5>5,000 Meters</h5><table class="table table-sm table-responsive table-hover"><tbody><tr id="rID_152285"><td class="text-nowrap" style="width:35px;"><a href="" ng-click="appC.edit(152285)" ng-if="appC.params.edit=='mark' &amp;&amp; appC.params.canEdit"><i class="far fa-pencil text-success mr-2"></i></a><i>48 </i></td><td class="text-nowrap" style="width: 105px;"><span style="padding-left:20px"></span><a href="/result/OyFLlNCadrg">24:34.0</a><span style="padding-left:20px"></span></td><td class="text-nowrap" style="width: 60px;">Sep 15</td><td><a href="meet/3935/results/35230">New Balance Festival of Champions</a></td><td class="text-right"></td></tr><tr id="rID_208541"><td class="text-nowrap" style="width:35px;"><a href="" ng-click="appC.edit(208541)" ng-if="appC.params.edit=='mark' &amp;&amp; appC.params.canEdit"><i class="far fa-pencil text-success mr-2"></i></a></td><td class="text-nowrap" style="width: 105px;"><span style="padding-left:20px"></span><a href="/result/NwFr1BiQPdw">23:15.0</a><span style="padding-left:20px"></span></td><td class="text-nowrap" style="width: 60px;">Oct 5</td><td><a href="meet/4239/results/20601">Wind River Invitational</a></td><td class="text-right"></td></tr><tr id="rID_230290"><td class="text-nowrap" style="width:35px;"><a href="" ng-click="appC.edit(230290)" ng-if="appC.params.edit=='mark' &amp;&amp; appC.params.canEdit"><i class="far fa-pencil text-success mr-2"></i></a><i>60 </i></td><td class="text-nowrap" style="width: 105px;"><span style="padding-left:20px"></span><a href="/result/kVF1nntY0eR">23:29.1</a><span style="padding-left:20px"></span></td><td class="text-nowrap" style="width: 60px;">Oct 13</td><td><a href="meet/4187/results/38659">adidas Cross Country Classic</a></td><td class="text-right"></td></tr><tr id="rID_245045"><td class="text-nowrap" style="width:35px;"><a href="" ng-click="appC.edit(245045)" ng-if="appC.params.edit=='mark' &amp;&amp; appC.params.canEdit"><i class="far fa-pencil text-success mr-2"></i></a><i>11 </i></td><td class="text-nowrap" style="width: 105px;"><span style="padding-left:20px"></span><a href="/result/pwFY0kuV6jX">23:10.0</a><a href="/post/pwFY0kuV6jX" rel="nofollow"><small class="text-muted pr-text" style="font-weight:normal; margin-left: 4px;" uib-tooltip="Personal Record">PR</small></a></td><td class="text-nowrap" style="width: 60px;">Oct 19</td><td><a href="meet/9116/results/42765">La Bodega de Los Pajaritos</a></td><td class="text-right"></td></tr></tbody></table></div></div><div class="card mb-2 L4 season S2006 T261" id="L-4_S-2006_T-261"><div class="card-header py-3 px-2 pointer" ng-click="season_20064261 = !season_20064261"><h5 class="mb-0">2006 Season 
                    <br class="hidden-lg-up"/><small><a href="School.aspx?SchoolID=261" ng-click="$event.stopPropagation();"><b>Hermiston HS</b></a><span class="float-right" style="margin-top:4px;">10th Grade</span></small></h5></div><div class="card-block px-2 pt-2 pb-0 collapse in" uib-collapse="season_20064261"><h5>5,000 Meters</h5><table class="table table-sm table-responsive table-hover"><tbody><tr id="rID_23342"><td class="text-nowrap" style="width:35px;"><a href="" ng-click="appC.edit(23342)" ng-if="appC.params.edit=='mark' &amp;&amp; appC.params.canEdit"><i class="far fa-pencil text-success mr-2"></i></a><i>23 </i></td><td class="text-nowrap" style="width: 105px;"><span style="padding-left:20px"></span><a href="/result/2qFvruwprd">26:52.6</a><span style="padding-left:20px"></span></td><td class="text-nowrap" style="width: 60px;">Sep 8</td><td><a href="meet/768/results/3721">Hermiston Invitational</a></td><td class="text-right"></td></tr><tr id="rID_28124"><td class="text-nowrap" style="width:35px;"><a href="" ng-click="appC.edit(28124)" ng-if="appC.params.edit=='mark' &amp;&amp; appC.params.canEdit"><i class="far fa-pencil text-success mr-2"></i></a><i>31 </i></td><td class="text-nowrap" style="width: 105px;"><span style="padding-left:20px"></span><a href="/result/OyFPwIadrg">26:23.7</a><span style="padding-left:20px"></span></td><td class="text-nowrap" style="width: 60px;">Sep 13</td><td><a href="meet/1827/results/10793">Skip Sparks Invitational</a></td><td class="text-right"></td></tr><tr id="rID_41362"><td class="text-nowrap" style="width:35px;"><a href="" ng-click="appC.edit(41362)" ng-if="appC.params.edit=='mark' &amp;&amp; appC.params.canEdit"><i class="far fa-pencil text-success mr-2"></i></a></td><td class="text-nowrap" style="width: 105px;"><span style="padding-left:20px"></span><a href="/result/ZlFDPiOX8L">25:46.0</a><span style="padding-left:20px"></span></td><td class="text-nowrap" style="width: 60px;">Sep 21</td><td><a href="meet/912/results/4374">Nelson Memorial Invitational</a></td><td class="text-right"></td></tr><tr id="rID_42862"><td class="text-nowrap" style="width:35px;"><a href="" ng-click="appC.edit(42862)" ng-if="appC.params.edit=='mark' &amp;&amp; appC.params.canEdit"><i class="far fa-pencil text-success mr-2"></i></a></td><td class="text-nowrap" style="width: 105px;"><span style="padding-left:20px"></span><a href="/result/NwF2P2HQPdw">23:55.0<small class="text-muted sr-text" style="font-weight:normal; margin-left: 4px;" uib-tooltip="Season Record">SR</small></a></td><td class="text-nowrap" style="width: 60px;">Sep 23</td><td><a href="meet/2421/results/11456">Connell Invitational 2006</a></td><td class="text-right"></td></tr><tr id="rID_65918"><td class="text-nowrap" style="width:35px;"><a href="" ng-click="appC.edit(65918)" ng-if="appC.params.edit=='mark' &amp;&amp; appC.params.canEdit"><i class="far fa-pencil text-success mr-2"></i></a><i>160 </i></td><td class="text-nowrap" style="width: 105px;"><span style="padding-left:20px"></span><a href="/result/XwFZwhRWaV">25:01.5</a><span style="padding-left:20px"></span></td><td class="text-nowrap" style="width: 60px;">Oct 7</td><td><a href="meet/1217/results/10510">Nike/Jim Danner Invitational</a></td><td class="text-right"></td></tr><tr id="rID_77685"><td class="text-nowrap" style="width:35px;"><a href="" ng-click="appC.edit(77685)" ng-if="appC.params.edit=='mark' &amp;&amp; appC.params.canEdit"><i class="far fa-pencil text-success mr-2"></i></a><i>55 </i></td><td class="text-nowrap" style="width: 105px;"><span style="padding-left:20px"></span><a href="/result/ZlF5rFOX8L">24:14.3</a><span style="padding-left:20px"></span></td><td class="text-nowrap" style="width: 60px;">Oct 14</td><td><a href="meet/394/results/1981">Adidas Cross Country Classic</a></td><td class="text-right"></td></tr><tr id="rID_97358"><td class="text-nowrap" style="width:35px;"><a href="" ng-click="appC.edit(97358)" ng-if="appC.params.edit=='mark' &amp;&amp; appC.params.canEdit"><i class="far fa-pencil text-success mr-2"></i></a><i>25 </i></td><td class="text-nowrap" style="width: 105px;"><span style="padding-left:20px"></span><a href="/result/XwF2pURWaV">25:06.0</a><span style="padding-left:20px"></span></td><td class="text-nowrap" style="width: 60px;">Oct 28</td><td><a href="meet/914/results/4382">IMC District</a></td><td class="text-right"></td></tr></tbody></table></div></div></div></div>
</div>
<div class="sign-up-box">
<a class="btn btn-primary btn-lg hidden-xs-down" href="javascript:AnetOpenModal('authenticate', { state: 'login'});">Log In or Create Free Account to View All Stats</a>
<a class="btn btn-primary hidden-sm-up" href="javascript:AnetOpenModal('authenticate', {state: 'signup'});">Log In / Create Free Account to View</a>
<div class="small text-muted" style="margin-top: 5px;">
<i class="far fa-info-circle"></i> Athlete stats are <b>free</b>.
            <span class="hidden-xs">An account provides access to our most powerful features and allows us to keep you informed of new tools.</span>
</div>
</div>
<script type="text/javascript">
        $(function () {
            $(".athleteResults .card:nth-child(n+2) .card-block").click(function (e) {
                e.preventDefault();
                alert("You must Log In or create a free Athletic.net account to view complete stats.");
            });
        });
    </script>
<anet-site-app></anet-site-app>
<div id="ad_video1x1" style="text-align: center">
<script type="text/javascript">googletag.cmd.push(function () { googletag.display('ad_video1x1'); });</script>
</div>
<div id="ad_bottom1x1">
<script type="text/javascript">googletag.cmd.push(function () { googletag.display('ad_bottom1x1'); });</script>
</div>
<div aria-hidden="true" class="Ad BTF Banner" id="ad_BTF_Banner">
<script type="text/javascript">googletag.cmd.push(function () { googletag.display('ad_BTF_Banner'); });</script>
</div>
</main>
<anet-athletic-footer></anet-athletic-footer>
<div id="bgTakeover" style="display: none;">
<script type="text/javascript">googletag.cmd.push(function () { googletag.display('bgTakeover'); });</script>
</div>
<script type="text/javascript">
        function SetupTakeover(left, right) {
            document.getElementById('bgTakeoverLeft').innerHTML = left.innerHTML;
            document.getElementById('bgTakeoverRight').innerHTML = right.innerHTML;
            document.getElementById('bgTakeover').innerHTML = '';
        }
        function SetupANetCustomAd(dest, source) {
            document.getElementById(dest).appendChild(source);
            document.getElementById(dest).firstChild.setAttribute('style', 'display:none');
        }
    </script>
<!-- Global site tag (gtag.js) - Google Analytics -->
<script async="" src="https://www.googletagmanager.com/gtag/js?id=UA-297644-1"></script>
<script>
        window.dataLayer = window.dataLayer || [];
        function gtag() { dataLayer.push(arguments); }
        gtag('js', new Date());

        gtag('config', 'UA-297644-1', {
            'dimension1':'General'
             
        });

      

        
        function gtagTOga(a, b, category, action, label, value, fieldsObject) { gtag('event', action, { event_category: category, event_label: label, value: value, non_interaction: true }); }
        pbjs.que.push(function () {
            pbjs.enableAnalytics([{ provider: 'ga', options: { enableDistribution: true, global: 'gtagTOga' } }]);
        });
    </script>
<!-- End Google Analytics Tag -->
<!-- Begin comScore Tag -->
<script>
        var _comscore = _comscore || [];
        _comscore.push({ c1: "2", c2: "22801758" });
        (function () {
            var s = document.createElement("script"), el = document.getElementsByTagName("script")[0]; s.async = true;
            s.src = (document.location.protocol == "https:" ? "https://sb" : "http://b") + ".scorecardresearch.com/beacon.js";
            el.parentNode.insertBefore(s, el);
        })();
    </script>
<noscript><img src="http://b.scorecardresearch.com/p?c1=2&amp;c2=22801758&amp;cv=2.0&amp;cj=1"/></noscript>
<!-- End comScore Tag -->
<div id="addThisSetup">
<script async="async" src="//s7.addthis.com/js/300/addthis_widget.js#pubid=athleticnet" type="text/javascript"></script>
</div>
<!-- Begin Quantcast Tag, part 2 - part one in header -->
<script type="text/javascript">
        _qevents.push([{ qacct: "p-357yONfRnfd4g" }, { qacct: "p-56TeoNo_KrtZ6" }]);
    </script>
<noscript>
<div style="display: none;">
<img alt="Quantcast" border="0" height="1" src="//pixel.quantserve.com/pixel/p-357yONfRnfd4g.gif" width="1"/>
<img alt="Quantcast" border="0" height="1" src="//pixel.quantserve.com/pixel/p-56TeoNo_KrtZ6.gif" width="1"/>
</div>
</noscript>
<!-- End Quantcast Tag, part 2 -->
<link href="https://angular.athletic.net/app/site-app/styles.e9ce55c0627fa6d247ce.css" rel="stylesheet"/>
<script src="https://angular.athletic.net/app/site-app/runtime-es2015.49b4da2a62941a530766.js" type="module"></script>
<script defer="" nomodule="" src="https://angular.athletic.net/app/site-app/runtime-es5.49b4da2a62941a530766.js"></script>
<script defer="" nomodule="" src="https://angular.athletic.net/app/site-app/polyfills-es5.3d08feb9db76612b243d.js"></script>
<script src="https://angular.athletic.net/app/site-app/polyfills-es2015.10215f29da2a516e3170.js" type="module"></script>
<script src="https://angular.athletic.net/app/site-app/vendor-es2015.6b8ffd8845fd18485427.js" type="module"></script>
<script defer="" nomodule="" src="https://angular.athletic.net/app/site-app/vendor-es5.6b8ffd8845fd18485427.js"></script>
<script src="https://angular.athletic.net/app/site-app/main-es2015.5c8f4987b0d3f5ecb392.js" type="module"></script>
<script defer="" nomodule="" src="https://angular.athletic.net/app/site-app/main-es5.5c8f4987b0d3f5ecb392.js"></script>
</body>
</html>
