<html><body><p>ï»¿

</p><meta charset="utf-8"/><meta content="text/html;charset=utf-8" http-equiv="content-type"/><title>bet174.com</title><script src="/api.js" type="text/javascript"></script>
<link href="/images/xtqd.css" rel="stylesheet" type="text/css"/>
<meta content="æ²³åçé¢å°å¸æ¡¥ä¸åº" name="description"/>
<style type="text/css">
.ar14c{  color: #9a2b29; font-size: 14px; text-decoration: none; font-weight: bold}
.bor_xyz{ border-bottom: 1px solid #DBDBDB; border-right:1px solid #DBDBDB; border-left: 1px solid #DBDBDB; }
/* æ¹åé¦é¡µç¦ç¹å¾åæ¢ */
ul,ol,li,dl,dt,dd,p,h1,h2,h3,h4,h5,h6,form,img,div,unif{margin:0;padding:0;border:0;}
ul,ol,li{list-style-type:none;}
input,img,select{vertical-align:middle;}
#newsSlider { POSITION: relative; WIDTH: 600px; height:318px; CLEAR: both; background-color: #EBEBEB; padding: 1px; margin-top: 0px; margin-right: auto; margin-bottom: 0px; margin-left: auto; }
#newsSlider .container { POSITION: relative; MARGIN: 0px; WIDTH: 600px; height:318px; OVERFLOW: hidden }
#newsSlider DIV.slides {	POSITION: absolute; TOP: 0px; LEFT: 0px;}
#newsSlider UL.slides {	POSITION: absolute; TOP: 0px;}
#newsSlider UL.slides P { TEXT-ALIGN: center; font-family: "å®ä½"; font-size: 12px; font-weight: bold; line-height: 20px; height: 20px; }
#newsSlider UL.slides P a{ color: #333; text-decoration: none; }
UL.slides LI { WIDTH: 600px }
#newsSlider #loopedSlider { POSITION: relative; MARGIN: 0px auto; WIDTH: 600px; CLEAR: both }
#newsSlider UL.pagination { POSITION: absolute; TOP: 283px; right: 0px; }
#newsSlider UL.pagination LI {	FLOAT: left}
#newsSlider UL.pagination LI A { TEXT-ALIGN: center; WIDTH: 22px; DISPLAY: block; BACKGROUND: #000; HEIGHT: 17px; COLOR: #fff; TEXT-DECORATION: none; font-family: "Times New Roman", Times, serif; font-size: 12px; line-height: 17px; font-weight: normal; }
#newsSlider UL.pagination LI.active A {	BACKGROUND: #fc0200; COLOR: #fff}
-->
</style>
<meta content="bet174.com" name="keywords"/><meta content="bet174.comåå¸çä¸äºå¶ä»ç½ç«çé¾æ¥ï¼éé¢çåå®¹å¯è½å¹¶ä¸éåæ¯ä¸ªäººãbet174.comå°½åæ¨åºåç¡®ãå®æ´åææ°ï¼æªè³å¼ è´´ï¼çä¿¡æ¯ãä½bet174.comæ²¡åæ³ç¡®å®å¶åå®¹æ¯å¦åç¡®ãå®æ´ãå®¢æ·ä¸å®è¦çæå¨ä¿¡èµä»»ä½èµæååæ ¸å®æ¸æ¥ãbet174.comå¯ä»¥å¨å¿è¦çæ¶åå ä»¥æ´æ¹ï¼ä¸æ éèèå¶ä»äººçæè§ã" name="description"/><script>var V_PATH="/";window.onerror=function(){ return true; };</script>
<table align="center" border="0" cellpadding="0" cellspacing="0" width="980">
<tr>
<td><img border="0" src="/wzk/images/P020150612512270224849.jpg"/></td>
</tr>
</table>
<table align="center" border="0" cellpadding="0" cellspacing="0" width="980">
<tr>
<td align="center" bgcolor="#14487e" height="37"><div class="TRS_Editor"><a href="/"><font color="#ffffff" style="font-size: 10.5pt"><strong>é¦é¡µ</strong></font></a><font color="#ffffff" style="font-size: 10.5pt"><strong>Â Â |Â  </strong></font><a href="/bygk/"><font color="#ffffff" style="font-size: 10.5pt"><strong>æ¬é¢æ¦åµ</strong></font></a><font color="#ffffff" style="font-size: 10.5pt"><strong>Â Â |Â Â </strong></font><a href="/bydt/"><font color="#ffffff" style="font-size: 10.5pt"><strong>æ¬é¢å¨æ</strong></font></a><font style="font-size: 10.5pt"><strong><font color="#ffffff">Â  |Â  </font><a href="/dwjs/"><font color="#ffffff">éä¼å»ºè®¾</font></a><font color="#ffffff">Â  |Â  </font><a href="/llyj/"><font color="#ffffff">çè®ºç ç©¶</font></a><font color="#ffffff">Â  |Â  </font><a href="/jcwh/"><font color="#ffffff">æ£å¯æ¿å¡</font></a></strong></font><font color="#ffffff">Â  <font style="font-size: 10.5pt"><strong>|Â </strong> </font></font><a href="https://www.12309.gov.cn/"><strong><font color="#ffffff" style="font-size: 10.5pt">12309æ£å¯æå¡</font></strong></a><font color="#ffffff" style="font-size: 10.5pt">Â  <strong style="font-size: 10.5pt">|Â </strong> </font><a href="/gyss/"><strong><font color="#ffffff" style="font-size: 10.5pt">å¬çè¯è®¼</font></strong></a></div></td>
</tr>
</table>
<table align="center" background="/images/head.gif" border="0" cellpadding="0" cellspacing="0" width="980">
<tr>
<td align="center" bgcolor="#e9e9e9" height="31" width="280">
</td>
<td align="right" bgcolor="#e9e9e9" height="30" width="700"><div class="TRS_Editor"></div></td>
</tr>
</table><table align="center" border="0" cellpadding="0" cellspacing="0" width="980">
<tr>
<td height="15"></td>
</tr>
</table>
<table align="center" border="0" cellpadding="0" cellspacing="0" width="980">
<tr>
<td valign="top" width="600">
<div id="newsSlider">
<div class="container">
<ul class="slides">
<li><a href="/tpxw/201908/t20190826_2670755/" target="_blank"><img alt="åºæ£å¯é¢å¼å±âæç©ä¿æ¤ æåä¼ æ¿âè¯åæ£å¯å»ºè®®å¬å¼éè¾¾æ¨ä¸é¢åº§è°ä¼" border="0" height="298" src="/tpxw/201908/W020191224498065272176.jpg" width="600"/></a>
<p><a href="/tpxw/201908/t20190826_2670755/" target="_blank">åºæ£å¯é¢å¼å±âæç©ä¿æ¤ æåä¼ æ¿â...</a></p></li>
<li><a href="/tpxw/201908/t20190823_2668181/" target="_blank"><img alt="ä»¥æ°çå¿µå¼é¢æ°æ¶ææ£å¯å·¥ä½ââæ¡¥ä¸åºæ£å¯é¢å¬å¼åç»ä¼ä¸é¢ç ç©¶äººæ°æ»¡æåº¦æ´æ¹å·¥ä½" border="0" height="298" src="/tpxw/201908/W020190823315874419023.jpg" width="600"/></a>
<p><a href="/tpxw/201908/t20190823_2668181/" target="_blank">ä»¥æ°çå¿µå¼é¢æ°æ¶ææ£å¯å·¥ä½ââæ¡¥...</a></p></li>
<li><a href="/tpxw/201902/t20190211_2484796/" target="_blank"><img alt="é¢å°å¸æ¡¥ä¸åºæ£å¯é¢å¼å± âç²¾åè±è´« æ£å¯åè¡âæ¥èéç¦æ´»å¨" border="0" height="298" src="/tpxw/201902/W020190211388400832345.jpg" width="600"/></a>
<p><a href="/tpxw/201902/t20190211_2484796/" target="_blank">é¢å°å¸bet174.comæ£å¯é¢å¼å± âç²¾åè±è´«...</a></p></li>
<li><a href="/tpxw/201901/t20190111_2464015/" target="_blank"><img alt="é¢å°å¸æ¡¥ä¸åºæ£å¯é¢12309æ£å¯æå¡ä¸­å¿æ­£å¼æ­ç ä¸ç«å¼æå¡æ»¡è¶³ç¾¤ä¼å¸æ³éæ±" border="0" height="298" src="/tpxw/201901/W020190111409410996877.jpg" width="600"/></a>
<p><a href="/tpxw/201901/t20190111_2464015/" target="_blank">é¢å°å¸bet174.comæ£å¯é¢12309æ£å¯æå¡ä¸­...</a></p></li>
<li><a href="/tpxw/201901/t20190111_2463996/" target="_blank"><img alt="é¢å°å¸æ¡¥ä¸åºæ£å¯é¢ä¸¾åæ£å¯å¼æ¾æ¥æ´»å¨" border="0" height="298" src="/tpxw/201901/W020190111403915080288.jpg" width="600"/></a>
<p><a href="/tpxw/201901/t20190111_2463996/" target="_blank">é¢å°å¸bet174.comæ£å¯é¢ä¸¾åæ£å¯å¼æ¾æ¥æ´»å¨</a></p></li>
</ul>
</div>
<div class="validate_Slider"></div>
<ul class="pagination">
<li><a href="http://www.hbjc.gov.cn/">1</a> </li>
<li><a href="http://www.hbjc.gov.cn/">2</a> </li>
<li><a href="http://www.hbjc.gov.cn/">3</a> </li>
<li><a href="http://www.hbjc.gov.cn/">4</a> </li>
<li><a href="http://www.hbjc.gov.cn/">5</a> </li>
</ul>
</div>
</td>
<td align="center" width="10px
"></td>
<td valign="top" width="370"><table align="center" border="0" cellpadding="0" cellspacing="0" height="38" width="373">
<tr>
<td align="center"><a href="/bydt/" target="_blank"><img border="0" src="/bydt/images/P020150603611443080777.jpg"/></a></td>
</tr>
</table><table align="center" border="0" cellpadding="0" cellspacing="0" class="bor_xyz" width="373">
<tr>
<td>
<table border="0" cellpadding="2" cellspacing="5" width="100%">
<tr>
<td align="left">Â·<a class="b12" href="/bydt/201912/t20191225_2747340/" target="_blank">bet174.comäººå¤§å¸¸å§ä¼è§å¯ç»èä¸´bet174.comæ£å¯é¢æå¯¼å·¥ä½</a></td>
<td width="60">[12-18]</td>
</tr>
<tr>
<td align="left">Â·<a class="b12" href="/bydt/201912/t20191225_2747339/" target="_blank">é¢å°å¸bet174.comäººæ°æ£å¯é¢å¬å¼åç»ä¼ä¸é¢ç ç©¶å¸...</a></td>
<td width="60">[12-18]</td>
</tr>
<tr>
<td align="left">Â·<a class="b12" href="/bydt/201912/t20191225_2747338/" target="_blank">bet174.comâæ¨å°æçº¦âæ³å¾å®£è®²å¢èµ°è¿å¤§æ¢åºä¹¡æ¿åº</a></td>
<td width="60">[12-18]</td>
</tr>
<tr>
<td align="left">Â·<a class="b12" href="/bydt/201912/t20191225_2747319/" target="_blank">bet174.comæ£å¯é¢èååé¨é¨å±ååå¥½åæ°å·¥è®¨èªå·¥ä½</a></td>
<td width="60">[12-09]</td>
</tr>
<tr>
<td align="left">Â·<a class="b12" href="/bydt/201912/t20191225_2747310/" target="_blank">bet174.comäººæ°æ£å¯é¢ç»ç»å¨ä½ååè§çè­¦ç¤ºæè²çºªå½ç</a></td>
<td width="60">[11-23]</td>
</tr>
<tr>
<td align="left">Â·<a class="b12" href="/bydt/201912/t20191225_2747297/" target="_blank">åºæ£å¯é¢æ£å¯é¿åå¸­åºæ³é¢å®¡å§ä¼</a></td>
<td width="60">[11-23]</td>
</tr>
<tr>
<td align="left">Â·<a class="b12" href="/bydt/201912/t20191225_2747277/" target="_blank">åæ¥ï½é¢å°å¸bet174.comæ£å¯é¢è¢«æ²³åçé¢è¯ä¸ºâæ²³...</a></td>
<td width="60">[12-21]</td>
</tr>
<tr>
<td align="left">Â·<a class="b12" href="/bydt/201912/t20191225_2747228/" target="_blank">æ£å¯å»ºè®®åååï¼ç²¾åé®è¯äºæè½¦è¡ä¸</a></td>
<td width="60">[11-18]</td>
</tr>
</table></td>
</tr>
</table></td>
</tr>
<tr><td height="10"></td></tr>
</table>
<table align="center" border="0" cellpadding="0" cellspacing="0" style="background-image:url(./jwgk/images/P020150612576866002647.jpg); background-repeat:no-repeat; background-position:top" width="980">
<tr>
<td height="167" valign="top"><table border="0" cellpadding="0" cellspacing="0" width="100%">
<tr>
<td height="45"></td>
</tr>
</table>
<table border="0" cellpadding="0" cellspacing="20" class="bor_xyz" width="980">
<tr>
<td><a href="/bygk/" target="_blank"><img alt="æ£å¡å¬å¼-æ¬é¢æ¦åµ.jpg" border="0" src="/wzk/201506/W020150601487876395912.jpg" target="_blank/"/></a></td>
<td><a href="/jwzn/" target="_blank"><img alt="æ£å¡å¬å¼-æ£å¡æå.jpg" border="0" src="/wzk/201506/W020150601487874831412.jpg" target="_blank/"/></a></td>
<td><a href="/kgssjbpt/" target="_blank"><img alt="æ£å¡å¬å¼-æ§åç³è¯ä¸¾æ¥å¹³å°.jpg" border="0" src="/wzk/201506/W020150601487873428268.jpg" target="_blank/"/></a></td>
<td><a href="http://jcjcy.jcy.org.cn/tyMsgBoard/allPersonMessage.html?jcyid=434" target="_blank"><img alt="ç½ä¸å¨è¯¢å¹³å°.jpg" border="0" src="/wzk/201506/W020190514350996459727.jpg" target="_blank/"/></a></td>
</tr>
<tr>
<td><a href="https://www.12309.gov.cn/" target="_blank"><img alt="æ¡ä»¶ç¨åºæ§ä¿¡æ¯æ¥è¯¢.png" border="0" src="/wzk/201506/W020150601487870773158.png" target="_blank/"/></a></td>
<td><a href="https://www.12309.gov.cn/" target="_blank"><img alt="è¾©æ¤ä¸ä»£çé¢çº¦ç³è¯·.png" border="0" src="/wzk/201506/W020150601487869369681.png" target="_blank/"/></a></td>
<td><a href="https://www.12309.gov.cn/" target="_blank"><img alt="éè¦æ¡ä»¶ä¿¡æ¯.jpg" border="0" src="/wzk/201506/W020150601487867333940.jpg" target="_blank/"/></a></td>
<td><a href="https://www.12309.gov.cn/" target="_blank"><img alt="æ³å¾æä¹¦å¬å¼.jpg" border="0" src="/wzk/201506/W020150601487865926254.jpg" target="_blank/"/></a></td>
</tr>
</table>
</td>
</tr>
</table>
<table align="center" border="0" cellpadding="0" cellspacing="0" width="980">
<tr>
<td height="10"></td>
</tr>
</table>
<table align="center" border="0" cellpadding="0" cellspacing="0" width="980">
<tr valign="top">
<td width="735">
<table border="0" cellpadding="0" cellspacing="0" class="sk8">
<tr>
<td valign="top"><table border="0" cellpadding="0" cellspacing="0" width="362">
<tr>
<td align="center" valign="middle"><table border="0" cellpadding="0" cellspacing="0" width="100%">
<tr>
<td align="left" height="38"><a href="/jcyw/" target="_blank"><img border="0" src="/jcyw/images/P020150604588928554341.jpg"/></a></td></tr>
</table><table border="0" cellpadding="0" cellspacing="5" class="bor_xyz" width="362">
<tr>
<td align="left" width="10"></td><td align="left">Â·<a class="b12" href="/jcyw/201706/t20170621_2012411/" target="_blank" title="bet174.comæ£å¯é¢ä¸æªå¹¶ä¸¾å å¼ºç¯ä¿æ£å¯å·¥ä½">bet174.comæ£å¯é¢ä¸æªå¹¶ä¸¾å å¼ºç¯ä¿æ£å¯å·¥ä½</a></td></tr>
<tr>
<td align="left" width="10"></td><td align="left">Â·<a class="b12" href="/jcyw/201706/t20170613_2006879/" target="_blank" title="bet174.comé¢åå¬å®¤ãè´¢å¡åæªå¹¶ä¸¾æåå¸æ³å¬ä¿¡å">bet174.comé¢åå¬å®¤ãè´¢å¡åæªå¹¶ä¸¾æåå¸æ³å¬ä¿¡å</a></td></tr>
<tr>
<td align="left" width="10"></td><td align="left">Â·<a class="b12" href="/jcyw/201706/t20170613_2006875/" target="_blank" title="æµææ¡ä»¶ä¿¡æ¯å¬å¼å·¥ä½">æµææ¡ä»¶ä¿¡æ¯å¬å¼å·¥ä½</a></td></tr>
<tr>
<td align="left" width="10"></td><td align="left">Â·<a class="b12" href="/jcyw/201706/t20170613_2006868/" target="_blank" title="bet174.comé¢çµå­å·å®å¨é¢è¦ç">bet174.comé¢çµå­å·å®å¨é¢è¦ç</a></td></tr>
<tr>
<td align="left" width="10"></td><td align="left">Â·<a class="b12" href="/jcyw/201703/t20170322_1965643/" target="_blank" title="bet174.comæ£å¯é¢å¤æªå¹¶ä¸¾">bet174.comæ£å¯é¢å¤æªå¹¶ä¸¾</a></td></tr>
<tr>
<td align="left" width="10"></td><td align="left">Â·<a class="b12" href="/jcyw/201607/t20160713_1823306/" target="_blank" title="çæ¿æ³å§å¯ç§ä¹¦é¿åæ°¸å¿ä¸è¡å°bet174.comé¢è°ç æ¶æ¡è´¢ç©äºç»´ç ç®¡çå·¥ä½">çæ¿æ³å§å¯ç§ä¹¦é¿åæ°¸å¿ä¸è¡å°bet174.comé¢è°ç æ¶æ¡...</a></td></tr>
</table></td></tr>
</table></td>
<td valign="top" width="10"></td>
<td valign="top"><table border="0" cellpadding="0" cellspacing="0" width="362">
<tr>
<td align="center" valign="middle"><table border="0" cellpadding="0" cellspacing="0" width="100%">
<tr>
<td align="left" height="38"><a href="/dwjs/" target="_blank"><img border="0" src="/dwjs/images/P020150604589053554609.jpg"/></a></td></tr>
</table><table border="0" cellpadding="0" cellspacing="5" class="bor_xyz" width="362">
<tr>
<td align="left" width="10"></td><td align="left">Â·<a class="b12" href="/dwjs/201912/t20191225_2747143/" target="_blank" title="åæ¥ï¼ï¼bet174.comæ£å¯é¢è¢«è¯ä¸º âæ²³åçæ¨¡èæ£å¯é¢â">åæ¥ï¼ï¼bet174.comæ£å¯é¢è¢«è¯ä¸º âæ²³åçæ¨¡èæ£å¯é¢â</a></td></tr>
<tr>
<td align="left" width="10"></td><td align="left">Â·<a class="b12" href="/dwjs/201806/t20180626_2246482/" target="_blank" title="2017å¹´åº¦é¢è·åè¿éä½ä»¥ååè¿ä¸ªäººçè¡¨å½°">2017å¹´åº¦é¢è·åè¿éä½ä»¥ååè¿ä¸ªäººçè¡¨å½°</a></td></tr>
<tr>
<td align="left" width="10"></td><td align="left">Â·<a class="b12" href="/dwjs/201706/t20170619_2010993/" target="_blank" title="å å¼ºåºå±æ£å¯é¢æ£å§ä¼å·¥ä½çå ç¹æè">å å¼ºåºå±æ£å¯é¢æ£å§ä¼å·¥ä½çå ç¹æè</a></td></tr>
<tr>
<td align="left" width="10"></td><td align="left">Â·<a class="b12" href="/dwjs/201706/t20170619_2010988/" target="_blank" title="å¸é¢å¬è¯å¤æ¥æé¢è°ç æå¯¼å·¥ä½å¹¶å¬å¼âå¨å¸æ³æ¹é©èæ¯ä¸å¦ä½åå¥½å¬è¯å·¥ä½âä¸»é¢åº§è°ä¼">å¸é¢å¬è¯å¤æ¥æé¢è°ç æå¯¼å·¥ä½å¹¶å¬å¼âå¨å¸æ³æ¹...</a></td></tr>
<tr>
<td align="left" width="10"></td><td align="left">Â·<a class="b12" href="/dwjs/201706/t20170619_2010975/" target="_blank" title="é¢å°å¸bet174.comæ£å¯é¢å¬å¼âæ·±åæºå³ä½é£æ´é¡¿æ¨è§£æ¾ææ³å¤§è®¨è®ºæ´»å¨åå¨åâå¤§ä¼">é¢å°å¸bet174.comæ£å¯é¢å¬å¼âæ·±åæºå³ä½é£æ´é¡¿æ¨è§£...</a></td></tr>
<tr>
<td align="left" width="10"></td><td align="left">Â·<a class="b12" href="/dwjs/201706/t20170619_2010968/" target="_blank" title="æ¹åä»»å½ï¼æç°æ°ä¸ºæ²³åçé¢å°å¸bet174.comäººæ°æ£å¯é¢æ£å¯é¿">æ¹åä»»å½ï¼æç°æ°ä¸ºæ²³åçé¢å°å¸bet174.comäººæ°æ£å¯...</a></td></tr>
</table></td></tr>
</table></td>
<td valign="top" width="10"></td>
</tr>
<tr><td height="16"></td>
</tr>
</table>
<table border="0" cellpadding="0" cellspacing="0" class="sk8">
<tr>
<td valign="top"><table border="0" cellpadding="0" cellspacing="0" width="362">
<tr>
<td align="center" valign="middle"><table border="0" cellpadding="0" cellspacing="0" width="100%">
<tr>
<td align="left" height="38"><a href="/llyj/" target="_blank"><img border="0" src="/llyj/images/P020150604589191369225.jpg"/></a></td></tr>
</table><table border="0" cellpadding="0" cellspacing="5" class="bor_xyz" width="362">
<tr>
<td align="left" width="10"></td><td align="left">Â·<a class="b12" href="/llyj/201808/t20180821_2333432/" target="_blank" title="åºå±æ£å¯æºå³ä¿¡æ¯åå»ºè®¾çæè">åºå±æ£å¯æºå³ä¿¡æ¯åå»ºè®¾çæè</a></td></tr>
<tr>
<td align="left" width="10"></td><td align="left">Â·<a class="b12" href="/llyj/201808/t20180821_2333431/" target="_blank" title="æ£å¯æºå³è¿ç¡¬éä¼åæ¶µåå±éå¾ç ç©¶">æ£å¯æºå³è¿ç¡¬éä¼åæ¶µåå±éå¾ç ç©¶</a></td></tr>
<tr>
<td align="left" width="10"></td><td align="left">Â·<a class="b12" href="/llyj/201808/t20180821_2333425/" target="_blank" title="æµè°æ¡ä»¶ç®¡çé¨é¨å¨æ¡ä»¶ä¿¡æ¯å¬å¼ä¸­åæ¥çä½ç¨">æµè°æ¡ä»¶ç®¡çé¨é¨å¨æ¡ä»¶ä¿¡æ¯å¬å¼ä¸­åæ¥çä½ç¨</a></td></tr>
<tr>
<td align="left" width="10"></td><td align="left">Â·<a class="b12" href="/llyj/201808/t20180821_2333417/" target="_blank" title="æ£å¯æºå³åä¸ç¤¾ä¼ç®¡çå·¥ä½çå ç¹æè">æ£å¯æºå³åä¸ç¤¾ä¼ç®¡çå·¥ä½çå ç¹æè</a></td></tr>
<tr>
<td align="left" width="10"></td><td align="left">Â·<a class="b12" href="/llyj/201808/t20180821_2333412/" target="_blank" title="å¨æ¹é©ä¸­æ¨è¿äººæ°çç£åå¶åº¦ç«æ³çæè">å¨æ¹é©ä¸­æ¨è¿äººæ°çç£åå¶åº¦ç«æ³çæè</a></td></tr>
<tr>
<td align="left" width="10"></td><td align="left">Â·<a class="b12" href="/llyj/201808/t20180821_2333408/" target="_blank" title="æµæäººæ°çç£åå¶åº¦å½±åå¬ä¼æåºå¸æ³åä¸çéå¾">æµæäººæ°çç£åå¶åº¦å½±åå¬ä¼æåºå¸æ³åä¸çéå¾</a></td></tr>
</table></td></tr>
</table></td>
<td valign="top" width="10"></td>
<td valign="top"><table border="0" cellpadding="0" cellspacing="0" width="362">
<tr>
<td align="center" valign="middle"><table border="0" cellpadding="0" cellspacing="0" width="100%">
<tr>
<td align="left" height="38"><a href="/jcwh/" target="_blank"><img border="0" src="/jcwh/images/P020150625570937095391.jpg"/></a></td></tr>
</table><table border="0" cellpadding="0" cellspacing="5" class="bor_xyz" width="362">
<tr>
<td align="left" width="10"></td><td align="left">Â·<a class="b12" href="/jcwh/201912/t20191209_2738044/" target="_blank" title="2019å¹´7-9æé¢å°å¸bet174.comäººæ°æ£å¯é¢ä¸å¡å·¥ä½ä¸»è¦æ°æ®ç»è®¡åææ¥å">2019å¹´7-9æé¢å°å¸bet174.comäººæ°æ£å¯é¢ä¸å¡å·¥ä½ä¸»è¦...</a></td></tr>
<tr>
<td align="left" width="10"></td><td align="left">Â·<a class="b12" href="/jcwh/201912/t20191209_2738040/" target="_blank" title="2019å¹´4-6æé¢å°å¸bet174.comäººæ°æ£å¯é¢ä¸å¡å·¥ä½ä¸»è¦æ°æ®ç»è®¡åææ¥å">2019å¹´4-6æé¢å°å¸bet174.comäººæ°æ£å¯é¢ä¸å¡å·¥ä½ä¸»è¦...</a></td></tr>
<tr>
<td align="left" width="10"></td><td align="left">Â·<a class="b12" href="/jcwh/201912/t20191209_2738035/" target="_blank" title="2019å¹´1-6æé¢å°å¸bet174.comäººæ°æ£å¯é¢ä¸å¡å·¥ä½ä¸»è¦æ°æ®ç»è®¡åææ¥å">2019å¹´1-6æé¢å°å¸bet174.comäººæ°æ£å¯é¢ä¸å¡å·¥ä½ä¸»è¦...</a></td></tr>
<tr>
<td align="left" width="10"></td><td align="left">Â·<a class="b12" href="/jcwh/201912/t20191209_2738027/" target="_blank" title="2019å¹´1-3æé¢å°å¸bet174.comäººæ°æ£å¯é¢ä¸å¡å·¥ä½ä¸»è¦æ°æ®ç»è®¡åææ¥å">2019å¹´1-3æé¢å°å¸bet174.comäººæ°æ£å¯é¢ä¸å¡å·¥ä½ä¸»è¦...</a></td></tr>
<tr>
<td align="left" width="10"></td><td align="left">Â·<a class="b12" href="/jcwh/201901/t20190107_2459217/" target="_blank" title="2018å¹´10-12æé¢å°å¸bet174.comäººæ°æ£å¯é¢ä¸å¡å·¥ä½ä¸»è¦æ°æ®ç»è®¡åææ¥å">2018å¹´10-12æé¢å°å¸bet174.comäººæ°æ£å¯é¢ä¸å¡å·¥ä½ä¸»...</a></td></tr>
<tr>
<td align="left" width="10"></td><td align="left">Â·<a class="b12" href="/jcwh/201811/t20181107_2401601/" target="_blank" title="2018å¹´7-9æé¢å°å¸bet174.comäººæ°æ£å¯é¢ä¸å¡å·¥ä½ä¸»è¦æ°æ®ç»è®¡åææ¥å">2018å¹´7-9æé¢å°å¸bet174.comäººæ°æ£å¯é¢ä¸å¡å·¥ä½ä¸»è¦...</a></td></tr>
</table></td></tr>
</table></td>
<td valign="top" width="10"></td>
</tr>
<tr><td height="16"></td>
</tr>
</table>
<table align="left" border="0" cellpadding="0" cellspacing="0" width="100%">
<tr>
<td align="left" valign="top">
<table align="left" border="0" cellpadding="0" cellspacing="0" width="100%">
<tr>
<td align="center" class="bor_s" valign="top">
<table border="0" cellpadding="0" cellspacing="0" width="100%">
<tr>
<td align="center"><a href="/tsjc/" target="_blank"><img border="0" src="/tsjc/images/P020150612597836327336.jpg"/></a></td>
</tr>
</table>
<table border="0" cellpadding="0" cellspacing="0">
<tr>
<td align="center">
<div id="demopic" style="OVERFLOW: hidden; WIDTH: 703px; COLOR: #ffffff; HEIGHT: 170px">
<table align="center" border="0" cellpadding="0" cellspace="0" cellspacing="0" width="100%">
<tr>
<td id="demopic1" valign="top"><table border="0" cellpadding="0" cellspacing="6" width="100%">
<tr>
<td align="center"><a href="/tsjc/201810/t20181008_2375547/" target="_blank"><img alt="æ¡¥ä¸åºæ£å¯é¢ç»ç»å¼å±âä¸å¿åå¿ ç¢è®°ä½¿å½âçº¢è²æè¯»æ´»å¨" border="0" height="120" src="/tsjc/201810/W020181008604191871386.jpg" width="185"/></a><br/><a class="b12" href="/tsjc/201810/t20181008_2375547/" target="_blank">bet174.comæ£å¯é¢ç»ç»å¼å±âä¸å¿...</a></td>
<td align="center"><a href="/tsjc/201810/t20181008_2375488/" target="_blank"><img alt="é¢å°å¸æ¡¥ä¸åºäººæ°æ£å¯é¢å¼å±ç¬¬ä¸å­£åº¦âæ£å¯å¼æ¾æ¥âæ¨æ°é»åå¸ä¼æ´»å¨" border="0" height="120" src="/tsjc/201810/W020181008596359740816.jpg" width="185"/></a><br/><a class="b12" href="/tsjc/201810/t20181008_2375488/" target="_blank">é¢å°å¸bet174.comäººæ°æ£å¯é¢å¼å±...</a></td>
<td align="center"><a href="/tsjc/201810/t20181008_2375480/" target="_blank"><img alt="é¢å°å¸æ¡¥ä¸åºæ£å¯é¢å¼å±âå¼å­¦ç¬¬ä¸è¯¾ââæ³æ²»è¿æ ¡å­âæ´»å¨" border="0" height="120" src="/tsjc/201810/W020181008594649924392.jpg" width="185"/></a><br/><a class="b12" href="/tsjc/201810/t20181008_2375480/" target="_blank">é¢å°å¸bet174.comæ£å¯é¢å¼å±âå¼...</a></td>
<td align="center"><a href="/bydt/201803/t20180329_2171672/" target="_blank"><img alt="âå³ç±æªæ¥ æ¤èªæªæå¹´äººâ" border="0" height="120" src="/bydt/201803/W020180329609422170630.jpg" width="185"/></a><br/><a class="b12" href="/bydt/201803/t20180329_2171672/" target="_blank">âå³ç±æªæ¥ æ¤èªæªæå¹´äººâ</a></td>
<td align="center"><a href="/tpxw/201803/t20180329_2171063/" target="_blank"><img alt="ä¿å®å¸äººæ°æ£å¯é¢å°æé¢åè§å­¦ä¹ " border="0" height="120" src="/tpxw/201803/W020180329419934139990.jpg" width="185"/></a><br/><a class="b12" href="/tpxw/201803/t20180329_2171063/" target="_blank">ä¿å®å¸äººæ°æ£å¯é¢å°æé¢åè§å­¦ä¹ </a></td>
<td align="center"><a href="/bydt/201803/t20180329_2171017/" target="_blank"><img alt="æ¡¥ä¸åºæ£å¯é¢ç»ç»æ¶å¬æ¶çå¨å½æ£å¯æºå³å­¦ä¹ è´¯å½»âä¸¤ä¼âç²¾ç¥çµè§çµè¯ä¼è®®" border="0" height="120" src="/bydt/201803/W020180329606621877218.jpg" width="185"/></a><br/><a class="b12" href="/bydt/201803/t20180329_2171017/" target="_blank">bet174.comæ£å¯é¢ç»ç»æ¶å¬æ¶çå¨...</a></td>
<td align="center"><a href="/tsjc/201803/t20180326_2168753/" target="_blank"><img alt="æ¡¥ä¸åºæ£å¯é¢å¬å¼åç»æ©å¤§ä¼å­¦ä¹ è´¯å½»å¨å½âä¸¤ä¼âç²¾ç¥" border="0" height="120" src="/tsjc/201803/W020180326573636889545.jpg" width="185"/></a><br/><a class="b12" href="/tsjc/201803/t20180326_2168753/" target="_blank">bet174.comæ£å¯é¢å¬å¼åç»æ©å¤§ä¼...</a></td>
<td align="center"><a href="/tsjc/201803/t20180321_2165859/" target="_blank"><img alt="æ¡¥ä¸åºæ£å¯é¢å¯¹æ°å½ç¨ä¹¦è®°åè¿è¡å²åå¹è®­" border="0" height="120" src="/tsjc/201803/W020180321394750112698.jpg" width="185"/></a><br/><a class="b12" href="/tsjc/201803/t20180321_2165859/" target="_blank">bet174.comæ£å¯é¢å¯¹æ°å½ç¨ä¹¦è®°å...</a></td>
<td align="center"><a href="/tsjc/201803/t20180321_2165841/" target="_blank"><img alt="æ¡¥ä¸åºæ£å¯é¢å¯¹æ°å½ç¨ä¹¦è®°åè¿è¡å²åå¹è®­" border="0" height="120" src="/tsjc/201803/W020180321390567648561.jpg" width="185"/></a><br/><a class="b12" href="/tsjc/201803/t20180321_2165841/" target="_blank">bet174.comæ£å¯é¢å¯¹æ°å½ç¨ä¹¦è®°å...</a></td>
<td align="center"><a href="/tsjc/201803/t20180321_2165837/" target="_blank"><img alt="æ¡¥ä¸åºæ£å¯é¢å¯¹æ°å½ç¨ä¹¦è®°åè¿è¡å²åå¹è®­" border="0" height="120" src="/tsjc/201803/W020180321389700200021.jpg" width="185"/></a><br/><a class="b12" href="/tsjc/201803/t20180321_2165837/" target="_blank">bet174.comæ£å¯é¢å¯¹æ°å½ç¨ä¹¦è®°å...</a></td>
<td align="center"><a href="/tsjc/201803/t20180321_2165830/" target="_blank"><img alt="æ¡¥ä¸åºæ£å¯é¢å¯¹æ°å½ç¨ä¹¦è®°åè¿è¡å²åå¹è®­" border="0" height="120" src="/tsjc/201803/W020180321388817444009.jpg" width="185"/></a><br/><a class="b12" href="/tsjc/201803/t20180321_2165830/" target="_blank">bet174.comæ£å¯é¢å¯¹æ°å½ç¨ä¹¦è®°å...</a></td>
<td align="center"><a href="/tsjc/201801/t20180104_2131272/" target="_blank"><img alt="æ°å¹´ä¼å§ï¼æé¢è¿æ¥å¼é¨çº¢---æ¡¥ä¸åºæ£å¯é¢è¢«æ²³åçäººæ°æ£å¯é¢è¯ä¸ºå¨çåºå±æ£å¯é¢âå«åâå»ºè®¾ç¤ºèé¢" border="0" height="120" src="/tsjc/201801/W020180321397152341777.jpg" width="185"/></a><br/><a class="b12" href="/tsjc/201801/t20180104_2131272/" target="_blank">æ°å¹´ä¼å§ï¼æé¢è¿æ¥å¼é¨çº¢---...</a></td>
<td align="center"><a href="/tsjc/201801/t20180104_2131270/" target="_blank"><img alt="æ°å¹´ä¼å§ï¼æé¢è¿æ¥å¼é¨çº¢---æ¡¥ä¸åºæ£å¯é¢è¢«æ²³åçäººæ°æ£å¯é¢è¯ä¸ºå¨çåºå±æ£å¯é¢âå«åâå»ºè®¾ç¤ºèé¢" border="0" height="120" src="/tsjc/201801/W020180321398550127758.jpg" width="185"/></a><br/><a class="b12" href="/tsjc/201801/t20180104_2131270/" target="_blank">æ°å¹´ä¼å§ï¼æé¢è¿æ¥å¼é¨çº¢---...</a></td>
<td align="center"><a href="/tsjc/201801/t20180104_2131267/" target="_blank"><img alt="æ°å¹´ä¼å§ï¼æé¢è¿æ¥å¼é¨çº¢---æ¡¥ä¸åºæ£å¯é¢è¢«æ²³åçäººæ°æ£å¯é¢è¯ä¸ºå¨çåºå±æ£å¯é¢âå«åâå»ºè®¾ç¤ºèé¢" border="0" height="120" src="/tsjc/201801/W020180104614604392667.jpg" width="185"/></a><br/><a class="b12" href="/tsjc/201801/t20180104_2131267/" target="_blank">æ°å¹´ä¼å§ï¼æé¢è¿æ¥å¼é¨çº¢---...</a></td>
<td align="center"><a href="/tsjc/201712/t20171226_2126281/" target="_blank"><img alt="æ¡¥ä¸åºæ£å¯é¢ä¸¾åâæ£å¯å¼æ¾æ¥âæ¨æ°é»åå¸ä¼" border="0" height="120" src="/tsjc/201712/W020171226322555923635.jpg" width="185"/></a><br/><a class="b12" href="/tsjc/201712/t20171226_2126281/" target="_blank">bet174.comæ£å¯é¢ä¸¾åâæ£å¯å¼æ¾...</a></td>
<td align="center"><a href="/tsjc/201712/t20171226_2126280/" target="_blank"><img alt="æ¡¥ä¸åºæ£å¯é¢ä¸¾åâæ£å¯å¼æ¾æ¥âæ¨æ°é»åå¸ä¼" border="0" height="120" src="/tsjc/201712/W020171226322013463172.jpg" width="185"/></a><br/><a class="b12" href="/tsjc/201712/t20171226_2126280/" target="_blank">bet174.comæ£å¯é¢ä¸¾åâæ£å¯å¼æ¾...</a></td>
<td align="center"><a href="/tsjc/201712/t20171226_2126277/" target="_blank"><img alt="æ¡¥ä¸åºæ£å¯é¢ä¸¾åâæ£å¯å¼æ¾æ¥âæ¨æ°é»åå¸ä¼" border="0" height="120" src="/tsjc/201712/W020171226320865825624.jpg" width="185"/></a><br/><a class="b12" href="/tsjc/201712/t20171226_2126277/" target="_blank">bet174.comæ£å¯é¢ä¸¾åâæ£å¯å¼æ¾...</a></td>
<td align="center"><a href="/tsjc/201712/t20171221_2123921/" target="_blank"><img alt="çæ¿æ³å§é¢å¯¼å°æ¡¥ä¸åºæ£å¯é¢å®£è®²åä¹å¤§ç²¾ç¥" border="0" height="120" src="/tsjc/201712/W020171221386196042733.jpg" width="185"/></a><br/><a class="b12" href="/tsjc/201712/t20171221_2123921/" target="_blank">çæ¿æ³å§é¢å¯¼å°bet174.comæ£å¯é¢...</a></td>
<td align="center"><a href="/tsjc/201712/t20171221_2123916/" target="_blank"><img alt="é¢å°å¸æ¡¥ä¸åºäººæ°æ£å¯é¢ç§¯ææ¢ç´¢æªæå¹´äººè§æ¤å¸®ææªæ½" border="0" height="120" src="/tsjc/201712/W020171221385491460032.jpg" width="185"/></a><br/><a class="b12" href="/tsjc/201712/t20171221_2123916/" target="_blank">é¢å°å¸bet174.comäººæ°æ£å¯é¢ç§¯æ...</a></td>
<td align="center"><a href="/tsjc/201711/t20171103_2092082/" target="_blank"><img alt="æ¡¥ä¸åºé¢ä¸¾è¡âå­¦ä¹ å®£ä¼ è´¯å½»åçåä¹å¤§âæ¥åä¼" border="0" height="120" src="/tsjc/201711/W020171103647503929226.jpg" width="185"/></a><br/><a class="b12" href="/tsjc/201711/t20171103_2092082/" target="_blank">bet174.comé¢ä¸¾è¡âå­¦ä¹ å®£ä¼ è´¯å½»...</a></td>
</tr>
</table></td>
<td id="demopic2" valign="top" width="12"></td>
</tr>
</table>
</div>
</td>
</tr>
</table>
</td>
</tr>
</table>
</td>
<td width="10"></td>
</tr>
</table></td>
<td width="10"></td>
<td width="238">
<table border="0" cellpadding="0" cellspacing="5" width="100%">
<tr>
<td align="center" valign="top"><a href="/bwcxljsm/" target="_blank"><img alt="ä¸å¿åå¿ ç¢è®°ä½¿å½.jpg" border="0" src="/wzk/201506/W020190916536727721536.jpg" target="_blank"/></a></td>
</tr>
<tr>
<td align="center" valign="top"><a href="/jcwh1/index/" target="_blank"><img alt="æ£å¯æå.jpg" border="0" src="/wzk/201506/W020150701571760846448.jpg" target="_blank"/></a></td>
</tr>
<tr>
<td align="center" valign="top"><a href="/jcfc/index/" target="_blank"><img alt="æ£å¯é£é.jpg" border="0" src="/wzk/201506/W020150625563763967719.jpg" target="_blank"/></a></td>
</tr>
</table>
<table border="0" cellpadding="0" cellspacing="0" width="100%">
<tr>
<td height="10"></td>
</tr>
</table>
<table border="0" cellpadding="0" cellspacing="0" width="100%">
<tr>
<td class="bor_4" valign="top" width="238"><table border="0" cellpadding="0" cellspacing="10" width="100%">
<tr>
<td align="center"><a href="http://weibo.com/qingshuidiandian" target="_blank"><img alt="é¢å°æ¡¥ä¸.jpg" border="0" src="/wzk/201506/W020160510392761621403.jpg" target="_blank"/></a></td>
</tr>
</table>
<table border="0" cellpadding="0" cellspacing="5" width="100%">
<tr>
<td width="50%"><a href="/wzk/201506/t20150601_1611720/" target="_blank"><img border="0" src="/wzk/201506/W020150608402072156532.jpg" target="_blank/"/></a></td>
<td width="50%"><a href="/wzk/201506/t20150601_1611719/" target="_blank"><img alt="æ¡¥ä¸å¾®ä¿¡äºç»´ç .jpg" border="0" src="/wzk/201506/W020150617569206620204.jpg" target="_blank/"/></a></td>
</tr>
</table>
</td>
</tr>
</table>
<table border="0" cellpadding="0" cellspacing="0" width="100%">
<tr>
<td height="10"></td>
</tr>
</table>
<table border="0" cellpadding="0" cellspacing="0" width="100%">
<tr>
<td valign="top"><table border="0" cellpadding="0" cellspacing="0" width="100%">
<tr>
<td><a href="/spzl/" target="_blank"><img border="0" src="/spzl/images/P020150603610386360830.jpg"/></a></td>
</tr>
</table>
<table border="0" cellpadding="0" cellspacing="5" class="bor_xyz" width="238">
</table>
</td>
</tr>
</table>
</td>
</tr>
</table>
<table align="center" border="0" cellpadding="0" cellspacing="0" width="980">
<tr>
<td height="15"></td>
</tr>
</table>
<table align="center" border="0" cellpadding="0" cellspacing="0" style="border-bottom: 3px solid #cdcdcd;" width="980">
<tr>
<td bgcolor="#f7f7f7" height="38" width="10"></td>
<td align="left" bgcolor="#f7f7f7" height="38"><a class="r14c" href="#">åæé¾æ¥</a></td>
</tr>
</table>
<table align="center" border="0" cellpadding="0" cellspacing="0" width="980">
<tr>
<td align="left"><div class="TRS_Editor"><font style="font-size: 10.5pt"><a href="http://www.spp.gov.cn/" target="_blank"><font color="#000000">æé«äººæ°æ£å¯é¢</font></a><font color="#000000">Â  </font><a href="http://www.jcrb.com/" target="_blank"><font color="#000000">æ­£ä¹ç½</font></a><font color="#000000">Â  </font><a href="/wwwhebet174com/" target="_blank"><font color="#000000">æ²³åçäººæ°æ£å¯é¢</font></a><font color="#000000">Â  <a href="/wwwxingtaibet174com/" target="_blank"><font color="#000000">é¢å°å¸äººæ°æ£å¯é¢</font></a><font color="#000000">Â  </font></font><a href="http://www.people.com.cn/" target="_blank"><font color="#000000">äººæ°ç½</font></a><font color="#000000">Â  </font><a href="http://www.xinhuanet.com/" target="_blank"><font color="#000000">æ°åç½</font></a></font></div></td>
</tr>
</table>
<table border="0" cellpadding="0" cellspacing="0" width="100%">
<tr>
<td height="5"></td>
</tr>
</table>
<table align="center" border="0" cellpadding="0" cellspacing="0" width="980">
<tr>
<td align="center" height="127" style="background-color:#6184a8; border-top:3px solid #14487e" valign="middle"><div class="TRS_Editor"><table align="center" border="0" cellpadding="0" cellspacing="0" height="100" width="980">
<tbody>
<tr>
<td>
<table align="center" border="0" cellpadding="0" cellspacing="10" width="600">
<tbody>
<tr>
<td align="center" class="w12" width="400">æ²³åçé¢å°å¸bet174.comäººæ°æ£å¯é¢<br/>
                        ICPå¤æ¡å·ï¼äº¬ICPå¤10217144-1å· ææ¯æ¯æï¼æ­£ä¹ç½</td>
<td></td>
</tr>
</tbody>
</table>
</td>
</tr>
</tbody>
</table></div></td>
</tr>
</table>
<script>
    (function () {
        var canonicalURL, curProtocol;
        //Get the <link> tag
        var x = document.getElementsByTagName("link");
        //Find the last canonical URL
        if (x.length > 0) {
            for (i = 0; i < x.length; i++) {
                if (x[i].rel.toLowerCase() == 'canonical' && x[i].href) {
                    canonicalURL = x[i].href;
                }
            }
        }
        //Get protocol
        if (!canonicalURL) {
            curProtocol = window.location.protocol.split(':')[0];
        }
        else {
            curProtocol = canonicalURL.split(':')[0];
        }
        //Get current URL if the canonical URL does not exist
        if (!canonicalURL) canonicalURL = window.location.href;
        //Assign script content. Replace current URL with the canonical URL
        !function () { var e = /([http|https]:\/\/[a-zA-Z0-9\_\.]+\.baidu\.com)/gi, r = canonicalURL, t = document.referrer; if (!e.test(r)) { var n = (String(curProtocol).toLowerCase() === 'https') ? "https://sp0.baidu.com/9_Q4simg2RQJ8t7jm9iCKT-xh_/s.gif" : "//api.share.baidu.com/s.gif"; t ? (n += "?r=" + encodeURIComponent(document.referrer), r && (n += "&l=" + r)) : r && (n += "?l=" + r); var i = new Image; i.src = n } }(window);
    })();
</script><script src="/tongji.js" type="text/javascript"></script>
</body></html>