<!DOCTYPE html PUBLIC "-//W3C//DTD HTML 4.01 Transitional//EN" "http://www.w3.org/TR/html4/loose.dtd">
<html>
<head>
<meta content="IE=edge" http-equiv="X-UA-Compatible"/>
<meta content="no-cache" http-equiv="Pragma"/>
<meta content="no-cache" http-equiv="Cache-Control"/>
<meta content="0" http-equiv="Expires"/>
<meta content="淘宝天猫订单打印发货软件,拼多多订单打印发货软件,京东订单打印发货软件,阿里巴巴订单打印发货软件,电商订单打印发货软件,线下订单打印发货软件,菜鸟电子面单打印发货,快递单打印软件" name="keywords"/>
<meta content="易打单适用于淘宝天猫卖家、拼多多卖家、阿里巴巴卖家、京东卖家、线下商家批量打印快递单。支持菜鸟电子面单，支持京东无界电子面单，支持主流快递公司，支持订单自动同步，批量打印发货、快递单、发货单模板自定义，多平台店铺绑定，支持拣货单、快递对账。" name="description"/>
<link href="/static/css/jquery-ui.min.css" media="screen" rel="stylesheet" type="text/css"/>
<link href="/static/css/global.css?v=1610108971006" media="screen" rel="stylesheet" type="text/css"/>
<link href="/static/css/main.css?v=1610108971006" media="screen" rel="stylesheet" type="text/css"/>
<link href="/static/css/printer-mark.css?v=1610108971006" rel="Stylesheet" type="text/css"/>
<link href="/static/css/font-awesome.min.css" rel="stylesheet"/>
<link href="/static/css/loginNew.css" rel="stylesheet"/>
<title>易打单-电商平台快递单打印发货软件</title>
<style type="text/css">
			html,body{
				height:auto!important;
				overflow-y: auto;
			}
			body{overflow: initial;}
			#taobaoLogin, #alibabaLogin{
				line-height: 32px;
			}
			#taobaoLogin span:hover{
				color: #e53a26;
				text-decoration:underline!important;	
			}
			#login .login_nav li{
				font-size: 18px;
				font-family: "微软雅黑";
				text-align: center;
				cursor: pointer;
				width:50%;
				float:left;
			}
			
			#login .login_nav li a {
				display: inline-block;
				width: 100%;
				text-decoration: none;
				color:#666;
			}
			
			#login .login_nav li a.checked{
				color: #e53a26;
				font-weight:bold;
			}
			
			#login .login_nav li a.unchecked{
				color: #555555;
				background-color:#d9d7d7;
			}
			
			#login .login_nav .selected em,.trust_login .login_nav .selected em {
				position: absolute;
				width: 10px;
				height: 13px;
				left: -10px;
				top: 0;
				background: url("../images/global_bgs.png?v=1396425694584") -171px -454px no-repeat
			}
			
			
			.loginKefu{
				height:35px;
				line-height:40px;
				margin-top: 5px;
			}
			.loginKefu font{
				float:left;
				font-size:16px;
				color:#555;
				background:#f40;
				padding-left:35px
			} 
			.loginKefu .ww font{
				background:url('/static/images/ww.png') no-repeat 0px 4px;
			} 
			.loginKefu .qq font{
				background:url('/static/images/qq2.png') no-repeat 0px 4px;
			} 
			.loginKefu i{
				font-size:16px;
				color:#e53a26;
				font-weight:bold;
				float:left;
			}
			.platfrom_img_i{
				float: left;
				cursor: pointer;
				width: 80px;
    			height: 80px;
			}
			.platform_div_two .divback_four{
				margin-left: 8px;
				margin-top: 16px;
				float: left;
				cursor: pointer;
				width: 80px;
				height: 80px;
			}
			 .platform_div_two .divback_four:hover div{
				 width: 80px;
				 height: 80px;
			 }
			.login_background .wrap{padding:2%;}
			/*登录页新加下面内容对应的样式*/
			body{overflow-x: initial;overflow-y: auto;}
			.cookie_wrap{position:relative;}
			.login-item-title{margin-top:57px;margin-bottom:46px;text-align:center;}
			.login-item-title span{display:inline-block;width:213px;height:42px;text-align:center;line-height:42px;font-size:20px;color:#ffffff;background:url("/static/images/login_images/item_title_bg.png?v=1396425694584") 0 0 no-repeat}
			.project-introduction-box{
				text-align: center;
				font-size:0;
			}
			.project-introduction-box li{
				display: inline-block;
				vertical-align: top;
				margin-right:2%;
				padding:20px;
				width:252px;				
				height:275px;
				font-size:16px;
				color:#5F5F5F;
				border:1px solid #B8DFFF;
				position:relative;
			}
			.project-introduction-box li:nth-last-of-type(1){
				margin-right:0;
			}
			.project-introduction-box li img{
				display:block;
				margin:0 auto;
				width:80px;
				height:80px;
			}
			.project-introduction-box li .title{margin:9px 0;text-align:center;}
			.project-introduction-box li .title span{
				font-size:20px;
				font-weight:bold;
				color:#474747;
				position:relative;
			}
			.project-introduction-box li .title span em{
				position:absolute;
				right: -56px;
    			bottom: 0;
				width:58px;
				font-size:14px;
				color:#F57F00;
				font-weight:normal;
			}
			.project-introduction-box li p{
				line-height:21px;
				text-align: justify;
			}
			.project-introduction-box li .btns-box{
				position:absolute;
				bottom:20px;
				left:20px;
				right:20px;
				overflow:hidden;
			}
			.project-introduction-box li .btns-box a{
				width:115px;			
				height:35px;
				text-align:center;
				line-height:35px;
				border-radius:2px;
				color:#ffffff;
				background:#8CCAFD;
			}
			.project-introduction-box li .btns-box .service{
				float:left;
			}
			.project-introduction-box li .btns-box .more{
				float:right;
			}
			.project-introduction-box li .single .more{
				float:inherit;
				display:block;
				margin:0 auto;
			}
			#login .login-wrap{
				width:1235px;
			}
			@media screen and (max-width: 1570px) {
			    .login_background .wrap{padding:2%;}
			    .project-introduction-box li{
			    	/*width:210px;*/
			    	margin-bottom:10px;
			    }
			    .project-introduction-box li .btns-box a{
			    	width:100px;
			    }
			}
			.header{
				width:1230px;
			}
			.header .loginKefu{
				float: right;
				margin-top: 4px;
				width: 66%;
				text-align: right;
			}
			.header .loginKefu a{
				display: inline-block;
				vertical-align: middle;
			}
			.header .loginKefu a.qq{
				margin-left:60px;
				margin-right:30px;
			}
			.header .loginKefu .tab-login{
				width: 95px;
				height: 32px;
				line-height: 32px;
				text-align: center;
				font-size: 16px;
				font-family: Microsoft YaHei;
				font-weight: 400;
				color: #FFFFFF;
				background: #008FFF;
				border-radius: 5px;
			}
			.header .loginKefu .tab-login:hover{
				text-decoration: none;
			}
			#login .logo{
				background:url('/static/images/login/logo.png') no-repeat center;
			}
			#login .login-wrap{
				width:1230px;
				height: 495px;
				padding: 0;
				position: absolute;
				top: 50%;
				left: 50%;
				transform: translate(-50%, -50%);
			}
			.login-title{
				margin:50px auto 22px;
				text-align: center;
				font-size:20px;
				font-weight: bold;
				color: #525459;
				height:20px;
				line-height: 20px;
			}
			.main-login-ul{
				padding:0 50px;
			}
			.main-login-ul li{
				margin:0!important;
				margin-bottom: 20px!important;
			}
			.main-login-ul li.error-tips{
				padding-top:10px;
				margin-bottom: 10px!important;
			}
			.main-login-ul li .redisclose{
				float: right;
				margin-right: 10px;
				margin-top: 16px!important;
				width: 12px;
			}
			.main-login-ul li label.error{
				margin-left:0!important;
				width:350px!important;
				box-sizing: border-box;
				-webkit-box-sizing: border-box;
			}
			.main-login-ul li span{
				width:100%!important;
				padding-left:0!important;
				height:45px!important;
			}
			.main-login-ul li .n_ipt user_ipt, .main-login-ul li .n_ipt pwd_ipt{
				margin-left:0!important;
			}
			#login .sf_form .user_ipt, .trust_login .sf_form .user_ipt{
				margin-left:0;
			}
			#login .sf_form .pwd_ipt, .trust_login .sf_form .pwd_ipt{
				margin-left:0;
			}
			#login .sf_form .captcha_ipt, .trust_login .sf_form .captcha_ipt{
				margin-left:0;
			}
			#login .inormal_label{
				left:0px;
				top:12px;
				height:20px;
				line-height: 20px;
				color:#B0B5BF;
			}
			.login-btn-box{
				padding:0 50px;
			}
			.login-btn-box li{
				margin:0!important;
			 }
			 .login-btn-box li .loginBtn{
				 margin:0!important;
				 width:100%!important;
				 height: 50px!important;
				 background: #008FFF!important;
				 border-radius: 10px!important;
				 font-size:18px!important;
				 letter-spacing: 6px!important;
			 }
			.login-btn-box .no-account-box{
				margin-top: 15px!important;
				text-align: right;
				color: #989DA6;
			}
			.login-btn-box .no-account-box a{
				color:#008FFF!important;
			}
			.other-platform-box .item-title{
				margin:92px auto 68px;
				height: 25px;
				font-size: 24px;
				color: #525459;
				line-height: 24px;
				text-align: center;
				position: relative;
			}
			.other-platform-box .item-title::after{
				position: absolute;
				bottom:-10px;
				left:50%;
				margin-left:-20px;
				width:40px;
				height:6px;
				content: '';
				background: linear-gradient(90deg, #008FFF, #006CFF);
				box-shadow: 0px 2px 5px 0px rgba(0, 69, 255, 0.5);
				border-radius: 3px;
			}
			.other-platform-box .other-platform{
				margin:0 auto;
				width:1230px;
				font-size: 0;
			}
			.other-platform-box .other-platform li{
				margin-right:24px;
				margin-bottom:20px;
				display: inline-block;
				width:183px;
				height:183px;
				font-size: 16px;
				border:1px solid #E4E8EB;
				border-radius: 4px;
				position: relative;
			}
			.other-platform-box .other-platform li:hover{
				box-shadow: 0px 2px 5px 0px rgba(0, 69, 255, 0.5);
				border-color: transparent;
			}
			.other-platform-box .other-platform li.no-bottom{
				margin-bottom:0;
			}
			.other-platform-box .other-platform li:nth-of-type(6n){
				margin-right:0;
			}
			.other-platform-box .other-platform li img{
				display: block;
				margin:0 auto;
			}
			.other-platform-box .other-platform li .hover-box{
				position: absolute;
				top:0;
				left:0;
				width:100%;
				height:100%;
				opacity: 0.9;
				z-index: 2;
			}
			.other-platform-box .other-platform li .hover-box .now-use{
				position: absolute;
				left:50%;
				bottom:20px;
				margin-left:-50px;
				width:100px;
				height:26px;
				text-align: center;
				line-height: 24px;
				color:#008FFF;
				border:1px solid #008FFF;
				border-radius: 15px;
			}
			.other-platform-box .other-platform li .hover-box span{
				position: absolute;
				bottom:-1px;
				left:-1px;
				right:-1px;
				height:50px;
				display: none;
			}
			.other-platform-box .other-platform li:hover span{
				display: block;
			}
			.other-platform-box .other-platform li:hover .now-use{
				display: none;
			}
			.other-platform-box .other-platform li .hover-box a{
				float:right;
				width:50%;
				height:50px;
				line-height: 50px;
				text-align: center;
				color:#fff;
				font-size: 16px;
				text-decoration: none;
				color:#fff;
				background:#008FFF;
				box-sizing: border-box;
				-webkit-box-sizing: border-box;
			}
			.other-platform-box .other-platform li .hover-box a.order{
				border-right:1px solid #fdf7f7;
			}
			.other-platform-box .other-platform li .hover-box a.width100{
				width:100%;
			}
			.other-platform-box .service-recommend-box{
				padding-bottom: 75px;
				background:url('/static/images/login/service_recommend_bg.png') no-repeat;
				background-size: 100% 100%;
				-webkit-background-size: 100% 100%;
			}
			.other-platform-box .service-recommend{
				margin:0 auto;
				width:1230px;
				font-size: 0;
			}
			.other-platform-box .service-recommend li{
				display: inline-block;
				vertical-align: top;
				margin-right:36.6px;
				width:280px;
				height:380px;
				font-size: 14px;
				background: #FFFFFF;
				box-shadow: 0px 6px 40px 0px rgba(184, 203, 217, 0.5);
				position: relative;
			}
			.other-platform-box .service-recommend li.yiliaotian{
				margin-right: 0;
			}
			.other-platform-box .service-recommend li.yidianzhang:hover{
				background:url('/static/images/login/yidianzhang_bg_active.png') no-repeat;
			}
			.other-platform-box .service-recommend li.qidebao:hover{
				background:url('/static/images/login/qidebao_bg_active.png') no-repeat;
			}
			.other-platform-box .service-recommend li.yitongche:hover{
				background:url('/static/images/login/yitongche_bg_active.png') no-repeat;
			}
			.other-platform-box .service-recommend li.yiliaotian:hover{
				background:url('/static/images/login/yiliaotian_bg_active.png') no-repeat;
			}
			.other-platform-box .service-recommend li .login-box{
				margin:30px auto 0;
				width:80px;
				height:80px;
				position: relative;
			}
			.other-platform-box .service-recommend li .login-box .logo1{
				display: block;
				width:100%;
				height:100%;
			}
			.other-platform-box .service-recommend li .login-box .logo2{
				position: absolute;
				top:50%;
				left:50%;
				transform: translate(-50%,-50%);
				-webkit-transform: translate(-50%,-50%);
				display: none;
			}
			.other-platform-box .service-recommend li .name{
				margin:15px auto 30px;
				text-align: center;
				font-weight: bold;
				color: #525459;
				line-height: 24px;
				font-size: 16px;
			}
			.other-platform-box .service-recommend li .introduce{
				padding:0 34px;
				color: #525459;
				text-align: justify;
			}
			.other-platform-box .service-recommend li .btn-box{
				position: absolute;
				left:0;
				bottom: 38px;
				width:100%;
				font-size:0 ;
				text-align: center;
			}
			.other-platform-box .service-recommend li .btn-box a{
				display: inline-block;
				width:100px;
				height:40px;
				font-size: 14px;
				text-align: center;
				line-height: 40px;
				color: #989DA6;
				border: 1px solid #FFFFFF;
				text-decoration: none;
			}
			.other-platform-box .service-recommend li .btn-box a.service{
				margin-right:20px;
				color: #006BE5;
			}
			.other-platform-box .service-recommend li:hover .logo1{
				display: none;
			}
			.other-platform-box .service-recommend li:hover .logo2{
				display: block;
			}
			.other-platform-box .service-recommend li:hover .name{
				color:#fff;
			}
			.other-platform-box .service-recommend li:hover .introduce{
				color:#fff;
			}
			.other-platform-box .service-recommend li:hover .btn-box a{
				color:#fff;
			}
			.other-platform-box .service-recommend li:hover .btn-box a:hover{
				background: #2D85FF;
			}
			.footer-wrapper{background:#37393F;}
			.footer-wrapper .footer-box{margin:0 auto;width:1230px;font-size:0;color: #FFFFFF;text-align: center;}
			.footer-wrapper .footer-box dl{
				display: inline-block;
				vertical-align: top;
				font-size:14px;
				text-align: left;
			}
			.footer-wrapper .footer-box dl dt{
				padding:50px 0 30px;
				font-weight: bold;
				line-height: 24px;
				font-size: 20px;
			}
			.footer-wrapper .footer-box .left-box{
				width:140px;
			}
			.footer-wrapper .footer-box .center-box{
				margin:0 120px;
				width:216px;
				font-size:0px;
			}
			.footer-wrapper .footer-box .center-box dd a{
				display: inline-block;
				vertical-align: middle;
				margin-bottom: 10px;
				width:108px;
				height:24px;
				font-size:16px;
				line-height: 24px;
				text-decoration: none;
			}
			.footer-wrapper .footer-box .right-box{
				width:500px;
			}
			.footer-wrapper .footer-box .right-box dd p{
				margin-bottom: 10px;
				height:20px;
				line-height:20px;
			}
			.footer-wrapper .footer-box .beian-box{
				padding: 22px 0 20px;
				height:14px;
				line-height: 14px;
				font-size: 14px;
				color: #999999;
			 }
			.product-detail-box img{
				display: block;
				width:100%;
			}
		</style>
</head>
<body id="login" style="height:  100%;min-width:1300px;">
<input id="serverIp" name="serverIp" type="hidden" value="10.40.0.65"/>
<div class="ys_cookie" style="display:none;">
<div class="cookie_wrap">
<div class="cookie_head">
<div class="cookie_text">
<div class="text_main">
							我们的网站使用Cookies和其他类似技术来区分您与我们网站的其他用户。这有助于我们在您浏览网站时,为您提供良好的体验,并允许我们改进我们的网站。
						</div>
</div>
<div class="cookie_right">
<div class="cookie_li cookie_li_ty">
<img src="/static/images/ysgou.png" style="width:16px;height:16px;margin-right: 6px;margin-top:5px;"/>
							同意并继续
						</div>
<div class="cookie_li cookie_li_zc" style="font-family: Arial, Helvetica, sans-serif;margin-left:3px;">
<img src="/static/images/ysmsg.png" style="width:16px;height:16px;margin-right: 6px;margin-top:5px;"/>
							cookie政策
						</div>
</div>
</div>
</div>
</div>
<div id="headerBox">
<div class="header" style="height: 55px;">
<span class="logo" style="margin-top: 7px;"></span>
<div class="loginKefu">
<a class="ww" href="https://amos.alicdn.com/getcid.aw?v=3&amp;site=cntaobao&amp;groupid=0&amp;s=1&amp;uid=丰速科技&amp;charset=utf-8" target="_blank">
<font style="font-size:16px;">丰速科技 (淘系)</font>
</a>
<a class="qq" href="https://admin.qidian.qq.com/template/blue/mp/menu/qr-code-jump.html?linkType=0&amp;env=ol&amp;kfuin=2885826016&amp;fid=54729&amp;key=c68416e1280050c5224248d379f7639b&amp;cate=1&amp;type=16&amp;ftype=1&amp;_type=wpa&amp;qidian=true" target="_blank">
<font style="font-size:16px;">800 818 255 (其他平台)</font>
</a>
<a class="tab-login" href="https://www.1dadan.com/security/login?loginSource=00">账号登录</a>
</div>
</div>
</div>
<div class="wrap_box1 login_background" style="position:relative;">
<img alt="易打单" src="http://1dadan.oss-cn-hangzhou.aliyuncs.com/static/images/index/logo0_bg.png?v=1610108971006" style="margin-top: -1px;width: 100%;"/>
</div>
<div class="other-platform-box">
<h5 class="item-title">精选平台登录</h5>
<ul class="other-platform">
<li>
<img src="/static/images/login/taobao.png?v=1610108971006"/>
<div class="hover-box">
<span>
<a class="login-btn width100" href="https://oauth.taobao.com/authorize?response_type=code&amp;redirect_uri=https://tb.1dadan.com/oauth/call_back&amp;client_id=21533564&amp;state=login_01">登录</a>
</span>
<em class="now-use">立即使用</em>
</div>
</li>
<li>
<img src="/static/images/login/anlibaba.png?v=1610108971006"/>
<div class="hover-box">
<span>
<a class="login-btn width100" href="http://gw.open.1688.com/auth/authorize.htm?site=china&amp;redirect_uri=https://tb.1dadan.com/vipAndSuningoauth/oauth/call_back&amp;client_id=7151192">登录</a>
</span>
<em class="now-use">立即使用</em>
</div>
</li>
<li>
<img src="/static/images/login/jingdong.png?v=1610108971006"/>
<div class="hover-box">
<span>
<a class="login-btn width100" href="https://jd.1dadan.com/security/login?loginSource=05">登录</a>
</span>
<em class="now-use">立即使用</em>
</div>
</li>
<li>
<img src="/static/images/login/pingduoduo.png?v=1610108971006"/>
<div class="hover-box">
<span>
<a class="login-btn width100" href="https://mms.pinduoduo.com/open.html?response_type=code&amp;redirect_uri=https://pdd.1dadan.com/oauth1/pdd_call&amp;client_id=2fcd98e09c56479c9d7f4bc9796cf074&amp;state=login_16">登录</a>
</span>
<em class="now-use">立即使用</em>
</div>
</li>
<li>
<img src="/static/images/login/doudian.png?v=1610108971006"/>
<div class="hover-box">
<span>
<a class="login-btn width100" href="https://fuwu.jinritemai.com/authorize?service_id=21&amp;state=login_40_jinritemai_1">登录</a>
</span>
<em class="now-use">立即使用</em>
</div>
</li>
<li>
<img src="/static/images/login/kuaishouxiaodian.png?v=1610108971006"/>
<div class="hover-box">
<span>
<a class="login-btn width100" href="https://s.kwaixiaodian.com/oauth/authorize?response_type=code&amp;scope=user_info,merchant_item,merchant_order,merchant_refund,merchant_user&amp;redirect_uri=https://www.1dadan.com/oauth1/kwaishop_call&amp;app_id=ks705939242153457654&amp;state=login_43_1">登录</a>
</span>
<em class="now-use">立即使用</em>
</div>
</li>
<li class="no-bottom">
<img src="/static/images/login/weixinxiaoshangdian.png?v=1610108971006"/>
<div class="hover-box">
<span>
<a class="login-btn width100" href="https://shop.weixin.qq.com/">登录</a>
</span>
<em class="now-use">立即使用</em>
</div>
</li>
<li class="no-bottom">
<img src="/static/images/login/taogongchang.png?v=1610108971006"/>
<div class="hover-box">
<span>
<a class="login-btn width100" href="https://auth.1688.com/auth/authorize.htm?site=c2m&amp;redirect_uri=https://tb.1dadan.com/oauth1/alibaba_c2m_call&amp;client_id=1813201&amp;state=login_63_alibabac2m_1">登录</a>
</span>
<em class="now-use">立即使用</em>
</div>
</li>
<li class="no-bottom">
<img src="/static/images/login/jubaozan.png?v=1610108971006"/>
<div class="hover-box">
<span>
<a class="login-btn width100" href="https://api.c3tech.cn/oauth/authorize?response_type=code&amp;client_id=edadan&amp;redirect_uri=https://www.1dadan.com/oauth1/ju_bao_zan_call_back&amp;state=login_97_1" id="juBaoZanLogin">登录</a>
</span>
<em class="now-use">立即使用</em>
</div>
</li>
<li class="no-bottom">
<img src="/static/images/login/mokuaixingxuan.png?v=1610108971006"/>
<div class="hover-box">
<span>
<a class="login-btn width100" href="javascript:;" id="mokuaixingxuanLogin" onclick="wudizhuboClick('login_75_1')">登录</a>
</span>
<em class="now-use">立即使用</em>
</div>
</li>
<li class="no-bottom">
<img src="/static/images/login/wudizhubo.png?v=1610108971006"/>
<div class="hover-box">
<span>
<a class="login-btn width100" href="javascript:;" onclick="wudizhuboClick('login_76_1')">登录</a>
</span>
<em class="now-use">免费使用</em>
</div>
</li>
</ul>
</div>
<div class="other-platform-box">
<h5 class="item-title">电商平台登录</h5>
<ul class="other-platform">
<li>
<img src="/static/images/login/weidian.png?v=1610108971006"/>
<div class="hover-box">
<span>
<a class="login-btn" href="https://www.1dadan.com/security/login?loginSource=00">登录</a>
<a class="order" href="http://www.1dadan.com/skin01/serviceOrder.html?platformCode=11&amp;source=2">订购</a>
</span>
<em class="now-use">立即使用</em>
</div>
</li>
<li>
<img src="/static/images/login/suningyigou.png?v=1610108971006"/>
<div class="hover-box">
<span>
<a class="login-btn" href="https://www.1dadan.com/security/login?loginSource=00">登录</a>
<a class="order" href="http://fuwu.suning.com/detail/10002218.html">订购</a>
</span>
<em class="now-use">立即使用</em>
</div>
</li>
<li>
<img src="/static/images/login/youzan.png?v=1610108971006"/>
<div class="hover-box">
<span>
<a class="login-btn" href="https://www.1dadan.com/security/login?loginSource=00">登录</a>
<a class="order" href="https://yingyong.youzan.com/cloud-app-detail/41922/info">订购</a>
</span>
<em class="now-use">立即使用</em>
</div>
</li>
<li>
<img src="/static/images/login/mogujie.png?v=1610108971006"/>
<div class="hover-box">
<span>
<a class="login-btn" href="https://www.1dadan.com/security/login?loginSource=00">登录</a>
<a class="order" href="http://www.1dadan.com/skin01/serviceOrder.html?platformCode=19&amp;source=2">订购</a>
</span>
<em class="now-use">免费使用</em>
</div>
</li>
<li>
<img src="/static/images/login/weimengweishangcheng.png?v=1610108971006"/>
<div class="hover-box">
<span>
<a class="login-btn" href="https://www.1dadan.com/security/login?loginSource=00">登录</a>
<a class="order" href="http://fuwu.weimob.com/product_809.html">订购</a>
</span>
<em class="now-use">立即使用</em>
</div>
</li>
<li>
<img src="/static/images/login/beibei.png?v=1610108971006"/>
<div class="hover-box">
<span>
<a class="login-btn" href="https://www.1dadan.com/security/login?loginSource=00">登录</a>
<a class="order" href="http://www.1dadan.com/skin01/serviceOrder.html?platformCode=18&amp;source=2">订购</a>
</span>
<em class="now-use">免费使用</em>
</div>
</li>
<li>
<img src="/static/images/login/shunfengdadangjia.png?v=1610108971006"/>
<div class="hover-box">
<span>
<a class="login-btn width100" href="https://www.1dadan.com/security/login?loginSource=00">登录</a>
</span>
<em class="now-use">免费使用</em>
</div>
</li>
<li>
<img src="/static/images/login/shunfengxiaodangjia.png?v=1610108971006"/>
<div class="hover-box">
<span>
<a class="login-btn width100" href="https://www.1dadan.com/security/login?loginSource=00">登录</a>
</span>
<em class="now-use">免费使用</em>
</div>
</li>
<li>
<img src="/static/images/login/shunfengyizhan.png?v=1610108971006"/>
<div class="hover-box">
<span>
<a class="login-btn width100" href="https://www.1dadan.com/security/login?loginSource=00">登录</a>
</span>
<em class="now-use">免费使用</em>
</div>
</li>
<li>
<img src="/static/images/login/weipinghuiVip.png?v=1610108971006"/>
<div class="hover-box">
<span>
<a class="login-btn width100" href="https://www.1dadan.com/security/login?loginSource=00">登录</a>
</span>
<em class="now-use">立即使用</em>
</div>
</li>
<li>
<img src="/static/images/login/weipinghui.png?v=1610108971006"/>
<div class="hover-box">
<span>
<a class="login-btn width100" href="https://www.1dadan.com/security/login?loginSource=00">登录</a>
</span>
<em class="now-use">立即使用</em>
</div>
</li>
<li>
<img src="/static/images/login/dangdang.png?v=1610108971006"/>
<div class="hover-box">
<span>
<a class="login-btn width100" href="https://www.1dadan.com/security/login?loginSource=00">登录</a>
</span>
<em class="now-use">免费使用</em>
</div>
</li>
<li>
<img src="/static/images/login/guomeizaixian.png?v=1610108971006"/>
<div class="hover-box">
<span>
<a class="login-btn width100" href="https://www.1dadan.com/security/login?loginSource=00">登录</a>
</span>
<em class="now-use">免费使用</em>
</div>
</li>
<li>
<img src="/static/images/login/meilishuo.png?v=1610108971006"/>
<div class="hover-box">
<span>
<a class="login-btn width100" href="https://www.1dadan.com/security/login?loginSource=00">登录</a>
</span>
<em class="now-use">免费使用</em>
</div>
</li>
<li>
<img src="/static/images/login/weixuanxiaodian.png?v=1610108971006"/>
<div class="hover-box">
<span>
<a class="login-btn width100" href="https://www.1dadan.com/security/login?loginSource=00">登录</a>
</span>
<em class="now-use">免费使用</em>
</div>
</li>
<li>
<img src="/static/images/login/juanpi.png?v=1610108971006"/>
<div class="hover-box">
<span>
<a class="login-btn width100" href="https://www.1dadan.com/security/login?loginSource=00">登录</a>
</span>
<em class="now-use">免费使用</em>
</div>
</li>
<li>
<img src="/static/images/login/xiaohongshu.png?v=1610108971006"/>
<div class="hover-box">
<span>
<a class="login-btn" href="https://www.1dadan.com/security/login?loginSource=00">登录</a>
<a class="order" href="http://www.1dadan.com/skin01/serviceOrder.html?platformCode=33&amp;source=2">订购</a>
</span>
<em class="now-use">免费使用</em>
</div>
</li>
<li>
<img src="/static/images/login/mengdian.png?v=1610108971006"/>
<div class="hover-box">
<span>
<a class="login-btn width100" href="https://www.1dadan.com/security/login?loginSource=00">登录</a>
</span>
<em class="now-use">免费使用</em>
</div>
</li>
<li class="no-bottom">
<img src="/static/images/login/youwu.png?v=1610108971006"/>
<div class="hover-box">
<span>
<a class="login-btn width100" href="https://www.1dadan.com/security/login?loginSource=00">登录</a>
</span>
<em class="now-use">免费使用</em>
</div>
</li>
<li class="no-bottom">
<img src="/static/images/login/kaolahaigou.png?v=1610108971006"/>
<div class="hover-box">
<span>
<a class="login-btn" href="https://www.1dadan.com/security/login?loginSource=00">登录</a>
<a class="order" href="http://www.1dadan.com/skin01/serviceOrder.html?platformCode=44&amp;source=2">订购</a>
</span>
<em class="now-use">免费使用</em>
</div>
</li>
<li class="no-bottom">
<img src="/static/images/login/mengtui.png?v=1610108971006"/>
<div class="hover-box">
<span>
<a class="login-btn" href="https://www.1dadan.com/security/login?loginSource=00">登录</a>
<a class="order" href="http://www.1dadan.com/skin01/serviceOrder.html?platformCode=56&amp;source=2">订购</a>
</span>
<em class="now-use">免费使用</em>
</div>
</li>
</ul>
</div>
<div class="other-platform-box">
<h5 class="item-title">产品服务推荐</h5>
<div class="service-recommend-box">
<ul class="service-recommend">
<li class="yidianzhang">
<div class="login-box">
<img class="logo1" src="/static/images/login/yidianzhang.png?v=1610108971006"/>
<img class="logo2" src="/static/images/login/yidianzhang1.png?v=1610108971006"/>
</div>
<p class="name">易店长</p>
<p class="introduce">为淘宝商家提供店铺装修，促销打折工具、提高店铺转化，优化商品信息，实现流量提升，促进商品成交等。</p>
<div class="btn-box">
<a class="service" href="https://fuwu.taobao.com/ser/detail.htm?spm=a1z13.8114210.1234-fwlb.4.1fbc5aca8Zrbqh&amp;service_code=service-0-23094&amp;tracelog=search&amp;from_key=%E6%98%93%E5%BA%97%E9%95%BF" target="_blank">服务市场</a>
<a class="more" href="http://www.foonsu.com/ydc" target="_blank">了解更多</a>
</div>
</li>
<li class="qidebao">
<div class="login-box">
<img class="logo1" src="/static/images/login/qidebao.png?v=1610108971006"/>
<img class="logo2" src="/static/images/login/qidebao1.png?v=1610108971006"/>
</div>
<p class="name">企得宝</p>
<p class="introduce">电商进销存管理软件，拥有商品管理、订单管理、采购管理、库存管理等主要功能，支持多平台多店铺订单统一处理。</p>
<div class="btn-box">
<a class="more" href="https://www.foonsu.com/qdb" target="_blank">了解更多</a>
</div>
</li>
<li class="yitongche">
<div class="login-box">
<img class="logo1" src="/static/images/login/yitongche.png?v=1610108971006"/>
<img class="logo2" src="/static/images/login/yitongche1.png?v=1610108971006"/>
</div>
<p class="name">易通车</p>
<p class="introduce">智能全自动开车软件，解决直通车难学、繁琐、费油等烦恼。软件功能丰富，算法先进，技术领先。</p>
<div class="btn-box">
<a class="service" href="https://fuwu.taobao.com/ser/detail.htm?spm=a1z13.8114210.50042458.1.d42c5acaOc4sZz&amp;service_code=FW_GOODS-1000969736&amp;pvid=f858a47a-d651-4c49-8bb7-564671006c66&amp;tracelog=recScene-2&amp;scm=1007.13019.104493.0" target="_blank">服务市场</a>
<a class="more" href="http://www.foonsu.com/ytc" target="_blank">了解更多</a>
</div>
</li>
<li class="yiliaotian">
<div class="login-box">
<img class="logo1" src="/static/images/login/yiliaotian.png?v=1610108971006"/>
<img class="logo2" src="/static/images/login/yiliaotian1.png?v=1610108971006"/>
</div>
<p class="name">易聊天</p>
<p class="introduce">客服聊天辅助工具，自动吸附在QQ、微信等聊天窗口一键发送消息，实现多平台话术共享。</p>
<div class="btn-box">
<a class="more" href="http://www.foonsu.com/ylt" target="_blank">了解更多</a>
</div>
</li>
</ul>
</div>
</div>
<div class="other-platform-box product-detail-box">
<h5 class="item-title">产品功能介绍</h5>
<img src="http://1dadan.oss-cn-hangzhou.aliyuncs.com/static/images/index/detail1.png?v=1610108971006"/>
<img src="http://1dadan.oss-cn-hangzhou.aliyuncs.com/static/images/index/detail2.png?v=1610108971006"/>
<img src="http://1dadan.oss-cn-hangzhou.aliyuncs.com/static/images/index/detail3.png?v=1610108971006"/>
<img src="http://1dadan.oss-cn-hangzhou.aliyuncs.com/static/images/index/detail4.png?v=1610108971006"/>
<img src="http://1dadan.oss-cn-hangzhou.aliyuncs.com/static/images/index/detail5.png?v=1610108971006"/>
<img src="http://1dadan.oss-cn-hangzhou.aliyuncs.com/static/images/index/detail6.png?v=1610108971006"/>
</div>
<div class="hidden" id="dialog-confirm">
<div class="dialog_content vertical_middle tc " style="width: 400px;margin-bottom: 15px;font-size: 15px;text-align: center;color: #000;">
<span>亲，您使用的浏览器存在兼容性问题，建议</span> <br/><span>使用谷歌29版浏览器或者IE8-10浏览器。</span>
<br/>
<br/>
<span style="margin-top:30px"><a href="/static/download/29.0.1547.76_chrome_installer.zip"><font color="red" size="3px" style="line-height: 30px;">点击下载谷歌29版浏览器</font></a></span>
</div>
</div>
<div class="footer-wrapper">
<div class="footer-box">
<dl class="left-box">
<dt>公众号</dt>
<dd>
<img src="/static/images/login/weixin_icon.png?v=1610108971006"/>
</dd>
</dl>
<dl class="center-box">
<dt>丰速旗下产品</dt>
<dd>
<a href="https://www.foonsu.com/ydd" target="_black">易打单</a>
<a href="http://www.1tongche.com" target="_black">易通车</a>
<a href="http://www.1qiguan.com" target="_black">企得宝</a>
<a href="http://www.foonsu.com/ybx" target="_black">易宝箱</a>
<a href="http://www.foonsu.com/sd" target="_black">速打</a>
<a href="http://www.foonsu.com/yspysh" target="_black">易上货/易商品</a>
<a href="http://www.foonsu.com/ylt" target="_black">易聊天</a>
<a href="http://www.foonsu.com/ydc" target="_black">易店长</a>
</dd>
</dl>
<dl class="right-box">
<dt>联系我们</dt>
<dd>
<p>客服QQ：800  818  255</p>
<p>固定电话：0755-33010721 / 400-015-7966</p>
<p>电子邮箱：fuwu@foonsu.com</p>
<p>总部地址：广东省深圳市宝安区新安街道44区金宝商务大厦3楼8326号</p>
<p>广州分公司：广东省广州市天河区儒林大街后园路35号融科商务园E栋106室</p>
<p>杭州分公司：浙江省杭州市江干区石桥支路105号浙江华电大厦801室</p>
<p>泉州分公司：福建省晋江市世纪大道888号万达广场3幢B1205</p>
<p>工作时间：9:00～21:00（全年无休）</p>
</dd>
</dl>
<p class="beian-box">Copyright © 2000-2021 深圳丰速科技有限公司版权所有，保留所有权利。<a href="https://beian.miit.gov.cn" id="beian" target="_blank">粤ICP备16105669号</a></p>
</div>
</div>
<script type="text/javascript">
			var contextPath = "";
		    var taobaoRedirect= "https://tb.1dadan.com/oauth/call_back";
		    var taobaoAuthUrl= "https://oauth.taobao.com";
		    var taobaoAppKey= "21533564";
		    var qqRedirect= "http://www.1dadan.com/vipAndSuningoauth/call_back";
		    var qqAuthUrl= "https://graph.qq.com/oauth2.0";
		    var qqAppId= "101375172";
		    var weixinAppId = "wx2907efb7ca883292";
		    var weixinRedirect = "http%3A%2F%2Fwww.1dadan.com%2FvipAndSuningoauth%2Fweixin_call_back";
		    var alibabaAuthUrl = "http://gw.open.1688.com/auth/authorize.htm?site=china&redirect_uri=https://tb.1dadan.com/vipAndSuningoauth/oauth/call_back&client_id=7151192";
		    var alibabaStockAuthUrl = "http://gw.open.1688.com/auth/authorize.htm?site=china&redirect_uri=https://stock.1dadan.com/vipAndSuningoauth/alibabaStock/call_back&client_id=5406512";
		    
   		 	var pddRedirect = "https://pdd.1dadan.com/oauth1/pdd_call";
   		 	var pddAuthUrl = "https://mms.pinduoduo.com/open.html";
   		 	var pddClientId = "2fcd98e09c56479c9d7f4bc9796cf074";
   			var pddClientScrect = "719df1386312b740c7137348fc0da10c831d8514";

   			var kwaiShopClintId = "ks705939242153457654";
   			var kwaiShopRedirect = "https://www.1dadan.com/oauth1/kwaishop_call";
   			var kwaiShopAuthUrl = "https://s.kwaixiaodian.com/oauth/authorize";
   			var kwaiShopClientScrect = "iP3fLNXvLviPy5vGnDTUyQ";
   			
   			var alibabaC2MRedirect = "https://tb.1dadan.com/oauth1/alibaba_c2m_call";
   		 	var alibabaC2MAuthUrl = "https://auth.1688.com/auth/authorize.htm?site=c2m";
   		 	var alibabaC2MClientId = "1813201";
   		 	
   			var jinritemaiOauthRedirectUrl = "https://www.1dadan.com/oauth1/jinritemai_call";
		 	var jinritemaiAuthUrl = "https://fuwu.jinritemai.com/authorize?service_id=21&state=login_40_jinritemai_1";
		 	var jinritemaiAppId = "6838756062733043213";

			var juBaoZanRedirectUrl = "https://www.1dadan.com/oauth1/ju_bao_zan_call_back";
			var juBaoZanAuthUrl = "https://api.c3tech.cn/oauth/authorize?response_type=code";
			var juBaoZanClientId = "edadan";

	    </script>
<script src="/static/js/lib/jquery-1.8.2.min.js" type="text/javascript"></script>
<script src="/static/js/lib/namespace.js" type="text/javascript"></script>
<script src="/static/js/lib/jquery.validate.min.js?v=1610108971006" type="text/javascript"></script>
<script src="/static/js/lib/sf.validate.js?v=1610108971006" type="text/javascript"></script>
<script src="/static/js/lib/common.js?v=1610108971006" type="text/javascript"></script>
<script src="/static/js/lib/core.js" type="text/javascript"></script>
<script src="/static/js/src/sf.constant.js?v=1610108971006" type="text/javascript"></script>
<script src="/static/js/src/login.js?v=11610108971006" type="text/javascript"></script>
<script data-appkey="21533564" id="J_secure_sdk_v2" src="https://g.alicdn.com/sj/securesdk/0.0.3/securesdk_v2.js" type="text/javascript"></script>
<!-- <script type="text/javascript" src="https://g.alicdn.com/sj/securesdk/0.0.3/securesdk_v2.js" id="J_secure_sdk_v2" data-appkey="21533564"></script> -->
<script src="/static/js/lib/jquery-ui.min.js" type="text/javascript"></script>
<script type="text/javascript">
		//默认跳转www.1dadan.com
		if(window.location.hostname && (-1 != window.location.hostname.indexOf("tb.1dadan.com"))){
			if(getUrlParam('sh') && getUrlParam('sh') != null){
				$(".sf_form").show();
				$(".tb_form").hide();
				var userStr = $('[name="username"]').val();
				if(userStr && userStr.length>0){
					contObj.find(".redisclose").css('visibility','visible');
				}else{
					 $('[name="username"]').next(".inormal_label").css("display","block");
					 $('[name="password"]').next(".inormal_label").css("display","block")
					contObj.find(".redisclose").css('visibility','hidden');
				}
				 setTimeout(function(){
					 $('[name="username"]').next(".inormal_label").css("display","none");
					 $('[name="password"]').next(".inormal_label").css("display","none");
					 
					 intLoginName(contObj);
				 },2000);
			}else{
				window.location.href="http://www.1dadan.com/security/login";
			}
		}
		var bodyWidth = $(document.body).width();
		/*if(bodyWidth){
			if(bodyWidth > 1500){
				$(".login_background").find(".wrap").css("padding", "9%");
			}else{
				$(".login_background").find(".wrap").css("padding", "2%");
			}
		}*/
		if(-1 != window.location.hostname.indexOf("pdd.1dadan.com")){
			var contObj = $("#login");
			if((getUrlParam('platform') && getUrlParam('platform') != null) || (getUrlParam('oauthId') && getUrlParam('oauthId') != null)){
				
				if((getUrlParam('sh') && getUrlParam('sh') != null)){
					$(".sf_form").show();
					$(".tb_form").hide();
					var userStr = $('[name="username"]').val();
					if(userStr && userStr.length>0){
						contObj.find(".redisclose").css('visibility','visible');
					}else{
						 $('[name="username"]').next(".inormal_label").css("display","block");
						 $('[name="password"]').next(".inormal_label").css("display","block")
						contObj.find(".redisclose").css('visibility','hidden');
					}
					 setTimeout(function(){
						 $('[name="username"]').next(".inormal_label").css("display","none");
						 $('[name="password"]').next(".inormal_label").css("display","none");
						 
						 intLoginName(contObj);
					 },2000);
				}
			}else{
				window.location.href="http://www.1dadan.com/security/login";
			}
		}


		var loginSource = getUrlParam('loginSource');
		if(-1 != window.location.hostname.indexOf("jd.1dadan.com") || -1 != window.location.hostname.indexOf("wxd.1dadan.com")){
			var contObj = $("#login");
			if(loginSource == '05' && -1 != window.location.hostname.indexOf("jd.1dadan.com") || loginSource == '77' && -1 != window.location.hostname.indexOf("wxd.1dadan.com")){
				$(".sf_form").show();
				$(".tb_form").hide();
				var userStr = $('[name="username"]').val();
				if(userStr && userStr.length>0){
					contObj.find(".redisclose").css('visibility','visible');
				}else{
					$('[name="username"]').next(".inormal_label").css("display","block");
					$('[name="password"]').next(".inormal_label").css("display","block")
					contObj.find(".redisclose").css('visibility','hidden');
				}
				setTimeout(function(){
					$('[name="username"]').next(".inormal_label").css("display","none");
					$('[name="password"]').next(".inormal_label").css("display","none");

					intLoginName(contObj);
				},2000);
			}else{
				window.location.href="http://www.1dadan.com/security/login";
			}
		}
		if(loginSource != '05' && -1 != window.location.hostname.indexOf("jd-test.1dadan.com") || loginSource != '77' && -1 != window.location.hostname.indexOf("wxd-test.1dadan.com")){
			var contObj = $("#login");
			if(getUrlParam('loginSource') && getUrlParam('loginSource') != null){
				$(".sf_form").show();
				$(".tb_form").hide();
				var userStr = $('[name="username"]').val();
				if(userStr && userStr.length>0){
					contObj.find(".redisclose").css('visibility','visible');
				}else{
					$('[name="username"]').next(".inormal_label").css("display","block");
					$('[name="password"]').next(".inormal_label").css("display","block")
					contObj.find(".redisclose").css('visibility','hidden');
				}
				setTimeout(function(){
					$('[name="username"]').next(".inormal_label").css("display","none");
					$('[name="password"]').next(".inormal_label").css("display","none");

					intLoginName(contObj);
				},2000);
			}else{
				window.location.href="http://1111.1dadan.com/security/login";
			}
		}
		
		$("#footerItems a,#pddLogin").click(function(){
			var _target = $(this).text();
			var params = {
				target:	_target,
				module:"登录页"
			}
			if(!_target && $(this).attr("id")=="pddLogin"){//点击的是拼多多登录
				params.target = "拼多多登录"
			}
			$.ajax({
				url: "/oauth/increaseVisitsNum",
				data:params,
				async: false,
				method: "POST",
				dataType: "json",
				success: function(data, textStatus, jqXHR) {
				}
			})
		})
			$(function(){
				$(document).scroll(function() {
					if($(document).scrollTop()>60){
						$("#headerBox").css({
							"position":"fixed",
							"top":"0",
							"width":"100%",
							"background":"#fff",
							"z-index":"999"
						})
					} else {
						$("#headerBox").css({
							"position":"initial",
							"background":"#fff"
						})
					}
				})
			})
		</script>
</body>
<script src="//gias.jd.com/js/td.js"></script>
<script language="JavaScript">
	// 因为采集并上报一般需要在几百毫秒，延迟1秒执行
	var deviceId = "";
	setTimeout(function () {
		try {
			getJdEid(function(eid,fp,udfp){
				deviceId = eid;
			});
		}catch(e){}
	}, 1000);
	</script>
</html>