<!DOCTYPE html>
<html>
<head>
<meta charset="utf-8"/>
<meta content="IE=edge" http-equiv="X-UA-Compatible"/>
<meta content="width=device-width, initial-scale=1, maximum-scale=1, user-scalable=no" name="viewport"/>
<title>404</title>
<style>
	body{
		background-color:#444;
		font-size:14px;
	}
	h3{
		font-size:60px;
		color:#eee;
		text-align:center;
		padding-top:30px;
		font-weight:normal;
	}
</style>
</head>
<body>
<h3>404ï¼æ¨è¯·æ±çæä»¶ä¸å­å¨!</h3>
</body>
</html>
