<html>
<head><meta charset="utf-8"/>
<script>
var u='https://fr.yahoo.com/?err=404&err_url=https%3a%2f%2ffr.yahoo.com%2femail_open_log_pic.php%3fmid%3d859f3531d579402e9d1fe16912af365f%26s%3da%2509%250A';
if(window!=window.top){
  document.write('<p>Ce contenu n&quot;est pas disponible pour l&quot;instant.</p><img src="//geo.yahoo.com/p?s=1197757039&t='+new Date().getTime()+'&_R='+encodeURIComponent(document.referrer)+'&err=404&err_url='+u+'" width="0px" height="0px"/>');
}else{
  window.location.replace(u);
}
</script>
<noscript><meta content="0;URL='https://fr.yahoo.com/?err=404&amp;err_url=https%3a%2f%2ffr.yahoo.com%2femail_open_log_pic.php%3fmid%3d859f3531d579402e9d1fe16912af365f%26s%3da%2509%250A'" http-equiv="refresh"/></noscript>
</head></html>
