<!DOCTYPE html>
<html lang="es-ES">
<head>
<meta content="text/html; charset=utf-8" http-equiv="Content-Type"/>
<!-- Mobile Specific
================================================== -->
<meta content="width=device-width, initial-scale=1, maximum-scale=1" name="viewport"/>
<!--[if lt IE 9]>
	<script src="http://css3-mediaqueries-js.googlecode.com/svn/trunk/css3-mediaqueries.js"></script>
<![endif]-->
<!-- Meta Tags -->
<meta content="text/html; charset=utf-8" http-equiv="Content-Type"/>
<!-- Title Tag
================================================== -->
<title>Nothing found for  Cpsess4680729212 Office Login Php%09</title>
<!-- Main CSS
================================================== -->
<link href="https://auskalo.net/wp-content/themes/Adapt/style.css" rel="stylesheet" type="text/css"/>
<!-- Load HTML5 dependancies for IE
================================================== -->
<!--[if IE]>
	<script src="http://html5shiv.googlecode.com/svn/trunk/html5.js"></script><![endif]-->
<!--[if lte IE 7]>
	<script src="js/IE8.js" type="text/javascript"></script><![endif]-->
<!--[if lt IE 7]>
	<link rel="stylesheet" type="text/css" media="all" href="css/ie6.css"/>
<![endif]-->
<!-- WP Head
================================================== -->
<!-- All in One SEO Pack 2.3.16 by Michael Torbert of Semper Fi Web Design[586,629] -->
<script type="text/javascript">
			(function(i,s,o,g,r,a,m){i['GoogleAnalyticsObject']=r;i[r]=i[r]||function(){
			(i[r].q=i[r].q||[]).push(arguments)},i[r].l=1*new Date();a=s.createElement(o),
			m=s.getElementsByTagName(o)[0];a.async=1;a.src=g;m.parentNode.insertBefore(a,m)
			})(window,document,'script','//www.google-analytics.com/analytics.js','ga');

			ga('create', 'UA-37769185-1', 'auto');
			
			ga('send', 'pageview');
			</script>
<!-- /all in one seo pack -->
<link href="//s.w.org" rel="dns-prefetch"/>
<link href="https://auskalo.net/feed/" rel="alternate" title="Auskalo » Feed" type="application/rss+xml"/>
<link href="https://auskalo.net/comments/feed/" rel="alternate" title="Auskalo » RSS de los comentarios" type="application/rss+xml"/>
<script type="text/javascript">
			window._wpemojiSettings = {"baseUrl":"https:\/\/s.w.org\/images\/core\/emoji\/2.3\/72x72\/","ext":".png","svgUrl":"https:\/\/s.w.org\/images\/core\/emoji\/2.3\/svg\/","svgExt":".svg","source":{"concatemoji":"https:\/\/auskalo.net\/wp-includes\/js\/wp-emoji-release.min.js?ver=4.8.15"}};
			!function(a,b,c){function d(a){var b,c,d,e,f=String.fromCharCode;if(!k||!k.fillText)return!1;switch(k.clearRect(0,0,j.width,j.height),k.textBaseline="top",k.font="600 32px Arial",a){case"flag":return k.fillText(f(55356,56826,55356,56819),0,0),b=j.toDataURL(),k.clearRect(0,0,j.width,j.height),k.fillText(f(55356,56826,8203,55356,56819),0,0),c=j.toDataURL(),b!==c&&(k.clearRect(0,0,j.width,j.height),k.fillText(f(55356,57332,56128,56423,56128,56418,56128,56421,56128,56430,56128,56423,56128,56447),0,0),b=j.toDataURL(),k.clearRect(0,0,j.width,j.height),k.fillText(f(55356,57332,8203,56128,56423,8203,56128,56418,8203,56128,56421,8203,56128,56430,8203,56128,56423,8203,56128,56447),0,0),c=j.toDataURL(),b!==c);case"emoji4":return k.fillText(f(55358,56794,8205,9794,65039),0,0),d=j.toDataURL(),k.clearRect(0,0,j.width,j.height),k.fillText(f(55358,56794,8203,9794,65039),0,0),e=j.toDataURL(),d!==e}return!1}function e(a){var c=b.createElement("script");c.src=a,c.defer=c.type="text/javascript",b.getElementsByTagName("head")[0].appendChild(c)}var f,g,h,i,j=b.createElement("canvas"),k=j.getContext&&j.getContext("2d");for(i=Array("flag","emoji4"),c.supports={everything:!0,everythingExceptFlag:!0},h=0;h<i.length;h++)c.supports[i[h]]=d(i[h]),c.supports.everything=c.supports.everything&&c.supports[i[h]],"flag"!==i[h]&&(c.supports.everythingExceptFlag=c.supports.everythingExceptFlag&&c.supports[i[h]]);c.supports.everythingExceptFlag=c.supports.everythingExceptFlag&&!c.supports.flag,c.DOMReady=!1,c.readyCallback=function(){c.DOMReady=!0},c.supports.everything||(g=function(){c.readyCallback()},b.addEventListener?(b.addEventListener("DOMContentLoaded",g,!1),a.addEventListener("load",g,!1)):(a.attachEvent("onload",g),b.attachEvent("onreadystatechange",function(){"complete"===b.readyState&&c.readyCallback()})),f=c.source||{},f.concatemoji?e(f.concatemoji):f.wpemoji&&f.twemoji&&(e(f.twemoji),e(f.wpemoji)))}(window,document,window._wpemojiSettings);
		</script>
<style type="text/css">
img.wp-smiley,
img.emoji {
	display: inline !important;
	border: none !important;
	box-shadow: none !important;
	height: 1em !important;
	width: 1em !important;
	margin: 0 .07em !important;
	vertical-align: -0.1em !important;
	background: none !important;
	padding: 0 !important;
}
</style>
<link href="https://auskalo.net/wp-content/plugins/jquery-lightbox-for-native-galleries/colorbox/theme5/colorbox.css?ver=1.3.14" id="colorbox-theme5-css" media="screen" rel="stylesheet" type="text/css"/>
<link href="https://auskalo.net/wp-content/plugins/cookie-law-info/css/cli-style.css?ver=1.5.3" id="cookielawinfo-style-css" media="all" rel="stylesheet" type="text/css"/>
<link href="https://auskalo.net/wp-content/themes/Adapt/css/responsive.css?ver=4.8.15" id="responsive-css" media="all" rel="stylesheet" type="text/css"/>
<link href="https://auskalo.net/wp-content/themes/Adapt/css/prettyPhoto.css?ver=4.8.15" id="prettyPhoto-css" media="all" rel="stylesheet" type="text/css"/>
<link href="https://auskalo.net/wp-content/themes/Adapt/css/awesome-font.css?ver=4.8.15" id="awesome-font-css" media="all" rel="stylesheet" type="text/css"/>
<script src="https://auskalo.net/wp-includes/js/jquery/jquery.js?ver=1.12.4" type="text/javascript"></script>
<script src="https://auskalo.net/wp-includes/js/jquery/jquery-migrate.min.js?ver=1.4.1" type="text/javascript"></script>
<script src="https://auskalo.net/wp-content/plugins/jquery-lightbox-for-native-galleries/colorbox/jquery.colorbox-min.js?ver=1.3.14" type="text/javascript"></script>
<script src="https://auskalo.net/wp-content/plugins/cookie-law-info/js/cookielawinfo.js?ver=1.5.3" type="text/javascript"></script>
<script src="https://auskalo.net/wp-content/themes/Adapt/js/superfish.js?ver=4.8.15" type="text/javascript"></script>
<script src="https://auskalo.net/wp-content/themes/Adapt/js/jquery.easing.1.3.js?ver=4.8.15" type="text/javascript"></script>
<script src="https://auskalo.net/wp-content/themes/Adapt/js/jquery.flexslider-min.js?ver=4.8.15" type="text/javascript"></script>
<script src="https://auskalo.net/wp-content/themes/Adapt/js/jquery.prettyPhoto.js?ver=4.8.15" type="text/javascript"></script>
<script src="https://auskalo.net/wp-content/themes/Adapt/js/jquery.uniform.js?ver=4.8.15" type="text/javascript"></script>
<script src="https://auskalo.net/wp-content/themes/Adapt/js/jquery.responsify.init.js?ver=4.8.15" type="text/javascript"></script>
<script src="https://auskalo.net/wp-content/themes/Adapt/js/custom.js?ver=4.8.15" type="text/javascript"></script>
<link href="https://auskalo.net/wp-json/" rel="https://api.w.org/"/>
<link href="https://auskalo.net/xmlrpc.php?rsd" rel="EditURI" title="RSD" type="application/rsd+xml"/>
<link href="https://auskalo.net/wp-includes/wlwmanifest.xml" rel="wlwmanifest" type="application/wlwmanifest+xml"/>
<meta content="WordPress 4.8.15" name="generator"/>
<link href="http://auskalo.net/wp-content/plugins/cforms/styling/wide_form.css" rel="stylesheet" type="text/css"/>
<script src="http://auskalo.net/wp-content/plugins/cforms/js/cforms.js" type="text/javascript"></script>
<!-- jQuery Lightbox For Native Galleries v3.2.2 | http://www.viper007bond.com/wordpress-plugins/jquery-lightbox-for-native-galleries/ -->
<script type="text/javascript">
// <![CDATA[
	jQuery(document).ready(function($){
		$(".gallery").each(function(index, obj){
			var galleryid = Math.floor(Math.random()*10000);
			$(obj).find("a").colorbox({rel:galleryid, maxWidth:"95%", maxHeight:"95%"});
		});
		$("a.lightbox").colorbox({maxWidth:"95%", maxHeight:"95%"});
	});
// ]]>
</script>
<style id="custom-background-css" type="text/css">
body.custom-background { background-color: #96bf0d; background-image: url("https://auskalo.net/wp-content/uploads/2013/01/Web.png"); background-position: left top; background-size: auto; background-repeat: repeat-x; background-attachment: fixed; }
</style>
</head>
<body class="error404 custom-background">
<div class="clearfix" id="wrap">
<header class="clearfix" id="masterhead">
<div id="logo">
<a href="https://auskalo.net/" title="Auskalo"><img alt="Auskalo" src="http://auskalo.net/wp-content/uploads/2013/01/auskalo_logo-hor1.png"/></a>
</div>
<!-- END logo -->
<nav class="clearfix" id="masternav">
<div class="menu-menu-1-container"><ul class="sf-menu" id="menu-menu-1"><li class="menu-item menu-item-type-post_type menu-item-object-page menu-item-7" id="menu-item-7"><a href="https://auskalo.net/zer-da-hau/">Zer da hau?</a></li>
<li class="menu-item menu-item-type-post_type menu-item-object-page menu-item-25" id="menu-item-25"><a href="https://auskalo.net/erabilpena/">Erabilpena</a></li>
<li class="menu-item menu-item-type-post_type menu-item-object-page menu-item-23" id="menu-item-23"><a href="https://auskalo.net/pantailak/">Pantailak</a></li>
<li class="menu-item menu-item-type-post_type menu-item-object-page menu-item-24" id="menu-item-24"><a href="https://auskalo.net/jaitsi/">Jaitsi</a></li>
<li class="menu-item menu-item-type-post_type menu-item-object-page menu-item-22" id="menu-item-22"><a href="https://auskalo.net/honi-buruz/">Honi Buruz</a></li>
</ul></div> </nav>
<!-- /masternav -->
</header><!-- /masterhead -->
<div class="clearfix" id="main">
<header id="page-heading">
<h1 class="page-title">404 Error</h1>
</header>
<!-- END page-heading -->
<div class="post clearfix">
<div class="entry clearfix">
<p>Sorry, the page you were looking for could not be found..</p>
</div><!-- END entry -->
</div>
<!-- END post -->
<aside class="clearfix" id="sidebar">
</aside>
<!-- /sidebar --></div>
<!-- /main -->
<div class="clearfix" id="footer">
<div class="clearfix" id="footer-widget-wrap">
<div id="footer-one">
<div class="footer-widget clearfix"><h4>Menu</h4> <ul>
<li class="page_item page-item-4"><a href="https://auskalo.net/zer-da-hau/">Zer da hau?</a></li>
<li class="page_item page-item-8"><a href="https://auskalo.net/erabilpena/">Erabilpena</a></li>
<li class="page_item page-item-12"><a href="https://auskalo.net/pantailak/">Pantailak</a></li>
<li class="page_item page-item-10"><a href="https://auskalo.net/jaitsi/">Jaitsi</a></li>
<li class="page_item page-item-14"><a href="https://auskalo.net/honi-buruz/">Honi Buruz</a></li>
<li class="page_item page-item-258"><a href="https://auskalo.net/kontaktua-2/">Kontaktua</a></li>
</ul>
</div> </div>
<!-- /footer-one -->
<div id="footer-two">
<div class="footer-widget clearfix"><h4>Beste proiektu batzuk</h4> <div class="textwidget"><a href="http://www.ikasitz.net">Ikasitz</a><br/>
<a href="http://www.mintzatu.com">Mintzatu</a><br/>
<a href="http://www.bandabeat.com">Banda Beat</a><br/>
</div>
</div> </div>
<!-- /footer-two -->
<div id="footer-three">
<div class="footer-widget clearfix"><h4>Kontaktua</h4> <div class="textwidget"><b> IRONTEC S.L. </b><br/>
[ info@irontec.com] <br/>
[ 94.404.81.82 ]<br/>
[ Ribera de Axpe 11, A - 116 ]<br/>
[ 48950 - Erandio - Bilbao - Bizkaia ]<br/>
</div>
</div> </div>
<!-- /footer-three -->
<div id="footer-four">
<div class="footer-widget clearfix"><h4>Garatzaileak</h4> <div class="textwidget"><a href="http://www.irontec.com"><img alt="Irontec: Internet y Sistemas sobre GNU / Linux" src="http://auskalo.net/wp-content/uploads/2013/01/irontec_pie.png"/></a><br/><br/>
<a href="http://github.com/irontec/Auskalo"><img src="http://ikasitz.net/wp-content/uploads/2013/01/github_logo_pie.png"/></a></div>
</div> </div>
<!-- /footer-four -->
</div>
<!-- /footer-widget-wrap -->
<div class="clearfix" id="footer-bottom">
<div id="copyright">
                © 2021  Auskalo            </div>
<!-- /copyright -->
<div id="back-to-top">
<a href="#toplink">back up ↑</a>
</div>
<!-- /back-to-top -->
</div>
<!-- /footer-bottom -->
</div>
<!-- /footer -->
</div>
<!-- wrap -->
<!-- WP Footer -->
<div id="cookie-law-info-bar"><span>Gure webgunean, gure cookieak eta hirugarrenenak erabiltzen ditugu, berriro bisitatzen gaituzunean zerbitzu hobea emateko. Gure webgunean nabigatuz gero, haiek erabiltzea onartzen ari zara. <a class="medium cli-plugin-button cli-plugin-main-button" href="#" id="cookie_action_close_header">Onartu</a></span></div><div id="cookie-law-info-again"><span id="cookie_hdr_showagain">Política de Cookies</span></div>
<script type="text/javascript">
			//<![CDATA[
			jQuery(document).ready(function() {
				cli_show_cookiebar({
					settings: '{"animate_speed_hide":"500","animate_speed_show":"500","background":"#fff","border":"#444","border_on":true,"button_1_button_colour":"#000","button_1_button_hover":"#000000","button_1_link_colour":"#fff","button_1_as_button":true,"button_2_button_colour":"#333","button_2_button_hover":"#292929","button_2_link_colour":"#444","button_2_as_button":false,"font_family":"inherit","header_fix":false,"notify_animate_hide":true,"notify_animate_show":false,"notify_div_id":"#cookie-law-info-bar","notify_position_horizontal":"right","notify_position_vertical":"bottom","scroll_close":false,"scroll_close_reload":false,"showagain_tab":true,"showagain_background":"#fff","showagain_border":"#000","showagain_div_id":"#cookie-law-info-again","showagain_x_position":"100px","text":"#000","show_once_yn":false,"show_once":"10000"}'
				});
			});
			//]]>
		</script>
<script src="https://auskalo.net/wp-includes/js/hoverIntent.min.js?ver=1.8.1" type="text/javascript"></script>
<script src="https://auskalo.net/wp-includes/js/wp-embed.min.js?ver=4.8.15" type="text/javascript"></script>
<!-- Start Of Script Generated By cforms v14.6 [Oliver Seidel | www.deliciousdays.com] -->
<!-- End Of Script Generated By cforms -->
</body>
</html>