<?xml version="1.0" encoding="UTF-8"?><!DOCTYPE html PUBLIC "-//W3C//DTD XHTML 1.0 Strict//EN" "http://www.w3.org/TR/xhtml1/DTD/xhtml1-strict.dtd">
<html lang="en" xml:lang="en" xmlns="http://www.w3.org/1999/xhtml">
<head>
<title>Object not found!</title>
<link href="mailto:webmaster@zdobnice.eu" rev="made"/>
<style type="text/css"><!--/*--><![CDATA[/*><!--*/ 
    body { color: #000000; background-color: #FFFFFF; }
    a:link { color: #0000CC; }
    p, address {margin-left: 3em;}
    span {font-size: smaller;}
/*]]>*/--></style>
</head>
<body>
<h1>Object not found!</h1>
<p>


    The requested URL was not found on this server.

  

    If you entered the URL manually please check your
    spelling and try again.

  

</p>
<p>
If you think this is a server error, please contact
the <a href="mailto:webmaster@zdobnice.eu">webmaster</a>.

</p>
<h2>Error 404</h2>
<address>
<a href="/">www.zdobnice.eu</a><br/>
<span>Apache/2.4.38 (Debian)</span>
</address>
</body>
</html>
