<html><head>
<title>Access Denied</title>
</head><body>
<h1>Access Denied</h1>
 
You don't have permission to access "http://www.autobytel.com/" on this server.<p>
Reference #18.2d312b17.1610594649.610e80d
</p></body>
</html>
