<html><head>
<meta charset="utf-8"/>
<meta content="width=device-width, initial-scale=1" name="viewport"/>
<title>Знай · бай</title>
<link href="/favicon.ico" rel="shortcut icon" type="image/x-icon"/>
<link href="/favicon.ico" rel="icon" type="image/x-icon"/>
<meta content="Единая образовательная сеть. Система школьного питания." property="og:title"/>
<meta content="Знай.бай — единая образовательная сеть, которая делает образование в Беларуси эффективным и доступным! iPay - система школьного питания." property="og:description"/>
<meta content="https://znaj.by" property="og:url"/>
<meta content="/images/og-image.png" property="og:image"/>
<link href="/Content/css?v=Hk--OH0YJNL96DOjOmfw2c3nvksOHYl4lDW6XG8Lxfk1" rel="stylesheet"/>
<!-- Yandex.Metrika counter -->
<script type="text/javascript">
    // New:
    (function(m, e, t, r, i, k, a) {
        m[i] = m[i] || function() { (m[i].a = m[i].a || []).push(arguments) };
        m[i].l = 1 * new Date();
        k = e.createElement(t), a = e.getElementsByTagName(t)[0], k.async = 1, k.src = r, a.parentNode
            .insertBefore(k, a);
    })(window, document, "script", "https://mc.yandex.ru/metrika/tag.js", "ym");

    ym(45886587,
        "init",
        {
            clickmap: true,
            trackLinks: true,
            accurateTrackBounce: true,
            webvisor: true
        });

    // Old:
    /*
    (function (d, w, c) {
        (w[c] = w[c] || []).push(function() {
            try {
                w.yaCounter45886587 = new Ya.Metrika({
                    id:45886587,
                    clickmap:true,
                    trackLinks:true,
                    accurateTrackBounce:true
                });
            } catch(e) { }
        });

        var n = d.getElementsByTagName("script")[0],
            s = d.createElement("script"),
            f = function () { n.parentNode.insertBefore(s, n); };
        s.type = "text/javascript";
        s.async = true;
        s.src = "https://mc.yandex.ru/metrika/watch.js";

        if (w.opera == "[object Opera]") {
            d.addEventListener("DOMContentLoaded", f, false);
        } else { f(); }
    })(document, window, "yandex_metrika_callbacks");
    */
</script>
<noscript><div><img alt="" src="https://mc.yandex.ru/watch/45886587" style="position:absolute; left:-9999px;"/></div></noscript>
<!-- /Yandex.Metrika counter --><script>
  (function(i,s,o,g,r,a,m){i['GoogleAnalyticsObject']=r;i[r]=i[r]||function(){
  (i[r].q=i[r].q||[]).push(arguments)},i[r].l=1*new Date();a=s.createElement(o),
  m=s.getElementsByTagName(o)[0];a.async=1;a.src=g;m.parentNode.insertBefore(a,m)
  })(window,document,'script','https://www.google-analytics.com/analytics.js','ga');

  ga('create', 'UA-105719026-1', 'auto');
  ga('send', 'pageview');

</script>
<script crossorigin="anonymous" src="https://yastatic.net/pcode/adfox/loader.js"></script>
<script async="" src="https://securepubads.g.doubleclick.net/tag/js/gpt.js"></script>
<script>
        window.googletag = window.googletag || {cmd: []};
        googletag.cmd.push(function() {
            googletag.defineSlot('/21857590943/znaj.by/znaj_by_240x400_home', [240, 400], 'div-gpt-ad-1603960819634-0').addService(googletag.pubads());
            googletag.pubads().enableSingleRequest();
            googletag.enableServices();
        });
    </script>
</head>
<body>
<script>
    window.Eds = window.Eds || {};
    window.Eds.IsMobilePhoneDevice = window.Eds.IsMobilePhoneDevice ||
        function() {
            var maxWidth = 768;
            var maxHeight = 600;

            if (window.innerWidth < window.innerHeight) {
                maxWidth = 600;
                maxHeight = 768;
            }

            if ((navigator.userAgent.match(/Android/i) ||
                navigator.userAgent.match(/webOS/i) ||
                navigator.userAgent.match(/iPhone/i) ||
                navigator.userAgent.match(/iPad/i) ||
                navigator.userAgent.match(/iPod/i) ||
                navigator.userAgent.match(/BlackBerry/i) ||
                navigator.userAgent.match(/Windows Phone/i)) &&
                ((window.innerWidth < maxWidth) || (window.innerHeight < maxHeight))
            ) {
                return true;
            } else {
                return false;
            }
        };

    window.Eds.IsMobileTabletDevice = window.Eds.IsMobileTabletDevice ||
        function() {
            var maxWidth = 768;
            var maxHeight = 600;

            if (window.innerWidth < window.innerHeight) {
                maxWidth = 600;
                maxHeight = 768;
            }

            if ((navigator.userAgent.match(/Android/i) ||
                navigator.userAgent.match(/webOS/i) ||
                navigator.userAgent.match(/iPhone/i) ||
                navigator.userAgent.match(/iPad/i) ||
                navigator.userAgent.match(/iPod/i) ||
                navigator.userAgent.match(/BlackBerry/i) ||
                navigator.userAgent.match(/Windows Phone/i)) &&
                ((window.innerWidth >= maxWidth) && (window.innerHeight >= maxHeight))
            ) {
                return true;
            } else {
                return false;
            }
        };
</script> <div id="adfox_157165791970366742"></div>
<script>
        if ((window.Eds.IsMobilePhoneDevice && window.Eds.IsMobilePhoneDevice()) || (window.Eds.IsMobileTabletDevice && window.Eds.IsMobileTabletDevice())) {
            window.Ya.adfoxCode.createAdaptive({
                    ownerId: 239538,
                    containerId: 'adfox_157165791970366742',
                    params: {
                        p1: 'chkxa',
                        p2: 'glxn'
                    }
                },
                ['phone'],
                {
                    tabletWidth: 1025,
                    phoneWidth: 769,
                    isAutoReloads: false
                });
        } else {
            document.getElementById('adfox_157165791970366742').style.display = 'none';
        }
    </script>
<script src="/bundles/main?v=_UQstoxSJSo3Rb4C27ijeJ_Tj4XVm34wy551DVvKwkM1"></script>
<div class="welcome-page__wrapper">
<div class="welcome-page">
<!--------->
<div class="header">
<div class="main-menu-container">
<img alt="Знай•бай" class="logo" src="/images/znaj-logo-white-1.svg"/>
<ul class="main-menu-submenu main-navigation menu-level-1">
<li class="drop">
<a>
                            О платформе
                            <div class="ico-arrow"></div>
</a>
<ul class="drop-list">
<li>
<a href="#index-content">Описание</a>
</li>
<li>
<a href="#mobile-app-content">Мобильное приложение</a>
</li>
<li>
<a href="#diary-journal-content">Электронные дневники и журналы</a>
</li>
<li>
<a href="#diary-journal-content">Электронные учебные пособия</a>
</li>
<li>
<a href="#diary-journal-content">Электронные платежи</a>
</li>
</ul>
</li>
<li data-id="">
<a href="#tariff-content">Тарифы</a>
</li>
<li class="drop">
<a>
                            Демоверсия
                            <div class="ico-arrow"></div>
</a>
<ul class="drop-list">
<li>
<a href="/Demo/Journal">Журнал класса</a>
</li>
<li>
<a href="/Demo/LessonTimeTable?yearStart=2014">Расписание класса</a>
</li>
<li>
<a href="/Demo/TeacherSchedules?yearStart=2014">Расписание учителей</a>
</li>
<li>
<a href="/Demo/PupilDiary">Дневник</a>
</li>
<li>
<a href="/Demo/PupilJournal">Журнал ученика</a>
</li>
<li>
<a href="/Demo/PupilObservation">Наблюдение</a>
</li>
<li>
<a href="/Demo/PupilForecasting">Прогнозирование</a>
</li>
</ul>
</li>
<li class="drop">
<a>
                            Для школы
                            <div class="ico-arrow"></div>
</a>
<ul class="drop-list">
<li>
<a href="/Home/AddSchool" onclick="yaCounter45886587.reachGoal('metricAddSchool');return true;">Подключение</a>
</li>
<li>
<a href="https://www.youtube.com/channel/UC5FOgTCsICFeUlzzR54BQTQ/videos" onclick="yaCounter45886587.reachGoal('metricYoutubeBanner');return true;" target="_blank">Обучение</a>
</li>
<li>
<a href="/Home/Documents">Документы</a>
</li>
<li>
<a href="/Home/WriteDeveloper">Помощь</a>
</li>
</ul>
</li>
</ul>
</div>
</div>
<!--------->
<div class="welcome-page__row">
<div class="welcome-page__col">
<div class="welcome-page__col-container">
<h1>Единая платформа электронных сервисов для образования</h1>
<div class="connect-school">
<div class="feature-00">
<a href="/Home/AddSchool" onclick="yaCounter45886587.reachGoal('metricAddSchool');return true;">Подключить школу</a>
</div>
</div>
<div class="with-dots-svg"></div>
</div>
</div>
<div class="welcome-page__col">
<span class="Anchor" id="login-content"></span>
<div class="block-login">
<div class="block-login__top">
<div class="title">Вход в систему Знай•бай</div>
<form class="form" id="auth-form">
<div class="form__field">
<label>Имя пользователя</label>
<input name="UserName" placeholder="Введите логин" type="text"/>
</div>
<div class="form__field">
<label>Пароль</label>
<div class="password-container">
<input name="Password" placeholder="Введите пароль" type="password"/>
<i class="material-icons" onclick="tooglePasswordVisibility(this)">visibility</i>
</div>
</div>
<div class="cs-loader" id="cs-loader">
<div class="cs-loader-inner">
<label>●</label>
<label>●</label>
<label>●</label>
<label>●</label>
<label>●</label>
<label>●</label>
</div>
</div>
<div class="form__message" id="auth-result"></div>
<div class="form__bottom">
<div class="form__bottom-col">
<div class="form__toggle" id="toggle-restore-form">Забыли пароль?</div>
</div>
<div class="form__bottom-col">
<button class="btn" type="submit">Войти</button>
</div>
</div>
</form>
<form class="form" id="restore-form" style="display: none">
<div class="form__field">
<label>Имя пользователя</label>
<input name="Login" placeholder="Введите логин" type="text"/>
</div>
<div class="form__field">
<label>Телефон</label>
<input id="phoneNumberForRestore" name="PhoneNumber" placeholder="375 (__) ___-__-__" type="text"/>
</div>
<div class="form__field">
<label>Электронная почта</label>
<input name="Email" placeholder="Введите почту" type="text"/>
</div>
<div class="cs-loader" id="cs-loader">
<div class="cs-loader-inner">
<label>●</label>
<label>●</label>
<label>●</label>
<label>●</label>
<label>●</label>
<label>●</label>
</div>
</div>
<div class="form__message" id="restore-result"></div>
<div class="form__bottom">
<div class="form__bottom-col">
<div class="form__toggle" id="toggle-auth-form">Войти</div>
</div>
<div class="form__bottom-col">
<button class="btn" id="form-btn-reset" type="submit">Восстановить</button>
</div>
</div>
</form>
<form class="form" id="change-login-form" style="display: none">
<div class="form__field">
<label>Логин</label>
<input maxlength="30" name="NewLogin" placeholder="Введите логин" type="text"/>
</div>
<div class="cs-loader" id="cs-loader">
<div class="cs-loader-inner">
<label>●</label>
<label>●</label>
<label>●</label>
<label>●</label>
<label>●</label>
<label>●</label>
</div>
</div>
<div class="form__message" id="change-login-result">Укажите удобный для Вас логин</div>
<div class="form__bottom">
<div class="form__bottom-col">
<button class="btn" type="submit">Восстановить</button>
</div>
</div>
</form>
<form class="form" id="change-password-form" style="display: none">
<div class="form__field">
<label>Новый пароль</label>
<input maxlength="30" minlength="6" name="NewPassword" placeholder="Новый пароль" type="password"/>
</div>
<div class="form__field">
<label>Подтверждение пароля</label>
<input maxlength="30" minlength="6" name="PasswordConfirm" placeholder="Новый пароль (подтверждение)" type="password"/>
</div>
<div class="form__field">
<label>Сеансовый пароль</label>
<input maxlength="4" minlength="4" name="SessionPassword" placeholder="Сеансовый пароль" type="password"/>
</div>
<div class="cs-loader" id="cs-loader">
<div class="cs-loader-inner">
<label>●</label>
<label>●</label>
<label>●</label>
<label>●</label>
<label>●</label>
<label>●</label>
</div>
</div>
<div class="form__message" id="change-password-result"></div>
<div class="form__bottom">
<div class="form__bottom-col">
<button class="btn" type="submit">Выполнить</button>
</div>
</div>
</form>
<div class="form__or">
<span>или</span>
</div>
<div class="form__bottom-phone">
<a href="javascript:void(0)" id="mobileConnectPopupOpen" onclick="showPopup(this, 'popupMobileConnect');">
                    Войти по номеру телефона
                </a>
</div>
</div>
<div class="block-login__bottom">
<div class="registration">
<a href="/Account/Register">Регистрация</a>
</div>
</div>
</div>
<script>
        $(document).ready(function () {
            //может имеет смысл чекать куку? для показа сразу нужной формы?
            var $phoneNumberInput = $("#phoneNumberForRestore");
            $phoneNumberInput.inputmask({ "mask": "375 (99) 999-99-99" });
        });

        $('#toggle-restore-form').click(function () {
            $('#auth-form').hide();
            $('#restore-form').show();
        });

        $('#toggle-auth-form').click(function () {
            $('#restore-form').hide();
            $('#auth-form').show();
        });

        function toggleChangePasswordForm() {
            
            $('#auth-form').hide();
            $('#change-password-form').show();
        }

        function toggleChangeLoginForm() {
            
            $('#restore-form').hide();
            $('#change-login-form').show();
        }

        function toggleAuthForm() {
            
            $('#change-login-form').hide();
            $('#auth-form').show();
        }

        //вход
        $("#auth-form").submit(function (event) {
            event.preventDefault();
            $("#cs-loader").show();
            var message = $("#auth-result")[0];

            message.innerText = "";

            var url = "/Account/LogOnInternalWithIpay";

            var userName = $("[name='UserName']").val();
            var password = $("[name='Password']").val();

            if (userName == "" || password == "") {
                message.innerText = "Укажите логин и пароль";
                $("#cs-loader").hide();
                return false;
            }

            var data = {
                UserName: userName,
                Password: password
            };

            $.post(url, data)
                .done(function (response) {
                    
                    if (response && !response.ErrorMessages) {
                        
                        if (response.Message) {
                            toggleChangePasswordForm();
                            
                            showPopupHTML(null,
                                "<p>" + response.Message + "</p>",
                                {
                                    name: "Необходима смена пароля",
                                    width: 500
                                });
                        } else {
                            window.location.reload();
                        }
                    } else {
                        if (response.ErrorMessages) {
                            message.innerText = response.ErrorMessages;
                        } else {
                            message.innerText = "Неверный логин или пароль";
                        }
                    }
                }).fail(function () {

                }).always(function () {
                    $("#cs-loader").hide();
                });
        });

        //восстановление пароля
        $("#restore-form").submit(function (event) {
            event.preventDefault();
            $("#cs-loader").show();
            var message = $("#restore-result")[0];
            var button = $("#form-btn-reset")[0];

            message.innerText = "";

            const login = $("[name='Login']").val();
            const phone = $("[name='PhoneNumber']").val().replace(/[- \(\)]+/g, "");
            const email = $("[name='Email']").val();

            if (login == "") {
                message.innerText = "Введите логин";
                $("#cs-loader").hide();
                return false;
            }

            if (!phone && !email) {
                message.innerText = "Телефон и/или e-mail должен быть задан";
                $("#cs-loader").hide();
                return false;
            }

            /*if (isInvalidPhoneNumber(phone)) {
                message.innerText = "Формат введенного номера некорректный.";
                return false;
            }*/

            var url = "/Account/ResetIpayPassword";
            var data = {
                Login: login,
                PhoneNumber: phone,
                Email: email
            };

            $.post(url, data)
                .done(function (response) {
                    
                    if (response && !response.ErrorMessages) {
                        button.classList.add('inactive');
                        if (response.Message && response.Message == "Необходимо задать логин") {
                            toggleChangeLoginForm();
                        } 
                        else {
                            message.innerText = response.Message;
                        }
                    } else {
                        if (response.ErrorMessages) {
                            message.innerText = response.ErrorMessages;
                        } else {
                            message.innerText = "Ошибка. Обратитесь в службу технической поддержки.";
                        }
                    }
                }).fail(function () {

                }).always(function () {
                    $("#cs-loader").hide();
                });
        });

        function isInvalidPhoneNumber(phoneNumber) {
            return !phoneNumber ||
                phoneNumber.length !== 12 ||
                phoneNumber.lastIndexOf("375", 0) !== 0 || // startsWith 375
                !/^\d+$/.test(phoneNumber); // contains only digits
        }

        //изменение логина
        $("#change-login-form").submit(function (event) {
            event.preventDefault();
            $("#cs-loader").show();
            var message = $("#change-login-result")[0];

            message.innerText = "";

            const newLogin = $("[name='NewLogin']").val();

            if (!newLogin) {
                $("#cs-loader").hide();
                return false;
            }

            var url = "/Account/ChangeIpayLogin";
            var data = {
                newLogin: newLogin
            };

            $.post(url, data)
                .done(function (response) {
                    
                    if (response && !response.ErrorMessages) {
                        toggleAuthForm();

                        showPopupHTML(null,
                            "<p>" + response.Message + ". Воспользуйтесь формой входа." + "</p>",
                            {
                                name: "Смена логина",
                                width: 500
                            });
                    } 
                    else 
                    {
                        if (response.ErrorMessages) {
                            message.innerText = response.ErrorMessages;
                        } else {
                            message.innerText = "Ошибка. Обратитесь в службу технической поддержки.";
                        }
                    }
                }).fail(function () {

                }).always(function () {
                    $("#cs-loader").hide();
                });
        });

        //изменение пароля
        $("#change-password-form").submit(function (event) {
            event.preventDefault();
            $("#cs-loader").show();
            var message = $("#change-password-result")[0];

            message.innerText = "";

            //можно проверять куки до отправки на бэк??

            const newPassword = $("[name='NewPassword']").val();
            const passwordConfirm = $("[name='PasswordConfirm']").val();
            const sessionPassword = $("[name='SessionPassword']").val();

            if (newPassword == "" || passwordConfirm == "" || sessionPassword == "") {
                $("#cs-loader").hide();
                return false;
            }

            if (newPassword != passwordConfirm) {
                message.innerText = "Пароли должны совпадать";
                $("#cs-loader").hide();
                return false;
            }

            var url = "/Account/ChangeIpayPassword";
            var data = {
                Password: newPassword,
                SessionPassword: sessionPassword
            };

            $.post(url, data)
                .done(function (response) {
                    
                    if (response && !response.ErrorMessages) {
                        //удалить куки

                        window.location.reload();
                    } else {
                        if (response.ErrorMessages) {
                            message.innerText = response.ErrorMessages;
                        } else {
                            message.innerText = "Ошибка. Обратитесь в службу технической поддержки.";
                        }
                    }
                }).fail(function () {

                }).always(function () {
                    $("#cs-loader").hide();
                });
        });
    </script>
</div>
</div>
<div class="scroll-down">
<a href="#index-content">
<img alt="" src="/images/scroll-down.svg"/>
</a>
</div>
<!--<div class="with-dots color-white"></div>-->
</div>
</div>
<div class="index-content__wrapper">
<section class="container_clear">
<span class="Anchor" id="index-content"></span>
<header class="index-header">
<div class="main-menu-container">
<div class="header-aside-button">
<div class="logo-icon"></div>
</div>
</div>
<aside>
<div class="close-button" title="Закрыть"></div>
<div class="return-button"><b>Сервисы</b>
</div>
<a class="aside-logo" href="https://znaj.by">
<img src="/images/znaj-logo-white-1.svg"/>
</a>
<div class="aside-container">
<div class="active-container">
<div class="aside-bottom-panel">
<a class="btn btn-white" data-id="login" href="#login-content">
<span>Войти</span>
</a>
<a class="btn btn-white-border" data-id="" href="https://znaj.by/Account/Register">
<span>Регистрация</span>
</a>
</div>
<ul class="main-menu-submenu main-navigation menu-level-1">
<li class="drop">
<a>Журнал</a>
<ul class="drop-list">
<div class="drop-list-head">
                        Журнал
                    </div>
<li>
<a href="https://znaj.by/Demo/DemoJournal?i=1&amp;es=2014">
                            Интерфейс 1
                            <div class="arrow"></div>
</a>
</li>
<li>
<a href="https://znaj.by/Demo/DemoJournal?i=2&amp;es=2014">
                            Интерфейс 2
                            <div class="arrow"></div>
</a>
</li>
<li>
<a href="https://znaj.by/Demo/DemoJournal?i=3&amp;es=2014">
                            Интерфейс 3
                            <div class="arrow"></div>
</a>
</li>
<li>
<a href="https://znaj.by/Demo/DemoJournal?i=4&amp;es=2014">
                            Интерфейс 4
                            <div class="arrow"></div>
</a>
</li>
</ul>
</li>
<li class="drop">
<a>Учебный процесс</a>
<ul class="drop-list">
<div class="drop-list-head">
                        Учебный процесс
                    </div>
<li>
<a href="https://znaj.by/Demo/PupilDiary?yearStart=2014">
                            Дневник
                            <div class="arrow"></div>
</a>
</li>
<li>
<a href="https://znaj.by/Demo/Journal">
                            Журнал
                            <div class="arrow"></div>
</a>
</li>
<li>
<a href="https://znaj.by/Demo/PupilJournal">
                            Успеваемость
                            <div class="arrow"></div>
</a>
</li>
<li>
<a href="https://znaj.by/Demo/LessonTimeTable?yearStart=2014">
                            Расписание занятий
                            <div class="arrow"></div>
</a>
</li>
<li>
<a href="https://znaj.by/Demo/TeacherSchedules?yearStart=2014">
                            Расписание учителей
                            <div class="arrow"></div>
</a>
</li>
<li>
<a href="https://znaj.by/Demo/LessonsSubjects?schoolId=demo&amp;yearStart=2014">
                            Темы
                            <div class="arrow"></div>
</a>
</li>
</ul>
</li>
<li class="drop">
<a>Статистика</a>
<ul class="drop-list">
<div class="drop-list-head">
                        Статистика
                    </div>
<li>
<a href="https://znaj.by/Demo/Rating?schoolId=demo&amp;yearStart=2014">
                            Рейтинги
                            <div class="arrow"></div>
</a>
</li>
<li>
<a href="https://znaj.by/Demo/Rewards?yearStart=2014">
                            Информация
                            <div class="arrow"></div>
</a>
</li>
<li>
<a href="https://znaj.by/Demo/Charts">
                            Графики
                            <div class="arrow"></div>
</a>
</li>
<li>
<a href="https://znaj.by/Demo/ReportChoise?yearStart=2014">
                            Отчеты
                            <div class="arrow"></div>
</a>
</li>
<li>
<a href="https://znaj.by/Demo/PupilObservation">
                                Наблюдение учащегося
                                <div class="arrow"></div>
</a>
</li>
<li>
<a href="https://znaj.by/Demo/PupilForecasting">
                                Прогнозирование
                                <div class="arrow"></div>
</a>
</li>
<li data-id="support">
<a href="https://znaj.by/Home/WriteDeveloper">
                            Техподдержка
                            <div class="arrow"></div>
</a>
</li>
</ul>
</li>
<li class="drop" data-id="documents">
<a>Документы</a>
<ul class="drop-list">
<div class="drop-list-head">
                        Документы
                    </div>
<li data-id="giacDocuments">
<a href="https://znaj.by/Home/GIACDocuments">
                            Разрешения ГИАЦ
                            <div class="arrow"></div>
</a>
</li>
<li data-id="certificate">
<a href="https://znaj.by/Home/Certificate">
                            Аттестат соответствия
                            <div class="arrow"></div>
</a>
</li>
<li data-id="becloud">
<a href="https://znaj.by/Home/BeCloud">
                            Договор с BeCloud
                            <div class="arrow"></div>
</a>
</li>
<li data-id="certificateOfStateRegistration">
<a href="https://znaj.by/Home/CertificateOfStateRegistration">
                            Сертификат
                            <div class="arrow"></div>
</a>
</li>
<li data-id="contract">
<a href="https://znaj.by/Home/Contract">
                            Договор оказания информационных услуг
                            <div class="arrow"></div>
</a>
</li>
<li data-id="agreement">
<a href="https://znaj.by/Home/UserContract">
                            Пользовательсое соглашение
                            <div class="arrow"></div>
</a>
</li>
<li data-id="privacyPolicy">
<a href="https://znaj.by/Home/PrivacyPolicy">
                            Политика конфиденциальности
                            <div class="arrow"></div>
</a>
</li>
<li data-id="gratitude">
<a href="https://znaj.by/Home/Gratitude">
                            Выражение благодарности
                            <div class="arrow"></div>
</a>
</li>
</ul>
</li>
<li class="drop" data-id="help">
<a>Помощь</a>
<ul class="drop-list">
<div class="drop-list-head">
                        Помощь
                    </div>
<li data-id="manual">
<a href="https://znaj.by/Home/Help">
                            Руководство пользователя
                            <div class="arrow"></div>
</a>
</li>
<li data-id="support">
<a href="https://znaj.by/Home/WriteDeveloper">
                            Техподдержка
                            <div class="arrow"></div>
</a>
</li>
<li data-id="returnpayment">
<a href="https://znaj.by/Home/ReturnPayment">
                            Возврат платежа
                            <div class="arrow"></div>
</a>
</li>
</ul>
</li>
<li data-id="contacts"><a href="https://znaj.by/Home/Contacts">Контакты</a></li>
<li data-id="how-to-pay"><a href="https://znaj.by/Account/HowToPay">Оплата Знай.бай</a></li>
<li data-id="how-to-pay-ipay"><a href="https://znaj.by/Account/HowToPayFoodIPay">Оплата питания iPay</a></li>
<li data-id="account-services"><a href="https://znaj.by/Home/PremiumAccess">Премиум-доступ</a></li>
<li data-id="webinar-schedule"><a href="https://znaj.by/Home/WebinarSchedule">Расписание вебинаров</a></li>
</ul>
</div>
</div>
<div style="margin: auto;">
<div style="margin: 10px;">
<script>
    window.Eds = window.Eds || {};
    window.Eds.IsMobilePhoneDevice = window.Eds.IsMobilePhoneDevice ||
        function() {
            var maxWidth = 768;
            var maxHeight = 600;

            if (window.innerWidth < window.innerHeight) {
                maxWidth = 600;
                maxHeight = 768;
            }

            if ((navigator.userAgent.match(/Android/i) ||
                navigator.userAgent.match(/webOS/i) ||
                navigator.userAgent.match(/iPhone/i) ||
                navigator.userAgent.match(/iPad/i) ||
                navigator.userAgent.match(/iPod/i) ||
                navigator.userAgent.match(/BlackBerry/i) ||
                navigator.userAgent.match(/Windows Phone/i)) &&
                ((window.innerWidth < maxWidth) || (window.innerHeight < maxHeight))
            ) {
                return true;
            } else {
                return false;
            }
        };

    window.Eds.IsMobileTabletDevice = window.Eds.IsMobileTabletDevice ||
        function() {
            var maxWidth = 768;
            var maxHeight = 600;

            if (window.innerWidth < window.innerHeight) {
                maxWidth = 600;
                maxHeight = 768;
            }

            if ((navigator.userAgent.match(/Android/i) ||
                navigator.userAgent.match(/webOS/i) ||
                navigator.userAgent.match(/iPhone/i) ||
                navigator.userAgent.match(/iPad/i) ||
                navigator.userAgent.match(/iPod/i) ||
                navigator.userAgent.match(/BlackBerry/i) ||
                navigator.userAgent.match(/Windows Phone/i)) &&
                ((window.innerWidth >= maxWidth) && (window.innerHeight >= maxHeight))
            ) {
                return true;
            } else {
                return false;
            }
        };
</script>
<br/>
<div id="div-gpt-ad-1603960819634-0" style="width: 240px; height: 400px;">
<script>
        if ((window.Eds.IsMobilePhoneDevice && !window.Eds.IsMobilePhoneDevice()) && (window.Eds.IsMobileTabletDevice && !window.Eds.IsMobileTabletDevice())) {
            googletag.cmd.push(function() { googletag.display('div-gpt-ad-1603960819634-0'); });
        } else {
            document.getElementById('div-gpt-ad-1603960819634-0').style.display = 'none';
        }
    </script>
</div>
</div>
</div>
<ul class="menu-bullet">
<li data-id="webinar-schedule">
<a href="https://znaj.by/Home/WebinarSchedule">Расписание вебинаров</a>
</li>
<li data-id="account-services">
<a href="https://znaj.by/Home/PremiumAccess">Премиум-доступ</a>
</li>
<li data-id="documents">
<a href="https://znaj.by/Home/Documents">Документы</a>
</li>
<li data-id="help">
<a href="https://znaj.by/Home/WriteDeveloper">Помощь</a>
</li>
<li data-id="contacts">
<a href="https://znaj.by/Home/Contacts">Контакты</a>
</li>
<li data-id="how-to-pay">
<a href="https://znaj.by/Account/HowToPay">Оплата Знай.бай</a>
</li>
<li data-id="how-to-pay-ipay">
<a href="https://znaj.by/Account/HowToPayFoodIPay">Оплата питания iPay</a>
</li>
</ul>
<div class="aside-banners__wrapper">
<div class="title">Скачивай мобильное приложение Знай•бай в:</div>
<div class="aside-banners-panel">
<a href="https://bit.ly/2ZTaEOO" onclick="yaCounter45886587.reachGoal('metricGooglePlayBanner');return true;" target="_blank">
<img class="google-play-banner" height="48" src="/images/stores/Google-Play.svg" width="148"/>
</a>
<a href="https://apple.co/3hSvrbo" onclick="yaCounter45886587.reachGoal('');return true;" target="_blank">
<img class="" height="48" src="/images/stores/App-Store.svg" width="148"/>
</a>
<a href="https://bit.ly/3ch8ZaQ" onclick="yaCounter45886587.reachGoal('');return true;" target="_blank">
<img class="" height="48" src="/images/stores/AppGallery.svg" width="148"/>
</a>
</div>
<div class="title last">Следите за нами:</div>
<div class="aside-banners-panel">
<a href="https://www.youtube.com/channel/UC5FOgTCsICFeUlzzR54BQTQ/videos" onclick="yaCounter45886587.reachGoal('metricYoutubeBanner');return true;" target="_blank">
<img height="48" src="/images/stores/Youtube.svg" width="148"/>
</a>
<a href="https://bit.ly/3ccjmuM" onclick="yaCounter45886587.reachGoal('metricViberBanner');return true;" target="_blank">
<img height="48" src="/images/stores/Viber.svg" width="148"/>
</a>
</div>
</div>
</aside>
</header>
<div class="index-content">
<article>
<h2 class="first">О платформе</h2>
<p class="first">
                        Знай•бай - это единая платформа электронных сервисов для образования в Беларуси.<br/>
                        Знай•бай помогает учащимся улучшать показатели в учебе.<br/>
                        Родителям - быть в курсе того, как обстоят дела у ребенка в школе, а учителям, школам и администрации - сократить бумажную работу и
                        упростить образовательный процесс.
                    </p>
<div class="sliderNew autoSlide slider-type1">
<div class="slider-labels">
<div class="slider-label">
<span>Учащимся</span>
</div>
<div class="slider-label">
<span>Родителям</span>
</div>
<div class="slider-label">
<span>Учителям</span>
</div>
<div class="slider-label">
<span>Администрации</span>
</div>
</div>
<div class="slider-container">
<div class="slider-container__cell">
<div class="slider-images">
<img alt="Учащимся" class="active" src="/images/slider/1.svg"/>
<img alt="Родителям" src="/images/slider/2.svg"/>
<img alt="Учителям" src="/images/slider/3.svg"/>
<img alt="Администрации" src="/images/slider/4.svg"/>
</div>
</div>
<div class="slider-container__cell">
<div class="slider-slides">
<div class="slide">Учащиеся знают домашние задания, темы, актуальное расписание занятий и ничего не забывают.</div>
<div class="slide">Родители знают отметки, задания, статистику посещений и успеваемости своих детей.</div>
<div class="slide">Учителя знают информацию об учащихся, видят статистику и тенденции успеваемости.</div>
<div class="slide">Администрации школ и Министерство знают текущее состояние дел и могут реагировать оперативнее.</div>
</div>
</div>
</div>
<div class="slider-pagination"></div>
</div>
<div class="get-started-platform">
<div class="title">
                            Начать работу с платформой Знай•бай очень просто.
                            Подключение школы к платформе является бесплатным.
                            Для подключения УО нажмите на кнопку:
                        </div>
<div class="panel-bottom">
<div class="panel-bottom__cell"></div>
<div class="panel-bottom__cell">
<div class="btn">
<a href="/Home/AddSchool" onclick="yaCounter45886587.reachGoal('metricAddSchool');return true;">Подключить школу</a>
</div>
</div>
<div class="panel-bottom__cell"></div>
</div>
</div>
</article>
</div>
</section>
<section>
<span class="Anchor" id="mobile-app-content"></span>
<div class="index-content">
<article>
<h2>
                        С нами каждая вторая <br/>школа Беларуси</h2>
<div class="chart">
<div class="chart__cell">
<img src="/images/20up.svg"/>
<div>Свободное время учителя</div>
</div>
<div class="chart__cell">
<img src="/images/80down.svg"/>
<div>Пропуски без уважительной причины</div>
</div>
<div class="chart__cell">
<img src="/images/15up.svg"/>
<div>Средняя успеваемость</div>
</div>
</div>
<div class="footnote">
<span>*</span>
                        По данным собственного исследования и опроса руководителей учреждений образования Беларуси, подключенных к Платформе Знай·бай, 2019–2020.
                    </div>
<p>Мы работаем над созданием инфраструктуры обучения — от <a href="https://znaj.by/Demo/PupilDiary">электронного дневника</a> и <a href="https://znaj.by/Demo/Journal">классного журнала</a> до  системы электронного документооборота, связывающей всех участников образовательного процесса.</p>
<p>Платформа совершенствуется благодаря совместной работе с учреждениями образования и внедряется с <a href="https://znaj.by/Home/Documents">разрешения Главного информационно-аналитического центра Министерства образования</a>.</p>
<div class="block__ornament"></div>
<h2>Теперь дневник нельзя забыть дома!</h2>
<div class="block__slider-info">
<div class="block__slider-info_cell">
<div class="sliderNew autoSlide slider-type2">
<div class="slider-slides">
<div class="slide">
<img alt="" src="/images/slider/2_1.png"/>
</div>
<div class="slide">
<img alt="" src="/images/slider/2_2.png"/>
</div>
<div class="slide">
<img alt="" src="/images/slider/2_3.png"/>
</div>
<div class="slide">
<img alt="" src="/images/slider/2_5.png"/>
</div>
<div class="slide">
<img alt="" src="/images/slider/2_6.png"/>
</div>
<div class="slide">
<img alt="" src="/images/slider/2_7.png"/>
</div>
</div>
<div class="slider-pagination__container">
<div class="slider-pagination"></div>
</div>
</div>
</div>
<div class="block__slider-info_cell">
<div class="download_free">Скачивай <span>бесплатно</span> мобильное приложение Знай•бай в: </div>
<div class="stores">
<a href="https://bit.ly/2ZTaEOO" onclick="yaCounter45886587.reachGoal('metricGooglePlayBanner');return true;" target="_blank">
<img alt="" src="/images/stores/Google-Play.svg"/>
</a>
<a href="https://apple.co/3hSvrbo" onclick="yaCounter45886587.reachGoal('');return true;" target="_blank">
<img alt="" src="/images/stores/App-Store.svg"/>
</a>
<a href="https://bit.ly/3ch8ZaQ" onclick="yaCounter45886587.reachGoal('');return true;" target="_blank">
<img alt="" src="/images/stores/AppGallery.svg"/>
</a>
</div>
</div>
</div>
</article>
</div>
</section>
<section>
<span class="Anchor" id="diary-journal-content"></span>
<div class="index-content">
<article>
<h2>Знай•бай - единая платформа</h2>
<script>
                            $( function() {	
                                $("#accordion").accordion({
                                    icons: false,
                                    animate: false,
                                    heightStyle: "content"
                                });
                            });
                        </script>
<div class="horizontal-accordion-list" id="accordion">
<div class="horizontal-accordion-list__item">
<div class="item_cover">
<div class="label">
<span>Дневник и журнал</span>
</div>
</div>
</div>
<div class="horizontal-accordion-list__item-panel">
<div class="panel_top">
<div class="panel_top__row">
<div class="panel_top__cell">Дневник и журнал</div>
<div class="panel_top__cell"></div>
</div>
<div class="panel_body">
                                        Электронные аналоги стандартного дневника и классного журнала.<br/>
                                        Домашние задания, темы уроков, отметки, объявления и прочая информация обновляется незамедлительно, автоматически загружаясь из классного журнала. Параграф, указанный в домашнем задании или теме урока можно прочесть в электронных учебниках.
                                        Учитель может в автоматическом режиме создавать основные отчеты, вести журнал, выставлять отметки, отслеживать успеваемость класса, быть уверенным в информированности учащихся и родителей.
                                    </div>
</div>
<div class="panel_bottom">
<div class="panel_bottom__cell"></div>
<div class="panel_bottom__cell">
<div class="btn">
<a href="/Demo/PupilDiary?yearStart=2014" onclick="yaCounter45886587.reachGoal('metricDemoDiary'); return true;">Попробовать демо-версию</a>
</div>
</div>
</div>
</div>
<div class="horizontal-accordion-list__item">
<div class="item_cover">
<div class="label">
<span>Электронные учебные пособия</span>
</div>
</div>
</div>
<div class="horizontal-accordion-list__item-panel">
<div class="panel_top">
<div class="panel_top__row">
<div class="panel_top__cell">Электронные учебные пособия</div>
<div class="panel_top__cell"></div>
</div>
<div class="panel_body">
                                        Электронные учебники доступны онлайн на всех устройствах. К параграфу можно перейти прямо из дневника или классного журнала (ссылку прикрепляет учитель)<br/><br/>
                                        Учителю: просмотр параграфа, помощь в планировании урока, удобное выставление темы урока и домашнего задания с помощью учебников<br/><br/>
                                        Учащимся и родителям: Просмотр параграфа
                                    </div>
</div>
<div class="panel_bottom">
<div class="panel_bottom__cell"></div>
<div class="panel_bottom__cell">
<div class="btn">
<a href="/Demo/PupilDiary?yearStart=2014" onclick="yaCounter45886587.reachGoal('metricDemoDiary'); return true;">Попробовать демо-версию</a>
</div>
</div>
</div>
</div>
<div class="horizontal-accordion-list__item">
<div class="item_cover">
<div class="label">
<span>Школьные платежи</span>
</div>
</div>
</div>
<div class="horizontal-accordion-list__item-panel">
<div class="panel_top">
<div class="panel_top__row">
<div class="panel_top__cell">Школьные платежи</div>
<div class="panel_top__cell"></div>
</div>
<div class="panel_body">
                                        Прием платежей:
                                        <ul>
<li>Питание</li>
<li>Учебники</li>
<li>Кружки</li>
<li>Попечительские взносы</li>
<li>Прочие услуги учреждения образования</li>
</ul>

                                        Оплата заказа:
                                        <ul>
<li>Оплата услуг через ЕРИП</li>
<li>Банковские карты</li>
<li>Счет мобильного телефона и др</li>
</ul>
</div>
</div>
<div class="panel_bottom">
<div class="panel_bottom__cell"></div>
<div class="panel_bottom__cell"></div>
</div>
</div>
</div>
</article>
</div>
</section>
<section>
<span class="Anchor" id="tariff-content"></span>
<div class="index-content">
<article>
<h2>Тарифы</h2>
<p><a class="orange" href="/Home/AddSchool">Подключение школы</a> 
                            к платформе <a class="green" href="/">Знай•бай</a> 
                            является <span class="orange">бесплатным</span>. 
                            Стандартный пакет услуг для учащихся и родителей предоставляется <span class="orange">бесплатно</span>. 
                            Он включает в себя аналог всех функций бумажных дневников. Помимо стандартного тарифа родитель может приобрести расширенный пакет услуг (премиум-доступ).
                        </p>
<div class="block__tariff__wraper">
<div class="tariff tariff__standart">
<div class="tariff-top">
<div class="tariff-top__header">
<div class="title">
<span class="logo">Знай•бай</span>
<span class="package">Стандартный</span>
<div class="free">Бесплатно</div>
<div class="label">на весь период обучения</div>
</div>
</div>
<div class="tariff-top__body">
<ul class="indent">
<li>Актуальное расписание уроков с учетом замен</li>
<li>Домашнее задание, внесенное учителем</li>
<li>Ссылки на дополнительный материал (видео, аудио и другие ресурсы) к домашнему заданию</li>
<li>Информация о пропусках и отметках</li>
<li>Сообщения от классного руководителя</li>
<li>Возможность отправлять выполненное домашнее задание</li>
<li>Круглосуточная техническая поддержка</li>
</ul>
</div>
</div>
<div class="tariff-bottom">
<a class="more-details" href="/Home/PremiumAccess">Подробнее о тарифе Стандарт</a>
</div>
</div>
<div class="tariff tariff__premium">
<div class="tariff-top">
<div class="tariff-top__header">
<div class="title">
<span class="logo">Знай•бай</span>
<span class="package">Премиум</span>
<div class="panel_price">
<span class="price">0,30</span>
<span class="currency">руб/день</span>
</div>
<div class="functions">
                                                Весь функционал <br/>тарифа <span>Стандартный</span> плюс:
                                            </div>
</div>
</div>
<div class="tariff-top__body">
<ul class="opacity">
<li>Индивидуальные комментарии учителя к выставленной отметке</li>
<li>Прикреплённые файлы к домашнему заданию (тест, лекция, конспект)</li>
<li>Учебная литература по теме урока</li>
<li>Темы пройденных уроков</li>
<li>Информация о планируемых контрольных работах и их темах</li>
<li>Оповещение о пропусках по SMS и e-mail</li>
<li>Расписание учителей-предметников</li>
<li>Сервис “Архив успеваемости”</li>
<li>Сервис “Графики успеваемости”</li>
<li>Сервис “Рейтинги”</li>
<li>Сервис “Наблюдение учащегося”</li>
<li>Контроль расхода оплаты за питание</li>
</ul>
</div>
</div>
<div class="tariff-bottom">
<a class="more-details" href="/Home/PremiumAccess">Подробнее о тарифе Премиум</a>
</div>
</div>
</div>
<div>
<div>
<script>
    window.Eds = window.Eds || {};
    window.Eds.IsMobilePhoneDevice = window.Eds.IsMobilePhoneDevice ||
        function() {
            var maxWidth = 768;
            var maxHeight = 600;

            if (window.innerWidth < window.innerHeight) {
                maxWidth = 600;
                maxHeight = 768;
            }

            if ((navigator.userAgent.match(/Android/i) ||
                navigator.userAgent.match(/webOS/i) ||
                navigator.userAgent.match(/iPhone/i) ||
                navigator.userAgent.match(/iPad/i) ||
                navigator.userAgent.match(/iPod/i) ||
                navigator.userAgent.match(/BlackBerry/i) ||
                navigator.userAgent.match(/Windows Phone/i)) &&
                ((window.innerWidth < maxWidth) || (window.innerHeight < maxHeight))
            ) {
                return true;
            } else {
                return false;
            }
        };

    window.Eds.IsMobileTabletDevice = window.Eds.IsMobileTabletDevice ||
        function() {
            var maxWidth = 768;
            var maxHeight = 600;

            if (window.innerWidth < window.innerHeight) {
                maxWidth = 600;
                maxHeight = 768;
            }

            if ((navigator.userAgent.match(/Android/i) ||
                navigator.userAgent.match(/webOS/i) ||
                navigator.userAgent.match(/iPhone/i) ||
                navigator.userAgent.match(/iPad/i) ||
                navigator.userAgent.match(/iPod/i) ||
                navigator.userAgent.match(/BlackBerry/i) ||
                navigator.userAgent.match(/Windows Phone/i)) &&
                ((window.innerWidth >= maxWidth) && (window.innerHeight >= maxHeight))
            ) {
                return true;
            } else {
                return false;
            }
        };
</script>
<div id="adfox_16039605043179987-2"></div>
<script>
    var showOn = 'desktop, tablet, phone';

    if ((window.Eds.IsMobilePhoneDevice && window.Eds.IsMobilePhoneDevice() && showOn.indexOf('phone') !== -1) || 
        (window.Eds.IsMobileTabletDevice && window.Eds.IsMobileTabletDevice() && showOn.indexOf('tablet') !== -1) || 
        ((window.Eds.IsMobilePhoneDevice && !window.Eds.IsMobilePhoneDevice()) && (window.Eds.IsMobileTabletDevice && !window.Eds.IsMobileTabletDevice()) && showOn.indexOf('desktop') !== -1)) {
        window.Ya.adfoxCode.createAdaptive({
            ownerId: 239538,
            containerId: 'adfox_16039605043179987-2',
            params: {
                p1: 'cmxmi',
                p2: 'y',

            }
        }, ['desktop', 'tablet'], {
            tabletWidth: 1025,
            phoneWidth: 769,
            isAutoReloads: false
        });
    } else {
        document.getElementById('adfox_16039605043179987-2').style.display = 'none';
    }
</script>
</div>
</div>
</article>
</div>
</section>
<section>
<div class="index-content">
<article>
<div class="block__footer_top__row">
<div class="block__footer_top__cell">Сделаем Беларусь<br/>современной вместе!</div>
<div class="block__footer_top__cell"></div>
</div>
<div class="block__footer_contacts">
<div class="title">Контакты</div>
<div class="block__footer_contacts__row">
<div class="block__footer_contacts__cell">
<div><span class="ico-phone"></span>+375 17 239-06-80</div>
<div><span class="ico-a1"></span>+375 33 681-85-85</div>
<div><span class="ico-mts"></span>+375 29 681-85-85</div>
<div><span class="ico-life"></span>+375 25 681-85-85</div>
</div>
<div class="block__footer_contacts__cell">
<div><span class="ico-email"></span>support@znaj.by</div>
</div>
</div>
</div>
<div class="block__footer_help">
<a href="/Home/WriteDeveloper">Помощь</a>
</div>
<div class="block__footer_line"></div>
<div class="block__footer_bottom">
<div class="block__footer_bottom__row">
<div class="block__footer_bottom__cell">
<img alt="Знай.бай" src="images/znaj-logo-gray.svg"/>
</div>
<div class="block__footer_bottom__cell">© 2014 - 2020 Общество с ограниченной ответственностью «ЭдуТех Солюшн»</div>
</div>
                            220076, Республика Беларусь, г. Минск, ул. Ф.Скорины, д.15Б, адм.пом. 2, второй этаж, пом. №7 Свидетельство о государственной регистрации юридического лица выдано на основании решения Минского горисполкомома 26 июля 2019 года. Регистрационный номер (УНП) 193287594
                        </div>
</article>
</div>
</section>
</div>
<div class="popup_wrap">
<div class="popup popupBookDemo">
<input id="demoBookFrameUrl" type="hidden" value="/MegaBookDemoContent/algebra_11_ru/section_1_2.xhtml"/>
<div class="popup_header">
<div class="popup_name">Алгебра, 11 класс</div>
<i class="icon_close icon_close_white" onclick="document.querySelector('.popupBookDemo').parentNode.classList.remove('active')" title="Закрыть"></i>
</div>
<iframe></iframe>
</div>
</div>
<div class="popup_wrap">
<div class="popup popupMobileConnect">
<div class="popup_header">
<div class="popup_name">Вход в систему</div>
<i class="material-icons button-design-04 icon_close" id="button-header-close-popup-mobileConnect" title="Закрыть">close</i>
</div>
<hr color="#f6f6f6" noshade="noshade" size="1"/>
<div class="popup_content">
<div>
<div>
                    Введите номер телефона, привязанный к аккаунту, под которым Вы хотите войти.
                </div>
<br/>
<div id="mobileConnectBox" style="min-height: 50px;">
<input id="phoneNumberForLogIn" name="PhoneNumber" placeholder="375 (__) ___-__-__" type="text"/>
<div class="button-design-01 button-small" id="mobileConnectAuthorize">Войти</div>
<div>
<br/>
<img alt="MC" src="/images/mobcon_isolated_pms5275_rgb.png" style="width: 25px;"/>
<br/>
                        Mobile Connect – это быстрый и безопасный способ авторизации/идентификации на сайте по номеру телефона. Услуга предоставляется  мобильными операторами Республики Беларусь.
                    </div>
<div id="mobileConnectAuthorizeBox" style="display: none;">
<br/>
                        На введенный номер было отправлено <strong>USSD</strong> сообщение. 
                        <br/>
                        Подтвердите, пожалуйста, что Вы являетесь владельцем введенного номера и намереваетесь войти в систему.
                    </div>
</div>
<br/>
<div id="mobileConnectInfo" style="min-height: 50px;">
</div>
<div id="mobileConnectHelpInfo" style="display: none;">
                    Если у Вас нет аккаунта - пройдите по ссылке <a href="https://znaj.by/Account/Register" style="font-weight: bold; color: #128736;">Регистрация</a>.
                    <br/>
                    Если у Вас есть аккаунт, но к нему не привязан номер телефона или его надо изменить - пройдиет по ссылке <a href="https://znaj.by/Account/LogOn" style="font-weight: bold; color: #128736;">Вход</a>
                    и затем, после входа в систему, в <a href="https://znaj.by/Account" style="font-weight: bold; color: #128736;">личном кабинете</a>
                    укажите свой номер телефона.
                </div>
<div id="mobileConnectSpinner" style="display: none;">
<img alt="Подождите, идет загрузка..." src="/images/spinner.gif"/>
</div>
</div>
</div>
<hr color="#f6f6f6" noshade="noshade" size="1"/>
<div class="popup_footer">
<div class="button-design-03 icon_close" id="button-footer-close-popup-mobileConnect">Закрыть</div>
</div>
</div>
</div>
<script>
    $(function () {
        // Main Logic:
        
        var isPopupOpen = false;
        var lastAuthReqId;

        var $mobileConnectAuthorizeButton = $("#mobileConnectAuthorize");
        var $phoneNumberForLogInInput = $("#phoneNumberForLogIn");

        $phoneNumberForLogInInput.inputmask({"mask": "999 (99) 999-99-99"});

        if (!$mobileConnectAuthorizeButton.length ||
            !$phoneNumberForLogInInput.length)
            return;

        var mobileConnectLocalStorageKey = 'mobileConnectPhoneNumber';

        $mobileConnectAuthorizeButton.on("click",
            function() {
                
                var phoneNumber = $phoneNumberForLogInInput.val().replace(/[- \(\)]+/g, "");

                if (!phoneNumber) {
                    showBadInfo("Номер телефона не может быть пустым.");
                    return;
                }

                if (isInvalidPhoneNumber(phoneNumber)) {
                    showBadInfo("Формат введенного номера некорректный.");
                    return;
                }

                var defaultErrorMessage =
                    "Произошла ошибка. Попробуйте снова или обратитесь в службу поддержки.";

                var authorizeData = {
                    phoneNumber: phoneNumber
                };

                $phoneNumberForLogInInput.attr("disabled", "disabled");
                $mobileConnectAuthorizeButton.addClass("disabled");
                showSpinner();

                $.post("/MobileConnect/Authorize", authorizeData)
                    .done(function (response) {
                        if (!response) {
                            processError(defaultErrorMessage);
                            $("#mobileConnectHelpInfo").hide();
                            return;
                        }

                        if (response.AuthReqId && response.CorrelationId) {
                            showInfo(" ");
                            $("#mobileConnectAuthorizeBox").show();
                            $("#mobileConnectHelpInfo").hide();

                            lastAuthReqId = response.AuthReqId;
                            tryToLogOnPolling(response.AuthReqId, response.CorrelationId);

                        } else if (response.ErrorMessage) {
                            processError(response.ErrorMessage);
                            $("#mobileConnectHelpInfo").show();
                        } else if (response.IsAnotherRequestExpected) {
                            showInfo(" ");
                            $("#mobileConnectAuthorizeBox").show();
                            $("#mobileConnectHelpInfo").hide();
                        } else {
                            processError(defaultErrorMessage);
                            $("#mobileConnectHelpInfo").hide();
                        }
                    })
                    .fail(function (response) {
                        if (response && response.responseJSON && response.responseJSON.message) {
                            processError(response.responseJSON.message);
                            $("#mobileConnectHelpInfo").show();
                        } else {
                            processError(defaultErrorMessage);
                            $("#mobileConnectHelpInfo").hide();
                        }
                    });
            });

        function processError(message) {
            hideSpinner();
            $("#mobileConnectAuthorizeBox").hide();
            showBadInfo(message);
            $phoneNumberForLogInInput.removeAttr("disabled");
            $mobileConnectAuthorizeButton.removeClass("disabled");
        }

        function tryToLogOnPolling(authReqId, correlationId) {
            var defaultErrorMessage =
                "Авторизация не была произведена. Попробуйте снова или обратитесь в службу поддержки.";

            var isAuthorizedData = {
                authReqId: authReqId,
                correlationId: correlationId
            };

            var attemptsCount = 0;

            // maxAttemptsCount = timeout in seconds
                 var maxAttemptsCount = 60; // js code

            setTimeout(function() {
                sendTryToLogOnRequest();
            }, 2000);

            function sendTryToLogOnRequest() {
                attemptsCount++;
                $.post("/MobileConnect/TryToLogOnIfAuthorized", isAuthorizedData)
                    .done(function (response) {
                        if (!response || response.authorized == undefined) {
                            processError(defaultErrorMessage);
                            $("#mobileConnectHelpInfo").hide();
                        } else {
                            if (response.authorized === true) {
                                if (isPopupOpen) {
                                    hideSpinner();
                                    $("#mobileConnectAuthorizeBox").hide();
                                    $("#mobileConnectHelpInfo").hide();
                                    showGoodInfo("Авторизация прошла успешно. Страница будет перезагружена автоматически.");
                                    localStorage.setItem(mobileConnectLocalStorageKey, $phoneNumberForLogInInput.val());
                                }

                                window.location.reload();
                            } else {
                                if (attemptsCount < maxAttemptsCount) {
                                    setTimeout(function() {
                                            sendTryToLogOnRequest(); // recursion call
                                        },
                                        1000);
                                } else {
                                    if (isPopupOpen && lastAuthReqId == authReqId) {
                                        processError("Время ожидания истекло.");
                                        $("#mobileConnectHelpInfo").show();
                                    }
                                }
                            }
                        }
                    })
                    .fail(function () {
                        if (isPopupOpen && lastAuthReqId == authReqId) {
                            processError(defaultErrorMessage);
                            $("#mobileConnectHelpInfo").hide();
                        }
                    });
            };
        };

        function isInvalidPhoneNumber(phoneNumber) {
            return !phoneNumber ||
                phoneNumber.length !== 12 ||
                phoneNumber.lastIndexOf("375", 0) !== 0 || // startsWith 375
                !/^\d+$/.test(phoneNumber); // contains only digits
        }

        function showGoodInfo(text) {
            showInfo(text, "good");
        }

        function showBadInfo(text) {
            showInfo(text, "bad");
        }

        function showInfo(text, type) {
            var $infoBox = $("#mobileConnectInfo");

            if (!$infoBox.length) {
                return;
            }

            var $info = $(`<span>${text}</span>`);

            if (type === "good") {
                $info.addClass("good-info");
            } else if (type === "bad") {
                $info.addClass("bad-info");
            }

            $infoBox.html($info);
        }

        function showSpinner() {
            $("#mobileConnectInfo").hide();
            $("#mobileConnectSpinner").show();
        }

        function hideSpinner() {
            $("#mobileConnectSpinner").hide();
            $("#mobileConnectInfo").show();
        }

        // Additional Statistic and Set Up Logic:

        var $mobileConnectPopupOpenButton = $("#mobileConnectPopupOpen");
        var $mobileConnectPopupCloseHeaderButton = $("#button-header-close-popup-mobileConnect");
        var $mobileConnectPopupCloseFooterButton = $("#button-footer-close-popup-mobileConnect");

        if (!$mobileConnectPopupOpenButton.length ||
            !$mobileConnectPopupCloseHeaderButton.length ||
            !$mobileConnectPopupCloseFooterButton.length)
            return;

        var statisticData = {
            
        };

        function mobileConnectOnOpen() {
            isPopupOpen = true;

            hideSpinner();
            $("#mobileConnectAuthorizeBox").hide();
            $("#mobileConnectHelpInfo").hide();
            showInfo(" ");
            $phoneNumberForLogInInput.removeAttr("disabled");
            $mobileConnectAuthorizeButton.removeClass("disabled");

            var mobileConnectPhoneNumber = localStorage.getItem(mobileConnectLocalStorageKey);

            if (mobileConnectPhoneNumber) {
                $phoneNumberForLogInInput.val(mobileConnectPhoneNumber);
            } else {
                $phoneNumberForLogInInput.val("375");
            }

            $.post("/MobileConnect/MobileConnectPopupOpened", statisticData);
        };

        function mobileConnectOnClose() {
            isPopupOpen = false;

            $.post("/MobileConnect/MobileConnectPopupClosed", statisticData);
        };

        $mobileConnectPopupOpenButton.on("click",
            mobileConnectOnOpen);

        $mobileConnectPopupCloseHeaderButton.on("click",
            mobileConnectOnClose);

        $mobileConnectPopupCloseFooterButton.on("click",
            mobileConnectOnClose);
    });
</script>
<script>
        $('a[href*=\\#]').on('click',
            function (event) {
                event.preventDefault();
                $('aside').removeClass('active');
                $('html,body').animate({ scrollTop: $(this.hash).offset().top }, 500);
            });
        $(window).bind("load",
            function () {
                if (window.innerWidth >= 768) {
                    $('.video-container').load('video/movie.html');
                    $(document).ready(videoControl);
                }
            });
    </script>
<script src="/Scripts/modernizr-custom.js" type="text/javascript"></script>
<script>
        $(function () {
            if (!Modernizr.flexbox) {
                window.location.href = "/Home/OldBrowserPage";
            }
        });

    </script>
<!-- (C)2000-2013 Gemius SA - gemiusAudience / znaj.by / Home Page -->
<script type="text/javascript">
        var pp_gemius_identifier = '.RA70Ce08ClegiAncvSSfaeEzXYsAQMU8c8CJ7hLDlb.67';

        // lines below shouldn't be edited
        function gemius_pending(i) {
            window[i] = window[i] ||
                function () {
                    var x = window[i + '_pdata'] = window[i + '_pdata'] || [];
                    x[x.length] = arguments;
                };
        };

        gemius_pending('gemius_hit');
        gemius_pending('gemius_event');
        gemius_pending('pp_gemius_hit');
        gemius_pending('pp_gemius_event');
        (function (d, t) {
            try {
                var gt = d.createElement(t),
                    s = d.getElementsByTagName(t)[0],
                    l = 'http' + ((location.protocol == 'https:') ? 's' : '');
                gt.setAttribute('async', 'async');
                gt.setAttribute('defer', 'defer');
                gt.src = l + '://gaby.hit.gemius.pl/xgemius.js';
                s.parentNode.insertBefore(gt, s);
            } catch (e) {
            }
        })(document, 'script');
    </script>
</body></html>