<html><head>
<title>Access Denied</title>
</head><body>
<h1>Access Denied</h1>
 
You don't have permission to access "http://www.zomato.com/" on this server.<p>
Reference #18.16eb4668.1610584225.f0f03d
</p></body>
</html>
