<!DOCTYPE html>
<html lang="zh-Hans">
<head><meta content="text/html; charset=utf-8" http-equiv="Content-Type"/>
<meta content="ie=edge" http-equiv="X-UA-Compatible"/>
<meta content="webkit" name="renderer"/><meta content="jMIsMdCIDo" name="baidu-site-verification"/>
<meta content="width=device-width, user-scalable=no, initial-scale=1.0, maximum-scale=1.0, minimum-scale=1.0" name="viewport"/>
<meta content="pc,mobile" name="applicable-device"/>
<title>æèä¼ç½ - æ¬å°äººæå¸åºæèä¼ä¿¡æ¯ - å¨å½æèä¼ä¿¡æ¯ç½</title>
<meta content="æèä¼,åäº¬æèä¼,ä¸æµ·æèä¼,å¤©æ´¥æèä¼,åäº¬æèä¼,å¹¿å·æèä¼,è¥¿å®æèä¼,éåºæèä¼,æé½æèä¼,éå·æèä¼,ç³å®¶åºæèä¼,æ­¦æ±æèä¼,æ²é³æèä¼,é¿æ¥æèä¼,åå°æ»¨æèä¼,æµåæèä¼,æ é¡æèä¼,é¿æ²æèä¼,æ­å·æèä¼" name="keywords"/>
<meta content="å¨å½æèä¼ä¿¡æ¯ç½ä¸ºä½ æä¾ææ°åäº¬æèä¼,ä¸æµ·æèä¼,å¤©æ´¥æèä¼,åäº¬æèä¼,å¹¿å·æèä¼,è¥¿å®æèä¼,éåºæèä¼,æé½æèä¼,éå·æèä¼,ç³å®¶åºæèä¼,æ­¦æ±æèä¼,æ²é³æèä¼,é¿æ¥æèä¼,åå°æ»¨,æµå,æ é¡,é¿æ²,æ­å·,ç¦å·,å¤ªå,å°å·ç­å¨å½åçå¸äººææèä¼èµè®¯" name="description"/>
<link href="https://www.zph.com.cn/" rel="canonical"/>
<link href="/favicon.ico" rel="Shortcut Icon" type="image/ico"/>
<link href="/2020/index.css" rel="stylesheet" type="text/css"/>
<script type="text/javascript">
window.onerror=function(){return true;}
if(self!=top){top.location.href=self.location.href;}
</script><script>
var _hmt = _hmt || [];
(function() {
  var hm = document.createElement("script");
  hm.src = "https://hm.baidu.com/hm.js?c6461f61776655d3eb3990cfcd3ef247";
  var s = document.getElementsByTagName("script")[0]; 
  s.parentNode.insertBefore(hm, s);
})();
</script>
</head>
<body>
<header class="header"> <div class="top"> <!--ç§»å¨ç«¯å¯¼èªs--><div class="ms-header">
<div class="mr clear_fix">
<div class="ms-back-top left">
<ul>
<li class="clear_fix"><a href="/">å¨å½æèä¼ç½</a></li></ul>
</div>
<div class="ms-i right clear_fix">
<a href="/menu/"> <i class="ms-pull right"></i></a>
</div>
</div> </div>
<!--ç§»å¨ç«¯å¯¼èªe--></div>
<div class="mod yd-cate"><a class="logo" href="/"><img src="/2020/homelogo.jpg"/></a></div>
</header>
<div class="city">
<div class="hotcity">
<label class="ctit">ç­é¨åå¸</label>
<div class="li">
<a class="em" href="/beijing/" target="_blank">åäº¬</a>
<a class="em" href="/shanghai/" target="_blank">ä¸æµ·</a>
<a class="em" href="/xian/" target="_blank">è¥¿å®</a>
<a class="em" href="/zhengzhou/" target="_blank">éå·</a>
<a href="/nanjing/" target="_blank">åäº¬</a>
<a href="/wuhan/" target="_blank">æ­¦æ±</a>
<a href="/chongqing/" target="_blank">éåº</a>
<a href="/tianjin/" target="_blank">å¤©æ´¥</a>
<a href="/hangzhou/" target="_blank">æ­å·</a>
<a href="/suzhou/" target="_blank">èå·</a>
<a href="/jinan/" target="_blank">æµå</a>
<a href="/wuxi/" target="_blank">æ é¡</a>
<a href="/changchun/" target="_blank">é¿æ¥</a>
<a href="/qingdao/" target="_blank">éå²</a>
<a class="em" href="/guangzhou/" target="_blank">å¹¿å·</a>
<a href="/shijiazhuang/" target="_blank">ç³å®¶åº</a>
<a href="/shenyang/" target="_blank">æ²é³</a>
<a href="/lanzhou/" target="_blank">å°å·</a><a href="/shenzhen/" target="_blank">æ·±å³</a>
</div>
<!--<a href="javascript:void(null);" onclick="showHideMC()" class="more"><span>æ´å¤</span><em class="icondbarrow"></em></a> -->
</div>
<div class="morecity" id="morecity">
<span class="ctit">å¶å®å°åº</span>
<div class="li">
<a href="/guangdong/" target="_blank">å¹¿ä¸</a>
<a href="/jiangsu/" target="_blank">æ±è</a>
<a href="/shandong/" target="_blank">å±±ä¸</a>
<a href="/hebei" target="_blank">æ²³å</a>
<a href="/henan/" target="_blank">æ²³å</a>
<a href="/zhejiang/" target="_blank">æµæ±</a>
<a href="/sichuan/" target="_blank">åå·</a>
<a href="/anhui/" target="_blank">å®å¾½</a>
<a href="/hubei/" target="_blank">æ¹å</a>
<a href="/liaoning/" target="_blank">è¾½å®</a>
<a href="/shanxi/" target="_blank">å±±è¥¿</a>
<a href="/hunan/" target="_blank">æ¹å</a>
<a href="/fujian/" target="_blank">ç¦å»º</a>
<a href="/shaanxi/" target="_blank">éè¥¿</a>
<a href="/jiangxi/" target="_blank">æ±è¥¿</a>
<a href="/heilongjiang/" target="_blank">é»é¾æ±</a>
<a href="/guangxi/" target="_blank">å¹¿è¥¿</a>
<a href="/gansu/" target="_blank">çè</a>
<a href="/jilin/" target="_blank">åæ</a>
<a href="/yunnan/" target="_blank">äºå</a>
<a href="/guizhou/" target="_blank">è´µå·</a>
<a href="/neimenggu/" target="_blank">åèå¤</a>
<a href="/xinjiang/" target="_blank">æ°ç</a>
<a href="/hainan/" target="_blank">æµ·å</a>
<a href="/ningxia/" target="_blank">å®å¤</a>
<a href="/qinghai/" target="_blank">éæµ·</a>
<a href="/xizang/" target="_blank">è¥¿è</a>
</div>
</div>
</div>
<section class="warp">
<div class="hometop"><a href="https://www.zph.com.cn/xian/230809.html" target="_blank"><img alt="è¿å¨è¿ ä¿å°±ä¸ ä¿æ°ç2021å¹´æ¥å­£å¤§åäººæç»¼åæèä¼" border="0" height="100" src="/w4p1xov/allimg/210114/1_0814178952.gif" width="1200"/></a><a href="http://dwz.date/bQ7n" target="_blank"><img alt="ä¸­å¤®åå½å®¶æºå³äºä¸åä½å¬å¼æèæå¡å¹³å°" border="0" height="100" src="/w4p1xov/allimg/201231/1_1905036371.jpg" width="1200"/></a></div>
<div class="hometopm"><a href="https://www.zph.com.cn/xian/230810.html" title="2021å¹´æ¥å­£å¤§åäººæç»¼åæèä¼2-3æä¼æå®æ"><img alt="2021å¹´æ¥å­£å¤§åäººæç»¼åæèä¼2-3æä¼æå®æ" src="https://www.zph.com.cn/w4p1xov/allimg/210114/1_0814176323.gif"/></a></div>
<div class="panel jobs-hot"><div class="list"><div class="list__item"><a href="/xian/230797.html" title="[2021å¹´2æ20-21æ¥]è¿å¨è¿ ä¿å°±ä¸ ä¿æ°ç 2021å¹´æ°æ¥ç»¼åæèä¼"><div class="list__item__title list__item__padding"><span class="list__item__title--name">
          ä¸­å½è¥¿å®äººæå¸åº
        </span><span class="list__item__title--salary">è¥¿å®</span></div> <div class="list__item__content">[2021å¹´2æ20-21æ¥]è¿å¨è¿ ä¿å°±ä¸ ä¿æ°ç 2021å¹´æ°æ¥ç»¼åæèä¼...
        </div></a></div>
<div class="list__item"><a href="/yunnan/230727.html" title="[2021å¹´1æ18æ¥]äºåäººæå¸åºæ¬åç¥åä¼ä¸å¤§åäººææèä¼"><div class="list__item__title list__item__padding"><span class="list__item__title--name">
          äºåäººæå¸åº
        </span><span class="list__item__title--salary">äºå</span></div> <div class="list__item__content">[2021å¹´1æ18æ¥]äºåäººæå¸åºæ¬åç¥åä¼ä¸å¤§åäººææèä¼...
        </div></a></div>
<div class="list__item"><a href="/qinhuangdao/230783.html" title="ç§¦çå²å¸äººæå¸åºéè¦éç¥ï¼ç°åºæèä¼æåå¼æ¾"><div class="list__item__title list__item__padding"><span class="list__item__title--name">
</span><span class="list__item__title--salary">ç§¦çå²</span></div> <div class="list__item__content">ç§¦çå²å¸äººæå¸åºéè¦éç¥ï¼ç°åºæèä¼æåå¼æ¾...
        </div></a></div>
<div class="list__item"><a href="/pingxiang/230593.html" title="[2021å¹´1æ31æ¥]èä¹¡å®éªå­¦å½éé¨æ ¡åºæèä¼å¬å"><div class="list__item__title list__item__padding"><span class="list__item__title--name">
          èä¹¡å®éªå­¦æ ¡å½éé¨æ ¡åº
        </span><span class="list__item__title--salary">èä¹¡</span></div> <div class="list__item__content">[2021å¹´1æ31æ¥]èä¹¡å®éªå­¦å½éé¨æ ¡åºæèä¼å¬å...
        </div></a></div>
<div class="list__item"><a href="/fuzhou/230118.html" title="[2021å¹´1æ15æ¥]ç¦å»ºçç¦å·è´¢æ¿éèèä¸ä¸­ä¸å­¦æ ¡2021å¹´ä¾éè§é¢ä¼"><div class="list__item__title list__item__padding"><span class="list__item__title--name">
          ä»å±±åºé½æ±å¤§é318å·ï¼ä¸æ¸¡æ´¾åºææï¼
        </span><span class="list__item__title--salary">ç¦å·</span></div> <div class="list__item__content">[2021å¹´1æ15æ¥]ç¦å»ºçç¦å·è´¢æ¿éèèä¸ä¸­ä¸å­¦æ ¡2021å¹´ä¾éè§é¢ä¼...
        </div></a></div>
<div class="list__item"><a href="/changsha/230658.html" title="[2021å¹´3æ3æ¥]æ¹åçéå½¹å£«åµä¸åºæèä¼"><div class="list__item__title list__item__padding"><span class="list__item__title--name">
          ä¸­å½æ¹åäººæå¸åº
        </span><span class="list__item__title--salary">é¿æ²</span></div> <div class="list__item__content">[2021å¹´3æ3æ¥]æ¹åçéå½¹å£«åµä¸åºæèä¼...
        </div></a></div>
<div class="list__item"><a href="/zhangzhou/230747.html" title="[2021å¹´1æ15æ¥]2021å¹´æ¼³å·å¸å°±ä¸å°é¾ç¾¤ä½ä¸åºæèä¼"><div class="list__item__title list__item__padding"><span class="list__item__title--name">
          æ¼³å·å¸äººåèµæºå¸åº
        </span><span class="list__item__title--salary">æ¼³å·</span></div> <div class="list__item__content">[2021å¹´1æ15æ¥]2021å¹´æ¼³å·å¸å°±ä¸å°é¾ç¾¤ä½ä¸åºæèä¼...
        </div></a></div>
<div class="list__item"><a href="/shanghai/202101/230638.html" title="[2021å¹´3æ6æ¥]ä¸æµ·åå¤§ä¼å±ä¸­å¿æ¥å­£å¤§åæèä¼"><div class="list__item__title list__item__padding"><span class="list__item__title--name">
          ä¸æµ·åå¤§ä¼å±ä¸­å¿è¥¿é¦
        </span><span class="list__item__title--salary">ä¸æµ·</span></div> <div class="list__item__content">[2021å¹´3æ6æ¥]ä¸æµ·åå¤§ä¼å±ä¸­å¿æ¥å­£å¤§åæèä¼...
        </div></a></div>
<div class="list__item"><a href="/fuyang/230683.html" title="[2021å¹´3æ31æ¥]ç¬¬å«å±å¤§ä¸­åå¸èåæèé«æ ¡æ¯ä¸çæ¥å­£ç°åºæèä¼"><div class="list__item__title list__item__padding"><span class="list__item__title--name">
          éé³å¸äººåèµæºå¸åº
        </span><span class="list__item__title--salary">éé³</span></div> <div class="list__item__content">[2021å¹´3æ31æ¥]ç¬¬å«å±å¤§ä¸­åå¸èåæèé«æ ¡æ¯ä¸çæ¥å­£ç°åºæèä¼...
        </div></a></div>
<div class="list__item"><a href="/changchun/230782.html" title="é¿æ¥é«æ°åºäººæå¸åºå³äºæåç°åºæèä¼çéç¥"><div class="list__item__title list__item__padding"><span class="list__item__title--name">
</span><span class="list__item__title--salary">é¿æ¥</span></div> <div class="list__item__content">é¿æ¥é«æ°åºäººæå¸åºå³äºæåç°åºæèä¼çéç¥...
        </div></a></div>
<div class="list__item"><a href="/taiyuan/230411.html" title="[2021å¹´2æ19-20æ¥]å±±è¥¿ç2021å¹´æ°æ¥äººææèæ¨é«æ ¡æ¯ä¸çå°±ä¸æ´½è°ä¼"><div class="list__item__title list__item__padding"><span class="list__item__title--name">
          å±±è¥¿çäººåèµæºå¸åº
        </span><span class="list__item__title--salary">å¤ªå</span></div> <div class="list__item__content">[2021å¹´2æ19-20æ¥]å±±è¥¿ç2021å¹´æ°æ¥äººææèæ¨é«æ ¡æ¯ä¸çå°±ä¸æ´½è°ä¼...
        </div></a></div>
<div class="list__item"><a href="/heze/230611.html" title="[2021å¹´2æ20æ¥]ç¡ä¸¹åº2021âæ¥é£è¡å¨â-æ­£æåä¹å¤§åç»¼åæèä¼"><div class="list__item__title list__item__padding"><span class="list__item__title--name">
          èæ³½ä¸è¾¾äºå·é¨ä¸­å
        </span><span class="list__item__title--salary">èæ³½</span></div> <div class="list__item__content">[2021å¹´2æ20æ¥]ç¡ä¸¹åº2021âæ¥é£è¡å¨â-æ­£æåä¹å¤§åç»¼åæèä¼...
        </div></a></div>
<div class="list__item"><a href="/jstaizhou/230148.html" title="[2021å¹´2æ17æ¥]2021å¤§å¹´åå­ ä¸è¾¾æ³°å·é¦åºæèä¼"><div class="list__item__title list__item__padding"><span class="list__item__title--name">
          æ³°å·ä¸è¾¾å¹¿åº
        </span><span class="list__item__title--salary">æ³°å·</span></div> <div class="list__item__content">[2021å¹´2æ17æ¥]2021å¤§å¹´åå­ ä¸è¾¾æ³°å·é¦åºæèä¼...
        </div></a></div>
<div class="list__item"><a href="/shanghai/202101/230637.html" title="[2021å¹´3æ5æ¥]ä¸æµ·åå¤§ä¼å±ä¸­å¿æ¥å­£å¤§åæèä¼"><div class="list__item__title list__item__padding"><span class="list__item__title--name">
          ä¸æµ·åå¤§ä¼å±ä¸­å¿
        </span><span class="list__item__title--salary">ä¸æµ·</span></div> <div class="list__item__content">[2021å¹´3æ5æ¥]ä¸æµ·åå¤§ä¼å±ä¸­å¿æ¥å­£å¤§åæèä¼...
        </div></a></div>
<div class="list__item"><a href="/shenzhen/010R30N52021.html" title="æ°è·¯ç¨äººæå¸åº2/3ææèä¼å®æè¡¨"><div class="list__item__title list__item__padding"><span class="list__item__title--name">
          æ°è·¯ç¨äººæå¸åº
        </span><span class="list__item__title--salary">æ·±å³</span></div> <div class="list__item__content">æ°è·¯ç¨äººæå¸åº2/3ææèä¼å®æè¡¨...
        </div></a></div>
<div class="list__item"><a href="/shanghai/202012/230271.html" title="[2021å¹´1æ16æ¥]ä¸æµ·å«ä¸äººä½è²åºæèä¼å æåæ¶"><div class="list__item__title list__item__padding"><span class="list__item__title--name">
          ä¸æµ·å«ä¸äººä½è²åº
        </span><span class="list__item__title--salary">ä¸æµ·</span></div> <div class="list__item__content">[2021å¹´1æ16æ¥]ä¸æµ·å«ä¸äººä½è²åºæèä¼å æåæ¶...
        </div></a></div>
<div class="list__item"><a href="/shanghai/202101/230636.html" title="[2021å¹´2æ24æ¥]ä¸æµ·åå¤§ä¼å±ä¸­å¿æ¥å­£å¤§åæèä¼"><div class="list__item__title list__item__padding"><span class="list__item__title--name">
          ä¸æµ·åå¤§ä¼å±ä¸­å¿
        </span><span class="list__item__title--salary">ä¸æµ·</span></div> <div class="list__item__content">[2021å¹´2æ24æ¥]ä¸æµ·åå¤§ä¼å±ä¸­å¿æ¥å­£å¤§åæèä¼...
        </div></a></div>
<div class="list__item"><a href="/changchun/230631.html" title="é¿æ¥ç»æµææ¯å¼ååºäººåèµæºå¸åºç°åºæèä¼æåéç¥"><div class="list__item__title list__item__padding"><span class="list__item__title--name">
          é¿æ¥ç»æµææ¯å¼ååºäººåèµæºå¸åº
        </span><span class="list__item__title--salary">é¿æ¥</span></div> <div class="list__item__content">é¿æ¥ç»æµææ¯å¼ååºäººåèµæºå¸åºç°åºæèä¼æåéç¥...
        </div></a></div>
</div>
<script src="/2020/miniEventArr.js" type="text/javascript"></script>
<div class="links">
<h3 class="linkstitle">
<a title="åæé¾æ¥">åæé¾æ¥</a>
</h3>
<div class="linkscontent">
<a href="http://www.sjzzph.com" target="_blank">ç³å®¶åºæèä¼</a><a href="/guangzhou/" target="_blank">å¹¿å·æèä¼</a><a href="https://www.zph.com.cn/shanghai/" target="_blank">ä¸æµ·æèä¼</a><a href="/beijing/" target="_blank">åäº¬æèä¼</a>
<a href="http://www.zzzph.com/" target="_blank">éå·æèä¼</a><a href="http://www.njzph.com/" target="_blank">åäº¬æèä¼</a><a href="https://www.zph.com.cn/wuhan/" target="_blank">æ­¦æ±æèä¼</a><a href="/beijing/" target="_blank">åäº¬æèä¼</a><a href="/nanjing/" target="_blank">åäº¬æèä¼</a><a href="/zhengzhou/" target="_blank">éå·æèä¼</a><a href="http://www.job0663.com/" target="_blank">æ­é³æèç½</a><a href="http://www.sanyajob.com/" target="_blank">ä¸äºäººæç½</a><a href="http://www.job256.com/" target="_blank">èå·äººæç½</a><a href="http://www.dazhonghr.com" target="_blank">å¤§ä¼äººæç½</a><a href="http://www.wxrc.com" target="_blank">æ é¡äººæç½</a><a href="http://www.ntrc.com" target="_blank">åéäººæç½</a><a href="http://www.xiaoshourc.com/" target="_blank">éå®æèç½</a><a href="http://www.hnrsrc.com" target="_blank">æ¹åäººæç½</a><a href="http://www.qzztc.com" target="_blank">é¿æ²æèç½</a>
</div></div>
<footer class="footer"><section class="in-side-footer"><p class="about"><a class="" href="/aboutus/" rel="nofollow">å³äºæä»¬</a><a class="" href="/aboutus/" rel="nofollow">èç³»æä»¬</a><a class="" href="/tougao/" rel="nofollow">æç¨¿è¯´æ</a><a class="" href="/gonggao/" rel="nofollow">å¹¿ååä½</a></p><p class="copy"><span>å¾®ä¿¡å¬ä¼å·ï¼zphplus</span><span>å¹¿ååä½ï¼QQ1142688ã93542243 å®¢æå¾®ä¿¡ï¼1142688ã93542243 éICPå¤08102921å· æå¬ç½å®å¤ 14082402000118å·</span></p></section></footer>
</div></section></body>
</html>