<html><head>
<title>Access Denied</title>
</head><body>
<h1>Access Denied</h1>
 
You don't have permission to access "http://www.autoglam.in/" on this server.<p>
Reference #18.50bc617.1610594706.afc84e5
</p></body>
</html>
