<!DOCTYPE html>
<html>
<head>
<title>首页 郑州地铁集团有限公司</title>
<meta content="郑州地铁" name="keywords"/>
<meta content="郑州地铁" name="description"/>
<meta content="郑州地铁" name="author"/>
<meta charset="utf-8"/>
<meta content="IE=edge" http-equiv="X-UA-Compatible"/>
<meta content="width=device-width, initial-scale=1, maximum-scale=1, user-scalable=no" name="viewport"/>
<!-- Set render engine for 360 browser -->
<meta content="webkit" name="renderer"/>
<!-- No Baidu Siteapp-->
<meta content="no-siteapp" http-equiv="Cache-Control"/>
<!-- HTML5 shim for IE8 support of HTML5 elements -->
<!--[if lt IE 9]>
<script src="https://oss.maxcdn.com/libs/html5shiv/3.7.0/html5shiv.js"></script>
<![endif]-->
<link href="/themes/metro/public/assets/img/favicon.ico" rel="icon"/>
<link href="/themes/metro/public/assets/img/favicon.ico" rel="SHORTCUT ICON" type="image/x-icon"/>
<link href="/themes/metro/public/assets/css/font-awesome.min.css" rel="stylesheet" type="text/css"/>
<link href="/themes/metro/public/assets/css/zb.css" rel="stylesheet" type="text/css"/>
<!--[if IE 7]>
<link rel="stylesheet" href="/themes/metro/public/assets/css/font-awesome-ie7.min.css">
<![endif]-->
<link href="/themes/metro/public/assets/css/style.css?v=20180130" rel="stylesheet"/>
<link href="/themes/metro/public/assets/css/index.css?v=20180307" rel="stylesheet"/>
<script src="/themes/metro/public/assets/js/jquery-1.11.0.min.js"></script>
<style type="text/css">
        .top_container {
            position: relative;
            z-index: 10
        }

        .top_container {
            height: 430px !important;
        }
    </style>
</head>
<body class="bg">
<header class="top_container" style=" background-size:100% 100px !important;">
<!--顶部-->
<div class="top clearfix">
<a class="logo" href=""><img alt="郑州地铁" src="/themes/metro/public/assets/img/logo.png"/></a>
<div class="right clearfix">
<div class="content">
</div>
<form action="/portal/search/index.html" class="search_box" method="post">
<input name="__token__" type="hidden" value="bdcbd1e4ca8c897cadf8a572969dbfb6"/> <input class="search" id="search-input" name="keyword" placeholder="站内搜索" type="text" value=""/>
<a><img alt="" class="lazyload" data-src="/themes/metro/public/assets/img/ss.png"/></a>
<input class="btn01" type="submit" value="搜 索"/>
</form>
</div>
</div>
<!--导航-->
<div class="nav_box">
<div class="nav_container">
<ul id="nav01">
<li data-id="0">
<a href="/">首页</a>
</li>
<li data-id="1"><a href="/page/id/1.html">公司介绍</a></li>
<li data-id="13"><a href="/page/id/13.html">新闻资讯</a></li>
<li data-id="19"><a href="http://www.zzmetro.com" target="_blank">地铁运营</a></li>
<li data-id="15"><a href="/page/id/15.html">工程建设</a></li>
<li data-id="33"><a href="/page/id/33.html">人才招聘</a></li>
<li data-id="36"><a href="/page/id/36.html">招标采购</a></li>
<li data-id="7"><a href="/page/id/7.html">企业党建</a></li>
<li data-id="22"><a href="/page/id/22.html">企业文化</a></li>
<li data-id="28"><a href="/page/id/28.html">精神文明建设</a></li>
<li data-id="14"><a href="/page/id/14.html">廉洁从业</a></li>
</ul>
<!--导航栏目开始-->
<div class="navigation-down">
<!--常用查询-->
<div class="nav"></div>
<!--1公司简介开始-->
<div class="nav tab1">
<div class="navigation-down-inner">
<div class="xiala">
<div class="sub sub_zjgv">
<div class="box_left">
<ul class="box_left_nav">
<li class="active">
<a href="/page/id/2.html">企业概况</a>
</li>
<li>
<a href="/page/id/3.html">组织架构</a>
</li>
<li>
<a href="/page/id/4.html">企业荣誉</a>
</li>
<li>
<a href="/page/id/5.html">法律法规</a>
</li>
<li>
<a href="/page/id/47.html">联系我们</a>
</li>
</ul>
</div>
<div class="right">
<div class="box active">
<div class="box_mid">
<a href="/portal/info/index/id/3082/cid/2.html" target="_blank">
<img alt="" border="none" class="lazyload" data-src="/upload/portal/20171128/2d3b7020815d976349bf1b1bf0ee3a25.png"/>
</a>
</div>
<div class="box_right">
<div class="gvIntro">
<div class="hd">
<a href="/portal/info/index/id/3082/cid/2.html">企业概况</a><br/>
<span>阅读次数:165185 发布时间：2019-07-10 11:03</span>
</div>
<div class="bd">
<a href="/portal/info/index/id/3082/cid/2.html">郑州地铁集团有限公司（以下简称“地铁集团”）经郑州市人民政府批准，于2008年2月22日成立，2018年9月11日改制为集团公司，现注册资本金27.79亿元人民币。主要负责轨道交通项目的工程投资、建设、运营，商业房屋租赁，物业服务，通信设备租赁，建筑机械设备、建筑材料销售，设计、制作、代理、发布国内广告，从事货物和技术进出口业务。</a>
</div>
</div>
</div>
</div>
<div class="box">
<p style="max-width: 100%;text-align: center">
<a href="/portal/info/index/id/3083/cid/3.html">
<img alt="" border="none" class="lazyload" data-src="/upload/portal/20190225/510b15bac1db5de2e9c69e3b34179920.jpg"/>
</a>
</p>
</div>
<div class="box">
<ul class="list">
<li>
<a href="/portal/info/index/id/70/cid/4.html">企业荣誉</a><span>2017-11-29</span>
</li>
</ul>
</div>
<div class="box">
<ul class="list">
<li>
<a href="/portal/info/index/id/3070/cid/5.html">《中华人民共和国合同法》</a><span>2018-02-11</span>
</li>
<li>
<a href="/portal/info/index/id/3071/cid/5.html">《中华人民共和国公司法》</a><span>2018-02-11</span>
</li>
<li>
<a href="/portal/info/index/id/3072/cid/5.html">《中华人民共和国招标投标法》</a><span>2018-02-11</span>
</li>
<li>
<a href="/portal/info/index/id/3073/cid/5.html">《中华人民共和国建筑法》</a><span>2018-02-11</span>
</li>
<li>
<a href="/portal/info/index/id/3074/cid/5.html">《中华人民共和国安全生产法》</a><span>2018-02-11</span>
</li>
<li>
<a href="/portal/info/index/id/3075/cid/5.html">《中华人民共和国招标投标法实施条例》</a><span>2018-02-11</span>
</li>
<li>
<a href="/portal/info/index/id/3076/cid/5.html">《建设工程质量管理条例》</a><span>2018-02-11</span>
</li>
<li>
<a href="/portal/info/index/id/3077/cid/5.html">《建设工程安全生产管理条例》</a><span>2018-02-11</span>
</li>
<li>
<a href="/portal/info/index/id/3078/cid/5.html">《城市轨道交通运营管理办法》</a><span>2018-02-11</span>
</li>
</ul>
</div>
<div class="box">
<div class="">
<style>
                                                            fieldset {padding: 10px; margin-right: 10px; border: none;}
                                                            legend {color:#f00; font-weight: 900;}
                                                            article{margin-top: -10px; border-bottom: 1px dotted #9b9b9b; padding-bottom: 10px;}
                                                            .tab1 .right{height: 300px;}
                                                            header.top_container{ position: relative; z-index: 20;}
                                                        </style>
<div style="width: 50%; float:left;">
<fieldset>
<legend>郑州地铁集团有限公司</legend>
<article>
<p>地址：郑州市郑东新区康宁街100号</p>
<p>电话：0371-55166617（工作日9:00—17:00）</p>
<p>传真：0371-55166617（工作日9:00—17:00）</p>
<p>24小时值班电话：0371-55165516</p>
<p>电子邮箱：zzmetro@zzmetro.cn</p>
</article>
</fieldset>
<fieldset>
<legend>清风热线（集团纪检监察部）</legend>
<article>
<p>电话：0371-55166601，17537112388（工作日9:00—17:00）</p>
<p>电子邮箱：zgjjsjb@zzmetro.cn，zgjjsjb@163.com</p>
</article>
</fieldset>
<fieldset>
<legend>人事招聘（集团人力资源部）</legend>
<article>
<p>电话：0371-55165555（工作日9:00—17:00）</p>
<p>电子邮箱：hr@zzmetro.cn，zzmetrozp@163.com</p>
</article>
</fieldset>
</div>
<div style="width: 50%; float:left;">
<fieldset style="display: none">
<legend>员工权益（集团工会办公室）</legend>
<article>
<p>电话：17537112333（工作日9:00—17:00）</p>
<p>电子邮箱：zzdtghbgs@zzmetro.cn，zzdtghbgs@163.com</p>
</article>
</fieldset>
<fieldset>
<legend>资源开发（集团资源经营管理部）</legend>
<article>
<p>电话：0371-55166965（工作日9:00—17:00）</p>
<p>电子邮箱：dongying@zzmetro.cn</p>
</article>
</fieldset>
<fieldset>
<legend>郑州地铁集团有限公司运营分公司</legend>
<article>
<p>地址：郑州市郑东新区郑开大道省委党校西侧</p>
<p>乘客服务热线：0371-55166166（每天8:30—20:00）</p>
</article>
</fieldset>
</div>
</div>
</div>
</div>
</div>
</div>
</div>
</div>
<!--公司简介结束-->
<!--7党群建设开始-->
<div class="nav tab1 tab2">
<div class="navigation-down-inner">
<div class="xiala">
<div class="sub sub_zjgv">
<div class="box_left">
<ul class="box_left_nav">
<li class="active">
<a href="/page/id/8.html">党组织架构</a></li>
<li>
<a href="/page/id/9.html">党建动态</a></li>
</ul>
</div>
<div class="right">
<div class="box active">
<p style="max-width: 100%;text-align: center">
<a href="/portal/info/index/id/4138/cid/8.html">
<img alt="" border="none" class="lazyload" data-src="/upload/portal/20190505/6bde9c664130324bde49bbbca7c314e2.jpg"/>
</a>
</p>
</div>
<div class="box">
<div class="box_mid">
<a href="/portal/info/index/id/5566/cid/9.html" target="_blank"><img alt="" border="none" class="lazyload" data-src="/upload/portal/20201201/9c108217ab7026d6d9a419dd5997f4a3.jpg"/></a>
</div>
<div class="box_right">
<div class="gvIntro">
<div class="hd">
<a href="/portal/info/index/id/5566/cid/9.html"> 公司召开党的十九届五中全会精神专题学习会</a><br/>
<span>阅读次数:8794 发布时间：2020-12-01 17:01</span>
</div>
<div class="bd"><a href="/portal/info/index/id/5566/cid/9.html">11月13日，公司党委召开了党的十九届五中全会精神专题学习会。会议由公司党委副书记、工会主席张军主持，公司党委成员，公司机关党委各支部书记、运营分公司党委成员，公司中层正职管理人员，运营分公司三级党委书记、副书记等50余人参加会议。</a>
</div>
</div>
</div>
</div>
</div>
</div>
</div>
</div>
</div>
<!--党群建设结束-->
<!--13新闻中心开始-->
<div class="nav tab3">
<div class="navigation-down-inner">
<div class="xiala">
<div class="sub sub_zjgv">
<div class="head">
<span class="over">新闻资讯</span>
<div class="more"><a href="/page/id/13.html">更多&gt;&gt;</a>
</div>
</div>
<div class="box_left">
<div class="main">
<a href="/portal/info/index/id/5601/cid/13.html"><img alt="" class="lazyload" data-src="/upload/no_pic.jpg"/></a>
<div class="txt">
<h4><a href="/portal/info/index/id/5601/cid/13.html">厚德载道 匠心铸造智慧线 行稳致远 不负韶华再出发 ——致社会各界和广大市民的感谢信</a>
</h4>
<p><a href="/portal/info/index/id/5601/cid/13.html">尊敬的社会各界和广大市民朋友：

岁月不居，时节如流，极不寻常的2020年即将过去，这一年，郑州轨道交通的建设者与您携手并肩，随着这座城市起伏的脉动，从凛冽严冬走到春和景明；这一年，我们同心协力，用严防死守保证安全健康出行；这一年，我们重振旗鼓、首批复工复产，共同摁下城市重启键，迎接风雨之后的绚烂彩虹。</a>
</p>
<p><a class="more" href="/portal/info/index/id/5601/cid/13.html">查看详情...</a>
</p>
</div>
</div>
</div>
<div class="box_right">
<div class="main">
<ul>
<li>
<a href="/portal/info/index/id/5601/cid/13.html">厚德载道 匠心铸造智慧线 行稳致远 不负韶华再出发 ——致社会各界和广大市民的感谢信</a><span>2021-01-04</span>
</li>
<li>
<a href="/portal/info/index/id/5609/cid/13.html">郑州地铁4号线正式开门载客！文化地铁“闪”耀商都！</a><span>2020-12-29</span>
</li>
<li>
<a href="/portal/info/index/id/5607/cid/13.html">“蓝”“桔”共放    双线齐发  郑州市轨道交通3号线一期、4号线开门迎客 </a><span>2020-12-28</span>
</li>
<li>
<a href="/portal/info/index/id/5606/cid/13.html">“豫见民法典 典亮新生活” ——郑州地铁“民法典号”专列上线</a><span>2020-12-28</span>
</li>
<li>
<a href="/portal/info/index/id/5602/cid/13.html">搭载文化引擎 地铁别样精彩</a><span>2020-12-26</span>
</li>
<li>
<a href="/portal/info/index/id/5596/cid/13.html">徐立毅调研轨道交通建设工作 强调加快建设“轨道上的都市”引领城市结构优化发展提质</a><span>2020-12-23</span>
</li>
<li>
<a href="/portal/info/index/id/5595/cid/13.html">市人大常委会主任胡荃一行调研 市重点民生实事落实情况</a><span>2020-12-23</span>
</li>
<li>
<a href="/portal/info/index/id/5594/cid/13.html">郑州市政协党组书记、主席张延明一行 视察郑州地铁</a><span>2020-12-23</span>
</li>
<li>
<a href="/portal/info/index/id/5588/cid/13.html">心启科技，蓝耀四方！郑州市轨道交通4号线邀您试乘！</a><span>2020-12-19</span>
</li>
</ul>
</div>
</div>
</div>
</div>
</div>
<!--新闻中心结束-->
</div>
<!--新闻中心结束-->
<!--14廉洁从业开始-->
<div class="nav tab1">
<div class="navigation-down-inner">
<div class="xiala">
<div class="sub sub_zjgv">
<div class="box_left">
<ul class="box_left_nav">
<li class="active">
<a href="/page/id/48.html">工作动态</a>
</li>
<li>
<a href="/page/id/49.html">党规党纪</a>
</li>
<li>
<a href="/page/id/50.html">廉洁作品展</a>
</li>
</ul>
</div>
<div class="right">
<div class="box active">
<div class="box_mid">
<a href="/portal/info/index/id/5256/cid/69.html" target="_blank"><img alt="" border="none" class="lazyload" data-src="/upload/portal/20200720/602c0d7351a4cdb92ec7c50cd4d42d88.jpg"/></a>
</div>
<div class="box_right">
<div class="gvIntro">
<div class="hd">
<a href="/portal/info/index/id/5256/cid/69.html">再检视 再查摆 再谋划 按下 “6-45”问题整改落实工作“加速键”</a><br/>
<span>阅读次数:66196 发布时间：2020-07-20 10:25</span>
</div>
<div class="bd">
<p>
<a href="/portal/info/index/id/5256/cid/69.html">7月17日上午，公司纪委召开持续深化“6-45”问题整改落实工作推进会，贯彻落实市纪委纪检监察系统持续深化“6-45”问题整改落实工作推进会会议精神，继7月10日公司纪检监察监督会议后，再次对公司“6-45”问题整改落实工作进行安排部署。公司党委委员、纪委书记郑爱民出席会议，公司、运营分公司纪检监察人员参加会议。</a>
</p>
<a class="detail" href="/portal/info/index/id/5256/cid/69.html" style="text-align: right" target="_blank">查看详情&gt;&gt;</a>
</div>
</div>
</div>
</div>
<div class="box">
<div class="box_mid">
<a href="/portal/info/index/id/5243/cid/70.html" target="_blank"><img alt="" border="none" class="lazyload" data-src="/upload/portal/20200713/cb1446938cdb38342493bebe1634cca2.jpg"/></a>
</div>
<div class="box_right">
<div class="gvIntro">
<div class="hd">
<a href="/portal/info/index/id/5243/cid/70.html">中华人民共和国公职人员政务处分法 </a><br/>
<span>阅读次数:46753 发布时间：2020-07-13 11:24</span>
</div>
<div class="bd">
<p>
<a href="/portal/info/index/id/5243/cid/70.html">第一章　总　　则

　　第一条　为了规范政务处分，加强对所有行使公权力的公职人员的监督，促进公职人员依法履职、秉公用权、廉洁从政从业、坚持道德操守，根据《中华人民共和国监察法》，制定本法。</a>
</p>
<a class="detail" href="/portal/info/index/id/5243/cid/70.html" style="text-align: right" target="_blank">查看详情&gt;&gt;</a>
</div>
</div>
</div>
</div>
<div class="box">
<div class="box_mid">
<a href="/portal/info/index/id/5279/cid/71.html" target="_blank"><img alt="" border="none" class="lazyload" data-src="/upload/portal/20200807/28e76d5ff805189bb1a83bd4a0832dd6.png"/></a>
</div>
<div class="box_right">
<div class="gvIntro">
<div class="hd">
<a href="/portal/info/index/id/5279/cid/71.html">电脑桌面（三）</a><br/>
<span>阅读次数:42267 发布时间：2020-07-27 11:25</span>
</div>
<div class="bd">
<p>
<a href="/portal/info/index/id/5279/cid/71.html"></a>
</p>
<a class="detail" href="/portal/info/index/id/5279/cid/71.html" style="text-align: right" target="_blank">查看详情&gt;&gt;</a>
</div>
</div>
</div>
</div>
<hr/>
<a href="http://jubao.zzmetro.cn:8070" style="float: right; width: 60%; margin-top: -70px;" target="_blank"><img alt="" src="/themes/metro/public/assets/img/a46c5a6cb5e5672312ce95c147f84b0.jpg" style="width: 100%;"/></a>
</div>
</div>
</div>
</div>
</div>
<!--廉洁从业结束-->
<!--15工程建设开始-->
<div class="nav tab1 tab5">
<div class="navigation-down-inner">
<div class="xiala">
<div class="sub sub_zjgv">
<div class="box_left">
<ul class="box_left_nav">
<li class="active"><a href="/page/id/16.html">总体规划</a></li>
<li><a href="/page/id/17.html">建设动态</a></li>
<li><a href="/page/id/18.html">质量安全</a></li>
<li><a href="http://dtdb.zzmetro.cn:58004/" target="_blank">地铁保护</a></li>
</ul>
</div>
<div class="right">
<div class="box active">
<div class="box_mid">
<a href="/portal/info/index/id/4107/cid/16.html" target="_blank"><img border="none" class="lazyload" data-src="/upload/no_pic.jpg"/></a>
</div>
<div class="box_right">
<div class="gvIntro">
<div class="hd">
<a href="/portal/info/index/id/4107/cid/16.html">                             《郑州市城市轨道交通第三期建设规划（2019-2024年）》获国家发改委批复</a><br/>
<span>阅读次数:332211 发布时间：2019-04-26 10:48</span>
</div>
<div class="bd">
<p>
<a href="/portal/info/index/id/4107/cid/16.html">郑州市城市轨道交通第三期建设规划包含3号线二期、6号线一期、7号线一期、8号线一期、10号线一期、12号线一期、14号线一期等7个项目，总长159.6公里，规划期为2019-2024年。</a>
</p>
<a class="detail" href="/portal/info/index/id/4107/cid/16.html" style="text-align: right" target="_blank">查看详情&gt;&gt;</a>
</div>
</div>
</div>
</div>
<div class="box">
<div class="box_mid">
<a href="/portal/info/index/id/5118/cid/17.html" target="_blank"><img border="none" class="lazyload" data-src="/upload/portal/20190213/aad69c6579f3b595d94d4b3c68c9630f.png"/></a>
</div>
<div class="box_right">
<div class="gvIntro">
<div class="hd">
<a href="/portal/info/index/id/5118/cid/17.html">轨道交通3号线一期工程东大街站220号楼依法拆除实施方案</a><br/>
<span>阅读次数:72205 发布时间：2020-05-28 11:01</span>
</div>
<div class="bd">
<p>
<a href="/portal/info/index/id/5118/cid/17.html">轨道交通3号线一期工程东大街站220号楼依法拆除实施方案</a>
</p>
<a class="detail" href="/portal/info/index/id/5118/cid/17.html" style="text-align: right" target="_blank">查看详情&gt;&gt;</a>
</div>
</div>
</div>
</div>
<div class="box">
<div class="box_mid">
<a href="/portal/info/index/id/5537/cid/18.html" target="_blank"><img border="none" class="lazyload" data-src="/upload/portal/20201112/adc3e48c0c450e21431dbb8b367ed34e.jpg"/></a>
</div>
<div class="box_right">
<div class="gvIntro">
<div class="hd">
<a href="/portal/info/index/id/5537/cid/18.html">郑州地铁4号线工程全尺寸热烟测试顺利通过</a><br/>
<span>阅读次数:12947 发布时间：2020-11-12 15:07</span>
</div>
<div class="bd">
<p>
<a href="/portal/info/index/id/5537/cid/18.html">2020年11月5日，为综合检验4号线车站防灾系统的工作效果、联动情况，公司委托北京安捷工程咨询有限公司，在4号线货站街站开展了全尺寸防灾系统热烟测试，顺利通过。</a>
</p>
<a class="detail" href="/portal/info/index/id/5537/cid/18.html" style="text-align: right" target="_blank">查看详情&gt;&gt;</a>
</div>
</div>
</div>
</div>
<div class="box">
<div class="box_mid" style="background:none;text-align: center">
<a href="http://dtdb.zzmetro.cn:58004/" target="_blank"><img border="none" class="lazyload" data-src="/upload/portal/20180201/22ac094a37bbbf32f5b522c91da99828.png" style="height:100%;width:auto"/></a>
</div>
<div class="box_right">
<div class="gvIntro">
<div class="hd">
<a href="http://dtdb.zzmetro.cn:58004/">郑州地铁保护办公室介绍</a><br/>
<span>阅读次数:74 发布时间：2018-02-01 09:59</span>
</div>
<div class="bd">
<p>
<a href="http://dtdb.zzmetro.cn:58004/">郑州地铁保护办公室依据《郑州市轨道交通条例》、《城市轨道交通结构安全保护技术规范》、《城市轨道交通工程检测技术规范》开展地铁保护工作，具体流程如下：
1．行政主管部门来函；
2．建设单位根据轨道公司要求提交专项设计方案、专项施工方案、安全评估方案、监测方案；
3．城乡建设行政主管部门会同轨道公司组织专家评审；
4．专家评审通过后，建设单位根据专家意见进行方案修改；
5．提交修改后的方案至轨道公司备案，待各项手续完善后方可施工。</a>
</p>
<a class="detail" href="http://dtdb.zzmetro.cn:58004/" style="text-align: right" target="_blank">查看详情&gt;&gt;</a>
</div>
</div>
</div>
</div>
</div>
</div>
</div>
</div>
</div>
<!--工程建设结束-->
<!--19地铁运营开始-->
<div class="nav tab1 tab5">
<div class="navigation-down-inner">
<div class="xiala">
<div class="sub sub_zjgv">
<div class="box_left" style="display: none;">
<ul class="box_left_nav">
<li class="active"><a href="javascript:;">运营线路</a></li>
<li><a href="javascript:;">最新消息</a></li>
</ul>
</div>
<div class="right" style="width:100%;">
<div class="box">
<a href="http://www.zzmetro.com/lines/query/line" target="_blank"><img class="lazyload" data-src="/themes/metro/public/assets/img/img21.png" style="width:945px;border:2px #ddd solid;height:445px"/></a>
</div>
<div class="box active">
<div class="box_mid" style="width:385px; background:none;">
<a href="http://www.zzmetro.com" target="_blank"><img alt="" border="none" class="lazyload" data-src="/upload/portal/20171204/213693df899a6cee8de3b6fe739e1ce9.png"/></a>
</div>
<div class="box_right" style="width:700px;">
<div class="gvIntro">
<div class="hd">
<a href="http://www.zzmetro.com" target="_blank">郑州地铁集团有限公司运营分公司</a><br/>
<!--<span>阅读次数:126370&nbsp;发布时间：2017-11-30 15:02</span>-->
</div>
<div class="bd">
<p><a href="http://www.zzmetro.com/lines/query/line">       郑州地铁集团有限公司运营分公司成立于2012年8月，经郑州地铁集团有限公司授权，承担着郑州地铁运营管理任务，负责调度指挥、票务管理、客运服务、列车运行、员工培训、设备设施维修维保等工作。运营分公司根据现代企业制度要求，建立了科学合理、高效精简的组织架构与管理体系，共设有13个部门，各部门分工协作、各司其职、各负其责，共同保障了郑州地铁的安全、平稳运营。

       郑州地铁以提供乘客安全可靠、舒适便利的地铁运营服务为己任，不断提升服务水平，提高服务质量，推动各项创新举措，用心服务、用爱运营，以地铁新科技、运营心服务，致力于与城市共成长。


</a>
</p>
<!--<a href="/portal/info/index/id/103/cid/21.html"
                                                           target="_blank" class="detail" style="text-align: right">查看详情&gt;&gt;</a>-->
</div>
</div>
</div>
</div>
</div>
</div>
</div>
</div>
</div>
<!--地铁运营结束-->
<!--22企业文化开始-->
<div class="nav tab1 tab7">
<div class="navigation-down-inner">
<div class="xiala">
<div class="sub sub_zjgv">
<div class="box_left">
<ul class="box_left_nav">
<li class="active">
<a href="/page/id/23.html">企业理念</a>
</li>
<li>
<a href="/page/id/24.html">企业形象</a>
</li>
<li>
<a href="/page/id/25.html">文体活动</a>
</li>
<li>
<a href="/page/id/26.html">影像地铁</a>
</li>
<li>
<a href="/page/id/27.html">员工风采</a>
</li>
</ul>
</div>
<div class="right">
<div class="box active">
<div class="box_mid">
<a href="/portal/info/index/id/83/cid/23.html" target="_blank"><img alt="" border="none" class="lazyload" data-src="/upload/portal/20171130/f88a3fed5ac87d4a90ade106649c265e.png"/></a>
</div>
<div class="box_right">
<div class="gvIntro">
<div class="hd">
<a href="/portal/info/index/id/83/cid/23.html">企业理念</a><br/>
<span>阅读次数:157166 发布时间：2017-11-29 18:26</span>
</div>
<div class="bd">
<p>
<a href="/portal/info/index/id/83/cid/23.html">第一条 企业使命：畅通市民出行, 美丽城市生活
【阐释】
畅通市民出行：
我们以轨道交通建设和运营为核心，致力于通过建设精品地铁，提供优质服务，为畅通市民出行服务。
美丽城市生活：
作为快捷交通的先锋，我们致力于改善出行民生，提升城市的交通品位，让轨道交通融入市民的日常生活。
作为城市文化的窗口，我们致力于塑造华美的地下景观，践行文明的出行理念，美丽绿城的人文环境。
作为资源汇集的走廊，我们致力于协同城市的规划，孕育上盖商圈的价值成长，助力绿城的经济发展。</a>
</p>
<a class="detail" href="/portal/info/index/id/83/cid/23.html" style="text-align: right" target="_blank">查看详情&gt;&gt;</a>
</div>
</div>
</div>
</div>
<div class="box">
<div class="box_mid">
<a href="/portal/info/index/id/4501/cid/24.html" target="_blank"><img alt="" border="none" class="lazyload" data-src="/upload/20190823/0f38e985106c60ec139bd6805f640128.jpg"/></a>
</div>
<div class="box_right">
<div class="gvIntro">
<div class="hd">
<a href="/portal/info/index/id/4501/cid/24.html">晶晶服务荣获“郑州市优秀志愿服务项目”称号</a><br/>
<span>阅读次数:130521 发布时间：2019-08-23 15:11</span>
</div>
<div class="bd">
<p>
<a href="/portal/info/index/id/4501/cid/24.html">2019年6月，郑州市精神文明建设指导委员会授予晶晶服务“郑州市优秀志愿服务项目”荣誉称号。</a>
</p>
<a class="detail" href="/portal/info/index/id/4501/cid/24.html" style="text-align: right" target="_blank">查看详情&gt;&gt;</a>
</div>
</div>
</div>
</div>
<div class="box">
<div class="box_mid">
<a href="/portal/info/index/id/5603/cid/25.html" target="_blank"><img alt="" border="none" class="lazyload" data-src="/upload/20201226/7ee77d5b45446e06291f1c4481807c4b.jpg"/></a>
</div>
<div class="box_right">
<div class="gvIntro">
<div class="hd">
<a href="/portal/info/index/id/5603/cid/25.html"> 喜迎双线开通  精彩与您同行 ——郑州地铁“文艺轻骑兵”出入口文化节首次开演</a><br/>
<span>阅读次数:269 发布时间：2020-12-26 17:27</span>
</div>
<div class="bd">
<p>
<a href="/portal/info/index/id/5603/cid/25.html">12月26日上午，郑州地铁3号线一期、4号线双线开通。郑州地铁集团有限公司工会组织33名文艺轻骑兵在新线开通之际成功举办了出入口文化节活动。</a>
</p>
<a class="detail" href="/portal/info/index/id/5603/cid/25.html" style="text-align: right" target="_blank">查看详情&gt;&gt;</a>
</div>
</div>
</div>
</div>
<div class="box">
<div class="box_mid">
<a href="/portal/info/index/id/102/cid/26.html" target="_blank"><img alt="" border="none" class="lazyload" data-src="/upload/portal/20171204/29538b7aeaf08aeb978b4462d0a6d332.jpg"/></a>
</div>
<div class="box_right">
<div class="gvIntro">
<div class="hd">
<a href="/portal/info/index/id/102/cid/26.html">“郑州地铁——从闹市到空港”摄影比赛三等奖（一）</a><br/>
<span>阅读次数:229651 发布时间：2017-11-30 13:20</span>
</div>
<div class="bd">
<p>
<a href="/portal/info/index/id/102/cid/26.html">郑州地铁——从闹市到空港”摄影比赛三等奖
大段暗挖-刘一萌
地铁2号线- 芦山
共享蓝天-王东纯
浇灌-铁柱
精准定位-倪小保
劳动之歌-穆建娥
乐谱华章-杜娟
陈品作品（一）</a>
</p>
<a class="detail" href="/portal/info/index/id/102/cid/26.html" style="text-align: right" target="_blank">查看详情&gt;&gt;</a>
</div>
</div>
</div>
</div>
<div class="box">
<div class="box_mid">
<a href="/portal/info/index/id/5289/cid/27.html" target="_blank"><img alt="" border="none" class="lazyload" data-src="/upload/portal/20200730/e0a64381181ee5ea13dd04768ac56021.jpg"/></a>
</div>
<div class="box_right">
<div class="gvIntro">
<div class="hd">
<a href="/portal/info/index/id/5289/cid/27.html">公司3名员工荣获2020年全市建设交通邮电系统首届“产业大工匠”等荣誉称号</a><br/>
<span>阅读次数:43533 发布时间：2020-07-30 11:03</span>
</div>
<div class="bd">
<p>
<a href="/portal/info/index/id/5289/cid/27.html">2020年全市建设交通邮电系统首届“产业大工匠”评选活动圆满落下帷幕，公司3名参选人员全部获奖，阿克选获得“产业大工匠”荣誉称号，苌红涛、曹治超获得“产业工匠”荣誉称号，特此祝贺。</a>
</p>
<a class="detail" href="/portal/info/index/id/5289/cid/27.html" style="text-align: right" target="_blank">查看详情&gt;&gt;</a>
</div>
</div>
</div>
</div>
</div>
</div>
</div>
</div>
</div>
<!--企业文化结束-->
<!--28文明创建开始-->
<div class="nav tab1 tab8">
<div class="navigation-down-inner">
<div class="xiala">
<div class="sub sub_zjgv">
<div class="box_left">
<ul class="box_left_nav">
<li class="active">
<a href="/page/id/30.html">诚信法制</a>
</li>
<li>
<a href="/page/id/31.html">爱心帮扶</a>
</li>
<li>
<a href="/page/id/32.html">志愿服务</a>
</li>
</ul>
</div>
<div class="right">
<div class="box active">
<div class="box_mid">
<a href="/portal/info/index/id/5580/cid/30.html" target="_blank"><img alt="" border="none" class="lazyload" data-src="/upload/20201209/4702eadb59cbbb3c1f720ba85d88bbac.jpg"/></a>
</div>
<div class="box_right">
<div class="gvIntro">
<div class="hd">
<a href="/portal/info/index/id/5580/cid/30.html">郑州地铁集团有限公司组织开展 2020年“宪法宣传周”法治宣传活动</a><br/>
<span>阅读次数:4744 发布时间：2020-12-09 10:09</span>
</div>
<div class="bd">
<p>
<a href="/portal/info/index/id/5580/cid/30.html">为深入学习贯彻党的十九大和十九届二中、三中、四中、五中全会精神，深入学习宣传习近平法治思想，弘扬宪法精神，维护宪法权威，推动宪法全面实施，郑州地铁集团有限公司于11月30日至12月6日，组织开展“宪法宣传周”法治宣传活动。</a>
</p>
<a class="detail" href="/portal/info/index/id/5580/cid/30.html" style="text-align: right" target="_blank">查看详情&gt;&gt;</a>
</div>
</div>
</div>
</div>
<div class="box">
<div class="box_mid">
<a href="/portal/info/index/id/5178/cid/31.html" target="_blank"><img alt="" border="none" class="lazyload" data-src="/upload/portal/20200615/daa2945d7970aab397accc7ba63daa7b.jpg"/></a>
</div>
<div class="box_right">
<div class="gvIntro">
<div class="hd">
<a href="/portal/info/index/id/5178/cid/31.html">扎实开展结对帮扶工作 助推农村精神文明建设</a><br/>
<span>阅读次数:57242 发布时间：2020-06-15 16:23</span>
</div>
<div class="bd">
<p>
<a href="/portal/info/index/id/5178/cid/31.html">5月29日，郑州地铁集团志愿者来到结对帮扶村中牟县狼城岗镇曹寨村，开展结对帮扶工作。</a>
</p>
<a class="detail" href="/portal/info/index/id/5178/cid/31.html" style="text-align: right" target="_blank">查看详情&gt;&gt;</a>
</div>
</div>
</div>
</div>
<div class="box">
<div class="box_mid">
<a href="/portal/info/index/id/4855/cid/32.html" target="_blank"><img alt="" border="none" class="lazyload" data-src="/upload/20200201/47792e4a47ee0c938fe6abc9f8db3ab5.jpg"/></a>
</div>
<div class="box_right">
<div class="gvIntro">
<div class="hd">
<a href="/portal/info/index/id/4855/cid/32.html">疫情面前显大爱 践行文明不止步  郑州地铁志愿服务在行动</a><br/>
<span>阅读次数:88184 发布时间：2020-02-01 20:24</span>
</div>
<div class="bd">
<p>
<a href="/portal/info/index/id/4855/cid/32.html">“生命重于泰山。疫情就是命令，防控就是责任。”自新型冠状病毒肺炎疫情防控工作开展以来，郑州地铁坚决贯彻落实习近平总书记重要讲话精神，坚决落实中央、省、市关于疫情防控工作部署，在公司党委的领导下，开展疫情防控知识培训，科学、有序、专业地开展疫情防控志愿服务工作，用志愿力量彰显爱心善意和责任担当，筑起防控的牢固“城墙”。</a>
</p>
<a class="detail" href="/portal/info/index/id/4855/cid/32.html" style="text-align: right" target="_blank">查看详情&gt;&gt;</a>
</div>
</div>
</div>
</div>
</div>
</div>
</div>
</div>
</div>
<!--文明创建结束-->
<!--33人才招聘开始-->
<div class="nav tab1 tab9">
<div class="navigation-down-inner">
<div class="xiala">
<div class="sub sub_zjgv">
<div class="box_left">
<ul class="box_left_nav">
<li class="active">
<a href="/page/id/34.html">招聘信息</a>
</li>
<li>
<a href="/page/id/35.html">应聘须知</a>
</li>
</ul>
</div>
<div class="right">
<div class="box active">
<div class="box_mid">
<a href="/portal/info/index/id/5370/cid/34.html" target="_blank">
<img border="none" class="lazyload" data-src="/static/images/hr_1.jpg"/>
</a>
</div>
<div class="box_right">
<div class="gvIntro">
<div class="hd">
<a href="/portal/info/index/id/5370/cid/34.html">关于冒用郑州地铁集团有限公司名义招聘的声明</a><br/>
<span>阅读次数:44332 发布时间：2020-08-27 18:03</span>
</div>
<div class="bd">
<p>
<a href="/portal/info/index/id/5370/cid/34.html">近期，有个别机构或个人通过微信、朋友圈、短信等形式，冒用郑州地铁集团有限公司名义招聘并发布入职通知，为维护广大求职者的权益，谨防上当受骗，现声明如下。</a>
</p>
<a class="detail" href="/portal/info/index/id/5370/cid/34.html" style="text-align: right" target="_blank">查看详情&gt;&gt;</a>
</div>
</div>
</div>
</div>
<div class="box">
<div class="box_mid">
<a href="/portal/info/index/id/3141/cid/35.html" target="_blank">
<img border="none" class="lazyload" data-src="/static/images/hr_2.jpg"/>
</a>
</div>
<div class="box_right">
<div class="gvIntro">
<div class="hd">
<a href="/portal/info/index/id/3141/cid/35.html">郑州地铁集团有限公司录用报到通知</a><br/>
<span>阅读次数:148765 发布时间：2018-03-06 17:11</span>
</div>
<div class="bd">
<p>
<a href="/portal/info/index/id/3141/cid/35.html">入职办理准备材料</a>
</p>
<a class="detail" href="/portal/info/index/id/3141/cid/35.html" style="text-align: right" target="_blank">查看详情&gt;&gt;</a>
</div>
</div>
</div>
</div>
</div>
</div>
</div>
</div>
</div>
<!--人才招聘结束-->
<!--36招标投标开始-->
<div _t_nav="tab9" class="nav tab1 tab10" id="tab10">
<div class="navigation-down-inner">
<div class="xiala">
<div class="sub sub_zjgv">
<div class="box_left">
<ul class="box_left_nav">
<li class="active">
<a href="/page/id/37.html">招标/比选公告</a>
</li>
<li>
<a href="/page/id/44.html">竞争性洽谈/比价公告</a>
</li>
<li>
<a href="/page/id/46.html">单一来源/直接委托公示</a>
</li>
<li>
<a href="/page/id/38.html">中标/中选公示</a>
</li>
<li>
<a href="/page/id/51.html">注意事项</a>
</li>
</ul>
</div>
<div class="right">
<div class="box active">
<div class="box_mid">
<a href="/portal/info/index/id/5551/cid/37.html" target="_blank">
<img border="none" class="lazyload" data-src="/static/images/bidding_1.jpg"/>
</a>
</div>
<div class="box_right">
<div class="gvIntro">
<div class="hd">
<a href="/portal/info/index/id/5551/cid/37.html">严正声明 </a><br/>
<span>阅读次数:9985 发布时间：2020-11-19 16:09</span>
</div>
<div class="bd">
<p>
<a href="/portal/info/index/id/5551/cid/37.html">近期，有部分单位和个人向我公司反映，社会上有不法分子冒用郑州地铁集团有限公司名义，以轨道交通建设工程发包、分包、转包等各种手段进行诈骗，损害了我公司形象。对此，我公司严正声明如下：
</a>
</p>
<a class="detail" href="/portal/info/index/id/5551/cid/37.html" style="text-align: right" target="_blank">查看详情&gt;&gt;</a>
</div>
</div>
</div>
</div>
<div class="box">
<div class="box_mid">
<a href="/portal/info/index/id/2023/cid/44.html" target="_blank">
<img border="none" class="lazyload" data-src="/static/images/bidding_2.jpg"/>
</a>
</div>
<div class="box_right">
<div class="gvIntro">
<div class="hd">
<a href="/portal/info/index/id/2023/cid/44.html">郑州市轨道交通2018-2019年车站卫浴备件采购项目网上比价公告</a><br/>
<span>阅读次数:166849 发布时间：2018-02-06 13:17</span>
</div>
<div class="bd">
<p>
<a href="/portal/info/index/id/2023/cid/44.html">郑州市轨道交通有限公司运营分公司（以下简称“比价人”）采用网上比价方式对郑州市轨道交通2018-2019年车站卫浴备件采购项目选取供应商，欢迎符合资格要求并有意向的</a>
</p>
<a class="detail" href="/portal/info/index/id/2023/cid/44.html" style="text-align: right" target="_blank">查看详情&gt;&gt;</a>
</div>
</div>
</div>
</div>
<div class="box">
<div class="box_mid">
<a href="/portal/info/index/id/2022/cid/46.html" target="_blank">
<img border="none" class="lazyload" data-src="/static/images/bidding_3.jpg"/>
</a>
</div>
<div class="box_right">
<div class="gvIntro">
<div class="hd">
<a href="/portal/info/index/id/2022/cid/46.html">郑州市至巩义市域铁路市政配套工程沿线站点交通接驳规划项目单一来源/直接委托公示</a><br/>
<span>阅读次数:162901 发布时间：2018-01-31 13:36</span>
</div>
<div class="bd">
<p>
<a href="/portal/info/index/id/2022/cid/46.html">                                    采购人名称                                    郑州市轨道交通有限公司                                                    采购</a>
</p>
<a class="detail" href="/portal/info/index/id/2022/cid/46.html" style="text-align: right" target="_blank">查看详情&gt;&gt;</a>
</div>
</div>
</div>
</div>
<div class="box">
<div class="box_mid">
<a href="/portal/info/index/id/3261/cid/38.html" target="_blank">
<img border="none" class="lazyload" data-src="/static/images/bidding_4.jpg"/>
</a>
</div>
<div class="box_right">
<div class="gvIntro">
<div class="hd">
<a href="/portal/info/index/id/3261/cid/38.html">郑州市轨道交通2号线二期工程及郑州市民文化服务区地下交通市政工程综合联调委外服务项目中选结果公示</a><br/>
<span>阅读次数:133536 发布时间：2018-05-04 15:37</span>
</div>
<div class="bd">
<p>
<a href="/portal/info/index/id/3261/cid/38.html"></a>
</p>
<a class="detail" href="/portal/info/index/id/3261/cid/38.html" style="text-align: right" target="_blank">查看详情&gt;&gt;</a>
</div>
</div>
</div>
</div>
<div class="box">
<div class="box_mid">
<a href="/portal/info/index/id/5570/cid/51.html" target="_blank">
<img border="none" class="lazyload" data-src="/static/images/bidding_4.jpg"/>
</a>
</div>
<div class="box_right">
<div class="gvIntro">
<div class="hd">
<a href="/portal/info/index/id/5570/cid/51.html">严正声明</a><br/>
<span>阅读次数:3310 发布时间：2020-12-02 15:45</span>
</div>
<div class="bd">
<p>
<a href="/portal/info/index/id/5570/cid/51.html">近期，有部分单位和个人向我公司反映，社会上有不法分子冒用郑州地铁集团有限公司名义，以轨道交通建设工程发包、分包、转包等各种手段进行诈骗，损害了我公司形象。对此，我公司严正声明</a>
</p>
<a class="detail" href="/portal/info/index/id/5570/cid/51.html" style="text-align: right" target="_blank">查看详情&gt;&gt;</a>
</div>
</div>
</div>
</div>
</div>
</div>
</div>
</div>
</div>
<!--招标投标结束-->
</div>
<!--导航栏目结束-->
</div>
</div>
</header>
<script>
    var can_rewrite = true;
    $(function () {
        var index_list = {
            1: 1,
            7: 2,
            13: 3,
            14: 4,
            15: 5,
            19: 6,
            22: 7,
            28: 8,
            33: 9,
            36: 10
        };
        $("#nav01 li").mouseenter(function () {
            var i = $(this).data('id');
            $("#nav01 li").removeClass("nav-up-selected");
            $(".navigation-down .nav").hide();
            if (i > 0) {
                $(this).addClass("nav-up-selected");
                $(".navigation-down .nav").eq(index_list[i]).show(0);
                $("body").trigger("scroll");
                can_rewrite = false;
            } else {
                can_rewrite = true;
            }
            rewrite();
        });
        $('.box_left_nav').on('mouseenter', 'li', function () {
            if ($(this).hasClass('no_hover')) {
                return;
            }
            var $this = $(this);
            $this.siblings('.active').removeClass('active');
            this.className = 'active';
            $this.closest('.box_left').next().find('.box').eq($this.index()).addClass('active').siblings('.active').removeClass('active');
            $("body").trigger("scroll");
        });
        rewrite();
        $(window).resize(function () {
            if (can_rewrite) {
                rewrite();
            }
        });
    });
    $('.nav_container').mouseleave(function () {
        $("#nav01 li").removeClass("nav-up-selected");
        $('.navigation-down .nav').fadeOut(100);
    });

    function rewrite() {
        var wh = $(window).height();
        var ww = $(window).width();
        if (ww < 1800) {
            $('.swiper-container').height(555);
            $('.top_container').height(435);
        } else {
            $('.swiper-container').height(680);
            $('.top_container').height(435);
        }
    }
</script>
<div class="slideBox" id="slideBox">
<div class="hd">
<ul>
<li></li>
<li></li>
<li></li>
</ul>
</div>
<div class="bd">
<ul>
<li style="background-image:url(/upload/admin/20201225/f339e56b0e767c033a5057dd31494e9e.png)"></li>
<li style="background-image:url(/upload/admin/20190114/6033568bfb6a085f37eadd2ccf85f92f.jpg)"></li>
<li style="background-image:url(/upload/admin/20191015/cac3d9fcc206d86ec4f7c49b4c22248d.jpg)"></li>
</ul>
</div>
</div>
<section>
<div class="xinwen">
<div class="xw_img" onclick="location.href='/portal/info/index/id/5601/cid/13.html'">
<img class="lazyload" data-src="/upload/no_pic.jpg"/><span>厚德载道 匠心铸造智慧线 行稳致远 不负韶华再出发 ——致社会各界和广大市民的感谢信</span>
</div>
<div class="xw_ne" onclick="location.href='/portal/info/index/id/5601/cid/13.html'">
<p class="xw_ne_he">厚德载道 匠心铸造智慧线 行稳致远 不负韶华再出发 ——致社会各界和广大市民的感谢信</p>
<p class="xw_ne_xq">尊敬的社会各界和广大市民朋友：

岁月不居，时节如流，极不寻常的2020年即将过去，这一年，郑州轨道交通的建设者与您携手并肩，随着这座城市起伏的脉动，从凛冽严冬走到春和景明；这一年，我们同心协力，用严防死守保证安全健康出行；这一年，我们重振旗鼓、首批复工复产，共同摁下城市重启键，迎接风雨之后的绚烂彩虹。</p>
</div>
<div class="xw_ul">
<a class="xw_li" href="/portal/info/index/id/5609/cid/13.html">
<span>·</span>郑州地铁4号线正式开门载客！文化地铁“闪”耀商都！                </a>
<a class="xw_li" href="/portal/info/index/id/5607/cid/13.html">
<span>·</span>“蓝”“桔”共放    双线齐发  郑州市轨道交通3号线一期、4号线开门迎客                 </a>
<a class="xw_li" href="/portal/info/index/id/5606/cid/13.html">
<span>·</span>“豫见民法典 典亮新生活” ——郑州地铁“民法典号”专列上线                </a>
<a class="xw_li" href="/portal/info/index/id/5602/cid/13.html">
<span>·</span>搭载文化引擎 地铁别样精彩                </a>
<a class="xw_li" href="/portal/info/index/id/5596/cid/13.html">
<span>·</span>徐立毅调研轨道交通建设工作 强调加快建设“轨道上的都市”引领城市结构优化发展提质                </a>
<span class="xw_mor"><a href="/portal/catalog/category/id/13.html">查看更多&gt;&gt;</a></span>
</div>
</div>
<a href="/portal/index/education.html"><div class="zjc"><img class="lazyload" data-src="/themes/metro/public/assets/img/zjc.jpg"/></div></a>
<div class="main clearfix">
<div class="img_groups">
<ul>
<li>
<a href="http://www.zzmetro.com" target="_blank"><img alt="" class="lazyload" data-src="/themes/metro/public/assets/img/li_1.png"/>
<div class="img_txt">
<span>地铁运营</span>
</div>
</a>
</li>
<li>
<a href="/page/id/15.html"><img alt="" class="lazyload" data-src="/themes/metro/public/assets/img/li_2.jpg"/>
<div class="img_txt">
<span>工程建设</span>
</div>
</a>
</li>
<li>
<a href="http://dtdb.zzmetro.cn:58004/" target="_blank"><img alt="" class="lazyload" data-src="/themes/metro/public/assets/img/li_3.png"/>
<div class="img_txt">
<span>地铁保护</span>
</div>
</a>
</li>
<li>
<a href="/page/id/33.html"><img alt="" class="lazyload" data-src="/themes/metro/public/assets/img/li_4.png"/>
<div class="img_txt">
<span>人才招聘</span>
</div>
</a>
</li>
<li>
<a href="/page/id/36.html"><img alt="" class="lazyload" data-src="/themes/metro/public/assets/img/li_5.png"/>
<div class="img_txt">
<span>招标投标</span>
</div>
</a>
</li>
<li>
<a href="/page/id/7.html"><img alt="" class="lazyload" data-src="/themes/metro/public/assets/img/li_6.jpg"/>
<div class="img_txt">
<span style="padding-left: 4px">企业党建</span>
</div>
</a>
</li>
<li>
<a href="/page/id/22.html"><img alt="" class="lazyload" data-src="/themes/metro/public/assets/img/li_7.png"/>
<div class="img_txt">
<span>企业文化</span>
</div>
</a>
</li>
<li>
<a href="/page/id/14.html"><img alt="" class="lazyload" data-src="/themes/metro/public/assets/img/li_8.png"/>
<div class="img_txt">
<span>廉洁从业</span>
</div>
</a>
</li>
</ul>
</div>
</div>
<div class="cx_div">
<div class="cx_vid">
<video data-src="/themes/metro/public/assets/video1.mp4" height="275px" id="video" poster="/themes/metro/public/assets/img/videotu.jpg" src="" style="background: #000;" width="100%"></video>
<!--<img  class="lazyload" data-src="/themes/metro/public/assets/img/videotu.jpg"/>-->
</div>
<div class="cx_dan">
<div class="dan_li" onclick="window.open('http://www.zzmetro.com/lines/query/line')">线路查询</div>
<div class="dan_li" onclick="window.open('http://www.zzmetro.com/lines/query/station')">站点查询</div>
<div class="dan_li" onclick="window.open('http://www.zzmetro.com/lines/query/ticket')">票价查询</div>
<div class="dan_li" onclick="window.open('http://www.zzmetro.com/lines/query/operating_hours')">运营时间</div>
<div class="dan_li" onclick="window.open('http://www.zzmetro.com/list/19')">失物招领</div>
<div class="dan_li" onclick="window.open('http://www.zzmetro.com/guestbook/guestbook/index/type/1')">互动交流
            </div>
</div>
<div class="used_search ">
<h4>乘车查询</h4>
<input id="beginStation" style="display: none" type="text"/>
<input id="endStation" style="display: none" type="text"/>
<ul class="cx_ul" id="cx_ul">
<li id="cx_ul01"><span>起点</span>
<div class="select_div01 xl_div">
<input class="xl" data-index="0" placeholder="请选择线路" readonly="" type="text" value="1号线"/>
<ul class="ul cx_ul01" data-index="0"></ul>
</div>
<div class="select_div01">
<input data-index="1" placeholder="请选择站" readonly="" type="text"/>
<ul class="ul lines" data-index="1">
<li><a>请选择</a></li>
</ul>
</div>
</li>
<li id="cx_ul02"><span>终点</span>
<div class="select_div01 xl_div">
<input class="xl" data-index="2" placeholder="请选择线路" readonly="" type="text" value="2号线"/>
<ul class="ul cx_ul02" data-index="2"></ul>
</div>
<div class="select_div01">
<input data-index="3" placeholder="请选择站" readonly="" type="text"/>
<ul class="ul lines" data-index="3">
<li><a>请选择</a></li>
</ul>
</div>
</li>
</ul>
<div class="btn03">
<input type="text" value="查询"/>
</div>
</div>
</div>
</section>
<footer>
<div class="link">
<ul class="link_container">
<li style="font-weight: bold;font-size:1.125em;">友情链接</li>
<li><a href="http://www.njmetro.com.cn" rel="nofollow" target="_blank"><img alt="南京地铁" class="lazyload" data-src="/upload/admin/20171218/4c38e39c808ecc3bf14c1fd388c62282.jpg"/></a>
</li>
<li><a href="http://www.bjsubway.com/" rel="nofollow" target="_blank"><img alt="北京地铁" class="lazyload" data-src="/upload/admin/20171218/fb5d4547874aab3065e770318c09f233.jpg"/></a>
</li>
<li><a href="http://www.shmetro.com/" rel="nofollow" target="_blank"><img alt="上海地铁" class="lazyload" data-src="/upload/admin/20171218/f407099bf8eb03b786db52918dabcdfc.jpg"/></a>
</li>
<li><a href="http://www.gzmtr.com/" rel="nofollow" target="_blank"><img alt="广州地铁" class="lazyload" data-src="/upload/admin/20171218/2fe06b1f86fe9ca7880d7c5a852888c5.jpg"/></a>
</li>
<li><a href="http://www.szmc.net/" rel="nofollow" target="_blank"><img alt="深圳地铁" class="lazyload" data-src="/upload/admin/20171218/392065eec2eee3f9db9dafb9152f506c.jpg"/></a>
</li>
<li><a href="http://www.mtr.com.hk/ch/customer/main/index.html" rel="nofollow" target="_blank"><img alt="香港地铁" class="lazyload" data-src="/upload/admin/20171218/47db51a4d404ae2f7650dba3913fafb0.jpg"/></a>
</li>
</ul>
</div>
<div class="foot">
<div class="txt">
<p>公司地址：郑州市郑东新区康宁街100号    邮编：450000</p>
<p>24小时值班电话：0371-55165516    传真：0371-55165516/55166617（工作日9:00—17:00）  </p>
<p>乘客服务热线:0371-55166166（每天8:30-20:00）</p>
<p>电子邮箱：zzmetro@zzmetro.cn</p>
<p>Copyright 2010 郑州地铁集团有限公司 版权所有 All rights reserved. <a href="http://beian.miit.gov.cn" style="color:#fff" target="_blank"> 豫ICP备13021555号 </a></p>
<div class="wx_div">
<div class="wx_li">
<img class="lazyload" data-src="/themes/metro/public/assets/img/weixin1.png"/>
<span>郑州地铁微信</span>
</div>
<div class="wx_li">
<img class="lazyload" data-src="/themes/metro/public/assets/img/weixin2.png"/>
<span>郑州地铁咨询微信</span>
</div>
<div class="wx_li">
<img class="lazyload" data-src="/themes/metro/public/assets/img/weixin3.png"/>
<span>郑州地铁微博</span>
</div>
<div class="wx_li">
<img class="lazyload" data-src="/themes/metro/public/assets/img/weixin4.png"/>
<span>郑州地铁APP</span>
</div>
</div>
<img class="fuer"/>
</div>
</div>
</footer>
<script src="/static/js/lazyload/lazyload.js"></script>
<script>
    $(function () {
        $('.lazyload').lazyload({
            data_attribute: 'src'
        });
        var fuer = $('.fuer');
        var right = [310, 208, 105, 5];
        $('.wx_li').mouseover(function () {
            var $this = $(this);
            fuer.css({'opacity': '1', 'right': right[$this.index()] + 'px'}).attr('src', $this.find('img')[0].src);
        }).mouseleave(function () {
            fuer.css({'opacity': '0'});
        });
    });
</script>
<div style="display: none;"> <script src="//s22.cnzz.com/z_stat.php?id=1273229270&amp;web_id=1273229270" type="text/javascript"></script>
</div>
<div class="go_top" style="display: none;">
<em class="return"></em>
<span>返回顶部</span>
</div>
<!-- /container -->
<script>
    // $('#nav01>li').eq(5).hide();
    // $('#nav01>li')
    //     .eq(5)
    //     .attr('data-id', 0)
    //     .find('a')
    //     .attr('href', 'http://zhaopin.zzmetro.cn:8000/psp/ps/EMPLOYEE/HRMS/c/HRS_HRAM.HRS_APP_SCHJOB.GBL?Page=HRS_APP_SCHJOB&Action=U&FOCUS=Applicant&SiteId=1')
    //     .prop('target', '_blank');
</script>
<script src="/themes/metro/public/assets/js/jquery.SuperSlide.2.1.1.js"></script>
<script>
    var lines = {};
    var station = {};
    $(function () {
        $.ajax({
            url: '//api.zzmetro.com/api/stations',
            data: {with: 'lines'},
            dataType: 'jsonp',
            success: function (res) {
                console.log(res);
                if (!res.status) {
                    alert('接口调用失败');
                } else {
                    station = res.data.stations;
                    lines = res.data.lines;
                    var str = '';
                    for (var i in lines) {
                        str += '<li data-line="' + i + '"><a>' + lines[i] + '</a></li>';
                    }
                    $('ul.cx_ul01,ul.cx_ul02').html(str);
                    // 设置默认始发站&终点站
                    select(1, 0);
                    select(2, 1);
                    select(1, 2);
                    lx(0);
                }
            }
        });


        $(window).scroll(function () {
            if ($(window).scrollTop() > 150) {
                $(".go_top").fadeIn(300);
            } else {
                $(".go_top").fadeOut(300);
            }
        });
        $(".go_top").click(function () {
            $('body,html').animate({
                scrollTop: 0
            }, 300);
        });
    });

    $('.main .img_groups ul li .img_txt').hover(function () {
        $('this').addClass('active');
    });

    jQuery(".slideBox").slide({
        mainCell: ".bd ul",
        effect: "fold",
        autoPlay: true,
        pnLoop: false,
        delayTime: 800,
        interTime: 5000
    });

    function select(line, index) {
        var $line = ((typeof line == 'undefined') ? 1 : line);
        var $index = typeof index == 'undefined' ? 0 : index;

        var str = '',
            first = '',
            first_val = 0;
        for (var $i in station[$line]) {
            if (first == '') {
                first = station[$line][$i];
                first_val = $i;
            }
            str += '<li data-value="' + $i + '"><a>' + station[$line][$i] + '</a></li>';
        }
        $('.lines').eq($index).html(str).prev().val(first);
        if ($index == 0) {
            $('#beginStation').val(first_val);
        } else if ($index == 1) {
            $('#endStation').val(first_val);
        } else {
            $('#searchStation').val(first_val);
        }
    }

    function lx(index) {
        $index = (typeof (index) == 'undefined') ? 0 : index;
        $licon = $('.xl_cont').eq($index);
        var num = 1,
            marginLeft = 0;
        var lx_zd_linum; //li个数
        var lx_zd_ulw; //ul 宽度
        lx_zd_linum = $licon.children('ul').children("li").length; //站点个数
        lx_zd_ulw = $licon.children('ul').children("li").width() * lx_zd_linum;
        $licon.children('ul').css("width", lx_zd_ulw);

        var zd_ulw = $licon.children('ul').width(); //ul 宽
        var numzd = 1;
        var zd_divw = $licon.width();
        var marginLeft_zd;

        $licon.find('.xl_cont_left_jt').on('click', function () {
            if (num <= 1) {
                marginLeft_zd = 0;
            } else {
                marginLeft_zd += zd_divw;
                num--;
            }
            $licon.children('ul').animate({marginLeft: marginLeft_zd})
        });
        $licon.find('.xl_cont_right_jt').on('click', function () {
            if (zd_ulw < 2 * zd_divw) {
                marginLeft_zd = -(zd_ulw - zd_divw);
                $licon.children('ul').animate({marginLeft: marginLeft_zd})
            }
            if (zd_ulw > 2 * zd_divw) {
                var bfb = zd_ulw / zd_divw;
                var numlx = (parseInt(bfb) == bfb); //整数是true  小数  是false
                var numzs = parseInt(bfb); //取整
                if (numlx == false) { //小数
                    if (num < numzs) {
                        marginLeft_zd = -zd_divw * num;
                        $licon.children('ul').animate({marginLeft: marginLeft_zd});
                        num++;
                    } else {
                        marginLeft_zd = -zd_divw * (num - 1) - (bfb - numzs) * zd_divw;
                        num = parseInt(bfb);
                        $licon.children('ul').animate({marginLeft: marginLeft_zd})
                    }
                }
                if (numlx == true) { //整数
                    if (num < numzs) {
                        marginLeft_zd = -zd_divw * num;
                        $licon.children('ul').animate({marginLeft: marginLeft_zd});
                        num++;
                    } else {
                        num = parseInt(bfb);
                        marginLeft_zd = -zd_divw * (num - 1);
                        $licon.children('ul').animate({marginLeft: marginLeft_zd})
                    }
                }
            }
        });
    }

    $(function () {
        $('.cx_ul input').on('click', function () {
            $index = $(this).attr('data-index');
            $(this).addClass("on");
            $('.ul').eq($index).slideDown();
        });
        $(document).on('click', '.ul li', function () {
            $ul = $(this).parent('.ul');
            $('input').removeClass('on');
            $index = $ul.attr('data-index');
            $ul.slideUp();
            var val = $(this).text(),
                _station = $(this).attr('data-value');
            $ul.prev('input').val(val);
            if ($index == 0 || $index == 2) {
                $line = $(this).attr('data-line');
                $line_index = $index == 0 ? 0 : 1;
                select($line, $line_index);
            } else {
                if ($index == 1) {
                    $('#beginStation').val(_station);
                } else if ($index == 3) {
                    $('#endStation').val(_station);
                } else {
                    $('#searchStation').val(_station);
                }
            }
        });
        // 查询线路按钮
        $(".btn03 input").on("click", function () {
            window.open('http://www.zzmetro.com/lines/query/ticket?begin=' + $("#beginStation").val() + '&end=' + $("#endStation").val());
        })
        $('#video').mouseenter(function () {
            if ($(this).attr('src') == '') {
                $(this).attr('src', $(this).attr('data-src'));
            }
            this.controls = true;
        });
    });
</script>
</body>
</html>