<!DOCTYPE html>
<html lang="en">
<head>
<meta charset="utf-8"/>
<meta content="width=device-width, initial-scale=1" name="viewport"/>
<meta content="IE=edge" http-equiv="X-UA-Compatible"/>
<link href="https://www.autolikerforfb.com" hreflang="en" rel="alternate"/>
<title>Auto Liker for FB - Best FB Auto Liker to get Facebook Likes &amp; Reactions</title>
<meta content="Auto Liker for FBto gain Auto Likes on your Facebook posts. Try Auto Liker for Facebook and get upto 300 likes per submit." name="description"/>
<meta content="auto like, auto liker, auto comment facebook, auto like fb, auto like status, auto likes, best autoliker, facebook auto liker, auto liker for fb, fb auto liker, auto like, auto liker, auto comment facebook, auto like fb, auto like status, auto likes, best autoliker, facebook auto liker" name="keywords"/>
<link href="favicon.ico" rel="shortcut icon"/>
<meta content="index,follow" name="robots"/>
<link href="https://www.autolikerforfb.com" rel="canonical"/>
<meta content="en_US" property="og:locale"/>
<meta content="website" property="og:type"/>
<meta content="Facebook Auto Liker - Gain upto 300 likes" property="og:title"/>
<meta content="Gain automatic likes on your Facebook Post. User auto liker for facebook." property="og:description"/>
<meta content="https://www.autolikerforfb.com" property="og:url"/>
<meta content="autolikerforfb.com" property="og:site_name"/>
<meta content="https://www.autolikerforfb.com/img/thumbs-up.jpg" property="og:image"/>
<meta content="1666412638" property="fb:admins"/>
<link href="css/bootstrap.new.css" media="screen" rel="stylesheet"/>
<meta content="no-referrer" name="referrer"/>
<link href="css/custom.min.css" rel="stylesheet"/>
<script src="https://ajax.googleapis.com/ajax/libs/jquery/1/jquery.js" type="text/javascript"></script>
<script src="https://code.jquery.com/jquery-1.9.1.min.js" type="text/javascript"></script>
<link href="/css/jquery.toast.css" rel="stylesheet"/>
<script src="/js/jquery.toast.js" type="text/javascript"></script>
<!--<script src="/js/jquery1.4.1.js" type="text/javascript"></script>-->
<link href="https://stackpath.bootstrapcdn.com/font-awesome/4.7.0/css/font-awesome.min.css" rel="stylesheet"/>
<script type="application/ld+json">
{
  "@context": "http://schema.org/", 
  "@type": "Product", 
  "name": "Auto Liker for Facebook",
  "image": "https://www.autolikerforfb.com/img/thumbs-up.jpg",
  "description": "Gain automatic likes on your Facebook Post. User auto liker for facebook.",
  "brand": "Auto Liker for Facebook",
  "offers": {
    "@type": "Offer",
    "priceCurrency": "USD",
    "price": "0",
    "availability": "http://schema.org/OnlineOnly",
    "itemCondition": "http://schema.org/NewCondition"
  },
  "aggregateRating": {
    "@type": "AggregateRating",
    "ratingValue": "4.8",
    "bestRating": "5",
    "worstRating": "1",
    "ratingCount": "53",
    "reviewCount": "200"
  },
  "reviews": [{
    "@context": "http://schema.org/",
    "@type": "Review",
    "name": "User Review",
    "reviewBody": "This is the best website to gain Auto Likes on Facebook Posts.",
    "reviewRating": {
      "@type": "Rating",
      "ratingValue": "4.7",
      "bestRating": "5",
      "worstRating": "1"
    },
    "datePublished": "2018-05-12",
    "author": {"@type": "Person", "name": "Pankaj Jangir"},
    "publisher": {"@type": "Organization", "name": "autolikerforfb.com"}
  },{
    "@context": "http://schema.org/",
    "@type": "Review",
    "name": "User Review",
    "reviewBody": "By using this website everyone can gain automatic likes on their posts.",
    "reviewRating": {
      "@type": "Rating",
      "ratingValue": "4.8",
      "bestRating": "5", 
      "worstRating": "1"
    },
    "datePublished": "2018-05-22",
    "author": {"@type": "Person", "name": "James Thomas"}, 
    "publisher": {"@type": "Organization", "name": "autolikerforfb.com"},
    "url": "https://www.autolikerforfb.com/"
  }]
}
</script>
<style>
        body {
            background: #eee !important;
        }

        .wrapper {
            margin-top: 80px;
            margin-bottom: 80px;
        }

        .form-signin {
            max-width: 400px;
            padding: 15px 35px 45px;
            margin: 0 auto;
            background-color: #fff;
            border: 1px solid rgba(0, 0, 0, 0.1);
            .form-signin-heading,
            .checkbox {
                margin-bottom: 30px;
            }
            .checkbox {
                font-weight: normal;
            }
            .form-control {
                position: relative;
                font-size: 16px;
                height: auto;
                padding: 10px;
                @include box-sizing(border-box);
                &:focus {
                    z-index: 2;
                }
            }
            input[type="text"] {
                margin-bottom: -1px;
                border-bottom-left-radius: 0;
                border-bottom-right-radius: 0;
            }
            input[type="password"] {
                margin-bottom: 20px;
                border-top-left-radius: 0;
                border-top-right-radius: 0;
            }
        }
    </style>
<!-- Global site tag (gtag.js) - Google Analytics -->
<script async="" src="https://www.googletagmanager.com/gtag/js?id=UA-115894125-1"></script>
<script>
  window.dataLayer = window.dataLayer || [];
  function gtag(){dataLayer.push(arguments);}
  gtag('js', new Date());

  gtag('config', 'UA-115894125-1');
</script>
</head>
<body>
<div class="navbar navbar-expand-lg fixed-top navbar-dark bg-primary boxshadow">
<div class="container">
<a class="navbar-brand" href="/">Auto Liker for Facebook</a>
<button aria-controls="navbarResponsive" aria-expanded="false" aria-label="Toggle navigation" class="navbar-toggler" data-target="#navbarResponsive" data-toggle="collapse" type="button">
<span class="navbar-toggler-icon"></span>
</button>
<div class="collapse navbar-collapse" id="navbarResponsive">
<ul class="nav navbar-nav ml-auto">
<li class="nav-item"><a class="nav-link" href="https://www.autolikerforfb.com">Home</a></li>
<li class="nav-item"><a class="nav-link" href="https://www.autolikerforfb.com/how-to-use.php">How to Use</a></li>
<li class="nav-item"><a class="nav-link" href="https://www.autolikerforfb.com/about-us.php">About Us</a></li>
<li class="nav-item"><a class="nav-link" href="https://www.autolikerforfb.com/support.php">Support</a></li>
<li class="nav-item"><a class="nav-link" href="https://www.autolikerforfb.com/faqs.php">FAQs</a></li>
<li class="nav-item"><a class="nav-link" href="https://www.autolikerforfb.com/contact-us.php">Contact Us</a></li>
</ul>
</div>
</div>
</div>
<div class="container-fluid">
<div class="container">
<div class="row margin-top-10">
<div class="col-md-12">
<div class="jumbotron boxshadow">
<h1 class="text-center">Auto Liker &amp; Auto Commenter for Facebook</h1>
<p class="font20 text-center"><strong>STEP 1:</strong> <a href="login/generate-token.php"><strong>Click Here</strong></a> to get your access token (SKIP 5 sec).</p>
<p class="font18 text-center"><strong>Note:</strong> 1<sup>st</sup> Time Users Must Allow <a href="https://www.facebook.com/settings?tab=followers" rel="nofollow" target="_blank"><strong>Facebook Followers [Settings]</strong></a> to Everybody before login.</p>
<form action="login.php" method="GET">
<div class="input-group">
<input autocomplete="off" class="form-control input-lg" name="data" placeholder="https://www.facebook.com/connect/login_success.html#access_token=CAAAACZAVC6ygBAG4P" required="" type="text"/>
<div class="input-group-append">
<button class="btn btn-primary btn-lg" onclick="loader();" type="submit"><i aria-hidden="true" class="fa fa-sign-in"></i> LOGIN</button>
</div>
</div>
</form>
</div>
</div>
</div>
</div>
</div>
<div class="container-fluid bg-primary text-white text-center boxshadow">
<div class="container">
<div class="row">
<div class="col-md-12">
<p class="h6 margin50">Download Our Android Auto Liker Application   <a class="btn btn-outline-light" href="https://bit.ly/2WaXhrb"><i aria-hidden="true" class="fa fa-android"></i> Download Now</a></p>
</div>
</div>
</div>
</div>
<div class="container-fluid">
<div class="container text-center">
<h2 class="margin-top-50 padding-bottom-10">Features</h2>
<p class="font18">Plenty of significant, advanced and reliable as well as exclusive features are easy to avail with us. These features will kill all your doubts and make the user experience better. Let’s get a deep and learn the major features. </p>
<div class="row margin-top-20 text-center">
<div class="col-lg-4 padding-top-20 padding-bottom-20">
<p><i class="fa fa-thumbs-o-up fa-4x"></i></p>
<h4 class="lead"><strong>Enjoy Auto Likes</strong></h4>
<p>If you are the one who is looking to get auto like for each Facebook photo and status, there is nothing better than opting for our Auto liker. These likes are automatically generated and that too from very reliable sources.</p>
</div>
<div class="col-lg-4 padding-top-20 padding-bottom-20">
<p><i class="fa fa-download fa-4x"></i></p>
<h4 class="lead"><strong>Easy Download</strong></h4>
<p>Downloading our Auto liker application is not a tough task at all and you are not even required to pay any money. It is easily available on our website or from any other minor site.</p>
</div>
<div class="col-lg-4 padding-top-20 padding-bottom-20">
<p><i class="fa fa-bug fa-4x"></i></p>
<h4 class="lead"><strong>Offered Likes Are Spam Free</strong></h4>
<p>We have already mentioned about generating quality that you will not find anywhere else. These likes are spam free for sure that will only boost your online presence in quick time.</p>
</div>
</div>
<div class="row text-center">
<div class="col-lg-4 padding-top-20 padding-bottom-20">
<p><i class="fa fa-sign-in fa-4x"></i></p>
<h4 class="lead"><strong>Get Access to Instant Likes</strong></h4>
<p>Attaining instant likes is a dream of every individual who love to use Facebook seriously. Yes, it is a tough job for sure but with the mentioned auto liker, instant live likes are attained with one click on the submit button.</p>
</div>
<div class="col-lg-4 padding-top-20 padding-bottom-20">
<p><i class="fa fa-bug fa-4x"></i></p>
<h4 class="lead"><strong>No Ads To Disturb You</strong></h4>
<p>We are not offering an application that is creating nonsense with many ads. It is an ads free software, that is fun to use for sure.</p>
</div>
<div class="col-lg-4 padding-top-20 padding-bottom-20">
<p><i class="fa fa-users fa-4x"></i></p>
<h4 class="h3 lead"><strong>User Friendly</strong></h4>
<p class="padding-bottom-20">The offered interface by our application is extremely user-friendly. It will operate smoothly on your web browser and you will love to share the application with others.</p>
</div>
</div>
<hr/>
</div>
<div class="container">
<div class="row">
<div class="col-lg-12 padding-top-20 padding-bottom-20">
<p>Facebook comes as a great solution to stay connected with friends as well as it is helpful for all business need. It's pretty much sure that many businesses are relying on this method and getting an enormous number of benefits. Mainly, it helps with the online success of the business and plays an effective role in SEO strategy. <strong>Facebook Post likes</strong> matters here but getting a good number of likes just after the start is quite tiring and typical. Well, we can help out by providing <strong>genuine likes</strong> on your posts.</p>
<p>One cant lack behind at any chances by preferring us because our professionals are going to provide likes. Even plenty of enchanting features and benefits are easy to acquire with the effective strategy offered here. It will work for every business, wanting more visibility and take their business to the next level.</p>
<p>The adequate assistance and the top-notch features regarding usability and safety will enhance your experience. Even you can find additional features that are especially to ease to ease up the work.</p>
<p class="font18"><strong>Additional Features</strong></p>
<p>We are service providers, not a tool, so we have limitations too. But, we can try to make your user experience better by keeping the method simple and easy to use. We offer you two easy methods to get started, one by visiting our website and the second method is to use our Android app. Both are making things extremely easier for you and the <strong>spam free likes</strong> will worth your money for sure. And, it is better than free sources which can decrease post engagement in various manners.</p>
<p>Security is always an issue with free service provider because they require your log-in. Providing Facebook account and Password is completely an insecure method. But, we just need the link of your post. Obtaining 300 likes per submit from the active and real profile is a limit so that your account doesn't face any issue regarding the engagement of post. By the way, we also provide all this on lowest price possible, and you can treat us as an affordable source.</p>
<p class="font18"><strong>Importance of Auto Likes</strong></p>
<p>Businesses need visibility; however, it is not possible without social media presence. Facebook is the populated source and getting likes will help here. Our <strong>Auto Like</strong> services will make things easier and reliable. Brands will get much awareness, and it will work better than Facebook Promote Tool. You may feel amazed by knowing that many celebrities, Musician, Brands, and Businesses have obtained many benefits by preferring <strong>Auto Likes</strong>. Due to such reasons, you can prefer <strong>Auto Likes</strong> and get rid of all the issues.</p>
</div>
</div>
</div>
</div>
<div class="container-fluid">
<div class="container">
<hr/>
<footer id="footer">
<div class="row">
<div class="col-lg-6">
<a href="https://www.autolikerforfb.com/privacy-policy.php" rel="nofollow">Privacy Policy</a>     
<a href="https://www.autolikerforfb.com/blog/">Blog</a>     
<a href="https://www.autolikerforfb.com/">Auto Liker for FB</a>
</div>
<div class="col-lg-6 text-right">
<p>Made with <i class="fa fa-heart text-danger"></i> in INDIA.</p>
</div>
</div>
</footer>
</div>
</div>
<div class="container-fluid">
<div class="container">
<div class="row">
<div class="col-lg-6 text-left">
<p>© 2020 <a href="https://www.autolikerforfb.com">Auto Liker for Facebook</a>. All Rights Reserved.</p>
</div>
<div class="col-lg-6 text-right">
<a class="dmca-badge" href="//www.dmca.com/Protection/Status.aspx?id=6e301032-130c-4d4c-8f24-91459450f482" rel="nofollow" title="DMCA.com Protection Status"> <img alt="DMCA.com Protection Status" src="//images.dmca.com/Badges/dmca_protected_sml_120l.png?ID=6e301032-130c-4d4c-8f24-91459450f482"/></a> <script src="//images.dmca.com/Badges/DMCABadgeHelper.min.js"> </script>
</div>
</div>
</div>
</div>
<script src="js/popper.min.js"></script>
<script src="js/bootstrap.min.js"></script>
<script src="js/custom.js"></script>
<!-- Go to www.addthis.com/dashboard to customize your tools -->
<script src="//s7.addthis.com/js/300/addthis_widget.js#pubid=ra-5b36eaaeead0e913"></script>
</body>
</html>