<!DOCTYPE html>
<html lang="ru">
<head>
<meta charset="utf-8"/>
<title>Avatar Maker - Create your own avatar online</title>
<meta content="width=device-width, initial-scale=1.0, maximum-scale=1.0" name="viewport"/>
<meta content="IE=Edge" http-equiv="X-UA-Compatible"/>
<meta content="#F8F8F8" name="msapplication-TileColor"/>
<meta content="#F8F8F8" name="theme-color"/>
<meta content="https://avatarmaker.com" property="og:url"/>
<meta content="Avatar Maker" name="title"/>
<meta content="Avatar Maker" property="og:title"/>
<meta content="Avatar Maker" itemprop="name"/>
<meta content="Avatar Maker" itemprop="title"/>
<meta content="Create your own free avatar online and share it with your friends!" name="description"/>
<meta content="Create your own free avatar online and share it with your friends!" property="og:description"/>
<meta content="Create your own free avatar online and share it with your friends!" itemprop="description"/>
<meta content="website" property="og:type"/>
<meta content="en_US" property="og:locale"/>
<meta content="https://avatarmaker.com/share1200x630.png" property="og:image"/>
<meta content="1200" property="og:image:width"/>
<meta content="630" property="og:image:height"/>
<meta content="https://avatarmaker.com/share600x600.png" property="og:image"/>
<meta content="600" property="og:image:width"/>
<meta content="600" property="og:image:height"/>
<meta content="https://avatarmaker.com/share600x600.png" itemprop="image"/>
<link href="https://avatarmaker.com/favicon.ico" rel="shortcut icon" type="image/x-icon"/>
<link href="styles/css/style.css" rel="stylesheet"/>
<style>
    .ht {
      margin: 0 auto 2em auto;
      width: calc( 100% - 40px );
      max-width: 970px;
      max-height: 100px;
      height: 100%;
      flex-shrink: 0;
      overflow: hidden;
    }
    .hb {
      margin: 2em auto 0 auto;
      width: calc( 100% - 40px );
      max-width: 728px;
      max-height: 188px;
      height: 100%;
      flex-shrink: 0;
    }
  </style>
<script async="" src="//pagead2.googlesyndication.com/pagead/js/adsbygoogle.js"></script>
<script>(adsbygoogle = window.adsbygoogle || []).push({google_ad_client: "ca-pub-7681712787585983",enable_page_level_ads: true});</script>
</head>
<body class="page page_oh page_white">
<svg style="position:absolute;height: 0;width: 0;overflow: hidden;">
<defs>
<!-- 51 51 -->
<g id="color">
<g clip-path="url(#clip0)">
<rect fill="white" height="50" rx="25" width="50" x="0.937988" y="0.44751"></rect>
<circle cx="4.5625" cy="12.8574" fill="url(#paint0_radial)" r="30"></circle>
<circle cx="25.938" cy="50.4475" fill="url(#paint1_radial)" r="30"></circle>
<circle cx="47.5039" cy="12.8574" fill="url(#paint2_radial)" r="30"></circle>
<circle cx="25.938" cy="1.34961" fill="url(#paint3_radial)" r="30"></circle>
<circle cx="4.5625" cy="37.884" fill="url(#paint4_radial)" r="30"></circle>
<circle cx="47.5039" cy="37.884" fill="url(#paint5_radial)" r="30"></circle>
</g>
</g>
<radialgradient cx="0" cy="0" gradienttransform="translate(4.5625 12.8574) rotate(90) scale(30)" gradientunits="userSpaceOnUse" id="paint0_radial" r="1">
<stop stop-color="#F41717"></stop>
<stop offset="1" stop-color="#FD1F20" stop-opacity="0"></stop>
</radialgradient>
<radialgradient cx="0" cy="0" gradienttransform="translate(25.938 50.4475) rotate(90) scale(30)" gradientunits="userSpaceOnUse" id="paint1_radial" r="1">
<stop stop-color="#17F417"></stop>
<stop offset="1" stop-color="#1FFD1F" stop-opacity="0"></stop>
</radialgradient>
<radialgradient cx="0" cy="0" gradienttransform="translate(47.5039 12.8574) rotate(90) scale(30)" gradientunits="userSpaceOnUse" id="paint2_radial" r="1">
<stop stop-color="#1717F4"></stop>
<stop offset="1" stop-color="#1F1FFD" stop-opacity="0"></stop>
</radialgradient>
<radialgradient cx="0" cy="0" gradienttransform="translate(25.938 1.34961) rotate(90) scale(30)" gradientunits="userSpaceOnUse" id="paint3_radial" r="1">
<stop stop-color="#F417F4"></stop>
<stop offset="1" stop-color="#FD1FFD" stop-opacity="0"></stop>
</radialgradient>
<radialgradient cx="0" cy="0" gradienttransform="translate(4.5625 37.884) rotate(90) scale(30)" gradientunits="userSpaceOnUse" id="paint4_radial" r="1">
<stop stop-color="#F4F417"></stop>
<stop offset="1" stop-color="#FDFD1F" stop-opacity="0"></stop>
</radialgradient>
<radialgradient cx="0" cy="0" gradienttransform="translate(47.5039 37.884) rotate(90) scale(30)" gradientunits="userSpaceOnUse" id="paint5_radial" r="1">
<stop stop-color="#17F4F4"></stop>
<stop offset="1" stop-color="#1FFDFD" stop-opacity="0"></stop>
</radialgradient>
<clippath id="clip0">
<rect fill="white" height="50" rx="25" width="50" x="0.937988" y="0.44751"></rect>
</clippath>
<lineargradient id="a" x1="8.042%" x2="65.682%" y1="0%" y2="23.865%">
<stop offset="0%" stop-color="#c4c4c4" stop-opacity="0"></stop>
<stop offset="100%" stop-color="#c4c4c4"></stop>
</lineargradient>
<!-- 38 38 -->
<g id="loader">
<path d="M36 18c0-9.94-8.06-18-18-18" fill="none" id="Oval-2" stroke="url(#a)" stroke-linecap="round" stroke-width="4"></path>
<path d="M36 18c0-9.94-8.06-18-18-18" fill="none" id="Oval-2" stroke="url(#a)" stroke-linecap="round" stroke-width="4" transform="rotate(180 18 18)"></path>
</g>
<!-- 15 16 -->
<g id="close">
<path clip-rule="evenodd" d="M7.57426 8.3612L0.92781 15.0076L0.220703 14.3005L6.86715 7.65409L0.220703 1.00764L0.92781 0.300537L7.57426 6.94698L14.2207 0.300537L14.9278 1.00764L8.28136 7.65409L14.9278 14.3005L14.2207 15.0076L7.57426 8.3612Z" fill-rule="evenodd"></path>
</g>
</defs>
</svg>
<div class="ht">
<script async="" src="https://pagead2.googlesyndication.com/pagead/js/adsbygoogle.js"></script>
<!-- avatarmaker-links -->
<ins class="adsbygoogle" data-ad-client="ca-pub-7681712787585983" data-ad-format="link" data-ad-slot="3667603539" data-full-width-responsive="false" style="display:block"></ins>
<script>
     (adsbygoogle = window.adsbygoogle || []).push({});
</script>
</div>
<div class="page__inner">
<article class="start page__start">
<div class="container start__container">
<div class="row start__row">
<div class="col col_v_c col_h_fe start__col m-hidden mp-hidden">
<button class="start-image start__image start-image_mt" data-gender="male">
<img alt="" class="start-image__image start-image__image_m" src="images/other/cartoon-m.png" srcset="images/other/cartoon-m@2x.png 2x"/>
<svg class="start-image__mask" height="414" viewbox="0 0 380 414" width="380">
<use xlink:href="images/sprites-logo.svg#form-m"></use>
</svg>
</button>
</div>
<div class="col col_column col_v_c col_h_c start__col col_pad">
<div class="start-logo start__logo">
<svg class="start-logo__top" height="72" viewbox="0 0 254 72" width="254">
<use xlink:href="images/sprites-logo.svg#logo-free"></use>
</svg>
<svg class="start-logo__base" height="136" id="logoStart" viewbox="0 0 201 136" width="201">
<use xlink:href="images/sprites-logo.svg#logo-base"></use>
</svg>
<p class="start-logo__text"><nobr>
                Welcome to Avatar Maker!
              </nobr> <br/><nobr>
                Create your own avatar for free
              </nobr></p>
</div>
<div class="start-images d-hidden">
<button class="start-image start-images__image" data-gender="male">
<img alt="" class="start-image__image start-image__image_m" src="images/other/cartoon-m.png" srcset="images/other/cartoon-m@2x.png 2x"/>
<svg class="start-image__mask m-hidden" height="414" viewbox="0 0 380 414" width="380">
<use xlink:href="images/sprites-logo.svg#form-m"></use>
</svg>
<svg class="start-image__go start-image__go_m d-hidden" height="51" viewbox="0 0 51 51" width="51">
<use xlink:href="images/sprites-logo.svg#start-mobile-go"></use>
</svg>
</button>
<button class="start-image start-images__image" data-gender="female">
<img alt="" class="start-image__image start-image__image_f" src="images/other/cartoon-f.png" srcset="images/other/cartoon-f@2x.png 2x"/>
<svg class="start-image__mask m-hidden" height="453" viewbox="0 0 382 453" width="382">
<use xlink:href="images/sprites-logo.svg#form-f"></use>
</svg>
<svg class="start-image__go start-image__go_f d-hidden" height="51" viewbox="0 0 51 51" width="51">
<use xlink:href="images/sprites-logo.svg#start-mobile-go"></use>
</svg>
</button>
</div>
<div class="start-arrows start__arrows">
<div class="start-arrows__content">
<p class="start__title">Select gender</p>
<p class="start__text">Please select a gender <br/>by clicking on the image</p>
<svg class="start-arrows__arrow start-arrows__arrow_left m-hidden mp-hidden" height="41" viewbox="0 0 122 41" width="122">
<use xlink:href="images/sprites-logo.svg#arrow-d-left"></use>
</svg>
<svg class="start-arrows__arrow start-arrows__arrow_right m-hidden mp-hidden" height="41" viewbox="0 0 122 41" width="122">
<use xlink:href="images/sprites-logo.svg#arrow-d-right"></use>
</svg>
<svg class="start-arrows__arrow start-arrows__arrow_left d-hidden" height="104" viewbox="0 0 72 104" width="72">
<use xlink:href="images/sprites-logo.svg#arrow-m-left"></use>
</svg>
<svg class="start-arrows__arrow start-arrows__arrow_right d-hidden" height="104" viewbox="0 0 72 104" width="72">
<use xlink:href="images/sprites-logo.svg#arrow-m-right"></use>
</svg>
</div>
<div class="start-loading start__loading">
<p class="start__title start__title_loading">Loading <span class="start-loading__percent">0%</span></p>
<p class="start__text">Please wait...</p>
</div>
</div>
</div>
<div class="col col_v_c start__col m-hidden mp-hidden">
<button class="start-image start__image" data-gender="female">
<img alt="" class="start-image__image start-image__image_f" src="images/other/cartoon-f.png" srcset="images/other/cartoon-f@2x.png 2x"/>
<svg class="start-image__mask" height="453" viewbox="0 0 382 453" width="382">
<use xlink:href="images/sprites-logo.svg#form-f"></use>
</svg>
</button>
</div>
</div>
</div>
</article>
<header class="m-hidden mp-hidden header page__header hidden-beforestart">
<div class="container header__container">
<div class="row">
<div class="col col_left col_h_c">
<a class="logo header__logo" href="/">
<svg class="logo__image" height="136" id="logoEnd" viewbox="0 0 201 136" width="201">
<use xlink:href="images/sprites-logo.svg#logo-base"></use>
</svg>
</a>
</div>
<div class="col col_right col_h_r col_v_c">
<div class="buttons">
<div class="buttons-group buttons__element">
<button class="button button_text buttons__element" data-action="undo" disabled="">
<svg class="button__icon" height="14" viewbox="0 0 15 14" width="15">
<use xlink:href="images/sprites.svg#undo"></use>
</svg>
<span class="button__text">Undo</span>
</button>
<button class="button button_text buttons__element" data-action="redo" disabled="">
<svg class="button__icon" height="14" viewbox="0 0 16 14" width="16">
<use xlink:href="images/sprites.svg#redo"></use>
</svg>
<span class="button__text">Redo</span>
</button>
</div>
</div>
</div>
</div>
</div>
</header>
<header class="d-hidden header page__header hidden-beforestart">
<div class="container">
<div class="row">
<div class="col col_h_b col_v_c">
<div class="buttons-group buttons-group_horizontal buttons__element">
<button class="button buttons-group__element" data-action="undo" disabled="">
<svg class="button__icon" height="14" viewbox="0 0 15 14" width="15">
<use xlink:href="images/sprites.svg#undo"></use>
</svg>
</button>
<button class="button buttons-group__element" data-action="redo" disabled="">
<svg class="button__icon" height="14" viewbox="0 0 16 14" width="16">
<use xlink:href="images/sprites.svg#redo"></use>
</svg>
</button>
</div>
<a class="logo header__logo" href="/">
<svg class="logo__image" height="68" id="logoEnd" viewbox="0 0 116 68" width="116">
<use xlink:href="images/sprites-logo.svg#logo-mobile"></use>
</svg>
</a>
<button class="button header__button button_red" data-mobile-action="downloadClick" id="mobileMenuButton">
<svg class="button__icon" height="12" viewbox="0 0 20 12" width="20">
<use xlink:href="images/sprites.svg#ok"></use>
</svg>
</button>
</div>
</div>
</div>
</header>
<article class="content page__content hidden-beforestart">
<div class="container content__container">
<div class="row content__first-row row_mob-w_w">
<div class="col col_left col_mob-w col_mob-column">
<div class="avatar">
<canvas class="avatar__canvas" height="200" id="svga-canvas" width="200"></canvas>
<div class="avatar__image" id="svga-svgmain"></div>
</div>
</div>
<div class="col col_right col_column col_mob-w">
<div class="content__cat-control">
<div class="content__category content__category_hidden">
<div class="m-hidden mp-hidden avatar-cat content__categories hidden-beforestart">
<div class="category-controls avatar-cat__item" data-category-name="face">
<button class="cat-button category-controls__item" data-zone-name="faceshape">
<svg class="cat-button__icon" height="41" viewbox="0 0 42 41" width="42">
<use xlink:href="images/sprites.svg#face"></use>
</svg>
<span class="cat-button__text">Face</span>
</button>
<button class="cat-button category-controls__item" data-zone-name="nose">
<svg class="cat-button__icon" height="37" viewbox="0 0 33 37" width="33">
<use xlink:href="images/sprites.svg#face-nose"></use>
</svg>
<span class="cat-button__text">Nose</span>
</button>
<button class="cat-button category-controls__item" data-zone-name="mouth">
<svg class="cat-button__icon" height="23" viewbox="0 0 47 23" width="47">
<use xlink:href="images/sprites.svg#face-mouth"></use>
</svg>
<span class="cat-button__text">Mouth</span>
</button>
<button class="cat-button category-controls__item" data-zone-name="ears">
<svg class="cat-button__icon" height="36" viewbox="0 0 26 36" width="26">
<use xlink:href="images/sprites.svg#face-ear"></use>
</svg>
<span class="cat-button__text">Ear</span>
</button>
</div>
<div class="category-controls avatar-cat__item" data-category-name="eyes">
<button class="cat-button category-controls__item" data-zone-name="eyesfront">
<svg class="cat-button__icon" height="26" viewbox="0 0 50 26" width="50">
<use xlink:href="images/sprites.svg#eyes"></use>
</svg>
<span class="cat-button__text">Eyes</span>
</button>
<button class="cat-button category-controls__item" data-zone-name="eyesiris">
<svg class="cat-button__icon" height="32" viewbox="0 0 32 32" width="32">
<use xlink:href="images/sprites.svg#eyes-iris"></use>
</svg>
<span class="cat-button__text">Iris</span>
</button>
<button class="cat-button category-controls__item" data-zone-name="eyebrows">
<svg class="cat-button__icon" height="19" viewbox="0 0 44 19" width="44">
<use xlink:href="images/sprites.svg#eyes-eyebrows"></use>
</svg>
<span class="cat-button__text">Brows</span>
</button>
<button class="cat-button category-controls__item" data-zone-name="glasses">
<svg class="cat-button__icon" height="32" viewbox="0 0 40 32" width="40">
<use xlink:href="images/sprites.svg#eyes-glasses"></use>
</svg>
<span class="cat-button__text">Glasses</span>
</button>
</div>
<div class="category-controls avatar-cat__item" data-category-name="hair">
<button class="cat-button category-controls__item" data-zone-name="hair">
<svg class="cat-button__icon" height="46" viewbox="0 0 42 46" width="42">
<use xlink:href="images/sprites.svg#hair"></use>
</svg>
<span class="cat-button__text">Hair</span>
</button>
<button class="cat-button category-controls__item" data-zone-name="mustache">
<svg class="cat-button__icon" height="17" viewbox="0 0 48 17" width="48">
<use xlink:href="images/sprites.svg#hair-mustache"></use>
</svg>
<span class="cat-button__text cat-button__text_mustache">Mustache</span>
</button>
<button class="cat-button category-controls__item" data-zone-name="beard">
<svg class="cat-button__icon" height="33" viewbox="0 0 43 33" width="43">
<use xlink:href="images/sprites.svg#hair-beard"></use>
</svg>
<span class="cat-button__text">Beard</span>
</button>
</div>
<div class="category-controls avatar-cat__item" data-category-name="clothes">
<button class="cat-button category-controls__item" data-zone-name="clothes">
<svg class="cat-button__icon" height="53" viewbox="0 0 46 53" width="46">
<use xlink:href="images/sprites.svg#clothes"></use>
</svg>
<span class="cat-button__text">Clothes</span>
</button>
</div>
<div class="category-controls avatar-cat__item" data-category-name="backs">
<button class="cat-button category-controls__item" data-zone-name="backs">
<svg class="cat-button__icon" height="31" viewbox="0 0 31 31" width="31">
<use xlink:href="images/sprites.svg#back"></use>
</svg>
<span class="cat-button__text">Backs</span>
</button>
</div>
</div>
<div class="d-hidden mobile-category mobile-category_hidden content__mobile-category">
<button class="button" data-action="backToCategories">
<svg class="button__icon" height="16" viewbox="0 0 25 16" width="25">
<use xlink:href="images/sprites.svg#left"></use>
</svg>
</button>
<div class="mobile-category__slot"></div>
</div>
<div class="d-hidden mobile-control mobile-control_hidden content__mobile-control">
<button class="button mobile-control__button" data-action="backToZones">
<svg class="button__icon" height="16" viewbox="0 0 25 16" width="25">
<use xlink:href="images/sprites.svg#left"></use>
</svg>
</button>
<p class="mobile-control__title">Avatar controls</p>
<div class="mobile-control__avatar-slot"></div>
<p class="mobile-control__title" id="zoneControlTitle">Zone controls</p>
<div class="mobile-control__slot"></div>
</div>
<div class="avatar-elements content__elements">
<div class="avatar-elements__inner">
<div class="avatar-elements__content"></div>
</div>
<div class="palette avatar-elements__palette palette_hidden" id="palette">
<div class="palette__header">
<button class="d-hidden button palette__back-button" data-action="backToZones">
<svg class="button__icon" height="16" viewbox="0 0 25 16" width="25">
<use xlink:href="images/sprites.svg#left"></use>
</svg>
</button>
<p class="d-hidden palette__title">Color palette</p>
</div>
<div class="palette__content">
<div class="palette__color">
<div class="palette__color-area" data-palette="area"></div>
<div class="palette__color-hue" data-palette="hue"></div>
</div>
<div class="palette__settings">
<div class="palette__current">
<div class="palette__current-buttons">
<button class="palette__button palette__button_color" data-palette="old" data-palette-color="#EED5D0" style="background-color:#EED5D0;"></button>
<button class="palette__button palette__button_color palette__button_events-none" data-palette="current" style="background-color:#000000;" tabindex="-1"></button>
</div>
<label class="palette__input">
<span class="palette__input-text">#</span>
<input class="palette__input-field" data-palette="input" maxlength="6" spellcheck="false" type="text" value="000000"/>
</label>
</div>
<div class="palette__list" data-palette="list">
<button class="palette__button"></button>
<button class="palette__button"></button>
<button class="palette__button"></button>
<button class="palette__button"></button>
<button class="palette__button"></button>
<button class="palette__button"></button>
<button class="palette__button"></button>
<button class="palette__button"></button>
<button class="palette__button"></button>
<button class="palette__button"></button>
<button class="palette__button"></button>
<button class="palette__button"></button>
</div>
</div>
</div>
</div>
</div>
</div>
<div class="content__cat-select cat-select hidden-beforestart">
<p class="cat-select__title">Create</p>
<p class="cat-select__text">Select the editing area of your avatar</p>
<ul class="cat-select__list">
<li class="cat-select__list-item">
<button class="cat-select__button" data-cat-index="0">
<svg class="cat-select__button-icon cat-select__button-icon_face" height="41" viewbox="0 0 42 41" width="42">
<use xlink:href="images/sprites.svg#face"></use>
</svg>
<span class="cat-select__button-title">Face</span>
</button>
</li>
<li class="cat-select__list-item">
<button class="cat-select__button" data-cat-index="1">
<svg class="cat-select__button-icon" height="26" viewbox="0 0 50 26" width="50">
<use xlink:href="images/sprites.svg#eyes"></use>
</svg>
<span class="cat-select__button-title">Eyes</span>
</button>
</li>
<li class="cat-select__list-item">
<button class="cat-select__button" data-cat-index="2">
<svg class="cat-select__button-icon" height="46" viewbox="0 0 42 46" width="42">
<use xlink:href="images/sprites.svg#hair"></use>
</svg>
<span class="cat-select__button-title">Hair</span>
</button>
</li>
<li class="cat-select__list-item">
<button class="cat-select__button" data-cat-index="3">
<svg class="cat-select__button-icon" height="53" viewbox="0 0 46 53" width="46">
<use xlink:href="images/sprites.svg#clothes"></use>
</svg>
<span class="cat-select__button-title">Clothes</span>
</button>
</li>
<li class="cat-select__list-item">
<button class="cat-select__button" data-cat-index="4">
<svg class="cat-select__button-icon cat-select__button-icon_backs" height="31" viewbox="0 0 31 31" width="31">
<use xlink:href="images/sprites.svg#back"></use>
</svg>
<span class="cat-select__button-title">Backs</span>
</button>
</li>
</ul>
</div>
</div>
</div>
</div>
<div class="row">
<div class="col col_left m-hidden" id="desktopAvatarButtons">
<div class="buttons content__avatar-buttons buttons_between">
<div class="buttons-group buttons-group_horizontal buttons__element">
<button class="button buttons-group__element" data-action="globLeft">
<svg class="button__icon" height="16" viewbox="0 0 25 16" width="25">
<use xlink:href="images/sprites.svg#left"></use>
</svg>
</button>
<button class="button buttons-group__element" data-action="globRight">
<svg class="button__icon" height="16" viewbox="0 0 26 16" width="26">
<use xlink:href="images/sprites.svg#right"></use>
</svg>
</button>
</div>
<div class="buttons-group buttons-group_horizontal buttons__element">
<button class="button buttons-group__element" data-action="globUp">
<svg class="button__icon" height="25" viewbox="0 0 16 25" width="16">
<use xlink:href="images/sprites.svg#up"></use>
</svg>
</button>
<button class="button buttons-group__element" data-action="globDown">
<svg class="button__icon" height="26" viewbox="0 0 15 26" width="15">
<use xlink:href="images/sprites.svg#down"></use>
</svg>
</button>
</div>
<div class="buttons-group buttons-group_horizontal buttons__element">
<button class="button buttons-group__element" data-action="globPlus">
<svg class="button__icon" height="23" viewbox="0 0 23 23" width="23">
<use xlink:href="images/sprites.svg#plus"></use>
</svg>
</button>
<button class="button buttons-group__element" data-action="globMinus">
<svg class="button__icon" height="23" viewbox="0 0 23 23" width="23">
<use xlink:href="images/sprites.svg#minus"></use>
</svg>
</button>
</div>
<div class="buttons-group buttons-group_horizontal buttons__element">
<button class="button buttons-group__element" data-action="globRotateLeft">
<svg class="button__icon" height="19" viewbox="0 0 20 19" width="20">
<use xlink:href="images/sprites.svg#rotate-left"></use>
</svg>
</button>
<button class="button buttons-group__element" data-action="globRotateRight">
<svg class="button__icon" height="20" viewbox="0 0 20 20" width="20">
<use xlink:href="images/sprites.svg#rotate-right"></use>
</svg>
</button>
</div>
</div>
</div>
<div class="col col_right">
<div class="buttons buttons_categories content__categories-buttons content__categories-buttons_hidden">
<div class="buttons-group buttons__element" data-name="color">
<button class="button buttons-group__element button_color" data-action="zoneColor" id="togglePaletteButton">
<svg class="button__icon" height="50" viewbox="1 1 48 48" width="50">
<use xlink:href="#color"></use>
</svg>
</button>
</div>
<div class="buttons-group buttons-group_horizontal buttons__element" data-name="up-down">
<button class="button buttons-group__element" data-action="zoneUp">
<svg class="button__icon" height="25" viewbox="0 0 16 25" width="16">
<use xlink:href="images/sprites.svg#up"></use>
</svg>
</button>
<button class="button buttons-group__element" data-action="zoneDown">
<svg class="button__icon" height="26" viewbox="0 0 15 26" width="15">
<use xlink:href="images/sprites.svg#down"></use>
</svg>
</button>
</div>
<div class="buttons-group buttons-group_horizontal buttons__element" data-name="left-right">
<button class="button buttons-group__element" data-action="zoneLeft">
<svg class="button__icon" height="16" viewbox="0 0 25 16" width="25">
<use xlink:href="images/sprites.svg#left"></use>
</svg>
</button>
<button class="button buttons-group__element" data-action="zoneRight">
<svg class="button__icon" height="16" viewbox="0 0 26 16" width="26">
<use xlink:href="images/sprites.svg#right"></use>
</svg>
</button>
</div>
<div class="buttons-group buttons-group_horizontal buttons__element" data-name="shrink-expand">
<button class="button buttons-group__element" data-action="zoneShrink">
<svg class="button__icon" height="12" viewbox="0 0 29 12" width="29">
<use xlink:href="images/sprites.svg#shrink"></use>
</svg>
</button>
<button class="button buttons-group__element" data-action="zoneExpand">
<svg class="button__icon" height="12" viewbox="0 0 30 12" width="30">
<use xlink:href="images/sprites.svg#expand"></use>
</svg>
</button>
</div>
<div class="buttons-group buttons-group_horizontal buttons__element" data-name="plus-minus">
<button class="button buttons-group__element" data-action="zonePlus">
<svg class="button__icon" height="23" viewbox="0 0 23 23" width="23">
<use xlink:href="images/sprites.svg#plus"></use>
</svg>
</button>
<button class="button buttons-group__element" data-action="zoneMinus">
<svg class="button__icon" height="23" viewbox="0 0 23 23" width="23">
<use xlink:href="images/sprites.svg#minus"></use>
</svg>
</button>
</div>
<div class="buttons-group buttons-group_horizontal buttons__element" data-name="eyebrows">
<button class="button buttons-group__element" data-action="zoneBrows1">
<svg class="button__icon" height="16" viewbox="0 0 36 16" width="36">
<use xlink:href="images/sprites.svg#brows1"></use>
</svg>
</button>
<button class="button buttons-group__element" data-action="zoneBrows2">
<svg class="button__icon" height="16" viewbox="0 0 36 16" width="36">
<use xlink:href="images/sprites.svg#brows2"></use>
</svg>
</button>
<button class="button buttons-group__element" data-action="zoneBrows3">
<svg class="button__icon" height="16" viewbox="0 0 33 16" width="33">
<use xlink:href="images/sprites.svg#brows3"></use>
</svg>
</button>
<button class="button buttons-group__element" data-action="zoneBrows4">
<svg class="button__icon" height="14" viewbox="0 0 40 14" width="40">
<use xlink:href="images/sprites.svg#brows4"></use>
</svg>
</button>
<button class="button buttons-group__element" data-action="zoneBrowsCancel">
<svg class="button__icon" height="16" viewbox="0 0 15 16" width="15">
<use xlink:href="#close"></use>
</svg>
</button>
</div>
</div>
</div>
</div>
</div>
</article>
<footer class="footer page__footer hidden-beforestart">
<div class="container footer__container">
<div class="row">
<div class="col col_left">
<div class="buttons">
<div class="buttons-group buttons__element">
<button class="button button_text buttons__element" data-action="random">
<svg class="button__icon" height="17" viewbox="0 0 23 17" width="23">
<use xlink:href="images/sprites.svg#random"></use>
</svg>
<span class="button__text">Random</span>
</button>
<button class="button button_text buttons__element" data-action="reset">
<svg class="button__icon" height="15" viewbox="0 0 14 15" width="14">
<use xlink:href="images/sprites.svg#reset"></use>
</svg>
<span class="button__text">Reset</span>
</button>
</div>
</div>
</div>
<div class="col col_right col_h_r">
<div class="d-hidden buttons buttons_mob buttons_mob-add buttons_hidden" id="footerPalleteMove">
<div class="buttons-group buttons__element">
<button class="button buttons__element" data-action="openMoveSection">
<svg class="button__icon" height="28" viewbox="0 0 28 28" width="28">
<use xlink:href="images/sprites.svg#move"></use>
</svg>
</button>
<button class="button buttons-group__element button_color" data-action="zoneColor" id="togglePaletteButton">
<svg class="button__icon" height="50" viewbox="1 1 48 48" width="50">
<use xlink:href="#color"></use>
</svg>
</button>
</div>
</div>
<div class="buttons buttons_mob hidden-beforestart" id="footerServerActions">
<div class="buttons-group buttons__element">
<button class="button button_text buttons__element button_m-icon" data-action="openGravatar" id="openGravatar">
<svg class="button__icon" height="15" viewbox="0 0 15 15" width="15">
<use xlink:href="images/sprites.svg#gravatar"></use>
</svg>
<span class="button__text">Gravatar</span>
</button>
<div class="button-outer buttons__element">
<button class="button button_text button_m-icon" data-mobile-action="downloadClick" id="shareButton">
<div class="button__icon">
<svg class="button__icon button__icon_nomr" height="18" id="shareButtonIcon" viewbox="0 0 14 18" width="14">
<use xlink:href="images/sprites.svg#share"></use>
</svg>
<svg class="button__icon button__icon_abs button__icon_hidden button__icon_rotate" height="18" id="shareButtonIconLoader" viewbox="-3 -3 42 42" width="18">
<use xlink:href="#loader"></use>
</svg>
</div>
<span class="button__text">Share</span>
</button>
<div class="buttons footer__popup mp-hidden" id="shareContent">
<div class="buttons-group buttons-group_horizontal buttons__element">
<button class="button button_soc-fb buttons-group__element" data-share="facebook">
<svg class="button__icon" height="18" viewbox="0 0 11 18" width="11">
<use xlink:href="images/sprites.svg#soc-facebook"></use>
</svg>
</button>
<button class="button button_soc-tw buttons-group__element" data-share="twitter">
<svg class="button__icon" height="16" viewbox="0 0 20 16" width="20">
<use xlink:href="images/sprites.svg#soc-twitter"></use>
</svg>
</button>
<button class="button button_soc-pt buttons-group__element" data-share="pinterest">
<svg class="button__icon" height="19" viewbox="0 0 17 19" width="17">
<use xlink:href="images/sprites.svg#soc-pinterest"></use>
</svg>
</button>
<button class="button button_soc-wa buttons-group__element" data-share="whatsapp">
<svg class="button__icon" height="18" viewbox="0 0 31 31" width="18">
<use xlink:href="images/sprites.svg#whatsapp"></use>
</svg>
</button>
<button class="button button_soc-tg buttons-group__element" data-share="telegram">
<svg class="button__icon" height="18" viewbox="0 0 24 22" width="20">
<use xlink:href="images/sprites.svg#telegram"></use>
</svg>
</button>
<button class="button button_soc-rd buttons-group__element" data-share="reddit">
<svg class="button__icon" height="17" viewbox="0 0 45 39" width="20">
<use xlink:href="images/sprites.svg#reddit"></use>
</svg>
</button>
</div>
</div>
</div>
<div class="button-outer buttons__element">
<button class="button button_text button_red button_m-icon button_download" data-action="downloadClick" id="downloadButton">
<div class="button__icon">
<svg class="button__icon button__icon_nomr" height="17" id="downloadButtonIcon" viewbox="0 0 13 17" width="13">
<use xlink:href="images/sprites.svg#download"></use>
</svg>
<svg class="button__icon button__icon_abs button__icon_hidden button__icon_rotate" height="18" id="downloadButtonIconLoader" viewbox="-3 -3 42 42" width="18">
<use xlink:href="#loader"></use>
</svg>
</div>
<span class="button__text">Download</span>
</button>
<div class="buttons footer__popup ios-hidden footer__popup_download mp-hidden" id="downloadContent">
<div class="buttons-group buttons-group_vertical buttons__element">
<button class="button button_text buttons-group__element" data-action="savePngFirst">
<span class="button__text">200x200 (.png)</span>
</button>
<button class="button button_text buttons-group__element" data-action="savePngSecond">
<span class="button__text">400x400 (.png)</span>
</button>
<button class="button button_text buttons-group__element" data-action="saveSvg">
<span class="button__text">vector format (.svg)</span>
</button>
</div>
</div>
</div>
</div>
</div>
</div>
</div>
</div>
</footer>
<article class="d-hidden mobile-menu mobile-menu_hidden">
<div class="container">
<div class="row">
<div class="col">
<div class="mobile-menu__inner">
<div class="mobile-menu__header">
<p class="mobile-menu__title">Save and share</p>
<button class="button" data-action="closeMenu" type="button">
<svg class="button__icon" height="16" viewbox="0 0 15 16" width="15">
<use xlink:href="#close"></use>
</svg>
</button>
</div>
<div class="mobile-menu__content">
<div class="mobile-menu__download">
<p class="mobile-menu__title">Download</p>
<div class="ios-visible">
<p class="mobile-menu__text">Please tap and hold the image and choose Save</p>
<div class="mobile-menu__image">
<img class="mobile-menu__image-inner" src="#"/>
</div>
</div>
<div class="mobile-menu__download-slot ios-hidden"></div>
</div>
<div class="mobile-menu__share">
<p class="mobile-menu__title">Share</p>
<div class="mobile-menu__share-slot"></div>
</div>
</div>
</div>
</div>
</div>
</div>
</article>
</div>
<script>
    (function(){
      var pi = document.querySelector(".page__inner");
      if (!pi.classList.contains("page__inner_ready")) {
        pi.style.height = document.querySelector(".start__container").offsetHeight + "px";
      } else {
        pi.style.height = "";
      }
    })();
  </script>
<article class="modal page__modal">
<section class="modal-content modal-content_tac modal-content_tiny" data-modal-name="ios">
<div class="modal-content__header">
<p class="modal__title">Download</p>
<p class="modal__text">Please tap and hold the image and choose Save</p>
</div>
<div class="modal-content__content">
<div class="modal__ios-image">
<img alt="" class="modal__image" src="#"/>
</div>
</div>
<div class="modal-content__footer">
<div class="modal__buttons">
<button class="button button_text" data-modal-click="close" tabindex="-1" type="button">
<svg class="button__icon" height="16" viewbox="0 0 15 16" width="15">
<use xlink:href="#close"></use>
</svg>
<span class="button__text">Close</span>
</button>
</div>
</div>
</section>
<section class="modal-content modal-content_tac" data-modal-name="gravatar">
<div class="modal-content__header">
<p class="modal__title">Uploading to gravatar.com</p>
<p class="modal__text">Please enter your Gravatar email and password</p>
</div>
<div class="modal-content__content">
<div class="modal__form">
<div class="modal__form-inputs">
<label class="modal-input modal-input_mr modal__modal-input" for="gravatarEmail">
<span class="modal-input__label">E-mail</span>
<input autocomplete="off" class="modal-input__input" data-modal-enter="uploadGravatar" id="gravatarEmail" spellcheck="false" tabindex="-1" type="text" value=""/>
</label>
<label class="modal-input modal__modal-input" for="gravatarPassword">
<span class="modal-input__label">Password</span>
<input autocomplete="off" class="modal-input__input" data-modal-enter="uploadGravatar" id="gravatarPassword" spellcheck="false" tabindex="-1" type="password" value=""/>
</label>
</div>
<p class="modal__description" id="modalDescription"> </p>
</div>
<!-- <p class="modal__description">At&nbsp;the moment there is&nbsp;no&nbsp;way to&nbsp;upload an&nbsp;avatar <nobr>without getting your email and password.</nobr></p> -->
<p class="modal__description">Avatars uploaded from the avatarmaker site are automatically rated G.</p>
<p class="modal__description">Note: Your email and password will NEVER be saved on our server.</p>
<!-- <p class="modal__description">You can upload an&nbsp;image yourself at&nbsp;<a tabindex="-1" target="_blank" href="https://gravatar.com" class="modal__link">gravatar.com</a>.</p> -->
</div>
<div class="modal-content__footer">
<div class="modal__buttons">
<button class="button button_mr2 button_text" data-modal-click="uploadGravatar" id="uploadButton" tabindex="-1" type="submit">
<div class="button__icon">
<svg class="button__icon button__icon_nomr" height="18" id="uploadButtonIcon" viewbox="0 0 14 18" width="14">
<use xlink:href="images/sprites.svg#share"></use>
</svg>
<svg class="button__icon button__icon_abs button__icon_hidden button__icon_rotate" height="18" id="uploadButtonIconLoader" viewbox="-3 -3 42 42" width="18">
<use xlink:href="#loader"></use>
</svg>
</div>
<span class="button__text">Upload</span>
</button>
<button class="button button_text" data-modal-click="close" tabindex="-1" type="button">
<svg class="button__icon" height="16" viewbox="0 0 15 16" width="15">
<use xlink:href="#close"></use>
</svg>
<span class="button__text">Cancel</span>
</button>
</div>
</div>
</section>
</article>
<div class="hb">
<script async="" src="https://pagead2.googlesyndication.com/pagead/js/adsbygoogle.js"></script>
<!-- avatarmaker-responsive -->
<ins class="adsbygoogle" data-ad-client="ca-pub-7681712787585983" data-ad-format="auto" data-ad-slot="3388401934" data-full-width-responsive="true" style="display:block"></ins>
<script>
     (adsbygoogle = window.adsbygoogle || []).push({});
</script>
</div>
<script src="scripts/svg4everybody.js"></script>
<script>
    if(!!window.MSInputMethodContext && !!document.documentMode){
      document.querySelector("html").classList.add("isIE11");
      svg4everybody();
    }
  </script>
<script src="scripts/baron.min.js"></script>
<script src="scripts/additional.js"></script>
<script src="scripts/focus-visible.js"></script>
<script src="scripts/svg.min.js"></script>
<script src="scripts/core.js"></script>
<script async="" src="scripts/canvg.min.js"></script>
<!-- Matomo -->
<script type="text/javascript">
  var _paq = _paq || [];
  /* tracker methods like "setCustomDimension" should be called before "trackPageView" */
  _paq.push(['trackPageView']);
  _paq.push(['enableLinkTracking']);
  (function() {
    var u="https://stats.monohost.com/";
    _paq.push(['setTrackerUrl', u+'piwik.php']);
    _paq.push(['setSiteId', '51']);
    var d=document, g=d.createElement('script'), s=d.getElementsByTagName('script')[0];
    g.type='text/javascript'; g.async=true; g.defer=true; g.src=u+'piwik.js'; s.parentNode.insertBefore(g,s);
  })();
</script>
<!-- End Matomo Code -->
<link href="//cdnjs.cloudflare.com/ajax/libs/cookieconsent2/3.1.0/cookieconsent.min.css" rel="stylesheet" type="text/css"/>
<script src="//cdnjs.cloudflare.com/ajax/libs/cookieconsent2/3.1.0/cookieconsent.min.js"></script>
<script>
var gdpr = "0";
if (gdpr == "1") {
window.addEventListener("load", function(){
window.cookieconsent.initialise({
  "palette": {
    "popup": {
      "background": "#000000",
      "text": "#ffffff"
    },
    "button": {
      "background": "#8ec760",
      "text": "#ffffff"
    }
  },
  // "theme": "edgeless",
  "content": {
    "message": "Google collects data and uses cookies for ad personalization and measurement for this site. <a class='cc-link' target='_blank' href='https://policies.google.com/technologies/partner-sites'>Learn how Google collects and uses data.</a> By using this site, you consent to our use of cookies. You can turn off ad personalization at any time in your Google account settings."
  }
})});
}
</script>
</body>
</html>
