<!DOCTYPE html PUBLIC "-//W3C//DTD XHTML 1.0 Transitional//EN" "http://www.w3.org/TR/xhtml1/DTD/xhtml1-transitional.dtd">
<html lang="ja" xml:lang="ja" xmlns="http://www.w3.org/1999/xhtml" xmlns:fb="http://www.willer.com/2008/fbml" xmlns:og="http://ogp.me/ns#">
<head>
<meta content="text/html; charset=utf-8" http-equiv="Content-Type"/>
<meta content="text/css" http-equiv="content-style-type"/>
<meta content="text/javascript" http-equiv="content-script-type"/>
<meta charset="utf-8"/>
<meta content="lbgrWlXiÆjSÒªÅÉP~à·é±ÆÈ­UÈàÉwûÅx100~ðNæèà­B¬Å«é±ÆðÛáµÜ·I" name="keywords"/>
<meta content="lbgrWlXiÆjSÒªÅÉP~à·é±ÆÈ­UÈàÉwûÅx100~ðNæèà­B¬Å«é±ÆðÛáµÜ·I" name="description"/>
<link href="css/reset.css" media="all" rel="stylesheet" type="text/css"/>
<link href="css/style.css" media="all" rel="stylesheet" type="text/css"/>
<title>SÒªÅZÅ¬Åû100~ðÒ¬o·û@</title>
<meta content="SÒªÅZÅ¬Åû100~ðÒ¬o·û@" property="og:title"/>
<meta content="website" property="og:type"/>
<meta content="http://1st-manual.com/" property="og:url"/>
<meta content="http://1st-manual.com/images/ogp.png" property="og:image"/>
<meta content="SÒªÅZÅ¬Åû100~ðÒ¬o·û@" property="og:site_name"/>
<meta content="lbgrWlXiÆjSÒªÅÉP~à·é±ÆÈ­UÈàÉwûÅx100~ðNæèà­B¬Å«é±ÆðÛáµÜ·I" property="og:description"/>
<meta content="text/css" http-equiv="Content-Style-Type"/>
<link href="images/favicon.ico" rel="icon" type="image/vnd.microsoft.icon"/>
<script src="js/jquery-1.5.1.min.js" type="text/javascript"></script>
<script src="js/jrumble.1.0.js" type="text/javascript"></script>
<script src="js/ble.js" type="text/javascript"></script>
<script src="js/thickbox.js" type="text/javascript"></script>
<link href="css/thickbox.css" media="all" rel="stylesheet" type="text/css"/>
</head>
<body>
<!--¥¥JEg_E^C}[±±©ç¥¥-->
<!--
<center>
<script type="text/javascript">
var year = "2015";var month = "11";var day = "30";var hour = "23";var minute = "59";var centi = "1";
var convert = "0";var roop = "";
var cnt1 = "ú";var cnt2 = "Ô";var cnt3 = "ª";var cnt4 = "b";
var br1 = "";var br2 = "";var br3 = "";var br4 = "";
var com1 = "æsÌI¹ÜÅEEE<br />";var com2 = "Æ";var com3 = "";var com4 = "æsÌI¹µÜµ½B";var end = "2";
var width = "100%";var height = "130";
var font = "qMmpS Pro W8";var size = "42";var l_height = "50";var bold = "1";var italic = "";var line = "";
var space = "15px 0px 15px 0px";
var align = "2";var img = "";
var color1 = "FFFF00";var color2 = "FFFF00";var color3 = "000000";
</script>
<script type="text/javascript" src="http://countdown.reportitle.com/js/neo1.js"></script><a href="http://countdown.reportitle.com/">JEg_E^C}[</a><script type="text/javascript" src="http://countdown.reportitle.com/js/neo2.js"></script>
</center>
-->
<!--££JEg_E^C}[±±ÜÅ££-->
<div id="wrapper">
<script src="js/exitPop.js" type="text/javascript"></script>
<div id="exitPop" onmouseover="exitPop('caution-a02.html','650','630');"><img alt="" height="10" src="images/spacer.gif" width="100%"/></div>
<div class="headbg">
<div class="head">
</div>
</div>
<div id="hajime">
<img src="images/hajimeni.png"/>
</div>
<div id="mainbg6">
<div id="sub">
<img src="images/sub_01.png"/>
</div>
<div id="main">
<p>
ÈÌÅ¡·®A±ÌèðÇÝißÄ­¾³¢BÈºÈç±Ìwt@[Xg}jAxÌ²ÄàÍA<span class="back-yellow bold">TúÔÅ®SÉI¹·éúÔÀè</span>¾©çÅ·c<br/>
<br/>
FromF¢i{¼j<br/>
åã{,SÖ´Ì¨XÌ ÉÄc<br/>
újú,ßO9F37ª<br/>
<br/>
<img src="images/toki.png"/><br/>
<br/>
<span class="min"><span class="big"> </span><span class="big2">È½ÍÆÅ1úà­100~ÈãðÒ¬½¢Å·©H</span></span>
<br/>
<br/>
ÅàAÆâlbgÅÒ®û@ª½­³ñ è·¬ÄA<br/>
ÀÛÉ½ðâêÎÒ°éÌ©ª©çÈ¢c<br/>
<br/>
©ªÍ¡ÜÅÆÈñÄµ½ªÈ­ÄA<br/>
{ÉÒ°éÌ©sÀc<br/>
<br/>
úÌJèÔµÅ¤ñ´è·éïÐõð«ßÄ<br/>
Æ§µ½¢¯ÇAÅÉÅ«é¨àªè³ÉÈ¢c<br/>
<br/>
»ñÈsÀâYÝðÁÄ¢Ü¹ñ©H<br/>
<br/>
<span class="back-yellow bold">±ÌèÅÍAw¬÷Ì[xðçÁÄA<br/>
ÅÉ1~àgí¸É¼ÌÇñÈû@æèàÅZÅA<br/>
û100~ÈãðÒ°éæ¤ÉÈé<br/>
øÊÀØÏÝÌû@ðöJµÄ¢Ü·B</span><br/>
<br/>
»µÄAlÍ±Ì[ÉÀÉæÁæÁ½©ç±»A<br/>
¡ÅÍÅáÅàû700~`1000~Èãð<br/>
Ò°éæ¤ÉÈÁÄ¢Ü·B<br/>
<br/>
µ©àA»ÌÓÌ½Á½ÐÆ¾¯1000~Ò¢ÅA<br/>
u´Íû1000~¾IvÆ©ñÅ¢é<br/>
</p>
</div>
</div><!-- mainbg -->
<div id="mainbg2">
<div id="sub">
<img src="images/sub_02.png"/>
</div>
<div id="main">
<p>

lÍà¤A½xàû1000~ÈãðÒ¢ÅÜ·B<br/>
<br/>
ÆA¢«Èèû1000~Æ©¾íêÄàA<br/>
 Üè»À¡ªÈ¢©àµêÜ¹ñËB<br/>
<br/>
{Í±±ÅAÇ­©éûüØ¾ÌæÆ©ð<br/>
Ú¹½ûªM¶Äàç¦éÌ©àµêÜ¹ñB<br/>
<br/>
ÅàA»ñÈµ¢Íµ½­È¢Å·µA<br/>
M¶çêÈ¢ÈçAM¶È­Äà¢¢Å·B<br/>
<br/>
<span class="back-yellow bold">½¾Al¾¯ÅÈ­AlbgrWlXEÅ´êàÈ­gbvÌ<br/>
¬Êà³ñàA±ÌèÅïÌIÉ¨bµÄ¢­Xebvð¥ñÅA<br/>
¡ÅÍN1­~ÈãðÒ°éæ¤ÉÈÁ½ÌÅ·æB<br/></span>
<br/>
»êÅÍAÀÛÉlçªÇ¤âÁÄA<br/>
Æ©çnß½rWlXÅA<br/>
±±ÜÅÒ°éæ¤ÉÈÁ½Ì©H<br/>
<br/>
±ê©çÚµ­à¾µÄ¢«Ü·B<br/>
<br/>
lÌ¼OÍ¢iÆ«Ýç¢jB<br/>
<br/>
Ç­uyl[Å·©HvÆ©<br/>
·©êéñÅ·¯ÇA{¼Å·æBiÎj<br/>
<br/>
N¤S­~ÌïÐÆA<br/>
SÖ´ÅVRÎÌÀÆðocµÄÜ·B<br/>
<br/>
±ê©ç¨bµÄ¢­¬÷mÀÌXebvÌ¨©°ÅA<br/>
û1000~ÈãÆ©AÈOÉÍz·çÅ«È©Á½ÙÇ<br/>
å«Èûüð¾çêéæ¤ÉÈèÜµ½B<br/>
<br/>
»µÄA¡ÅÍ½­Ìl½¿ðw±µA<br/>
ÀÛÉå«­ûüðâ·l½¿ðyoµÄ«Üµ½B<br/>
<br/>
</p>
<!-- tH[±±©ç -->
<form action="https://1lejend.com/stepmail/kd.php?no=ylTUUsEvXz" class="bottom" method="post" name="asumeru_form">
<input name="no" type="hidden" value="ylTUUsEvXz"/>
<input name="action" type="hidden" value="kakunin"/>
<div>
<input class="input" maxlength="100" name="touroku_name" placeholder="¦¨¼Oð²üÍ­¾³¢" style="width:650px; height:70px; font-size:32px; border-radius:8px;text-align:center; " type="text" value=""/><br/><br/>
<input class="input" maxlength="100" name="touroku_mail" placeholder="¦[AhXð²üÍ­¾³¢" style="width:650px; height:70px; font-size:32px; border-radius:8px;text-align:center; " type="text" value=""/>
<input alt="mF·é" class="button" name="submit" src="images/bt_02.png" type="image" value="submit" width="75%"/>
</div>
<br/>
</form>
<!-- tH[±±ÜÅ -->
</div>
<div class="jissen">
<img src="images/jissen_01.png"/>
<p>
<img class="right" src="images/hirota.png"/><br/>
ßÜµÄALcÆ\µÜ·B@<br/>
<br/>
©ªÍ]ðJnµÄñ¼Nªoßµ½ É<br/>
³ñÆoï¢Üµ½B<br/>
<br/>
»Ì Ì©ªÍ]ÅÒ°élÉÈÁ½±ÆÅ<br/>
VçÉÈÁÄ¢Ä<br/>
|YÌ¼OÉ¢é±ÆðCÃ¢Ä¢Ü¹ñÅµ½B<br/>
<br/>
³ñÆ¨b³¹Äàç¤@ïª èA<br/>
u±ÌÜÜ¾ÆåÏÈ±ÆÉÈévÆ¢¤±Æð<br/>
CÃ©¹Ä¸«ûü«ÌC³Æ³çÈéÆÌ­Wð<br/>
·é±ÆªÅ«Üµ½B<br/>
<br/>
»ê©çàA]¾¯ÅÈ­rWlXÌåØ³ð½­³ñ³¦Ä¢½¾«<br/>
¡ÅÍ¤ÉrWlXð³¹Ä¸­±ÆªÅ«éæ¤ÉÈèÜµ½B<br/>
<br/>
³ñÆoïÁÄPNÅ·ª<br/>
vàLÑ±¯Ä¨è<br/>
<br/>
QOPSNPQ@ûPOO<br/>
QOPTN@P@ûPQO<br/>
QOPTN@Q@ûPTO<br/>
QOPTN@R@ûPVO<br/>
QOPTN@X@ûSOO<br/>
<br/>
<span class="back-yellow bold">lÌÆKÍÍñPO{Èãå«­Èè<br/>
å«­l¶ªÏíé±ÆÉÈèÜµ½B</span><br/>
<br/>
 ÌÉoïíÈ¯êÎ¡Ì©ªÍ³¢ÆvÁÄ¢éÌÅ<br/>
{É´ÓµÄ¢Ü·B<br/>
<br/>
±ê©çàXµ­¨è¢vµÜ·B
</p>
</div>
<br/>
<div class="jissen">
<img src="images/jissen_02.png"/>
<p>
<img class="right" src="images/nakagawa.png"/><br/>
ª³ñÉoïÁ½ÌÍQOPTNÌXPQúB<br/>
Æ éZ~i[ÉQÁµ½±Æª«Á©¯Åµ½B<br/>
<br/>
»Ì ÌûÍÈñÆ©æ£ÁÄ<br/>
VO~öxÅEEµÄ¨èA<br/>
§eïÅ³ñÉAhoCXð¢½¾«<br/>
©ªÌîlÌá³ðÉ´µÜµ½B<br/>
<br/>
»ÌãA³¦ð¿¤½ßÉ<br/>
RTÌ@ïð¢½¾¢½Û<br/>
ì³ñÍSOO~ÈãÒ®|eVª éÌÉ<br/>
©ªÅÀEðìÁÄé©çV{¢Æ¾íêÜµ½B<br/>
<br/>
¼NOÜÅÅìtÆµÄ­¢Ä¢½ÆµÄÍ<br/>
SÍÅÇ¢ñÅdðµÄéÂàèÅµ½©ç<br/>
Ü³©»¤¾íêéÆÍzàµÄÜ¹ñÅµ½B<br/>
<br/>
êuÅ~bgðjó³êÄpjbNÅµ½ª<br/>
<span class="back-yellow bold">vðÅå»·éZiðgñÅ¢½¾¢½±Æð<br/>
^¤±ÆÈ­¾íê½ÊèÉÀHµ½Æ±ë<br/>
{ÉPQÉûSOO~ðÒ®±ÆªÅ«Üµ½B</span><br/>
<br/>
±±ÜÅå«ÈÊðo·±ÆªÅ«½ÌÍ³ñÌ¨©°Å·B<br/>
±ê©çà²w±æëµ­¨è¢vµÜ·B
</p>
</div>
<br/>
<div class="jissen">
<img src="images/jissen_03.png"/>
<p>
<img class="right" src="images/nakamoto.png"/><br/>
ßÜµÄA{Æ\µÜ·B<br/>
»ÝÍeBayAoÅ¶vð§ÄÄ¢Ü·B<br/>
<br/>
ÍQOPSNÌPOðàÁÄ<br/>
ñQON±¯½ÀÌïÐõ¶É<br/>
I~ðÅ¿Üµ½B<br/>
<br/>
SOÎðß¬Ä©çÌETÅ·µA<br/>
Èàqà¢ÄÈPÈèÅÍ èÜ¹ñÅµ½B<br/>
ETÌeBayAoÅÌûÍPOO~Å<br/>
ÐïÛáà½àÈ¢óÔÈÌÅ<br/>
³¼É¾¤ÆsÀÅµ½B<br/>
<br/>
ûvðÀè³¹éÉÍÇ¤·êÎ¢¢Ì©<br/>
ÀµÄ¢é ÉÆ éR~jeBÅ³ñÆoï¢Üµ½B<br/>
<br/>
³ñª·²¢l¾Æ¢¤bÍ\ÅÍ·¢ÄÜµ½ªA<br/>
¢ÂàüèÉlª¢Äbµ©¯é±ÆªoÜ¹ñB<br/>
<br/>
»µÄAÈñÆ¾¤©AI[ªá¤ñÅ·æB<br/>
¾ç©ÉÊÌlÆÍB<br/>
<br/>
»ñÈ éúA³ñªxgiÉo£És­±Æðmè<br/>
½ËIÉulàAêÄsÁÄ­¾³¢IvÆ§èµ½Æ±ë<br/>
QÂÔÅOKð¢½¾«Üµ½B<br/>
<br/>
xgiÅÍlZA³ñÌbð·©¹Ä¢½¾«Üµ½B<br/>
»µÄA³ñªÇÌæ¤ÈdÔèÈÌ©ðÔßÅ©³¹Ä¢½¾«Üµ½B<br/>
<br/>
<span class="back-yellow bold">ú{ÉAÁÄ©ªÌrWlXÉÆµñÅÀHµ½Æ±ë<br/>
AAÀÉvªLÑ±¯Ä<br/>
ðNPOÉÍûVOO~ðÒ®±ÆªÅ«Üµ½B</span><br/>
T[}ÌNûæèSRå«¢zÅ·I<br/>
<br/>
ïÐõð«ßÄ½Á½PNÅ<br/>
ûüðV{Éâ¹½ÌÍÐÆ¦É³ñÌ¨©°Å·B<br/>
³ñA±ê©çàæëµ­¨è¢µÜ·I
</p>
</div>
<br/>
<div id="main">
<p>
¢ÜAèðñ¹Ä­ê½ÞçàA<br/>
ÙñÌPNOÍû2`30~Åµ½B<br/>
<br/>
 È½Æ½àÏíçÈ¢A<br/>
²­²­ÊÌl½¿Å·B<br/>
<br/>
<span class="back-yellow bold">»ÌÞçÅ³¦àA¡ÅÍû400~`900~ð<br/>
Ò°éæ¤ÉÈÁ½ÌÅ·B</span><br/>
<br/>
l©gàAN¤S­~ÌïÐÌûÍA<br/>
ÙÆñÇèðt¯é±ÆÈ­¨àð×¯Ä¢Ü·B<br/>
<br/>
ÅàAA<br/>
</p>
</div>
</div><!-- mainbg -->
<div id="mainbg3">
<div id="sub">
<img src="images/sub_03.png"/>
</div>
<div id="main">
<p>
lÍNÆ·éOÉÍA<br/>
mlÌRlÅåèéÆÉAE³¹Äàç¢Üµ½B<br/>
<br/>
»êÜÅ¤ÅÈñÆ©Ò¢Å¢½­ç¢ÈÌÅA<br/>
ÊÉÊÚâçÞIlÅÍó©çÈ¢Å·©çËB<br/>
<br/>
¤ÆÍá¢AÊÌéÆÉAE·éÆA<br/>
Ì¨¿àµÄ«oéàÌÅÍÈ¢ñÅ·B<br/>
<br/>
<span class="bold">èæèÅ20~­ç¢B</span><br/>
<br/>
àµ È½ª»ÝïÐõAàµ­ÍïÐõÌo±ª êÎ<br/>
T[}Ì¨¿êÍ¨ª©è¾Æv¢Ü·B<br/>
<br/>
úAúA©­ÉN«ÄÆðoÄA<br/>
õdÔÉæÁÄâÁÆoÎB<br/>
<br/>
»ñÅéx­ÜÅKÉ­­B<br/>
<br/>
{ÉA¡v¢oµÄÝÄàA<br/>
¡CÈ¢úXðJèÔµÄÜµ½B<br/>
<br/>
ÜA¾ÁÄàåèÈÌÅA<br/>
|Y·é±ÆàÈ¢µA<br/>
 éöxÍ«ÀèÈéÆÅµ½B<br/>
<br/>
ÅàAåéÆä¦É«µÄélÎ©è¾µA<br/>
lÉÍwÀèxÆ©»¤¢¤ÌSRü¢ÄÈ­ÄBB<br/>
<br/>
<span class="bold">c¢ ©çu§ívÆ©u¸ivð<br/>
@«ÜêÄ½lÆµÄÍA<br/>
»ÌÀèª¿ÁÆàÊ­È©Á½ñÅ·B<br/>
</span>
<br/>
¢ÂÌú©A
</p>
</div>
<div id="sub">
<img src="images/sub_04.png"/>
</div>
<div id="main">
<p>
Ç±Å­¢ÄéÆ©A}WÅ¾¢½­È¢B<br/>
<br/>
j[gÌûª²ª ÁÄ©Á±¦¦íÆ<br/>
{CÅvÁÄ¢½ÙÇÅµ½B<br/>
<br/>
Åàc<br/>
<br/>
<span class="back-yellow bold">cOÈªçlÉÍ½àÈ­ÄA<br/>
»ÌÍNÆÆ©Íl¦çêÜ¹ñÅµ½B</span><br/>
<br/>
¾ÁÄAÁÊÈrWlXÌm¯Æ©<br/>
¼ÌlæèàDêÄéÆ±ëÈñÄ<br/>
SRÈ©Á½ñÅ·B<br/>
<br/>
 éÆµ½çA¤ãÉ|Á½<br/>
l½çµpðÁÄ¢½öxÅ·B<br/>
<br/>
lÍÁÊAdªÅ«élÔÅÍÈ©Á½©çA<br/>
l½çµp¾¯ÅÈñÆ©ïÐÅgð±ÈµÄ½ñÅ·ËBiÎj<br/>
<br/>
ÅàAÄO»Ìl½çµªøÊ Á½Ý½¢ÅA<br/>
OCOC¸i³¹Äàç¢Üµ½B<br/>
<br/>
»¤µÄCt¯ÎA40ãÌÇEÌF³ñÆA<br/>
o`o`ÉÓ©ð¾¢¦éæ¤È<br/>
»ñÈ|WVÉA©¹ÄàçÁÄÜµ½B<br/>
<br/>
¨¿ÍÎµÄÏíçÈ¢Å·¯Çc<br/>
<br/>
»êÍ­µ¾¯GLTCeBOÅµ½ªA<br/>
·®ÉO«ÄµÜ¢AúïÐÅàÆÅà<br/>
<br/>
u«ß½¢È[«ß½¢È[v<br/>
<br/>
ÆA­­vÁÄ¢½óÅ èÜ·B<br/>
<br/>
¡vÁÄàA©ÂÄÌlª©ªÌïÐÌÐõ¾Á½ç<br/>
u¢çñ©çAÁÄvÆ·®É¾ÁÄµÜ¤ÙÇA<br/>
Ç¤µæ¤àÈ¢lÔÅµ½B
</p>
</div>
<div id="sub">
<img src="images/sub_05.png"/>
</div>
<div id="main">
<p>
ÅA<br/>
<br/>
uÈñ©µæ¤Iv<br/>
<br/>
ÆvÁÄFXÆl¦½ñÅ·A<br/>
¯ÇËAÁÉ½àÈ¢ñÅ·æB<br/>
<br/>
¨àðÒ®m¯àA\ÍàAiàÈÉàB<br/>
<br/>
 éÆ·êÎAe°ªNÆêÆÆ¢¤<br/>
üèÌ¶«é©{­ç¢B<br/>
<br/>
{É½ðµÄ¢¢Ì©ª©ñÈ¢Å·B<br/>
<br/>
½¾A¤ÌÆ«Éæ­©Ä¢½A<br/>
uhiÌ]Åàâë¤©È[ÁÆvÁ½ÌÅ·B<br/>
<br/>
ÌAJi_É¯wµÄ¢½ Éüè©ç<br/>
<br/>
uCOACHÌobNÁÄ«ÄIv<br/>
<br/>
Æ¾íê½ÌðÓÆv¢oµ½ñÅ·B<br/>
<br/>
<span class="back-yellow bold">¨CÃ«¾Æv¢Ü·¯ÇA»ñÈKÈ­zµ©<br/>
Å¯ÖñÙÇAlÉÍS­[ÌóÔ¾Á½í¯Å·B</span><br/>
<br/>
à¿ëñAÎßÄ¢½ïÐð«ßÄ<br/>
Æ§NÆ·é¨ààÈñà³©Á½Å·B<br/>
<br/>
lÝ½¢ÈÀÌT[}ÈñÄA<br/>
»ñÈàñÅ·æB<br/>
<br/>
uÙñÈçÇ[µæ[v<br/>
<br/>
ÆAÜ¸Í½©ðnßé½ßÌ<br/>
àðìçÈ¢Æ¢¯È¢ÈAÆl¦Üµ½B<br/>
<br/>
»ñÈÉA<br/>
<br/>
u IÆè ¦¸AêÈ­Äà¢¢©ç<br/>
ÆÉ évçñàñAlbgÅÁÄÝæ¤©Èv<br/>
<br/>
Æv¢§Á½í¯Å·iÜ½ÀÕÈ­zjÎB<br/>
<br/>
»¤µÄA¨ààm¯à\Íàiàl¬àA<br/>
ÆÉ©­ÈñàÁÄÈ¢lªêÔÅÉnß½ÌªA<br/>
<br/>
<span class="bold red back-yellow"><span class="big2">wsviÌx</span></span><br/>
<br/>
¾Á½ñÅ·B
</p>
</div>
<div id="sub">
<img src="images/sub_06.png"/>
</div>
<div id="main">
<p>
ÅàËA»Ì­zªÜ³©<br/>
l¶ðåt]³¹éÈñÄÍA<br/>
ÌlÉÍz·çÅ«È©Á½Å·æB<br/>
<br/>
¯ÇA<span class="back-yellow bold">»Ì­z±»ªA<br/>
Ì¿Éû1000~ÈãðÒ®æ¤ÉÈê½<br/>
wíxÉÈÁ½ñÅ·B<br/></span>
<br/>
ÌlÉåºÅ¾ÁÄâè½¢Å·B<br/>
<br/>
u¨OÍÅÌ»fðµ½¼[I<br/>
 èªÆ¤Iv<br/>
<br/>
ÆB<br/>
<br/>
ÆÍ¾ÁÄàAsviÌð·éÁÄ¾ÁÄàA<br/>
¶ÜêÄ©çA»ñÈo±PxàÈ©Á½ÌÅA<br/>
½ðÇ¤·êÎ¢¢Ì©ATbp­ñÅ·B<br/>
<br/>
Æè ¦¸AC^[lbgÅFXÈTCgð<br/>
²×ÄÍ×­µÜµ½B<br/>
<br/>
m¯ªS­[X^[g¾Á½ñÅA<br/>
ÅÌPñÚÌoiìÆÉ©ÈèÔª©©èÜµ½B<br/>
<br/>
åÏ¾Á½[B<br/>
<br/>
ÅàAC^[lbgÅ³¿Å²×çêéîñÈñÄA<br/>
½©ªmêÄéí¯Å·æB
</p>
</div>
<div id="sub">
<img src="images/sub_07.png"/>
</div>
<div id="main">
<p>
ÈñÆ©æ£ÁÄoµ½1iÚÍA<br/>
tINÅ1~oiµ½ñÅ·B<br/>
<br/>
±êàC^[lbgÌ³¿îñÅ<br/>
²×½ÊèÉâÁ½ñÅ·æB<br/>
<br/>
<span class="back-yellow bold">»¤µ½çAOÉT~­ç¢ÅÁ½Jª<br/>
ÈñÆP~ÅD³ê¿áÁ½ñÅ·B</span><br/>
<br/>
ðµ¢IÆ¢¤C¿ÍP~àÈ­A<br/>
ÞµëA<br/>
<br/>
u¤¨[IÆÉ©­P~oiÅêÎ<br/>
lãªè·éÁÄ¢Ä Á½ÌÉ[Iv<br/>
<br/>
ÆA¦­ßµ¢C¿ÉÈÁ½Æ¯ÉA<br/>
Èñ©©ªÌ\ÍÌá³ÉACª³µÜµ½B<br/>
<br/>
DµÄ­ê½ûÉ­z·éÆ«A<br/>
<br/>
uâÁÏèè½­È¢È[v<br/>
<br/>
ÆvÁ½ñÅ·¯ÇA<br/>
»±ÍlÉàuRRvÍ Á½ÌÅ<br/>
ObÆäðµÄDÒÉèÜµ½B<br/>
<br/>
T~ÅÁ½àÌªP~BB<br/>
<br/>
»êªlÌßÄÌsviÌÌo±Å·B<br/>
<br/>
¡v¤ÆÂ¤¢àñÅ·ªA<br/>
ÌlÍ»êª¸êtâÁ½ÊÅµ½B<br/>
<br/>
LO·×«PñÚÌsviÌfr[ÍA<br/>
å¸sÅIíèÜµ½B<br/>
<br/>
»êª÷µ­Ä÷µ­Ä<br/>
½ÜèÜ¹ñÅµ½B
</p>
</div>
<div id="sub">
<img src="images/sub_08.png"/>
</div>
<div id="main">
<p>
ÅàAÈº©¬uªR¦Ä«½ñÅ·B<br/>
<br/>
u¡É©Äë[Iv<br/>
<br/>
»ê©çlÍAÆÉ Á½<br/>
à¤gíÈ­ÈÁ½wS~xÝ½¢Èmð<br/>
ÆÉ©­ÐÁ[©çtINâ¼ÌTCgÅoiµÜµ½B<br/>
<br/>
»ÌÆ«ÍAf[^ðæéÆ©»¤¢¤ªªÈ©Á½ÌÅA<br/>
Ìµ½Æ©SRo¦ÄÈ¢ñÅ·¯ÇB<br/>
<br/>
ÆÉ©­ÆÉ Á½vçñ¨ð<br/>
Ð½·çoiµÜ­èÜµ½B<br/>
<br/>
RÅ·¯ÇAÆÉ ésviÈñÄ<br/>
½©ªmêÄÜ·æËB<br/>
<br/>
ÈÌÅAüèÌFlÆ©Éàºð©¯ÄA<br/>
<br/>
uvçñàñ Á½ç¸Õ[v<br/>
<br/>
Æ¾ÁÄAKÉàçÁÄÍA<br/>
tINÆ©ÅoiµÄÌµÜµ½B<br/>
<br/>
âÁÄÝÄßÄª©Á½ñÅ·¯ÇËA<br/>
©ªÉÆÁÄA<br/>
</p>
</div>
<div id="sub">
<img src="images/sub_09.png"/>
</div>
<div id="main">
<p>
ñÅ·æA<br/>
<br/>
Ê¢æ¤ÉêÄ­ñÅ·B<br/>
<br/>
µ©àA\zÈãÌlÅB<br/>
<br/>
<span class="bold">»¤µÄsviÌðµ½ÊA<br/>
lÍ»ê¾¯ÅA</span><br/>
<br/>
<span class="back-yellow bold">20~ß­ðÒ®±ÆªÅ«Üµ½B</span><br/>
<br/>
³mÈÍo¦ÄÈ¢ñÅ·¯ÇA<br/>
18¢­çAÆ©»ñÈ´¶Å·B<br/>
<br/>
<span class="bold">u¦[³ñIsviÌÅ»ñÈÉÒ°éÁÄA<br/>
àµ©µÄA³©ç¿ÈàÌÎ©èÁÄ½ñÅµåHv</span><br/>
<br/>
Æ©víêé©àµêÜ¹ñËB<br/>
<br/>
ÅàËAá¤ñÅ·æB<br/>
<br/>
m©ÉlÍAÌApÅ­¢Ä½ÌÅ<br/>
mÍD«Å\FXÆÁÄÜµ½æB<br/>
<br/>
¾¯ÇA³Á«à¾¢Üµ½¯ÇA<br/>
ÌlÍÀÌïÐõB<br/>
<br/>
¿ÈmÈñÄÁÄéÍ¸È¢Å·B<br/>
<br/>
u¶á Ç¤µÄAsviÌÅ<br/>
»ñÈÉÒ°½ñÅ·©HIv<br/>
<br/>
Æ¢¤¿âª«»¤ÈÌÅA<br/>
æÉ¦Ä¨«Ü·ËB<br/>
<br/>
»êÍAA
</p>
</div>
<div id="sub">
<img src="images/sub_10.png"/>
</div>
<div id="main">
<p>
ðgÉt¯½©çÈñÅ·B<br/>
<br/>
ÆÉ éS~Ý½¢Èsvið<br/>
½­³ñoiµÄ¢­¤¿ÉA<br/>
»Ì\ÍªÇñÇñgÉt¢Ä¢Á½ñÅ·B<br/>
<br/>
<span class="bold">á¦ÎAsviðoiÅ«éTCgÆ¢¤ÌÍA<br/>
tIN¾¯ÅÍ èÜ¹ñB</span><br/>
<br/>
mâRXvÈçA<br/>
JÌûªlÅêâ·¢Æ©A<br/>
<br/>
JÆ©ÆdnÈç<br/>
AmazonÉoµ½ûªlÅêâ·¢Æ©B<br/>
<br/>
µ©à¡Å¾¦ÎA<br/>
LINE[ÁÄ èÜ·æËH<br/>
<br/>
»¡[¢ÌªALINE[ÆtINÌÔÉà<br/>
¯¶mÅà¿i·ª éñÅ·B<br/>
<br/>
¾ÁÄµÜ¦ÎA<span class="back-yellow bold">tINÅdüêÄ<br/>
LINE[ÅÁÄÒ®¾ÁÄA<br/>
Å«ÄµÜ¤</span>óÅ·B<br/>
<br/>
sviÌµ½Î©èÌl¾Á½èA<br/>
ÙÆñÇÌlÍA»¤¢Á½m¯ª èÜ¹ñB<br/>
<br/>
<span class="bold">
ÈÌÅA{ÍQ~ÉàR~ÉàÈémð<br/>
tINÅP~Æ©A5ç~Æ©AÀ¿iÅ<br/>
ÁÄµÜ¤Æ¢¤~XðÆµÄµÜ¢Ü·B<br/>
</span>
<br/>
ÅàAlÍ©ªÅ½­³ñsviÌðÀHµÄA<br/>
o±ð³ÉAS~Ý½¢ÈmÅàÒ°éæ¤ÉÈé<br/>
wmEnExðgÉt¯½ñÅ·B<br/>
<br/>
»µÄA±ÌwmEnExÌ¨©°ÅA<br/>
lÍsviÅÒ°éAÆ¾¤¾¯ÅÍIíèÜ¹ñÅµ½B
</p>
</div>
</div><!-- mainbg -->
<div id="mainbg4">
<div id="sub">
<img src="images/sub_11.png"/>
</div>
<div id="main">
<p>
µÄ¢½ÌÅ·B<br/>
<br/>
<span class="back-yellow bold">lÍAsviÌÅ|Á½wmEnExÆ<br/>
»êÅÒ°½20~ÙÇÌàðgÁÄA<br/>
]rWlXðX^[gµÜµ½B</span><br/>
<br/>
½ðµ½Ì©Æ¢¤ÆA<br/>
OÉ¢¢Á¸ÈRÅv¢Â¢½<br/>
uhiÌ]Å·B<br/>
<br/>
lÉÍà¤AsviÌÅgÉt¯½<br/>
wmEnExª éÌÅA»±©çÍêCÉ<br/>
Ò°éàzª¦Ä¢«Üµ½æB<br/>
<br/>
uhiÌ]ÅÍA<br/>
PÌvªñ30~`bgB<br/>
<br/>
µ©àA»ÌÍÜ¾ïÐõðâÁÄ½©çA<br/>
sviàuhi]àÆÅAÅ·æB<br/>
<br/>
<span class="back-yellow bold">lÍïÐÌ¨¿ÆÍÊÉA<br/>
©ªÌÍÅû30~ÈãðÒ°é\ÍðèÉüêÜµ½B</span><br/>
<br/>
³çÉAÓÆµ½LbJPÅA<br/>
ebayÆ¢¤AJÌI[NVTCgðmèÜµ½B<br/>
<br/>
±êc<br/>
<br/>
àµ©µ½çA<br/>
å×¯Å«éÌÅÍcH<br/>
<br/>
»ê©çlÍA
</p>
</div>
<div id="sub">
<img src="images/sub_12.png"/>
</div>
<div id="main">
<p>
µÜµ½B<br/>
<br/>
RAàÅÌsviÌâ]ÍµÄ½ñÅ·¯ÇA<br/>
COAüÌrWlXÍS­ÌflÅ·B<br/>
<br/>
<span class="bold">ÈÌÅAÅÍSRÒ°Ü¹ñÅµ½B</span><br/>
<br/>
ÅÌQ`RÍ·Z·éÆ<br/>
200~Æ©»ñÈ´¶Å·B<br/>
<br/>
³¼AÊª¢ÜêÂ¾Á½ ÍA<br/>
©Èèh©Á½Å·æB<br/>
<br/>
ÅàËA©MÍ Á½ñÅ·B<br/>
<br/>
<span class="back-yellow bold">Èº©ÁÄA»êÍà¤lÉÍ<br/>
sviÌÅ|ÁÄ«½wÌÍxª Á½©çB</span><br/>
<br/>
AürWlXJn©çRÙÇÍ<br/>
vÅ1~Æ©»ñÈ´¶B<br/>
<br/>
ÅàAªÞµáçÉæègñ¾çA<br/>
Jn©ç¼NãÉÍÈñÆA<br/>
</p>
</div>
<div id="sub">
<img src="images/sub_13.png"/>
</div>
<div id="main">
<p>
·é±ÆªÅ«Üµ½B<br/>
<br/>
½Á½¼NÅA<br/>
ª100{ÉÈÁ½ñÅ·B<br/>
<br/>
ðµ©Á½È[A{Éðµ©Á½B<br/>
<br/>
»êÜÅAÀÌïÐõÆµÄ­¢Ä½ÌÅA<br/>
ßÄû100~ð´¦½Í¶ìµÜµ½æB<br/>
<br/>
»ê©çÍAÎßÄ¢½ïÐð«ßÄA<br/>
°êÄÆ§NÆ·é±ÆÉ¬÷µÜµ½B<br/>
<br/>
u©R¾[IIv<br/>
<br/>
{Éðµ©Á½Å·B<br/>
<br/>
»ÌãÍAsviÌÅ|Á½rWlXXLðgÁÄA<br/>
±ÌèÌÅÉ¨`¦µ½ÊèA<br/>
<br/>
<span class="back-yellow bold">¡ÅÍû1000~Èãð<br/>
Ò°éæ¤ÉÈÁÄ¢Ü·B</span><br/>
</p>
</div>
<div id="sub">
<img src="images/sub_14.png"/>
</div>
<div id="main">
<p>
lÍ¬÷µÜµ½iÆ¾ÁÄàÜ¾Ü¾Å·¯ÇjB<br/>
µ©àAÙñÌZúÔÅB<br/>
<br/>
<span class="bold red">ÈºÈçAsviÌÅrWlXXLðgÉt¯A<br/>
»µÄA»êðíÉ©RÉrWlXðå«­<br/>
­W³¹Ä«½©çÅ·B<br/></span>
<br/>
å°³ÅÍÈ­A¡Ìlª éÌÍA<br/>
 ÌÉsviÌ©çnß½©çÅ·B<br/>
<br/>
±êªàµAsviÌðòÎµÄA<br/>
¢«Èèà]ðnß½è¾Æ©A<br/>
AtBGCgÆ©âÁÄ½ç..<br/>
<br/>
¡ AlÍêÌÇ¤ÈÁÄ¢½Ì¾ë¤c<br/>
<br/>
Ôá¢È­A±ñÈZúÔÅ<br/>
û1000~ÈñÄÒ°éæ¤ÉÈèÜ¹ñÅµ½B<br/>
<br/>
lÍmçÈ¢¤¿ÉA<br/>
<br/>
<span class="back-yellow bold">wrWlXÌ¬÷@¥x</span><br/>
<br/>
ÉÁÄ±±ÜÅ±êÜµ½B<br/>
<br/>
»Ì¨©°ÅA¡ÅÍ<br/>
</p>
</div>
<div id="sub">
<img src="images/sub_15.png"/>
</div>
<div id="main">
<p>
±ÌwrWlXÌ¬÷@¥xÉÁÄ<br/>
èÉµ½XLðÁÄ¢êÎA<br/>
ê¶¨àÉ¢é±ÆÍÈ¢Åµå¤B<br/>
<br/>
AtBGCgÆ©A¼ÌrWlXÌæ¤ÉA<br/>
êIÉLbVªüÁÄ«ÄàA<br/>
sÀâSzÍÁ¹Ü¹ñæËH<br/>
<br/>
<span class="back-yellow bold">ÅàA©ªÅ¨àðÒ®w³µ¢xXLðÁÄ¢é±ÆÍA<br/>
å«ÈÀSÆ]Tð^¦Ä­êÜ·B</span><br/>
<br/>
lÍ¡A©ªÅdÈñÄµÈ­ÄàA<br/>
èúµÅ700~ÈãÍèÉüÁÄ­éÅµå¤B<br/>
<br/>
ÈñÈçAlÌìÆð®SÉC¹ÄA<br/>
nCâT[XÉÚZ¾ÁÄÅ«Ü·B<br/>
<br/>
»µÄåØÈ³ñâqÆA<br/>
úÌñÑèß²µÈªçA<br/>
r[`ÅJNeÅàùñÅ¶«Ä¢­±ÆàÂ\Å·B<br/>
<br/>
ÅàËAlÍ»ñÈµÜ¹ñæB
</p>
</div>
<div id="sub">
<img src="images/sub_16.png"/>
</div>
<div id="main">
<p>
ÈºÈçAlÍ©ª¾¯ªÒ°êÎ¢¢AÈñÄ<br/>
P~àvÁÄÜ¹ñB<br/>
<br/>
<span class="bold">lÉµ©¯çêÈ¢lª¢éB<br/>
lÉµ©Å«È¢ª éB</span><br/>
<br/>
¾©ç¡ÅÍA±ÌèÌÅÉ²Ðîµ½<br/>
ÞçÌæ¤ÉAÇñÇñVµ¢l½¿ð<br/>
àÁÆàÁÆÒª¹Ä¢«½¢ÆvÁÄ¢Ü·B<br/>
<br/>
»µÄAÞçÌæ¤ÉÀÛÉÒ°éæ¤ÉÈÁÄA<br/>
»ÌlÌÎçªP­pð©éÌªõ´ÈñÅ·B<br/>
<br/>
<span class="back-yellow bold">lÍ¡A¨àÌ½ßÉ­­KvÍÈ¢Å·B<br/>
¢ÈdàµÈ­Ä¢¢Å·B</span><br/>
<br/>
RA¢ÈlÆt«¤Kvà èÜ¹ñB<br/>
<br/>
©RÈÔª~µ¯êÎA<br/>
D«È¾¯xÝðæé¾ÁÄÅ«Ü·B<br/>
<br/>
iÅßÍAµåÁ¿ã¤CÌ¤Ô½¿Æ<br/>
COdüê·sÉsÁÄ¢Ü·B<br/>
<br/>
Â¢æúàAVÑªÄç}JIÉsÁÄ«Üµ½Bj<br/>
<br/>
SÄÍl©gªD«Èæ¤ÉßçêéñÅ·B
</p>
</div>
<div id="sub">
<img src="images/sub_17.png"/>
</div>
<div id="main">
<p>
±êÜÅAlÌÂlIÈbðµÄ«Üµ½¯ÇA<br/>
ÀÍ±êÍlÌbÅÍ èÜ¹ñB<br/>
<br/>
<span class="back-yellow bold">±êÍw È½xÌbÈÌÅ·B</span><br/>
<br/>
 È½àAïÐõðµÈªçAQ`RÅ<br/>
Æû100~ðÒ¬½¢Å·©H<br/>
<br/>
©ªÌÍÅ¨àðÒ®ÍðgÉt¯ÄA<br/>
Æ§NÆµ½¢Å·©H<br/>
<br/>
©RÈÔðmÛµÂÂA<br/>
S~xÌûüð¾½¢Å·©H<br/>
<br/>
 È½Ì]Ýª½Å êA<br/>
»êçð»ÀÌàÌÉ·éû@ª±±É èÜ·B<br/>
<br/>
lÍ¡ÜÅÉà½­³ñÌûXÉA<br/>
Ò°éæ¤ÉÈéw±ðµÄ«Üµ½B<br/>
<br/>
»µÄAÅÉ²Ðîµ½ÞçÈOÉà<br/>
½­³ñÌ¬÷ÒªoÄ¢Ü·B<br/>
<br/>
ÏÉIÉZ~i[àâÁÄÜ·µA<br/>
RTeBOðÊµÄw±àµÄ¢Ü·B<br/>
</p>
</div>
<div id="sub">
<img src="images/sub_18.png"/>
</div>
<div id="main">
<p>
¡ÜÅ¦ØêÈ¢ÙÇÌl½¿ðw±µÄ«ÄA<br/>
±ê©çÆârWlXðnßélªAÇ¤·êÎ<br/>
¸s¹¸ÉPúÅà­û100~ð´¦çêéÌ©H<br/>
<br/>
Æ¢¤ðl¦Èªçw±µÄ«Üµ½B<br/>
<br/>
lÍRª¢ÅA È½ðéxµÄÜÅ<br/>
æ­víêæ¤ÆÍµÜ¹ñB<br/>
<br/>
³¼É¾¢Ü·¯ÇAw±µÄ«½SÄÌlð<br/>
JÅû100~I[o[ÉµÄ±ê½A<br/>
Æ¢¤óÅÍÈ¢ñÅ·B<br/>
<br/>
uÇ¤µÄA\ÍÍÙÆñÇÏíçÈ¢ÌÉ<br/>
¢ÂÜÅàÒ°È¢lÆJÅû100~ð<br/>
Ò°éæ¤ÉÈélÉÊêéÌ©È[Hv<br/>
<br/>
ÁÄl¦ÄAÞçð¶[ÁÆÏ@µÄÜµ½B<br/>
<br/>
»µ½çAlªw±µÄ«½Å<br/>
Ò°éæ¤ÉÈÁ½l½¿Æ¢¤ÌÍA<br/>
»ÌÙÆñÇÉ¤Ê_ª Á½ñÅ·B<br/>
<br/>
lâ¬Êà³ñàÜßÄB<br/>
<br/>
»êÍA
</p>
</div>
<div id="sub">
<img src="images/sub_19.png"/>
</div>
<div id="main">
<p>
Æ¢¤±ÆB<br/>
<br/>
½­ÌÒ°È¢lÆ¢¤ÌÍA<br/>
¢«Èèïµ¢rWlX©çèðoµÄµÜ¢Ü·B<br/>
<br/>
ÅàA<span class="back-yellow bold">¼NÈàÉû100~Æ©Ò°él½¿ÍA<br/>
ÙÆñÇÌlªAXLbv¹¸É³µ¢w¬÷[xÉ<br/>
ÁÄrWlXðX^[gµÄ¢Ü·B</span><br/>
<br/>
»ÌæêàÆÈéÌªÜ³ÉA<br/>
<br/>
wsviÌx<br/>
<br/>
ÈñÅ·B<br/>
<br/>
<span class="back-yellow bold">lªw±µÄ«ÄA¯úÉnß½¼Ìlæèà<br/>
­åàðÒ°éæ¤ÉÈél½¿ÍA<br/>
sviÌ©çX^[gµÄ¢Ü·B</span><br/>
<br/>
ÈºÈçAsviÌ±»ªA<br/>
 çäérWlXÌwîbxÆÈé©çÅ·B<br/>
<br/>
µ©àA
</p>
</div>
<div id="sub">
<img src="images/sub_20.png"/>
</div>
<div id="main">
<p>
ÌàsviÌB<br/>
<br/>
uÈñ¾IsviÌËBOKB<br/>
¶á Æè ¦¸KÉ²×ÄâÁÄÝÜ·Iv<br/>
<br/>
Æ¾ÁÄAÆ¿è·élà¢Ü·¯ÇA<br/>
»êÍK`Å«ß½Ù¤ª¢¢Å·æB<br/>
<br/>
<span class="back-yellow bold">¾ÁÄAwsviÌxÆ¾ÁÄà<br/>
»êÍ»êÍª[¢í¯Å·B</span><br/>
<br/>
KÉlbgÅ²×ÄA©ª¬ÉsviÌðâÁÄ<br/>
µÁ©èÆÒ°½lÆ¢¤ÌÍ©½ªÈ¢Å·B<br/>
<br/>
»êÍ±êÜÅàà¾µÄ«½æ¤ÉA<br/>
l©gà»¤Åµ½B<br/>
<br/>
<span class="bold">sviÌÍA çäérWlXÌwîbx¾©ç±»A<br/>
µÁ©èÆm¯ðt¯ÄæègÞ×«ÈñÅ·æB</span><br/>
<br/>
»êÈÌÉAKÉâÁÄµÜÁÄÍA<br/>
ÊÉPÂÌ¤iÅR`S~Ìw¹¸xðµÜ·B<br/>
<br/>
±ê©ç²Ðî·éAlªÌn»µ½<br/>
wt@[Xg}jAxÉ©êÄ¢émEnEð<br/>
SÄwñÅ©çsviÌðµÄ­¾³¢B
</p>
</div>
<div id="sub">
<img src="images/sub_21.png"/>
</div>
<div id="main">
<p>
±Ìwt@[Xg}jAxÉÍA<br/>
lª½Nà|ÁÄ«½m¯AeNjbNA Zð<br/>
NÅàÀHÂ\ÈmEnEÉÌn»µÄvO»µÜµ½B<br/>
<br/>
µ©àA±ÌvOðì¬·éÉ ½èA<br/>
ÀÛÉsviÌ©çX^[gµÄÒ°éæ¤ÉÈÁ½l<br/>
20l­ç¢ÆPlPlAXJCvÅbµÜµ½B<br/>
<br/>
³çÉA»ÝÈ¤ÅsviÌðX^[gµÄ¢é<br/>
SÒÌûX10lÈãÆàXJCvÅbðµÄA<br/>
YÝâÂÜÃ­|CgA»µÄmè½¢ð®«¾µÜµ½B<br/>
<br/>
»êÅV½Éª©Á½SÒªÂÜÃ­âè_âA<br/>
l·çmçÈ©Á½ ZâeNjbNÈÇðÜÆßÄA<br/>
»ÌsxA±ÌvOÉÇÁµÄ¢«Üµ½B<br/>
<br/>
»¤µÄoãªÁ½ÌªA±êÅ·B<br/>
</p>
</div>
</div><!-- mainbg -->
<div id="mainbg1">
<div id="main">
<p>
<img src="images/shouhin.png" width="100%"/><br/>
<br/>

±ÌvOÍAPDFÉµÄ<br/>
y­700y[Wð´¦Ä¢Ü·B<br/>
<br/>
uÈñÅsviÌÌmEnE¾¯Å<br/>
»ñÈÉ{[ª½¢ñÅ·©Hv<br/>
<br/>
ÆsvcÉvíêé©àµêÜ¹ñËB<br/>
<br/>
»ÌRÍAæÙÇà¾Á½æ¤ÉA<br/>
»à»àsviÌÍÆÄàª[¢Å·B<br/>
<br/>
<span class="back-yellow bold">ÞµëAsviÌÅå«Èvðo·XLð<br/>
gÉt¯é±Æ³¦Å«êÎA<br/>
 È½Í¡ãAê¶©ªÌÍÅÒ¢Å¢¯Ü·B</span><br/>
<br/>
»êÙÇAsviÌÆ¢¤ÌÍA<br/>
ÆÄàdvxÌ¢XebvÅ·B<br/>
<br/>
µ©µ¡ñÌvOÍA<br/>
sviÌ¾¯ÅÍÈ¢ñÅ·B
</p>
</div>
<div id="sub">
<img src="images/sub_22.png"/>
</div>
<div id="main">
<p>
sviÌÅµÁ©èÆÒ®XLðt¯A<br/>
»µÄÅÌàðìÁ½ È½ÉA<br/>
ÌXe[WÉiñÅàç¢Ü·B<br/>
<br/>
<span class="back-yellow bold">»êÍw¤iðdüêÄéxÅ·B</span><br/>
<br/>
 È½ª±ÌvOðwÑA<br/>
»µÄÀÉÀHµÄsviÌðµÄ­ê½çA<br/>
¡xÍwdüêÄéx±ÆÈñÄÈPÅ·B<br/>
<br/>
M¶çêÈ¢©àµêÜ¹ñ¯ÇA<br/>
{ÉÈPÉÈÁÄÜ·æB<br/>
<br/>
<span class="back-yellow bold">»Ìw¤iðdüêÄéxÆ¢¤<br/>
¨ÌrWlXÌmEnEâ ZàSÄÔµÄÜ·B</span><br/>
<br/>
±ÌXe[WÜÅiñ¾ È½ÍA<br/>
û100~ðÒ®±Æà»ÀIÉÈèÜ·B<br/>
<br/>
±êÍ¡ÜÅlªFñÈlðw±µÄ«ÄA<br/>
»µÄÀÛÉB¬µÄ¢élª¢éÌÅA<br/>
</p>
</div>
<div id="sub">
<img src="images/sub_23.png"/>
</div>
<div id="main">
<p>
ÈñÅ·B<br/>
<br/>
Å·©çA È½ÉàsÂ\ÈñÄÈ¢Åµå¤B<br/>
<br/>
àµ©·éÆ È½ÍA±ÌvOðèÉµ½Æ«A<br/>
»Ì{[Ì½³É³|³êÄµÜ¤©àµêÜ¹ñËB<br/>
<br/>
ÅàÀSµÄ­¾³¢B<br/>
<br/>
<span class="back-yellow bold">±ÌvOÍAÆo±ÌÈ¢SÒª<br/>
S­Ì[©çÔÉA»µÄmÀÉiñÅ¢¯éæ¤É<br/>
XebvoCXebvÅ\¬³êÄ¢Ü·B</span><br/>
<br/>
µ©àAeZNVª×©­ª¯çêÄ¢éÌÅA<br/>
 È½ªùÉmÁÄ¢émEnEªÍ<br/>
òÎµÄàçÁÄ\¢Ü¹ñB<br/>
<br/>
PxSÄÉÚðÊµ½ÆµÄàA<br/>
Ú¡øÌæ¤Éã©ç©ªª²×½¢Æ±ë¾¯<br/>
mF·é±ÆªÅ«Ü·B<br/>
<br/>
Ü½P©ç©Ô·KvÍÈ¢Å·B<br/>
<br/>
±ÌvOÍA È½É«­ÈÁÄàç¢½¢<br/>
ÌÅÍ èÜ¹ñB<br/>
<br/>
<span class="back-yellow bold"> È½Éw»àðÒ¢Åàç¢½¢xÌÅ·B</span><br/>
<br/>
ÈÌÅA·®ÀÛÉs®µÄàçÁÄA<br/>
ÂÜÃ¢½çmFµÄ¢­AÆ¢¤û@Èç<br/>
ÀÛÉ¨àðÒ¬Èçª×­ªÅ«Ü·æB<br/>
<br/>
wt@[Xg}jAxÅöJ³êéàeÍAAA

</p>
</div>
<div class="shouhin">
<img src="images/cap_01.png" width="100%"/>
<p>
ÅÌ`v^[ÅÍA<br/>
sviÌðâÁ½±ÆªÈ¢lª<br/>
âÎÉo¦Ä¨­×«m¯ðÃLµÄàç¢Ü·B<br/>
<br/>
±êÍsviÌÌOñm¯ÆÈèA<br/>
mÁÄ¢é©¢È¢©ÅA¯¶sviðoiµÄà<br/>
vÉå«È·ªoé±ÆÉÈèÜ·B<br/>
<br/>
 È½ªu½ðoi·êÎ¢¢ñ¾HvÆ<br/>
ªðYÜ¹é±ÆÍÈ­ÈèÜ·B<br/>
<br/>
ÞµëAu±ñÈmàê»¤¾IvÆ<br/>
NNµÈªçA¨óª°ÁÄ¢é±ÆÉCt­Åµå¤B<br/>
<br/>
usviÌÌKv«ð´¶È¢ñ¾¯Çcv<br/>
<br/>
ùÉàª­µÅà élÍA<br/>
»¤âÁÄvÁÄµÜ¤êª½¢Å·B<br/>
<br/>
ÅàA±Ì`v^[ðwñÅ¢½¾¯êÎ<br/>
»ñÈ¾tÍoÈ­ÈèÜ·B<br/>
<br/>
à¿ëñ¨àðÒ®½ßÅà èÜ·¯ÇA<br/>
»êæèàA<br/>
<img src="images/sub_24.png" width="100%"/><br/>

©çsviÌð·éÌÅ·B<br/>
<br/>
 È½ª±ÌvOÅwÑA<br/>
»ê©çsviÌÉæègñ¾A<br/>
<br/>
u±ñÈÉàª[¢Ì©cv<br/>
u©ª¬ÉâÁ½ç~Èãà¹ðµÄ½Ècv<br/>
<br/>
ÆAÁ­±ÆÅµå¤B<br/>
<br/>
`v^[PuTvÒvðê¾¯öJ·éÆAAA<br/>
</p>
<div class="bre">
<ul class="list2">
<li><p><span class="bold">u¦H±ñÈmªHIvsviÌÅÓOÆ×©éS~¯Rl^</span></p>
ÙÆñÇÌlÍAu©ªÉÍê»¤ÈmðÁÄ¢È¢vÆv¢ñÅ¢Ü·Bµ©µA<span class="bold back-yellow">±êðmé±ÆÅA È½ÌgÌüèÉ éS~¯RÌmªA~Åêé±ÆÉCt­</span>Åµå¤B»µÄAÊ¢æ¤ÉsviðoiµÄA»àÉÏ¦Ä¢¯éæ¤ÉÈèÜ·B</li>
<li><p><span class="bold">sviÌðµÄ¾çêéNàmçÈ¢w{Ìbgx</span></p>
u­µÅà¨àÉÈêÎ¢¢âvÆ¢¤ÀÕÈl¦ÍAñíÉÜÌÈ¢Å·BR¨àÉ·éàÚIÌPÂÅ·ªA<span class="bold red">{ÍA»êæèàwÊÌ|CgxðÓ¯µÈªçsviÌÉæègñÅÙµ¢</span>ÌÅ·B»µÄA<span class="bold back-yellow">»Ì|Cg±»ªAlâ¬Êà³ñà»¤Å·µAXÌ¬÷Òª±oµÄ¢éR</span>ÈÌÅ·B È½ÉÍA¡ã¸ÁÆÒ¢Å¢«A»µÄ¼Ìlæèà­å«ÈàzðèÉµÄÙµ¢ÌÅA»Ìé§ð¨`¦µÜ·ËB</li>
<li><p><span class="bold">±ê¾¯ÍoiµÈ¢ÅIlªsviÌÅBê¸sµ½m</span></p>
î{IÉsviÌÅÍAÇñÈmÅà±ÌvOÊèÉoiµÄ¢¯ÎAS~¯RÌmª»àÉÏíèÜ·B¯ÇAA<span class="bold back-yellow">lª¡ÜÅ½­³ñÌmðoiµÄ«½ÅAå¸sµÄå¹µ½mª¶ÝµÜ·B</span> È½ÉÍ¯¶¸sðµÄ~µ­È¢ÌÅA Üè¾¢½­ÍÈ¢ñÅ·¯ÇA³¼ÉSÄðÔXÉêèÜ·B<span class="bold red"> È½ÍA½ðoi·êÎ¢¢©A»µÄ½ðoµÄÍ¢¯È¢Ì©AnßéO©çð·é±ÆªÅ«éÌÅA¸sÌm¦ªÙÆñÇ³¢</span>Æ¢¤Å·B</li>
<li><p><span class="bold">sviÌÅÅåÀÌvð¾éuUÂÌvl@v</span></p>
½­ÌlÍ½àl¦¸ÉsviÌð·éÎ©èÉA{¾çêéÍ¸Ì»àP~âQ~ÈÇð¹µ±¯Ä¢Ü·B<span class="bold back-yellow">ÅàA¿åÁÆvl@ðÏ¦é¾¯ÅA¯¶mðÁÄ¢élæèà{ÈãÌliÅêé</span>æ¤ÉÈèÜ·Bµ©àA±Ìvl@ÈçAuêémª©Â©çÈ¢cvÆ¢¤YÝ©çðú³êAÞµë¨àÉÏíémª»±çÉìêÄ¢é±ÆÉÁ­Åµå¤B</li>
<li><p><span class="bold">Á½¿iæèlÅêÄµÜ¤PÆÉPä Á½mÆÍH</span></p>
lÌmè¢ÍA<span class="bold back-yellow">±êðtINÅoiµ½Æ±ëA©ªªoµ½¨àæèàR~à½­vðoµÄêÄµÜ¢Üµ½B</span>là»êð·¢½ÍAum©É»êÍêéíÈvÆví´éð¾È¢mÅµ½B<span class="bold red">µ©à»¡[¢ÌªANOÜÅÈçÙÆñÇÌÆëÉPäÍu¢Ä Á½m</span>Å·Bj«Å±êðgÁ½ªÈ¢Æ¢¤lÍA¡ÜÅPxàoïÁ½ª èÜ¹ñB È½ÍuRIH±êª­êéHvÆ»±C¡ÉNN·éÅµå¤B</li>
</ul>
</div>
</div>
<div class="shouhin">
<img src="images/cap_02.png" width="100%"/>
<p>
¯¶¤iðµÁÄ¢é¼ÌCo½¿æè<br/>
½{àÌ¿iÅêéæ¤ÉÈÁ½ç×©éÆv¢Ü¹ñ©H<br/>
<br/>
 élÍAà¤ùÉg¢Ã³ê½S~¯RÌmð<br/>
P~Åµ©Ì·éªÅ«Ü¹ñB<br/>
<br/>
<span class="bold back-yellow">µ©µAw¨ª­êé´´¥xððµÄ¢élÍA<br/>
¯¶¤iðQ~ÅàR~ÅàÁÄµÜ¢Ü·B</span><br/>
<br/>
±Ìw¨ª­êé´´¥xÆ¢¤ÌÍA<br/>
sviÌ¾¯ÅÈ­ACtHrWlXàÜßÄA<br/>
 çäérWlXÅ¤ÊµÄ¢Ü·B<br/>
<br/>
ÈÌÅA±Ì´¥ðPxÅào¦ÄµÜ¦ÎA<br/>
¡ã È½ªÇñÈrWlXð·éÉµÄàA<br/>
ÊÜÅæèå«ÈLbVðÒ°éæ¤ÉÈèÜ·B<br/>
<br/>
ÂÜè±Ì´¥Æ¢¤ÌÍA<br/>
<img src="images/sub_25.png" width="100%"/><br/>

ÈÌÅ·B<br/>
<br/>
±ÌoiÒÅÍAsviÌ¾¯ÅÈ­A<br/>
AoüÈÇÌ¨ÌÆÅ|ÁÄ«½SÄªlÜÁÄ¢Ü·B<br/>
<br/>
Å·©ç È½ÍA<span class="bold back-yellow">±ÌoiÒðÃL·êÎA<br/>
l½¿ÌS`TNªÌmEnEð<br/>
JjOÅ«ÄµÜ¤Æ¢¤Å·B</span><br/>
<br/>
±ÌZp³¦ÃL·êÎA<br/>
¼ÌCoªÁÄ¢é¤iðwüµA<br/>
 È½ª³çÉP~ðãæ¹µÄÌ·éàÂ\ÆÈèÜ·B<br/>
<br/>
»ñÈZpðÁÄ¢êÎA<br/>
Ò°È­ÈéÍ¸ªÈ¢AÆv¢Ü¹ñ©H<br/>
<br/>
«ÁÆ È½ÍA±ÌvOðèÉµ½A<br/>
<br/>
<span class="bold red">uà¤ê¶A©ªÌÍ¾¯ÅH×Ä¢¯év</span><br/>
<br/>
ÆÀg´ÆJú´ð´¶é±ÆÅµå¤B<br/>
<br/>
`v^[QuoiÒvðê¾¯öJ·éÆAAA<br/>
</p>
<div class="bre">
<ul class="list2">
<li><p><span class="bold">O~Åø«æÁ½wS~¯RxðÙÚViÉµÄlÅéû@</span></p>
 È½ÌÆÌÇ±©ÉzRíÁ½S~Ìæ¤ÈmÍ èÜ·©HÀÍA<span class="bold back-yellow">`bgµ½ÈPÈudÝvð·é¾¯ÅAÎÁÄµÜ¤ÙÇlÅêéæ¤ÉÈé</span>ÌÅ·B<span class="bold red">µ©à±Ìû@ÍAPxgÉt¯ÄµÜ¦ÎA±Ì¢ÌÇñÈmÅàlÅÌÅ«éæ¤ÉÈé</span>ÌÅ·BBÈÌÅA±ÌZpðèÉµ½ È½ÌÚÌOÉÍAóÌRªìê©¦ÁÄ¢é±ÆÉCt­Åµå¤B</li>
<li><p><span class="bold">100~ÅWß½mðZbgÉµÄ~ÅÌ·épbNC</span></p>
¢ÌÉooÅoñÁÄ¢émðÅÀlÅ¢WßÄ­¾³¢B»µÄA é ZÊèÉZbgÌ·é±ÆÅA¢«Èèz¤iÉlÏíèµÜ·Bu¦HV[Y¨Å·©HvÆvíêé©àµêÜ¹ñªA{Í»ê¾¯ÅÍ³¢ñÅ·B¢âÞµëA<span class="bold red"> È½ª±Ì ZðgÁÄwV[Y»xµÄµÜ¦Î¢¢</span>ÌÅ·B<span class="bold back-yellow">vP~ÈãàæêÄµÜ¤ÉÌ ZwpbNCx</span>ðJÉðàµÜ·B</li>
<li><p><span class="bold">Ãiðè³Î¢Äà]¿ðàç¢±¯élSVG[V@</span></p>
o±ÒÈç²¶m¾Æv¢Ü·ªAÃiðè±¯Ä¢éÆAÇñÈTCgÅàAê]¿ªÂ¢ÄAJEgªÂ¢ÄµÜ¢Ü·B»¤ÈéÆA{AlÅêéÍ¸Ì¤iàS­êÈ­ÈÁÄµÜ¤Æ¢¤»ÛªN±èÜ·B<span class="bold back-yellow">ÅàAæøÉVvÈR~jP[V@ðæé¾¯ÅA½­ÍèÌ«xªá­ÄàA]¿ðt¯Äàç¦é</span>æ¤ÉÈèÜ·B<span class="bold red">ÇÌTCgÉàÚÁÄ¢È¢æølSVG[V@</span>ð`öµÜ·ËB</li>
<li><p><span class="bold">ÅzÅ¤iªêéÔÝèÆVvÈoiÝèÆÍH</span></p>
<span class="bold red">I[NVTCgÅÍAs®SÉæÁÄAÅà[U[ª½¢ÔÑÆ¢¤Ìª¶Ý</span>µÜ·Bl½¿ÍAu¨»ç­±ÌÔÑ¾ë¤vÆªÅQ`RNÔâÁÄ«Üµ½ªA»êÍS­Ì©á¢¾Á½±Æªª©èÜµ½B»µÄ±ÌÀðmÁ½¡ÅÍA¼ÌlªÀlÅD³êÄ¢éÌð¡ÚÉAÇñÇñÅzÅD³êÄ¢«Ü·B<span class="bold back-yellow">CoªmèàµÈ¢ÈOÈÔÑÆoiÌVvÈÝèû@ðXebvoCXebvÅðàB</span></li>
<li><p><span class="bold">IvV¿àðP~à¥í¸É È½Ì¤iðãÊ\¦³¹éé§</span></p>
RÌ±ÆÈªçA È½ªoiµ½¤iª½­ÌÚÉGé@ïª¦êÎAæè¢liÅD³êéæ¤ÉÈèÜ·BtINÅÍAIvV¿àðx¥¦ÎALoiªÅ«Ü·BÅàA<span class="bold red">í´í´¨àð¥íÈ­ÄàAèÉãÊ\¦³êéé§ÌmEnEª¶Ý</span>µÜ·B<span class="bold back-yellow">±Ìé§Ì¨©°ÅAlÍsviÌÅ20~ß­àÒ®É¬÷</span>µÜµ½Bµ©àAsvi¾¯ÅÈ­ACO©çdüê½¤iàA±ÌmEnEÅzD³êéæ¤ÉÈèÜµ½BvOðwüµ½ È½¾¯É±Ìé§ðVFAµÜ·ËB</li>
<li><p><span class="bold">JeS[ÊÅÅà×©é¡ÌTCgðÐî</span></p>
lªsviÌðX^[gµ½É±êçÌTCgêðmÁÄ¨¯ÎA20~Ç±ëÅÍÈ­A30~ÈãÉÈÁÄ¢½Åµå¤B¤iÌ®«ÉæÁÄÍAàÁÆ­êéTCgª¼Éà½­³ñ¶ÝµÜ·B<span class="bold back-yellow"> È½ÌzÈãÌliÅD³êéTCgIÑÆ»ÌVvÈî</span>à²ÐîµÜ·B</li>
<li><p><span class="bold">½­ÌâVªt¢Ä¢éÃiðAmazonÅÌ·éû@</span></p>
uà¤±ê«ÝâVª é©çtINÅP~ÅàêêÎ¢¢ÈvÆÆ¿è·élª¢éÌÅ·ªA»êÍ~ßÄ­¾³¢B<span class="bold back-yellow">»êçÌÃiàAmazonÅoi·éªÂ\Å·µA³çÉ»êðlÅéàÂ\</span>ÈñÅ·BuAmazonÍn[hª¢vÆvÁÄ¢élÅàA±±ÅðàµÄ¢éÊèÉèð¥ßÎAÈñÅ¡ÜÅèðt¯È©Á½Ì©ÆCª²¯ÄµÜ¤Åµå¤B</li>
<li><p><span class="bold">ÃiÅàDÒ©ç´ÓóªÍ­ÙÇìÎêé«ïÌeNjbN</span></p>
99%Í±Ìé§ðmçÈ¢ñÅ·¯ÇA<span class="bold back-yellow">½Á½PÂÌd|¯ð{·¾¯ÅA{{ÌÃiÅàufGÈ¨ð èªÆ¤²´¢Ü·IvÆ´ÓóªÍ­</span>æ¤ÉàÈèÜ·B»êÍÂÜèA<span class="bold red"> È½ÌAJEgÉà]¿ª½­³ñÁµÄ¢­ÌÅA»Ì ÆÉoi·é¤iàAÇñÇñlÅD³êé</span>æ¤ÉÈèÜ·B±ÌÈP·¬éeNjbNðgÁÄA1~Åà½­Ò¢¶áÁÄ­¾³¢I</li>
<li><p><span class="bold">X}zPäÅsviðzÅè³Î­ÈPoimEnE</span></p>
p\Rª³¢H»¤Å·©A¶á X}zÍ¨¿Å·©H<span class="bold back-yellow">{Íp\Rª Á½ûªÇ¢Å·ªAàµ³¯êÎX}zPä¾¯ÅàsviÌÍÅ«Ü·B</span>ÈÌÅAÜ¸ÍX}zÅsviðlÅè³Î«A´¨¾Ép\RðÁÄ­¾³¢B»µÄA È½Ìû100~ÖÌ¹ÌèðàÝnßÄ­¾³¢B</li>
<li><p><span class="bold">´flÅàX}zPäÅVi¯lÌoiæðBe·éVvÈRc</span></p>
½­³ñÌûÆ¨bµðµ½ÊAÙÆñÇÌlªuoiæðBe·éÌªïµ©Á½Å·vÆ¢¤YÝðÁÄ¢Üµ½BÅ·ªA<span class="bold back-yellow">lª¨³¦·éBe@ðæèüêêÎAX}zPäÅÈPÉBeµ½¨ÅàA¼Ìlª©êÎAu±êVi¶áËIHvÆ¨á¢µÄµÜ¤ÙÇÌfGÈæðBe·é±ÆªÂ\</span>ÆÈèÜ·BuÅà»¤ÈÁ½çAÀÛÉè³ÉÍ¢½ÉAèª¹µ½C¿ÉÈèÜ¹ñ©HvÆ¢¤SzªoÄ­éÆv¢Ü·ªAÀSµÄ­¾³¢B»ÌÎô@àSÄÜÆßÄ¨bµµÜ·B</li>
</ul>
</div>
</div>
<div id="main">
</div>
<div class="shouhin">
<img src="images/cap_03.png" width="100%"/>
<p>
æÙÇÜÅÌ`v^[ÅA<br/>
sviÌÅæè½­Ì»àðÒ®û@ð<br/>
gÉt¯Ä¢½¾«Ü·B<br/>
<br/>
»µÄAsviÌÅÒ®mEnEðo¦½çA<br/>
Ò¢¾àðgÁÄ»ÌÜÜ]rWlXðJnµÄ­¾³¢B<br/>
<br/>
u]ÁÄÈñ©ïµ»¤cv<br/>
<br/>
Ævíêé©àµêÜ¹ñªA<br/>
»êÍPÈév¢ÝÅ·æB<br/>
<br/>
<span class="bold back-yellow">{ÈçAsviðlÅéÙ¤ª<br/>
½{àïµ¢ñÅ·B</span><br/>
<br/>
ÅàA±±ÜÅ½ È½Èç<br/>
<img src="images/sub_26.png" width="100%"/><br/>

ÉÈÁÄ¢éÅµå¤B<br/>
<br/>
ÈºÈçAvÅêéoimEnEð<br/>
ùÉÁÄ¢é©çÅ·B<br/>
<br/>
 ÆÍA¢©ÉÀ­düêé©A<br/>
±±¾¯ÌâèÉÈÁÄ«Ü·B<br/>
<br/>
ÅàA­µßÅdüêðµ½ÆµÄàA<br/>
¡ÜÅ|Á½XLðgÁÄvðãæ¹·êÎ<br/>
»ê¾¯ÅÒ°Ü·B<br/>
<br/>
<span class="bold red">ÈÌÅ{ÉAsviÌð}X^[·êÎA<br/>
 çäérWlXÅÒ°éXLªgÉt­ñÅ·æB</span><br/>
<br/>
»µÄA]rWlXÌXe[WÉ­êÎA<br/>
û100~à´»ÀIÆÈÁÄ«Ü·B<br/>
<br/>
<span class="bold back-yellow">Æ¾¤æèàAÀÛÉ±ÌXe[WÅ<br/>
û100~vC[ÈñÄSS¶ÝµÄÜ·B</span><br/>
<br/>
½¾A±Ì]Å¢­çwÍµÄàÒ°È¢lÍA<br/>
sviÌÌXLª³¢lBÅ·B<br/>
<br/>
ÃiÈÇðlÅémEnEðÁÄ¢È¢ÌÅA<br/>
ãèÉvmÛªÅ«È¢ñÅ·B<br/>
<br/>
»¤ÈéÆA]Ìðâµ½Æ±ëÅ<br/>
×¯ÈñÄ÷X½éàÌÅ·æËH<br/>
<br/>
Åà È½Í»ñÈSzÈñÄsvÅ·B<br/>
<br/>
­È¢¤iÅàvðÒ®ªoéÌÅ·©çB<br/>
<br/>
`v^[RudüêÒvðê¾¯öJ·éÆAAA

</p>
<div class="bre">
<ul class="list2">
<li><p><span class="bold">lbg¾¯ÅfloiÒ©çv¤iðdüêéû@</span></p>
XÜdüêªÊ|Å·©HÅÍ<span class="bold back-yellow">lbg¾¯Å®·édüêÌÉÓ</span>ððàµÜ·ÌÅA»ÌÊèÉdüêÄ­¾³¢B<span class="bold red">lbgãÉÍAvÅéû@ðmèàµÈ¢floiÒÅìê©¦ÁÄ¢Ü·B</span> È½ÍA<span class="bold back-yellow">Þç©çÅÀlÅdüêÄA»ÌÜÜPAQ~Ìvðãæ¹µÄ]·é¾¯</span>Å·B»ÝïÐõðµÄ¢Ä¨Zµ¢lÍAdÌÔÉlbgÅdüêÄ]µANµÄ×¯Ä­¾³¢B</li>
<li><p><span class="bold">lbgdüêÅÅàÀ­düêÂ\Ès|CgÌê^CÆÍH</span></p>
<span class="bold red">¼ÌCoªê¶½ADíðJèL°Ä¢éA È½ÍmçñÕèµÈªçg éÔÑhÉ|`ÁÆDµÄ­¾³¢B</span>u¦H±ñÈÀlÅDÅ«¿áÁ½æcvÆ©ªÅàðCÉÆçêéÙÇAÈPÉÀlÅv¤iðdüêéªÂ\ÉÈèÜ·B<span class="bold back-yellow">±ÌÔÑ¾¯ð_ÁÄ¨¯ÎA È½Í¡ãAlbgdüêÉ¢éÍÈ¢Åµå¤B</span>ÀèIÉA»µÄD«È¾¯vðÒ¢Å­¾³¢B</li>
<li><p><span class="bold">^_iO~jÅ×©é¤ið³ÀÉdüêçêé¨óX|bg</span></p>
udüêé¨àª èÜ¹ñIvÆ¢¤ûàÀSµÄ­¾³¢B é¨óX|bgð²ÐîµÜ·ÌÅA<span class="bold red">»¿çÅv¤ið©Â¯Ä^_iO~jÅø«æÁÄ­¾³¢B</span><span class="bold back-yellow">»êðsviÌÅ|Á½oiXLðgÁÄAQÅàRÅà¢¢ÌÅÌµ¿áÁÄ­¾³¢B</span>±ÌX|bgÅv¤ið©Â¯o·ÌÍ­µÔª©©èÜ·ªAµêêÎÈPÉÈèÜ·BÙÆñÇÌlªmçÈ¢ àÌBµêðA±ÌvOðwüµ½ È½¾¯ÉVFAµÜ·ËB</li>
<li><p><span class="bold">¨XÌlÉìÎêÈªçXÜdüêð·édvÈé</span></p>
XÜdüêÍ{A¨XÌlÉªçê½èAÀfªçêéÌªcl¾ÆvÁÄ¢Ü¹ñ©HÀÍá¤ñÅ·B<span class="bold red">{Í¤iðåÊÉwüµÄ­êé]®ÍA¨X¤©ç·êÎuü¡µ¢¨qlvÈÌÅ·B</span>µ©µA»êðmçÈ¢CoÍA éå«È~XðÆµÄ¨XÌlÉíêÜ·BÈÌÅA È½ÉÍA¨XÌlÉìÎêA´Ó³êÈªçXÜdüêð·é½Á½PÂÌdvÈéð²ÐîµÜ·B<span class="bold back-yellow">Ê¢ÉA¨XÌlÉ´Ó³êéæ¤ÉÈéÆA¨XÌÉ°ÁÄ¢é¨ó¤ið³¦Ä­êéêàoÄ«Ü·B</span></li>
<li><p><span class="bold">úÉæÁÄzÅêégh¤i©XPW[\</span></p>
»ÌúÉvª­IÉ¦é¤iÌðugh¤ivÆ¾¢Ü·ªAdüêÌÛÉ±Ì´oðo¦ÄµÜ¦ÎAñíÉnCxÈdüêªÂ\ÆÈÁÄ«Ü·B<span class="bold back-yellow">±ÌxÜÅêÎA]Åê¶Ò¢Å¢­ªÂ\</span>ÉÈéÅµå¤B<span class="bold red">l½¿ªNÔ©¯ÄÍñÅ«½´oÅìÁ½AåÜ©ÈNÔXPW[ð È½ÉàVFAµÜ·ÌÅA È½Í¢«Èèx99ÌXe[^XÅ]rWlXðX^[g·éªÂ\</span>ÆÈèÜ·B</li>
<li><p><span class="bold">êèTCNÅ¿iª«·éSÂv¤iÌ©Â¯û</span></p>
<span class="bold red">¢ÌÌ¨ÉÍAêèúÔÅK¸æø¿iª«·é¤iª½­³ñ¶Ý</span>µÄ¢Ü·B»êðOàÁÄ´á¿iÅdüêÄ¨¯ÎA¿iª}«µ½ÉÎÁÄµÜ¤ÙÇå«Èvð×¯é±ÆªÅ«ÄµÜ¤ñÅ·B¿i}«·é¤iÌ©Â¯ûÆ»ÌîððàµÄ¢«Ü·B</li>
<li><p><span class="bold">Coª³·é²­ÊÌÃiÅÀèIÉ×¯és[gíª</span></p>
Ç±ÉÅà éA²­ÊÌÃiªÄO×©éÌð²¶mÅ·©HCoÍAu±ñÈv¶áâè½­È¢vÆØíÉ³µÄ­êéÌÅ·ªA<span class="bold back-yellow">l½¿Í»êðJèÔµµ¤ÅAPÂÌ¤iÅNÔ200~ÌvðÒ®±ÆªÅ«Ä¢Ü·B</span>»Ì<span class="bold red">Ãiðp±µÄdüêémEnEàðà</span>µÜ·ÌÅA È½à»Ìü¡µ¢Ãið©Â¯ÄAÀèIÉ×¯Ä­¾³¢B

</li><li><p><span class="bold">LøIÉß½|CgJ[hÅz¤ið³¿ÅdüêÄå×¯·é Z</span></p>
NWbgJ[hðgÁÄdüêðµÄ¢½èAÆdÊÌXÅ|CgJ[hðñ¦µÄ¢éÆAP`QÅàÆñÅàÈ¢ÊÌ|Cgª­ÜÁÄ¢­æ¤ÉÈèÜ·B<span class="bold back-yellow">à¿ëñ»Ì|CgðgÁÄAÆ°Æw^_xÅ·sÉs­±ÆàÂ\Å·BªA|CgÅzÈ¤iðdüêÄA³çÉå×¯·é±ÆªÅ«é</span>ÌÅ·B½­ÌlªmèàµÈ¢ALøIÈ|CgÌßûÆ»êÅ×¯éÉÓðÚ×É`öµÜ·ËBO~ÅzeÉhµÄA³ñÉhçðµÄâÁÄ­¾³¢I</li>
<li><p><span class="bold">xúÉÀ¿iÅvl^ªìê©¦ÁÄ¢é Ìê</span></p>
]rWlXð·éæ¤ÉÈÁÄ©çA Ìw½èOÌêxÉsÁÄÝêÎª©èÜ·ªA »±ÉÍ¨óªÀÅìê©¦ÁÄ¢éÉÁ«Ü·Bµ©àA<span class="bold back-yellow">»±É­él½¿àÝñÈflÈÌÅAÜ³©ç~©ç~ÉÈÁÄêÄµÜ¤ÈñÄmèàµÜ¹ñB</span>ÈÌÅA»êçÌ¤iª\~Æ©S~ÅÁÄ¢éÌÅ·BTA±êÅ{×¯µÜµå¤B</li>
<li><p><span class="bold">¨ó¤iªêèTCNÅ50%ItÉÈéêÆ»ÌR</span></p>
l½¿ÉÆÁÄÍðµ¢ÅA<span class="bold back-yellow">¢ÂàÍvª2ç~`bgÌ¤iªA éêèTCNÅ4ç~ÈãÉÈéæ¤É50%ItÉÈèÜ·B</span>»êÍµåÁ¿ã¤síêÄ¢éÌÅ·ªA»êªª©éTCgà²ÐîµÜ·B»µÄAÈº»ê¾¯pÉÉÀ­ÈéÌ©A»Ì»¡[¢Ràà¾µÜ·B<span class="bold red">±ÌRªª©êÎA¼ÌêÅàÀ­ÈéTCNªèÉæéæ¤Éª©é</span>Åµå¤B</li>
</ul>
</div>
</div>
<div class="shouhin">
<img src="images/cap_04.png" width="100%"/>
<p>
düêðNWbgJ[hÅ·élÍA<br/>
°ëµ¢ÙÇ|Cgª­ÜÁÄ¢«Ü·B<br/>
<br/>
»êÅÀÛÉlÍA»àÆ¢¤©<br/>
<span class="bold back-yellow">©ªÌ¨àðêØg¤È­A<br/>
600~ß­·ét@[XgNXÅV¥·sÉsÁÄ«Üµ½B</span><br/>
<br/>
³ñÍÆÄàìñÅÜµ½B<br/>
<br/>
m©ÉAÊÉ¶ðµÄ¢Ä<br/>
t@[XgNXÈñÄæêÈ¢Å·æËB<br/>
<br/>
ÅàËAl½¿Ìæ¤ÉdüêðµÄ¢éÆA<br/>
|CgªèÉ­ÜÁÄ¢ÁÄAÈñÆA<br/>
<br/>
<img src="images/sub_27.png" width="100%"/><br/>
És¯ÄµÜ¤ñÅ·æB<br/>
<br/>
<span class="bold back-yellow">µ©àA»Ì|CgÍòs@¾¯ÅÈ­A<br/>
hæÌzeÆ©Åàg¦Ü·B</span><br/>
<br/>
ÈÌÅAÙÆñÇ^_ÅåØÈlÆ<br/>
Ø·¬é·sªs«Ü­êéñÅ·æB<br/>
<br/>
±êÍA¨ÌrWlXÌ¶b¾ÈAÆv¢Ü·B<br/>
<br/>
à¿ëñA±ê©ç]rWlXðnßé<br/>
 È½àS­¯¶æ¤È¶bðó¯éÉÈèÜ·æB<br/>
<br/>
 È½àt@[XgNXðO~Åæéû@ð<br/>
Úµ­¨³¦µÜ·ÌÅyµñÅ­¾³¢ËB<br/>
<br/>
`v^[SuÔOÒvðê¾¯öJ·éÆAAA
</p>
<div class="bre">
<ul class="list2">
<li><p><span class="bold">P­~ÈãÌ|CgðßÄ¢­NàmçÈ¢ Z</span></p>
±ÌP­~ÈãÆ¢¤ÌÍAgpprÍ½òÉnèÜ·BÈºÈçA»êÍ¨àÆS­¯¶æ¤Ég¦é©çÅ·B<span class="bold back-yellow">ÂÜèP­~ªAòs@¾ÁÄæèúèÅ·µA|Cgªg¦ézeàÜèúè</span>Å·B<span class="bold red">v·éÉA¨ÌrWlXðµÄ¢é¾¯ÅAèÉ»àªP­~Èãà­ÜÁÄ¢­</span>Æ¢¤Æ¯`ÈñÅ·æB°ëµ¢Æv¢Ü¹ñ©H±êª¼ÌrWlX¾Á½çAèÉP­~ÈñÄ½ÜèÜ¹ñæËB È½à±ÌzÌ|CgÅAåØÈlÆD«È¾¯·sÉo©¯Ä­¾³¢B</li>
<li><p><span class="bold">P~àgí¸É¡·®R~ÈãÌ»àð¶Ýo·û@</span></p>
u­µÅà»àðÒ¬½¢ñÅ·¯ÇcvÆ¢¤lÍAà¿ëñsviÌð·êÎÒ°éÌÅ·ªA»<span class="bold back-yellow">êÈOÉàÀÍA¨àðP~à©¯¸ÉR~ÈãÌ»àðÒ°éwé§Ì Zxª¶Ý</span>µÜ·B±êÍArWlXÆ¢¤æèÍA¨±¸©¢Ò¬Éß¢©àµêÜ¹ñB<span class="bold red">ÈºÈçA±Ìû@ÉÍÁÊÈm¯àXLàl¬àêØKvÈ¢</span>©çÅ·B±ñÈÈPÈ·çAÙÆñÇÌlÍmèàµÜ¹ñBvOðèÉµ½ È½ÉÍRb\é§ÌTCgðVFAµÜ·ËB</li>
<li><p><span class="bold">ÈPÉÃ¨¤ÂØðæéû@Æ»êðgÁÄæèå«­Ò®é</span></p>
©ªÌsviðÌ·éªÉÍÃ¨¤ÍvèÜ¹ñBÅàA¼l©ç]ÚIÅsviðñûAæè·éêÍAÃ¨¤ÂÍK{ÉÈÁÄ«Ü·Bu¦[AÃ¨¤æ¾Æ©Ê|L»¤vÆvÁÄµÜ¤lªÙÆñÇÅ·ªA<span class="bold back-yellow">âèû³¦ª©êÎA´ÈPÉµ©à·®Éæ¾·é±ÆªÅ«Ü·B»µÄAÃ¨¤ÂðgÁÄA³çÉå«­×¯éé</span>à¨`¦µÄ¢«Ü·BñíÉ½­ÌlªuÊ|L»¤vÆ¾ÁÄh·é©ç±»Al½¿ÍNÉ×¯éªÅ«éÌÅ·B</li>
<li><p><span class="bold">¨ÌÅû500~ÈãÒ¢Å¢él½¿ªK¸g¤c[W</span></p>
<span class="bold back-yellow">l½¿¨ÌÅåàð×¯Ä¢él½¿ªgÁÄ¢éc[ÌXð²Ðî</span>µÜ·B È½ÍA¨ÌðX^[g·éiK©ç±êçðg¢±È·ªÅ«éÌÅA¼Ìl½¿æèàÍé©ÉÒ¬â·¢Â«Å]rWlXðX^[g·é±ÆªÅ«Ü·BSÄðg¤ÌàÇ¢Å·ªA½Â©¾¯Åào¦êÎA¨ÌÅÒ®ÌÉèª©©çÈ­ÈÁÄ«Ü·BÊ|L¢Íc[ÉC¹ÄA È½ªÅ«é¾¯ÔI©Rð¾Èªç×¯Ä¢«Üµå¤B</li>
<li><p><span class="bold">zÈvðÒ°éå^ÆdÌæèµ¢û
uå^ÆdÁÄd½¢µdüêª¢æÈcvÆvÁÄµÜ¢Ü·æËBÅàA»¤vÁÄ¢él½¿Î©è¾©ç±»Al½¿Í×¯éªÅ«éÌÅ·B<span class="bold back-yellow">å^Ædðµ¦éæ¤ÉÈêÎA È½ÌÒ®àzàQ{AR{Æá¾éÜ®É¦Ä¢­</span>±ÆÉÈéÅµå¤B»êÙÇü¡µ¢ñÅ·BÈÌÅA<span class="bold red">Å«é¾¯VvÉflÅàå^ÆdÅÒ®é§</span>ð`öµÜ·B</span></p></li>
<li><p><span class="bold">¨ÌrWlXÅâÎÉð¯é×«âsûÀÆIXXÌâsûÀ</span></p>
±ê©ç¨Ìi]jrWlXðJn·é È½ÍAV½ÉâsûÀðìéKvª èÜ·BÅàA¨<span class="bold red">ÌrWlXÉü¢Ä¢È¢âsÆ«²QÌâsª¶Ý</span>µÜ·B±êðmç¸ÉKÉûÀJÝµÄµÜ¤ÆASAç~ªÌdüêðµ½çA}ÉûÀªµÄµÜÁÄAEà¶àèðo¹È¢óµÉ×ÁÄµÜ¤ë¯ª èÜ·B<span class="bold back-yellow">»¤ÈéÆAå¹¸ÆÈèAÅ«ÌêA»ÌÜÜÝÉªêÈ­ÈÁÄåØàðø¦é</span>ÉàÈè©ËÜ¹ñB È½ÉÍ»¤ÈÁÄ~µ­È¢ÌÅA³µ¢âsIÑð²ÐîµÜ·B</li>
</ul>
</div>
</div>
<div id="main">
<p>
±êçÍ ­ÜÅàvOÌêÅ èA<br/>
{ÌgÍÍé©ÉcåÈÊÉoèÜ·B<br/>
<br/>
 È½ª±Ìwt@[Xg}jAxPÂèÉ·êÎA<br/>
Ôá¢È­AÅZÅ¬Åû100~ÖðB¬Å«é<br/>
Â\«ÍÙÚmèÅ·B<br/>
<br/>
 ÆÍ È½ªâé©âçÈ¢©A<br/>
½¾»ê¾¯Ì±ÆÅ·B<br/>
<br/>
lÍ È½ªÒ°éæ¤ÉÈé½ßÉA<br/>
îñÌoµÉµÝÈñÄµ½­ èÜ¹ñB<br/>
<br/>
¿Ü½ÌîñNÆÆÍA<br/>
©ªÌ´zÈRTeBOðè½¢Î©èÉA<br/>
îñÌ¼ªÈãðB»¤ÆµÜ·B<br/>
<br/>
ÅàlÍâÎÉ»ñÈµ½­È¢ñÅ·B<br/>
<br/>
¾©çA<br/>
</p>
</div>
<br/>
<div id="sub">
<img src="images/sub_28.png"/>
</div>
<div id="main">
<p>
 È½ª±ÌvOPÂ¾¯Åà<br/>
âÎÉÒ¢Å~µ¢ÆvÁÄ¢Ü·B<br/>
<br/>
ÈÌÅAèöJ©çTúÈàÉwt@[Xg}jAxð<br/>
wüµ½ È½¾¯ÉAÈºÌXyV{[iXÁTà<br/>
¨t¯µÜ·B<br/>
</p>
</div>
</div><!-- mainbg -->
<div id="mainbg5">
<br/>
<div class="tokuten">
<img src="images/tokuten_01.png"/>
<p>
±ê©çsviÌâ]rWlXðnßéûÉÍA<br/>
ÇñÈ¤iªvÅæø³êéÌ©Tbp¾Æv¢Ü·B<br/>
<br/>
ÈÌÅA±Ì¤iáWðÅÉÚðÊµÄàç¦êÎA<br/>
Ò°é¤iªÇ¤¢Á½¨ÈÌ©A´oðÍßéÍ¸Å·B<br/>
<br/>
ÅÉ¤iáð©Ä¨­ÍA<br/>
ñíÉdvÅ·B<br/>
<br/>
<span class="bold">á¦ÎAWO\[pYðv¢©×Ä­¾³¢B</span><br/>
<br/>
àµ È½ªAÅÉ®¬nÌGðPxà©¸É<br/>
pYðoµÄJnµ½çÇ¤ÈéÅµå¤H<br/>
<br/>
{ÉA½ªÇ±Ìs[XÈÌ©A<br/>
S­z·çÅ«È¢Í¸Å·B<br/>
<br/>
µ©µAo·OÉ¶Á­è®¬nÌGð©Ä¨¯ÎA<br/>
Ç±ÉÇñÈs[XðÄêÎ¢¢Ì©A<br/>
·®É´oðÍßéæ¤ÉÈèÜ·B<br/>
<br/>
l½¿ªâÁÄ¢é¨ÌrWlXàêÅ·B<br/>
<br/>
nßéOÉÇñÈ¤iª­êé©mÁÄ¨¯ÎA<br/>
 È½ªÇñÈ¤iðdüêêÎÒ¬â·¢Ì©<br/>
´oª¤¬Ü³êéÌÅ·B<br/>
<br/>
<span class="bold back-yellow">ÂÜèA È½ª¨ÌðJn·éÆ«ÉÍA<br/>
xeÌæ¤Èo±lðÁÄX^[g·éª<br/>
Â\</span>ÉÈéÆ¢¤Å·B
</p>
</div>
<br/>
<div class="tokuten">
<img src="images/tokuten_02.png"/>
<p>
sviÅà]Åà»¤Å·ªA<br/>
oiµÄ¢éÆA¤iÉ»¡ª él©ç<br/>
¿âª­é@ïª¦Ü·B<br/>
<br/>
ÀÛÉ»ÝvC[ÆµÄâÁÄ¢élÍA<br/>
ÅA»±ªïµ©Á½Æûðµ¦Ü·B<br/>
<br/>
ñÌàeÉæÁÄÍAÁÄ­êÈ©Á½èA<br/>
 é¢Íá¿iÌÜÜêÄµÜ¤ª èÜ·B<br/>
<br/>
<span class="bold red">µ©µA¿âÎð}X^[·êÎA<br/>
zÅÁÄ­êém¦ª©ÈèãªèÜ·B</span><br/>
<br/>
 È½Í±Ìev[gÊèÉ¿âÎ·é¾¯Å<br/>
¨q³ñÉìÎêÈªçzÅÁÄ­êéæ¤ÉÈèÜ·B<br/>
<br/>
u©ªÅgÁ½ªÈ¢¤iÌ¿âð³êéÆ<br/>
ÈñÄ¦Ä¢¢Ì©ª©çÈ¢cv<br/>
<br/>
Æ¢¤YÝª½¢ÌÅ·ªA<br/>
»êà±Ìev[gÊèÉâÁÄ­êêÎÇ¢Å·æB<br/>
<br/>
©ªªmçÈ¢¤iàA<br/>
°ê¸ÉÇñÇñoiµÄ×¯Ä­¾³¢B
</p>
</div>
<br/>
<div class="tokuten">
<img src="images/tokuten_03.png"/>
<p>
sviÅ¾¦ÎD³ê½Æ«A<br/>
]Å¾¦ÎwüµÄ­ê½Æ«ÉÍA<br/>
FñÈ[Ìâèæèð·éKvªoÄ«Ü·B<br/>
<br/>
u»ÌâèæèªÇ¤·êÎÇ¢Ì©ª©çÈ¢cv<br/>
<br/>
Æ¢¤lª ÜèÉà½©Á½ÌÅA<br/>
l½¿ªÌÁ©çgÁÄ¢éAÚqÎð·éÛÌ<br/>
SÄÌ¶Íev[gàv[gµÜ·B<br/>
<br/>
ÈÌÅA È½ÍDiwüj³ê½çA<br/>
±Ìev[gÌ|Cg|Cgð<br/>
ß®É¢Ä¢­¾¯ÅOKÅ·B<br/>
<br/>
<span class="bold back-yellow">µ©àA±Ìev[gÌ¦¢Æ±ëÍA<br/>
¨q³ñÌ«xªãªÁÄµÜ¤Å·B</span><br/>
<br/>
¾©çA È½ÌAJEgÉ]¿ª­ÜÁÄ¢«A<br/>
³çÉ¨ÌÅÒ¬â·­ÈÁÄ¢­ñÅ·B<br/>
<br/>
lª¨ÌSÒ¾Á½çA<br/>
âÎÉ±Ìev[gÍ~µ¢Å·B<br/>
<br/>
»êð È½ÉoµÉµÝ¹¸É<br/>
v[gµÜ·ËB
</p>
</div>
<br/>
<div class="tokuten">
<img src="images/tokuten_04.png"/>
<p>
utINÆ©Åoi·éÆ«A<br/>
¤iðÐî·é¶Íð½¯ÎÇ¢©ª©çÈ¢cv<br/>
<br/>
uDÔÝèÆ©A¼Ì çäéÝèà<br/>
½ðÇ¤·êÎÇ¢Ì©ª©çÈ¢cv<br/>
<br/>
uêâ·¢oiû@ðmè½¢Iv<br/>
<br/>
Æ¢¤ºªA ÜèÉà½©Á½ÌÅA<br/>
±ÌvOðwüµÄ­ê½ È½ÉÍ<br/>
³Åv[gµÜ·B<br/>
<br/>
oiÌdûÍ{ÉdvÈñÅ·B<br/>
<br/>
ÈºÈçA¯¶¤iðoiµ½ÆµÄàA<br/>
»ÌoiÌdûÉæÁÄD¿i¾Á½è<br/>
wü¿iª{ÈãÉÈé¾ÁÄ¿µ­ èÜ¹ñB<br/>
<br/>
{ÍR~Åê½Í¸Ì¨ªA<br/>
Qç~Éµ©ÈçÈ©Á½Æ©½CÅ èÜ·©çËB<br/>
<br/>
½­³ñÌlÆXJCvµÄ½çA<br/>
ÝñÈ¯¶¸sðµÄéñÅ·B<br/>
<br/>
u¦¥¥IàÁ½¢È¢Iv<br/>
<br/>
Æ½x¾Á½©c<br/>
<br/>
<span class="bold back-yellow"> È½ÉÍ±Ìoiev[gª éÌÅA<br/>
Åà¢vÅéªoéæ¤ÉÈèÜ·æB</span><br/>
<br/>
ev[gÈÌÅAÁÉïµ¢Íl¦¸É<br/>
ÀÉÄ»µÄ­¾³¢ËB<br/>
<br/>
»µÄ¶áñ¶áñÒ¢¶áÁÄ­¾³¢B
</p>
</div>
<br/>
<div class="tokuten">
<img src="images/tokuten_05.png"/>
<p>
ÃiÌdüêâ]ÅAÌÀèµ½<br/>
p±ûüðm¦·é½ßÉÍA<br/>
JèÔµÌ·é¤iXgð\z·éKvª èÜ·B<br/>
<br/>
±Ì¤iXgÅÇ³¦·êÎA<br/>
uàÒ°é©sÀvÆ¢¤YÝâSzÍ<br/>
êØÈ­ÈèÜ·B<br/>
<br/>
<span class="bold back-yellow">ÈÌÅXgª­ÜÁÄ¢­ÙÇÉA<br/>
 È½ÌÌûüªE¨ãªèÉ¦±¯Ü·B</span><br/>
<br/>
ÅàAlª½­³ñÌlÆbµÄ¢½çA<br/>
ÝñÈ±Ì¤iXgðÇ·éû@ª<br/>
ª©çÈ¢AÆ¢¤ÌÅ·B<br/>
<br/>
l½¿ªÃiÅûvðâµ±¯çêéÌÍA<br/>
±Ì³µ¢¤iÇXgÌ¨©°Å·B<br/>
<br/>
Å·©ç ÈÉAlçªÀÛÉgÁÄ¢é<br/>
¤iÇev[gà·µã°Ü·B<br/>
<br/>
 È½à±êÅv¤iðÇ·êÎA<br/>
<br/>
u A±Ì¤i ÌQ~Ìvªo½ÈIv<br/>
<br/>
Æê­Åª©éæ¤ÉÈèÜ·ÌÅA<br/>
ñíÉÒ¬â·­ÈéÍ¾¤ÜÅàÈ¢Å·æËB<br/>
<br/>
ºÐLøpµÄ­¾³¢B
</p>
</div>
<br/>
<div class="tokuten">
<img src="images/tokuten_06.png"/>
<p>
©ÈAtBGCgÆÍA©ªÅ½©É\µÞÆ<br/>
¨àªá¦ÄµÜ¤AÆ¢¤½ÆàsvcÈìÆÅ·B<br/>
<br/>
á¦ÎANWbgJ[hðPÂì¬·êÎA<br/>
»ê¾¯ÅTç~ðá¦½èµÜ·B<br/>
<br/>
NJ¾¯ÅÈ­A¼Éà½­³ñÌ<br/>
©ÈAtBGCgÄª èÜ·B<br/>
<br/>
µ©àA¼ÌlªmçÈ¢æ¤È<br/>
zÄà½²ÐîµÜ·B<br/>
<br/>
±êÍ È½ªP~àg¤±ÆÈ­<br/>
¨àðÒ®±ÆªÅ«Ü·B<br/>
<br/>
ÈÌÅAXNÈñÄêØÈ­<br/>
~ðÒ¢Å­¾³¢B
</p>
</div>
<br/>
<div class="tokuten">
<img src="images/tokuten_07.png"/>
<p>
u¦IH³ñA}t@iÅ·©Hv<br/>
<br/>
Æ¨á¢³êéÆcOÅ·ªA<br/>
S­á¢Ü·æB<br/>
<br/>
lªÀÛÉ±êðâÁÄéÉÍ<br/>
êeÉA<br/>
<br/>
u ñ½±ê}t@i¿á¤âëÈHÊñ·éÅv<br/>
<br/>
ÆÕÌê¾ð¾íê½Ìð<br/>
¡ÅàN¾Éo¦ÄÜ·B<br/>
<br/>
lÍA<span class="bold back-yellow">±ÌA¨ÌcðÁÄ­µçÄ½çA<br/>
PÂ1000~¾Á½Ìª8000~ÈãÌvÉÈÁÄ<br/>
êÄ¢Á½ÌÅ·B</span><br/>
<br/>
µ©à±êAÆÅçÄçêéñÅ·ªA<br/>
ñíÉÈPÅèÍ»ñÈÉ©©èÜ¹ñB<br/>
<br/>
»êÅ¢ÄA10Â­ç¢ÁÄ<br/>
vÅ10~­çÉÈèÜµ½B<br/>
<br/>
ÈÌÅA2`30ÂçÄÄêÎ<br/>
2`30~ÉÍÈéÅµå¤B<br/>
<br/>
±êÍ¡ÅàÒ°Ü·µA<br/>
NÅàÈPÉÒ°Ü·B<br/>
<br/>
±ê©ç[X^[gÅÒ¬½¢lÍ<br/>
Ê¢è@¾Æv¢·æB<br/>
<br/>
Coà¢È¢Å·µËB<br/>
<br/>
¿ÈÝÉAtINÅSê¿á¢Ü·B
</p>
</div>
<br/>
<div class="tokuten">
<img src="images/tokuten_08.png"/>
<p>
lÍrWlXðnß½Î©èÌ±ëA<br/>
±Ì ZÅü¡µ¢v¢ðµÄÜµ½B<br/>
<br/>
ÀlÅdüê½mÉA<br/>
ÙñÌ`bgèðÁ¦é¾¯Å<br/>
{ÈãÌliÉàÈÁÄµÜ¤ñÅ·B<br/>
<br/>
±êàÍ|]Ìæ¤ÉA<br/>
Ê¢æ¤ÉlÅêÜ·æB<br/>
<br/>
µ©àAÁÄ­ê½lÉ<br/>
´Ó³êÜ·B<br/>
<br/>
»êÅ¢ÄAÍ|æèàÍé©É<br/>
èª©©èÜ¹ñÌÅAºÐâÁÄÝÄ­¾³¢B<br/>
<br/>
CoàSR¢È¢ÌÅA<br/>
âé¾¯ÅÒ°¿á¢Ü·æB<br/>
<br/>
u×¯½¯êÎM¶IÈ}jAðèÉµëv<br/>
<br/>
Æ È½à·¢½±Æª é©àµêÜ¹ñªA<br/>
±êàÜ³ÉM¶IÈ}jAü¯ÌrWlXÅ·B<br/>
<br/>
<span class="bold back-yellow">ûüàÀè·éµA»ê¾¯ÅÈ­<br/>
å«ÈàzàÒ°éæ¤ÉÈèÜ·B</span><br/>
<br/>
ÙÆñÇNàmçÈ¢Ò¬ûð<br/>
±ÌvOðwüµ½ È½¾¯É<br/>
`öµ¿á¢Ü·B
</p>
</div>
<br/>
<div class="tokuten">
<img src="images/tokuten_09.png"/>
<p>
sviÌâÃi]ðnßéÆA<br/>
ÙÆñÇÌlªPÂÌå«ÈÇÉÔÂ©èÜ·B<br/>
<br/>
»êÍAA<br/>
<br/>
uÆ©çoiÅ«émª³­ÈéIv<br/>
<br/>
Æ¢¤âèÅ·B<br/>
<br/>
»êÍ»¤Å·æËA<br/>
ÆÉ émÌÉàÀxª èÜ·B<br/>
<br/>
ÅàA»êà·®ÉðÅ«éÌÅ·æB<br/>
<br/>
 È½ÌÆÉ³¯êÎA¼Ìl©ç^_ÅáÁ½è<br/>
düê¿á¦Î¢¢ñÅ·B<br/>
<br/>
<span class="bold back-yellow">±Ì{[iXÁTÅÍA¼Ìfl³ñªgíÈ­ÈÁ½<br/>
Ãið³¿i0~jÅàç¦é10ÂÌTCgð<br/>
VFAµÜ·B</span><br/>
<br/>
 È½ªßÄ·¢½TCgà<br/>
½­³ñ éÍ¸Å·B<br/>
<br/>
±êçÌTCgðg¦Î¶ÊèA<br/>
O~düêÅv¾¯ðÒ°Ü·B<br/>
<br/>
ÈPÅ·æB<br/>
<br/>
±êçÌ³¿düêTCgðìgµÄ<br/>
v¤¶ªA¨àðÒ¬oµÄ­¾³¢B
</p>
</div>
<br/>
</div><!-- mainbg -->
<div id="mainbg1">
<div id="sub">
<img src="images/sub_29.png"/>
</div>
<div id="main">
<p>
lÍÇ¤µæ¤àÈ­«ß½­Ä<br/>
dûªÈ©Á½ïÐõðµÄ¢éÆ«B<br/>
<br/>
<span class="back-yellow bold"> ÌÉwsviÌxÆ¢¤½CÈ¢IðÌ¨©°ÅA<br/>
¡ÅÍû1000~ðÒ°éæ¤ÉÈèÜµ½B</span><br/>
<br/>
û100~¶áÈ¢Å·æH<br/>
<br/>
RÅ·¯ÇA È½à¢«Èè<br/>
û1000~ðÒ®±ÆÍ©Èèïµ¢Åµå¤B<br/>
<br/>
ÅàËAµÁ©èÆ³µ¢ÅrWlXðX^[g·êÎA<br/>
Ôá¢È­Aû100~ÈñÄ´¦ÄµÜ¢Ü·æB<br/>
<br/>
»Ì½ßÌm¯âmEnEÍ<br/>
SÄ±ÌvOÉlßÝÜµ½B<br/>
<br/>
ãÍ È½ªs®·é©µÈ¢©A<br/>
½¾»ê¾¯ÈñÅ·B<br/>
<br/>
½ðâÁÄàÒ°È¢c<br/>
<br/>
Ç¤·êÎÆ¾¯Å<br/>
û100~Ò°éÌ©S­zÅ«È¢c<br/>
<br/>
úA½ðâêÎÇ¢©ª©ç¸sÀc
</p>
</div>
<div id="sub">
<img src="images/sub_30.png"/>
</div>
<div id="main">
<p>
¾ÁÄA±ÌvOÉÍA<br/>
 È½ª¡A½ð·êÎÇ¢Ì©<br/>
SÄ¢Ä èÜ·©çËB<br/>
<br/>
lÍ±ÌvOÉ©MðÁÄ¢Ü·B<br/>
<br/>
là È½Æ½àÇ±àÏíèÜ¹ñB<br/>
²­ÊÌêÊlÅ·B<br/>
<br/>
µ©àAÆðnß½Î©èÌ ÍA<br/>
ÁZÈñÄ½àÈ©Á½Å·B<br/>
<br/>
»ñÈlÅà³µ¢ð¥ñ¾ç<br/>
û1000~Æ¢¤M¶çêÈ¢àzð<br/>
Ò°éæ¤ÉÈÁ½ñÅ·B<br/>
<br/>
 È½ÉàÅ«Ü·A<br/>
sÂ\ÈÍ¸ª èÜ¹ñB<br/>
<br/>
©ªðM¶Ä °Ä­¾³¢B<br/>
<br/>
»µÄ±ÌXebvÊèÉâÁÄ¢Á½çA<br/>
¢ÂÌÔÉ©A©ª©gÌûüðA»µÄl¶ðA<br/>
©ªÌv¤æ¤ÉRg[Å«éÍªÂ­Åµå¤B<br/>
<br/>
»µÄ È½ÍCt­ñÅ·B<br/>
üèÌl½¿©çA
</p>
</div>
<div id="sub">
<img src="images/sub_31.png"/>
</div>
<div id="main">
<p>
Æ¾íêÄ¢é±ÆÉ..<br/>
<br/>
»êÅàA<br/>
<br/>
u©ªÉÅ«éÌ¾ë¤©Hv<br/>
<br/>
Æ¢¤sÀÈC¿ÉÈé±Æà<br/>
ª©èÜ·B<br/>
<br/>
làÅÍ»¤Åµ½µA<br/>
lÌüèÅ¬÷µÄ¢él½¿à<br/>
ÝñÈ¯¶YÝâsÀðÁÄrWlXðX^[gµÜ·B<br/>
<br/>
ÅàA±ÌvOðèÉµÄA<br/>
ÀÉÀHµÄ¢¯Îª©èÜ·æB<br/>
<br/>
u A´ÉàÅ«éÈIv<br/>
<br/>
ÆB<br/>
<br/>
{ÉAl½¿ÍÝñÈ\ÍâË\É<br/>
å·ÍÈ¢Æv¢Ü·B<br/>
<br/>
»êÍcåÈÌlðw±µÄ«½©ç±»A<br/>
»¤v¤ñÅ·ËB<br/>
<br/>
½¾AÇ¤µÄ·ªoéÌ©Æ¾¤ÆA<br/>
<br/>
EXLbv¹¸É³µ¢ÅrWlXðgåµÄ¢­<br/>
EöJÀØÏÝÌû@ÅrWlXðs¤<br/>
E©ªðM¶çêé<br/>
<br/>
±±Å·B<br/>
<br/>
±±ÜÅ^ÉlÌèðÇñÅ­êÄ¢é È½ÉÍA<br/>
à¤ùÉQÂÌvfÍèÉµÄ¢Ü·æËB<br/>
<br/>
 ÆÍÅãÌPÂA<br/>
<br/>
E©ªðM¶çêé<br/>
<br/>
½¾»ê¾¯Å·B<br/>
<br/>
©ª©gðM¶Ä °Ä­¾³¢B<br/>
Ôá¢È­A È½ÉàÅ«Ü·B<br/>
<br/>
lªSÍÅµÜ·B
</p>
<div class="recommend">
<h3 class="name_08"></h3>
<div class="imgbox"><img src="./images/voice_08.png" width="170"/></div>
<div class="recommendtxt">
ªAC^[lbgrWlXÆ¢¤àÌðmÁ½ÌÍA²­ÅßÅ·BC^[lbgrWlXÆ¢¤ÆA«ÈL­Ä¼\¶áÈ¢©ÁÄv¢Ü·æËI<br/>
<br/>
±ÌrWlXð¨Eß·éÌÍAlÉ´Ó³êéàÌ¾©çÅ·Bµ©à\ÈûüÉÈéñÅ·B<br/>
<br/>
ÌêÍA¿åÁÆØÀÈRª èA±ÌrWlXðnßÜµ½B<br/>
<br/>
±ÌrWlXÉoï¤RNOÉêªKÅVÉs«Üµ½B»µÄQNOÉÍAíªaÆ¢¤aÆ5NÔÌ¬aÌsâÈÅãð}¦Üµ½B<br/>
<br/>
ÍAa@ÆÀÆÆÆðsÁ½è½èÆ¢¤¶ð6Nß­±¯Ä«½ñÅ·B<br/>
<br/>
±ÌÔAsÁ½è½èÌðÊïAa@É©©éïpAÉÍwp[³ñðÙÁ½èA¢ë¢ëÈ±ÆÉ¨àªòÑÜ·B<br/>
<br/>
¶½Û¯Ì¨àªèÉüéÌªx­Aa@É¥¤¨àªæÅêIÉÜÆÜÁ½¨àðpÓµÈ¯êÎ¢¯È¢±Æà èÜ·B<br/>
<br/>
{É¨àª¢­ç ÁÄà«èÈ¢ñÅ·B<br/>
<br/>
­¢Äà­¢Äà¨àÍÈ¢µAÔàÈ¢EEEÜ³ÉîìnÌXpCÅ·B<br/>
<br/>
ÉÍºª1l¢Ü·ªA¬lÉÈéÜÅNÉ2ñèpðó¯È¯êÎ·­¶«éÌÍïµ¢Æ¢¤ÌaCðø¦Ä¢Ü·BèpïpÈÇAÌâà èÜ·ªA{É¨àÌSzÍs«Ü¹ñB<br/>
<br/>
»ñÈAC^[lbgðgÁÄ¿åÁÆµ½ÔÔÉ¨àðìé±ÆªoéB<br/>
<br/>
àÁÆàÁÆ­mè½©Á½Å·Bµ©àNÅàoéµÈPÈñÅ·B<br/>
<br/>
ÌÆÁÄåÈÌÍAu¨è«ÌÔvÉ³³ÁÆoéÁÄÈñÅ·BîìXpCÉ×ÁÄÄà¿åÁÆµ½ÔÅoéñÅ·B<br/>
<br/>
½æèlÉ´Ó³êéñÅ·B©ªÌ¢çÈ¢àÌÅàlÉÆÁÄÍAKvÈàÌÁÄ½­³ñ éñÅ·æËB<br/>
<br/>
¨àðÒ¬½¢ÁÄv¤Æ½ÆÈ­­~È´¶ªµÜ·ªAlÌ½ßÉÈéÁÄAÆÄàC¿ª¢¢µ©ªà¨àðìêéµâéCàÇñÇñoéµÅÅ·I<br/>
<br/>
<span class="bold back-yellow">±Ì}jAÍA{É¨EßoéàÌÅ·B­·ÒÉÈë¤ÁÄlÉÍS­ü¢Ä¢Ü¹ñªAû100~Èçs¯Ü·I</span><br/>
<br/>
¡·®­µÅà¨àª~µ¢A{É¨àÉ¢ÁÄ¢éÁÄlÍºÐºÐâÁÄÝÄº³¢Bl¶ªÏíéÆ¾ÁÄà¢¢Å·æI

</div>
</div>
<div class="recommend">
<h3 class="name_03"></h3>
<div class="imgbox"><img src="./images/voice_03.png" width="170"/></div>
<div class="recommendtxt">

ÍAÐïlÉÈéO©çC^[lbgÅÒ¬½¢Æ¢¤è]ª èÜµ½B<br/>
<br/>
µ©µA½ªC^[lbgrWlXÈÌ©AÇ±ÜÅªRÅÇ±ÜÅª{©ªS­í©ç¸èªo¹È©Á½ÌÅ·B<br/>
<br/>
 éAFlÆGkðµÄ¢éuAÅßtINÅvçÈ¢àÌÁÄéñ¾[BvÆÚ»ÁÆ¾íêAÚµ­·¢½Æ±ëAÁ½ÌÉgíÈ©Á½àÌAgÁ½¯ÇÜ¾Vµ¢vçÈ¢àÌðtINÅÁÄA¨¬­¢ðÒ¢Å¢éÆ¢¤±ÆÅµ½B<br/>
<br/>
Í»êÜÅtINÆ¢¤¾tÍmÁÄ¢Üµ½ªA»êÍÆÒ³ñâïÐªp·éàÌ¾ÆvÁÄ¢ÄAÂlÌª¬è§ÂêÆÍvÁÄ¢Ü¹ñÅµ½B<br/>
<br/>
FBàâÁÄ¢éÈçöµ­È¢¾ë¤Æv¢AàvçÈ­ÈÁ½CDðÁÄÝé±ÆÉµÜµ½B<br/>
<br/>
µ©µAÅ©çS­âèûªª©èÜ¹ñÅµ½B<br/>
<br/>
^CgA¤ià¾A¿iÝèAÊ^ÌBèûA­û@ÈÇ·×Äê©çlbgÅ²×ÄAâÁÆP_oiÅ«½ÌªSÔãB<br/>
<br/>
Ôª©©è·¬ÄåÏÅµ½B<br/>
<br/>
ÅàAoiµÄêúoß·éÆAüDªPCQÆüÁÄ¢ÄA©ªÌÁ½àÌªêéÆ¢¤ìÑðmèÜµ½B<br/>
<br/>
È~AtINÉn}ÁÄµÜ¢ÆÌðÐt¯ÈªçvçÈ¢àÌªoÄ­éÆAu¨A±êtINÉoµ½çêé©ÈvÆA·×ÄÌàÌÉÎµÄl¦éæ¤ÉÈèÜµ½B<br/>
<br/>
<span class="bold back-yellow">©ªÉÆÁÄÍKvÈ¢àÌªA¢ÌÌlÉÍ¿lÌ éàÌB±êªàÌ·²­rrrbÆ«ÄAGRÈrWlXð©Â¯½I</span>ÆgµÄ¢½Ìðv¢oµÜ·B<br/>
<br/>
µ©µSÒÉÍÏíç¸Aí©çÈ¢ÚªoÄ­éxÉAlbgÅ²×éB±êðJèÔµÜµ½ªAêxÅÍo¦«êÈ¢½ßÜ½¯¶±Æð²×éBQ_AR_oiµÄ¢«µêÄ¢­àÌÌAÜ½ÔªoÂÆYêÄµÜ¤ÌÅ¯¶±ÆÌJèÔµÅµ½B<br/>
<br/>
uí©çÈ¢Æ±ëSêCÉðµÄ­êéàÌÈ¢Ì©ÈBv<br/>
<br/>
Æ½xvÁ½©ª©èÜ¹ñB<br/>
<br/>
µ©µA±Ì}jAðÇñ¾A RÆµÜµ½BP©çPOÜÅJÉ÷©ç÷ÜÅ×©­¢Ä éñÅ·B<br/>
<br/>
<span class="bold back-yellow">àÜ¾sviÌðßÄÔàÈ¢ÌÅÙÚSÒÅ·B»ÌÅàA^â_ªoÈ¢ÙÇ¾mÉí©èâ·­©êÄ¢Ü·B</span><br/>
<br/>
sviÌÆ¢¤¾t³¦mçÈ©Á½ûÅàA±Ì}jA³¦ êÎ©RÆÊªoé±ÆÅµå¤B<br/>
<br/>
³çÉAÁ¢½ÌÍ¿iÅ·B±ÌàeÆ{[Å±Ì¨liÅwüÅ«éÌÍÜ¸È¢Æv¢Ü·B<br/>
<br/>
±Ì}jAðÇñÅAmçÈ©Á½mEnEâvÉqªémEnEª½­³ñ èÆÄà èª½­vÁÄ¨èÜ·B<br/>
<br/>
±ÌC¿ð½­³ñÌûÉ¡íÁÄ¢½¾«½¢Å·I

</div>
</div>
<div class="recommend">
<h3 class="name_05"></h3>
<div class="imgbox"><img src="./images/voice_05.png" width="170"/></div>
<div class="recommendtxt">

C^[lbgrWlXÅÒ¬½¢Iûüª~µ¢IÆvÁÄ¢éûÍK¸èÉæÁ½Ù¤ª¢¢Å·IÆ¢¤æèK¸èÉæé×«³ÞÅ·I<br/>
<br/>
ÁÉSÒÌûÉÍ·²­¨XXµÜ·B<br/>
<br/>
Èºlª¨XX·é©Æ¢¤ÆAlàsviÌÅA¢çÈ¢àÌðÁÄ~Ì¨àðèÉüê½o±ª é©çÅ·B<br/>
<br/>
lÍAtBGCg©çlbgrWlXðX^[gµÜµ½B<br/>
<br/>
±êÜÅzÌmÆ©AzÌRTÉ¨àð¥¢³¦Äàç¦éÌÍmEnE¾¯ÅAÀÛÉæègñÅ¢­ÅoÄ­éA×©¢^ââYÝÆ¢¤ÇÉÔÂ©èÈ©È©Êào¸Av¤æ¤É±«Ü¹ñÅµ½B<br/>
<br/>
»µÄúß©¯Ä¢½ÉAlbgrWlXÅÊðo·Èçw¨Ìxª¢IÆ·«æµ!¨ÌâÁÄÝæ¤I±êÅ_Èçà¤úßæ¤c»ñÈv¢ÅA é³ÞðèÉæèÜµ½B<br/>
<br/>
»±ÉÍAymðÁÄ¨àÉ·¦ézÌo±ð·é½ßÉSÒÍÜ¸sviÌIÆ èlÍwsviÌH½ðêÎ¢¢ÌHxÆ¢¤hflÈÆ±ë©çnÜèÜµ½B<br/>
<br/>
EÈÉðêÎ¢¢ÌH<br/>
EÇ¤âÁÄêÎ¢¢ÌH<br/>
EÇ¤âÁÄliðßéÌ?<br/>
EÇ¤âÁÄÊ^ðBêÎ¢¢ÌH<br/>
EÈÉÅ«ï·éÌH<br/>
E­ÍHÇ±ÅHÇ¤âÁÄH<br/>
<br/>
±êçÌ±ÆðP©çißÄ¢ÁÄâÁÆêÂê½Æ«Í·²­ðµ©Á½Ìðo¦Ä¢Ü·B<br/>
<br/>
©ªÅÍAwS~¾AKN^¾xÆvÁÄ¢½àÌªvíÊàzªÂ¢½èAlÅê½è·éñÅ·æËI<br/>
<br/>
»µÄAymðÁÄ¨àÉ·¦éz±êÁÄªÅÍðµÄ¢éÂàèÅµ½ªÀÛÉo±µÄÝéÆACÃ¢½±ÆßÄmÁ½±Æà½­³ñ ÁÄ·²­Ç¢×­ÉÈèÜµ½I<br/>
<br/>
±êðo±Å«ésviÌÍK¸âé×«¾Æv¢Ü·I<br/>
<br/>
±Ì³ÞÍA<br/>
<br/>
EÈÉðéÌ©<br/>
EÇ¤âÁÄéÌ©<br/>
EÊ^ÍHliÍH«ïÍHc<br/>
<br/>
ÈÇÈÇsviÌÉÂ¢ÄP©çwÔ±ÆªÅ«êÂêÂ×©­ðà³êÄ¢éÌÅ<br/>
ãLÌæ¤ÉlÝ½¢ÈSÒÌûÅà·²­æègÝâ·¢Æv¢Ü·I<br/>
<br/>
<span class="bold back-yellow">SÒÉÍmè¦È¢îñà·è¾­³ñÅüßÄ×­ÉÈé±ÆÎ©èÅ·IÊÉ³ÞÉÁÄâêÎAPúÅ³ÞãÌ³æê¿á¢Ü·æËI</span><br/>
<br/>
sviÌðnß½±ëÌ©ªÉ³¦Ä °½¢Å·BÙñÆÉB<br/>
<br/>
EC^[lbgrWlXÅÒ¬½¢I<br/>
Eûüª~µ¢I<br/>
E½©ç·êÎ¢¢©í©çÈ¢I<br/>
<br/>
»ñÈûÉÍ100¨XXÅ·IlÝ½¢ÉwÈñÅ Ì±Ì³ÞªÈ©Á½ñ¾cxÁÄÈçÈ¢½ßÉàB<br/>
</div>
</div>
<div class="recommend">
<h3 class="name_01"></h3>
<div class="imgbox"><img src="./images/voice_01.png" width="170"/></div>
<div class="recommendtxt">

©ªªS~ÆµÄªµæ¤ÆµÄ¢½A é¢ÍAªÉ¢ÁÄ¢½àÌªA5,000~­ç¢ÌliÅê½Æµ½çA È½ÍÇñÈC¿ÉÈéÅµå¤©H<br/>
<br/>
ÊÉÃiæ®ÉÁÄ¢ÁÄà<span class="bold back-yellow">ñ©O¶Å@©êéæ¤ÈuS~¯RvÌàÌàAKØÈêÅAKØÈèð¥ñÅ¢ÌÉñ·êÎA©ªÅÍvÁÄàÝÈ©Á½àzÌ¤iÉÏíÁ½è·é</span>ñÅ·B<br/>
<br/>
là¼M¼^Åµ½ªAÀÛÉsvÆÈÁ½àÌðÌµÄÝ½çAu¦H»ñÈàzÅÁÄ­êéÌHvÆ¢¤¤iª¢­Âà èÜµ½B<br/>
<br/>
¡ñÌ³ñÌ³ÞÉÍAC^[lbgðpµ½sviÌÉÂ¢ÄÌCnðà¾µÄ¢é¾¯ÅÈ­AmðlÅÌ·é½ßÌmEnEAbqªlÜÁÄ¢Ü·B<br/>
<br/>
³ñ²©gªAlXÈ¨ÌÅå«ÈÀÑðo³êÄ¢éûÅ·ÌÅ±Ì³ÞÉÍu¨ÌÌ^vÆà¾¦émEnEª ¿±¿ÉUèÎßçêÄ¢Ü·B<br/>
<br/>
ßÄumðévÆ¢¤lÉÆÁÄàAí©èâ·­ðàµÄ ÁÄAyµÝÈªçæègßéàeÆÈÁÄ¢Ü·B<br/>
<br/>
³¼É¾¤ÆAlª±Ì³ÞðèÉµ½A¡ÜÅ`N`¹ðµÄ¢½ÈÆv¢Üµ½B<br/>
<br/>
<span class="bold back-yellow">sviÌÌÉÖµÄÍAÙÆñÇä¬ÅâÁÄAKÈãª§ÁÄ«µÄ¢½ßª èÜµ½ªA±Ì³ÞÊèÉâêÎA Æ~Í­ê½ÈÆv¢Ü·B</span><br/>
<br/>
ÂÜèAÜÁ½­Ì¨ÌSÒÉÆÁÄàAä¬Ålbg¨ÌðâÁÄ«½lÉÆÁÄàAK¸Vµ¢m¯âCÃ«ª¾çêéAÚ©çØÌ³Þ¾Æv¢Ü·B<br/>
<br/>
uÆµ½¢¯ÇA½©çâÁÄ¢¢©í©çÈ¢Bv<br/>
u½©µçlbgÅmðéÀÑðìè½¢Bv<br/>
<br/>
ÆvÁÄ¢éûÉÍAK¸èÉµÄ¢½¾«½¢³ÞÅ·B

</div>
</div>
</div>
<div id="sub">
<img src="images/sub_32.png"/>
</div>
<div id="main">
<p>
³ÄACÉÈé¿iÅ·ªA<br/>
±êÍ{ÉYÝÜµ½B<br/>
<br/>
±±ÜÅ^É¨t«¢¸¢½ È½ÉÍ<br/>
³¼ÉlÌ{¹ðÅ¿¾¯Ü·ªA<br/>
vOÍz¤iÉµæ¤Æv¢Üµ½B<br/>
<br/>
<span class="back-yellow bold">Èº©Æ¢¤ÆAlªû1000~ÉB·éÜÅÉ<br/>
|ÁÄ«½mEnEð©ÈèlßñÅ¢Ü·B</span><br/>
<br/>
±±ÜÅéÌÉA©Èµ½àzÍ<br/>
à¤800~Íy­´¦Ä¢Ü·B<br/>
<br/>
»ê¾¯ÅÈ­A½­³ñÌlÆbµ¢Üµ½µA<br/>
vOÌì¬ÉcåÈÔðïâµÜµ½B<br/>
<br/>
ÈÌÅA±ÌvuÌ¿iÍA<br/>
<br/>
40~<br/>
<br/>
­ç¢ªÃ¾ÈAÆv¢Üµ½B<br/>
<br/>
»ê­ç¢ÈçA<br/>
 È½ªµÁ©èÆ¬÷[ÉæÁæêÎA<br/>
RÙÇÅñûA³çÉvÜÅo¹éÆv¢Ü·B<br/>
<br/>
l¦ÄÝÄ¸¯êÎª©èÜ·ªA<br/>
¡Ìdð±¯Ä¢ÁÄA<br/>
û100~Í½NãÉBµÜ·©H<br/>
<br/>
ÞµëAæ÷ð­ç¢ÉÈçÈ¢ÆA<br/>
ïÐõÅÍsÂ\Å·æËB<br/>
<br/>
±ê©çæ20NA30NÆ
</p>
</div>
<div id="sub">
<img src="images/sub_33.png"/>
</div>
<div id="main">
<p>
Æµ½çAâÎÉBÅ«Ü¹ñæËB<br/>
<br/>
<span class="back-yellow bold">ÅàA±ÌvOðÀÉÀH·êÎA<br/>
ÆSÒÅà6ÈàÉû100~Í<br/>
´»ÀIÅ·B</span><br/>
<br/>
Å·©çA40~Åàji¾Æ<br/>
ví´éð¦Ü¹ñB<br/>
<br/>
Åàc<br/>
<br/>
âÁÏèAlÍ±ê©çà½­Ìlª<br/>
`XðÍñÅA©ªÌzÌl¶ð<br/>
ÍñÅ~µ¢C¿Ìûª­¢ñÅ·B<br/>
<br/>
l¾¯ªÒ°êÎ¢¢ÈñÄA<br/>
»ñÈ¿Ü½ÌmEnEñÒÆÍá¢Ü·B<br/>
<br/>
êÉµÄÙµ­ èÜ¹ñB<br/>
<br/>
ÈÌÅA<br/>
<br/>
40~ÅÍÈ­c<br/>
<br/>
4,980~<br/>
<br/>
Å±ÌvOð²ñµÜ·B<br/>
<br/>
49,800~¶áÈ¢Å·æH<br/>
4,980~Å·B<br/>
<br/>
©Ôá¢©ÈH<br/>
ÁÄÚð±·éKv èÜ¹ñB<br/>
<br/>
u¦¦IÀ·¬éI<br/>
³ñAÈñ© ÅVCl¦ÄéñÅ·©IHv<br/>
<br/>
Ævíê½ç³¼JÂ«Ü·B<br/>
<br/>
ÈÌÅæÉ¾ÁÄ¨«Ü·¯ÇA<br/>
S­»ñÈÈ¢Å·æB<br/>
<br/>
±ÌvOÍA{ÉSÄª[©ç<br/>
X^[g·élÉèÉÆÁÄ~µ¢ñÅ·B<br/>
<br/>
»µÄA©ªÌÍÅÀÉÒ®Íðt¯ÄA<br/>
Ùp³êÄN©Ì½ßÉ­­ÌÅÍÈ­A<br/>
©ªâÆ°Ì½ßÉ­¢Ä~µ¢Å·B<br/>
<br/>
±Ì¬÷[ÉæÁæÁÄ¢¯ÎA<br/>
ÀèIÉå«ÈûüðmÛ·é±ÆªÅ«Ü·B<br/>
<br/>
¨ÌÅÒ°éæ¤ÉÈêÎA<br/>
{ÉÌûüªÀèµÜ·æB<br/>
<br/>
½¾c
</p>
</div>
<div id="sub">
<img src="images/sub_34.png"/>
</div>
<div id="main">
<p>
ÅÉà¾Á½æ¤ÉB<br/>
<span class="back-yellow bold">±Ì²ÄàÍTúÔÀèÅ·B</span><br/>
<br/>
»êªß¬Üµ½çA<br/>
±Ì¿iÅÌwüÍQxÆÅ«Ü¹ñB<br/>
<br/>
²ÄàJn©çTúÈàÉwüµ½l¾¯É<br/>
vOÆXyV{[iXÁTà<br/>
SÄv[g¢½µÜ·B<br/>
<br/>
ÈÌÅ¡·®ºÉ éwü{^ðµÄA<br/>
vOð È½Ì¨ÉµÄ¨¢Ä­¾³¢B<br/>
<br/>
³¼A±ÌvOÊèÉÀHµÄÒ°È¯êÎA<br/>
ÇñÈrWlXÅàÒ®ÌÍsÂ\¾Æ¾¢ØêÜ·B<br/>
<br/>
»ê­ç¢ASÒªÒ¬â·¢XebvÈÌÅ·B<br/>
<br/>
u»êÍðÅ«Üµ½¯ÇA<br/>
{ÉÆSÒÈÌÅ©ªÉàÅ«é©ª©èÜ¹ñcv<br/>
<br/>
Æ¢¤lÌC¿àðÅ«Ü·B<br/>
<br/>
lànßÄÆðJn·éÉÍA<br/>
¯¶sÀðø¦Ä¢Üµ½B<br/>
<br/>
ÈÌÅA
</p>
</div>
<div id="sub">
<img src="images/sub_35.png"/>
</div>
<div id="main">
<p>
nª^ÁñÂÉêé­ç¢Ìm¦Å·ª..<br/>
<br/>
ªêAwü©ç90úÔÀHµÄà<br/>
vOãi4,980~j·çÒ°È¯êÎA<br/>
¨x¥¢½¾¢½¨àÍSÄÔàµÜ·B<br/>
<br/>
wüú©ç90úÈ~A<br/>
l¶É[ðÁÄ­¾³¢B<br/>
<br/>
ut@[Xg}jA ÔàÛØv<br/>
Æ¢¤^CgÅA È½Ì¨¼OÆ<br/>
ûÀÔð{¶ÉLüµÄ­¾³¢B<br/>
<br/>
»¤·êÎAÁÉRà·©¸É<br/>
 È½ÌwèûÀÉvOãðüàµÜ·B<br/>
<br/>
iÏè¿¾¯Í²Sè¢Ü·Bj<br/>
<br/>
Vµ¢æêàð¥Ýo·Óðµ½ È½ÉA<br/>
lÍêØÌXNðwí¹½­È¢ñÅ·B<br/>
<br/>
»êÅ È½Ì`Xª×êéÈñÄA<br/>
{ÉàÁ½¢È¢Å·B<br/>
<br/>
¾Á½çA È½ÌXNÍlªíèÜ·æB<br/>
<br/>
ÈÌÅAÀSµÄ±ÌvOðwüµÄ­¾³¢B
</p>
</div>
<div id="sub">
<img src="images/sub_36.png"/>
</div>
<div id="main">
<p>
¢ÜA È½ÍoÏI©RAÔI©RA<br/>
»ÌSÄðÍÞJMðèÉµÄ¢Ü·B<br/>
<br/>
 ÆÍA»êð©ªÌmÉ·é©A<br/>
»êÆà½àÈ©Á½©Ìæ¤Éèú·©c<br/>
<br/>
 È½Ì»fÉ©©ÁÄ¢Ü·B<br/>
<br/>
 È½ÍvOãð¹·é±ÆÍ èÜ¹ñÌÅA<br/>
JMð·µÞ¾¯Å¢¢ÌÅ·B<br/>
<br/>
<span class="back-yellow bold">»ÌuÔA È½Ìl¶Í}ÉÏ»µA<br/>
¼NãA È½ÍÀèIÉû100~ðÒ¬A<br/>
üèÌl©çw¬÷ÒxÆFßçêé±ÆÅµå¤B</span><br/>
<br/>
µÂ±¢Å·ªA±Ì²ÄàÍTúÔÅ<br/>
®SÉI¹µÜ·B<br/>
<br/>
¡·®ºÌwü{^ðuJ`bvÆNbNµÄA<br/>
©ªÌzÌl¶ðèÉüêÄ­¾³¢B<br/>
<br/>
 È½ðSÍÅ¢½µÜ·B

<img src="images/name.png" width="100%"/><br/>
</p>
<div class="btarea">
<center><a href="http://www.infotop.jp/order.php?iid=66926"><img class="no_border" id="bt5" onmouseout='this.src="images/bt.png"' onmouseover='this.src="images/bt_ov.png"' src="images/bt.png" style="margin:50px 0 50px 0;"/></a></center>
</div>
<p>
<img src="images/tuishin_01.png" width="100%"/><br/>
<br/>
±êÜÅA³ñ´ñèÌÅ<br/>
Úµ­²à¾µÄ«½Æ¨èÅ·ª..<br/>
<br/>
±Ìwt@[Xg}jAxÍ çäéû@ÌÅ<br/>
SÒªÅàÅ¬Åû100~ðÒ¬â·¢<br/>
w¬÷[xÉæÁæÁÄ¢Ü·B<br/>
<br/>
<span class="back-yellow bold">m¯EàEl¬ªS­ÌOi[jÌflÉÆÁÄ<br/>
Åà¬÷m¦ª¢mEnEÅ·B</span><br/>
<br/>
àµ È½ªA<br/>
<br/>
ElbgrWlXiÆjÌo±ªPxàÈ¢<br/>
E¡ÜÅ½ðâÁÄàÊðo¹È©Á½<br/>
EPúÅà­û100~ðz¦½¢<br/>
<br/>
Çê©PÂÅàS½èª éÈçA<br/>
±ÌvOÍ È½Ì½ßÌmÅ·B<br/>
<br/>
±±ÜÅèðÇñÅ«Ä¸¢½ È½ÈçA<br/>
à¤P~Ì^¢àÈ¢Åµå¤B<br/>
<br/>
³µ¢ÅrWlXðX^[g³¹ÄA<br/>
rWlXÌ{¿ððµAê¶Ò¢Å¢¯é\Íð<br/>
gÉt¯Ä­¾³¢B<br/>
</p>
<br/>
<p>
<img src="images/tuishin_02.png" width="100%"/><br/>
<br/>
à¤²¶m¾Æv¢Ü·ªA<br/>
<span class="back-yellow bold">±ÌvOÌ²ÄàÍTúÔÀèÅ·B</span><br/>
<br/>
±ñÈÉmEnEªlÜÁ½mª<br/>
Ü³©ÌjiÅ²ÄàµÄ¢Ü·B<br/>
<br/>
PbÅàß¬Üµ½çA<br/>
<br/>
 È½ªJnX©çÒ°éæ¤ÉÈé<br/>
 çäémEnEAÔàÛØA»µÄ<br/>
XyV{[iXÁTàQxÆèÉ·é±ÆÍÅ«Ü¹ñB<br/>
<br/>
90úÀHãAvOã·çÒ°È¯êÎ<br/>
SzÔàà³¹Ä¢½¾«Ü·B<br/>
<br/>
 È½ÉÍXNªÈ¢ÌÅA<br/>
ÀSµÄ¡·®wü{^ðNbNµÄ­¾³¢B<br/>
<br/>
»ÌãAKvðLüµA<br/>
®¹[ðó¯æÁÄ­¾³¢B<br/>
<br/>
»Ì[É épX[hðüÍµA<br/>
vOêpTCgÉOCµÄ­¾³¢B<br/>
<br/>
»±ÉA È½ª¡·®Ò¢Å¢­½ßÌ<br/>
 çäémEnEªlÜÁÄ¢Ü·B<br/>
<br/>
©Èªç¦ÀHµÄ­¾³¢B<br/>
<br/>
»µÄA¼NÈàÉû100~ðËjÅ«éæ¤A<br/>
SÍÅæègñÅ¢«Üµå¤I


</p>
<div class="btarea">
<center><a href="http://www.infotop.jp/order.php?iid=66926"><img class="no_border" id="bt2" onmouseout='this.src="images/bt.png"' onmouseover='this.src="images/bt_ov.png"' src="images/bt.png" style="margin:50px 0 50px 0;"/></a></center>
</div>
<br/><br/>
<div class="recommend">
<h3 class="name_04"></h3>
<div class="imgbox"><img src="./images/voice_04.png" width="170"/></div>
<div class="recommendtxt">
<span class="bold back-yellow">u±Ì}jAð»ÌÜÜÀH·êÎAÈPÉÒ®±ÆªÅ«éIv</span><br/>
PNOÜÅAspiðlbgÅ©ªÅÌ·éÈñÄAvÁÄà¢Ü¹ñÅµ½B<br/>
<br/>
©ªªgÁÄ¢½àÌâ¸ÁÆgÁÄ¢È­ÄÛÇµÄ¢½àÌA»êçÍuÌÄévàµ­ÍuTCNVbvÉévÌIðµ© èÜ¹ñÅµ½B<br/>
<br/>
TCNVbvÉsÁÄàAðÊïÌûª­Èé­ç¢Åµ½ÌÅAêñ«èÅâßÜµ½B<br/>
<br/>
¼NOÉutINvÅspiðÌÅ«é±ÆðmèÜµ½B<br/>
<br/>
µ©µAÌÅÍA<br/>
<br/>
uj«ªÌµÄ¢éàÌEEEv<br/>
uÌû@ªïµ»¤EEEv<br/>
<br/>
ÈÇÌC[Wª­­A¥ÝÞÜÅÉÆÄàÔª©©èÜµ½B<br/>
<br/>
»ÌãAoiµÄÝ½ÌÅ·ªA<br/>
<br/>
u¤iÌÊ^ðBéÌªïµ¢EEEv<br/>
uoiÌà¾¶ªÇ¤âÁÄìé©í©çÈ¢EEEv<br/>
u­ìÆÍÇ¤âêÎ¢¢Ì©EEEv<br/>
<br/>
 °½çLªÈ¢­ç¢AåÏÈìÆÆÈèÜµ½B<br/>
<br/>
ÊAêéÜÅÌúÔª·­ÈèÜµ½B<br/>
<br/>
<span class="bold back-yellow">»ñÈo±Ì éÅ·ªA±Ì}jAÌàeðq©µ½ÍAÕªèÜµ½B</span><br/>
<br/>
uÈPÅyµ­ÌÅ«éIvÌspiÌÉÎµÄÌC[WªÏíèÜµ½B<br/>
<br/>
­±Ì}jAª êÎA ñÈÉêJµÈ­ÄX[YÉspiÌÅ«½ÌÉEEEÆv¤Î©èÅ·B<br/>
<br/>
<span class="bold back-yellow">SÄÌsÀªðÁ³êAèàP©çnßéSÒÅàí©èâ·­à¾ª èÜ·B±Ìæ¤ÉJÉ×©­©êÄ¢é}jAÍ¡ÜÅÉ©½±Æª èÜ¹ñB</span><br/>
<br/>
»µÄASÒÌûÍà¿ëñAspiÌðµ½±Æª éûÅAà¤ÆÉspiÍÈ¢Æ¢¤ûÉàIXXÅ·BV½Émé±ÆÎ©èÅA}jAðÇÞ¾¯ÅNNµÄ«Ü·B<br/>
<br/>
àeÆÁTªÆÄà[ÀµÄ¢Ä±Ì¨liÅwüÅ«é±ÆÉÁ«Üµ½I<br/>
<br/>
PO{Ì¿lÍ é©Æv¤­ç¢f°çµ¢}jAÅ·BèÉüêÄS­ã÷·é±Æ èÜ¹ñB<br/>
<br/>
{ÉÈPÉyµ­ÌÅ«Ü·I

</div>
</div>
<div class="recommend">
<h3 class="name_07"></h3>
<div class="imgbox"><img src="./images/voice_07.png" width="170"/></div>
<div class="recommendtxt">
Ím¯O©çlbgrWlXðnßæ¤ÆvÁ½Æ«ÉAÜ¸ßÍspiÌ©çÌX^[gªÇ¢ðmèÜµ½B<br/>
<br/>
»ÌÅAspiÌÆÍ½ÆÈ­Åàu©ªÌgÌñèÌvçÈ¢¨ðévÆ¢¤ÍðÅ«Ü·æËB<br/>
<br/>
µ©µAÍÀÛÉKvÈõÍÈñ¾ë¤HÆ¢¤X^[gÅå«­ÂÜÃ«A·®ÉÀHÉÚ¹¸èÉuâÁÏèïµ¢Ì©ÈvÆ»fµÄÜµ½B<br/>
<br/>
PÉ»êÍà¾ª³¢óÔÅÆwÅâë¤Æµ½ªÌÌA©gÌèÈv¢ÝÅµ½B<br/>
<br/>
±Ì³ÞÍAÌlÉ½àí©çÈ¢ÜÜspiÌX^[g·éfl©çA éöxÌÌo±ª é©½àâÎÉÁÄ¨­±Æð¨©ßµÜ·I<br/>
<br/>
»ÌRÍA<span class="bold back-yellow">Ü¸SÒÌûªv¤sÀÍ·×Ä±ÌÅð³êÄ¢éµAspiÌð éöxâçêÄ¢ÄA­µs«lÁ½ûÉàK¸±Ì³Þð©êÎKÅ«éæ¤ãk§Éì¬³êÄ¢é</span>ÌÅ·B<br/>
<br/>
SÄÌìÆð½ÆÈ­sÁÄµÜ¤ªI[NVÌÅv¤æ¤ÉÊªoÈ¢å«ÈRÅà èÜ·BÀÑðcµÄ¢éû½¿ÍK¸âèûððµAÀH³ê¬ÊðoµÄ¢éÌÅ·B<br/>
<br/>
<span class="bold back-yellow">spiÌð}X^[·éÉÍ±ê¾¯ êÎ\ªÆà¾¦Ü·B</span><br/>
<br/>
]vÈ¨àÍ©¯¸ÉÏÞ×ÉàA±Ì³ÞðÁÄÀH·êÎÇ¢¾¯Å·B<br/>
<br/>
±Ìû@Í¡ãA]ÈÇðs¢½¢Æl¦ÄéûÉàK¸ðÉ§ÂåØÈüèûð³¦Ä­êé³ÞÆÈÁÄ¢éÌÅâÎÉwüð¨©ßµÜ·II

</div>
</div>
<div class="recommend">
<h3 class="name_06"></h3>
<div class="imgbox"><img src="./images/voice_06.png" width="170"/></div>
<div class="recommendtxt">
àspiÌÀHÒÅ·ªAÅÍ{ÉêJµÜµ½B±Ì³Þª êÎÇñÈÉÇ©Á½©cÆ¡Åà»¤v¢Ü·B<br/>
<br/>
ÌêC^[lbgÍ¨ë©¨ðéÆ¢¤o±·ç³©Á½óÅ·ªAÆ éûÌ²ÐîÅspiÌÌ¢EðméÉèÜµ½B<br/>
<br/>
²Ðî¢½¾¢½åÜ©ÈàeÍAAA<br/>
<br/>
EÆÉ éspiªªÅ«é<br/>
EdüàKv³µ<br/>
E®ªÐt¢Ä¨àÜÅèÉüÁÄµÜ¤<br/>
@ (¤iÉæÁÄÍvíÊûüð¾çêéÂ\«à é!?)<br/>
EåèI[NVTCgðp·êÎWq·éKvàÈ¢<br/>
Ep\RâX}z³¦ êÎNÅàÈPÉnßçêé<br/>
EÁÊÈXLÍKvÈ¢...etc<br/>
<br/>
u±ñÈ²ÌlÈbª éÌ©I»ñÈÉÈPÈçâÁÄÝæ¤IvÆA¶ÊèEà¶àí©çÈ¢óÔÅX^[gµ½óÅ·ªAuÆ±ëÅÇ¤âÁÄTCgÉs¯Î¢¢Ìc??vÆ¬çT¢½óÅ·B<br/>
<br/>
u¨¢¨¢»±©ç©æÁIvÆ·±¦Ä«»¤Å·ªASÒÁÄ»¤¢¤ÈñÅ·æB{É½àí©çÈ©Á½Å·©çB<br/>
<br/>
EÇ¤âÁÄAJEgìéÌH<br/>
EÇ¤âÁÄoi·éÌH<br/>
E­û@Í½ª ÁÄÇêðI×Î¢¢ÌH<br/>
EÇ¤âÁÄ­·êÎ¢¢ÌH<br/>
EÇ¤âÁÄ¨qlÆæø·êÎ¢¢ÌH<br/>
<br/>
cí©çÈ¢ð °¾µ½çLª èÜ¹ñI<br/>
<br/>
ÍêlÅ³âèæèz¦Üµ½ªA1Âoi·éÌÉ{É5ú|©èÜµ½Bµ©à¤ià¾â­û@Aæøû@ÌLÚªS­Å«Ä¢È­êéÜÅÉXÉ10ú©©èÜµ½cBµ©à¿ÅÔÅ·B<br/>
<br/>
u±ê{ÉÒ°éÌ©HvÆ^SÃSÉ×ÁÄ¢½ Åµ½B½Æ©¿áñÆvªonß½ ÉÍùÉ1ªoßµÄ¨èÜµ½B<br/>
<br/>
±Ì³Þª êÎAAJEgÌì¬©çæø®¹ÜÅAðÇÁÄJÉðà³êÄ¢Ü·©çSÒÅàïRÈ­ìÆðißÄ¢­±ÆªÅ«Ü·B<br/>
<br/>
³ÞðèÉæèàeÉÁÄð¼ÉÀH·êÎA»ÌúÌ¤¿ÉK¸1ÂÍoiÅ«Ü·B<br/>
<br/>
<span class="bold back-yellow">XÉdüÉÖ·éîñÈÇàÚÁÄ¢Ü·ÌÅEãÒÌûàK©Å·I</span><br/>
<br/>
{É±±ÜÅ1©ç10ÜÅæíê½³ÞÁÄ¼ÉÈ¢Å·B<br/>
<br/>
<span class="bold back-yellow">à±Ì³ÞÉÁÄÌêÈ©Á½spiðà¤êxoiµÄÝ½çA½Æ¬UÅ6000~ÅêÜµ½I</span>ÌÄæ¤ÆvÁÄ¢½¨ª6000~Å·æ!?<br/>
<br/>
àÌ¦­Ä»«Ì¢mEnEªlÜÁ½³ÞÆ¢¤ª¨í©è¢½¾¯éÆv¢Ü·B

</div>
</div>
<div class="recommend">
<h3 class="name_02"></h3>
<div class="imgbox"><img src="./images/voice_02.png" width="170"/></div>
<div class="recommendtxt">

spiÌªC^[lbgrWlXÌt@[XgXebvÅ éB»¤¢¤Él¦Ä¢éûà½¢©Æ¨à¢Ü·B<br/>
<br/>
µ©µÈªçA»à»àlbgrWlXÉa¢A»êÉÁ¦ÄlbgI[NVo±ªF³¾Á½ÍAoi\èÌspiðÚÌOÉµÈªçrûÉéêé±ÆÆÈèÜµ½B<br/>
<br/>
¢´oiµæ¤Æ·éÆA©çÖÆí¢Ä­é^âðOÉArûÉéêév¢ÅPCÌÜ¦ÉÈñÅµÜ¢Üµ½B<br/>
<br/>
u±êª{ÉlbgrWlXÌ1stXebvÈÌHv<br/>
<br/>
»ñÈv¢ª¦«ãªèÂÂAÅà¤ÉQÁ·éí¯¾©çAµÁ©èÆêÄàçíÈ­ÄÍ¢éB<br/>
<br/>
ñÌ©çw}ðµÄµÜÁÄ«]¿ðàçÁÄµÜÁÄÍ»ê±»Ó~ª¢«ÈèíªêÄµÜ¤cB<br/>
<br/>
»ñÈv¢Æ¬¢ÈªçA©æ¤©ÜËÅ½Æ©ÅÌoiðâè°½±Æðv¢oµÜ·B<br/>
<br/>
rWlXÌæêàÁÄ±ñÈÉn[hª­Äæ¢àÌÈÌÅµå¤©B<br/>
<br/>
±êçÌ±ÆðµÁ©èÆR[`µÄ­êé³Þª Á½çÇñÈÉyÉ»µÄÇñÇñoiÅ«éæ¤ÉÈéÅµå¤©B<br/>
<br/>
à¿ëñEÏ¾Á½èAJèÔµÌìÆðÛè·éCÍ èÜ¹ñªAóàª©ç¸ÔÈÞÔÍâÎÉ¸ç·×«¾ÆvÁÄ¢Ü·B<br/>
<br/>
<span class="bold back-yellow">»¤¢Á½³ÊÈÔA»µÄ¹Á©­²×ÄAâÁÆoiµ½Í¢¢àÌÌANHeBªá­Ä©ü«à³êÈ¢Æ¢Á½Ôðð¯é½ßÌmEnEª±Ì³ÞÉÍ½­³ñlÜÁÄ¨èÜ·B</span><br/>
<br/>
u©ªªßÄoi·éÆ«É±ñÈoCuª ÁÄÙµ©Á½Èv<br/>
<br/>
Æf¼ÉvÁÄµÜ¢Üµ½B<br/>
<br/>
<span class="bold back-yellow">±ê©çspiÌðµæ¤ÆvÁÄ¢éûA é¢Ínß½àÌÌÈñ©¤Ü­¢©È¢ÆvÁÄ¢éûA±êÍ¦wüÅ·æI</span>
</div>
</div>
<!-- tH[±±©ç -->
<form action="https://1lejend.com/stepmail/kd.php?no=ylTUUsEvXz" class="bottom" method="post" name="asumeru_form">
<input name="no" type="hidden" value="ylTUUsEvXz"/>
<input name="action" type="hidden" value="kakunin"/>
<div>
<input class="input" maxlength="100" name="touroku_name" placeholder="¦¨¼Oð²üÍ­¾³¢" style="width:650px; height:70px; font-size:32px; border-radius:8px;text-align:center; " type="text" value=""/><br/><br/>
<input class="input" maxlength="100" name="touroku_mail" placeholder="¦[AhXð²üÍ­¾³¢" style="width:650px; height:70px; font-size:32px; border-radius:8px;text-align:center; " type="text" value=""/>
<input alt="mF·é" class="button" name="submit" src="images/bt_02.png" type="image" value="submit" width="75%"/>
</div>
<br/>
</form>
<!-- tH[±±ÜÅ -->
<div class="btarea">
<center><a href="http://www.infotop.jp/order.php?iid=66926"><img class="no_border" id="bt3" onmouseout='this.src="images/bt.png"' onmouseover='this.src="images/bt_ov.png"' src="images/bt.png" style="margin:50px 0 50px 0;"/></a></center>
</div>
</div><!-- main -->
</div><!-- mainbg -->
<div id="footer">
<div class="content">
<p class="link"><a href="http://1st-manual.com/toku/" target="_blank">Áè¤æø@</a></p>
<p class="copy">Copyright © first manual  All Rights Reserved.</p>
</div>
</div>
</div>
</body>
</html>
