<html><head>
<title>Access Denied</title>
</head><body>
<h1>Access Denied</h1>
 
You don't have permission to access "http://www.1stoplighting.com/" on this server.<p>
Reference #18.d5302b17.1610585065.2f382e7
</p></body>
</html>
