<!DOCTYPE html>
<html>
<head>
<meta charset="utf-8"/>
<meta content="width=device-width, initial-scale=1.0, minimum-scale=1.0, maximum-scale=1.0, user-scalable=no" name="viewport"/>
<title>Online Inhibitor – papers about Inhibitor</title>
<link href="./tpl/Wap/default/Article_/css/font-awesome.min.css" rel="stylesheet" type="text/css"/>
<link href="./tpl/Wap/default/Article_/css/style.css" media="all" rel="stylesheet" type="text/css"/>
<link href="./tpl/Wap/default/Article_/css/style_mobile.css" media="screen and (max-width: 750px)" rel="stylesheet" type="text/css"/>
<link href="./tpl/Wap/default/Article_/css/style_pc.css" media="screen and (min-width: 750px)" rel="stylesheet" type="text/css"/>
<script src="./tpl/Wap/default/Article_/js/jquery-1.11.1.min.js" type="text/javascript"></script>
<script src="./tpl/Wap/default/Article_/js/main.js" type="text/javascript"></script>
<!--[if lt IE 9]> 
<link rel="stylesheet" type="text/css" href="css/style_pc.css">
<![endif]-->
</head>
<body>
<!-- header -->
<header>
<div class="header">
<div class="toper center clearfix">
<div class="logo"><a href="/index.php?g=Wap&amp;m=Article&amp;a=index">Online inhibitor</a></div>
<div class="tlink">
<ul class="clearfix">
<li><a href="/index.php?g=Wap&amp;m=Article&amp;a=index"><i class="fa fa-bars"></i></a></li>
</ul>
</div>
</div>
</div>
</header>
<!-- /header -->
<!-- content -->
<div id="content">
<section>
<div class="pannel" id="pannel">
<p class="author"><a class="plus" href="javascript:closePannel()"><i class="fa fa-times"></i></a></p>
<p class="titer">Archives</p>
<ul>
<li onclick="search('2018-07')"><a href="#">2018-07</a></li><li onclick="search('2018-10')"><a href="#">2018-10</a></li><li onclick="search('2018-11')"><a href="#">2018-11</a></li><li onclick="search('2019-04')"><a href="#">2019-04</a></li><li onclick="search('2019-05')"><a href="#">2019-05</a></li><li onclick="search('2019-06')"><a href="#">2019-06</a></li><li onclick="search('2019-07')"><a href="#">2019-07</a></li><li onclick="search('2019-08')"><a href="#">2019-08</a></li><li onclick="search('2019-09')"><a href="#">2019-09</a></li><li onclick="search('2019-10')"><a href="#">2019-10</a></li><li onclick="search('2019-11')"><a href="#">2019-11</a></li><li onclick="search('2019-12')"><a href="#">2019-12</a></li><li onclick="search('2020-01')"><a href="#">2020-01</a></li><li onclick="search('2020-02')"><a href="#">2020-02</a></li><li onclick="search('2020-03')"><a href="#">2020-03</a></li><li onclick="search('2020-04')"><a href="#">2020-04</a></li><li onclick="search('2020-05')"><a href="#">2020-05</a></li><li onclick="search('2020-06')"><a href="#">2020-06</a></li><li onclick="search('2020-07')"><a href="#">2020-07</a></li><li onclick="search('2020-08')"><a href="#">2020-08</a></li><li onclick="search('2020-09')"><a href="#">2020-09</a></li><li onclick="search('2020-10')"><a href="#">2020-10</a></li><li onclick="search('2020-11')"><a href="#">2020-11</a></li><li onclick="search('2020-12')"><a href="#">2020-12</a></li><li onclick="search('2021-01')"><a href="#">2021-01</a></li> </ul>
</div>
<div class="main">
<div class="blank flist">
<ul class="clearfix">
<li>
<a class="block" href="/index.php?g=Wap&amp;m=Article&amp;a=detail&amp;id=5406">
<h5 class="titer">br Conclusions Enzyme prodrug therapy mediated by implantabl</h5>
<p class="timer"><i class="fa fa-calendar-minus-o"></i> 2021-01-14</p>
<p class="imger"><img src="http://www.apexbt.com/media/diy/images/wb/B8226_2.jpg"/></p> <p class="intor">
              
Conclusions
Enzyme prodrug therapy mediated by implantable biomaterials combines the benefits offered by the site specific drug delivery techniques and the systemic administration of drugs. From the former, SMEPT inherits the localized mode of drug delivery with lower systemic distribution of the          </p>
</a>
</li><li>
<a class="block" href="/index.php?g=Wap&amp;m=Article&amp;a=detail&amp;id=5405">
<h5 class="titer">br Cytokines potent mediators of </h5>
<p class="timer"><i class="fa fa-calendar-minus-o"></i> 2021-01-14</p>
<p class="imger"><img src="http://www.apexbt.com/media/diy/images/struct/A1075.png"/></p> <p class="intor">
              
Cytokines – potent mediators of ILC function
The different ILC players are portrayed in three categories, ILC1, ILC2 and ILC3, based on the cytokines they produce and transcription factors (TFs) that guide their differentiation [8] (Figure 1). Cytokines are the most extensively studied stimuli fo          </p>
</a>
</li><li>
<a class="block" href="/index.php?g=Wap&amp;m=Article&amp;a=detail&amp;id=5404">
<h5 class="titer">Proof of concept studies with disulfiram suggest </h5>
<p class="timer"><i class="fa fa-calendar-minus-o"></i> 2021-01-14</p>
<p class="imger"><img src="https://www.apexbt.com/media/diy/images/wb/A1428_2.jpg"/></p> <p class="intor">
              Proof-of-concept studies with disulfiram suggest the potential utility of DβH inhibitors for treatment of cocaine use disorder. In a study of 74 subjects stabilized on methadone and randomized into disulfiram and placebo groups for 10weeks, disulfiram treatment reduced cocaine-positive urines, and d          </p>
</a>
</li><li>
<a class="block" href="/index.php?g=Wap&amp;m=Article&amp;a=detail&amp;id=5403">
<h5 class="titer">br Introduction Pattern separation is the ability to make di</h5>
<p class="timer"><i class="fa fa-calendar-minus-o"></i> 2021-01-14</p>
<p class="imger"><img src="https://www.apexbt.com/media/diy/images/wb/A1921_2.jpg"/></p> <p class="intor">
              
Introduction
Pattern  separation is the ability to make distinct representations from highly overlapping information, a process which is important for memory encoding (Clelland et al., 2009). For correct pattern separation, old information needs to be retrieved and compared to new information. If          </p>
</a>
</li><li>
<a class="block" href="/index.php?g=Wap&amp;m=Article&amp;a=detail&amp;id=5402">
<h5 class="titer">The transcriptome analysis of barley seeds in two tissue fra</h5>
<p class="timer"><i class="fa fa-calendar-minus-o"></i> 2021-01-14</p>
<p class="imger"><img src="http://www.apexbt.com/media/diy/images/wb/C4061_1.jpg"/></p> <p class="intor">
              The transcriptome analysis of barley seeds in two tissue fractions: starchy endosperm/aleurone and embryo/scutellum, during maturation, desiccation and germination, revealed the large group of GA-responsive genes (Sreenivasulu et al., 2008). These transcripts have been divided into two groups. Nearl          </p>
</a>
</li><li>
<a class="block" href="/index.php?g=Wap&amp;m=Article&amp;a=detail&amp;id=5401">
<h5 class="titer">aromatase inhibitor In these studies the inflammatory </h5>
<p class="timer"><i class="fa fa-calendar-minus-o"></i> 2021-01-14</p>
<p class="imger"><img src="https://www.apexbt.com/media/diy/images/wb/A2025_2.jpg"/></p> <p class="intor">
              In these studies, the inflammatory cytokine IL-8 was demonstrated as one of the responsible molecules induced by CysLTs via activating CysLT2 receptors. IL-8 is synthesized in and released from mononuclear cells, macrophages, fibroblasts and airway epithelial cells, and it promotes inflammation as a          </p>
</a>
</li><li>
<a class="block" href="/index.php?g=Wap&amp;m=Article&amp;a=detail&amp;id=5400">
<h5 class="titer">Compounds and administered orally to fasted Harlan </h5>
<p class="timer"><i class="fa fa-calendar-minus-o"></i> 2021-01-14</p>
<p class="imger"><img src="http://www.apexbt.com/media/diy/images/struct/A1054.png"/></p> <p class="intor">
              Compounds , , and administered orally to fasted Harlan Sprague-Dawley rats 1h prior to trigeminal stimulation, decreased extravasation in this model in a dose-related manner, with an estimated ID of 1, 10 and 100μg/kg, respectively (determined 15min after stimulation, ). For comparison, the clinical          </p>
</a>
</li><li>
<a class="block" href="/index.php?g=Wap&amp;m=Article&amp;a=detail&amp;id=5399">
<h5 class="titer">To date methods for the </h5>
<p class="timer"><i class="fa fa-calendar-minus-o"></i> 2021-01-14</p>
<p class="imger"><img src="http://www.apexbt.com/media/diy/images/wb/B7644_3.jpg"/></p> <p class="intor">
              To date, methods for the simultaneous analysis of multiple probe drugs in the plasma have been described by using HPLC-DAD or LC–MS/MS. Although previous cocktail methods have used combinations of those four or other probe drugs with LC–MS/MS methods, most of those studies focused on only the analys          </p>
</a>
</li><li>
<a class="block" href="/index.php?g=Wap&amp;m=Article&amp;a=detail&amp;id=5398">
<h5 class="titer">Within their range of applicability both approaches matched </h5>
<p class="timer"><i class="fa fa-calendar-minus-o"></i> 2021-01-14</p>
<p class="imger"><img src="http://www.apexbt.com/media/diy/images/wb/B1577_1.jpg"/></p> <p class="intor">
              Within their range of applicability, both approaches matched the phase boundaries and yields generally to within the measurement error. The approaches matched the phase compositions generally to within 11 wt% or less with the average absolute deviations listed below:
One advantage of the proposed a          </p>
</a>
</li><li>
<a class="block" href="/index.php?g=Wap&amp;m=Article&amp;a=detail&amp;id=5397">
<h5 class="titer">In summary synthetic routes with moderate to high </h5>
<p class="timer"><i class="fa fa-calendar-minus-o"></i> 2021-01-14</p>
<p class="imger"><img src="http://www.apexbt.com/media/diy/images/wb/B2178_1.jpg"/></p> <p class="intor">
              In summary, synthetic routes with moderate to high yields have been developed to produce difluoro-dioxolo-benzoimidazol-benzamides including reference standards  and , and -desmethylated precursors  and , and carbon-11-labeled difluoro-dioxolo-benzoimidazol-benzamides target tracers [C] and [C]. The          </p>
</a>
</li><li>
<a class="block" href="/index.php?g=Wap&amp;m=Article&amp;a=detail&amp;id=5396">
<h5 class="titer">NMS-E973 sale Furthermore the determination of downstream ta</h5>
<p class="timer"><i class="fa fa-calendar-minus-o"></i> 2021-01-14</p>
<p class="imger"><img src="http://www.apexbt.com/media/diy/images/wb/B6304_2.jpg"/></p> <p class="intor">
              Furthermore, the determination of downstream target genes induced by CdCl2 is noteworthy and can help to define its underlying carcinogenesis mechanism. Therefore, we evaluated c-fos and c-jun expression which are stimulated by estrogen through ERK/MAPK pathway. These are not only proto-oncogenes wh          </p>
</a>
</li><li>
<a class="block" href="/index.php?g=Wap&amp;m=Article&amp;a=detail&amp;id=5395">
<h5 class="titer">In this regard http www apexbt com </h5>
<p class="timer"><i class="fa fa-calendar-minus-o"></i> 2021-01-14</p>
<p class="imger"><img src="http://www.apexbt.com/media/diy/images/wb/B1011_1.jpg"/></p> <p class="intor">
              In this regard, some attempts have been made to reduce the presence of those radicals. In presence of fluorine source, it seems that the fluorine atoms can substitute the hydrogen atoms linked to silicon atoms, forming Si-F bonds with a higher bonding Cell Counting Kit-8  (536 kJ mo1−1) than the Si-          </p>
</a>
</li><li>
<a class="block" href="/index.php?g=Wap&amp;m=Article&amp;a=detail&amp;id=5394">
<h5 class="titer">Several studies have shown that independently </h5>
<p class="timer"><i class="fa fa-calendar-minus-o"></i> 2021-01-14</p>
<p class="imger"><img src="https://www.apexbt.com/media/diy/images/wb/A2614_14.jpg"/></p> <p class="intor">
              Several studies have shown that, independently of body-weight control, the central actions of leptin improve glycemic control in obese diabetic rat and mouse models [62]. For instance, restoration of OB-Rb expression in OB-Rb-deficient mice, and in particular in POMC neurons, was sufficient to norma          </p>
</a>
</li><li>
<a class="block" href="/index.php?g=Wap&amp;m=Article&amp;a=detail&amp;id=5393">
<h5 class="titer">To develop novel EPAC inhibitors Zhou and </h5>
<p class="timer"><i class="fa fa-calendar-minus-o"></i> 2021-01-14</p>
<p class="imger"><img src="https://www.apexbt.com/media/diy/images/wb/A2614_9.jpg"/></p> <p class="intor">
              To develop novel EPAC inhibitors, Zhou and co-workers optimized the HTS hit as the chemical lead. After modifications of the substituents on the phenyl ring or C6-position of compound , compound () was identified to be the more potent compound in this series with an IC value of 4.0µM (EPAC2). Dockin          </p>
</a>
</li><li>
<a class="block" href="/index.php?g=Wap&amp;m=Article&amp;a=detail&amp;id=5392">
<h5 class="titer">MuRF and MuRF in http www apexbt com media diy </h5>
<p class="timer"><i class="fa fa-calendar-minus-o"></i> 2021-01-13</p>
<p class="imger"><img src="https://www.apexbt.com/media/diy/images/wb/A2224_2.jpg"/></p> <p class="intor">
              MuRF1 and MuRF3 in cooperation with the E2 ubiquitin-conjugating enzymes UbcH5a, -b, and -c were found to mediate degradation of myosin heavy chain β/slow (MHC β/slow) and MHC IIa via UPS, both, in vitro and in vivo [60]. Mice lacking both MuRF1 and MuRF3 developed skeletal muscle myopathy and hyper          </p>
</a>
</li> </ul>
<p class="center P10"> 5396 records 1/360 page  <a href="/index.php?m=Article&amp;a=index&amp;p=2">Next</a> <span class="current">1</span><a href="/index.php?m=Article&amp;a=index&amp;p=2">2</a><a href="/index.php?m=Article&amp;a=index&amp;p=3">3</a><a href="/index.php?m=Article&amp;a=index&amp;p=4">4</a><a href="/index.php?m=Article&amp;a=index&amp;p=5">5</a> <a href="/index.php?m=Article&amp;a=index&amp;p=6">下5页</a> <a href="/index.php?m=Article&amp;a=index&amp;p=360">Last page</a></p>
</div>
</div>
</section></div>
<!-- /content -->
<script>
    function search(date){
        location.href = "/index.php?g=Wap&m=Article&a=index&month="+date;
    }
    function detail(id){
        location.href = "/index.php?g=Wap&m=Article&a=detail&id="+id;
    }
</script>
</body>
</html>