<!DOCTYPE html>
<html lang="ja">
<head>
<meta charset="utf-8"/>
<meta content="IE=edge" http-equiv="X-UA-Compatible"/>
<title>ãã¸ãã¹ææ¸ã®æ¸ãæ¹-ããããã¼ã¸</title>
<meta content="width=device-width, initial-scale=1.0, minimum-scale=1.0, user-scalable=yes" name="viewport"/>
<meta content="ãããããã¸ãã¹ã«ä½¿ç¨ã§ããå¤ãã®ææ¸ãMicrosoft Wordå½¢å¼ã®ãã³ãã¬ã¼ãã§æä¾ãã¾ããç¤¾å¤ææ¸ï¼ç¤¾åææ¸ï¼ç¤¾äº¤ææ¸ï¼ä¼ç¤¾æ¸å¼ç­ãå¨1,368ç¨®é¡ãç¡æãã¦ã³ã­ã¼ãã" name="description"/>
<meta content="ãã¸ãã¹ææ¸,ç¤¾å¤ææ¸,ç¤¾äº¤ææ¸,ç¤¾åææ¸,ãã³ãã¬ã¼ã,æä¾" name="keywords"/>
<link href="css/style.css" rel="stylesheet"/>
<link href="css/slide.css" rel="stylesheet"/>
<script src="js/openclose.js" type="text/javascript"></script>
<script src="js/fixmenu_pagetop.js" type="text/javascript"></script>
<!--[if lt IE 9]>
<script src="https://oss.maxcdn.com/html5shiv/3.7.2/html5shiv.min.js"></script>
<script src="https://oss.maxcdn.com/respond/1.4.2/respond.min.js"></script>
<![endif]-->
<!-- Global site tag (gtag.js) - Google Analytics -->
<script async="" src="https://www.googletagmanager.com/gtag/js?id=UA-38746517-1"></script>
<script>
  window.dataLayer = window.dataLayer || [];
  function gtag(){dataLayer.push(arguments);}
  gtag('js', new Date());

  gtag('config', 'UA-38746517-1');
</script>
</head>
<body>
<h1><a href="index.html">ãã¸ãã¹ææ¸ã®æ¸ãæ¹</a></h1>
<div id="container">
<header>
<h1 id="logo"><a href="index.html"><img alt="ãã¸ãã¹ææ¸ã®æ¸ãæ¹" src="images/logo.png"/></a></h1>
<!--
<div id="contact">
<p class="tel">TEL:00-0000-0000<span>åä»ï¼00:00ã00:00ãå®ä¼æ¥ï¼æ°´ææ¥</span></p>
</div>
-->
</header>
<!--PCç¨ï¼801pxä»¥ä¸ç«¯æ«ï¼ã¡ãã¥ã¼-->
<nav id="menubar">
<ul>
<!--
<li><a href="index.html">ãã¼ã <span>HOME</span></a></li>
<li><a href="baibai.html">å£²è²·ç©ä»¶<span>BAIBAI</span></a></li>
<li><a href="chintai.html">è³è²¸ç©ä»¶<span>CHINTAI</span></a></li>
<li><a href="tenant.html">ããã³ãç©ä»¶<span>TENANT</span></a></li>
<li><a href="parking.html">é§è»å ´<span>PARKING</span></a></li>
<li><a href="contact.html">ãåãåãã<span>CONTACT</span></a></li>
-->
<li id="current"><a href="index.html">ãã¼ã <span>HOME</span></a></li>
<li><a href="shagai_bunsho/index.html">ç¤¾å¤ææ¸<span>å¯¾å¤ãã¸ãã¹ææ¸</span></a></li>
<li><a href="shanai_bunsho/index.html">ç¤¾åææ¸<span>ç¤¾åãã¸ãã¹ææ¸</span></a></li>
<li><a href="shako_bunsho/index.html">ç¤¾äº¤ææ¸<span>ç¤¾äº¤ä¸ã®ææ¸</span></a></li>
<li><a href="kaisha_shoshiki/index.html">ä¼ç¤¾æ¸å¼<span>ä¸è¬çãªä¼ç¤¾æ¸å¼</span></a></li>
<li><a href="https://n-mayk.com/b-writing.search/">æ¤ç´¢<span>ã«ãã´ãªæ¤ç´¢ã»ããã¾ãæ¤ç´¢</span></a></li>
<li><a href="https://email.chottu.net/" target="_blank">ãã¸ãã¹ã¡ã¼ã«ã®æ¸ãæ¹<span>ãã¸ãã¹ã¡ã¼ã«ã®æ¸ãæ¹ã®èª¬æ</span></a></li>
</ul>
</nav>
<!--å°ããªç«¯æ«ç¨ï¼800pxä»¥ä¸ç«¯æ«ï¼ã¡ãã¥ã¼-->
<nav id="menubar-s">
<ul>
<!--
<li><a href="index.html">ãã¼ã <span>HOME</span></a></li>
<li><a href="baibai.html">å£²è²·ç©ä»¶<span>BAIBAI</span></a></li>
<li><a href="chintai.html">è³è²¸ç©ä»¶<span>CHINTAI</span></a></li>
<li><a href="tenant.html">ããã³ãç©ä»¶<span>TENANT</span></a></li>
<li><a href="parking.html">é§è»å ´<span>PARKING</span></a></li>
<li><a href="contact.html">ãåãåãã<span>CONTACT</span></a></li>
-->
<li id="current"><a href="index.html">ãã¼ã <span>HOME</span></a></li>
<li><a href="shagai_bunsho/index.html">ç¤¾å¤ææ¸<span>å¯¾å¤ãã¸ãã¹ææ¸</span></a></li>
<li><a href="shanai_bunsho/index.html">ç¤¾åææ¸<span>ç¤¾åãã¸ãã¹ææ¸</span></a></li>
<li><a href="shako_bunsho/index.html">ç¤¾äº¤ææ¸<span>ç¤¾äº¤ä¸ã®ææ¸</span></a></li>
<li><a href="kaisha_shoshiki/index.html">ä¼ç¤¾æ¸å¼<span>ä¸è¬çãªä¼ç¤¾æ¸å¼</span></a></li>
<li><a href="https://n-mayk.com/b-writing.search/">æ¤ç´¢<span>ã«ãã´ãªæ¤ç´¢ã»ããã¾ãæ¤ç´¢</span></a></li>
<li><a href="https://email.chottu.net/" target="_blank">ãã¸ãã¹ã¡ã¼ã«ã®æ¸ãæ¹<span>ãã¸ãã¹ã¡ã¼ã«ã®æ¸ãæ¹ã®èª¬æ</span></a></li>
</ul>
</nav>
<div id="contents">
<div id="contents-in">
<div id="main">
<h2>ãã¸ãã¹ææ¸ã®æ¸ãæ¹</h2>
<p>ãã¸ãã¹ææ¸ã®åºæ¬çãªæ¸ãæ¹ãèª¬æãã¾ãã<br/>
</p><p>ãããããã¸ãã¹ã«ä½¿ç¨ã§ããå¤ãã®ææ¸ãMicrosoft Wordå½¢å¼ã®ãã³ãã¬ã¼ãã§æä¾ãã¾ãã<br/>
ç¤¾å¤ææ¸ï¼ç¤¾åææ¸ï¼ç¤¾äº¤ææ¸ï¼ä¼ç¤¾æ¸å¼ç­ãå¨1,368ç¨®é¡ã®ãã³ãã¬ã¼ããæä¾ãã¾ãã</p>
<!-- â¼â¼GoogleAdsenseããããâ¼â¼ -->
<script async="" src="//pagead2.googlesyndication.com/pagead/js/adsbygoogle.js"></script>
<!-- ãã¸ãã¹ææ¸ã®æ¸ãæ¹ï½ã¬ã¹ãã³ã·ãï½ -->
<ins class="adsbygoogle" data-ad-client="ca-pub-0745860277025781" data-ad-format="auto" data-ad-slot="6559490296" data-full-width-responsive="true" style="display:block"></ins>
<script>
(adsbygoogle = window.adsbygoogle || []).push({});
</script>
<!-- â²â²GoogleAdsenseããã¾ã§â²â² -->
<h2>TOPICS</h2>
<section>
<div class="list">
<a href="shagai_bunsho/index.html">
<h4>ç¤¾å¤ææ¸</h4>
<figure><img alt="" src="images/topics_02.jpg"/></figure>
<p>å¯¾å¤ãã¸ãã¹ã«ä½¿ç¨ããææ¸ã®æ¸ãæ¹ããç´¹ä»ãã¾ãã</p>
<p>ç¤¾å¤ææ¸ã®ãã³ãã¬ã¼ãæ°ï¼470</p>
</a>
</div>
<div class="list">
<a href="shanai_bunsho/index.html">
<h4>ç¤¾åææ¸</h4>
<figure><img alt="" src="images/topics_03.jpg"/></figure>
<p>ç¤¾åææ¸ã®æ¸ãæ¹ããç´¹ä»ãã¾ãã</p>
<p>ç¤¾åææ¸ã®ãã³ãã¬ã¼ãæ°ï¼313</p>
</a>
</div>
<div class="list">
<a href="shako_bunsho/index.html">
<h4>ç¤¾äº¤ææ¸</h4>
<figure><img alt="" src="images/topics_04.jpg"/></figure>
<p>ç¤¾äº¤ææ¸ã®æ¸ãæ¹ããç´¹ä»ãã¾ãã</p>
<p>ç¤¾äº¤ææ¸ã®ãã³ãã¬ã¼ãæ°ï¼342</p>
</a>
</div>
<div class="list">
<a href="kaisha_shoshiki/index.html">
<h4>ä¼ç¤¾æ¸å¼</h4>
<figure><img alt="" src="images/topics_05.jpg"/></figure>
<p>ä¸è¬çãªä¼ç¤¾æ¸å¼ããç´¹ä»ãã¾ãã</p>
<p>ä¼ç¤¾æ¸å¼ã®ãã³ãã¬ã¼ãæ°ï¼243</p>
</a>
</div>
</section>
<!-- â¼â¼GoogleAdsenseããããâ¼â¼ -->
<script async="" src="//pagead2.googlesyndication.com/pagead/js/adsbygoogle.js"></script>
<!-- ãã¸ãã¹ææ¸ã®æ¸ãæ¹ï½ã¬ã¹ãã³ã·ãï½ -->
<ins class="adsbygoogle" data-ad-client="ca-pub-0745860277025781" data-ad-format="auto" data-ad-slot="6559490296" data-full-width-responsive="true" style="display:block"></ins>
<script>
(adsbygoogle = window.adsbygoogle || []).push({});
</script>
<!-- â²â²GoogleAdsenseããã¾ã§â²â² -->
<section id="new">
<h2>æ´æ°æå ±ã»ãç¥ãã</h2>
<dl>
<dt>2020.01.04</dt>
<dd><a href="shagai_bunsho/index.html#riyu">ç´åéãã®çç±æ¸ãè¿½å ãã¾ããã</a></dd>
<dt>2020.12.13</dt>
<dd><a href="kaisha_shoshiki/index.html#teate">ä¼ç¤¾æ¸å¼ã®æå½ã¦ã»çµ¦ä¸ã®ææ¸ãè¿½å ãã¾ããã</a></dd>
<dt>2020.12.06</dt>
<dd><a href="shako_bunsho/index.html#orei_kansya">ç¤¾äº¤ææ¸ã®ãç¤¼ã»æè¬ã®ææ¸ãè¿½å ãã¾ããã</a></dd>
<dt>2020.11.21</dt>
<dd><a href="shagai_bunsho/index.html#kaito">åç­ã®ãã­ã¹ããè¿½å ãã¾ããã</a></dd>
<dt>2020.11.16</dt>
<dd><a href="shagai_bunsho/index.html#owabi">ãã¤ããã­ã«é¢ããè¬ç½ªãè¿½å ãã¾ããã</a></dd>
<dt>2020.11.14</dt>
<dd><a href="shagai_bunsho/index.html#kotowaru">æ³¨æã®æ­ã(5)ãè¿½å ãã¾ããã</a></dd>
<dt>2020.11.10</dt>
<dd><a href="shako_bunsho/index.html#aito_choi">åæ¼ã»å¼æ°ã®ãã­ã¹ããè¿½å ãã¾ããã</a></dd>
<dt>2020.11.03</dt>
<dd><a href="shako_bunsho/index.html#mimai">è¦èã®ãã­ã¹ããè¿½å ãã¾ããã</a></dd>
<dt>2020.10.28</dt>
<dd><a href="shako_bunsho/index.html#mimai">è¦èã®ãã­ã¹ããè¿½å ãã¾ããã</a></dd>
<dt>2020.10.24</dt>
<dd><a href="shako_bunsho/index.html#mimai">è¦èã®ãã­ã¹ããè¿½å ãã¾ããã</a></dd>
<dt>2020.10.22</dt>
<dd><a href="shanai_bunsho/index.html#ringi">ç¨è­°ã®ææ¸ãè¿½å ãã¾ããã</a></dd>
<dt>2020.10.14</dt>
<dd><a href="shako_bunsho/index.html#aisatu">ç¤¾åå¤æ´ã®æ¨æ¶(æ°ååã®çºå£²ã®å ´å),ç¤¾åå¤æ´ã®æ¨æ¶(ã­ã£ã³ãã¼ã³å®æ½ã®å ´å)ãè¿½å ãã¾ããã</a></dd>
<dt>2020.10.06</dt>
<dd><a href="shanai_bunsho/index.html#aisatu">ç©æµã»ã³ã¿ã¼è¨­ç«ã®æ¨æ¶,å¶æ¥­è­²åã®æ¨æ¶ãè¿½å ãã¾ããã</a></dd>
<dt>2020.10.04</dt>
<dd><a href="shanai_bunsho/index.html#tsuchi">ç¤¾åææ¸ã®éç¥ã®ãã­ã¹ããè¿½å ãã¾ããã</a></dd>
<dt>2020.09.30</dt>
<dd><a href="shagai_bunsho/index.html#syodaku">ç¤¾å¤ææ¸ã®æ¿è«¾ã®ãã­ã¹ããè¿½å ãã¾ããã</a></dd>
<dt>2020.09.27</dt>
<dd><a href="kaisha_shoshiki/index.html#kitei">ç¤¾åè«¸è¦å®ã®ãã­ã¹ããè¿½å ãã¾ããã</a></dd>
<dt>2020.09.10</dt>
<dd><a href="shako_bunsho/index.html#aisatu">ç¤¾äº¤ææ¸ã®ææ¸ãè¿½å ãã¾ããã</a></dd>
<dt>2020.09.07</dt>
<dd><a href="index.html">ç¸äºãªã³ã¯ãè¿½å ãã¾ããã</a></dd>
<dt>2020.08.28</dt>
<dd><a href="shako_bunsho/index.html#shotai">ç¤¾å¬ææ¸ã®æå¾ã®ãã­ã¹ããè¿½å ãã¾ããã</a></dd>
<dt>2020.08.07</dt>
<dd><a href="shanai_bunsho/index.html#tsuchi">ç¤¾åææ¸ã®éç¥ã®ãã­ã¹ããè¿½å ãã¾ããã</a></dd>
<dt>2020.07.29</dt>
<dd><a href="shagai_bunsho/index.html#tsuchi">ç¤¾åææ¸ã®éç¥ã®ãã­ã¹ããè¿½å ãã¾ããã</a></dd>
<dt>2020.07.26</dt>
<dd><a href="shagai_bunsho/index.html#syokai">ç¤¾å¤ææ¸ã®ç§ä¼ã®ãã­ã¹ããè¿½å ãã¾ããã</a></dd>
<dt>2020.07.13</dt>
<dd><a href="shako_bunsho/index.html#shotai">ç¤¾å¬ææ¸ã®æå¾ã®ãã­ã¹ããè¿½å ãã¾ããã</a></dd>
<dt>2020.07.09</dt>
<dd><a href="kaisha_shoshiki/index.html#kitei">ç¤¾åè«¸è¦å®ã®ãã­ã¹ããè¿½å ãã¾ããã</a></dd>
<dt>2020.07.02</dt>
<dd><a href="shagai_bunsho/index.html#syokai">ç§ä¼ã®ãã­ã¹ããè¿½å ãã¾ããã</a></dd>
<dt>2020.06.22</dt>
<dd><a href="shanai_bunsho/index.html#shimatusho">å§æ«æ¸ã®ææ¸ãè¿½å ãã¾ããã</a></dd>
<dt>2020.06.19</dt>
<dd><a href="shanai_bunsho/index.html#tsuchi">éç¥ã®ãã­ã¹ããè¿½å ãã¾ããã</a></dd>
<dt>2020.06.16</dt>
<dd><a href="shagai_bunsho/index.html#syokai">ç§ä¼ã®ãã­ã¹ããè¿½å ãã¾ããã</a></dd>
<dt>2020.06.12</dt>
<dd><a href="shako_bunsho/index.html#aisatu">æ¨æ¶ã®ææ¸ãè¿½å ãã¾ããã</a></dd>
<dt>2020.06.07</dt>
<dd><a href="kaisha_shoshiki/index.html#meirei">å½ä»¤ã»æå³æ¸ã®ãã­ã¹ããè¿½å ãã¾ããã</a></dd>
<dt>2020.05.12</dt>
<dd><a href="shanai_bunsho/index.html#tsuchi">éç¥ã®ãã­ã¹ããè¿½å ãã¾ããã</a></dd>
<dt>2020.05.10</dt>
<dd><a href="shanai_bunsho/index.html#tsuchi">éç¥ã®ãã­ã¹ããè¿½å ãã¾ããã</a></dd>
</dl>
</section>
<!-- â¼â¼GoogleAdsenseããããâ¼â¼ -->
<script async="" src="//pagead2.googlesyndication.com/pagead/js/adsbygoogle.js"></script>
<!-- ãã¸ãã¹ææ¸ã®æ¸ãæ¹ï½ã¬ã¹ãã³ã·ãï½ -->
<ins class="adsbygoogle" data-ad-client="ca-pub-0745860277025781" data-ad-format="auto" data-ad-slot="6559490296" data-full-width-responsive="true" style="display:block"></ins>
<script>
(adsbygoogle = window.adsbygoogle || []).push({});
</script>
<!-- â²â²GoogleAdsenseããã¾ã§â²â² -->
</div>
<!--/#main-->
<div id="sub">
<nav class="box1">
<h2>ç¤¾å¤ææ¸</h2>
<ul class="submenu">
<li><a href="shagai_bunsho/index.html#owabi">ãè©«ã³ã48æ¸å¼ã</a></li>
<li><a href="shagai_bunsho/index.html#annai">æ¡åã13æ¸å¼ã</a></li>
<li><a href="shagai_bunsho/index.html#irai">ä¾é ¼ã60æ¸å¼ã</a></li>
<li><a href="shagai_bunsho/index.html#kaito">åç­ã13æ¸å¼ã</a></li>
<li><a href="shagai_bunsho/index.html#kanyu">å§èªã9æ¸å¼ã</a></li>
<li><a href="shagai_bunsho/index.html#kansya_hyosyo">æè¬ã»è¡¨å½°ã2æ¸å¼ã</a></li>
<li><a href="shagai_bunsho/index.html#kyogi">åè­°ã4æ¸å¼ã</a></li>
<li><a href="shagai_bunsho/index.html#kosho">äº¤æ¸ã24æ¸å¼ã</a></li>
<li><a href="shagai_bunsho/index.html#kogi">æè­°ã25æ¸å¼ã</a></li>
<li><a href="shagai_bunsho/index.html#saisoku">å¬ä¿ã32æ¸å¼ã</a></li>
<li><a href="shagai_bunsho/index.html#saiyo">æ¡ç¨ã7æ¸å¼ã</a></li>
<li><a href="shagai_bunsho/index.html#torikesi">åæ¶ã5æ¸å¼ã</a></li>
<li><a href="shagai_bunsho/index.html#syodaku">æ¿è«¾ã31æ¸å¼ã</a></li>
<li><a href="shagai_bunsho/index.html#syokai">ç§ä¼ã34æ¸å¼ã</a></li>
<li><a href="shagai_bunsho/index.html#introduce">ç´¹ä»ã5æ¸å¼ã</a></li>
<li><a href="shagai_bunsho/index.html#moshikomi">ç³ãè¾¼ã¿ã16æ¸å¼ã</a></li>
<li><a href="shagai_bunsho/index.html#kotowaru">æ­ãã36æ¸å¼ã</a></li>
<li><a href="shagai_bunsho/index.html#chumon">æ³¨æã16æ¸å¼ã</a></li>
<li><a href="shagai_bunsho/index.html#tsuchi">éç¥ã58æ¸å¼ã</a></li>
<li><a href="shagai_bunsho/index.html#hanron">åè«ã18æ¸å¼ã</a></li>
<li><a href="shagai_bunsho/index.html#benkai">å¼è§£ã7æ¸å¼ã</a></li>
<li><a href="shagai_bunsho/index.html#hokoku">å ±åã3æ¸å¼ã</a></li>
<li><a href="shagai_bunsho/index.html#riyu">çç±æ¸ã»é¡æ«æ¸ã3æ¸å¼ã</a></li>
<li><a href="shanai_bunsho/index.html#annai">æ¡åã1æ¸å¼ã</a></li>
</ul>
</nav>
<nav class="box1">
<h2>ç¤¾åææ¸</h2>
<ul class="submenu">
<li><a href="shanai_bunsho/index.html#owabi">ãè©«ã³ã3æ¸å¼ã</a></li>
<li><a href="shanai_bunsho/index.html#annai">æ¡åã35æ¸å¼ã</a></li>
<li><a href="shanai_bunsho/index.html#irai">ä¾é ¼ã13æ¸å¼ã</a></li>
<li><a href="shanai_bunsho/index.html#kikaku">ä¼ç»ã12æ¸å¼ã</a></li>
<li><a href="shanai_bunsho/index.html#gijiroku">è­°äºé²ã6æ¸å¼ã</a></li>
<li><a href="shanai_bunsho/index.html#shimatusho">å§æ«æ¸ã21æ¸å¼ã</a></li>
<li><a href="shanai_bunsho/index.html#siji">æç¤ºã»æå³æ¸ã6æ¸å¼ã</a></li>
<li><a href="shanai_bunsho/index.html#syokai">ç§ä¼ã18æ¸å¼ã</a></li>
<li><a href="shanai_bunsho/index.html#joshin_teian">ä¸ç³ã»ææ¡ã12æ¸å¼ã</a></li>
<li><a href="shanai_bunsho/index.html#sintai_todoke">é²éå±ã10æ¸å¼ã</a></li>
<li><a href="shanai_bunsho/index.html#tsuchi">éç¥ã»é£çµ¡ã88æ¸å¼ã</a></li>
<li><a href="shanai_bunsho/index.html#tenmatu">é¡æ«æ¸ã14æ¸å¼ã</a></li>
<li><a href="shanai_bunsho/index.html#hyosho">è¡¨å½°ã4æ¸å¼ã</a></li>
<li><a href="shanai_bunsho/index.html#hensin">è¿ä¿¡ã»è¿ç­ã2æ¸å¼ã</a></li>
<li><a href="shanai_bunsho/index.html#hokoku">å ±åã44æ¸å¼ã</a></li>
<li><a href="shanai_bunsho/index.html#riyuu">çç±æ¸ã3æ¸å¼ã</a></li>
<li><a href="shanai_bunsho/index.html#ringi">ç¨è­°ã22æ¸å¼ã</a></li>
</ul>
</nav>
<nav class="box1">
<h2>ç¤¾äº¤ææ¸</h2>
<ul class="submenu">
<li><a href="shako_bunsho/index.html#orei_kansya">ãç¤¼ã»æè¬ã89æ¸å¼ã</a></li>
<li><a href="shako_bunsho/index.html#aito_choi">åæ¼ã»å¼æ°ã21æ¸å¼ã</a></li>
<li><a href="shako_bunsho/index.html#aisatu">æ¨æ¶ã71æ¸å¼ã</a></li>
<li><a href="shako_bunsho/index.html#annai">æ¡åã47æ¸å¼ã</a></li>
<li><a href="shako_bunsho/index.html#mimai">è¦èã22æ¸å¼ã</a></li>
<li><a href="shako_bunsho/index.html#sykuga">ç¥è³ã33æ¸å¼ã</a></li>
<li><a href="shako_bunsho/index.html#shotai">æå¾ã32æ¸å¼ã</a></li>
<li><a href="shako_bunsho/index.html#shokai_suisen">ç´¹ä»ã»æ¨è¦ã14æ¸å¼ã</a></li>
<li><a href="shako_bunsho/index.html#henrei">è¿ç¤¼ã13æ¸å¼ã</a></li>
</ul>
</nav>
<nav class="box1">
<h2>ä¼ç¤¾æ¸å¼</h2>
<ul class="submenu">
<li><a href="kaisha_shoshiki/index.html#eigyo">å¶æ¥­ç§å¯ç®¡çã8æ¸å¼ã</a></li>
<li><a href="kaisha_shoshiki/index.html#kankonsosai">å å©è¬ç¥­ã7æ¸å¼ã</a></li>
<li><a href="kaisha_shoshiki/index.html#keikoku">è­¦åæ¸ã7æ¸å¼ã</a></li>
<li><a href="kaisha_shoshiki/index.html#saiyou">æ¡ç¨é¢é£ã67æ¸å¼ã</a></li>
<li><a href="kaisha_shoshiki/index.html#jirei">è¾ä»¤ã14æ¸å¼ã</a></li>
<li><a href="kaisha_shoshiki/index.html#kitei">ç¤¾åè«¸è¦å®ã25æ¸å¼ã</a></li>
<li><a href="kaisha_shoshiki/index.html#teate">æå½ã¦ã»çµ¦ä¸ã6æ¸å¼ã</a></li>
<li><a href="kaisha_shoshiki/index.html#shotodoke">è«¸å±ã51æ¸å¼ã</a></li>
<li><a href="kaisha_shoshiki/index.html#sinsei">ç³è«ã3æ¸å¼ã</a></li>
<li><a href="kaisha_shoshiki/index.html#taishoku">éè·é¢é£ã6æ¸å¼ã</a></li>
<li><a href="kaisha_shoshiki/index.html#nichijo">æ¥å¸¸ã7æ¸å¼ã</a></li>
<li><a href="kaisha_shoshiki/index.html#horitu">æ³å¾é¢é£ã16æ¸å¼ã</a></li>
<li><a href="kaisha_shoshiki/index.html#meirei">å½ä»¤ã»æå³æ¸ã26æ¸å¼ã</a></li>
</ul>
</nav>
</div>
<!--/#sub-->
</div>
<!--/#contents-in-->
<div id="side">
<div class="box1">
<h2>ãµã¤ãåæ¤ç´¢</h2>
<script>
  (function() {
    var cx = 'partner-pub-0745860277025781:2182843719';
    var gcse = document.createElement('script');
    gcse.type = 'text/javascript';
    gcse.async = true;
    gcse.src = 'https://cse.google.com/cse.js?cx=' + cx;
    var s = document.getElementsByTagName('script')[0];
    s.parentNode.insertBefore(gcse, s);
  })();
</script>
<gcse:searchbox-only></gcse:searchbox-only>
</div>
<nav class="box">
<h2>é¢é£ãªã³ã¯</h2>
<ul class="submenu">
<li><a href="https://email.chottu.net/" target="_blank">ãã¸ãã¹ã¡ã¼ã«ã®æ¸ãæ¹</a></li>
<li><a href="https://kanauka.o-oku.jp/" target="_blank">å¿ãåããä¸­å°ä¼æ¥­è¨ºæ­å£«</a></li>
<li><a href="https://kanauka.com/" target="_blank">å¿ãåããæå ±å¦çæè¡èè©¦é¨</a></li>
<li><a href="https://english-mail.jp/" target="_blank">è±èªã¡ã¼ã«ã®æ¸ãæ¹</a></li>
<li><a href="https://kiteikisoku.com/" target="_blank">ä¼ç¤¾è¦å®ã»è¦åã®æ¸ãæ¹</a></li>
<li><a href="https://b-keiyaku.com/" target="_blank">å¥ç´æ¸ã®æ¸ãæ¹</a></li>
<li><a href="https://kttem.com//" target="_blank">ä¼ç»æ¸ã»ææ¡æ¸ãã³ãã¬ã¼ãã®ä½ãæ¹</a></li>
<li><a href="https://b-iikata.com/" target="_blank">ãã¸ãã¹è¨ãæ¹ããã</a></li>
<li><a href="https://n-mayk.com/" target="_blank">ãã¸ãã¹ãã¬ã¼ãº.com</a></li>
</ul></nav>
<nav class="box">
<!-- â¼â¼GoogleAdsenseããããâ¼â¼ -->
<script async="" src="//pagead2.googlesyndication.com/pagead/js/adsbygoogle.js"></script>
<!-- ãã¸ãã¹ææ¸ã®æ¸ãæ¹ï½ã¬ã¹ãã³ã·ãï½ -->
<ins class="adsbygoogle" data-ad-client="ca-pub-0745860277025781" data-ad-format="auto" data-ad-slot="6559490296" data-full-width-responsive="true" style="display:block"></ins>
<script>
(adsbygoogle = window.adsbygoogle || []).push({});
</script>
<!-- â²â²GoogleAdsenseããã¾ã§â²â² -->
</nav>
</div>
<!--/#side-->
</div>
<!--/#contents-->
</div>
<!--/#container-->
<footer>
<!--
<div id="footermenu">
<ul>
<li><a href="#">ã¡ãã¥ã¼ãµã³ãã«</a></li>
<li><a href="#">ã¡ãã¥ã¼ãµã³ãã«</a></li>
<li><a href="#">ã¡ãã¥ã¼ãµã³ãã«</a></li>
<li><a href="#">ã¡ãã¥ã¼ãµã³ãã«</a></li>
<li><a href="#">ã¡ãã¥ã¼ãµã³ãã«</a></li>
<li><a href="#">ã¡ãã¥ã¼ãµã³ãã«</a></li>
</ul>
<ul>
<li><a href="#">ã¡ãã¥ã¼ãµã³ãã«</a></li>
<li><a href="#">ã¡ãã¥ã¼ãµã³ãã«</a></li>
<li><a href="#">ã¡ãã¥ã¼ãµã³ãã«</a></li>
<li><a href="#">ã¡ãã¥ã¼ãµã³ãã«</a></li>
<li><a href="#">ã¡ãã¥ã¼ãµã³ãã«</a></li>
<li><a href="#">ã¡ãã¥ã¼ãµã³ãã«</a></li>
</ul>
<ul>
<li><a href="#">ã¡ãã¥ã¼ãµã³ãã«</a></li>
<li><a href="#">ã¡ãã¥ã¼ãµã³ãã«</a></li>
<li><a href="#">ã¡ãã¥ã¼ãµã³ãã«</a></li>
<li><a href="#">ã¡ãã¥ã¼ãµã³ãã«</a></li>
<li><a href="#">ã¡ãã¥ã¼ãµã³ãã«</a></li>
<li><a href="#">ã¡ãã¥ã¼ãµã³ãã«</a></li>
</ul>
<ul>
<li><a href="#">ã¡ãã¥ã¼ãµã³ãã«</a></li>
<li><a href="#">ã¡ãã¥ã¼ãµã³ãã«</a></li>
<li><a href="#">ã¡ãã¥ã¼ãµã³ãã«</a></li>
<li><a href="#">ã¡ãã¥ã¼ãµã³ãã«</a></li>
<li><a href="#">ã¡ãã¥ã¼ãµã³ãã«</a></li>
<li><a href="#">ã¡ãã¥ã¼ãµã³ãã«</a></li>
</ul>
<ul>
<li><a href="#">ã¡ãã¥ã¼ãµã³ãã«</a></li>
<li><a href="#">ã¡ãã¥ã¼ãµã³ãã«</a></li>
<li><a href="#">ã¡ãã¥ã¼ãµã³ãã«</a></li>
<li><a href="#">ã¡ãã¥ã¼ãµã³ãã«</a></li>
<li><a href="#">ã¡ãã¥ã¼ãµã³ãã«</a></li>
<li><a href="#">ã¡ãã¥ã¼ãµã³ãã«</a></li>
</ul>
</div>
-->
<!--/footermenu-->
<div id="copyright">
<small>Copyright© <a href="index.html">ãã¸ãã¹ææ¸ã®æ¸ãæ¹</a> All Rights Reserved.</small>
</div>
</footer>
<p class="nav-fix-pos-pagetop"><a href="#">â</a></p>
<!--å°ããªç«¯æ«ç¨ï¼800pxä»¥ä¸ç«¯æ«ï¼ã¡ãã¥ã¼-->
<script type="text/javascript">
if (OCwindowWidth() <= 800) {
	open_close("newinfo_hdr", "newinfo");
}
</script>
<!--ã¡ãã¥ã¼ééãã¿ã³-->
<div class="close" id="menubar_hdr"></div>
<!--ã¡ãã¥ã¼ã®ééå¦çæ¡ä»¶è¨­å®ã800pxä»¥ä¸-->
<script type="text/javascript">
if (OCwindowWidth() <= 800) {
	open_close("menubar_hdr", "menubar-s");
}
</script>
</body>
</html>
