<!DOCTYPE html PUBLIC "-//W3C//DTD XHTML 1.0 Transitional//EN" "http://www.w3.org/TR/xhtml1/DTD/xhtml1-transitional.dtd">
<!-- saved from url=(0045)file:///C:/Users/hc360/Desktop/404static.html --><html xmlns="http://www.w3.org/1999/xhtml"><head><meta content="text/html; charset=utf-8" http-equiv="Content-Type"/>
<title>404错误，没有找到您想要进入的页面</title>
<script src="http://style.org.hc360.com/js/build/source/core/hc.common.min.js" type="text/javascript"></script>
<style>
body {
	margin: 0;
	padding: 0;
	color: #333;
	background: #fff;
	font-family: \5B8B\4F53;
	font-size: 12px
}

li {
	list-style: none
}

img {
	color: transparent;
	font-size: 0;
	-ms-interpolation-mode: bicubic;
	border: 0
}

a {
	color: #333;
	cursor: pointer;
	text-decoration: none
}

a:hover {
	text-decoration: none;
	color: #c90000
}

a:active {
	text-decoration: none
}

div,form,ul,ol,li,span,p,dl,dt,dd,h1,h2,h3,h4,h5,h6 {
	margin: 0;
	padding: 0;
	border: 0
}

.page404-list {
	margin-left: 5px;
	padding-top: 5px;
}

.page404-list li {
	display: block;
	float: left;
	width: 25%;
	height: 32px;
	background-image: url("http://style.org.hc360.com/images/my/images/supply/head_links_icon.gif");
	background-repeat: no-repeat;
	background-position: left center;
	text-indent: 1em;
	vertical-align: middle
}

.page404-list li span {
	vertical-align: middle
}

.l-area-con {
	height: 320px;
}

#page-404-sg {
	width: 180px;
	border: none;
	height: 320px;
}

#page-404-sg ul {
	width: 250px;
}

#page-404-sg li {
	padding-top: 18px;
	width: 180px;
	margin: auto;
}

#page-404-sg .pro_p a {
	display: block;
	width: 180px;
	height: 180px;
	text-align: center;
	line-height: 180px;
	margin: auto;
	border: 1px solid #DDDDDD;
}

#page-404-sg h4 {
	margin: auto;
	font-weight: bold;
	text-align: center;
	white-space: nowrap;
	width: 12em;
	overflow: hidden;
	text-overflow: ellipsis;
}

.sider {
	border: 1px solid #E5E5E5;
}

#page-404-sg .pro_price {
	text-align: left;
}

#page-404-sg .pro_price span {
	color: black;
	font-weight: bold;
}

.tip {
	width: 980px;
	height: 394px;
	overflow: hidden;
	margin: 10px auto;
}

.tip-tit {
	width: 360px;
	height: 120px;
	float: left;
	margin: 154px 20px 0 0;
}

.tip-tit .no-find {
	color: #bfbebe;
	font-size: 16px;
	font-family: "微软雅黑","黑体";
	line-height: 16px;
	font-weight: bold;
}

.tip-tit h3 {
	color: #c0221e;
	font-size: 40px;
	font-family: "微软雅黑","黑体";
	line-height: 38px;
	font-weight: bold;
	margin: 10px 0;
}

.back {
	color: #444;
	font-size: 12px;
	font-family: "微软雅黑","黑体";
	line-height: 16px;
	font-weight: bold;
}

.back a {
	color: #0066cc;
	font-size: 14px;
	font-weight: bold;
}

.tip_bg {
	width: 540px;
	height: 394px;
	float: left;
	background: url("http://style.org.hc360.com/images/detail/mysite/public/xuanp3/pxk/for-404.jpg") no-repeat;
}

.l-area-wrap {
	width: 1190px;
	margin: 0 auto 10px;
	overflow: hidden;
}

.l-area-main {
	width: 930px;
	float: left;
	margin-right: 10px;
}

.hot-pro {
	margin: 10px auto;
	width: 1190px;
	clear: both;
}

.l-area-tit {
	background: #4386D0;
	height: 36px;
	line-height: 36px;
}

.l-area-tit h2 {
	color: #fff;
	font-size: 14px;
	padding-left: 12px;
	font-weight: bold;
}

.l-area-con {
	border: 0 1px 1px;
	border: 1px solid #E5E5E5;
	height: 207px;
	*height: 230px;
}

.l-area-con:after {
	content: ".";
	display: block;
	height: 0;
	clear: both;
	visibility: hidden;
}

.l-area-con .area-list {
	width: 432px;
	height: 206px;
	overflow: hidden;
	padding: 1px 0 0 16px;
	float: left;
	margin-right: 15px;
	_margin-right: 9px;
}

.l-area-con .area-list li {
	width: 400px;
	height: 47px;
	overflow: hidden;
	margin-top: 4px;
	*margin-top: 7px;
}

.area-list li dl dd {
	width: 400px;
	height: 20px;
	line-height: 20px;
	overflow: hidden;
	text-overflow: ellipsis;
	overflow: hidden;
	white-space: nowrap;
}

.area-list li dl dd a {
	margin-right: 16px;
}

.pro-main {
	width: 1190px;
	margin: 0 auto;
}

.pro-main-tit {
	background: #fff;
}

.pro-main-con {
	border: 0 1px 1px;
	border: 1px solid #E5E5E5;
	height: auto;
}

.pro-main-con ul {
	width: 1160px;
	height: auto;
	overflow: hidden;
	margin: 0 auto;
}

.pro-main-con:after {
	content: ".";
	display: block;
	height: 0;
	clear: both;
	visibility: hidden;
}

.pro-main-con ul li {
	float: left;
	height: 237px;
	padding: 18px 0 0 28px;
	width: 182px;
	margin-right: 21px;
	_margin-right: 18px;
}

.pro-main-con ul li p.pro_p {
	background: none repeat scroll 0 0 #FFFFFF;
	border: 1px solid #DDDDDD;
	display: table-cell;
	height: 180px;
	overflow: hidden;
	text-align: center;
	vertical-align: middle;
	width: 180px;
	*font-size: 159.25px;
	*font-family: Arial;
}

.pro-main-con ul li h4 {
	height: 16px;
	line-height: 16px;
	margin-bottom: 4px;
	overflow: hidden;
	padding: 4px 0;
	text-align: center;
	width: 180px;
}

.pro-main-con ul li h4 a {
	display: block;
	overflow: hidden;
	text-overflow: ellipsis;
	overflow: hidden;
	white-space: nowrap;
}

.pro-main-con ul li p.pro_price {
	color: #666;
	font-weight: bold;
	height: auto;
	line-height: 16px;
	padding: 0 0 4px;
	text-align: center;
	width: 182px;
}

.pro-main-con ul li p.pro_price span {
	color: #FF0000;
	font-family: "微软雅黑","黑体","宋体";
	font-weight: bold;
}

.con-r-404 .sider {
	margin-top: 0;
}

.top-list li h3 .clr-bold {
	font-weight: 200;
}

.top-list .jiange h3 {
	*height: 26px;
	*padding-top: 0;
	*line-height: 4px;
}

.layout-1000 .l-area-wrap {
	width: 1000px;
}

.layout-1000 .l-area-main {
	width: 770px;
}

.layout-1000 .l-area-con .area-list {
	margin-right: 12px;
	padding: 1px 0 0 11px;
	width: 360px;
}

.layout-1000 .l-area-con .area-list li {
	width: 360px;
}

.layout-1000 .hot-pro {
	height: 299px;
	width: 1000px;
}

.layout-1000 .pro-main-con ul {
	width: 1000px;
}

.layout-1000 .pro-main-con ul li {
	margin-right: 2px;
	padding: 18px 0 0 13px;
	width: 182px;
}

.layout-1000 .list-top-sidebar {
	left: 50%;
}

div#searchBarN {
	width: 298px;
	float: right;
	font-size: 12px;
	float: left;
}

div.searchT {
	padding-left: 2px;
	margin-left: -1px !important;
	margin-left: 0px;
}

.searchT ul {
	list-style-type: none;
	margin: 0px;
	padding: 0px;
}

div.searchC {
	text-align: center;
	border-left: 1px solid #B4B4B4;
	border-bottom: 1px solid #B4B4B4;
	border-right: 1px solid #B4B4B4;
	background-color: #f3f3f3;
	padding: 3px;
	clear: both;
}

.searchC form {
	margin: 0px;
	padding: 0px;
	clear: both;
	line-height: normal;
}

input.textInput {
	padding: 0px;
	margin: 0px;
	border: 1px #B4B4B4 solid;
}

.activedTab {
	border-left: 1px solid #B4B4B4;
	border-top: 1px solid #B4B4B4;
	border-right: 1px solid #B4B4B4;
	background-color: #f3f3f3;
	line-height: 22px;
	font-size: 14px;
	float: left;
	text-align: center;
	width: 49px;
	font-weight: bold;
	margin-left: -1px;
}

.nTab {
	color: #8B8B8B;
	text-decoration: none;
	line-height: 22px;
	cursor: hand;
	float: left;
	text-align: center;
	font-size: 12px;
	width: 49px;
	background-image: url(http://style.org.hc360.com/images/detail/images/search_bgnew1.gif);
	border-bottom: 1px solid #B4B4B4;
	margin-left: -1px;
}

.defaultTab {
	line-height: 22px;
	float: left;
	text-align: center;
	font-size: 12px;
	width: 57px;
	border-bottom: 1px solid #B4B4B4;
	margin-left: -1px;
}

.d-footer {
	margin-top: 1px;
	border-top: 1px solid #ddd;
	padding-top: 8px;
	line-height: 22px;
	text-align: center;
	width: 952px;
	margin: 0 auto;
}

.d-footer a {
	color: #333 !important;
}

.chico {
	display: inline-block;
	width: 47px;
	height: 18px;
	background: url(http://style.org.hc360.com/images/detail/mysite/siteconfig/ch_Icon.jpg) no-repeat;
}

span.mid {
	vertical-align: top;
	line-height: 22px;
	display: inline-block;
}

span.security {
	height: 26px;
	line-height: 28px;
	display: inline-block;
	background: url(http://style.org.hc360.com/images/detail/mysite/public/xuanp3/pxk/pro_bg0.png) no-repeat 2px -346px;
	padding-left: 30px;
}

.qqonline,.qqoff {
	width: 16px;
	height: 25px;
	vertical-align: top;
	background: url(http://style.org.hc360.com/images/my/images/corcenter/qqwin.png) no-repeat 0 -1px;
	cursor: pointer;
	display: inline-block;
}

.qqoff {
	background-position: -38px 0;
}

.d-footer {
	text-align: center;
	font-size: 12px;
}
/*覆盖终极页左侧边栏错位样式*/#ranklist .mt h2,#related-sorts .mt h2 {
	font-size: 12px;
	margin: 0;
}

.d-footer a {
	color: #333;
}
</style>
<script language="javascript">
function findObj(theObj, theDoc) {
    var p, i, foundObj;
    if (!theDoc)
        theDoc = document;
    if ((p = theObj.indexOf("?")) > 0 && parent.frames.length) {
        theDoc = parent.frames[theObj.substring(p + 1)].document;
        theObj = theObj.substring(0, p)
    }
    if (!(foundObj = theDoc[theObj]) && theDoc.all)
        foundObj = theDoc.all[theObj];
    for (i = 0; !foundObj && i < theDoc.forms.length; i++)
        foundObj = theDoc.forms[i][theObj];
    for (i = 0; !foundObj && theDoc.layers && i < theDoc.layers.length; i++)
        foundObj = findObj(theObj, theDoc.layers[i].document);
    if (!foundObj && document.getElementById)
        foundObj = document.getElementById(theObj);
    return foundObj
}
function doclick(srcObj, searchID) {
    var tabList = srcObj.parentNode.getElementsByTagName("li");
    if (srcObj.className == "activedTab")
        return;
    for (var i = 0; i < tabList.length; i++) {
        if (tabList[i].className == "activedTab")
            tabList[i].className = "nTab"
    }
    srcObj.className = "activedTab";
    function vho(obj) {
        if (obj.style.display == "none") {
            obj.style.display = "block";
            return true
        } else {
            obj.style.display = "none";
            return false
        }
    }
    function vh(obj) {
        vho(findObj(obj))
    }
    function vh_line(obj) {
        if (findObj(obj).style.display == "none") {
            findObj(obj).style.display = "inline"
        } else {
            findObj(obj).style.display = "none"
        }
    }
}
function onSubmitSearch(theForm){
    if(theForm.w.value==''){
        alert("请输入关键字");
        return false;
    }
    if(theForm.c.value=='论坛'){
    theForm.action ='http://s.hc360.com/cgi-bin/fb';
    }
    else{
    theForm.action ='http://s.hc360.com/cgi-bin/ls?';
    }
    theForm.submit();
    return true;
}
</script>
</head>
<body>
<div id="g_notic" style="border:1px solid #FAB418;width:938px;padding:10px;background-color:#FFF1CC;margin:0 auto 10px;position:relative;z-index:1;color:#333;font-size:12px; display:none;">
</div>
<div class="tip">
<div class="tip-tit">
<h3>您访问的页面不存在!!!</h3>
<p class="back">您可以返回 <a href="http://www.hc360.com/">慧聪首页</a> 或者 <a href="javascript:history.back(-1);" rel="nofollow">返回上一页</a></p>
<br/>
<div align="right" id="searchBarN">
<div class="searchT" id="searchBarT">
<ul>
<li class="activedTab" id="node1" onclick="javascript:doclick(this,1);searchform.c.value='供应信息';">供应</li>
<li class="nTab" id="node2" onclick="javascript:doclick(this,2);searchform.c.value='求购信息';">求购</li>
<li class="nTab" id="node3" onclick="javascript:doclick(this,3);searchform.c.value='企业库';">公司</li>
<li class="nTab" id="node4" onclick="javascript:doclick(this,4);searchform.c.value='行业资讯';">资讯</li>
<li class="defaultTab" id="node5" style="width: 48px"> </li>
<li class="defaultTab"> </li>
</ul>
</div>
<div class="searchC">
<form action="http://s.hc360.com/cgi-bin/ls" id="searchform" method="post" name="searchform" target="_blank">
<input class="textInput" name="w" onfocus="this.value=''" size="30" style="font-size:13px; height:18px; line-height:18px;"/>
<input name="c" type="hidden" value="供应信息"/>
<img align="absmiddle" height="21" onclick="return onSubmitSearch(document.searchform);" onmousedown="return hcclick('?hcdetail_shoplog=shoptop&amp;hcdetail_secondlog=hc_searchbutton')" src="http://style.org.hc360.com/images/detail/images/home/sou.gif" style="cursor:pointer" width="55"/>
</form>
</div>
<script type="text/javascript">doclick(findObj("node1"),1)</script>
</div>
</div>
<div class="tip_bg"> </div>
</div>
<div class="hot-pro" id="highQualityMod" style="">
<div class="l-area-tit">
<h2>为您推荐热门产品</h2>
</div>
<div class="pro-main-con">
<ul id="highQualityList">
</ul>
</div>
</div>
<div class="d-footer">
<p>
<a href="http://hcgroup.hc360.com/" rel="nofollow">关于慧聪</a> | <a href="http://hcgroup.hc360.com/hcjj_fzjg.htm" rel="nofollow">分支机构</a> | <a href="http://agent.hc360.com/" rel="nofollow">买卖通渠道</a> | <a href="http://www.hc360.com/jm/franchisee.html" rel="nofollow">行业加盟</a> | <a href="http://www.hc360.com/ad/ad.htm" rel="nofollow">广告服务</a> | <a href="http://www.hc360.com/map-new.htm">网站导航</a>  | <a href="http://job.hc360.com/" rel="nofollow"><font color="red">诚聘英才</font></a> | <a href="mailto:b2b@hc360.com" rel="nofollow">意见投诉</a> | <a href="http://www.hc360.com/law.htm" rel="nofollow">法律声明</a> | <a href="http://help.hc360.com/" rel="nofollow">帮助中心</a> | <a href="http://www.hc360.com/link.htm">友情链接</a> | <a href="http://cn.hc360.com/">企业大全</a>
</p>
<p>版权所有 慧聪网 <a href="http://www.hc360.com/icp.html" rel="nofollow">京ICP证010051号</a> 通用网址：hc360</p>
<p>互联网药品信息服务资格证书：（京）－经营性－2010－0004　海淀公安局网络备案编号：1101081197</p>
<p>Copyright©2000-2013 hc360.com. All Rights Reserved</p>
</div>
<script src="http://style.org.hc360.com/js/build/source/core/hc.control.js" type="text/javascript"></script>
<script src="http://style.org.hc360.cn/js/module/p4p/dist/p4p.b2b.shop404.js" type="text/javascript"></script>
</body></html>