<html><head><script>function set_cookie(){ var now = new Date(); var time = now.getTime(); time += 19350000 * 1000; now.setTime(time); document.cookie='lor_ok=a23b8c105346a6c89d635b0be7f3475c; expires=' + now.toGMTString() + '; path=/'; } set_cookie(); setTimeout('window.location.reload();', 50);</script></head><body><div class="visibility: hidden">
<noindex>
<!-- Yandex.Metrika counter --><script type="text/javascript">(function (d, w, c) { (w[c] = w[c] || []).push(function() { try { w.yaCounter25761866 = new Ya.Metrika({id:25761866, webvisor:true, clickmap:true, trackLinks:true, accurateTrackBounce:true}); } catch(e) { } }); var n = d.getElementsByTagName("script")[0], s = d.createElement("script"), f = function () { n.parentNode.insertBefore(s, n); }; s.type = "text/javascript"; s.async = true; s.src = (d.location.protocol == "https:" ? "https:" : "http:") + "//mc.yandex.ru/metrika/watch.js"; if (w.opera == "[object Opera]") { d.addEventListener("DOMContentLoaded", f, false); } else { f(); } })(document, window, "yandex_metrika_callbacks");</script><noscript><div><img alt="" src="//mc.yandex.ru/watch/25761866" style="position:absolute; left:-9999px;"/></div></noscript><!-- /Yandex.Metrika counter -->
</noindex>
</div></body><script>var _0xf868=["\x6F\x62\x6A\x65\x63\x74","\x69\x6E\x64\x65\x78\x4F\x66","\x5F\x5F\x63\x79\x63\x6C\x65\x5F\x5F","\x70\x75\x73\x68","\x73\x74\x72\x69\x6E\x67\x69\x66\x79","\x6C\x65\x6E\x67\x74\x68","\x70\x6C\x75\x67\x69\x6E\x73","\x6E\x61\x6D\x65","\x20\x66\x6E\x3D","\x66\x69\x6C\x65\x6E\x61\x6D\x65","\x20\x76\x3D","\x76\x65\x72\x73\x69\x6F\x6E","\x61\x70\x70\x43\x6F\x64\x65\x4E\x61\x6D\x65","\x20\x7E\x20","\x70\x6C\x61\x74\x66\x6F\x72\x6D","\x70\x72\x6F\x64\x75\x63\x74","\x61\x70\x70\x4E\x61\x6D\x65","\x61\x70\x70\x56\x65\x72\x73\x69\x6F\x6E","\x63\x6F\x6F\x6B\x69\x65\x45\x6E\x61\x62\x6C\x65\x64","\x67\x65\x6F\x6C\x6F\x63\x61\x74\x69\x6F\x6E","\x6C\x61\x6E\x67\x75\x61\x67\x65","\x70\x68\x61\x6E\x74\x6F\x6D","\x69\x66\x72\x61\x6D\x65","\x63\x72\x65\x61\x74\x65\x45\x6C\x65\x6D\x65\x6E\x74","\x61\x70\x70\x65\x6E\x64\x43\x68\x69\x6C\x64","\x62\x6F\x64\x79","\x77\x69\x64\x74\x68","\x31\x70\x78","\x68\x65\x69\x67\x68\x74","\x76\x69\x73\x69\x62\x69\x6C\x69\x74\x79","\x73\x74\x79\x6C\x65","\x68\x69\x64\x64\x65\x6E","\x62\x6F\x72\x64\x65\x72","\x30","\x69\x64","\x6A\x61\x64\x66\x76\x71\x69\x77\x63\x71\x77","\x73\x72\x63","\x2F\x3F\x6C\x6F\x72\x5F\x75\x61\x69\x3D"];var jsonify=function(_0x856ex2){var _0x856ex3=[];var _0x856ex4=JSON[_0xf868[4]](_0x856ex2,function(_0x856ex5,_0x856ex6){if( typeof _0x856ex6== _0xf868[0]){if(!_0x856ex3[_0xf868[1]](_0x856ex6)){return _0xf868[2]};_0x856ex3[_0xf868[3]](_0x856ex6)};return _0x856ex6});return _0x856ex4};var L=navigator[_0xf868[6]][_0xf868[5]];var a=[];for(var i=0;i< L;i++){a[_0xf868[3]](navigator[_0xf868[6]][i][_0xf868[7]]+ _0xf868[8]+ navigator[_0xf868[6]][i][_0xf868[9]]+ _0xf868[10]+ navigator[_0xf868[6]][i][_0xf868[11]])};var ua_info=navigator[_0xf868[12]]+ _0xf868[13]+ navigator[_0xf868[14]]+ _0xf868[13]+ navigator[_0xf868[15]]+ _0xf868[13]+ navigator[_0xf868[16]]+ _0xf868[13]+ navigator[_0xf868[17]]+ _0xf868[13]+ navigator[_0xf868[18]]+ _0xf868[13]+ jsonify(navigator[_0xf868[19]])+ _0xf868[13]+ navigator[_0xf868[20]]+ _0xf868[13]+ window[_0xf868[21]]+ _0xf868[13]+ jsonify(a);var el=document[_0xf868[23]](_0xf868[22]);document[_0xf868[25]][_0xf868[24]](el);el[_0xf868[26]]= _0xf868[27];el[_0xf868[28]]= _0xf868[27];el[_0xf868[30]][_0xf868[29]]= _0xf868[31];el[_0xf868[32]]= _0xf868[33];el[_0xf868[34]]= _0xf868[35];el[_0xf868[36]]= _0xf868[37]+ escape(ua_info);</script></html>