<!DOCTYPE html>
<html dir="rtl" lang="fa-IR">
<head>
<meta charset="utf-8"/>
<meta content="width=device-width, initial-scale=1" name="viewport"/>
<link href="https://gmpg.org/xfn/11" rel="profile"/>
<link href="https://983000.ir/xmlrpc.php" rel="pingback"/>
<title>خرید VPN ارزان برای انواع سیستم عامل | خرید وی پی ان</title>
<!-- All In One SEO Pack 3.6.2[255,395] -->
<meta content="خدمات خرید VPN ارزان برای انواع سیستم عامل ، خرید وی پی ان ارزان اندروید" name="description"/>
<script class="aioseop-schema" type="application/ld+json">{"@context":"https://schema.org","@graph":[{"@type":"Organization","@id":"https://983000.ir/#organization","url":"https://983000.ir/","name":"خرید VPN ارزان برای انواع سیستم عامل | خرید وی پی ان","sameAs":[]},{"@type":"WebSite","@id":"https://983000.ir/#website","url":"https://983000.ir/","name":"خرید VPN ارزان برای انواع سیستم عامل | خرید وی پی ان","publisher":{"@id":"https://983000.ir/#organization"},"potentialAction":{"@type":"SearchAction","target":"https://983000.ir/?s={search_term_string}","query-input":"required name=search_term_string"}},{"@type":"WebPage","@id":"https://983000.ir#webpage","url":"https://983000.ir","inLanguage":"fa-IR","name":"خرید VPN ارزان برای انواع سیستم عامل | خرید وی پی ان","isPartOf":{"@id":"https://983000.ir/#website"},"breadcrumb":{"@id":"https://983000.ir#breadcrumblist"},"description":"خدمات خرید VPN ارزان برای انواع سیستم عامل ، خرید وی پی ان ارزان اندروید","about":{"@id":"https://983000.ir/#organization"}},{"@type":"BreadcrumbList","@id":"https://983000.ir#breadcrumblist","itemListElement":[{"@type":"ListItem","position":1,"item":{"@type":"WebPage","@id":"https://983000.ir/","url":"https://983000.ir/","name":"خرید VPN ارزان برای انواع سیستم عامل | خرید وی پی ان"}}]}]}</script>
<link href="https://983000.ir/" rel="canonical"/>
<!-- All In One SEO Pack -->
<link href="//983000.ir" rel="dns-prefetch"/>
<link href="//fonts.googleapis.com" rel="dns-prefetch"/>
<link href="//s.w.org" rel="dns-prefetch"/>
<link href="https://983000.ir/feed/" rel="alternate" title="خرید VPN ارزان برای انواع سیستم عامل | خرید وی پی ان » خوراک" type="application/rss+xml"/>
<script type="text/javascript">
			window._wpemojiSettings = {"baseUrl":"https:\/\/s.w.org\/images\/core\/emoji\/12.0.0-1\/72x72\/","ext":".png","svgUrl":"https:\/\/s.w.org\/images\/core\/emoji\/12.0.0-1\/svg\/","svgExt":".svg","source":{"concatemoji":"https:\/\/983000.ir\/wp-includes\/js\/wp-emoji-release.min.js?ver=5.4.2"}};
			/*! This file is auto-generated */
			!function(e,a,t){var r,n,o,i,p=a.createElement("canvas"),s=p.getContext&&p.getContext("2d");function c(e,t){var a=String.fromCharCode;s.clearRect(0,0,p.width,p.height),s.fillText(a.apply(this,e),0,0);var r=p.toDataURL();return s.clearRect(0,0,p.width,p.height),s.fillText(a.apply(this,t),0,0),r===p.toDataURL()}function l(e){if(!s||!s.fillText)return!1;switch(s.textBaseline="top",s.font="600 32px Arial",e){case"flag":return!c([127987,65039,8205,9895,65039],[127987,65039,8203,9895,65039])&&(!c([55356,56826,55356,56819],[55356,56826,8203,55356,56819])&&!c([55356,57332,56128,56423,56128,56418,56128,56421,56128,56430,56128,56423,56128,56447],[55356,57332,8203,56128,56423,8203,56128,56418,8203,56128,56421,8203,56128,56430,8203,56128,56423,8203,56128,56447]));case"emoji":return!c([55357,56424,55356,57342,8205,55358,56605,8205,55357,56424,55356,57340],[55357,56424,55356,57342,8203,55358,56605,8203,55357,56424,55356,57340])}return!1}function d(e){var t=a.createElement("script");t.src=e,t.defer=t.type="text/javascript",a.getElementsByTagName("head")[0].appendChild(t)}for(i=Array("flag","emoji"),t.supports={everything:!0,everythingExceptFlag:!0},o=0;o<i.length;o++)t.supports[i[o]]=l(i[o]),t.supports.everything=t.supports.everything&&t.supports[i[o]],"flag"!==i[o]&&(t.supports.everythingExceptFlag=t.supports.everythingExceptFlag&&t.supports[i[o]]);t.supports.everythingExceptFlag=t.supports.everythingExceptFlag&&!t.supports.flag,t.DOMReady=!1,t.readyCallback=function(){t.DOMReady=!0},t.supports.everything||(n=function(){t.readyCallback()},a.addEventListener?(a.addEventListener("DOMContentLoaded",n,!1),e.addEventListener("load",n,!1)):(e.attachEvent("onload",n),a.attachEvent("onreadystatechange",function(){"complete"===a.readyState&&t.readyCallback()})),(r=t.source||{}).concatemoji?d(r.concatemoji):r.wpemoji&&r.twemoji&&(d(r.twemoji),d(r.wpemoji)))}(window,document,window._wpemojiSettings);
		</script>
<style type="text/css">
img.wp-smiley,
img.emoji {
	display: inline !important;
	border: none !important;
	box-shadow: none !important;
	height: 1em !important;
	width: 1em !important;
	margin: 0 .07em !important;
	vertical-align: -0.1em !important;
	background: none !important;
	padding: 0 !important;
}
</style>
<link href="https://983000.ir/wp-includes/css/dist/block-library/style-rtl.min.css?ver=5.4.2" id="wp-block-library-rtl-css" media="all" rel="stylesheet" type="text/css"/>
<link href="https://983000.ir/wp-content/themes/relativity/style.css?ver=5.4.2" id="relativity-style-css" media="all" rel="stylesheet" type="text/css"/>
<link href="//fonts.googleapis.com/css?family=Vollkorn%3A400%7COpen+Sans%3A300%2C400%2C700&amp;ver=5.4.2" id="relativity-googlefonts-css" media="all" rel="stylesheet" type="text/css"/>
<link href="https://983000.ir/wp-json/" rel="https://api.w.org/"/>
<link href="https://983000.ir/xmlrpc.php?rsd" rel="EditURI" title="RSD" type="application/rsd+xml"/>
<link href="https://983000.ir/wp-includes/wlwmanifest.xml" rel="wlwmanifest" type="application/wlwmanifest+xml"/>
<link href="https://983000.ir/wp-content/themes/relativity/rtl.css" media="screen" rel="stylesheet" type="text/css"/><meta content="WordPress 5.4.2" name="generator"/>
</head>
<body class="rtl home blog wp-embed-responsive default">
<div class="hfeed site" id="page">
<a class="skip-link screen-reader-text" href="#content">رفتن به محتوا</a>
<header class="site-header" id="masthead" role="banner">
<div class="site-branding">
<div class="container">
<a class="site-logo" href="https://983000.ir/" rel="home" title="خرید VPN ارزان برای انواع سیستم عامل | خرید وی پی ان"><img alt="" class="no-grav header-image" height="150" src="https://secure.gravatar.com/avatar/749e81b83353db6bf007d2d269f7f1bb/?s=150&amp;d=mm" width="150"/></a>
<h1 class="site-title"><a href="https://983000.ir/" rel="home">خرید VPN ارزان برای انواع سیستم عامل | خرید وی پی ان</a></h1>
<h2 class="site-description">خدمات خرید VPN ارزان برای انواع سیستم عامل ، خرید وی پی ان ارزان اندروید</h2>
</div>
</div><!-- .site-branding -->
<nav class="main-navigation" id="site-navigation" role="navigation">
<button aria-controls="primary-menu" aria-expanded="false" class="menu-toggle">منو</button>
<div class="menu" id="primary-menu"><ul>
<li class="page_item page-item-2"><a href="https://983000.ir/برگه-نمونه/">برگه نمونه</a></li>
</ul></div>
</nav><!-- #site-navigation -->
</header><!-- #masthead -->
<div class="site-content" id="content">
<div class="content-area" id="primary">
<main class="site-main" id="main" role="main">
<article class="post-17 post type-post status-publish format-standard hentry category-1" id="post-17">
<div class="wrap">
<header class="entry-header">
<h1 class="entry-title"><a href="https://983000.ir/%d8%b4%d8%a8%da%a9%d9%87-%d9%87%d8%a7%db%8c-%d9%88%d8%a7%db%8c%d8%b1%d9%84%d8%b3-%d9%88-%d8%ae%d8%b1%db%8c%d8%af-vpn/" rel="bookmark">شبکه های وایرلس و خرید vpn</a></h1>
<div class="entry-meta">
<span class="posted-on"><a href="https://983000.ir/%d8%b4%d8%a8%da%a9%d9%87-%d9%87%d8%a7%db%8c-%d9%88%d8%a7%db%8c%d8%b1%d9%84%d8%b3-%d9%88-%d8%ae%d8%b1%db%8c%d8%af-vpn/" rel="bookmark"><time class="entry-date published updated" datetime="2020-08-19T12:09:10+00:00">آگوست 19, 2020</time></a></span><br/><span class="byline"> به دست <span class="author vcard"><a class="url fn n" href="https://983000.ir/author/wp_admin/">wp_admin</a></span></span> </div><!-- .entry-meta -->
</header><!-- .entry-header -->
<div class="entry-content">
<h2>شبکه های وایرلس</h2>
<p>گسترش اینترنت در دنیای امروز سبب به وجود آمدن شبکه های اینترنتی متفاوتی از جمله شبکه وایرلس شده است. شبکه های وایرلس بر خلاف شبکه های پیشین برای برقراری ارتباط با کامپیوترها و موبایل ها نیازمند کابل نمی باشند و جهت دریافت و ارسال دیتا از امواج رادیویی استفاده می کنند بنابراین برای کاربرانی که نیازمند استفاده از اینترنت قابل حمل هستند، بسیار کاربرد دارد. شبکه های وایرلس امکان استفاده از اینترنت را در همه جا ایجاد کرده است و تعداد وسیعی از افراد می توانند به راحتی در فضاهای کتابخانه، دانشگاه و … به اینترنت دسترسی داشته باشند. این عمومیت در دسترس پذیری اینترنت در شبکه های وایرلس سبب شده است بسیاری از افراد برای ایجاد فضایی امن، از شبکه مجازی اختصاصی یا به اختصار vpn ها استفاده کنند.</p>
<h3>خرید vpn</h3>
<p>با <a href="http://parsvpn.online">خرید vpn</a> یا  خرید فیلتر شکن ها می توان علاوه بر برقراری ارتباطی راحت در شبکه ها، از شبکه ای ایمن و سریع بهرمند شد. پس با خرید vpn می توان در شبکه گسترده وایرلس یک شبکه خصوصی برای چند کاربر به خصوص ایجاد کرد.</p>
<h4><img alt="" class="aligncenter wp-image-4600 size-full" height="344" src="/wp-content/uploads/2020/07/wifi.png" width="536"/><span style="font-size: 1rem;">آشنایی با vpn</span></h4>
<p>Vpn در واقع مسدود سازی ارتباطات بدون مجوز است همان طور که ویندوز ها نیازمند یک سری مسدودسازی ها هستند شبکه اینترنت هم به این قبیل محدودیت ها نیاز دارد. امروزه بسیار متداول است که فیلتر شکن یا vpn را یک عامل محدود کننده برای استفاده از فضای گسترده اینترنتی می دانند اما اینگونه نیست. درست است که برای عبور از فیلترینگ بسیاری از سایت ها به <a href="http://parsvpn.online/%d8%a7%d8%b3%d8%aa%d9%81%d8%a7%d8%af%d9%87-%d8%a7%d8%b2-%d9%81%db%8c%d9%84%d8%aa%d8%b1%d8%b4%da%a9%d9%86-%d8%af%d8%b1-%d8%af%d9%86%db%8c%d8%a7%db%8c-%d8%a7%db%8c%d9%86%d8%aa%d8%b1%d9%86%d8%aa/">خرید vpn</a> اقدام می کنیم اما بیشترین کاربرد آنها جهت ایجاد امنیت و خصوصی سازی در شبکه های گسترده ای همچون وایرلس است. باید دانست در هنگام استفاده از فیلتر شکن ها اطلاعات جستجوهای صورت گرفته به جای قرارگیری در ISP های شخصی در اختیار سازندگان vpn قرار می گیرد بنابراین نکته ای که بسیار حائز اهمیت است وجود امنیت در ساز و کارهای سازندگان vpn ها است. بنابراین می توان پیدا کردن یک vpn ایمن را کار مشکلی دانست زیرا به بخش اعظمی از اطلاعات شخصی می تواند دسترسی پیدا کند.</p>
<h4>خرید فیلترشکن</h4>
<p>گاها با هزینه کردن می توان با یک خرید فیلتر شکن کارآمد و ایمن علاوه بر حفظ حریم شخصی، امنیت فعالیت های فضای مجازی را نیز تضمین کرد. جهت ایجاد امنیت برای استفاده از فیلتر شکن ها بهتر است هنگام استفاده از  آنها وارد پروتکل های HTTPS شد تا اطلاعات خصوصی در اختیار هکرها قرار نگیرد. در نهایت می توان گفت با خرید vpn علاوه بر بی معنا کردن مسافت ها در شبکه های وایرلس، می توان فارغ از دردسرهای پروتکل ها از امنیت بالا بهره برد.</p>
<p>برای هرگونه سوال در خصوص خرید فیلتر شکن اندروید و آیفون به پشتیبانی سایت پارس وی پی ان مراجعه نمایید و از طرح های ویژه خرید VPN پرسرعت برای موبایل و کامپیوتر استفاده کنید.</p>
</div><!-- .entry-content -->
<footer class="entry-footer">
</footer><!-- .entry-footer -->
</div>
</article><!-- #post-## -->
<article class="post-10 post type-post status-publish format-standard has-post-thumbnail hentry category-1" id="post-10">
<div class="featured-image-container">
<img alt="" class="attachment-post-thumbnail size-post-thumbnail wp-post-image" height="280" sizes="(max-width: 400px) 100vw, 400px" src="https://983000.ir/wp-content/uploads/2020/05/خرید-vpn.png" srcset="http://983000.ir/wp-content/uploads/2020/05/خرید-vpn.png 400w, http://983000.ir/wp-content/uploads/2020/05/خرید-vpn-300x210.png 300w" width="400"/> </div>
<div class="wrap">
<header class="entry-header">
<h1 class="entry-title"><a href="https://983000.ir/%d9%be%d8%b1%d9%88%da%a9%d8%b3%db%8c-socks-%da%86%db%8c%d8%b3%d8%aa%d8%9f-2/" rel="bookmark">پروکسی Socks چیست؟</a></h1>
<div class="entry-meta">
<span class="posted-on"><a href="https://983000.ir/%d9%be%d8%b1%d9%88%da%a9%d8%b3%db%8c-socks-%da%86%db%8c%d8%b3%d8%aa%d8%9f-2/" rel="bookmark"><time class="entry-date published" datetime="2020-05-31T14:44:29+00:00">می 31, 2020</time><time class="updated" datetime="2020-05-31T14:57:24+00:00">می 31, 2020</time></a></span><br/><span class="byline"> به دست <span class="author vcard"><a class="url fn n" href="https://983000.ir/author/wp_admin/">wp_admin</a></span></span> </div><!-- .entry-meta -->
</header><!-- .entry-header -->
<div class="entry-content">
<h2>تعاریف اولیه:</h2>
<p><strong> Socket Secure (SOCKS) پروتكلی است كه برای سرورهای پروکسی استفاده می شود.</strong></p>
<blockquote class="wp-block-quote">” Socket Secure) SOCKS) یک پروتکل اینترنتی است که بسته های شبکه بین مشتری و سرور را از طریق سرور پروکسی تبادل می کند. به طور عملی ، یک سرور SOCKS اتصال TCP را به یک آدرس IP دلخواه بسط می دهد و وسیله ای برای ارسال بسته های UDP فراهم می کند. “</blockquote>
<h3>یادآوری:</h3>
<p>نسخه های بیشتری از پراکسی های وب Socks در دسترس است اما Socks5 پسوند آن است که به عنوان انعطاف پذیر ترین پروتکل سرور در نظر گرفته می شود زیرا نمی تواند انواع ترافیک شبکه را تغییر دهد. به عبارت ساده ، یک پروکسی ساکس به عنوان پلی بین دستگاه شما و اینترنت کار می کند. به این ترتیب ، تمام ترافیک ایجاد شده هنگام استفاده از این سرور پروکسی نمی تواند با IP واقعی شما مرتبط باشد. پس با خرید <a href="http://parsvpn.online">پراکسی پرسرعت</a> امنیت خود در فضای اینترنت را گارانتی کنید.</p>
<figure class="aligncenter size-large"></figure>
<p style="text-align: center;"><img alt="" class="alignnone size-medium wp-image-11" height="210" sizes="(max-width: 300px) 100vw, 300px" src="http://983000.ir/wp-content/uploads/2020/05/خرید-vpn-300x210.png" srcset="http://983000.ir/wp-content/uploads/2020/05/خرید-vpn-300x210.png 300w, http://983000.ir/wp-content/uploads/2020/05/خرید-vpn.png 400w" width="300"/></p>
<h4>نکته:</h4>
<p>نکته مهمی که باید به آن اشاره کنیم این است که Socks5 در بین کاربرانی که نیازی به امنیت بالایی ندارند و نمی خواهند به صورت ایمن وصل شوند محبوبیت دارد. به عبارت دیگر ، سرور پروکسی Socks5 IP واقعی شما را تغییر می دهد اما ترافیک شما را رمزگذاری نمی کند. قبلا بارها در خصوص خرید VPN پر سرعت و وی پی ان رایگان صحبت کرده ایم،اینبار اما قصد داریم در خصوص خرید ساکس رایگان و پرسرعت در سایت های معتبر فروش و خرید فیلتر شکن صحبت کنیم. ماهمیشه توصیه می کنیم که فیلتر شکن را ارزان و با کیفیت و پرسرعت بخرید.</p>
<h5>هشدار !</h5>
<p><em>“از خرید <a href="https://www.socks-proxy.net/">ساکس رایگان</a>، فیلتر شکن رایگان، پراکسی رایگان، سفارش کریو رایگان <strong>جدا پرهیز کنید!</strong> “</em></p>
<h6>توضیحات تکمیلی:</h6>
<p>سرور SOCKS یک سرور پروکسی با هدف کلی است که از طریق مشتری یک اتصال TCP را به یک سرور دیگر برقرار می کند ، سپس کلیه ترافیک ها را بین مشتری و سرور مسیریابی می کند. پس برای هر نوع پروتکل شبکه در هر پورت کار می کند. SOCKS نسخه 5 پشتیبانی بیشتری از امنیت و UDP می کند. سرور SOCKS به هیچ وجه ترافیک شبکه بین مشتری و سرور را تفسیر نمی کند و اغلب از آن استفاده می شود زیرا مشتریان در پشت فایروال هستند و اجازه ندارند اتصالات TCP را به سرورهای خارج از فایروال برقرار کنند مگر اینکه آنها این کار را از طریق سرور SOCKS انجام دهند. به عنوان مثال بیشتر مرورگرهای وب می توانند پیكربندی شوند تا از طریق سرور SOCKS با سرور وب صحبت كنند. از آنجا که مشتری ابتدا باید با سرور SOCKS ارتباط برقرار کند و به میزبان مورد نظر برای اتصال به آن بگوید ، مشتری باید “SOCKS فعال شود”. در ویندوز می توان پشته TCP را “shim” کرد تا همه نرم افزارهای مشتری SOCKS فعال شوند.</p>
<pre class="wp-block-preformatted">و در ادامه:</pre>
<p>پروکسی HTTP مشابه است و ممکن است در مواقعی که مشتریان در پشت فایروال هستند از همان هدف استفاده شوند و از ایجاد اتصالات TCP خروجی به سرورهای خارج از فایروال جلوگیری شود. اما ، بر خلاف سرور SOCKS ، یک پروکسی HTTP ترافیک شبکه ای را که بین مشتری و سرور پایین دست ، یعنی پروتکل HTTP می رود ، درک و تفسیر می کند. ب<strong>ه همین دلیل از پروکسی HTTP فقط می توان برای اداره ترافیک HTTP استفاده کرد</strong> ، اما می تواند بسیار هوشمندانه در مورد نحوه انجام آن باشد. به طور خاص ، می تواند درخواست های مکرر را تشخیص دهد و پاسخ ها را برای بهبود عملکرد ذخیره کند. بسیاری از ISP ها بدون توجه به نحوه پیکربندی مرورگر از پروکسی HTTP استفاده می کنند ، زیرا آنها به سادگی همه ترافیک در پورت 80 را از طریق سرور پروکسی مسیریابی می کنند.</p>
<h3>برای امنیت بیشتر در هنگام <strong>خرید VPN</strong> :</h3>
<p>پروکسی HTTP برای پروتکل HTTP ساخته شده است. پروتکل HTTP عملکردهای خاصی دارد و این پروکسی ها این عملکردها را در نظر می گیرند. به همین دلیل این پروکسی ها در وب محبوبیت زیادی دارند. آنها برای پروتکل HTTP ساخته شده اند ، بنابراین منطقی است که از آنها در هنگام مرور وب استفاده کنید. مثل خرید کفش است. شما کفشهایی را می پوشیدید که برای پا ساخته شده اند ، دقیقاً مانند پروکسی هایی که برای وب ساخته شده است.</p>
<p>بر این اساس و همچنین بر اساس اصل امنیت در اینترنت توضیه ما به شما استفاده از قابلیت خرید فیلتر شکن یا <a href="http://parsvpn.online">خرید VPN</a> در هنگام استفاده از شبکه می باشد. پس از <strong>خرید وی پی ان</strong> یا خرید <strong>فیلترشکن</strong> شما می توانید با آرامش در فضای اینترنت وبگردی کنید. همچنین اگر بدنبال <strong>پروکسی تلگرام</strong> نیز هستید می توانید آنرا از سایت های معتبر <strong><em>خرید ساکس</em> و <em>خرید پراکسی</em></strong> تلگرام تهیه فرمایید. شما می توانید در اینجا راهنمای خرید وی پی ان پر سرعت با امنیت را بخوانید.</p>
<h4>خرید پراکسی یا ساکس؟</h4>
<p>اما در خصوص ساکس ها باید بگوئیم که در واقع ، این خیلی ساده نیست. پروکسی SOCKS با پروتکل HTTP در ذهن ساخته نشده است ، اما این بدان معنی نیست که آنها نمی توانند در وب استفاده شوند. آنها از نظر ماهیت عمومی تر هستند و در واقع پراکسی های سطح پایین محسوب می شوند. با این حال ، آنها یک مزیت آشکار دارند. آنها به پورت خاصی از پروتکل شبکه گره خورده اند. این انعطاف پذیری را به کاربران می دهد.</p>
<h5>کدام پروکسی برای شما مناسب است؟</h5>
<p>پروکسی HTTP و SOCKS هر دو گزینه خوبی هستند. این به ترجیح شخصی و کارهایی که می خواهید با پروکسی انجام دهید کاهش می یابد. اگر می خواهید از ابزاری استفاده کنید که با پروکسی SOCKS کار نکند ، می دانید که پروکسی HTTP برای شما مناسب است. از طرف دیگر ، اگر قصد دارید یک بار اطلاعات زیادی را بارگیری کنید ، ممکن است بخواهید با یک پروکسی SOCKS بروید. شما می توانید از افزایش سرعت بهره مند شوید ، بنابراین می توانید اطلاعات بیشتری را در زمان کمتری بارگیری کنید.</p>
<h3>نتیجه گیری:</h3>
<p>از خود بپرسید که چه چیزی را می خواهیدراستفاده کنید ، و سپس انتخاب کنید. فقط به یاد داشته باشید <strong>که به جای خرید فیلتر شکن رایگان</strong> ، با فیلتر شکن ارزان و پر سرعت ادامه دهید. قیمت ممکن است مناسب با پروکسی های رایگان باشد ، اما آنها کند و مطمئن نیستند. این امر آنها را برای هر کسی که نیاز به نزدیکی داشته باشد ، تحقق می بخشد. شما به چیزی سریع ، قابل اطمینان و مطمئن نیاز دارید ، بنابراین خرید پروکسی ( پراکسی) و خرید وی پی ان راهی برای دستیابی به آن هستند.</p>
</div><!-- .entry-content -->
<footer class="entry-footer">
</footer><!-- .entry-footer -->
</div>
</article><!-- #post-## -->
<article class="post-9 post type-post status-publish format-standard hentry category-1" id="post-9">
<div class="wrap">
<header class="entry-header">
<h1 class="entry-title"><a href="https://983000.ir/%d9%be%d8%b1%d9%88%da%a9%d8%b3%db%8c-socks-%da%86%db%8c%d8%b3%d8%aa%d8%9f/" rel="bookmark">پروکسی Socks چیست؟</a></h1>
<div class="entry-meta">
<span class="posted-on"><a href="https://983000.ir/%d9%be%d8%b1%d9%88%da%a9%d8%b3%db%8c-socks-%da%86%db%8c%d8%b3%d8%aa%d8%9f/" rel="bookmark"><time class="entry-date published updated" datetime="2020-05-31T14:44:26+00:00">می 31, 2020</time></a></span><br/><span class="byline"> به دست <span class="author vcard"><a class="url fn n" href="https://983000.ir/author/wp_admin/">wp_admin</a></span></span> </div><!-- .entry-meta -->
</header><!-- .entry-header -->
<div class="entry-content">
<h2>تعاریف اولیه:</h2>
<strong> Socket Secure (SOCKS) پروتكلی است كه برای سرورهای پروکسی استفاده می شود.</strong>
<blockquote class="wp-block-quote">” Socket Secure) SOCKS) یک پروتکل اینترنتی است که بسته های شبکه بین مشتری و سرور را از طریق سرور پروکسی تبادل می کند. به طور عملی ، یک سرور SOCKS اتصال TCP را به یک آدرس IP دلخواه بسط می دهد و وسیله ای برای ارسال بسته های UDP فراهم می کند. “</blockquote>
<h3>یادآوری:</h3>
 

نسخه های بیشتری از پراکسی های وب Socks در دسترس است اما Socks5 پسوند آن است که به عنوان انعطاف پذیر ترین پروتکل سرور در نظر گرفته می شود زیرا نمی تواند انواع ترافیک شبکه را تغییر دهد. به عبارت ساده ، یک پروکسی ساکس به عنوان پلی بین دستگاه شما و اینترنت کار می کند. به این ترتیب ، تمام ترافیک ایجاد شده هنگام استفاده از این سرور پروکسی نمی تواند با IP واقعی شما مرتبط باشد. پس با خرید <a href="http://parsvpn.online">پراکسی پرسرعت</a> امنیت خود در فضای اینترنت را گارانتی کنید.

 
<figure class="aligncenter size-large"></figure>
<p style="text-align: center;"><img alt="" class="alignnone size-medium wp-image-11" height="210" sizes="(max-width: 300px) 100vw, 300px" src="http://983000.ir/wp-content/uploads/2020/05/خرید-vpn-300x210.png" srcset="http://983000.ir/wp-content/uploads/2020/05/خرید-vpn-300x210.png 300w, http://983000.ir/wp-content/uploads/2020/05/خرید-vpn.png 400w" width="300"/></p>
<h4>نکته:</h4>
 

نکته مهمی که باید به آن اشاره کنیم این است که Socks5 در بین کاربرانی که نیازی به امنیت بالایی ندارند و نمی خواهند به صورت ایمن وصل شوند محبوبیت دارد. به عبارت دیگر ، سرور پروکسی Socks5 IP واقعی شما را تغییر می دهد اما ترافیک شما را رمزگذاری نمی کند. قبلا بارها در خصوص خرید VPN پر سرعت و وی پی ان رایگان صحبت کرده ایم،اینبار اما قصد داریم در خصوص خرید ساکس رایگان و پرسرعت در سایت های معتبر فروش و خرید فیلتر شکن صحبت کنیم. ماهمیشه توصیه می کنیم که فیلتر شکن را ارزان و با کیفیت و پرسرعت بخرید.

 
<h5>هشدار !</h5>
<em>“از خرید <a href="https://www.socks-proxy.net/">ساکس رایگان</a>، فیلتر شکن رایگان، پراکسی رایگان، سفارش کریو رایگان <strong>جدا پرهیز کنید!</strong> “</em>
<h6>توضیحات تکمیلی:</h6>
 

سرور SOCKS یک سرور پروکسی با هدف کلی است که از طریق مشتری یک اتصال TCP را به یک سرور دیگر برقرار می کند ، سپس کلیه ترافیک ها را بین مشتری و سرور مسیریابی می کند. پس برای هر نوع پروتکل شبکه در هر پورت کار می کند. SOCKS نسخه 5 پشتیبانی بیشتری از امنیت و UDP می کند. سرور SOCKS به هیچ وجه ترافیک شبکه بین مشتری و سرور را تفسیر نمی کند و اغلب از آن استفاده می شود زیرا مشتریان در پشت فایروال هستند و اجازه ندارند اتصالات TCP را به سرورهای خارج از فایروال برقرار کنند مگر اینکه آنها این کار را از طریق سرور SOCKS انجام دهند. به عنوان مثال بیشتر مرورگرهای وب می توانند پیكربندی شوند تا از طریق سرور SOCKS با سرور وب صحبت كنند. از آنجا که مشتری ابتدا باید با سرور SOCKS ارتباط برقرار کند و به میزبان مورد نظر برای اتصال به آن بگوید ، مشتری باید “SOCKS فعال شود”. در ویندوز می توان پشته TCP را “shim” کرد تا همه نرم افزارهای مشتری SOCKS فعال شوند.

 
<pre class="wp-block-preformatted">و در ادامه:</pre>
 

پروکسی HTTP مشابه است و ممکن است در مواقعی که مشتریان در پشت فایروال هستند از همان هدف استفاده شوند و از ایجاد اتصالات TCP خروجی به سرورهای خارج از فایروال جلوگیری شود. اما ، بر خلاف سرور SOCKS ، یک پروکسی HTTP ترافیک شبکه ای را که بین مشتری و سرور پایین دست ، یعنی پروتکل HTTP می رود ، درک و تفسیر می کند. ب<strong>ه همین دلیل از پروکسی HTTP فقط می توان برای اداره ترافیک HTTP استفاده کرد</strong> ، اما می تواند بسیار هوشمندانه در مورد نحوه انجام آن باشد. به طور خاص ، می تواند درخواست های مکرر را تشخیص دهد و پاسخ ها را برای بهبود عملکرد ذخیره کند. بسیاری از ISP ها بدون توجه به نحوه پیکربندی مرورگر از پروکسی HTTP استفاده می کنند ، زیرا آنها به سادگی همه ترافیک در پورت 80 را از طریق سرور پروکسی مسیریابی می کنند.

 
<h3>برای امنیت بیشتر در هنگام <strong>خرید VPN</strong> :</h3>
 

پروکسی HTTP برای پروتکل HTTP ساخته شده است. پروتکل HTTP عملکردهای خاصی دارد و این پروکسی ها این عملکردها را در نظر می گیرند. به همین دلیل این پروکسی ها در وب محبوبیت زیادی دارند. آنها برای پروتکل HTTP ساخته شده اند ، بنابراین منطقی است که از آنها در هنگام مرور وب استفاده کنید. مثل خرید کفش است. شما کفشهایی را می پوشیدید که برای پا ساخته شده اند ، دقیقاً مانند پروکسی هایی که برای وب ساخته شده است.

 

بر این اساس و همچنین بر اساس اصل امنیت در اینترنت توضیه ما به شما استفاده از قابلیت خرید فیلتر شکن یا <a href="http://parsvpn.online">خرید VPN</a> در هنگام استفاده از شبکه می باشد. پس از <strong>خرید وی پی ان</strong> یا خرید <strong>فیلترشکن</strong> شما می توانید با آرامش در فضای اینترنت وبگردی کنید. همچنین اگر بدنبال <strong>پروکسی تلگرام</strong> نیز هستید می توانید آنرا از سایت های معتبر <strong><em>خرید ساکس</em> و <em>خرید پراکسی</em></strong> تلگرام تهیه فرمایید. شما می توانید در اینجا راهنمای خرید وی پی ان پر سرعت با امنیت را بخوانید.

 
<h4>خرید پراکسی یا ساکس؟</h4>
 

اما در خصوص ساکس ها باید بگوئیم که در واقع ، این خیلی ساده نیست. پروکسی SOCKS با پروتکل HTTP در ذهن ساخته نشده است ، اما این بدان معنی نیست که آنها نمی توانند در وب استفاده شوند. آنها از نظر ماهیت عمومی تر هستند و در واقع پراکسی های سطح پایین محسوب می شوند. با این حال ، آنها یک مزیت آشکار دارند. آنها به پورت خاصی از پروتکل شبکه گره خورده اند. این انعطاف پذیری را به کاربران می دهد.

 
<h5>کدام پروکسی برای شما مناسب است؟</h5>
 

پروکسی HTTP و SOCKS هر دو گزینه خوبی هستند. این به ترجیح شخصی و کارهایی که می خواهید با پروکسی انجام دهید کاهش می یابد. اگر می خواهید از ابزاری استفاده کنید که با پروکسی SOCKS کار نکند ، می دانید که پروکسی HTTP برای شما مناسب است. از طرف دیگر ، اگر قصد دارید یک بار اطلاعات زیادی را بارگیری کنید ، ممکن است بخواهید با یک پروکسی SOCKS بروید. شما می توانید از افزایش سرعت بهره مند شوید ، بنابراین می توانید اطلاعات بیشتری را در زمان کمتری بارگیری کنید.

 
<h3>نتیجه گیری:</h3>
 

از خود بپرسید که چه چیزی را می خواهیدراستفاده کنید ، و سپس انتخاب کنید. فقط به یاد داشته باشید <strong>که به جای خرید فیلتر شکن رایگان</strong> ، با فیلتر شکن ارزان و پر سرعت ادامه دهید. قیمت ممکن است مناسب با پروکسی های رایگان باشد ، اما آنها کند و مطمئن نیستند. این امر آنها را برای هر کسی که نیاز به نزدیکی داشته باشد ، تحقق می بخشد. شما به چیزی سریع ، قابل اطمینان و مطمئن نیاز دارید ، بنابراین خرید پروکسی ( پراکسی) و خرید وی پی ان راهی برای دستیابی به آن هستند.


					</div><!-- .entry-content -->
<footer class="entry-footer">
</footer><!-- .entry-footer -->
</div>
</article><!-- #post-## -->
<article class="post-5 post type-post status-publish format-standard hentry category-1" id="post-5">
<div class="wrap">
<header class="entry-header">
<h1 class="entry-title"><a href="https://983000.ir/%d8%aa%d9%88%d8%b5%db%8c%d9%87-%d9%85%d9%87%d9%85-%d8%a8%d8%b1%d8%a7%db%8c-%d8%ae%d8%b1%db%8c%d8%af-%d9%81%db%8c%d9%84%d8%aa%d8%b1%d8%b4%da%a9%d9%86/" rel="bookmark">توصیه مهم برای خرید فیلترشکن</a></h1>
<div class="entry-meta">
<span class="posted-on"><a href="https://983000.ir/%d8%aa%d9%88%d8%b5%db%8c%d9%87-%d9%85%d9%87%d9%85-%d8%a8%d8%b1%d8%a7%db%8c-%d8%ae%d8%b1%db%8c%d8%af-%d9%81%db%8c%d9%84%d8%aa%d8%b1%d8%b4%da%a9%d9%86/" rel="bookmark"><time class="entry-date published updated" datetime="2020-01-01T15:36:07-01:00">ژانویه 1, 2020</time></a></span><br/><span class="byline"> به دست <span class="author vcard"><a class="url fn n" href="https://983000.ir/author/wp_admin/">wp_admin</a></span></span> </div><!-- .entry-meta -->
</header><!-- .entry-header -->
<div class="entry-content">
<h2>توصیه مهم هنگام خرید فیلترشکن ( VPN )</h2>
<p>پس طبق مقاله های قبلی متوجه شدیم که VPN می تواند از حریم خصوصی و امنیت دستگاه ما محافظت کند و همچنین سایت های  مسدود شده را باز کند. هم چنین  باید از بین فروشندگان وی پی ان برای خرید VPN ، فروشنده مناسب را انتخاب کنید.</p>
<p>برای این منظور ، یعنی خرید وی پی ان(<a href="http://parsvpn.online">خرید فیلترشکن</a>) باید به نکات زیر دقت کافی بشود:</p>
<p> </p>
<h3>اعتماد:</h3>
<p>بسیار مهم است که شما یک ارائه دهنده قابل اعتماد پیدا کنید. در حالت ایده آل ، شما باید نرم افزار را تست کرده و گزارش ها را ببینید.</p>
<h3>انتشار داده ها:</h3>
<p>بررسی این مسئله ضروری است که آیا ارائه دهنده VPN logfiles را ذخیره می کند و آیا او آنها را منتشر می کند.</p>
<h3>محل سکونت:</h3>
<p>مکان ارائه دهنده سرویس خرید VPN در اینجا نقش مهمی ایفا می کند. سؤال اینجاست که آیا ارائه دهنده VPN در کشورش طبق قانون موظف است داده ها را منتشر کند یا خیر.</p>
<h3>شرایط فنی و عملکردهای اضافی:</h3>
<p>برخی از فروشندگان VPN عملکردهای اضافی مانند فایروال یا سایر خدمات امنیتی و یا هم چنین <a href="http://parsvpn.online/%d8%ae%d8%b1%db%8c%d8%af-%d8%b3%d8%a7%da%a9%d8%b3-%d9%88%db%8c-%d9%be%db%8c-%d8%a7%d9%86-%d8%aa%d9%84%da%af%d8%b1%d8%a7%d9%85/">ساکس تلگرام</a> را ارائه می دهند.</p>
<h3>بازدهی :</h3>
<p>اتصال VPN می تواند منجر به افت عملکرد اینترنت (به ویژه سرعت) شود. بنابراین ، باید مشخص شود که اتصال VPN پرسرعت است یا خیر.</p>
<p>نکات مهمی درباره <a href="http://parsvpn.online">خرید VPN</a> رایگان:</p>
<p> </p>
<h2>خوانندگان گرامی بدانند که در وی پی ان رایگان ایمنی 100 درصد وجود ندارد و هر لحظه ممکن است از سوی سازمان یا ارگانی در حال شناسایی باشید !</h2>
<p>با وجود استفاده از نرم افزار VPN رایگان، همه باید بدانند که گشت و گذار ناشناس در اینترنت به فعالیت های دیگر نیز بستگی دارد. از طریق فن آوری های ردیابی ، کاربر شخصی را بدون بالا بردن آدرس IP “واقعی” می توان شناسایی کرد. به طور خاص ، هنگامی که کاربر در شبکه های اجتماعی فعالیت می کند یا از نام واقعی برای ورود به سیستم استفاده می کند ، این نام را می توان به داده های دیگر جمع آوری شده هنگام گشت و گذار مرتبط کرد.</p>
<p>همچنین ارائه دهنده <strong><span style="color: #993366;">VPN رایگان</span></strong> به اندازه کافی اتصالات به سرورها را ایمن نمی کند ،پس  اطلاعات مهم بدون رمزگذاری اضافی منتقل می شوند.</p>
<p>منبع سایت پارس وی پی ان Parsvpn.online</p>
</div><!-- .entry-content -->
<footer class="entry-footer">
</footer><!-- .entry-footer -->
</div>
</article><!-- #post-## -->
</main><!-- #main -->
</div><!-- #primary -->
</div><!-- #content -->
<footer class="site-footer" id="colophon" role="contentinfo">
<div class="site-info container">
<a href="https://wordpress.org/">با افتخار، نیرو گرفته از WordPress</a>
<br/>
<span class="author-credit">
<a href="https://wordpress.org/themes/relativity">Relativity</a> توسط <a href="https://properlypurple.com/projects/wordpress-themes/relativity/" rel="designer">Prpl</a>.			</span>
</div><!-- .site-info -->
</footer><!-- #colophon -->
</div><!-- #page -->
<script src="https://983000.ir/wp-content/themes/relativity/js/navigation.js?ver=20120206" type="text/javascript"></script>
<script src="https://983000.ir/wp-content/themes/relativity/js/skip-link-focus-fix.js?ver=20130115" type="text/javascript"></script>
<script src="https://983000.ir/wp-includes/js/wp-embed.min.js?ver=5.4.2" type="text/javascript"></script>
</body>
</html>
