<!DOCTYPE html>
<html lang="ja">
<head>
<meta charset="utf-8"/>
<title>ããã³ã·ã§ã³å£²å´ã®éäººãåãã¦ã§ãå®å¿ãªå£²å´æ´»åãµãã¼ããµã¤ã</title>
<meta content="width=device-width,initial-scale=1" name="viewport"/>
<meta content="telephone=no" name="format-detection"/>
<meta content="ãã³ã·ã§ã³å£²å´,æ»å®" name="keywords"/>
<meta content="ãã³ã·ã§ã³å£²å´ã®éäººã§ã¯ããã³ã·ã§ã³ãé«ãå£²ãããã®ã³ããè©³ããè§£èª¬ãã¦ãã¾ããã¾ãã¯ãã³ã·ã§ã³ãå£²å´ããéã®æµããç¢ºèªããä¿¡é ¼ã§ããä»²ä»æ¥­èï¼ä¸åç£æ¥­èï¼ãé¸ã³ã¾ãããããã³ã·ã§ã³ã®æ»å®ä¾¡æ ¼ã¯ä»²ä»æ¥­èã«ãã£ã¦å¤§ããå¤ããã¾ããå°ãã§ãé«ãå£²ãããã«ãä¸åç£å£²è²·ã«å¼·ãæ¥­èãé¸ã¶ãã¨ãå¤§åã§ãããã³ã·ã§ã³å£²å´æã®è²»ç¨ãç¨éãç¢ºå®ç³åãªã©ã«ã¤ãã¦ãè©³ããè§£èª¬ãã¦ããã®ã§ããããããã³ã·ã§ã³ãä½ã¿æ¿ããäººãå£²å´ãæ¤è¨ãã¦ããäººã¯ãã²åèã«ãã¦ä¸ããã" name="description"/>
<link href="https://fonts.googleapis.com/css?family=Roboto:400,500,700,900" rel="stylesheet"/>
<link href="https://fonts.googleapis.com/css?family=Noto+Sans+JP:400,500,700,900&amp;subset=japanese" rel="stylesheet"/>
<link href="./styles.css" rel="stylesheet"/>
<link href="./favicon.ico" rel="shortcut icon" type="image/vnd.microsoft.icon"/>
</head>
<body class="toppage">
<div class="header">
<h1><a href="./">
<picture>
<source media="(max-width: 768px)" srcset="./img/logo-sp.png">
<source media="(min-width: 769px)" srcset="./img/logo-pc.png">
<img alt="ããã³ã·ã§ã³å£²å´ã®éäººãåãã¦ã§ãå®å¿ãªå£²å´æ´»åãµãã¼ããµã¤ã" src="./img/logo-pc.png"/>
</source></source></picture>
</a></h1>
</div>
<div class="area-mv">
<picture>
<source media="(max-width: 768px)" srcset="./img/img-mv-sp.jpg">
<source media="(min-width: 769px)" srcset="./img/img-mv-pc.jpg">
<img alt="ãã³ã·ã§ã³ã®å£²å¤ã¯ããæ¹æ¬¡ç¬¬ã§å¤§ããå¤ããï¼" src="./img/img-mv-ï½ï½.jpg"/>
</source></source></picture>
</div>
<div class="sec-check cgy-block">
<div class="sec-inner">
<h2><span>ã¾ãã¯ãã®<span class="txt-red"><span class="txt-l1">2</span>ã¤</span>ã<br class="brsp"/><span class="ml2em375">ãã§ãã¯ãããï¼</span></span></h2>
<ul class="item-list1">
<li>
<a href="./nagare.html">
<div class="item-img-il1"><img alt="ãã³ã·ã§ã³å£²å´ã®æµãã¨æ³¨æç¹ãæç¶ãä¸è¦§" src="./img/img-check-cont1.jpg"/></div>
</a>
</li>
<li>
<a href="./hiyou-zeikin.html">
<div class="item-img-il1"><img alt="ãã³ã·ã§ã³ãå£²ãéã«ãããè²»ç¨ãç¨éãææ°æã¾ã¨ã" src="./img/img-check-cont2.jpg"/></div>
</a>
</li>
</ul>
</div>
</div>
<div class="sec-baikyaku cgy-block">
<div class="sec-inner">
<h2>ãããã<br class="brsp375"/>å£²å´ãã¯ãããäººã¸</h2>
<ul class="item-list1">
<li>
<a href="./takaku-uru.html">
<div class="item-img-il1"><img alt="" src="./img/img-satei-tessoku2.jpg"/></div>
<div class="item-txt-il1">ãã³ã·ã§ã³å£²å´ã®ããããã¯ã©ãï¼é«ãå£²ããªãä»²ä»æ¥­èé¸ã³ãè¶éè¦ï¼</div>
</a>
</li>
<li>
<a href="./baikai-keiyaku.html">
<div class="item-img-il1"><img alt="" src="./img/img-baikai-keiyaku.jpg"/></div>
<div class="item-txt-il1">ãäºä¾ã§è§£èª¬ãå°ä»»åªä»ã¨ä¸è¬åªä»ã©ã¡ããè¯ããï¼ä¸åç£å£²å´ã®ä»²ä»å¥ç´</div>
</a>
</li>
<li>
<a href="./hayame-uru.html">
<div class="item-img-il1"><img alt="" src="./img/image-hayame-uru.jpg"/></div>
<div class="item-txt-il1">åè­²ãã³ã·ã§ã³ã®å£²ãæã¯ãã¤ï¼ç¯å¹´æ°ã¨ä¾¡å¤ããèããå£²å´ææ</div>
</a>
</li>
<li>
<a href="./satei-kakaku.html">
<div class="item-img-il1"><img alt="" src="./img/img-satei-kakaku.jpg"/></div>
<div class="item-txt-il1">ãã³ã·ã§ã³æ»å®ã§ããããã®ãµã¤ãã¯ï¼ä¸­å¤å£²å´ã®ãã¤ã³ãã¨æ³¨æç¹</div>
</a>
</li>
<li>
<a href="./tintai.html">
<div class="item-img-il1"><img alt="" src="./img/tintai.jpg"/></div>
<div class="item-txt-il1">åè­²ãã³ã·ã§ã³ãè³è²¸ã§è²¸ãã®ã¨å£²ãã®ã¯ã©ã¡ãããå¾ï¼</div>
</a>
</li>
<li>
<a href="./kaitori.html">
<div class="item-img-il1"><img alt="" src="./img/ec-kaitori2.jpg"/></div>
<div class="item-txt-il1">ãã³ã·ã§ã³è²·åãªãã©ã®æ¥­èãããããï¼å£²å´ç¸å ´ã¨æ³¨æç¹</div>
</a>
</li>
</ul>
</div>
</div>
<div class="sec-katsudo cgy-block">
<div class="sec-inner">
<h2>ãã§ã«æ´»åä¸­ã®äººã¸</h2>
<ul class="item-list1">
<li>
<a href="./nairan.html">
<div class="item-img-il1"><img alt="" src="./img/ec-nairan.jpg"/></div>
<div class="item-txt-il1">ãã³ã·ã§ã³å£²å´ã®åè¦§æ¡åã§å°è±¡ãè¯ãããã³ãã¨æ³¨æç¹ã¾ã¨ã</div>
</a>
</li>
<li>
<a href="./ryoute-tyuukai.html">
<div class="item-img-il1"><img alt="" src="./img/image-ryoute-tyuukai.jpg"/></div>
<div class="item-txt-il1">ä¸åç£å£²è²·ã§ä¸¡æä»²ä»ï¼ä¸¡æåå¼ï¼ãçãä»²ä»æ¥­èã«æ³¨æï¼</div>
</a>
</li>
<li>
<a href="./openhouse.html">
<div class="item-img-il1"><img alt="" src="./img/ec-openhouse.jpg"/></div>
<div class="item-txt-il1">ãã³ã·ã§ã³å£²å´ã§ãªã¼ãã³ãã¦ã¹(ã«ã¼ã )ãããæã®ã³ãã¨æ³¨æç¹</div>
</a>
</li>
<li>
<a href="./pet.html">
<div class="item-img-il1"><img alt="" src="./img/ec-pet.jpg"/></div>
<div class="item-txt-il1">ç¬ãç«ãªã©ã®ããããé£¼ã£ã¦ãããã³ã·ã§ã³ãå£²å´ããéã®æ³¨æç¹</div>
</a>
</li>
<li>
<a href="./nesage-kousyou.html">
<div class="item-img-il1"><img alt="" src="./img/ec-nesage-kousyou.jpg"/></div>
<div class="item-txt-il1">ãã³ã·ã§ã³å£²å´æã®å¤å¼ãäº¤æ¸ã«ã¯å¿ããã¹ãï¼è³¢ãå¯¾å¿æ¹æ³ã¯</div>
</a>
</li>
</ul>
</div>
</div>
<div class="sec-urenai cgy-block">
<div class="sec-inner">
<h2>å£²ããªãæã®å¯¾ç­</h2>
<ul class="item-list1">
<li>
<a href="./urenikui-mansion.html">
<div class="item-img-il1"><img alt="" src="./img/img-urenikui-mansion.jpg"/></div>
<div class="item-txt-il1">ãã³ã·ã§ã³ãå£²ããªãï¼ä¸­å¤ä¸åç£ãå£²ããªãçç±ã¨ç¢ºå®ã«å£²å´ããæ¹æ³</div>
</a>
</li>
<li>
<a href="./urine-nesage.html">
<div class="item-img-il1"><img alt="" src="./img/ec-urine-nesage.jpg"/></div>
<div class="item-txt-il1">ä¸­å¤ãã³ã·ã§ã³å£²å´ã®ä¾¡æ ¼è¨­å®ã®ã³ãã¯ï¼å¤ä¸ãææã¯ä½ã¶æå¾ï¼</div>
</a>
</li>
<li>
<a href="./eigyou-man.html">
<div class="item-img-il1"><img alt="" src="./img/ec-eigyou-man.jpg"/></div>
<div class="item-txt-il1">ãããªå¶æ¥­ãã³ã¯ãã¡ï¼ããã«ä»²ä»æ¥­èãå¤ããªãã¨å£²å´å¤±æã®åå ã«ï¼</div>
</a>
</li>
<li>
<a href="./annnai-zumen.html">
<div class="item-img-il1"><img alt="" src="./img/ec-annnai-zumen.jpg"/></div>
<div class="item-txt-il1">ä¸åç£æ¥­èã®ãµã¤ãã«æ²è¼ããããã¤ã½ã¯ï¼å³é¢ï¼ã¯è¶éè¦ï¼</div>
</a>
</li>
<li>
<a href="./chiku50nen-ureru.html">
<div class="item-img-il1"><img alt="" src="./img/img-chiku50nen-ureru.jpg"/></div>
<div class="item-txt-il1">ç¯50å¹´ãã³ã·ã§ã³ã¯å£²ããªãã®ãï¼ãã­ãèããè³ç£ä¾¡å¤ã¨ã¯</div>
</a>
</li>
</ul>
</div>
</div>
<div class="sec-chuui cgy-block">
<div class="sec-inner">
<h2>å£²å´å¾ã®æç¶ããæ³¨æç¹</h2>
<ul class="item-list1">
<li>
<a href="./kasitanposekinin.html">
<div class="item-img-il1"><img alt="" src="./img/ec-kasitanposekinin.jpg"/></div>
<div class="item-txt-il1">ççµæä¿è²¬ä»»ãå±éºè² æã«ã¤ãã¦</div>
</a>
</li>
<li>
<a href="./keiyakugo.html">
<div class="item-img-il1"><img alt="" src="./img/ec-keiyakugo.jpg"/></div>
<div class="item-txt-il1">ãã³ã·ã§ã³ã®å£²å´å¥ç´ãçµãã å¾ã«ããæç¶ããéè¡ã¸ã®é£çµ¡ï¼</div>
</a>
</li>
<li>
<a href="./kakuteisinkoku.html">
<div class="item-img-il1"><img alt="" src="./img/ec-kakuteisinkoku.jpg"/></div>
<div class="item-txt-il1">ãã³ã·ã§ã³å£²å´ããéã®ç¢ºå®ç³åã®æµããèµ¤å­ã ã£ãæã®ç¨ééä»ç³è«æ¹æ³</div>
</a>
</li>
<li>
<a href="./baibai-keiyaku.html">
<div class="item-img-il1"><img alt="" src="./img/ec-baibai-keiyaku.jpg"/></div>
<div class="item-txt-il1">ãéå½¢ãããä¸­å¤ãã³ã·ã§ã³å£²è²·å¥ç´æ¸ã®æ³¨æç¹ã¨å£²å´æã®å¿è¦æ¸é¡</div>
</a>
</li>
<li>
<a href="./teitouken-massyou.html">
<div class="item-img-il1"><img alt="" src="./img/ec-teitouken-massyou.jpg"/></div>
<div class="item-txt-il1">æµå½æ¨©æ¹æ¶æç¶ãã®è²»ç¨ãå¿è¦æ¸é¡ãèªåã§è¡ãæ¹æ³</div>
</a>
</li>
</ul>
</div>
</div>
<div class="sec-senmon cgy-block">
<div class="sec-inner">
<h2>å°éå®¶ã¤ã³ã¿ãã¥ã¼</h2>
<ul class="item-list1">
<li>
<a href="./kanteishi-interview.html">
<div class="item-img-il1"><img alt="" src="./img/kouno-eiichi.jpg"/></div>
<div class="item-txt-il1">ãä¸åç£éå®å£«ã¤ã³ã¿ãã¥ã¼ãä¸åç£ã®è©ä¾¡é¡ã¨å£²å´ã®ã³ã</div>
</a>
</li>
<li>
<a href="./jyuutakushindan-interview.html">
<div class="item-img-il1"><img alt="" src="./img/sakurajimusho.jpg"/></div>
<div class="item-txt-il1">ãã¼ã ã¤ã³ã¹ãã¯ã·ã§ã³ã®éè¦æ§ã¨ãã§ãã¯ãã¤ã³ã</div>
</a>
</li>
<li>
<a href="./ie/kanteishi-interview2.html">
<div class="item-img-il1"><img alt="" src="./img/takeuchi-eiji.jpg"/></div>
<div class="item-txt-il1">ãä¸åç£éå®å£«ãè§£èª¬ãæ·±å»åããè² åç£ã®å¯¾ç­æ³</div>
</a>
</li>
<li>
<a href="./spa20190910.html">
<div class="item-img-il1"><img alt="" src="./img/spa20190910top.gif"/></div>
<div class="item-txt-il1">éèªæ²è¼æå ±ï¼é±åSPA! 2019å¹´9/10å·ï¼</div>
</a>
</li>
</ul>
</div>
</div>
<div class="sec-column cgy-block">
<div class="sec-inner">
<h2>ã³ã©ã ä¸è¦§</h2>
<ul class="item-list1">
<li>
<a href="./chintai-zeikin.html">
<div class="item-img-il1"><img alt="" src="./img/ec-chintai-zeikin.jpg"/></div>
<div class="item-txt-il1">èªå®ãã³ã·ã§ã³ãè³è²¸ã«åºãã¨ãã®ç¨éã¯ï¼ç¢ºå®ç³åã¨çµè²»ã«ã¤ãã¦</div>
</a>
</li>
<li>
<a href="./35nen-loan.html">
<div class="item-img-il1"><img alt="" src="./img/ec-35nen-loan.jpg"/></div>
<div class="item-txt-il1">å®¶ããã³ã·ã§ã³ãè²·ãã¨ãã®35å¹´ã­ã¼ã³ã£ã¦æãªã®ï¼å¾ãªã®ï¼</div>
</a>
</li>
<li>
<a href="./2020nen.html">
<div class="item-img-il1"><img alt="" src="./img/ec-2020nen.jpg"/></div>
<div class="item-txt-il1">æ±äº¬ãªãªã³ããã¯å¾ã«ä¾¡æ ¼ãæ´è½ï¼ãã³ã·ã§ã³ã®2020å¹´åé¡</div>
</a>
</li>
<li>
<a href="./sundamama-kaitori.html">
<div class="item-img-il1"><img alt="" src="./img/ec-sundamama-kaitori.jpg"/></div>
<div class="item-txt-il1">ä½ãã ã¾ã¾è²·åãµã¼ãã¹ã¯å¾ãæãï¼ãµã¼ãã¹åå®¹ã¨æ³¨æç¹</div>
</a>
</li>
<li>
<a href="./ninki-area.html">
<div class="item-img-il1"><img alt="" src="./img/ec-ninki-area.jpg"/></div>
<div class="item-txt-il1">2025å¹´ã®äººå£æ¸å°ã§ãè³ç£ä¾¡å¤ãè½ã¡ãªãäººæ°ã¨ãªã¢</div>
</a>
</li>
</ul>
</div>
</div>
<div class="sec-other">
<div class="sec-inner">
<div class="sec-other-list">
<div class="sec-other-list-nayami">
<h2>æ©ã¿ããè§£æ±ºæ¹æ³ãæ¢ã</h2>
<ul class="item-list2">
<li><a href="https://baikyaku-tatsujin.com/case-best.html#takaku-top">ã§ããéãé«ãå£²ããã</a></li>
<li><a href="https://baikyaku-tatsujin.com/case-best.html#isogi-top">ãªãã¹ãæ¥ãã§å£²ããã</a></li>
<li><a href="https://baikyaku-tatsujin.com/case-best.html#tikufuru-top">ç¯å¤ãã³ã·ã§ã³ãå£²ããã</a></li>
<li><a href="https://baikyaku-tatsujin.com/case-best.html#tintai-top">è³è²¸ã«ããããæ©ãã§ãã</a></li>
</ul>
</div>
<div class="sec-other-list-riyuu">
<h2>å£²å´ã®çç±</h2>
<ul class="item-list2">
<li><a href="./sumikae.html">ä½ã¿æ¿ãã»è²·ãæ¿ãã®ããã«å£²ããã</a></li>
<li><a href="./rikon.html">é¢å©ãããããã³ã·ã§ã³ãå£²ããã</a></li>
<li><a href="./souzoku.html">è¦ªæãããã³ã·ã§ã³ãç¸ç¶ãããå£²ããã</a></li>
<li><a href="./juutaku-loan.html">ä½å®ã­ã¼ã³ãæããªãããå£²ããã</a></li>
</ul>
</div>
</div>
</div>
</div>
<div class="footer">
<div class="foot-cont-wrap"><div class="foot-cont-inner">
<div class="foot-cont1">
<div>
<h2>ä¸åç£æ¥­èä¸è¦§</h2>
<ul class="item-list2">
<li><a href="./sony-fudosan.html">SREä¸åç£</a></li>
<li><a href="./mitubisijisyo-housenet.html">ä¸è±å°æãã¦ã¹ããã</a></li>
<li><a href="./mitui-fudousan.html">ä¸äºä¸åç£ãªã¢ã«ãã£</a></li>
<li><a href="./nomura-fudousan.html">ãã ã³ã </a></li>
<li><a href="./toukyuu-livable.html">æ±æ¥ãªããã«</a></li>
<li><a href="./mizuho-fudousanhanbai.html">ã¿ãã»ä¸åç£è²©å£²</a></li>
<li><a href="./daikyou-anabuki.html">å¤§äº¬ç©´å¹ä¸åç£</a></li>
</ul>
</div>
<div>
<h2>å°åä¸è¦§</h2>
<ul class="item-list2">
<li><a href="./adachi-ku.html">è¶³ç«åºã®ãã³ã·ã§ã³å£²å´ç¸å ´</a></li>
<li><a href="./setagaya-ku.html">ä¸ç°è°·åºã®ãã³ã·ã§ã³å£²å´ç¸å ´</a></li>
<li><a href="./toshima-ku.html">è±å³¶åºã®ãã³ã·ã§ã³å£²å´ç¸å ´</a></li>
<li><a href="./itabashi-ku.html">æ¿æ©åºã®ãã³ã·ã§ã³å£²å´ç¸å ´</a></li>
<li><a href="./nerima-ku.html">ç·´é¦¬åºã®ãã³ã·ã§ã³å£²å´ç¸å ´</a></li>
<li><a href="./osaka-shi.html">å¤§éªå¸ã®ãã³ã·ã§ã³å£²å´ç¸å ´</a></li>
<li><a href="./saitama-shi.html">ãããã¾å¸ã®ãã³ã·ã§ã³å£²å´ç¸å ´</a></li>
</ul>
</div>
</div>
<div class="foot-cont2">
<h2>æ®ããã®éäººã°ã«ã¼ããµã¤ã</h2>
<ul class="item-list">
<li><a href="https://baikyaku-tatsujin.com/ie/"><img alt="å®¶å£²å´ã®éäºº" src="./img/baikyaku-tatsujin-ie.jpg"/></a></li>
<li><a href="https://chumon-jutaku-tatsujin.com"><img alt="æ³¨æä½å®ã®éäºº" src="./img/chumon-jutaku-tatsujin.jpg"/></a></li>
<li><a href="https://baikyaku-tatsujin.com/hikkoshi/"><img alt="å¼è¶ãè¦ç©ããã®éäºº" src="./img/hikkoshi-mitsumori-tatsujin.jpg"/></a></li>
</ul>
</div>
</div></div>
<ul class="item-list foot-utility-nav">
<li><a href="./contact.html">ãåãåãã</a></li>
<li><a href="./privacypolicy.html">åäººæå ±ä¿è­·æ¹é</a></li>
<li><a href="./sitemap.html">ãµã¤ãããã</a></li>
</ul>
<p class="copyright">© 2020 ããã³ã·ã§ã³å£²å´ã®éäººãåãã¦ã§ãå®å¿ãªå£²å´æ´»åãµãã¼ããµã¤ã </p>
</div>
<script async="" src="./js/script.js"></script>
<script>
  (function(i,s,o,g,r,a,m){i['GoogleAnalyticsObject']=r;i[r]=i[r]||function(){
  (i[r].q=i[r].q||[]).push(arguments)},i[r].l=1*new Date();a=s.createElement(o),
  m=s.getElementsByTagName(o)[0];a.async=1;a.src=g;m.parentNode.insertBefore(a,m)
  })(window,document,'script','https://www.google-analytics.com/analytics.js','ga');

  ga('create', 'UA-96449418-1', 'auto');
  ga('send', 'pageview');

</script>
<script defer="" src="//analyt.xsrv.jp/tatsujin/script.php" type="text/javascript"></script><noscript><img alt="" height="1" src="//analyt.xsrv.jp/tatsujin/track.php" width="1"/></noscript>
<!-- Global site tag (gtag.js) - Google Ads: 759999016 -->
<script async="" src="https://www.googletagmanager.com/gtag/js?id=AW-759999016"></script>
<script>
  window.dataLayer = window.dataLayer || [];
  function gtag(){dataLayer.push(arguments);}
  gtag('js', new Date());

  gtag('config', 'AW-759999016');
</script>
</body>
</html>