<!DOCTYPE HTML>
<html>
<head>
<title>百科名医网_精准医学科普知识平台</title>
<meta content="text/html; charset=utf-8" http-equiv="Content-Type"/>
<meta content=",百科名医网,精准医学,健康科普,专家视频,专家答疑" name="Keywords"/>
<meta content="-百科名医网，拥有海量的精准医学内容，为大众提供了可靠、科学、实用的健康科普知识，让大众面对网络医疗健康信息不再迷茫。" name="Description"/>
<meta content="pc" name="applicable-device"/>
<meta content="no-transform" http-equiv="Cache-Control"/>
<meta content="no-siteapp" http-equiv="Cache-Control"/>
<link href="/favicon.ico?v=1.1.3" rel="shortcut icon"/>
<link href="/favicon.ico?v=1.1.3" rel="icon"/>
<link href="/css/reset.css?v=1.1.3" rel="stylesheet"/>
<link href="/css/public.css?v=1.1.3" rel="stylesheet"/>
<script src="/js/jquery-1.7.2.min.js?v=1.1.3" type="text/javascript"></script>
<script src="/js/_header.js?v=1.1.3" type="text/javascript"></script>
<script src="/js/_footer.js?v=1.1.3" type="text/javascript"></script>
<script>
        var _hmt = _hmt || [];
        (function() {
            var hm = document.createElement("script");
            hm.src = "https://hm.baidu.com/hm.js?9105913150eff85efb29fde031047db8";
            var s = document.getElementsByTagName("script")[0];
            s.parentNode.insertBefore(hm, s);
        })();
    </script>
</head>
<link href="/css/index.css?v=1.1.3" rel="stylesheet"/>
<link href="/css/swiper.min.css?v=1.1.3" rel="stylesheet"/>
<script src="/js/swiper.min.js?v=1.1.3" type="text/javascript"></script>
<style>
    .list-more img{
        width: 4px;
        height: 9px;
        margin-left: 5px;
    }
    .expert-list {
        justify-content: center;
    }

    .expert-list >li > a {
        width: 220px !important;
    }
    .expert-list>li>a>p {
        width: 220px !important;
    }
</style>
<body>
<div class="header_wrap">
<input id="curTab" type="hidden" value="1"/>
<div class="header_content_wrap">
<!--href="/abouts/gdy"-->
<!--<p class="header_intro_text">中华医学百科全书编撰平台</p>-->
<div class="header_content">
<div class="logo_wrap">
<a href="/"><img src="/images/logo.png"/></a>
</div>
<div class="header_tab_wrap">
<ul class="header_bottom_content">
<li class="header_tab_select"><a href="/">首页</a></li>
<li class="header_tab" id="head_1"><a href="/disease/list/0/0">健康百科</a></li>
<li class="header_tab" id="head_2"><a href="/medicine/medicineListIndex?pageType=1">找药物</a></li>
<li class="header_tab" id="head_3"><a href="/video/index">专家视频</a></li>
<li class="header_tab"><a href="/jiankangkepu/QAList">专家答疑</a></li>
</ul>
</div>
<div class="mobile_wrap">
<img class="" id="mobileNormal" src="/images/phone_icon.png"/>
<img class="display_none" id="mobileSelect" src="/images/phone_icon_1.png"/>
<div class="mobile_white display_none"></div>
<div class="mobile_container display_none">
<div class="wx_wrap">
<img alt="" class="wx_icon" src="/images/wx_icon.png"/>
<div class="wx_content">
<p class="wx_content_title">微信公众号</p>
<p class="wx_content_txt">扫描二维码<br/>医学+优质原创科普</p>
</div>
</div>
<div class="minin_wrap">
<img alt="" class="minin_icon" src="/images/minin_icon.png"/>
<div class="minin_content">
<p class="minin_content_title">微信小程序</p>
<p class="minin_content_txt">微信扫码<br/>在手机上浏览本网站</p>
</div>
</div>
</div>
</div>
<form action="/search/disease/list" class="search_wrap" method="get" onsubmit="return search_all();">
<div class="search_content">
<img src="/images/search_icon.png"/>
<input name="searchType" type="hidden" value="ALL"/>
<input name="pageIndex" type="hidden" value="1"/>
<input name="pageSize" type="hidden" value="10"/>
<input autocomplete="off" class="search_text" maxlength="36" name="keyWord" placeholder="请输入你想了解的疾病、症状、药物..." type="text"/>
<div class="display-none" id="search-history">
<div class="search-history display-none">
<div id="clear-history">清空历史</div>
</div>
<div class="search-result display-none" style="padding-bottom: 15px;"></div>
</div>
</div>
</form>
<div style="width: 155px;height: 45px;position: relative;top: -2px">
<img src="/images/brand.png" style="width: 100%;height: 100%"/>
</div>
<!--<div class="brand_wrap">-->
<!--<img th:src="#{static.filepath} +'/images/brand_2.png'">-->
<!--</div>-->
<!--<div class="brand_wrap">-->
<!--<img th:src="#{static.filepath} +'/images/brand_2.png'">-->
<!--<a href="https://www.baikemy.com/abouts/gdy">中华医学百科全书编撰平台</a>-->
<!--</div>-->
<!--<div class="brand_1_wrap">-->
<!--<img th:src="#{static.filepath} +'/images/brand_1.png'">-->
<!--</div>-->
</div>
</div>
<script>
            function htmlEncode(html) {
                var temp = document.createElement('div');
                (temp.textContent != undefined) ? (temp.textContent = html) : (temp.innerText = html);
                var output = temp.innerHTML;
                temp = null;
                return output;
            }


            var searchSet = null;
            var historyRecord = JSON.parse(localStorage.getItem("baikemy_historyRecord"));
            if (historyRecord && historyRecord.length) {
                var html = '';
                for (var i = 0; i < historyRecord.length; i++) {
                    html += '<div class="search-history-list text-circle">' +  htmlEncode(historyRecord[i]) + '</div>';
                }
                $('.search-history').prepend(html);
            }

            $('#search-history').on('click', '.search-history-list', function() {
                $('.search_text').val($(this).text());
                $('.search_wrap').submit();
            })


            $('#search-history,.search_wrap').click(function(e) {
                e.stopPropagation();
                e.preventDefault();
                return false;
            });

            $('.search_text').focus(function(e) {
                var text = $(this).val().trim();
                $('#search-history').removeClass('display-none');
                if (text) {
                    $('.search-history').addClass('display-none');
                    $('#search-history').addClass('display-none');
                    searchMatch(text);
                } else if (historyRecord && historyRecord.length) {
                    $('.search-history').removeClass('display-none');
                    $('.search-result').addClass('display-none');
                } else {
                    $('#search-history').addClass('display-none');
                }
            })
            $(window).click(function() {
                $('#search-history').addClass('display-none');
            });

            $('.search_text').keyup(function(e) {
                var text = $(this).val().trim();
                $('#search-history').addClass('display-none');
                $('.search-history').addClass('display-none');
                $('.search-result').addClass('display-none');
                if (text) {
                    searchMatch(text);
                } else {
                    clearTimeout(searchSet);
                    if ($('.search-history .search-history-list').length) {
                        $('#search-history').removeClass('display-none');
                        $('.search-history').removeClass('display-none');
                    } else {
                        $('#search-history').addClass('display-none');
                    }
                }
            })

            $('.search-result').on('click', '.search-history-list', function() {
                $('.search_text').val($(this).text());
                $('.search_wrap').submit();
            })

            $('#clear-history').click(function(e) {
                $('.search-history .search-history-list').remove();
                localStorage.removeItem("baikemy_historyRecord");
                historyRecord = [];
                $('#search-history').addClass('display-none');
            });

            function search_all() {
                var text = $('.search_text').val().trim()
                if (text) {
                    localStorageSelf(text);
                    return true
                }
                return false
            }

            var keyWord = GetQueryString('keyWord');
            if (keyWord) {
                $('.search_text').val(keyWord);
            }

            function searchMatch(keyWord) {
                clearTimeout(searchSet)
                keyWord = keyWord.replace(/{|}|\[|\]/g, "");;
                searchSet = setTimeout(function() {
                    $.ajax({
                        type: "post",
                        url: "/search/disease/sugest",
                        data: {
                            "keyWord": keyWord,
                            "pageSize": 10
                        },
                        dataType: "json",
                        success: function(data) {
                            var html = '';
                            var data = data.data;
                            for (var i = 0; i < data.length; i++) {
                                html += '<div class="search-history-list text-circle">' + data[i] + '</div>'
                            }

                            $('.search-result').html(html);
                            if (html) {
                                $('#search-history').removeClass('display-none');
                                $('.search-result').removeClass('display-none');
                            } else {
                                $('#search-history').addClass('display-none');
                                $('.search-result').addClass('display-none');
                            }
                        },
                        error: function(err) {
                            console.log(err)
                        }
                    });
                }, 400)
            }

            function GetQueryString(name) {
                var reg = new RegExp("(^|&)" + name + "=([^&]*)(&|$)");
                var r = window.location.search.substr(1).match(reg);
                if (r != null) return decodeURIComponent(r[2]);
                return null;
            }

            //localStorage存取
            function localStorageSelf(value) {
                var historyRecord = JSON.parse(localStorage.getItem("baikemy_historyRecord"));
                historyRecord = historyRecord ? historyRecord : [];
                var searchTextIndex = historyRecord.indexOf(value);
                if (searchTextIndex >= 0) {
                    historyRecord.splice(searchTextIndex, 1);
                };
                if (value.length > 0) {
                    historyRecord.unshift(value);
                };
                historyRecord = historyRecord.slice(0, 10);
                historyRecord = JSON.stringify(historyRecord);
                localStorage.setItem("baikemy_historyRecord", historyRecord);
            }
        </script>
<input id="statsShence" type="hidden" value="https://scdatatest.baikemy.com:4006/sa?project=production"/>
</div>
<div class="index_top_wrap">
<div class="index_top_container">
<div class="index_top_left">
<ul class="index_top_left_content">
<!--'nk': 1,   //内科-->
<!--'wk': 2,   //外科-->
<!--'fck': 3,   //妇产科-->
<!--'ek' : 5,   //儿科-->
<!--'kqk': 7,   //口腔科-->
<!--'jzk': 62,  //急诊科-->
<!--'pfxbk': 165,  //皮肤性病科-->
<!--'yk': 8,       //眼科-->
<!--'ebhk': 6,     //耳鼻喉-头颈外科-->
<!--'jsxlk': 23,   //精神心理科-->
<!--'zyk': 28     //中医科-->
<a href="/disease/list/1/0?diseaseContentType=A">
<li><img alt="" src="/images/nk_icon.png"/><span>内科</span>
<img src="/images/skip_1.png"/></li>
</a>
<a href="/disease/list/2/0?diseaseContentType=A">
<li><img alt="" src="/images/wk_icon.png"/><span>外科</span>
<img src="/images/skip_1.png"/></li>
</a>
<a href="/disease/list/3/0?diseaseContentType=A">
<li><img alt="" src="/images/fck_icon.png"/><span>妇产科</span>
<img src="/images/skip_1.png"/></li>
</a>
<a href="/disease/list/5/0?diseaseContentType=A">
<li><img alt="" src="/images/erk_icon.png"/><span>儿科</span>
<img src="/images/skip_1.png"/></li>
</a>
<a href="/disease/list/7/0?diseaseContentType=A">
<li><img alt="" src="/images/kqk_icon.png"/><span>口腔科</span>
<img src="/images/skip_1.png"/></li>
</a>
<a href="/disease/list/62/0?diseaseContentType=A">
<li><img alt="" src="/images/jzk_icon.png"/><span>急诊科</span>
<img src="/images/skip_1.png"/></li>
</a>
<a href="/disease/list/165/0?diseaseContentType=A">
<li><img alt="" src="/images/pfxbk_icon.png"/><span>皮肤性病科</span>
<img src="/images/skip_1.png"/></li>
</a>
<a href="/disease/list/8/0?diseaseContentType=A">
<li><img alt="" src="/images/yk_icon.png"/><span>眼科</span>
<img src="/images/skip_1.png"/></li>
</a>
<a href="/disease/list/6/0?diseaseContentType=A">
<li><img alt="" src="/images/ebh_icon.png"/><span>耳鼻喉-头颈外科</span>
<img src="/images/skip_1.png"/></li>
</a>
<a href="/disease/list/23/0?diseaseContentType=A">
<li><img alt="" src="/images/jsxlk_icon.png"/><span>精神心理科</span>
<img src="/images/skip_1.png"/></li>
</a>
<a href="/disease/list/4/0?diseaseContentType=A">
<li><img alt="" src="/images/zyk_icon.png"/><span>中医科</span>
<img src="/images/skip_1.png"/></li>
</a>
</ul>
</div>
<div class="index_top_right">
<ul class="index_top_right_content display_none">
<li class="display_none">
<div class="department_wrap">
<p>内科科室</p>
<ul class="department_list" id="nkSubDepartment">
<li><a href="">感染科</a></li>
<li><a href="">呼吸内科</a></li>
<li><a href=""></a>消化内科</li>
<li><a href=""></a>内分泌科</li>
<li><a href=""></a>风湿免疫科</li>
<li><a href=""></a>肾内科</li>
<li><a href=""></a>血液病科</li>
<li><a href=""></a>变态反应科</li>
<li><a href=""></a>神经内科</li>
<li><a href=""></a>心血管内科</li>
<li><a href=""></a>内科其他</li>
</ul>
</div>
<div class="department_disease_wrap">
<p>内科常见疾病</p>
<ul class="department_list" id="nkDisease">
<!--<li>心血管内科</li>-->
<!--<li>呼吸内科</li>-->
<!--<li>消化内科</li>-->
<!--<li>肾内科</li>-->
<!--<li>神经内科</li>-->
</ul>
</div>
</li>
<li class="display_none">
<div class="department_wrap">
<p>外科科室</p>
<ul class="department_list" id="wkSubDepartment">
<li>整形外科</li>
<li>胸外科</li>
<li>泌尿外科</li>
<li>骨科</li>
<li>普通外科</li>
<li>心血管外科</li>
<li>神经外科</li>
<li>外科其他</li>
</ul>
</div>
<div class="department_disease_wrap">
<p>外科常见疾病</p>
<ul class="department_list" id="wkDisease">
<li>妇科</li>
<li>产科</li>
</ul>
</div>
</li>
<li class="display_none">
<div class="department_wrap">
<p>妇产科科室</p>
<ul class="department_list" id="fckSubDepartment">
<li>妇科</li>
<li>产科</li>
</ul>
</div>
<div class="department_disease_wrap">
<p>妇产科常见疾病</p>
<ul class="department_list" id="fckDisease">
<li>口腔内科</li>
<li>口腔正畸科</li>
<li>口腔颌面外科</li>
<li>口腔修复科</li>
</ul>
</div>
</li>
<li class="display_none">
<div class="department_wrap">
<p>儿科科室</p>
<ul class="department_list" id="ekSubDepartment">
<li>小儿外科</li>
<li>小儿内科</li>
<li>新生儿科</li>
</ul>
</div>
<div class="department_disease_wrap">
<p>儿科常见疾病</p>
<ul class="department_list" id="ekDisease">
</ul>
</div>
</li>
<li class="display_none">
<div class="department_wrap">
<p>口腔科科室</p>
<ul class="department_list" id="kqkSubDepartment">
<li>口腔内科</li>
<li>口腔正畸科</li>
<li>口腔颌面外科</li>
<li>口腔修复科</li>
</ul>
</div>
<div class="department_disease_wrap">
<p>口腔科常见疾病</p>
<ul class="department_list" id="kqkDisease">
<li>牙痛</li>
</ul>
</div>
</li>
<li class="display_none">
<div class="department_disease_wrap">
<p>急诊科常见疾病</p>
<ul class="department_list" id="jzkDisease">
</ul>
</div>
</li>
<li class="display_none">
<div class="department_disease_wrap">
<p>皮肤性病科常见疾病</p>
<ul class="department_list" id="pfxbkDisease">
<li>心血管内科</li>
<li>呼吸内科</li>
<li>消化内科</li>
<li>肾内科</li>
<li>分时免疫科</li>
</ul>
</div>
</li>
<li class="display_none">
<div class="department_disease_wrap">
<p>眼科常见疾病</p>
<ul class="department_list" id="ykDisease">
<li>心血管内科</li>
<li>呼吸内科</li>
</ul>
</div>
</li>
<li class="display_none">
<div class="department_disease_wrap">
<p>耳鼻喉-头颈外科常见疾病</p>
<ul class="department_list" id="ebhkDisease">
<li>心血管内科</li>
<li>呼吸内科</li>
<li>消化内科</li>
<li>肾内科</li>
<li>分时免疫科</li>
</ul>
</div>
</li>
<li class="display_none">
<div class="department_disease_wrap">
<p>精神心理科常见疾病</p>
<ul class="department_list" id="jsxlkDisease">
<li>心血管内科</li>
<li>呼吸内科</li>
<li>分时免疫科</li>
</ul>
</div>
</li>
<li class="display_none">
<div class="department_disease_wrap">
<p>中医科常见疾病</p>
<ul class="department_list" id="zykDisease">
<li>心血管内科</li>
<li>呼吸内科</li>
<li>分时免疫科</li>
</ul>
</div>
</li>
</ul>
</div>
<div id="banner">
<div class="swiper-wrapper">
<img class="index_img swiper-slide" src="/images/index_icon_5.jpg"/>
<img class="index_img swiper-slide" src="/images/index_icon_1.jpg"/>
<!--<img class="index_img swiper-slide" th:src="#{static.filepath} +'/images/index_icon_3.jpg'">-->
</div>
<div class="swiper-pagination" id="swiperPagination"></div>
</div>
</div>
</div>
<div class="news_wrap display_none">
<div class="news_container">
<div class="title_wrap">
<p><span>最新</span>资讯</p>
<p>LATEST NEWS</p>
<div></div>
</div>
<div class="more_news display_none"> <a href="/jiankangkepu/newList">更多资讯<img src="/images/skip_2.png"/></a> </div>
<div class="news_content">
<div class="news_left">
<div class="news_item">
<div class="news_item_left">
<img alt="" class="news_item_img" src=""/>
</div>
<div class="new_item_right">
<p class="news_title">婴儿气道异物如何急救？</p>
<div class="new_item_content">对神志清醒的婴儿，如：不能哭叫或不能进行有效咳嗽而怀疑有气效咳嗽而怀疑有气效咳嗽而怀疑有气道梗阻，抢救者可以前臂支撑在自己的大腿上，婴</div>
<div class="news_detail_wrap">详情 <img alt="" src="/images/skip.png"/></div>
</div>
</div>
<div class="news_item">
<div class="news_item_left">
<img alt="" class="news_item_img" src=""/>
</div>
<div class="new_item_right">
<p class="news_title">婴儿气道异物如何急救？</p>
<div class="new_item_content">对神志清醒的婴儿，如：不能哭叫或不能进行有效咳嗽而怀疑有气效咳嗽而怀疑有气效咳嗽而怀疑有气道梗阻，抢救者可以前臂支撑在自己的大腿上，婴</div>
<div class="news_detail_wrap">详情 <img alt="" src="/images/skip.png"/></div>
</div>
</div>
</div>
<div class="news_right">
<div class="news_right_top">
<a href="/jiankangkepu/newList">
<div class="news_right_more_info">更多资讯</div>
<div class="news_entry">进入<img src="/images/skip_1.png"/></div>
</a>
</div>
<div class="top_news_wrap">
<a href="">
<div class="top_news_left">
<img alt="" class="top_news_img" src=""/>
</div>
<div class="top_news_right">
<p class="top_news_title">婴儿气道异物如何急救？</p>
<div class="top_news_item_content">对神志清醒的婴儿，如：不能哭叫或不能进行有效咳嗽而怀疑有气效咳嗽而怀疑有气效咳嗽而怀疑有气道梗阻不能哭叫或不能进行有效咳嗽而怀疑有气效咳嗽而怀疑有气效咳嗽而怀疑有气道梗阻，抢救者可以前臂支撑在自己的大腿上，婴</div>
</div>
</a>
</div>
<ul class="news_right_list_wrap">
<li><img src="/images/hot.png"/><span>CAR-T细胞疗法可以…</span></li>
<li><img src="/images/two.png"/><span>CAR-T细胞疗法可以…</span></li>
<li><img src="/images/three.png"/><span>CAR-T细胞疗法可以…</span></li>
<li><span>4</span><span>糖尿病有哪些症状？</span></li>
<li><span>5</span><span>糖尿病有哪些症状？</span></li>
<li><span>6</span><span>糖尿病有哪糖尿病有哪些症状些症状？</span></li>
<li><span>7</span><span>糖尿病有哪些症状？</span></li>
<li><span>8</span><span>糖尿病有哪糖尿病有哪些症状些症状？</span></li>
<li><span>9</span><span>糖尿病有哪些症状？</span></li>
<li><span>10</span><span>糖尿病有哪些症状？</span></li>
</ul>
</div>
</div>
</div>
</div>
<div class="hot_video_wrap">
<div class="hot_video_container">
<div class="title_wrap">
<p><span>热门</span>视频</p>
<p>ENCYCLOPEDIA OF HEALTH</p>
<div></div>
</div>
<div class="more_video"> <a href="/video/index?disease-content-type=A">更多视频<img src="/images/skip_2.png"/></a> </div>
<div class="hot_video_content">
<a class="hot_video_item" href="/video/details/32193041993217">
<div class="video_item_img_wrap">
<img class="video_item_img" src="https://pic.baikemy.com/obj/project-l-cdn/v/2016/3ceac31a-b611-4c92-9f0e-12d20ee2986f.jpg"/>
<img class="video_play absolute-center" src="/images/video_play.png"/>
</div>
<div class="video_item_info">
<p class="video_item_title">什么是激素依赖性皮炎？</p>
<div class="video-expert">
<img onerror="this.src='https://pic.baikemy.com/obj/project-l-cdn/images/doctor_default.jpg'" src="https://pic.baikemy.com/obj/project-l-cdn/u/481/13548904372481/avatar.jpg"/>
<p>陶诗沁   无锡市第二人民医院</p>
</div>
</div>
</a>
<a class="hot_video_item" href="/video/details/44582082696449">
<div class="video_item_img_wrap">
<img class="video_item_img" src="https://pic.baikemy.com/obj/project-l-cdn/v/2018/18cada88-750f-4f8d-a25e-c2584b4a386e.jpg"/>
<img class="video_play absolute-center" src="/images/video_play.png"/>
</div>
<div class="video_item_info">
<p class="video_item_title">流行性感冒有哪些症状？</p>
<div class="video-expert">
<img onerror="this.src='https://pic.baikemy.com/obj/project-l-cdn/images/doctor_default.jpg'" src="https://pic.baikemy.com/obj/project-l-cdn/u/889/31617442981889/avatar.jpg"/>
<p>许文兵   北京协和医院</p>
</div>
</div>
</a>
<a class="hot_video_item" href="/video/details/36995747794433">
<div class="video_item_img_wrap">
<img class="video_item_img" src="https://pic.baikemy.com/obj/project-l-cdn/v/2017/ac3594ce-73d7-4767-a87f-228e415568a9.jpg"/>
<img class="video_play absolute-center" src="/images/video_play.png"/>
</div>
<div class="video_item_info">
<p class="video_item_title">肺炎有哪些症状？</p>
<div class="video-expert">
<img onerror="this.src='https://pic.baikemy.com/obj/project-l-cdn/images/doctor_default.jpg'" src="https://pic.baikemy.com/obj/project-l-cdn/u/897/36600847984897/avatar.jpg"/>
<p>崔瑷   首都医科大学附属北京朝阳医院</p>
</div>
</div>
</a>
<a class="hot_video_item" href="/video/details/31114867568129">
<div class="video_item_img_wrap">
<img class="video_item_img" src="https://pic.baikemy.com/obj/project-l-cdn/v/2016/2bc42ab5-f36c-42cd-95c7-0f5c10f0fab9.jpg"/>
<img class="video_play absolute-center" src="/images/video_play.png"/>
</div>
<div class="video_item_info">
<p class="video_item_title">什么是股骨头坏死？</p>
<div class="video-expert">
<img onerror="this.src='https://pic.baikemy.com/obj/project-l-cdn/images/doctor_default.jpg'" src="https://pic.baikemy.com/obj/project-l-cdn/u/97/30982813060097/avatar.jpg"/>
<p>余可谊   北京协和医院</p>
</div>
</div>
</a>
<a class="hot_video_item" href="/video/details/36003632973057">
<div class="video_item_img_wrap">
<img class="video_item_img" src="https://pic.baikemy.com/obj/project-l-cdn/v/2017/1d67fbe0-9047-4c5c-93b6-553a60d49e92.jpg"/>
<img class="video_play absolute-center" src="/images/video_play.png"/>
</div>
<div class="video_item_info">
<p class="video_item_title">感冒能引起肺炎吗？</p>
<div class="video-expert">
<img onerror="this.src='https://pic.baikemy.com/obj/project-l-cdn/images/doctor_default.jpg'" src="https://pic.baikemy.com/obj/project-l-cdn/u/257/8258762624257/avatar.jpg"/>
<p>于晓敏   首都医科大学附属北京朝阳医院</p>
</div>
</div>
</a>
<a class="hot_video_item" href="/video/details/50371449400833">
<div class="video_item_img_wrap">
<img class="video_item_img" src="https://pic.baikemy.com/obj/project-l-cdn/v/2019/319442e2-0879-418e-a0a0-035e6d51f98d.jpg"/>
<img class="video_play absolute-center" src="/images/video_play.png"/>
</div>
<div class="video_item_info">
<p class="video_item_title">骨髓炎怎么治疗？</p>
<div class="video-expert">
<img onerror="this.src='https://pic.baikemy.com/obj/project-l-cdn/images/doctor_default.jpg'" src="https://pic.baikemy.com/obj/project-l-cdn/u/497/47763894570497/avatar.jpg"/>
<p>王江宁   首都医科大学附属北京世纪坛医院</p>
</div>
</div>
</a>
<a class="hot_video_item" href="/video/details/32397453949185">
<div class="video_item_img_wrap">
<img class="video_item_img" src="https://pic.baikemy.com/obj/project-l-cdn/v/2017/f26f8615-1001-4230-9a78-3d9b2ce80bf7.jpg"/>
<img class="video_play absolute-center" src="/images/video_play.png"/>
</div>
<div class="video_item_info">
<p class="video_item_title">关注癌症康复</p>
<div class="video-expert">
<img onerror="this.src='https://pic.baikemy.com/obj/project-l-cdn/images/doctor_default.jpg'" src="https://pic.baikemy.com/obj/project-l-cdn/u/679/679/avatar.jpg"/>
<p>赵平   中国医学科学院肿瘤医院</p>
</div>
</div>
</a>
<a class="hot_video_item" href="/video/details/1531991953">
<div class="video_item_img_wrap">
<img class="video_item_img" src="https://pic.baikemy.com/obj/project-l-cdn/v/2018/6f3e54ab-db87-478b-9801-dfc3625d40d2.jpg"/>
<img class="video_play absolute-center" src="/images/video_play.png"/>
</div>
<div class="video_item_info">
<p class="video_item_title">皮炎有哪些类型？</p>
<div class="video-expert">
<img onerror="this.src='https://pic.baikemy.com/obj/project-l-cdn/images/doctor_default.jpg'" src="https://pic.baikemy.com/obj/project-l-cdn/u/305/21553820066305/avatar.jpg"/>
<p>渠涛   北京协和医院</p>
</div>
</div>
</a>
<a class="hot_video_item" href="/video/details/35554518237697">
<div class="video_item_img_wrap">
<img class="video_item_img" src="https://pic.baikemy.com/obj/project-l-cdn/v/2017/592ccb5e-9e06-49fb-a4a9-bbb074be837a.jpg"/>
<img class="video_play absolute-center" src="/images/video_play.png"/>
</div>
<div class="video_item_info">
<p class="video_item_title">智齿必须拔掉吗？</p>
<div class="video-expert">
<img onerror="this.src='https://pic.baikemy.com/obj/project-l-cdn/images/doctor_default.jpg'" src="https://pic.baikemy.com/obj/project-l-cdn/u/877/877/avatar.jpg"/>
<p>周炼   北京协和医院</p>
</div>
</div>
</a>
<a class="hot_video_item" href="/video/details/1531991149">
<div class="video_item_img_wrap">
<img class="video_item_img" src="https://pic.baikemy.com/obj/project-l-cdn/v/2018/7ba0c623-509a-43f8-9171-0a9c24e7f68d.jpg"/>
<img class="video_play absolute-center" src="/images/video_play.png"/>
</div>
<div class="video_item_info">
<p class="video_item_title">病毒性感染如何预防？</p>
<div class="video-expert">
<img onerror="this.src='https://pic.baikemy.com/obj/project-l-cdn/images/doctor_default.jpg'" src="https://pic.baikemy.com/obj/project-l-cdn/u/283/283/avatar.jpg"/>
<p>曹彬   中日友好医院</p>
</div>
</div>
</a>
<a class="hot_video_item" href="/video/details/43760286155009">
<div class="video_item_img_wrap">
<img class="video_item_img" src="https://pic.baikemy.com/obj/project-l-cdn/v/2018/4223bbe2-1563-4c14-a37f-f950bc33557d.jpg"/>
<img class="video_play absolute-center" src="/images/video_play.png"/>
</div>
<div class="video_item_info">
<p class="video_item_title">孕期感冒怎么办？</p>
<div class="video-expert">
<img onerror="this.src='https://pic.baikemy.com/obj/project-l-cdn/images/doctor_default.jpg'" src="https://pic.baikemy.com/obj/project-l-cdn/u/440/440/avatar.jpg"/>
<p>马良坤   北京协和医院</p>
</div>
</div>
</a>
<a class="hot_video_item" href="/video/details/31308439515137">
<div class="video_item_img_wrap">
<img class="video_item_img" src="https://pic.baikemy.com/obj/project-l-cdn/v/2016/3590e756-797a-4beb-a43c-371cdeb878c3.jpg"/>
<img class="video_play absolute-center" src="/images/video_play.png"/>
</div>
<div class="video_item_info">
<p class="video_item_title">什么是荨麻疹？</p>
<div class="video-expert">
<img onerror="this.src='https://pic.baikemy.com/obj/project-l-cdn/images/doctor_default.jpg'" src="https://pic.baikemy.com/obj/project-l-cdn/u/865/5848571876865/avatar.jpg"/>
<p>王宝玺   中国医学科学院皮肤病医院</p>
</div>
</div>
</a>
</div>
</div>
</div>
<div class="question_wrap">
<div class="question_container">
<div class="title_wrap">
<p><span>专家</span>答疑</p>
<p>MEET PROFESSOR</p>
<div></div>
</div>
<div class="question_content">
<div class="question_left_wrap">
<div class="question_left_item">
<a href="/jiankangkepu/QADetail/41816944394753">
<div class="question_left_top">
<img alt="" src="/images/ask.png"/>
<div>怀孕初期症状</div>
</div>
<div class="question_left_content">
<img alt="" src="/images/answer.png"/>
<div class="question_left_content_info">通常将怀孕1-12周为怀孕早期（怀孕初期），怀孕早期孕妇的生理和心里都会有相应变化。<br/>
                                月经停止：怀孕后由于激素水平的变化，月经会停止，这是怀孕早期最明显的症状。<br/>腹围：孕妇的腹围会随着胎儿的发育逐渐增加，也就是孕妇肚子会逐渐增大。
                                <br/>乳房及乳头：孕妇乳房可能会出现刺痛、膨胀和瘙痒感，在怀孕几个星期开始，乳房肿胀且有明显的静脉显露，乳房随着乳腺的增生会有类似于肿块的出现
                            </div>
<div class="question_detail_wrap">详情 <img alt="" src="/images/skip.png"/></div>
</div>
<div class="question_left_doctor">
<img onerror="this.src='https://pic.baikemy.com/obj/project-l-cdn/images/doctor_default.jpg'" src="https://pic.baikemy.com/obj/project-l-cdn/u/713/41798455027713/avatar.jpg"/>
<div class="question_left_doctor_info">
<div class="question_left_doctor_name">江元慧 | 副主任医师 <img alt="" src="/images/expert_check.png"/></div>
<div class="question_left_doctor_hospital">北京大学第三医院 妇产科</div>
</div>
</div>
</a>
</div>
<div class="question_left_item">
<a href="/jiankangkepu/QADetail/43874017780481">
<div class="question_left_top">
<img alt="" src="/images/ask.png"/>
<div>柿子不能和什么一起吃？</div>
</div>
<div class="question_left_content">
<img alt="" src="/images/answer.png"/>
<div class="question_left_content_info">1.柿子不能与红薯同食：红薯吃了以后胃部会产生大量胃酸，而柿子则含有较多的鞣质和果胶，胃酸和鞣质、果胶相遇，会发生凝聚作用，形成难溶性的硬块。<br/>
                                2.柿子不能与螃蟹同食：螃蟹含有丰富的蛋白质与柿子的鞣质相结合容易凝固成不易消化的物质，因为鞣质具有收敛作用，还能抑制消化液的分泌，从而出现呕吐、腹胀、腹泻等症状。
                            </div>
<div class="question_detail_wrap">详情 <img alt="" src="/images/skip.png"/></div>
</div>
<div class="question_left_doctor">
<img onerror="this.src='https://pic.baikemy.com/obj/project-l-cdn/images/doctor_default.jpg'" src="https://pic.baikemy.com/obj/project-l-cdn/u/657/43847975910657/avatar.jpg"/>
<div class="question_left_doctor_info">
<div class="question_left_doctor_name">赵霞 | 副主任营养师 <img alt="" src="/images/expert_check.png"/></div>
<div class="question_left_doctor_hospital">北京积水潭医院 营养科</div>
</div>
</div>
</a>
</div>
<div class="question_left_item">
<a href="/jiankangkepu/QADetail/2422056971777">
<div class="question_left_top">
<img alt="" src="/images/ask.png"/>
<div>维生素e作用</div>
</div>
<div class="question_left_content">
<img alt="" src="/images/answer.png"/>
<div class="question_left_content_info">维生素E又称生育酚，因为最早发现它与精子的生成和繁殖能力有关，故此得名。但是近来的研究表明维生素E的功能远不止于此。人们发现维生素E是一种非常强的抗氧化剂，能够抑制脂肪酸的氧化
                                ，减少脂褐质（老年斑）的形成，并保护细胞免受自由基的损害，因此具有延缓衰老的作用。  维生素E在光照、热、碱和铁等微量元素存在的情况下容易氧化。食物中的维生素E在一般烹调条件下，损伤不
                            </div>
<div class="question_detail_wrap">详情 <img alt="" src="/images/skip.png"/></div>
</div>
<div class="question_left_doctor">
<img onerror="this.src='https://pic.baikemy.com/obj/project-l-cdn/images/doctor_default.jpg'" src="https://pic.baikemy.com/obj/project-l-cdn/u/262/262/avatar.jpg"/>
<div class="question_left_doctor_info">
<div class="question_left_doctor_name">于康 | 主任医师 <img alt="" src="/images/expert_check.png"/></div>
<div class="question_left_doctor_hospital">北京协和医院 营养科</div>
</div>
</div>
</a>
</div>
<div class="question_left_item">
<a href="/jiankangkepu/QADetail/40022728907009">
<div class="question_left_top">
<img alt="" src="/images/ask.png"/>
<div>石榴籽能吃吗</div>
</div>
<div class="question_left_content">
<img alt="" src="/images/answer.png"/>
<div class="question_left_content_info">石榴果肉酸甜可口，果皮、根、花皆含有丰富的植物活性成分。果皮含鞣质、生物碱及熊果酸等，有明显的收敛和抑菌作用。根皮含石榴皮碱，对预防肾结石、糖尿病有一定帮助。石榴籽虽然口感不佳，但含有不少有益于机体的多种营养物质，包括大量的维生素C、多酚类物质等强抗氧化剂，对提取自石榴籽中的这些成分进行研究，发现它们具有延缓衰老、增加心脑血管的弹性、预防心脑血管疾病、
                            </div>
<div class="question_detail_wrap">详情 <img alt="" src="/images/skip.png"/></div>
</div>
<div class="question_left_doctor">
<img onerror="this.src='https://pic.baikemy.com/obj/project-l-cdn/images/doctor_default.jpg'" src="https://pic.baikemy.com/obj/project-l-cdn/u/697/35178992221697/avatar.jpg"/>
<div class="question_left_doctor_info">
<div class="question_left_doctor_name">郭倩颖 | 副主任营养医师 <img alt="" src="/images/expert_check.png"/></div>
<div class="question_left_doctor_hospital">北京大学人民医院 临床营养科</div>
</div>
</div>
</a>
</div>
</div>
<div class="question_right_wrap">
<div class="question_right_top">
<a href="/jiankangkepu/QAList">
<div class="question_right_more_info">更多答疑</div>
<div class="news_entry">进入<img src="/images/skip_1.png"/></div>
</a>
</div>
<ul class="question_right_content">
<a href="/jiankangkepu/QADetail/43874451795713">
<li>
<div class="question_right_item_left">
<div>填充太阳穴</div>
<div>立即查看</div>
</div>
<div class="question_right_item_right">
<img onerror="this.src='https://pic.baikemy.com/obj/project-l-cdn/images/doctor_default.jpg'" src="https://pic.baikemy.com/obj/project-l-cdn/u/825/13434509709825/avatar.jpg"/>
<div>刘春军</div>
</div>
</li>
</a>
<a href="/jiankangkepu/QADetail/43878880905985">
<li>
<div class="question_right_item_left">
<div>指甲上有竖纹是怎么回事</div>
<div>立即查看</div>
</div>
<div class="question_right_item_right">
<img onerror="this.src='https://pic.baikemy.com/obj/project-l-cdn/images/doctor_default.jpg'" src="https://pic.baikemy.com/obj/project-l-cdn/u/889/43387743781889/avatar.jpg"/>
<div>赵连皓</div>
</div>
</li>
</a>
<a href="/jiankangkepu/QADetail/2422058420737">
<li>
<div class="question_right_item_left">
<div>怎么减肥</div>
<div>立即查看</div>
</div>
<div class="question_right_item_right">
<img onerror="this.src='https://pic.baikemy.com/obj/project-l-cdn/images/doctor_default.jpg'" src="https://pic.baikemy.com/obj/project-l-cdn/u/262/262/avatar.jpg"/>
<div>于康</div>
</div>
</li>
</a>
<a href="/jiankangkepu/QADetail/22664813016321">
<li>
<div class="question_right_item_left">
<div>拔牙后注意事项</div>
<div>立即查看</div>
</div>
<div class="question_right_item_right">
<img onerror="this.src='https://pic.baikemy.com/obj/project-l-cdn/images/doctor_default.jpg'" src="https://pic.baikemy.com/obj/project-l-cdn/u/870/870/avatar.jpg"/>
<div>吴效民</div>
</div>
</li>
</a>
<a href="/jiankangkepu/QADetail/2422043684865">
<li>
<div class="question_right_item_left">
<div>智齿是否一定要拔除?</div>
<div>立即查看</div>
</div>
<div class="question_right_item_right">
<img onerror="this.src='https://pic.baikemy.com/obj/project-l-cdn/images/doctor_default.jpg'" src="https://pic.baikemy.com/obj/project-l-cdn/u/870/870/avatar.jpg"/>
<div>吴效民</div>
</div>
</li>
</a>
<a href="/jiankangkepu/QADetail/40022174720001">
<li>
<div class="question_right_item_left">
<div class="ellipsis_2">孕妇不能吃哪些食物</div>
<div>立即查看</div>
</div>
<div class="question_right_item_right">
<img onerror="this.src='https://pic.baikemy.com/obj/project-l-cdn/images/doctor_default.jpg'" src="https://pic.baikemy.com/obj/project-l-cdn/u/697/35178992221697/avatar.jpg"/>
<div>郭倩颖</div>
</div>
</li>
</a>
<a href="/jiankangkepu/QADetail/43873855861505">
<li>
<div class="question_right_item_left">
<div>碱性食物有哪些</div>
<div>立即查看</div>
</div>
<div class="question_right_item_right">
<img onerror="this.src='https://pic.baikemy.com/obj/project-l-cdn/images/doctor_default.jpg'" src="https://pic.baikemy.com/obj/project-l-cdn/u/657/43847975910657/avatar.jpg"/>
<div>赵霞</div>
</div>
</li>
</a>
<a href="/jiankangkepu/QADetail/22797639913729">
<li>
<div class="question_right_item_left">
<div>小孩发烧怎么退烧最快</div>
<div>立即查看</div>
</div>
<div class="question_right_item_right">
<img onerror="this.src='https://pic.baikemy.com/obj/project-l-cdn/images/doctor_default.jpg'" src="https://pic.baikemy.com/obj/project-l-cdn/u/441/5450637917441/avatar.jpg"/>
<div>吴珺</div>
</div>
</li>
</a>
</ul>
</div>
</div>
</div>
</div>
<div class="baike_wrap">
<div class="baike_container">
<div class="title_wrap">
<p class="title_txt"><span>百科名医网</span>百科</p>
<p>DANDELION MEDICAL ENCYCLOPEDIA</p>
<div></div>
</div>
<div class="baike_content_wrap">
<ul class="baike_top_wrap">
<li class="baike_top_item baike_select">常见疾病</li>
<li class="baike_top_item baike_normal">常见症状</li>
<li class="baike_top_item baike_normal">常见检查</li>
<li class="baike_top_item baike_normal">常用治疗</li>
<li class="baike_top_item baike_normal">常见中医</li>
<li class="baike_top_item baike_normal">常见预防</li>
<li class="baike_top_item baike_normal">常用护理</li>
</ul>
<div class="baike_content" id="baikeContent_1">
<a class="baike_item" href="/disease/detail/924">糖尿病</a>
<!--<a href="/disease/detail/850" class="baike_item">艾滋病</a>-->
<a class="baike_item" href="/disease/detail/997">手足口病</a>
<a class="baike_item" href="/disease/detail/919">甲状腺功能亢进症</a>
<a class="baike_item" href="/disease/detail/1048">痛风</a>
<a class="baike_item" href="/disease/detail/867">抑郁症</a>
<a class="baike_item" href="/disease/detail/1106">肺结核</a>
<a class="baike_item" href="/disease/detail/1522">荨麻疹</a>
<a class="baike_item" href="/disease/detail/1410">高血压</a>
<a class="baike_item" href="/disease/detail/1455">白血病</a>
<!--<a href="/disease/detail/1642" class="baike_item">前列腺炎</a>-->
<!--<a href="/disease/detail/5747" class="baike_item">尖锐湿疣</a>-->
<!--<a href="/disease/detail/10693899214593" class="baike_item">性爱成瘾症</a>-->
<a class="baike_item" href="/disease/detail/1565">宫颈癌</a>
<a class="baike_item" href="/disease/detail/885">口腔溃疡</a>
<a class="baike_item" href="/disease/detail/1652">肾结石</a>
<a class="baike_item" href="/disease/detail/6290">低血压</a>
<!--<a href="/disease/detail/5789" class="baike_item">梅毒</a>-->
<!--<a href="/disease/detail/18722900195585" class="baike_item">阴茎短小</a>-->
<a class="baike_item" href="/disease/detail/1103">肺癌</a>
<a class="baike_item" href="/disease/detail/5252">乳腺癌</a>
<a class="baike_item" href="/disease/detail/1351">胃癌</a>
<!--<a href="/disease/detail/1564" class="baike_item">子宫肌瘤</a>-->
<a class="baike_item" href="/disease/detail/1147">痔</a>
<a class="baike_item" href="/disease/detail/3295">带状疱疹</a>
<a class="baike_item" href="/disease/detail/1020">异位妊娠</a>
<a class="baike_item" href="/disease/detail/840">狂犬病</a>
<a class="baike_item" href="/disease/detail/6123">慢性乙型肝炎</a>
<!--<a href="/disease/detail/3138" class="baike_item">宫颈柱状上皮异位</a>-->
<a class="baike_item" href="/disease/detail/1613">鼻炎</a>
<!--<a href="/disease/detail/2383" class="baike_item">早泄</a>-->
<a class="baike_item" href="/disease/detail/1355">脂肪肝</a>
<a class="baike_item" href="/disease/detail/7420557701889">阑尾炎</a>
<a class="baike_item" href="/disease/detail/1512">湿疹</a>
<a class="baike_item" href="/disease/detail/1517">白癜风</a>
<a class="baike_item" href="/disease/detail/1183">颈椎病</a>
<a class="baike_item" href="/disease/detail/31617252786433">尿毒症</a>
<a class="baike_item" href="/disease/detail/1353">胆囊炎</a>
<a class="baike_item" href="/disease/detail/4170">破伤风</a>
<a class="baike_item" href="/disease/detail/1572">直肠癌</a>
<a class="baike_item" href="/disease/detail/1088">上呼吸道感染</a>
<a class="baike_item" href="/disease/detail/1974">肺炎</a>
<a class="baike_item" href="/disease/detail/907">低血糖</a>
<a class="baike_item" href="/disease/detail/34828328094721">脑供血不足</a>
<a class="baike_item" href="/disease/detail/5612">肾炎</a>
<a class="baike_item" href="/disease/detail/830">胰腺炎</a>
<!--<a href="/disease/detail/1666" class="baike_item">多囊卵巢综合征</a>-->
<a class="baike_item" href="/disease/detail/1005">水痘</a>
<!--<a href="/disease/detail/1245" class="baike_item">乳腺增生症</a>-->
<!--<a href="/disease/detail/3191" class="baike_item">阴道炎</a>-->
<a class="baike_item" href="/disease/detail/13214154412033">内分泌失调</a>
<a class="baike_item" href="/disease/detail/823">冠状动脉粥样硬化性心脏病</a>
<a class="baike_item" href="/disease/detail/823">肝硬化</a>
<a class="baike_item" href="/disease/detail/1171">肩周炎</a>
<a class="baike_item" href="/disease/detail/1004">新生儿黄疸</a>
<!--<a href="/disease/detail/3159" class="baike_item">痛经</a>-->
<a class="baike_item" href="/disease/detail/1350">胃溃疡</a>
<a class="baike_item" href="/disease/detail/1287">癫痫</a>
<a class="baike_item" href="/disease/detail/1178">腰肌劳损</a>
<a class="baike_item" href="/disease/detail/4310">幼儿急疹</a>
<!--<a href="/disease/detail/1501" class="baike_item">尿路感染</a>-->
<!--<a href="/disease/detail/2057" class="baike_item">卵巢囊肿</a>-->
<!--<a href="/disease/detail/6533" class="baike_item">胃炎</a>-->
<!--<a href="/disease/detail/3356" class="baike_item">痤疮</a>-->
<!--<a href="/disease/detail/923" class="baike_item">甲状腺结节</a>-->
<a class="baike_more" href="/disease/list/0/0?diseaseContentType=A">更多<img alt="" src="https://pic.baikemy.com/obj/project-l-cdn/web/static/images/blue-return-icon.png"/></a>
</div>
<div class="baike_content display_none" id="baikeContent_2">
<!--<a href="/disease/detail/3007" class="baike_item">盆腔积液</a>-->
<a class="baike_item" href="/disease/detail/6067">便血</a>
<!--<a href="/disease/detail/2663" class="baike_item">经期推迟</a>-->
<a class="baike_item" href="/disease/detail/7420193259777">腹泻</a>
<a class="baike_item" href="/disease/detail/10430203880193">口臭</a>
<!--<a href="/disease/detail/3086" class="baike_item">外阴瘙痒</a>-->
<a class="baike_item" href="/disease/detail/4961">疱疹</a>
<a class="baike_item" href="/disease/detail/1606">耳鸣</a>
<a class="baike_item" href="/disease/detail/858">失眠</a>
<a class="baike_item" href="/disease/detail/16714487418369">淋巴结肿大</a>
<a class="baike_item" href="/disease/detail/34828979978497">头晕</a>
<a class="baike_item" href="/disease/detail/18459619327489">腰疼</a>
<a class="baike_item" href="/disease/detail/6279">黄疸</a>
<a class="baike_item" href="/disease/detail/33350070083841">头痛</a>
<a class="baike_item" href="/disease/detail/17024092826625">牙龈肿痛</a>
<a class="baike_item" href="/disease/detail/1094">气胸</a>
<!--<a href="/disease/detail/8264687535361" class="baike_item">白带异常</a>-->
<a class="baike_item" href="/disease/detail/1304">面神经麻痹</a>
<a class="baike_item" href="/disease/detail/11161938552321">咽喉痛</a>
<a class="baike_item" href="/disease/detail/2921">牙痛</a>
<a class="baike_item" href="/disease/detail/8398029482497">眩晕</a>
<a class="baike_item" href="/disease/detail/17554476504577">胃痛</a>
<a class="baike_item" href="/disease/detail/33636892516609">毛孔粗大</a>
<a class="baike_item" href="/disease/detail/6130">呃逆</a>
<a class="baike_item" href="/disease/detail/35495108089345">咳嗽</a>
<!--<a href="/disease/detail/1624" class="baike_item">血尿</a>-->
<a class="baike_item" href="/disease/detail/8397496128769">嗳气</a>
<!--<a href="/disease/detail/1084" class="baike_item">尿频</a>-->
<a class="baike_item" href="/disease/detail/7300">妊娠纹</a>
<!--<a href="/disease/detail/6745" class="baike_item">早搏</a>-->
<a class="baike_item" href="/disease/detail/897">牙龈萎缩</a>
<!--<a href="/disease/detail/35221492636417" class="baike_item">白带带血</a>-->
<a class="baike_item" href="/disease/detail/34877995070209">发热</a>
<!--<a href="/disease/detail/1627" class="baike_item">乳头内陷</a>-->
<a class="baike_item" href="/disease/detail/34879144168449">皮肤出血点</a>
<!--<a href="/disease/detail/35222607900417" class="baike_item">阴道出血</a>-->
<a class="baike_item" href="/disease/detail/17575492530177">胃酸过多</a>
<a class="baike_item" href="/disease/detail/13639713628929">痔疮便血</a>
<a class="baike_item" href="/disease/detail/9678">休克</a>
<a class="baike_item" href="/disease/detail/5566">水肿</a>
<a class="baike_item" href="/disease/detail/11160595880193">小儿发热</a>
<!--<a href="/disease/detail/35222732158465" class="baike_item">月经稀少</a>-->
<!--<a href="/disease/detail/31506402096897" class="baike_item">睾丸疼痛</a>-->
<a class="baike_item" href="/disease/detail/31822910502913">胸闷</a>
<!--<a href="/disease/detail/35497973626881" class="baike_item">精液发黄</a>-->
<a class="baike_item" href="/disease/detail/19059444399361">胸痛</a>
<a class="baike_item" href="/disease/detail/31350900572161">干咳</a>
<a class="baike_item" href="/disease/detail/15499017498881">小儿咳嗽</a>
<!--<a href="/disease/detail/5539" class="baike_item">尿失禁</a>-->
<a class="baike_item" href="/disease/detail/7333">小儿便秘</a>
<a class="baike_item" href="/disease/detail/19054314394625">吐奶</a>
<!--<a href="/disease/detail/33589812456193" class="baike_item">阴囊瘙痒</a>-->
<!--<a href="/disease/detail/9298491682817" class="baike_item">产后恶露不尽</a>-->
<a class="baike_item" href="/disease/detail/8166">小儿呕吐</a>
<!--<a href="/disease/detail/35497287062785" class="baike_item">包皮水肿</a>-->
<a class="baike_item" href="/disease/detail/1609">鼓膜穿孔</a>
<a class="baike_item" href="/disease/detail/1543">肌肉萎缩</a>
<a class="baike_item" href="/disease/detail/42458988209153">流涎</a>
<a class="baike_item" href="/disease/detail/6582">脾大</a>
<a class="baike_item" href="/disease/detail/11160903698177">鼻塞</a>
<a class="baike_item" href="/disease/detail/35178002477313">颈部淋巴结肿大</a>
<a class="baike_item" href="/disease/detail/34875566186753">低热</a>
<a class="baike_item" href="/disease/detail/11161782630913">颈部肿块</a>
<!--<a href="/disease/detail/19052933472257" class="baike_item">乳房疼痛</a>-->
<!--<a href="/disease/detail/42458984346113" class="baike_item">大便不成形</a>-->
<a class="baike_more" href="/disease/list/0/0?diseaseContentType=B">更多<img alt="" src="/images/blue-return-icon.png"/></a>
</div>
<div class="baike_content display_none" id="baikeContent_3">
<a class="baike_item" href="/disease/detail/35822960061441">唐氏筛查</a>
<a class="baike_item" href="/disease/detail/19054906423297">幽门螺杆菌</a>
<a class="baike_item" href="/disease/detail/33610467692801">磁共振成像</a>
<a class="baike_item" href="/disease/detail/16759069610497">血小板减少</a>
<a class="baike_item" href="/disease/detail/16227973220609">乙肝两对半</a>
<a class="baike_item" href="/disease/detail/10432028588289">胃镜检查</a>
<a class="baike_item" href="/disease/detail/34493242982913">血常规</a>
<a class="baike_item" href="/disease/detail/34518260884225">谷丙转氨酶</a>
<a class="baike_item" href="/disease/detail/33322995056641">小三阳</a>
<a class="baike_item" href="/disease/detail/34714370980097">血压测量</a>
<a class="baike_item" href="/disease/detail/31602225276161">血糖</a>
<a class="baike_item" href="/disease/detail/33322348985089">大三阳</a>
<a class="baike_item" href="/disease/detail/34701135332865">肾功能检查</a>
<a class="baike_item" href="/disease/detail/31600877168897">肌酐检测</a>
<a class="baike_item" href="/disease/detail/31602608530945">总胆红素</a>
<a class="baike_item" href="/disease/detail/34247899530753">甲胎蛋白</a>
<a class="baike_item" href="/disease/detail/31600697186305">甘油三酯</a>
<a class="baike_item" href="/disease/detail/19211266942209">无痛胃镜</a>
<!--<a href="/disease/detail/9442496464129" class="baike_item">精液</a>-->
<a class="baike_item" href="/disease/detail/34161601655553">血沉</a>
<!--<a href="/disease/detail/12927619326721" class="baike_item">妇科检查</a>-->
<a class="baike_item" href="/disease/detail/35496008077825">肝功能异常</a>
<!--<a href="/disease/detail/19056012211969" class="baike_item">子宫输卵管造影术</a>-->
<!--<a href="/disease/detail/34476964931073" class="baike_item">白带常规检查</a>-->
<a class="baike_item" href="/disease/detail/34247806688001">促甲状腺激素</a>
<a class="baike_item" href="/disease/detail/33636641912577">胎心监护</a>
<a class="baike_item" href="/disease/detail/24388013644289">糖化血红蛋白</a>
<a class="baike_item" href="/disease/detail/30670619763201">血红蛋白</a>
<a class="baike_item" href="/disease/detail/35509965733889">糖抗原125</a>
<!--<a href="/disease/detail/34494749231105" class="baike_item">阴道分泌物检查</a>-->
<a class="baike_item" href="/disease/detail/34701864497409">血清透明质酸</a>
<a class="baike_item" href="/disease/detail/34247478837761">C反应蛋白</a>
<a class="baike_item" href="/disease/detail/13305557681921">碱性磷酸酶</a>
<a class="baike_item" href="/disease/detail/34714530970113">血脂检查</a>
<a class="baike_item" href="/disease/detail/17575101046017">孕前检查</a>
<a class="baike_item" href="/disease/detail/15474074376193">心电图</a>
<a class="baike_item" href="/disease/detail/34667025412865">HPV检查</a>
<a class="baike_item" href="/disease/detail/15519881075457">肿瘤标志物</a>
<a class="baike_item" href="/disease/detail/34145012769281">糖抗原19-9</a>
<a class="baike_item" href="/disease/detail/13306522090753">中性粒细胞</a>
<a class="baike_item" href="/disease/detail/34157499861249">睾酮</a>
<a class="baike_item" href="/disease/detail/34477112475905">餐后2小时血糖</a>
<!--<a href="/disease/detail/34712928659713" class="baike_item">性激素六项</a>-->
<a class="baike_item" href="/disease/detail/13305460545537">红细胞压积</a>
<a class="baike_item" href="/disease/detail/34144236569089">癌胚抗原</a>
<a class="baike_item" href="/disease/detail/40467196287745">尿常规</a>
<a class="baike_item" href="/disease/detail/31602511205889">直接胆红素</a>
<a class="baike_item" href="/disease/detail/31601031674369">肌酸激酶</a>
<!--<a href="/disease/detail/12377588451585" class="baike_item">艾滋病实验室检查</a>-->
<!--<a href="/disease/detail/5030" class="baike_item">宫颈活检</a>-->
<a class="baike_item" href="/disease/detail/34518830824961">红细胞偏低</a>
<a class="baike_item" href="/disease/detail/35509826770689">绒毛膜促性腺激素</a>
<a class="baike_item" href="/disease/detail/30672594402049">粪便常规检查</a>
<a class="baike_item" href="/disease/detail/34161829283585">血气分析</a>
<a class="baike_item" href="/disease/detail/30953419799297">嗜酸性粒细胞</a>
<a class="baike_item" href="/disease/detail/31622280867841">白蛋白</a>
<a class="baike_item" href="/disease/detail/31069882770689">尿胆原</a>
<a class="baike_item" href="/disease/detail/9943317724161">脑电图</a>
<a class="baike_item" href="/disease/detail/31601421108481">乳酸脱氢酶</a>
<a class="baike_item" href="/disease/detail/31070319465729">尿酮体定性</a>
<a class="baike_item" href="/disease/detail/35509086681345">淋球菌</a>
<a class="baike_item" href="/disease/detail/34518317296641">谷草转氨酶</a>
<a class="baike_item" href="/disease/detail/31350821523457">肺纹理增多</a>
<!--<a href="/disease/detail/19341583323905" class="baike_item">骨髓穿刺</a>-->
<!--<a href="/disease/detail/34521968611841" class="baike_item">间接胆红素</a>-->
<a class="baike_more" href="/disease/list/0/0?diseaseContentType=C">更多<img alt="" src="/images/blue-return-icon.png"/></a>
</div>
<div class="baike_content display_none" id="baikeContent_4">
<!--<a href="/disease/detail/13216663669505" class="baike_item">脱毛</a>-->
<!--<a href="/disease/detail/828" class="baike_item">义眼</a>-->
<a class="baike_item" href="/disease/detail/33348188008705">免疫治疗</a>
<a class="baike_item" href="/disease/detail/33350364487169">脱敏疗法</a>
<a class="baike_item" href="/disease/detail/6736">心脏骤停与心肺脑复苏</a>
<a class="baike_item" href="/disease/detail/34169095781889">基因治疗</a>
<a class="baike_item" href="/disease/detail/19053176711937">现场心肺复苏</a>
<a class="baike_item" href="/disease/detail/19075818073089">癌症预防</a>
<a class="baike_item" href="/disease/detail/19340588722433">高血压的一级预防</a>
<!--<a href="/disease/detail/18942119052801" class="baike_item">眼睑整形术</a>-->
<a class="baike_item" href="/disease/detail/12994204438273">植入式听觉装置</a>
<a class="baike_item" href="/disease/detail/19080652076033">心跳呼吸骤停抢救程序</a>
<a class="baike_item" href="/disease/detail/42590657481729">冷冻疗法</a>
<a class="baike_item" href="/disease/detail/42723888605697">腹膜透析</a>
<a class="baike_item" href="/disease/detail/42419993502209">胃肠减压</a>
<a class="baike_item" href="/disease/detail/42723899322113">血液透析</a>
<a class="baike_item" href="/disease/detail/42723888475137">腐蚀术</a>
<a class="baike_item" href="/disease/detail/42723897919233">皮损内治疗</a>
<a class="baike_item" href="/disease/detail/42969087901697">胃电起搏</a>
<a class="baike_item" href="/disease/detail/42723898816001">血浆置换</a>
<a class="baike_item" href="/disease/detail/42573172293633">膈肌生物反馈治疗</a>
<a class="baike_item" href="/disease/detail/42723898019073">特殊血液净化技术</a>
<a class="baike_item" href="/disease/detail/42723889752577">溃疡性结肠炎的维持治疗</a>
<a class="baike_item" href="/disease/detail/42543210137345">慢性便秘的生物反馈治疗</a>
<a class="baike_item" href="/disease/detail/42723889655809">克罗恩病的维持治疗</a>
<a class="baike_item" href="/disease/detail/42723898938369">血液灌流</a>
<a class="baike_item" href="/disease/detail/42723899084801">血液滤过</a>
<a class="baike_item" href="/disease/detail/42723888819457">腹膜透析营养治疗</a>
<a class="baike_more" href="/disease/list/0/0?diseaseContentType=E">更多<img alt="" src="/images/blue-return-icon.png"/></a>
</div>
<div class="baike_content display_none" id="baikeContent_5">
<a class="baike_item" href="/disease/detail/16247418576129">肾虚</a>
<!--<a href="/disease/detail/16736950871809" class="baike_item">宫寒</a>-->
<!--<a href="/disease/detail/2392" class="baike_item">阳痿</a>-->
<a class="baike_item" href="/disease/detail/7468285614081">肾阳虚</a>
<a class="baike_item" href="/disease/detail/7467616845825">脾虚</a>
<a class="baike_item" href="/disease/detail/7468335712769">肾阴虚</a>
<a class="baike_item" href="/disease/detail/16224826137089">肝火旺</a>
<a class="baike_item" href="/disease/detail/1614">气血不足</a>
<!--<a href="/disease/detail/2390" class="baike_item">遗精</a>-->
<a class="baike_item" href="/disease/detail/7467941231873">上火</a>
<a class="baike_item" href="/disease/detail/1497">风寒感冒</a>
<a class="baike_item" href="/disease/detail/1882">阴虚火旺</a>
<a class="baike_item" href="/disease/detail/6832">中风</a>
<a class="baike_item" href="/disease/detail/1667">盗汗</a>
<a class="baike_item" href="/disease/detail/35293796643329">湿气重</a>
<a class="baike_item" href="/disease/detail/7468553115905">阴虚</a>
<a class="baike_item" href="/disease/detail/1498">风热感冒</a>
<a class="baike_item" href="/disease/detail/7467804796417">气虚</a>
<a class="baike_item" href="/disease/detail/8988652456961">脾胃虚弱</a>
<a class="baike_item" href="/disease/detail/7365">血热</a>
<a class="baike_item" href="/disease/detail/1659">阳虚</a>
<a class="baike_item" href="/disease/detail/8972851296001">落枕</a>
<a class="baike_item" href="/disease/detail/7468449894913">胃寒</a>
<a class="baike_item" href="/disease/detail/853">风疹</a>
<a class="baike_item" href="/disease/detail/35293864871169">手脚冰凉</a>
<a class="baike_item" href="/disease/detail/10676667512833">口苦</a>
<a class="baike_item" href="/disease/detail/7462800570881">拔火罐</a>
<a class="baike_item" href="/disease/detail/7467139132929">脾胃虚寒</a>
<a class="baike_item" href="/disease/detail/7468372544001">湿热</a>
<a class="baike_item" href="/disease/detail/1599">心悸</a>
<a class="baike_item" href="/disease/detail/7463693883905">刮痧</a>
<a class="baike_item" href="/disease/detail/6979">血劳</a>
<a class="baike_item" href="/disease/detail/1863">血虚</a>
<a class="baike_item" href="/disease/detail/9302673873153">月子病</a>
<a class="baike_item" href="/disease/detail/7113">舌苔发黑</a>
<a class="baike_item" href="/disease/detail/1162">肝肾阴虚</a>
<a class="baike_item" href="/disease/detail/16247094522113">胞轮振跳</a>
<a class="baike_item" href="/disease/detail/1492">梅核气</a>
<a class="baike_item" href="/disease/detail/7466328402177">脾胃湿热</a>
<a class="baike_item" href="/disease/detail/9809339766017">夏季感冒</a>
<a class="baike_item" href="/disease/detail/6819">千日疮</a>
<a class="baike_item" href="/disease/detail/6883">热伤风</a>
<a class="baike_item" href="/disease/detail/1317">多梦</a>
<a class="baike_item" href="/disease/detail/35294189241857">体寒</a>
<a class="baike_item" href="/disease/detail/7467279211265">脾肾阳虚</a>
<a class="baike_item" href="/disease/detail/35293427783937">脾阳虚</a>
<a class="baike_item" href="/disease/detail/35288876421377">鹅掌风</a>
<a class="baike_item" href="/disease/detail/35295053246721">心火旺</a>
<a class="baike_item" href="/disease/detail/1489">崩漏</a>
<a class="baike_item" href="/disease/detail/35291843681793">肺热</a>
<a class="baike_item" href="/disease/detail/9167626351361">风寒咳嗽</a>
<a class="baike_item" href="/disease/detail/6944">肺热咳嗽</a>
<a class="baike_item" href="/disease/detail/8971629898753">小儿推拿</a>
<a class="baike_item" href="/disease/detail/1815">呕吐</a>
<a class="baike_item" href="/disease/detail/31888505755137">脾胃不和</a>
<a class="baike_item" href="/disease/detail/7468142631169">肾气虚</a>
<a class="baike_item" href="/disease/detail/1951">肝胆湿热</a>
<a class="baike_item" href="/disease/detail/11157164002049">痰湿体质</a>
<a class="baike_item" href="/disease/detail/6852">心肾不交</a>
<a class="baike_item" href="/disease/detail/8391871077121">瘰疬</a>
<a class="baike_item" href="/disease/detail/31351716718593">气短</a>
<a class="baike_item" href="/disease/detail/1056">气滞血瘀证</a>
<a class="baike_item" href="/disease/detail/11157808560385">阴虚体质</a>
<!--<a href="/disease/detail/8395868975873" class="baike_item">蜘蛛疮</a>-->
<!--<a href="/disease/detail/6785" class="baike_item">内热</a>-->
<a class="baike_more" href="/disease/list/0/0?diseaseContentType=I">更多<img alt="" src="/images/blue-return-icon.png"/></a>
</div>
<div class="baike_content display_none" id="baikeContent_6">
<a class="baike_item" href="/disease/detail/16227070749953">乙肝携带者</a>
<a class="baike_item" href="/disease/detail/33323485061889">HPV疫苗</a>
<!--<a href="/disease/detail/11117298369793" class="baike_item">肿瘤预防</a>-->
<a class="baike_item" href="/disease/detail/33485409438977">温室效应</a>
<a class="baike_item" href="/disease/detail/34895960136705">高危人群</a>
<a class="baike_item" href="/disease/detail/34896186352385">三级预防</a>
<a class="baike_item" href="/disease/detail/36066877849089">卡介苗疫苗</a>
<a class="baike_item" href="/disease/detail/34830928447233">百白破疫苗</a>
<a class="baike_item" href="/disease/detail/34831827755521">五联疫苗</a>
<a class="baike_item" href="/disease/detail/34831348417793">计划免疫</a>
<a class="baike_item" href="/disease/detail/34831245751297">脊髓灰质炎疫苗</a>
<a class="baike_item" href="/disease/detail/34896601277953">医源性传播</a>
<a class="baike_item" href="/disease/detail/34896521767425">一氧化碳排放</a>
<a class="baike_item" href="/disease/detail/34896118026241">氯化消毒</a>
<a class="baike_item" href="/disease/detail/34896257410049">社区试验</a>
<a class="baike_item" href="/disease/detail/34896460703745">新现传播病</a>
<a class="baike_item" href="/disease/detail/34896334205697">室内燃煤空气污染</a>
<a class="baike_item" href="/disease/detail/34896666916353">再燃传播病</a>
<a class="baike_item" href="/disease/detail/19076006121473">抗癌食物</a>
<a class="baike_item" href="/disease/detail/9901518247425">治未病</a>
<a class="baike_item" href="/disease/detail/33349251189761">三手烟</a>
<a class="baike_item" href="/disease/detail/33472592104961">预防接种</a>
<a class="baike_item" href="/disease/detail/31310416737793">卡介苗</a>
<a class="baike_item" href="/disease/detail/33494315517953">食品防腐剂</a>
<a class="baike_item" href="/disease/detail/13214590018561">零号病人</a>
<a class="baike_item" href="/disease/detail/33415373730049">二级预防</a>
<a class="baike_item" href="/disease/detail/19074152566785">癌症的三级预防</a>
<a class="baike_item" href="/disease/detail/33485105644033">一级预防</a>
<a class="baike_item" href="/disease/detail/34899128405505">饮食减肥</a>
<a class="baike_item" href="/disease/detail/33438707232257">接触传播</a>
<a class="baike_item" href="/disease/detail/34187242964481">支原体致病及防治</a>
<a class="baike_item" href="/disease/detail/34831627448577">轮状病毒疫苗</a>
<a class="baike_item" href="/disease/detail/10276185857793">口腔不良习惯</a>
<a class="baike_item" href="/disease/detail/33495020567297">人群健康效应谱</a>
<a class="baike_item" href="/disease/detail/33438923946241">空气传播</a>
<a class="baike_item" href="/disease/detail/33495107542529">群体免疫力</a>
<a class="baike_item" href="/disease/detail/33494618143489">伤残调整寿命年</a>
<a class="baike_item" href="/disease/detail/33495053030657">人类环境</a>
<a class="baike_item" href="/disease/detail/33494964741377">人群易感性</a>
<a class="baike_item" href="/disease/detail/19075798386177">水与健康</a>
<a class="baike_item" href="/disease/detail/19076244762625">营养素与预防癌症</a>
<a class="baike_item" href="/disease/detail/35824096656641">健康危险因素</a>
<a class="baike_item" href="/disease/detail/35824340309505">科学运动</a>
<a class="baike_item" href="/disease/detail/31293166391041">乙肝疫苗</a>
<a class="baike_item" href="/disease/detail/19076116968449">饮食防癌</a>
<a class="baike_item" href="/disease/detail/33494424431361">射频电磁辐射</a>
<a class="baike_item" href="/disease/detail/34831529408257">流脑疫苗</a>
<a class="baike_item" href="/disease/detail/33484876453889">疫源地</a>
<a class="baike_item" href="/disease/detail/34831902819841">乙脑疫苗</a>
<a class="baike_item" href="/disease/detail/33493866296321">食品漂白剂</a>
<a class="baike_item" href="/disease/detail/33438819959809">酒卫生</a>
<a class="baike_item" href="/disease/detail/33494277576705">食品化学性污染</a>
<a class="baike_item" href="/disease/detail/35824280542721">科学饮水</a>
<a class="baike_item" href="/disease/detail/33493579499009">食品着色剂</a>
<a class="baike_item" href="/disease/detail/33494099705089">食品膨松剂</a>
<a class="baike_item" href="/disease/detail/35824198242817">科学饮酒</a>
<a class="baike_item" href="/disease/detail/35823933775105">合理补钙</a>
<a class="baike_item" href="/disease/detail/33415743993601">公共卫生监测</a>
<a class="baike_item" href="/disease/detail/33412116697601">暴露人群</a>
<a class="baike_item" href="/disease/detail/33493653785089">食品增味剂</a>
<a class="baike_item" href="/disease/detail/33438785278721">经水传播</a>
<a class="baike_item" href="/disease/detail/33485931525121">室内尘螨</a>
<a class="baike_item" href="/disease/detail/33438140401921">环境介质</a>
<!--<a href="/disease/detail/33485833347841" class="baike_item">室内氡污染</a>-->
<!--<a href="/disease/detail/33485758591233" class="baike_item">室内甲醛污染</a>-->
<a class="baike_more" href="/disease/list/0/0?diseaseContentType=K">更多<img alt="" src="/images/blue-return-icon.png"/></a>
</div>
<div class="baike_content display_none" id="baikeContent_7">
<!--<a href="/disease/detail/35046421637633" class="baike_item">男性不育症患者护理</a>-->
<!--<a href="/disease/detail/35046548125953" class="baike_item">男性性功能障碍患者护理</a>-->
<!--<a href="/disease/detail/35046773393665" class="baike_item">膀胱癌患者护理</a>-->
<!--<a href="/disease/detail/35046360326913" class="baike_item">慢性前列腺炎患者护理</a>-->
<!--<a href="/disease/detail/35046301753089" class="baike_item">良性前列腺增生患者护理</a>-->
<!--<a href="/disease/detail/35046664242689" class="baike_item">尿路感染患者护理</a>-->
<!--<a href="/disease/detail/35046721916929" class="baike_item">尿路结石患者护理</a>-->
<!--<a href="/disease/detail/35046613625601" class="baike_item">尿道损伤患者护理</a>-->
<!--<a href="/disease/detail/35495631113473" class="baike_item">卵巢恶性肿瘤患者护理</a>-->
<!--<a href="/disease/detail/35495717275649" class="baike_item">外阴恶性肿瘤患者护理</a>-->
<!--<a href="/disease/detail/35495842068737" class="baike_item">子宫内膜癌患者护理</a>-->
<!--<a href="/disease/detail/35495770716417" class="baike_item">子宫颈癌患者护理</a>-->
<!--<a href="/disease/detail/35046482116353" class="baike_item">男性泌尿生殖系统结核患者护理</a>-->
<a class="baike_item" href="/disease/detail/35043098906625">原发性支气管肺癌患者护理</a>
<a class="baike_item" href="/disease/detail/35028619554305">先天性心脏病患儿护理</a>
<!--<a href="/disease/detail/35046218698241" class="baike_item">急性尿潴留患者护理</a>-->
<!--<a href="/disease/detail/12992179352065" class="baike_item">子宫畸形</a>-->
<a class="baike_item" href="/disease/detail/30647599953153">婴儿护理</a>
<a class="baike_item" href="/disease/detail/30643639498241">早产儿护理</a>
<a class="baike_item" href="/disease/detail/33814463584769">食管癌患者护理</a>
<a class="baike_item" href="/disease/detail/33814531849473">胃癌患者护理</a>
<a class="baike_item" href="/disease/detail/33811666740481">肝癌患者护理</a>
<a class="baike_item" href="/disease/detail/33815791734785">胰腺癌患者护理</a>
<a class="baike_item" href="/disease/detail/33815951231745">直肠癌患者护理</a>
<a class="baike_item" href="/disease/detail/33809555938817">胆管癌患者护理</a>
<a class="baike_item" href="/disease/detail/33809919144193">胆囊癌患者护理</a>
<a class="baike_item" href="/disease/detail/33812582748161">壶腹周围癌患者护理</a>
<a class="baike_item" href="/disease/detail/33812749671681">结肠癌患者护理</a>
<a class="baike_item" href="/disease/detail/33815075799041">胰岛素瘤患者护理</a>
<a class="baike_item" href="/disease/detail/33814615943937">胃镜检查护理</a>
<!--<a href="/disease/detail/35228872022017" class="baike_item">阴道炎患者护理</a>-->
<a class="baike_item" href="/disease/detail/33814814192385">胃炎患者护理</a>
<a class="baike_item" href="/disease/detail/33814881428225">消化道出血患者护理</a>
<a class="baike_item" href="/disease/detail/33814405164545">上消化道钡剂造影护理</a>
<a class="baike_item" href="/disease/detail/33815017319425">炎症性肠病患者护理</a>
<a class="baike_item" href="/disease/detail/33814331787521">人工肝治疗护理</a>
<a class="baike_item" href="/disease/detail/33814950332161">消化性溃疡患者护理</a>
<a class="baike_item" href="/disease/detail/33814105947137">阑尾炎患者护理</a>
<a class="baike_item" href="/disease/detail/33814183991809">门静脉高压患者护理</a>
<a class="baike_item" href="/disease/detail/33814246499073">内镜逆行胰胆管造影术护理</a>
<a class="baike_item" href="/disease/detail/33811525947905">反流性食管炎患者护理</a>
<a class="baike_item" href="/disease/detail/33791441287681">肠梗阻患者护理</a>
<a class="baike_item" href="/disease/detail/33812681229057">急性胰腺炎患者护理</a>
<a class="baike_item" href="/disease/detail/33815897015041">脂肪肝患者护理</a>
<a class="baike_item" href="/disease/detail/35042027343873">肺炎患者护理</a>
<a class="baike_item" href="/disease/detail/33812380175873">肝硬化患者护理</a>
<a class="baike_item" href="/disease/detail/35228334196481">盆腔炎患者护理</a>
<a class="baike_item" href="/disease/detail/33811433384193">胆石症患者护理</a>
<a class="baike_item" href="/disease/detail/35028450476545">下肢静脉曲张患者护理</a>
<!--<a href="/disease/detail/33812444203009" class="baike_item">肛裂患者护理</a>-->
<!--<a href="/disease/detail/35228222860289" class="baike_item">慢性宫颈炎患者护理</a>-->
<a class="baike_item" href="/disease/detail/33812307663873">肝移植患者护理</a>
<a class="baike_item" href="/disease/detail/33812830670081">结肠镜检查护理</a>
<a class="baike_item" href="/disease/detail/33814019260417">经皮经肝胆管引流术护理</a>
<a class="baike_item" href="/disease/detail/33791565138689">肠结核患者护理</a>
<a class="baike_item" href="/disease/detail/33811369767425">胆囊息肉样病变患者护理</a>
<a class="baike_item" href="/disease/detail/35027104078593">冠状动脉粥样硬化性心脏病患者护理</a>
<!--<a href="/disease/detail/35228922519809" class="baike_item">子宫肌瘤患者护理</a>-->
<a class="baike_item" href="/disease/detail/33791687140609">肠瘘患者护理</a>
<a class="baike_item" href="/disease/detail/35026459837953">感染性心内膜炎患者护理</a>
<!--<a href="/disease/detail/33812511938561" class="baike_item">肛瘘患者护理</a>-->
<a class="baike_item" href="/disease/detail/35043236296193">支气管哮喘患者护理</a>
<a class="baike_item" href="/disease/detail/35228531700737">妊娠滋养细胞肿瘤患者护理</a>
<!--<a href="/disease/detail/33791763927553" class="baike_item">胆道感染患者护理</a>-->
<!--<a href="/disease/detail/35042580589313" class="baike_item">心肌梗死患者护理</a>-->
<a class="baike_more" href="/disease/list/0/0?diseaseContentType=N">更多<img alt="" src="/images/blue-return-icon.png"/></a>
</div>
</div>
</div>
<div style="width:1200px;height: 1px"></div>
</div>
<div class="medication_wrap">
<div class="medication_container">
<div class="title_wrap">
<p><span>百科名医药物</span>百科</p>
<p>DANDELION MEDICINE ENCYCLOPEDIA</p>
<div></div>
</div>
<div class="medication_content_wrap">
<div class="medication_top">
<div class="medication_top_item medication_select">西药</div>
<div class="medication_top_item medication_normal">中药</div>
</div>
<div class="medication_content" id="medicationContent_1">
<a href="/medicine/detail/44672583827625">阿司匹林</a>
<a href="/medicine/detail/44672583824255">奥美拉唑</a>
<a href="/medicine/detail/44672583824388">青霉素</a>
<a href="/medicine/detail/44672583824403">青霉素钠</a>
<a href="/medicine/detail/44672583824296">柔红霉素</a>
<a href="/medicine/detail/44672583824332">维生素A</a>
<a href="/medicine/detail/44672583824357">维生素C</a>
<a href="/medicine/detail/44672583824362">维生素D</a>
<a href="/medicine/detail/44672583827770">普伐他汀</a>
<a href="/medicine/detail/44672583916381">苯巴比妥</a>
<a href="/medicine/detail/44672583827545">地西泮</a>
<a href="/medicine/detail/44672583824286">高锰酸钾</a>
<a href="/medicine/detail/44672583824306">过氧化氢</a>
<a href="/medicine/detail/44672583824276">乙醇</a>
<a href="/medicine/detail/44672583827705">替利定</a>
<a href="/medicine/detail/44672583827430">贝前列素</a>
<a href="/medicine/detail/44672583916196">丹皮酚</a>
<a href="/medicine/detail/44672583831532">地塞米松</a>
<a href="/medicine/detail/44672583831058">多潘立酮</a>
<a href="/medicine/detail/44672583827840">福美坦</a>
<a href="/medicine/detail/44672583828130">肝素钙</a>
<a href="/medicine/detail/44672583827995">骨化三醇</a>
<a href="/medicine/detail/44672583824429">利血平</a>
<a class="medication_more" href="/medicine/medicineListIndex?pageType=1&amp;contentType=1">更多<img alt="" src="/images/blue-return-icon.png"/></a>
</div>
<div class="medication_content display_none" id="medicationContent_2">
<a href="/medicine/detail/44672583836684">枸杞子</a>
<a href="/medicine/detail/44672583836556">甘草</a>
<a href="/medicine/detail/44672583837613">菊花</a>
<a href="/medicine/detail/44672583836584"> 板蓝根</a>
<a href="/medicine/detail/44672583837506"> 黄连</a>
<a href="/medicine/detail/44672583833159">三七</a>
<a href="/medicine/detail/44672583832298">百合</a>
<a href="/medicine/detail/44672583836744">何首乌</a>
<a href="/medicine/detail/44672583833064">阿胶</a>
<a href="/medicine/detail/44672583869662">逍遥丸</a>
<a href="/medicine/detail/44672583850984">大山楂丸</a>
<a href="/medicine/detail/44672583888005">牛黄上清丸</a>
<a href="/medicine/detail/44672583868687">消食健胃片</a>
<a href="/medicine/detail/44672583851289">二丁颗粒</a>
<a href="/medicine/detail/44672583851129">丹皮酚软膏</a>
<a href="/medicine/detail/44672583851149">党参理中丸</a>
<a href="/medicine/detail/44672583867747">感冒退热颗粒</a>
<a href="/medicine/detail/44672583867982">桑菊感冒颗粒</a>
<a href="/medicine/detail/44672583867412">小柴胡颗粒</a>
<a href="/medicine/detail/44672583868832">湿疹散</a>
<a href="/medicine/detail/44672583868842">疏风活络丸</a>
<a href="/medicine/detail/44672583869817">高血压速降丸</a>
<a href="/medicine/detail/44672583852329">清热止咳颗粒</a>
<a class="medication_more" href="/medicine/medicineListIndex?pageType=1&amp;contentType=2">更多<img alt="" src="/images/blue-return-icon.png"/></a>
</div>
</div>
</div>
</div>
<div class="first_aid_wrap display_none">
<div class="first_aid_container">
<div class="title_wrap">
<p>关于急救</p>
<p>EMERGENCY TREATMEN</p>
<div></div>
</div>
<div class="first_aid_content">
<div class="first_aid_left">
<a class="first_aid_item" href="/jiankangkepu/articleDetail/38745094116609">
<p class="first_aid_title">煤气中毒如何急救？</p>
<div class="first_aid_item_content">对于昏迷不醒的这些患者，我们要注意刺激他，比如拍一拍、判断一下他的意识，对意识清楚的患者，我们帮他尽快脱离这个煤气中毒的环境，然后给他喂一些热水等。</div>
<div class="first_aid_detail_wrap">详情 <img alt="" src="/images/skip.png"/></div>
</a>
<a class="first_aid_item" href="/jiankangkepu/articleDetail/46127859911169">
<p class="first_aid_title">台风期间必备的急救知识</p>
<div class="first_aid_item_content">在有伤害因素的现场，自己受伤后，如果还可以行动，立即转移到安全的地方。如果不能行动，应尽可能采取措施保护自己，同时立刻呼救。2.救助他人时，首先要观察环境中</div>
<div class="first_aid_detail_wrap">详情 <img alt="" src="/images/skip.png"/></div>
</a>
<a class="first_aid_item" href="/jiankangkepu/articleDetail/2422013614593">
<p class="first_aid_title">发生大出血后的急救原则是什么?</p>
<div class="first_aid_item_content">当患者一旦出现呕血、黑便等消化道出血的表现时，应该立即就医，以免延误病情。此时，判断病情的轻重、了解是否有休克的表现是非常重要的。如果病人一般情况比较稳</div>
<div class="first_aid_detail_wrap">详情 <img alt="" src="/images/skip.png"/></div>
</a>
<a class="first_aid_item" href="/jiankangkepu/articleDetail/38745109339137">
<p class="first_aid_title">溺水的人怎么急救？</p>
<div class="first_aid_item_content">溺水是在夏季天热时，经常发生的一种意外事故。溺水时，水经过鼻腔进入肺内，造成呼吸障碍，导致喉头痉挛等这些情况，引起窒息，如果不及时救治，病人就会因缺氧而导致</div>
<div class="first_aid_detail_wrap">详情 <img alt="" src="/images/skip.png"/></div>
</a>
</div>
<div class="first_aid_right">
<div class="first_aid_right_wrap">
<ul class="first_aid_right_ul">
<li>
<a href="/video/details/32395097194753">
<div class="exCircle"><div class="inCircle circle_normal"></div></div> <div class="news_text_des text_des_normal">心脏猝死如何急救？</div>
</a>
</li>
<li>
<a href="/video/details/36840625710337">
<div class="exCircle"><div class="inCircle circle_normal"></div></div> <div class="news_text_des text_des_normal">心肌梗死如何急救？</div>
</a>
</li>
<li>
<a href="/video/details/1531992407">
<div class="exCircle"><div class="inCircle circle_normal"></div></div> <div class="news_text_des text_des_normal">烫伤怎么急救？</div>
</a>
</li>
<li>
<a href="/video/details/1531991338">
<div class="exCircle"><div class="inCircle circle_normal"></div></div> <div class="news_text_des text_des_normal">发生触电现场应该怎么急救？</div>
</a>
</li>
<li>
<a href="/video/details/37307415394561">
<div class="exCircle"><div class="inCircle circle_normal"></div></div> <div class="news_text_des text_des_normal">突然休克怎么急救？</div>
</a>
</li>
<li>
<a href="/video/details/30846824378113">
<div class="exCircle"><div class="inCircle circle_normal"></div></div> <div class="news_text_des text_des_normal">急救知识心肺复苏</div>
</a>
</li>
<li>
<a href="/video/details/49067511989761">
<div class="exCircle"><div class="inCircle circle_normal"></div></div> <div class="news_text_des text_des_normal">冠心病突发的急救措施有哪些？</div>
</a>
</li>
<li>
<a href="/video/details/1531991585">
<div class="exCircle"><div class="inCircle circle_normal"></div></div> <div class="news_text_des text_des_normal">昏迷如何进行现场急救？</div>
</a>
</li>
</ul>
</div>
</div>
</div>
</div>
</div>
<div class="committee_wrap" style="padding-top: 30px;">
<div class="committee_container">
<div class="title_wrap" style="padding-top: 20px">
<p>院士专家委员会</p>
<p>COMMITTEE OF EXPERTS</p>
<div></div>
</div>
<ul class="expert-list">
<li>
<a href="/expert/expertIndex/3380">
<img src="/images/expert-1.png"/>
<h3>高润霖院士</h3>
<p>中国医学科学院阜外医院</p>
</a>
</li>
<li>
<a href="/expert/expertIndex/260">
<img src="/images/expert-2.png"/>
<h3>邱贵兴院士</h3>
<p>中国医学科学院北京协和医院</p>
</a>
</li>
<li>
<a href="/expert/expertIndex/3571">
<img src="/images/expert-3.png"/>
<h3>王陇德院士</h3>
<p>中华预防医学会</p>
</a>
</li>
<!--            <li>-->
<!--                <a href="/expert/expertIndex/804">-->
<!--                    <img th:src="#{static.filepath} +'/images/expert-4.png'">-->
<!--                    <h3>赵玉沛院士</h3>-->
<!--                    <p>中国医学科学院北京协和医院</p>-->
<!--                </a>-->
<!--            </li>-->
<li>
<a href="/expert/expertIndex/423">
<img src="/images/expert-5.png"/>
<h3>郎景和院士</h3>
<p>中国医学科学院北京协和医院</p>
</a>
</li>
<li>
<a href="/expert/expertIndex/3211">
<img src="/images/expert-6.png"/>
<h3>王辰院士</h3>
<p>中国医学科学院北京协和医学院</p>
</a>
</li>
<li>
<a href="/expert/expertIndex/684">
<img src="/images/expert-7.png"/>
<h3>孙燕院士</h3>
<p>中国医学科学院肿瘤医院</p>
</a>
</li>
<li>
<a href="/expert/expertIndex/3358">
<img src="/images/expert-8.png"/>
<h3>庄辉院士</h3>
<p>北京大学医学部基础医学院</p>
</a>
</li>
<li>
<a href="/expert/expertIndex/1065">
<img src="/images/expert-9.png"/>
<h3>陈香美院士</h3>
<p>中国人民解放军总医院</p>
</a>
</li>
<!--            <li>-->
<!--                <a href="/expert/expertIndex/1033">-->
<!--                    <img th:src="#{static.filepath} +'/images/expert-10.png'">-->
<!--                    <h3>赫捷院士</h3>-->
<!--                    <p>中国医学科学院肿瘤医院</p>-->
<!--                </a>-->
<!--            </li>-->
<li>
<a href="/expert/expertIndex/681">
<img src="/images/expert-11.png"/>
<h3>程书钧院士</h3>
<p>中国医学科学院肿瘤医院</p>
</a>
</li>
<li>
<a>
<img src="/images/expert-12.png"/>
<h3>刘德培院士</h3>
<p>中国医学科学院北京协和医学院</p>
</a>
</li>
</ul>
</div>
</div>
<input id="curPath" type="hidden" value=""/>
<div class="friendly_link_wrap">
<div class="friendly_container">
<div class="title_wrap">
<p>友情链接</p>
<p>FRIENDSHIP LINKS</p>
<div></div>
</div>
<div class="friendly-list"></div>
</div>
</div>
<div id="footer">
<div id="footer-list">
<!--            <a href="/abouts/gogywm" class="footer-link">关于我们</a>-->
<a class="footer-link" href="/abouts/gohzjg">合作医院</a>
<a class="footer-link" href="/abouts/goflsm">法律声明</a>
<a class="footer-link" href="/abouts/gofwxy">服务协议<span>new<span></span></span></a>
<a class="footer-link" href="/abouts/goystk">隐私条款<span>new</span></a>
<!--            <a href="/abouts/goxmjs" class="footer-link">项目介绍</a>-->
<a class="footer-link" href="/abouts/gozjwyh">专家委员会</a>
<!--            <a href="/abouts/gosdyy" class="footer-link">试点医院</a>-->
<!--            <a href="/abouts/gomtbd" class="footer-link">媒体报道</a>-->
<a class="footer-link" href="/abouts/golxwm">联系我们</a>
<a class="footer-link" href="/abouts/gowzdt">网站地图</a>
<a class="footer-link" href="https://m.baikemy.com/v1?fixed=true" target="_blank">去移动站</a>
</div>
<div id="copyright-info">
            以上协议更新了，请及时查看，若有任何疑问，欢迎您向我们反馈。
            <br/>Copyright©2010-2020 百科名医 京ICP证 110448号 京卫网审[2011] 第0473号 京公网安备 11010202003110号   互联网药品信息服务资格证书 (京)-经营性-2016-0022
            <br/>广播电视节目制作经营许可证 (京)字第09308号
        </div>
<div id="footer-warn">
            本网站所有文章、视频、图片等内容为百科名医网所有，任何个人、组织、机构等未经允许不得擅自进行复制、修改、剪辑或以其他任何形式进行商业使用,违者究其法律责任及经济赔偿。
        </div>
<img alt="Top_arrow" class="top_arrow" id="top_arrow" src="/images/px-top-arrow.png"/>
<script type="text/javascript">
            //	回到顶部
            $("#top_arrow").hide();
            $(function () {
                $(window).scroll(function(){
                    if ($(window).scrollTop()>100){
                        $("#top_arrow").fadeIn(400);
                    }
                    else
                    {
                        $("#top_arrow").fadeOut(400);
                    }
                });

                $("#top_arrow").click(function(){
                    $('body,html').animate({scrollTop:0},400);
                    return false;
                });
            });
        </script>
</div>
<script>
    var myBanner = new Swiper('#banner',{
        direction:'horizontal',
        // slidesPerView: 1,
        loop: true,
        autoplay:{
            delay: 2500,
            disableOnInteraction: false
        },
        speed:2000,
        pagination: {
            el:'.swiper-pagination',
            clickable: true
        },
        autoplayDisableOnInteraction : false
    });
    var departmentInfo= {
        'nk': {
            id: 1,
            num:30
        },   //内科
        'wk': { //外科
            id: 2,
            num: 30
        },
        'fck': {//妇产科
            id: 3,
            num: 36
        },
        'ek' : {//儿科
            id:5,
            num: 30
        },
        'kqk': {//口腔科
            id: 7,
            num: 30
        },
        'jzk': { //急诊科
            id: 62,
            num: 48
        },
        'pfxbk': { //皮肤性病科
            id: 165,
            num: 48
        },
        'yk': { //眼科
            id:8,
            num:48
        },
        'ebhk': {//耳鼻喉-头颈外科
            id:6,
            num: 48
        },
        'jsxlk': { //精神心理科
            id: 23,
            num: 48
        },
        'zyk': { //中医学科
            id:28,
            num: 48
        }

    };

    $('.index_top_wrap').on('click', '.list-more', function () {
        var index = $(this).parents('li').index();
        var href = $('.index_top_left_content>a').eq(index).attr('href');
        href && (window.location.href = href)
    });

    ;(function () {
        Object.keys(departmentInfo).forEach(function (key) {
            $.ajax({
                type : "get",
                url : '/disease/department/list/' + departmentInfo[key].id,
                dataType : "json",
                success : function(data) {
                    if (data.message == 'success'){
                        var itemStr = "";
                        for (var i =0; i < data.data.length;i++) {
                            itemStr += '<li><a href="/disease/list/' + departmentInfo[key].id + '/' + data.data[i].dId +'?diseaseContentType=A">' + data.data[i].name + '</a></li>'
                        }
                        var subIdStr = '#' + key + 'SubDepartment';
                        if ($(subIdStr)){
                            $(subIdStr).html(itemStr);
                        }
                    }
                },
                error : function(err){
                    console.log(err)
                }
            });

            $.ajax({
                type : "get",
                url : '/disease/high/flow/list/' + departmentInfo[key].id,
                dataType : "json",
                success : function(data) {
                    if (data.message == 'success'){
                        var diseaseStr = "";
                        var imgUrl = $('body').attr('path');
                        var num = departmentInfo[key].num;
                        var num1 = num;
                        if(key == 'nk' || key == 'wk' || key == 'fck' || key == 'ek' || key == 'kqk'){
                            num1 = num > 29 ? 29 : num;
                        }

                        for (var i = 0; i < num1;i++) {
                            if (data.data[i]){
                                diseaseStr += '<li><a href="/disease/detail/' + data.data[i].id +'">' + data.data[i].name + '</a></li>'
                            }
                        }
                        if(key == 'nk' || key == 'wk' || key == 'fck' || key == 'ek' || key == 'kqk') {
                            if (num > 29) {
                                diseaseStr += '<li class="list-more"><a href="javascript:;">更多<img style="width: 7px" src="'+ imgUrl +'/images/blue-return-icon.png" alt=""></a></li>'
                            }
                        }
                        var diseaseIdStr = '#' + key + 'Disease';
                        if ($(diseaseIdStr)){
                            $(diseaseIdStr).html(diseaseStr);
                        }
                    }

                },
                error : function(err){
                    console.log(err)
                }
            });

        })
    })();
</script>
</body>
<!--最新资讯-->
<script>

    // (function getNewsList(){
    //     $.ajax({
    //         type : "post",
    //         url : '/jiankangkepu/getNewsArticleList',
    //         data: {
    //             pageIndex: 1,
    //             pageSize:14
    //         },
    //         dataType : "json",
    //         success : function(data) {
    //             var imgUrl = 'https://pic.baikemy.com/obj/project-l-cdn/web/static';
    //             if (data.message == 'success'){
    //                 var len = data.data.records.length;
    //                 var leftHtml = "";
    //                 var rightHtml = "";
    //                 var topNewsHtml = "";
    //                 for (var i =0; i < len; i++) {
    //                     var itemData = data.data.records[i];
    //                     if(i < 3){
    //                         var leftItem = '<a class="news_item" href="/jiankangkepu/articleDetail/' + itemData.id + '">' +
    //                             '<div class="news_item_left"><img class="news_item_img" src="' + itemData.categoryName + '">' +
    //                             '</div><div class="new_item_right"><p class="news_title">'+ itemData.name +'</p>' +
    //                             '<div class="new_item_content">' + itemData.summary +'</div>' +
    //                             '<div class="news_detail_wrap">详情</div></div></a>';
    //                         leftHtml += leftItem;
    //                     }else if(i == 3) {
    //                         topNewsHtml = '<a href="/jiankangkepu/articleDetail/' + itemData.id + '">' +
    //                             '<div class="top_news_left"><img class="top_news_img" src="' + itemData.categoryName + '">' +
    //                             '</div><div class="top_news_right"><p class="top_news_title">'+ itemData.name +'</p>' +
    //                             '<div class="top_news_item_content">' + itemData.summary +'</div></div></a>';
    //                     }else {
    //                         if (i < 7) {
    //                             var srcStr = imgUrl + '/images/' + 'num_' + (i - 3) + '.png';
    //                             var itemStr = '<a href="/jiankangkepu/articleDetail/' + itemData.id + '">' +
    //                                 '<li><img src="' + srcStr + '"><span style="padding-left: 10px">' + itemData.name +'</span></li></a>';
    //                             rightHtml += itemStr;
    //                         }else {
    //                             var itemStr_1 = '<a href="/jiankangkepu/articleDetail/' + itemData.id + '">' +
    //                                 '<li><span class="news_index">'+ (i-3) + '</span><span>' + itemData.name +'</span></li></a>';
    //                             rightHtml += itemStr_1;
    //                         }
    //                     }
    //                 }
    //                 $('.news_left').html(leftHtml);
    //                 $('.top_news_wrap').html(topNewsHtml);
    //                 $('.news_right_list_wrap').html(rightHtml);
    //             }
    //
    //         },
    //         error : function(err){
    //             console.log(err)
    //         }
    //     });
    // })();
</script>
<!--健康百科-->
<script>
    $('.baike_top_wrap').on('click','li', function () {
        var index = $(this).index() +1;
        $('.baike_top_item').each(function () {
            $(this).addClass('baike_normal').removeClass('baike_select');
        });
        $('.baike_content').each(function () {
           $(this).addClass('display_none');
        });
        $(this).addClass('baike_select').removeClass('baike_normal');
        $("#baikeContent_" +index).removeClass('display_none');
    })
</script>
<!--关于急救-->
<script>

    //鼠标移入
    $('.first_aid_right_ul').on('mouseover','li', function () {
        $(this).find('.inCircle').removeClass('circle_normal').addClass('circle_select');
        $(this).find('.news_text_des').removeClass('text_des_normal').addClass('text_des_select');
    });
    //鼠标移出
    $('.first_aid_right_ul').on('mouseout','li', function () {
        $(this).find('.inCircle').removeClass('circle_select').addClass('circle_normal');
        $(this).find('.news_text_des').removeClass('text_des_select').addClass('text_des_normal');
    });
</script>
<!--用药指南-->
<script>
    $('.medication_top').on('click','.medication_top_item', function () {
        var index = $(this).index() +1;
        $('.medication_top_item').each(function () {
            $(this).addClass('medication_normal').removeClass('medication_select');
        });
        $('.medication_content').each(function () {
            $(this).addClass('display_none');
        });
        $(this).addClass('medication_select').removeClass('medication_normal');
        $("#medicationContent_" +index).removeClass('display_none');
    })
</script>
<!--友情链接-->
<script>
    var curTime = (new Date()).getTime();
    var friendlySrc ='https://pic.baikemy.com/obj/project-l-cdn/ms/operation/friendlylink.js?v=' + curTime;
    $.getScript(friendlySrc, function () {
        if (friendlyLink && friendlyLink.length > 0) {
            $('.friendly_link_wrap').removeClass('display_none');
            var htmlStr = '';
            for (var i =0; i < friendlyLink.length; i++) {
                htmlStr += '<a target="_blank" href="'  + friendlyLink[i].linkURL+'">'+ friendlyLink[i].title + '</a>'
            }
            $('.friendly-list').html(htmlStr)
        }else {
            $('.friendly_link_wrap').addClass('display_none');
        }
    });
</script>
</html>