<?xml version="1.0" encoding="utf-8"?><!DOCTYPE html PUBLIC "-//W3C//DTD XHTML 1.0 Strict//EN" "http://www.w3.org/TR/xhtml1/DTD/xhtml1-strict.dtd">
<html>
<head>
<title>403 Forbidden</title>
</head>
<body>
<h1>Error 403 Forbidden</h1>
<p>Forbidden</p>
<h3>Guru Mediation:</h3>
<p>Details: cache-tyo19937-TYO 1610595696 4178467143</p>
<hr/>
<p>Varnish cache server</p>
</body>
</html>
