<!DOCTYPE html>
<html class="no-js" lang="fr-FR" prefix="og: http://ogp.me/ns#">
<head>
<meta content="7E1586B693B3EBE07F879E91148C943F" name="msvalidate.01"/>
<meta content="xiCrRDaPHfuSs6MXLPvRXG1_Salei3cOSRp55k6XGhs" name="google-site-verification"/>
<meta charset="utf-8"/>
<meta content="width=device-width, initial-scale=1, maximum-scale=1, user-scalable=0" name="viewport"/>
<!-- SEO par Rank Math - https://s.rankmath.com/home -->
<title>Page Not Found | BANK OF AFRICA</title>
<meta content="follow, noindex" name="robots"/>
<meta content="fr_FR" property="og:locale"/>
<meta content="object" property="og:type"/>
<meta content="Page Not Found | BANK OF AFRICA" property="og:title"/>
<meta content="BANK OF AFRICA" property="og:site_name"/>
<meta content="summary_large_image" name="twitter:card"/>
<meta content="Page Not Found | BANK OF AFRICA" name="twitter:title"/>
<script class="rank-math-schema" type="application/ld+json">{
    "@context": "https://schema.org",
    "@graph": [
        {
            "@type": "Organization",
            "@id": "https://www.bank-of-africa.net/#organization",
            "name": "Bank of Affrica",
            "url": "https://www.bank-of-africa.net",
            "logo": {
                "@type": "ImageObject",
                "url": "https://www.bank-of-africa.net/wp-content/uploads/2019/10/logo.png"
            }
        },
        {
            "@type": "WebSite",
            "@id": "https://www.bank-of-africa.net/#website",
            "url": "https://www.bank-of-africa.net",
            "name": "Bank of Affrica",
            "publisher": {
                "@id": "https://www.bank-of-africa.net/#organization"
            },
            "inLanguage": "fr-FR",
            "potentialAction": {
                "@type": "SearchAction",
                "target": "https://www.bank-of-africa.net/?s={search_term_string}",
                "query-input": "required name=search_term_string"
            }
        },
        {
            "@type": "WebPage",
            "@id": "#webpage",
            "url": false,
            "name": "Page Not Found | BANK OF AFRICA",
            "isPartOf": {
                "@id": "https://www.bank-of-africa.net/#website"
            },
            "inLanguage": "fr-FR"
        }
    ]
}</script>
<!-- /Extension Rank Math WordPress SEO -->
<link href="//fonts.googleapis.com" rel="dns-prefetch"/>
<link href="//code.ionicframework.com" rel="dns-prefetch"/>
<link href="//cdnjs.cloudflare.com" rel="dns-prefetch"/>
<link href="//s.w.org" rel="dns-prefetch"/>
<link href="https://www.bank-of-africa.net/feed/" rel="alternate" title="BANK OF AFRICA » Flux" type="application/rss+xml"/>
<link href="https://www.bank-of-africa.net/comments/feed/" rel="alternate" title="BANK OF AFRICA » Flux des commentaires" type="application/rss+xml"/>
<!-- This site uses the Google Analytics by ExactMetrics plugin v6.4.0 - Using Analytics tracking - https://www.exactmetrics.com/ -->
<script data-cfasync="false" type="text/javascript">
    (window.gaDevIds=window.gaDevIds||[]).push("dNDMyYj");
	var em_version         = '6.4.0';
	var em_track_user      = true;
	var em_no_track_reason = '';
	
	var disableStr = 'ga-disable-UA-149350787-2';

	/* Function to detect opted out users */
	function __gaTrackerIsOptedOut() {
		return document.cookie.indexOf(disableStr + '=true') > -1;
	}

	/* Disable tracking if the opt-out cookie exists. */
	if ( __gaTrackerIsOptedOut() ) {
		window[disableStr] = true;
	}

	/* Opt-out function */
	function __gaTrackerOptout() {
	  document.cookie = disableStr + '=true; expires=Thu, 31 Dec 2099 23:59:59 UTC; path=/';
	  window[disableStr] = true;
	}

	if ( 'undefined' === typeof gaOptout ) {
		function gaOptout() {
			__gaTrackerOptout();
		}
	}
	
	if ( em_track_user ) {
		(function(i,s,o,g,r,a,m){i['GoogleAnalyticsObject']=r;i[r]=i[r]||function(){
			(i[r].q=i[r].q||[]).push(arguments)},i[r].l=1*new Date();a=s.createElement(o),
			m=s.getElementsByTagName(o)[0];a.async=1;a.src=g;m.parentNode.insertBefore(a,m)
		})(window,document,'script','//www.google-analytics.com/analytics.js','__gaTracker');

window.ga = __gaTracker;		__gaTracker('create', 'UA-149350787-2', 'auto');
		__gaTracker('set', 'forceSSL', true);
		__gaTracker('send','pageview','/404.html?page=' + document.location.pathname + document.location.search + '&from=' + document.referrer);
		__gaTracker( function() { window.ga = __gaTracker; } );
	} else {
		console.log( "" );
		(function() {
			/* https://developers.google.com/analytics/devguides/collection/analyticsjs/ */
			var noopfn = function() {
				return null;
			};
			var noopnullfn = function() {
				return null;
			};
			var Tracker = function() {
				return null;
			};
			var p = Tracker.prototype;
			p.get = noopfn;
			p.set = noopfn;
			p.send = noopfn;
			var __gaTracker = function() {
				var len = arguments.length;
				if ( len === 0 ) {
					return;
				}
				var f = arguments[len-1];
				if ( typeof f !== 'object' || f === null || typeof f.hitCallback !== 'function' ) {
					console.log( 'Non exécution de la fonction en cours __gaTracker(' + arguments[0] + " ....) parce que vous n’êtes pas suivi. " + em_no_track_reason );
					return;
				}
				try {
					f.hitCallback();
				} catch (ex) {

				}
			};
			__gaTracker.create = function() {
				return new Tracker();
			};
			__gaTracker.getByName = noopnullfn;
			__gaTracker.getAll = function() {
				return [];
			};
			__gaTracker.remove = noopfn;
			window['__gaTracker'] = __gaTracker;
			window.ga = __gaTracker;		})();
		}
</script>
<!-- / Google Analytics by ExactMetrics -->
<script type="text/javascript">
			window._wpemojiSettings = {"baseUrl":"https:\/\/s.w.org\/images\/core\/emoji\/13.0.1\/72x72\/","ext":".png","svgUrl":"https:\/\/s.w.org\/images\/core\/emoji\/13.0.1\/svg\/","svgExt":".svg","source":{"concatemoji":"https:\/\/www.bank-of-africa.net\/wp-includes\/js\/wp-emoji-release.min.js?ver=5.6"}};
			!function(e,a,t){var r,n,o,i,p=a.createElement("canvas"),s=p.getContext&&p.getContext("2d");function c(e,t){var a=String.fromCharCode;s.clearRect(0,0,p.width,p.height),s.fillText(a.apply(this,e),0,0);var r=p.toDataURL();return s.clearRect(0,0,p.width,p.height),s.fillText(a.apply(this,t),0,0),r===p.toDataURL()}function l(e){if(!s||!s.fillText)return!1;switch(s.textBaseline="top",s.font="600 32px Arial",e){case"flag":return!c([127987,65039,8205,9895,65039],[127987,65039,8203,9895,65039])&&(!c([55356,56826,55356,56819],[55356,56826,8203,55356,56819])&&!c([55356,57332,56128,56423,56128,56418,56128,56421,56128,56430,56128,56423,56128,56447],[55356,57332,8203,56128,56423,8203,56128,56418,8203,56128,56421,8203,56128,56430,8203,56128,56423,8203,56128,56447]));case"emoji":return!c([55357,56424,8205,55356,57212],[55357,56424,8203,55356,57212])}return!1}function d(e){var t=a.createElement("script");t.src=e,t.defer=t.type="text/javascript",a.getElementsByTagName("head")[0].appendChild(t)}for(i=Array("flag","emoji"),t.supports={everything:!0,everythingExceptFlag:!0},o=0;o<i.length;o++)t.supports[i[o]]=l(i[o]),t.supports.everything=t.supports.everything&&t.supports[i[o]],"flag"!==i[o]&&(t.supports.everythingExceptFlag=t.supports.everythingExceptFlag&&t.supports[i[o]]);t.supports.everythingExceptFlag=t.supports.everythingExceptFlag&&!t.supports.flag,t.DOMReady=!1,t.readyCallback=function(){t.DOMReady=!0},t.supports.everything||(n=function(){t.readyCallback()},a.addEventListener?(a.addEventListener("DOMContentLoaded",n,!1),e.addEventListener("load",n,!1)):(e.attachEvent("onload",n),a.attachEvent("onreadystatechange",function(){"complete"===a.readyState&&t.readyCallback()})),(r=t.source||{}).concatemoji?d(r.concatemoji):r.wpemoji&&r.twemoji&&(d(r.twemoji),d(r.wpemoji)))}(window,document,window._wpemojiSettings);
		</script>
<style type="text/css">
img.wp-smiley,
img.emoji {
	display: inline !important;
	border: none !important;
	box-shadow: none !important;
	height: 1em !important;
	width: 1em !important;
	margin: 0 .07em !important;
	vertical-align: -0.1em !important;
	background: none !important;
	padding: 0 !important;
}
</style>
<link href="https://www.bank-of-africa.net/wp-includes/css/dist/block-library/style.min.css?ver=5.6" id="wp-block-library-css" media="all" rel="stylesheet" type="text/css"/>
<link href="https://www.bank-of-africa.net/wp-content/plugins/contact-form-7/includes/css/styles.css?ver=5.3.2" id="contact-form-7-css" media="all" rel="stylesheet" type="text/css"/>
<link href="https://www.bank-of-africa.net/wp-content/plugins/salient-social/css/style.css?ver=1.1" id="salient-social-css" media="all" rel="stylesheet" type="text/css"/>
<style id="salient-social-inline-css" type="text/css">

  .sharing-default-minimal .nectar-love.loved,
  body .nectar-social[data-color-override="override"].fixed > a:before, 
  body .nectar-social[data-color-override="override"].fixed .nectar-social-inner a,
  .sharing-default-minimal .nectar-social[data-color-override="override"] .nectar-social-inner a:hover {
    background-color: #008457;
  }
  .nectar-social.hover .nectar-love.loved,
  .nectar-social.hover > .nectar-love-button a:hover,
  .nectar-social[data-color-override="override"].hover > div a:hover,
  #single-below-header .nectar-social[data-color-override="override"].hover > div a:hover,
  .nectar-social[data-color-override="override"].hover .share-btn:hover,
  .sharing-default-minimal .nectar-social[data-color-override="override"] .nectar-social-inner a {
    border-color: #008457;
  }
  #single-below-header .nectar-social.hover .nectar-love.loved i,
  #single-below-header .nectar-social.hover[data-color-override="override"] a:hover,
  #single-below-header .nectar-social.hover[data-color-override="override"] a:hover i,
  #single-below-header .nectar-social.hover .nectar-love-button a:hover i,
  .nectar-love:hover i,
  .hover .nectar-love:hover .total_loves,
  .nectar-love.loved i,
  .nectar-social.hover .nectar-love.loved .total_loves,
  .nectar-social.hover .share-btn:hover, 
  .nectar-social[data-color-override="override"].hover .nectar-social-inner a:hover,
  .nectar-social[data-color-override="override"].hover > div:hover span,
  .sharing-default-minimal .nectar-social[data-color-override="override"] .nectar-social-inner a:not(:hover) i,
  .sharing-default-minimal .nectar-social[data-color-override="override"] .nectar-social-inner a:not(:hover) {
    color: #008457;
  }
</style>
<link href="https://www.bank-of-africa.net/wp-content/plugins/wp-store-locator/css/styles.min.css?ver=2.2.233" id="wpsl-styles-css" media="all" rel="stylesheet" type="text/css"/>
<link href="https://www.bank-of-africa.net/wp-content/plugins/wpcf7-redirect/build/css/wpcf7-redirect-frontend.min.css?ver=5.6" id="wpcf7-redirect-script-frontend-css" media="all" rel="stylesheet" type="text/css"/>
<link href="https://www.bank-of-africa.net/wp-content/plugins/google-analytics-dashboard-for-wp/assets/css/frontend.min.css?ver=6.4.0" id="exactmetrics-popular-posts-style-css" media="all" rel="stylesheet" type="text/css"/>
<link href="https://www.bank-of-africa.net/wp-content/plugins/wp-job-manager-applications/assets/css/frontend.css?ver=5.6" id="wp-job-manager-applications-frontend-css" media="all" rel="stylesheet" type="text/css"/>
<link href="https://www.bank-of-africa.net/wp-content/plugins/wp-job-manager-resumes/assets/css/frontend.css?ver=1.18.2" id="wp-job-manager-resume-frontend-css" media="all" rel="stylesheet" type="text/css"/>
<link href="https://www.bank-of-africa.net/wp-content/themes/salient/css/font-awesome.min.css?ver=4.6.4" id="font-awesome-css" media="all" rel="stylesheet" type="text/css"/>
<link href="https://www.bank-of-africa.net/wp-content/themes/salient/css/grid-system.css?ver=11.0.1" id="salient-grid-system-css" media="all" rel="stylesheet" type="text/css"/>
<link href="https://www.bank-of-africa.net/wp-content/themes/salient/css/style.css?ver=11.0.1" id="main-styles-css" media="all" rel="stylesheet" type="text/css"/>
<style id="main-styles-inline-css" type="text/css">
html:not(.page-trans-loaded) { background-color: #ffffff; }
</style>
<link href="https://www.bank-of-africa.net/wp-content/themes/salient/css/off-canvas/slide-out-right-hover.css?ver=11.0.1" id="nectar-ocm-slide-out-right-hover-css" media="all" rel="stylesheet" type="text/css"/>
<link href="https://www.bank-of-africa.net/wp-content/themes/salient/css/plugins/jquery.fancybox.css?ver=3.3.1" id="fancyBox-css" media="all" rel="stylesheet" type="text/css"/>
<link href="https://fonts.googleapis.com/css?family=Open+Sans%3A300%2C400%2C600%2C700&amp;subset=latin%2Clatin-ext" id="nectar_default_font_open_sans-css" media="all" rel="stylesheet" type="text/css"/>
<link href="https://www.bank-of-africa.net/wp-content/themes/salient/css/responsive.css?ver=11.0.1" id="responsive-css" media="all" rel="stylesheet" type="text/css"/>
<link href="https://www.bank-of-africa.net/wp-content/themes/salient/css/plugins/select2.css?ver=6.2" id="select2-css" media="all" rel="stylesheet" type="text/css"/>
<link href="https://www.bank-of-africa.net/wp-content/themes/salient-child/style.css?ver=11.0.1" id="salient-child-style-css" media="all" rel="stylesheet" type="text/css"/>
<link href="https://www.bank-of-africa.net/wp-content/themes/salient/css/skin-original.css?ver=11.0.1" id="skin-original-css" media="all" rel="stylesheet" type="text/css"/>
<!--[if lt IE 9]>
<link rel='stylesheet' id='vc_lte_ie9-css'  href='https://www.bank-of-africa.net/wp-content/plugins/js_composer_salient/assets/css/vc_lte_ie9.min.css?ver=6.0.5' type='text/css' media='screen' />
<![endif]-->
<link href="https://www.bank-of-africa.net/wp-content/plugins/cf7-conditional-fields/style.css?ver=1.9.14" id="cf7cf-style-css" media="all" rel="stylesheet" type="text/css"/>
<link href="https://www.bank-of-africa.net/wp-content/themes/salient/css/salient-dynamic-styles.css?ver=54962" id="dynamic-css-css" media="all" rel="stylesheet" type="text/css"/>
<style id="dynamic-css-inline-css" type="text/css">
@media only screen and (min-width:1000px){body #ajax-content-wrap.no-scroll{min-height:calc(100vh - 99px);height:calc(100vh - 99px)!important;}}@media only screen and (min-width:1000px){#page-header-wrap.fullscreen-header,#page-header-wrap.fullscreen-header #page-header-bg,html:not(.nectar-box-roll-loaded) .nectar-box-roll > #page-header-bg.fullscreen-header,.nectar_fullscreen_zoom_recent_projects,#nectar_fullscreen_rows:not(.afterLoaded) > div{height:calc(100vh - 98px);}.wpb_row.vc_row-o-full-height.top-level,.wpb_row.vc_row-o-full-height.top-level > .col.span_12{min-height:calc(100vh - 98px);}html:not(.nectar-box-roll-loaded) .nectar-box-roll > #page-header-bg.fullscreen-header{top:99px;}.nectar-slider-wrap[data-fullscreen="true"]:not(.loaded),.nectar-slider-wrap[data-fullscreen="true"]:not(.loaded) .swiper-container{height:calc(100vh - 97px)!important;}.admin-bar .nectar-slider-wrap[data-fullscreen="true"]:not(.loaded),.admin-bar .nectar-slider-wrap[data-fullscreen="true"]:not(.loaded) .swiper-container{height:calc(100vh - 97px - 32px)!important;}}
strong {
    font-weight: 700;
}
ul, ol {
    margin-bottom: 15px;
}
ul li, ol li {
    margin-bottom: 5px;
}
sup {
    vertical-align: baseline;
    position: relative;
    top: -0.6em;
}
p {
    padding-bottom: 15px;
}
.nectar-button.regular-button {
    border: 1px solid #008457;
    transition: all 0.5s ease;
    border-radius: 0 !important;
}
.nectar-button.regular-button:hover {
    background: none !important;
    color: #008457;
}
.nectar-button.regular-button.light-button:hover {
    color: #fff;
    border: 1px solid #fff;
}
.nectar-fancy-ul, .nectar-fancy-ul ul {
    margin-bottom: 15px !important;
}
.nectar-fancy-ul ul ul {
    margin-top: 10px;
    margin-bottom: 10px !important;
}
.regular-button {
    box-shadow: none !important;
}
#page-header-bg h1 {
     color: #008457;
}
.page #page-header-bg h1, .archive.category #page-header-bg h1 { 
    padding-top: 0;
    padding-bottom: 0;
    margin-bottom: 10px;
    color: #008457 !important;
}
.archive #page-header-bg img {
    display: block;
    max-width: 100%;
}
.archive.category #page-header-bg {
    font-size: 16px;
    font-weight: 700;
    line-height: 23px;
}
.archive.author #page-header-wrap, .archive.category #page-header-wrap, .archive.tag #page-header-wrap, .archive.date #page-header-wrap {
    height: auto;
    min-height: 320px;
}
.archive.author #page-header-wrap #page-header-bg, .archive.category #page-header-wrap #page-header-bg, .archive.tag #page-header-wrap #page-header-bg, .archive.date #page-header-wrap #page-header-bg {
    height: auto;
    min-height: 320px;
}
.nectar-recent-post-slide .nectar-recent-post-bg:after, .single [data-post-hs="default_minimal"] .page-header-bg-image:after, .archive .page-header-bg-image:after { background:none; }
#page-header-bg[data-alignment-v="middle"] .container { height: 320px; }
#page-header-bg .subheader {
    font-weight: 700 !important;
    display: block;
    font-size: 14px !important;
}
.archive.category #page-header-bg .subheader {
    display: none;
}
.archive #page-header-wrap .inner-wrap {
    color: #000;
}
.archive #page-header-wrap .inner-wrap p {
    font-size: 14px;
}
.page #page-header-bg .inner-wrap {
    max-width: 500px;
}
#page-header-bg .subheader {
    text-transform: none;
}
#page-header-bg[data-alignment="right"] .inner-wrap, .page-header-no-bg[data-alignment="right"] .inner-wrap{
    float: right;
}
.page-header-no-bg .section-title h1 span {
    display: block;
    padding: 0 !important;
    text-transform: none;
}
.img-with-aniamtion-wrap .hover-wrap { 
    margin-bottom: 0;
}
.nectar-fancy-ul { 
    margin-bottom: 35px;
}
.nectar-slider-wrap .content p {
    font-weight: 400;
    font-size: 16px;
    line-height: 1.45;
}
.nectar-slider-wrap .content p strong {
    font-weight: 700;
}
.swiper-slide[data-color-scheme="dark"] .content h1 {
    color: #008457 !important;
}
.swiper-slide[data-color-scheme="light"] .content h1 {
    color: #fff !important;
}
.swiper-slide h1 {
    font-weight: 700 !important;
    margin-bottom: 10px;
}
.home-slider .swiper-slide .content p {
    font-weight: normal;
}
body .nectar-slider-wrap[data-full-width="true"] .swiper-slide .content p, .swiper-slide .content p { 
    font-size: 16px !important;
    line-height: 1.5 !important;
}
body .nectar-slider-wrap[data-full-width="true"] .swiper-slide .content strong, body .nectar-slider-wrap[data-full-width="true"] .swiper-slide .content b {
    font-weight: 700 !important;
    display: inline-block;
    font-size: 14px !important;
}
.blue-title h2 { 
    color: #312b81;
}
.image-text-list {
    text-transform: uppercase;
    font-size: 13px;
    letter-spacing: -0.04em;
    line-height: 1.2;
    font-weight: bold;
}
.blue-text {
    color: #312b81;
}
.image-text-list p {
    display: flex;
    align-items: center;
}
.image-text-list p > a {
    display: flex;
    align-items: center;
    color: inherit !important;
    transition: all 0.5 ease;
}
.image-text-list p > a:hover {
    color: #008457 !important;
}
.image-text-list.light-text p > a:hover {
    color: #fff !important;
}
.image-text-list img {
    margin-right: 15px;
    max-width: 55px !important;
    margin-bottom: 0 !important;
    height: auto !important;
    width: -webkit-max-content !important;
}
.custom-fancy-box .nectar-fancy-box .box-bg:after {
    display: none;
} 
.custom-fancy-box .nectar-fancy-box {
    padding: 0;
    min-height: 280px;
}
.custom-fancy-box .nectar-fancy-box .inner {
    padding: 15px;
    width: 100%;
    position: absolute;
    left: 0;
    bottom: 0;
    min-height: 106px;
    display: flex;
    flex-direction: column;
    height: 106px;
    justify-content: center;
    background: rgba(0,132,87,0.75);
}
.custom-fancy-box .nectar-fancy-box .inner > * {
    line-height: normal;
}
.custom-fancy-box .nectar-fancy-box .inner h5, .custom-fancy-box .nectar-fancy-box .inner h2, .custom-fancy-box .nectar-fancy-box .inner h3, .custom-fancy-box .nectar-fancy-box .inner h4 {
    margin-bottom: 15px;
}
.custom-fancy-box .nectar-fancy-box::after {
    display: none;
}
.store-links { 
    margin-bottom: 0 !important;
}
.store-links img {
    margin-right: 15px;
}
.custom-fancy-box .nectar-fancy-box .inner a, .section-content-2 a {
    text-transform: uppercase;
    font-size: 11px;
    font-weight: 600;
}
.custom-fancy-box .nectar-fancy-box .inner a:after, .section-content-2 a:after {
    position: relative;
    font-family: FontAwesome;
    display: inline-block;
    content: "\f105";
    margin-left: 15px;
    font-size: 16px;
    line-height: 1;
    vertical-align: text-bottom;
    font-weight: 400;
}
.section-content-2 .col {
    min-height: 280px;
}
.section-content-2-wrapper > .vc_column-inner > .wpb_wrapper {
    min-height: 100% !important;
    display: flex;
}
.section-content-2-wrapper > .vc_column-inner > .wpb_wrapper > .inner_row {
    display: flex;
    width: 100%;
}
.section-content-2-wrapper > .vc_column-inner > .wpb_wrapper > .inner_row > .col {
    width: 100%;
}
.section-content-2 a {
    color: #fff;
}
.custom-tabs .ui-tabs-nav { 
    margin-bottom: 25px !important;
}
.custom-contact-form {
    max-width: 830px;
    margin: 0 auto;
}
.form-row {
    display: flex;
    flex-wrap: wrap;
    margin-left: -1%;
    margin-right: -1%;
    justify-content: space-between;
    font-size: 13px;
    color: #000;
    text-transform: uppercase;
    font-weight: 700;
}
.form-row > .form-column {
    width: 47%;
    padding-left: 1%;
    padding-right: 1%;
}
.form-row > .form-column.full-column {
    width: 100%;
}
.form-row input[type="text"], .form-row input[type="tel"], .form-row input[type="email"]{ 
    border: 0;
    border-bottom: 1px solid #626262;
    border-radius: 0;
    background: none;
    padding: 8px 0;
    color: #000 !important;
} 
.form-row input:focus { 
    box-shadow: none;
}
.form-row .fancy-select-wrap {
    padding-top: 0 !important;
}
.form-row .fancy-select-wrap .select2-container {
    font-size: 13px;
}
.form-row .select2-container .select2-choice {
    padding: 8px 0;
    border: 0;
    border-bottom: 1px solid #626262;
    border-color: #626262 !important;
    border-radius: 0;
    background-color: none !important;
    background: none !important;
}
.form-row .select2-container .select2-choice:hover, .form-row .select2-dropdown-open .select2-choice {
    background-color: none !important;
    background: none !important;
    color: #000 !important;
}
body .form-row .select2-container .select2-choice:hover >.select2-chosen, body .form-row .select2-dropdown-open .select2-choice >.select2-chosen {
    color: #000 !important;
}
body .select2-drop {
    font-size: 13px;
    margin-top: 0;
}
.form-row select { 
    background: none;
    box-shadow: none;
    border-bottom: 1px solid #626262;
    text-transform: uppercase;
}
.select2-results {
    padding: 0;
}
.select2-results > li {
    margin: 0;
} 
.select2-results .select2-result-label {
    padding: 8px;
}
.custom-contact-form .submit-button {
    margin-top: 34px;
    display: flex;
    flex-direction: row-reverse;
    align-items: center;
}
.custom-contact-form .submit-button .ajax-loader {
    margin-right: 10px;
}
.custom-contact-form span.wpcf7-not-valid-tip {
    color: #d60000 !important;
    padding: 5px 0;
    background: none;
    box-shadow: none;
}
.wpcf7 .wpcf7-response-output {  
    margin-top: 25px;
}
.form-row .select2-container .select2-choice .select2-arrow b:after {
    border-top-color: #666 !important;
}
.form-row .select2-dropdown-open .select2-choice .select2-arrow b:after {
    border-bottom-color: #666 !important;
    border-top-color: transparent !important;
}
.custom-tabs:after {
    display: block;
    height: 1px;
    background: #e7e7e7;
    content: '';
    position: absolute;
    left: 50%;
    right: 50%;
    margin-left: -50vw;
    margin-right: -50vw;
    width: 100vw;
}
.custom-tabs .ui-tabs-nav:after {  
    background-color: #e7e7e7 !important;
    opacity: 1 !important;
    bottom: 0;
}
.custom-tabs .ui-tabs-nav { 
    display: flex;
    position: relative;
    align-items: flex-end;
    flex-wrap: wrap;
} 
.custom-tabs .ui-tabs-nav li {
    flex: 1;
    z-index: 2;
    white-space: normal;
}
.custom-tabs .ui-tabs-nav li a, .custom-tabs .ui-tabs-nav li a:focus {
    border-radius: 0 !important;
    border: 1px solid transparent !important;
    border-bottom: 0 !important;
    background: #fff;
    color: #008457;
    text-transform: uppercase;
    display: table !important;
    width: 100%;
    padding-top: 0 !important;
    padding-bottom: 0 !important;
}
.custom-tabs .ui-tabs-nav li a span {
    display: table-cell;
    vertical-align: middle;
    height: 58px;
    position: relative;
    padding-top: 10px;
    padding-bottom: 10px;
    line-height: 1.2;
    font-weight: 700;
}
.custom-tabs .tabbed > ul li a {
    font-size: 16px !important;
    padding-left: 10px !important;
    padding-right: 10px !important;
    text-align: center !important;
}
.custom-tabs .ui-tabs-nav li a.active-tab {
    border-color: #e7e7e7 !important;
    background: #fff;
    color: #000;
}
.custom-tabs .ui-tabs-nav li a span:after {
    background: #f6f6f6 !important;
    position: absolute;
    content: '';
    left: 0;
    top: 10px;
    width: 100%;
    height: calc(100% - 20px);
    z-index: -1;
}
.custom-tabs .ui-tabs-nav li a:after { 
    box-shadow: none !important;
    display: none !important;
}
.nectar-fancy-ul .icon-salient-thin-line { 
    font-size: inherit !important;
    line-height: 1.3 !important;
    height: auto !important;
    text-align: left;
    width: 15px !important;
    color: inherit !important;
}
.main-content .nectar-fancy-ul[data-list-icon="icon-salient-thin-line"] ul li {
    padding-left: 15px;
}
.nectar-fancy-ul .icon-salient-thin-line::before {
    content: "-";
    font-family: FontAwesome;
}
.custom-large-button {
    min-width: 320px;
    padding: 17px 22px !important;
    text-align: left;
    border-radius: 0;
}
.custom-large-button span, .next-button span {
    width: 100%;
    position: relative;
    padding-right: 1.389em;
    display: block;
}
.next-button.medium {
    border-radius: 0;
    text-align: left;
}
.next-button span:after {
    position: absolute;
    font-family: 'simple-line-icons';
    display: inline-block;
    content: "\e606";
    font-size: 10px;
    line-height: 1;
    vertical-align: text-bottom;
    font-weight: 400;
    right: 0;
    margin-top: -5px;
    top: 50%;
}
.location-button span { 
    padding-right: 70px;
}
.upper-text { 
    text-transform: uppercase;
}
.custom-table {
    width: 100%;
    border: 0 !important;
    background: none;
}
.custom-table th {
    color: #008457;
    text-align: center !important;
    font-size: 12px;
    background: #f6f6f6;
    border: 0 !important;
     padding: 19px 20px !important;
}
.custom-table tr td {
    text-align: center !important;
    font-weight: 700;
    font-size: 12px;
    border: 0 !important;
    background: #fff;
    padding: 19px 20px !important;
}
.custom-table tr:nth-child(even) td {
    background: #f6f6f6;
}
.custom-table tr td:first-child {
    text-align: left !important;
}
.contact-phone-info .nectar-hor-list-item {
    padding-top: 0;
    padding-bottom: 5px;
    border: 0;
    font-size: 12px;
}
.contact-phone-info .nectar-hor-list-item .nectar-list-item:first-child {
    text-transform: uppercase;
    font-weight: 700;
}
.contact-phone-info .nectar-hor-list-item .nectar-list-item:last-child:before {
    content: ':';
    font-weight: 700;
    display: inline-block;
    margin-right: 10px;
}
.contact-phone-info .wpb_wrapper > .nectar-hor-list-item:last-child {
    margin-bottom: 25px;
}
.contact-phone-info .nectar-hor-list-item[data-columns="2"][data-column-layout="medium_first"] > div:nth-child(1) {
    width: 60%;
}
.contact-phone-info .nectar-hor-list-item[data-columns="2"][data-column-layout="medium_first"] > div:nth-child(2) {
    width: 40%;
}
.contact-phone-info a {
    color: #fff !important;
}
.column-content .nectar-fancy-ul h3 {
    text-transform: none;
    margin-bottom: 0;
} 
.single-resume .resume-aside img {
    height: 3em !important;
}
.single-resume .resume-aside .resume-links li {
    list-style: none;
}
.home-slider .buttons .button a {
    letter-spacing: normal;
    padding: 11px 40px 11px 17px !important;
    position: relative;
    border-radius: 0 !important;
    border: 1px solid #008457;
}
.home-slider .buttons .button a:after {
    position: absolute;
    right: 17px;
    top: 50%;
    margin-top: -6px;
    font-size: 15px;
    content: '\f105';
    font-family: FontAwesome;
}
body .home-slider .swiper-slide .button.solid_color a:hover {
    background-color: none !important;
    border: 1px solid #fff;
}
.archive .page-header-bg-image::after {
    display: none;
}
#page-header-bg:not(.fullscreen-header) .inner-wrap { 
    position: relative;
    max-width: 500px;
}
#page-header-bg:not(.fullscreen-header) .inner-wrap.inner-wrap-overlay:before {  
    content: '';
    position: absolute;
    background: rgba(255,255,255,0.6);
    width: 100%;
    height: 100%;
    z-index: -1;
    padding: 10px;
    left: -10px;
    top: -10px;
}
@media (max-width: 1300px) {
    .contact-phone-info .nectar-hor-list-item[data-columns="2"][data-column-layout="medium_first"] > div:nth-child(1) {width: 50%;}
    .contact-phone-info .nectar-hor-list-item[data-columns="2"][data-column-layout="medium_first"] > div:nth-child(2) {width: 50%;}
}
@media (min-width: 1200px) {
    body .vc_row-fluid .vc_col-lg-1\/5 { width: 20%; }
}
@media (max-width: 999px) {
    body #page-header-bg:not(.fullscreen-header) { height: 320px !important; padding: 0 !important; }
    body #page-header-bg:not(.fullscreen-header) .container { height: auto; width: 100%; }
    body #page-header-bg:not(.fullscreen-header) .page-header-bg-image-wrap { height: auto; }
    .form-row { margin-left: 0; margin-right: 0; flex-direction: column; }
    .form-row > .form-column { padding: 0; width: 100%; }
    .form-row > .form-column:first-child { margin-top: 0; } 
    .nectar-button.large { font-size: 12px; } 
    .section-content-right .col { flex-direction: column-reverse; }
    .section-content-right .col .vc_column-inner, .section-content-left .col .vc_column-inner { padding-left: 0 !important; padding-right: 0 !important; }
    .section-content-1 h2 { text-align: center !important; }
    .store-links img { margin-right: 0; } 
    .mobile-center { text-align: center !important; }
    .mobile-center img { display: block; margin-left: auto; margin-right: auto; float: none; }
    .custom-tabs .tabbed > ul li a { padding-left: 5px !important; padding-right: 5px !important; }
    .custom-tabs .tabbed .ui-tabs-nav li a { font-size: 12px !important; }
    .custom-tabs .ui-tabs-nav li a span { padding-top: 5px; padding-bottom: 5px; }
    .custom-tabs .ui-tabs-nav li a span:after { top: 5px; height: calc(100% - 10px); left: 0; width: 100%; }
    .page-header-bg-image { display: none; }
    .page-header-bg-image-wrap { position: relative !important; }
    .page-header-bg-image-wrap img { width: 100%; display: block; } 
    #page-header-wrap { height: auto !important; min-height: unset !important; } 
    bod #page-header-bg:not(.fullscreen-header) { height: auto !important; min-height: unset !important; flex-direction: column; padding: 0 !important; }
    body #page-header-bg:not(.fullscreen-header) .container { background: #008457; color: #fff !important; max-width: 100%; }
    body #page-header-bg:not(.fullscreen-header) .container .row { max-width: 600px; margin: 0 auto; }
    body #page-header-bg:not(.fullscreen-header) h1, body:not(.single-post) #page-header-bg:not(.fullscreen-header) .subheader { max-width: 100%; color: #fff !important; }
    body #page-header-bg:not(.fullscreen-header) h1 { padding-top: 15px; font-size: 22px; }
    body #page-header-bg:not(.fullscreen-header) .span_6.empty-title { display: none !important; }
    #page-header-bg:not(.fullscreen-header) .inner-wrap.inner-wrap-overlay:before { display: none !important; }  
    #page-header-bg:not(.fullscreen-header) .inner-wrap { max-width: 100%; }
    .home-slider .nectar-slider-wrap, .home-slider .swiper-container, .home-slider .swiper-wrapper, .home-slider .swiper-slide { height: auto !important; min-height: unset !important; }
    .home-slider .nectar-slider-wrap, .home-slider .swiper-container { background: #fff !important; }
    .home-slider .swiper-slide { background: #008457 !important; }
    .swiper-slide[data-color-scheme="dark"] .content h1, .swiper-slide[data-color-scheme="light"] .content h1 {color: #fff !important;}
    .swiper-slide .content p, .swiper-slide .content span {color: #fff !important;}
    .swiper-slide .content span { margin-bottom: 10px; } 
    .home-slider .slide-bg-wrap { position: relative; }
    .home-slider .slide-bg-wrap img { margin: 0; } 
    .home-slider .nectar-slider-wrap .swiper-slide .content { max-width: 600px; margin: 0 auto; min-height: 70px; padding: 15px 0 5px 0; display: flex; justify-content: center; flex-direction: column; top: auto !important; position: relative !important; transform: none !important; }
    .home-slider .swiper-slide .container { max-width: 100%; }
    .home-slider .buttons .button a { background: none; border: 1px solid #fff; }
    .archive.category #page-header-bg h1, .archive #page-header-bg h1, .archive #page-header-bg .inner-wrap, .archive #page-header-bg p { color: #fff !important; }
    .archive #page-header-bg .container { padding-top: 15px; }
    .archive.author #page-header-wrap #page-header-bg, .archive.category #page-header-wrap #page-header-bg, .archive.tag #page-header-wrap #page-header-bg, .archive.date #page-header-wrap #page-header-bg { min-height: auto; }
    #page-header-bg[data-alignment-v="middle"] .container { height: auto; }
    body.single-post #page-header-bg:not(.fullscreen-header):not([data-post-hs="default"]) { min-height: auto; }
    #page-header-bg[data-alignment="right"] .inner-wrap, .page-header-no-bg[data-alignment="right"] .inner-wrap{ float: none; text-align: left;}
}
@media (max-width: 689px) {
    .image-text-list p, .image-text-list p > a { flex-direction: column; text-align: center !important; font-size: 11px; max-width: 90%; margin: 0 auto; }
    .image-text-list img { display: block; margin-right: 0; margin-bottom: 10px !important; max-height: 40px; width: auto !important; }
    .column-content { max-width: 350px !important; width: auto !important; }
    .custom-tabs .ui-tabs-nav li { min-width: 120px; }
    .call-button, .custom-large-button { min-width: 300px; }
    .location-button span { padding-right: 39px; }
    .custom-table th, .custom-table tr td { padding: 10px 5px !important; font-size: 10px !important; } 
}
@media only screen and (max-width: 690px) {
    body .swiper-slide .content .buttons { padding-top: 0; }
    body #page-header-bg:not(.fullscreen-header) .container .row, .home-slider .nectar-slider-wrap.loaded .swiper-slide .content { max-width: 320px; }
    .section-content-2 .padding-4-percent .vc_column-inner { padding: 15px !important; }
}
@media only screen and (max-width: 690px) and (min-width: 480px) {
    body #page-header-bg:not(.fullscreen-header) .container .row, .home-slider .nectar-slider-wrap.loaded .swiper-slide .content { max-width: 420px; }
}
@media only screen and (max-width: 340px) {
    body #page-header-bg:not(.fullscreen-header) .container .row, .home-slider .nectar-slider-wrap.loaded .swiper-slide .content { padding-left: 10px; padding-right: 10px; }
}
</style>
<link href="https://www.bank-of-africa.net/wp-content/themes/salient-child/css/jquery.mCustomScrollbar.css?ver=5.6" id="custom-scroll-css" media="all" rel="stylesheet" type="text/css"/>
<link href="https://www.bank-of-africa.net/wp-content/themes/salient-child/css/jquery-ui.css?ver=1.9.0" id="jquery-ui-css-css" media="" rel="stylesheet" type="text/css"/>
<link href="https://code.ionicframework.com/ionicons/2.0.1/css/ionicons.min.css?ver=1.9.0" id="ionicons-css" media="" rel="stylesheet" type="text/css"/>
<link href="https://cdnjs.cloudflare.com/ajax/libs/simple-line-icons/2.5.5/css/simple-line-icons.min.css?ver=1.9.0" id="simple-icons-css" media="" rel="stylesheet" type="text/css"/>
<link href="https://www.bank-of-africa.net/wp-content/themes/salient-child/css/MonthPicker.css?ver=1.9.0" id="jquery-monthpicker-css" media="" rel="stylesheet" type="text/css"/>
<link href="https://fonts.googleapis.com/css?family=Montserrat%3A700%2C600%2C400%2C400italic&amp;subset=latin&amp;ver=1609254206" id="redux-google-fonts-salient_redux-css" media="all" rel="stylesheet" type="text/css"/>
<script id="exactmetrics-frontend-script-js-extra" type="text/javascript">
/* <![CDATA[ */
var exactmetrics_frontend = {"js_events_tracking":"true","download_extensions":"zip,mp3,mpeg,pdf,docx,pptx,xlsx,rar","inbound_paths":"[{\"path\":\"\\\/go\\\/\",\"label\":\"affiliate\"},{\"path\":\"\\\/recommend\\\/\",\"label\":\"affiliate\"}]","home_url":"https:\/\/www.bank-of-africa.net","hash_tracking":"false"};
/* ]]> */
</script>
<script id="exactmetrics-frontend-script-js" src="https://www.bank-of-africa.net/wp-content/plugins/google-analytics-dashboard-for-wp/assets/js/frontend.min.js?ver=6.4.0" type="text/javascript"></script>
<script id="jquery-core-js" src="https://www.bank-of-africa.net/wp-includes/js/jquery/jquery.min.js?ver=3.5.1" type="text/javascript"></script>
<script id="jquery-migrate-js" src="https://www.bank-of-africa.net/wp-includes/js/jquery/jquery-migrate.min.js?ver=3.3.2" type="text/javascript"></script>
<link href="https://www.bank-of-africa.net/wp-json/" rel="https://api.w.org/"/><link href="https://www.bank-of-africa.net/xmlrpc.php?rsd" rel="EditURI" title="RSD" type="application/rsd+xml"/>
<link href="https://www.bank-of-africa.net/wp-includes/wlwmanifest.xml" rel="wlwmanifest" type="application/wlwmanifest+xml"/>
<script type="text/javascript"> var root = document.getElementsByTagName( "html" )[0]; root.setAttribute( "class", "js" ); </script><style type="text/css">.recentcomments a{display:inline !important;padding:0 !important;margin:0 !important;}</style><meta content="Powered by WPBakery Page Builder - drag and drop page builder for WordPress." name="generator"/>
<link href="https://www.bank-of-africa.net/wp-content/uploads/2019/11/cropped-favicon-32x32.png" rel="icon" sizes="32x32"/>
<link href="https://www.bank-of-africa.net/wp-content/uploads/2019/11/cropped-favicon-192x192.png" rel="icon" sizes="192x192"/>
<link href="https://www.bank-of-africa.net/wp-content/uploads/2019/11/cropped-favicon-180x180.png" rel="apple-touch-icon"/>
<meta content="https://www.bank-of-africa.net/wp-content/uploads/2019/11/cropped-favicon-270x270.png" name="msapplication-TileImage"/>
<noscript><style> .wpb_animate_when_almost_visible { opacity: 1; }</style></noscript>
</head>
<body class="error404 original salient-child-theme wpb-js-composer js-comp-ver-6.0.5 vc_responsive" data-aie="none" data-ajax-transitions="true" data-animated-anchors="true" data-apte="standard" data-bg-header="false" data-body-border="off" data-boxed-style="" data-button-style="default" data-cad="750" data-cae="easeOutCubic" data-cart="false" data-col-gap="default" data-dropdown-style="minimal" data-ext-responsive="false" data-fancy-form-rcs="1" data-flex-cols="true" data-footer-reveal="false" data-footer-reveal-shadow="none" data-force-header-trans-color="light" data-form-style="default" data-form-submit="regular" data-full-width-header="true" data-header-breakpoint="1000" data-header-color="light" data-header-format="centered-logo-between-menu" data-header-inherit-rc="false" data-header-resize="1" data-header-search="false" data-hhun="0" data-is="minimal" data-loading-animation="spin" data-ls="fancybox" data-megamenu-width="full-width" data-permanent-transparent="false" data-remove-m-parallax="" data-remove-m-video-bgs="" data-responsive="1" data-slide-out-widget-area="true" data-slide-out-widget-area-style="slide-out-from-right-hover" data-smooth-scrolling="0" data-transparent-header="false" data-user-account-button="false" data-user-set-ocm="1">
<script type="text/javascript"> if(navigator.userAgent.match(/(Android|iPod|iPhone|iPad|BlackBerry|IEMobile|Opera Mini)/)) { document.body.className += " using-mobile-browser "; } </script><div data-disable-fade-on-click="0" data-disable-mobile="1" data-effect="standard" data-method="standard" id="ajax-loading-screen"><div class="loading-icon spin"><div class="material-icon">
<div class="spinner">
<div class="right-side"><div class="bar"></div></div>
<div class="left-side"><div class="bar"></div></div>
</div>
<div class="spinner color-2">
<div class="right-side"><div class="bar"></div></div>
<div class="left-side"><div class="bar"></div></div>
</div>
</div></div></div>
<div data-header-mobile-fixed="1" id="header-space"></div>
<div data-box-shadow="none" data-cart="false" data-condense="false" data-format="centered-logo-between-menu" data-full-width="true" data-has-buttons="yes" data-has-menu="false" data-header-resize="1" data-lhe="animated_underline" data-logo-height="43" data-m-logo-height="21" data-megamenu-rt="0" data-mobile-fixed="1" data-padding="28" data-permanent-transparent="false" data-ptnm="false" data-remove-fixed="0" data-shrink-num="6" data-transparency-option="0" data-user-set-bg="#ffffff" data-using-logo="1" data-using-pr-menu="false" data-using-secondary="0" id="header-outer">
<div class="nectar" id="search-outer">
<div id="search">
<div class="container">
<div id="search-box">
<div class="inner-wrap">
<div class="col span_12">
<form action="https://www.bank-of-africa.net/" method="GET" role="search">
<input data-placeholder="Start Typing..." name="s" type="text" value="Start Typing..."/>
</form>
</div><!--/span_12-->
</div><!--/inner-wrap-->
</div><!--/search-box-->
<div id="close"><a href="#">
<span aria-hidden="true" class="icon-salient-x"></span> </a></div>
</div><!--/container-->
</div><!--/search-->
</div><!--/search-outer-->
<header id="top">
<div class="custom-header-top">
<div class="container">
<ul class="custom-header-languages">
<li class="lang-item lang-item-49 lang-item-fr current-lang no-translation lang-item-first"><a href="https://www.bank-of-africa.net/" hreflang="fr-FR" lang="fr-FR">fr</a></li>
</ul>
<div class="custom-header-sites-list">
<span class="custom-header-sites-link">TOUS LES SITES</span>
<div class="custom-header-sites-dropdown">
<ul>
<li><a class="benin" href="https://www.boabenin.com/" target="_blank">BENIN</a></li>
<li><a class="butkina-faso" href="https://www.boaburkinafaso.com/" target="_blank">BURKINA FASO</a></li>
<li><a class="code-divoire" href="https://boacoteivoire.com/" target="_blank">COTE D'IVOIRE</a></li>
<li><a class="ghana" href="https://boaghana.com/" target="_blank">GHANA</a></li>
<li><a class="kenya" href="https://www.boakenya.com/" target="_blank">KENYA</a></li>
<li><a class="madagascar" href="https://www.boa.mg/" target="_blank">MADAGASCAR</a></li>
<li><a class="mali" href="https://www.boamali.com/" target="_blank">MALI</a></li>
<li><a class="mer-rouge" href="https://www.boamerrouge.com/" target="_blank">MER ROUGE</a></li>
<li><a class="niger" href="https://www.boaniger.com/" target="_blank">NIGER</a></li>
<li><a class="ouganda" href="https://boauganda.com/" target="_blank">OUGANDA</a></li>
<li><a class="rdc" href="https://www.boa-rdc.com/" target="_blank">RDC</a></li>
<li><a class="rwanda" href="https://www.boarwanda.com/" target="_blank">RWANDA</a></li>
<li><a class="senegal" href="https://www.boasenegal.com/" target="_blank">SENEGAL</a></li>
<li><a class="tanznie" href="https://boatanzania.com/" target="_blank">TANZANIE</a></li>
<li><a class="togo" href="https://www.boatogo.com/" target="_blank">TOGO</a></li>
<li class="before-last"><a class="bcb" href="https://bcb.bi/" target="_blank">BCB</a></li>
<li class="last"><a class="bank-site" href="https://www.bankofafrica.ma/" target="_blank">BANK OF AFRICA MAROC</a></li>
</ul>
</div>
</div>
</div>
</div>
<div class="container">
<div class="row custom-header-content">
<div class="col span_9">
<div class="slide-out-widget-area-toggle mobile-icon slide-out-from-right-hover" data-icon-animation="simple-transform">
<div> <a aria-expanded="false" aria-label="Navigation Menu" class="closed" href="#sidewidgetarea">
<span aria-hidden="true"> <i class="lines-button x2"> <i class="lines"></i> </i> </span>
</a></div>
</div>
<nav>
<ul class="sf-menu">
<li class="no-menu-assigned"><a href="#">No menu assigned</a></li> </ul>
<ul class="buttons sf-menu" data-user-set-ocm="1">
<li class="slide-out-widget-area-toggle" data-icon-animation="simple-transform"><div> <a aria-expanded="false" aria-label="Navigation Menu" class="closed" href="#sidewidgetarea"> <span aria-hidden="true"> <i class="lines-button x2"> <i class="lines"></i> </i> </span> </a> </div></li>
</ul>
</nav>
<div class="logo-spacing" data-using-image="true"><img alt="BANK OF AFRICA" class="hidden-logo" src="https://www.bank-of-africa.net/wp-content/uploads/2020/11/Logo_Last_Gen.jpg"/></div>
</div><!--/span_9-->
<div class="col span_3">
<a data-supplied-ml="false" data-supplied-ml-starting="false" data-supplied-ml-starting-dark="false" href="https://www.bank-of-africa.net/" id="logo">
<img alt="BANK OF AFRICA" class="stnd dark-version" src="https://www.bank-of-africa.net/wp-content/uploads/2020/11/Logo_Last_Gen.jpg"/> </a>
</div><!--/span_3-->
<div class="custom-header-right">
<a class="custom-header-btn" href="https://boaweb.of.africa/users/authentication" target="_blank">Ma banque en ligne</a>
<a class="custom-header-btn custom-header-btn-blue" href="https://www.bank-of-africa.net/travailler-chez-boa/#jobs-map-section">Rejoindre BOA</a>
</div>
</div><!--/row-->
</div><!--/container-->
</header>
</div>
<div class="page-fixed-buttons">
<a class="fixed-button-contact" href="https://www.bank-of-africa.net/contactez-nous/formulaire-de-contact/"></a>
<a class="fixed-button-map" href="/#nos-implantation" title="implantation 18 pays"></a>
</div>
<div id="ajax-content-wrap">
<div class="container-wrap">
<div class="container main-content">
<div class="row">
<div class="col span_12">
<div id="error-404">
<h1>404</h1>
<h2>Page Not Found</h2>
<a class="nectar-button large regular-button accent-color has-icon" data-color-override="false" data-hover-color-override="false" href="https://www.bank-of-africa.net"><span>Back Home </span><i class="icon-button-arrow"></i></a>
</div>
</div><!--/span_12-->
</div><!--/row-->
</div><!--/container-->
</div><!--/container-wrap-->
<div data-bg-img-overlay="1.0" data-cols="3" data-copyright-line="false" data-custom-color="true" data-disable-copyright="false" data-full-width="false" data-link-hover="underline" data-matching-section-color="true" data-midnight="light" data-using-bg-img="false" data-using-widget-area="true" id="footer-outer">
<div data-cols="3" data-has-widgets="true" id="footer-widgets">
<div class="container">
<div class="row">
<div class="col span_4">
<!-- Footer widget area 1 -->
<div class="widget widget_nav_menu" id="nav_menu-2"><h4>A PROPOS</h4><div class="menu-footer-menu1-container"><ul class="menu" id="menu-footer-menu1"><li class="menu-item menu-item-type-post_type menu-item-object-page menu-item-14780" id="menu-item-14780"><a href="https://www.bank-of-africa.net/a-propos/qui-sommes-nous/">Qui sommes-nous ?</a></li>
<li class="menu-item menu-item-type-post_type menu-item-object-page menu-item-16382" id="menu-item-16382"><a href="https://www.bank-of-africa.net/gouvernance/">Gouvernance</a></li>
<li class="menu-item menu-item-type-custom menu-item-object-custom menu-item-14782" id="menu-item-14782"><a href="https://www.bank-of-africa.net/a-propos/qui-sommes-nous/#nos_valeurs">Nos valeurs</a></li>
<li class="menu-item menu-item-type-custom menu-item-object-custom menu-item-15533" id="menu-item-15533"><a href="https://www.bank-of-africa.net/a-propos/qui-sommes-nous/#actionnariat">Actionnariat</a></li>
<li class="menu-item menu-item-type-post_type menu-item-object-page menu-item-14783" id="menu-item-14783"><a href="https://www.bank-of-africa.net/a-propos/formulaire-rse/">Formulaire RSE</a></li>
</ul></div></div><div class="widget widget_nav_menu" id="nav_menu-43"><h4>INFORMATIONS FINANCIÈRES</h4><div class="menu-footer-menu2-container"><ul class="menu" id="menu-footer-menu2"><li class="menu-item menu-item-type-custom menu-item-object-custom menu-item-16383" id="menu-item-16383"><a href="https://www.bank-of-africa.net/informations-financieres/#chiffres">Nos chiffres clés</a></li>
<li class="menu-item menu-item-type-custom menu-item-object-custom menu-item-16387" id="menu-item-16387"><a href="https://www.bank-of-africa.net/informations-financieres/#communiques">Communiqués consolidés</a></li>
<li class="menu-item menu-item-type-custom menu-item-object-custom menu-item-15705" id="menu-item-15705"><a href="https://www.bank-of-africa.net/informations-financieres/#rapports">Rapports annuels Groupe</a></li>
<li class="menu-item menu-item-type-post_type menu-item-object-page menu-item-14787" id="menu-item-14787"><a href="https://www.bank-of-africa.net/informations-financieres/evenements-brvm/">Evénements BRVM</a></li>
</ul></div></div> </div><!--/span_3-->
<div class="col span_4">
<!-- Footer widget area 2 -->
<div class="widget widget_nav_menu" id="nav_menu-44"><h4>FONDATION</h4><div class="menu-footer-menu3-container"><ul class="menu" id="menu-footer-menu3"><li class="menu-item menu-item-type-post_type menu-item-object-page menu-item-16397" id="menu-item-16397"><a href="https://www.bank-of-africa.net/fondation/">Bienvenue à la Fondation</a></li>
<li class="menu-item menu-item-type-post_type menu-item-object-page menu-item-14788" id="menu-item-14788"><a href="https://www.bank-of-africa.net/fondation/qui-sommes-nous/">Qui sommes-nous ?</a></li>
<li class="menu-item menu-item-type-post_type menu-item-object-page menu-item-14789" id="menu-item-14789"><a href="https://www.bank-of-africa.net/fondation/nos-actions/">Nos actions</a></li>
</ul></div></div><div class="widget widget_nav_menu" id="nav_menu-45"><h4>TRAVAILLER CHEZ BOA</h4><div class="menu-footer-menu4-container"><ul class="menu" id="menu-footer-menu4"><li class="menu-item menu-item-type-custom menu-item-object-custom menu-item-15716" id="menu-item-15716"><a href="https://www.bank-of-africa.net/travailler-chez-boa/#pourquoi-choisir-boa">Pourquoi choisir BOA ?</a></li>
<li class="menu-item menu-item-type-post_type menu-item-object-page menu-item-14791" id="menu-item-14791"><a href="https://www.bank-of-africa.net/travailler-chez-boa/nos-offres-demploi/">Nos offres d’emploi</a></li>
<li class="menu-item menu-item-type-custom menu-item-object-custom menu-item-16403" id="menu-item-16403"><a href="https://www.bank-of-africa.net/travailler-chez-boa/#candidature">Candidature spontanée</a></li>
</ul></div></div>
</div><!--/span_3-->
<div class="col span_4">
<!-- Footer widget area 3 -->
<div class="widget_text widget widget_custom_html" id="custom_html-13"><h4>Autres sites Bank of Africa</h4><div class="textwidget custom-html-widget"><div class="footer-select footer-select-open-up custom-change-options" id="footer-select-group">
<div class="custom-change-selected">
		Sites BOA
	</div>
<ul>
<li>
<a href="https://www.bankofafrica.ma/" rel="noopener" target="_blank">BMCE BANK OF AFRICA</a>
</li>
<li>
<a href="https://www.boabenin.com/" rel="noopener" target="_blank">BOA-BENIN</a>
</li>
<li>
<a href="https://www.boaburkinafaso.com/" rel="noopener" target="_blank">BOA-BURKINA FASO</a>
</li>
<li>
<a href="https://boacoteivoire.com/" rel="noopener" target="_blank">BOA-COTE D'IVOIRE</a>
</li>
<li>
<a href="https://www.boafrance.com/" rel="noopener" target="_blank">BOA-FRANCE</a>
</li>
<li>
<a href="https://boaghana.com/" rel="noopener" target="_blank">BOA-GHANA</a>
</li>
<li>
<a href="https://www.boakenya.com/" rel="noopener" target="_blank">BOA-KENYA</a>
</li>
<li>
<a href="https://www.boa.mg/" rel="noopener" target="_blank">BOA-MADAGASCAR</a>
</li>
<li>
<a href="https://www.boamali.com/" rel="noopener" target="_blank">BOA-MALI</a>
</li>
<li>
<a href="https://www.boamerrouge.com/" rel="noopener" target="_blank">BOA-MER ROUGE</a>
</li>
<li>
<a href="https://www.boaniger.com/" rel="noopener" target="_blank">BOA-NIGER</a>
</li>
<li>
<a href="https://www.boa-rdc.com/" rel="noopener" target="_blank">BOA-RDC</a>
</li>
<li>
<a href="https://www.boarwanda.com/" rel="noopener" target="_blank">BOA-RWANDA</a>
</li>
<li>
<a href="https://www.boasenegal.com/" rel="noopener" target="_blank">BOA-SENEGAL</a>
</li>
<li>
<a href="https://boatanzania.com/" rel="noopener" target="_blank">BOA-TANZANIA</a>
</li>
<li>
<a href="https://www.boatogo.com/" rel="noopener" target="_blank">BOA-TOGO</a>
</li>
<li>
<a href="https://boauganda.com/" rel="noopener" target="_blank">BOA-UGANDA</a>
</li>
<li>
<a href="https://bcb.bi/" rel="noopener" target="_blank">BCB</a>
</li>
</ul>
</div></div></div>
</div><!--/span_3-->
</div><!--/row-->
</div><!--/container-->
</div><!--/footer-widgets-->
<div id="footer-bottom-menu">
<div class="container">
<div class="widget widget_nav_menu" id="nav_menu-46"><div class="menu-bottom-menu-container"><ul class="menu" id="menu-bottom-menu"><li class="menu-item menu-item-type-post_type menu-item-object-page menu-item-14793" id="menu-item-14793"><a href="https://www.bank-of-africa.net/mentions-legales/">Mentions légales</a></li>
</ul></div></div> </div><!--/container-->
</div>
<div class="row" data-layout="centered" id="copyright">
<div class="container">
<div class="col span_7 col_last">
<ul class="social">
</ul>
</div><!--/span_7-->
<div class="col span_5">
<div class="widget">
</div>
<p>
<strong>© 2019 GROUPE BANK OF AFRICA</strong> - TOUS DROITS RÉSERVÉS.			 </p>
</div><!--/span_5-->
</div><!--/container-->
</div><!--/row-->
</div><!--/footer-outer-->
<div class="slide-out-from-right-hover dark" id="slide-out-widget-area-bg">
</div>
<div class="slide-out-from-right-hover" data-back-txt="Retour" data-dropdown-func="default" id="slide-out-widget-area">
<div class="inner" data-prepend-menu-mobile="false">
<a class="slide_out_area_close" href="#">
<span class="icon-salient-x icon-default-style"></span> </a>
<div class="off-canvas-menu-container">
<ul class="menu">
<li class="menu-item menu-item-type-custom menu-item-object-custom menu-item-has-children menu-item-14741" id="menu-item-14741"><a href="#">A propos</a>
<ul class="sub-menu">
<li class="custom-menu-main-category menu-item menu-item-type-post_type menu-item-object-page menu-item-15623" id="menu-item-15623"><a href="https://www.bank-of-africa.net/a-propos/">A propos</a></li>
<li class="menu-item menu-item-type-post_type menu-item-object-page menu-item-14747" id="menu-item-14747"><a href="https://www.bank-of-africa.net/a-propos/qui-sommes-nous/">Qui sommes-nous ?</a></li>
<li class="menu-item menu-item-type-post_type menu-item-object-page menu-item-16084" id="menu-item-16084"><a href="https://www.bank-of-africa.net/gouvernance/">Gouvernance</a></li>
<li class="menu-item menu-item-type-post_type menu-item-object-page menu-item-14739" id="menu-item-14739"><a href="https://www.bank-of-africa.net/a-propos/historique/">Historique</a></li>
<li class="menu-item menu-item-type-post_type menu-item-object-page menu-item-14738" id="menu-item-14738"><a href="https://www.bank-of-africa.net/a-propos/formulaire-rse/">Formulaire RSE</a></li>
</ul>
</li>
<li class="menu-item menu-item-type-custom menu-item-object-custom menu-item-has-children menu-item-14748" id="menu-item-14748"><a href="#">Informations financières</a>
<ul class="sub-menu">
<li class="menu-item menu-item-type-post_type menu-item-object-page menu-item-14749" id="menu-item-14749"><a href="https://www.bank-of-africa.net/informations-financieres/">Informations financières</a></li>
<li class="menu-item menu-item-type-post_type menu-item-object-page menu-item-14752" id="menu-item-14752"><a href="https://www.bank-of-africa.net/informations-financieres/evenements-brvm/">Evénements BRVM</a></li>
</ul>
</li>
<li class="menu-item menu-item-type-post_type menu-item-object-page menu-item-14760" id="menu-item-14760"><a href="https://www.bank-of-africa.net/fondation/">Fondation</a></li>
<li class="menu-item menu-item-type-post_type menu-item-object-page menu-item-14732" id="menu-item-14732"><a href="https://www.bank-of-africa.net/travailler-chez-boa/">Travailler chez BOA</a></li>
<li class="menu-item menu-item-type-post_type menu-item-object-page menu-item-has-children menu-item-14735" id="menu-item-14735"><a href="https://www.bank-of-africa.net/informations-actualites/">Informations &amp; Actualités</a>
<ul class="sub-menu">
<li class="menu-item menu-item-type-taxonomy menu-item-object-category menu-item-14767" id="menu-item-14767"><a href="https://www.bank-of-africa.net/communiques/">Communiqués</a></li>
<li class="menu-item menu-item-type-taxonomy menu-item-object-category menu-item-14766" id="menu-item-14766"><a href="https://www.bank-of-africa.net/actualites/">Actualités du Groupe</a></li>
<li class="menu-item menu-item-type-taxonomy menu-item-object-category menu-item-15898" id="menu-item-15898"><a href="https://www.bank-of-africa.net/actualite-fondation/">Actualités de la Fondation</a></li>
<li class="menu-item menu-item-type-post_type menu-item-object-page menu-item-16481" id="menu-item-16481"><a href="https://www.bank-of-africa.net/mediatheque/">Médiathèque</a></li>
</ul>
</li>
<li class="menu-item menu-item-type-post_type menu-item-object-page menu-item-14773" id="menu-item-14773"><a href="https://www.bank-of-africa.net/contactez-nous/">Contactez-nous</a></li>
</ul>
</div>
</div>
<div class="bottom-meta-wrap"></div><!--/bottom-meta-wrap-->
</div>
</div> <!--/ajax-content-wrap-->
<a class=" " id="to-top"><i class="fa fa-angle-up"></i></a>
<script id="contact-form-7-js-extra" type="text/javascript">
/* <![CDATA[ */
var wpcf7 = {"apiSettings":{"root":"https:\/\/www.bank-of-africa.net\/wp-json\/contact-form-7\/v1","namespace":"contact-form-7\/v1"}};
/* ]]> */
</script>
<script id="contact-form-7-js" src="https://www.bank-of-africa.net/wp-content/plugins/contact-form-7/includes/js/scripts.js?ver=5.3.2" type="text/javascript"></script>
<script id="salient-social-js-extra" type="text/javascript">
/* <![CDATA[ */
var nectarLove = {"ajaxurl":"https:\/\/www.bank-of-africa.net\/wp-admin\/admin-ajax.php","postID":"0","rooturl":"https:\/\/www.bank-of-africa.net","loveNonce":"5c156c3d5a"};
/* ]]> */
</script>
<script id="salient-social-js" src="https://www.bank-of-africa.net/wp-content/plugins/salient-social/js/salient-social.js?ver=1.1" type="text/javascript"></script>
<script id="wpcf7-redirect-script-js-extra" type="text/javascript">
/* <![CDATA[ */
var wpcf7r = {"ajax_url":"https:\/\/www.bank-of-africa.net\/wp-admin\/admin-ajax.php"};
/* ]]> */
</script>
<script id="wpcf7-redirect-script-js" src="https://www.bank-of-africa.net/wp-content/plugins/wpcf7-redirect/build/js/wpcf7-redirect-frontend-script.js?ver=1.1" type="text/javascript"></script>
<script id="jquery-easing-js" src="https://www.bank-of-africa.net/wp-content/themes/salient/js/third-party/jquery.easing.js?ver=1.3" type="text/javascript"></script>
<script id="jquery-mousewheel-js" src="https://www.bank-of-africa.net/wp-content/themes/salient/js/third-party/jquery.mousewheel.js?ver=3.1.13" type="text/javascript"></script>
<script id="nectar_priority-js" src="https://www.bank-of-africa.net/wp-content/themes/salient/js/priority.js?ver=11.0.1" type="text/javascript"></script>
<script id="nectar-transit-js" src="https://www.bank-of-africa.net/wp-content/themes/salient/js/third-party/transit.js?ver=0.9.9" type="text/javascript"></script>
<script id="nectar-waypoints-js" src="https://www.bank-of-africa.net/wp-content/themes/salient/js/third-party/waypoints.js?ver=4.0.1" type="text/javascript"></script>
<script id="modernizer-js" src="https://www.bank-of-africa.net/wp-content/themes/salient/js/third-party/modernizr.js?ver=2.6.2" type="text/javascript"></script>
<script id="imagesLoaded-js" src="https://www.bank-of-africa.net/wp-content/plugins/salient-portfolio/js/third-party/imagesLoaded.min.js?ver=4.1.4" type="text/javascript"></script>
<script id="hoverintent-js" src="https://www.bank-of-africa.net/wp-content/themes/salient/js/third-party/hoverintent.js?ver=1.9" type="text/javascript"></script>
<script id="fancyBox-js" src="https://www.bank-of-africa.net/wp-content/themes/salient/js/third-party/jquery.fancybox.min.js?ver=3.3.1" type="text/javascript"></script>
<script id="touchswipe-js" src="https://www.bank-of-africa.net/wp-content/plugins/salient-core/js/third-party/touchswipe.min.js?ver=1.0" type="text/javascript"></script>
<script id="select2-js" src="https://www.bank-of-africa.net/wp-content/themes/salient/js/third-party/select2.min.js?ver=3.5.2" type="text/javascript"></script>
<script id="wpcf7cf-scripts-js-extra" type="text/javascript">
/* <![CDATA[ */
var wpcf7cf_global_settings = {"ajaxurl":"https:\/\/www.bank-of-africa.net\/wp-admin\/admin-ajax.php"};
/* ]]> */
</script>
<script id="wpcf7cf-scripts-js" src="https://www.bank-of-africa.net/wp-content/plugins/cf7-conditional-fields/js/scripts.js?ver=1.9.14" type="text/javascript"></script>
<script id="custom-scroll-js" src="https://www.bank-of-africa.net/wp-content/themes/salient-child/js/jquery.mCustomScrollbar.concat.min.js?ver=1" type="text/javascript"></script>
<script id="jquery-validation-js" src="https://www.bank-of-africa.net/wp-content/themes/salient-child/js/jquery-validation/jquery.validate.js?ver=1" type="text/javascript"></script>
<script id="jquery-map-resize-js" src="https://www.bank-of-africa.net/wp-content/themes/salient-child/js/imageMapResizer.min.js?ver=1" type="text/javascript"></script>
<script id="jquery-validation-additional-js" src="https://www.bank-of-africa.net/wp-content/themes/salient-child/js/jquery-validation/additional-methods.js?ver=1" type="text/javascript"></script>
<script id="jquery-ui-core-js" src="https://www.bank-of-africa.net/wp-includes/js/jquery/ui/core.min.js?ver=1.12.1" type="text/javascript"></script>
<script id="jquery-ui-datepicker-js" src="https://www.bank-of-africa.net/wp-includes/js/jquery/ui/datepicker.min.js?ver=1.12.1" type="text/javascript"></script>
<script id="jquery-ui-datepicker-js-after" type="text/javascript">
jQuery(document).ready(function(jQuery){jQuery.datepicker.setDefaults({"closeText":"Fermer","currentText":"Aujourd\u2019hui","monthNames":["janvier","f\u00e9vrier","mars","avril","mai","juin","juillet","ao\u00fbt","septembre","octobre","novembre","d\u00e9cembre"],"monthNamesShort":["Jan","F\u00e9v","Mar","Avr","Mai","Juin","Juil","Ao\u00fbt","Sep","Oct","Nov","D\u00e9c"],"nextText":"Suivant","prevText":"Pr\u00e9c\u00e9dent","dayNames":["dimanche","lundi","mardi","mercredi","jeudi","vendredi","samedi"],"dayNamesShort":["dim","lun","mar","mer","jeu","ven","sam"],"dayNamesMin":["D","L","M","M","J","V","S"],"dateFormat":"MM d, yy","firstDay":1,"isRTL":false});});
</script>
<script id="jquery-ui-controlgroup-js" src="https://www.bank-of-africa.net/wp-includes/js/jquery/ui/controlgroup.min.js?ver=1.12.1" type="text/javascript"></script>
<script id="jquery-ui-checkboxradio-js" src="https://www.bank-of-africa.net/wp-includes/js/jquery/ui/checkboxradio.min.js?ver=1.12.1" type="text/javascript"></script>
<script id="jquery-ui-button-js" src="https://www.bank-of-africa.net/wp-includes/js/jquery/ui/button.min.js?ver=1.12.1" type="text/javascript"></script>
<script id="jquery-monthpicker-js" src="https://www.bank-of-africa.net/wp-content/themes/salient-child/js/MonthPicker.js?ver=1" type="text/javascript"></script>
<script id="jquery-validation-fr-js" src="https://www.bank-of-africa.net/wp-content/themes/salient-child/js/jquery-validation/localization/messages_fr.js?ver=1" type="text/javascript"></script>
<script id="alertes-vous-js" src="https://www.bank-of-africa.net/wp-content/themes/salient-child/js/alertes-vous.js?ver=1" type="text/javascript"></script>
<script id="superfish-js" src="https://www.bank-of-africa.net/wp-content/themes/salient/js/third-party/superfish.js?ver=1.4.8" type="text/javascript"></script>
<script id="nectar-frontend-js" src="https://www.bank-of-africa.net/wp-content/themes/salient-child/js/init.js?ver=1" type="text/javascript"></script>
<script id="nectar-slider-js" src="https://www.bank-of-africa.net/wp-content/themes/salient-child/js/nectar-slider.js?ver=1" type="text/javascript"></script>
<script id="wpsl-js-js" src="https://www.bank-of-africa.net/wp-content/themes/salient-child/js/wpsl-gmap.js?ver=1" type="text/javascript"></script>
<script id="wp-embed-js" src="https://www.bank-of-africa.net/wp-includes/js/wp-embed.min.js?ver=5.6" type="text/javascript"></script>
</body>
</html>