<!DOCTYPE html>
<html>
<head>
<title>Technischer Fehler</title>
<style type="text/css">
        body {
            background-color: white;
            color: black;
            font-family: Verdana,Arial,sans-serif;
            font-size: 100%;
            margin: 0;
            padding: 1em 0;
            text-align: center;
        }
        div#Seite {
            margin: 0 auto;
            padding: 0.5em;
            text-align: left;
            width: 670px;
        }
        div#Inhalt {
            padding: 0 1em;
        }
        div#Inhalt h1 {
            font-size: 0.8em;
            margin: 0 0 0.3em 0;
        }
        div#Inhalt p {
            font-size: 0.8em;
            margin: 0em;
            padding: 1em;
        }
        div#Text {
            border: 1px solid black;
        }
    </style>
</head>
<body>
<div id="Seite">
<div id="Inhalt">
<h1>Technischer Fehler</h1>
<div id="Text">
<p>
                    Die von Ihnen aufgerufene Seite ist entweder nicht vorhanden oder vorübergehend nicht verfügbar.
                    Bitte versuchen Sie es zu einem späteren Zeitpunkt erneut.<br/><br/>
                    Sollte der Fehler wiederholt auftreten, wenden Sie sich bitte an Ihre Bank.
                </p>
</div>
</div>
</div>
</body>
</html>
