<!DOCTYPE html>
<html>
<head>
<meta charset="utf-8"/>
<title>Access Blocked</title>
</head>
<body>
    Access to resource was blocked.<br/>
    Reason or support ID: 173f00ee-8609-4efa-b429-10b8a94f68d8.
</body>
</html>
