<html>
<head>
<meta content="noindex,nofollow" name="robots"/>
<script src="/_Incapsula_Resource?SWJIYLWA=5074a744e2e3d891814e9a2dace20bd4,719d34d31c8e3a6e6fffd425f7e032f3">
</script>
</head><body>
</body></html>
