<!DOCTYPE html>
<html lang="ja">
<head><meta charset="utf-8"/>
<meta content="IE=edge,chrome=1" http-equiv="X-UA-Compatible"/>
<meta content="width=device-width, initial-scale=1.0" name="viewport"/><meta content="1993年4月1日、東京・原宿にて創業。ファッションブランド〈A BATHING APE®〉を展開。店舗として「BAPE STORE®」「BAPEXCLUSIVE™」「BAPE KIDS®」「A BATHING APE PIRATE STORE®」を中心に運営し、ワールドワイドに事業を拡大している。" name="description"/><title>bape.com</title><link href="//cdn.shopifycdn.net/s/files/1/0326/3660/0451/t/7/assets/favicon_16x16.png?v=10304511547171798399" rel="icon" sizes="16x16" type="image/png"/><link href="//cdn.shopifycdn.net/s/files/1/0326/3660/0451/t/7/assets/favicon_32x32.png?v=10304511547171798399" rel="icon" sizes="32x32" type="image/png"/><link href="//cdn.shopifycdn.net/s/files/1/0326/3660/0451/t/7/assets/favicon_128x128.png?v=10304511547171798399" rel="icon" sizes="128x128" type="image/png"/><link href="//cdn.shopifycdn.net/s/files/1/0326/3660/0451/t/7/assets/favicon_196x196.png?v=10304511547171798399" rel="icon" sizes="196x196" type="image/png"/><link href="//cdn.shopifycdn.net/s/files/1/0326/3660/0451/t/7/assets/favicon_152x152.png?v=10304511547171798399" rel="apple-touch-icon" sizes="152x152"/><link href="//cdn.shopifycdn.net/s/files/1/0326/3660/0451/t/7/assets/favicon_167x167.png?v=10304511547171798399" rel="apple-touch-icon" sizes="167x167"/><link href="//cdn.shopifycdn.net/s/files/1/0326/3660/0451/t/7/assets/favicon_180x180.png?v=10304511547171798399" rel="apple-touch-icon" sizes="180x180"/><script>
  window.args = {
    assetBaseUrl: "//cdn.shopifycdn.net/s/files/1/0326/3660/0451/t/7/assets/dummy?3851".replace(/\/[^\/]+$/, "/")
  };
</script><script charset="UTF-8" crossorigin="anonymous" defer="" src="https://polyfill.io/v3/polyfill.min.js?features=HTMLTemplateElement%2CObject.assign%2CObject.entries%2CObject.is%2Cfetch"></script>
<script defer="" src="//cdn.shopifycdn.net/s/files/1/0326/3660/0451/t/7/assets/bundle.runtime.js?v=12315672302381565548"></script>
<script defer="" src="//cdn.shopifycdn.net/s/files/1/0326/3660/0451/t/7/assets/bundle.vendor.chunk.js?v=13419915298297811118"></script>
<script defer="" src="//cdn.shopifycdn.net/s/files/1/0326/3660/0451/t/7/assets/bundle.base.chunk.js?v=13612040932105749600"></script>
<link href="//cdn.shopifycdn.net/s/files/1/0326/3660/0451/t/7/assets/bundle.base.css?v=3810788124489368781" media="all" rel="stylesheet"/>
<script defer="" src="//cdn.shopifycdn.net/s/files/1/0326/3660/0451/t/7/assets/bundle.index.chunk.js?v=664671496952482199"></script>
<link href="//cdn.shopifycdn.net/s/files/1/0326/3660/0451/t/7/assets/bundle.index.css?v=10507646890524209814" media="all" rel="stylesheet"/>
<meta content="website" property="og:type"/>
<meta content="https://bape.com/" property="og:url"/>
<meta content="bape.com" property="og:title"/>
<meta content="1993年4月1日、東京・原宿にて創業。ファッションブランド〈A BATHING APE®〉を展開。店舗として「BAPE STORE®」「BAPEXCLUSIVE™」「BAPE KIDS®」「A BATHING APE PIRATE STORE®」を中心に運営し、ワールドワイドに事業を拡大している。" property="og:description"/>
<meta content="http://cdn.shopifycdn.net/s/files/1/0326/3660/0451/files/bapecom_ogp_442b9c5a-18f2-4ce7-8ddf-25ee0631e207_1200x.png?v=1589422951" property="og:image"/>
<meta content="https://cdn.shopifycdn.net/s/files/1/0326/3660/0451/files/bapecom_ogp_442b9c5a-18f2-4ce7-8ddf-25ee0631e207_1200x.png?v=1589422951" property="og:image:secure_url"/>
<meta content="@BAPEOFFICIAL" name="twitter:site"/>
<meta content="summary_large_image" name="twitter:card"/>
<meta content="bape.com" name="twitter:title"/>
<meta content="1993年4月1日、東京・原宿にて創業。ファッションブランド〈A BATHING APE®〉を展開。店舗として「BAPE STORE®」「BAPEXCLUSIVE™」「BAPE KIDS®」「A BATHING APE PIRATE STORE®」を中心に運営し、ワールドワイドに事業を拡大している。" name="twitter:description"/>
<meta content="//cdn.shopifycdn.net/s/files/1/0326/3660/0451/files/bapecom_ogp_442b9c5a-18f2-4ce7-8ddf-25ee0631e207_1200x.png?v=1589422951" name="twitter:image"/><script>window.performance && window.performance.mark && window.performance.mark('shopify.content_for_header.start');</script><meta content="/32636600451/digital_wallets/dialog" id="shopify-digital-wallet" name="shopify-digital-wallet"/>
<meta content="c1ef5db10e26afc64a0792ed1e244f65" name="shopify-checkout-api-token"/>
<meta data-currency="JPY" data-environment="production" data-locale="ja_JP" data-paypal-v4="true" data-shop-id="32636600451" data-venmo-supported="false" id="in-context-paypal-metadata"/>
<link href="https://monorail-edge.shopifysvc.com" rel="dns-prefetch"/>
<script id="shopify-features" type="application/json">{"accessToken":"c1ef5db10e26afc64a0792ed1e244f65","betas":["rich-media-storefront-analytics"],"domain":"bape.com","predictiveSearch":false,"shopId":32636600451,"smart_payment_buttons_url":"https:\/\/cdn.shopifycdn.net\/shopifycloud\/payment-sheet\/assets\/latest\/spb.ja.js","dynamic_checkout_cart_url":"https:\/\/cdn.shopifycdn.net\/shopifycloud\/payment-sheet\/assets\/latest\/dynamic-checkout-cart.ja.js","locale":"ja"}</script>
<script>var Shopify = Shopify || {};
Shopify.shop = "bapejp.myshopify.com";
Shopify.locale = "ja";
Shopify.currency = {"active":"JPY","rate":"1.0"};
Shopify.theme = {"name":"bape-jp v2","id":98102739075,"theme_store_id":796,"role":"main"};
Shopify.theme.handle = "null";
Shopify.theme.style = {"id":null,"handle":null};
Shopify.cdnHost = "cdn.shopifycdn.net";</script>
<script type="module">!function(o){(o.Shopify=o.Shopify||{}).modules=!0}(window);</script>
<script>!function(o){function n(){var o=[];function n(){o.push(Array.prototype.slice.apply(arguments))}return n.q=o,n}var t=o.Shopify=o.Shopify||{};t.loadFeatures=n(),t.autoloadFeatures=n()}(window);</script>
<script>window.ShopifyPay = window.ShopifyPay || {};
window.ShopifyPay.apiHost = "pay.shopify.com";</script>
<script>(function() {
  function asyncLoad() {
    var urls = ["https:\/\/static.klaviyo.com\/onsite\/js\/klaviyo.js?company_id=T5Rtnt\u0026shop=bapejp.myshopify.com","https:\/\/analytics.getshogun.com\/collector.js?shop=bapejp.myshopify.com","https:\/\/static.klaviyo.com\/onsite\/js\/klaviyo.js?company_id=T5Rtnt\u0026shop=bapejp.myshopify.com","https:\/\/js.smile.io\/v1\/smile-shopify.js?shop=bapejp.myshopify.com","https:\/\/kite.spicegems.org\/0\/js\/scripttags\/bapejp\/country_redirect_b4e61e908f1ad530817a5b051018ca86.min.js?v=18\u0026shop=bapejp.myshopify.com","\/\/cdn.secomapp.com\/promotionpopup\/cdn\/allshops\/bapejp\/1609430533.js?shop=bapejp.myshopify.com","https:\/\/static.klaviyo.com\/onsite\/js\/klaviyo.js?company_id=QPfvdW\u0026shop=bapejp.myshopify.com"];
    for (var i = 0; i < urls.length; i++) {
      var s = document.createElement('script');
      s.type = 'text/javascript';
      s.async = true;
      s.src = urls[i];
      var x = document.getElementsByTagName('script')[0];
      x.parentNode.insertBefore(s, x);
    }
  };
  if(window.attachEvent) {
    window.attachEvent('onload', asyncLoad);
  } else {
    window.addEventListener('load', asyncLoad, false);
  }
})();</script>
<script id="__st">var __st={"a":32636600451,"offset":32400,"reqid":"98d1bdf3-3623-406c-ba33-411546125418","pageurl":"bape.com\/","u":"4875489d4768","p":"home"};</script>
<script>window.ShopifyPaypalV4VisibilityTracking = true;</script>
<script>window['GoogleAnalyticsObject'] = 'ga';
window['ga'] = window['ga'] || function() {
  (window['ga'].q = window['ga'].q || []).push(arguments);
};
window['ga'].l = 1 * new Date();</script>
<script>var _gaUTrackerOptions = {'allowLinker': true};ga('create', 'UA-4693871-3', 'auto', _gaUTrackerOptions);ga('send', 'pageview');
      (function(){
        ga('require', 'linker');
        function addListener(element, type, callback) {
          if (element.addEventListener) {
            element.addEventListener(type, callback);
          }
          else if (element.attachEvent) {
            element.attachEvent('on' + type, callback);
          }
        }
        function decorate(event) {
          event = event || window.event;
          var target = event.target || event.srcElement;
          if (target && (target.action || target.href)) {
            ga(function (tracker) {
              var linkerParam = tracker.get('linkerParam');
              document.cookie = '_shopify_ga=' + linkerParam + '; ' + 'path=/';
            });
          }
        }
        addListener(window, 'load', function(){
          for (var i=0; i<document.forms.length; i++) {
            if(document.forms[i].action && document.forms[i].action.indexOf('/cart') >= 0) {
              addListener(document.forms[i], 'submit', decorate);
            }
          }
          for (var i=0; i<document.links.length; i++) {
            if(document.links[i].href && document.links[i].href.indexOf('/checkout') >= 0) {
              addListener(document.links[i], 'click', decorate);
            }
          }
        })
      }());
    </script>
<script>window.ShopifyAnalytics = window.ShopifyAnalytics || {};
window.ShopifyAnalytics.meta = window.ShopifyAnalytics.meta || {};
window.ShopifyAnalytics.meta.currency = 'JPY';
var meta = {"page":{"pageType":"home"}};
for (var attr in meta) {
  window.ShopifyAnalytics.meta[attr] = meta[attr];
}</script>
<script>window.ShopifyAnalytics.merchantGoogleAnalytics = function() {
  
};
</script>
<script class="analytics">(function () {
  var customDocumentWrite = function(content) {
    var jquery = null;

    if (window.jQuery) {
      jquery = window.jQuery;
    } else if (window.Checkout && window.Checkout.$) {
      jquery = window.Checkout.$;
    }

    if (jquery) {
      jquery('body').append(content);
    }
  };

  var hasLoggedConversion = function(token) {
    if (document.cookie.indexOf('loggedConversion=' + window.location.pathname) !== -1) {
      return true;
    }
    if (token) {
      return document.cookie.indexOf('loggedConversion=' + token) !== -1;
    }
    return false;
  }

  var setCookieIfConversion = function(token) {
    if (token) {
      var twoMonthsFromNow = new Date(Date.now());
      twoMonthsFromNow.setMonth(twoMonthsFromNow.getMonth() + 2);

      document.cookie = 'loggedConversion=' + token + '; expires=' + twoMonthsFromNow;
    }
  }

  var trekkie = window.ShopifyAnalytics.lib = window.trekkie = window.trekkie || [];
  if (trekkie.integrations) {
    return;
  }
  trekkie.methods = [
    'identify',
    'page',
    'ready',
    'track',
    'trackForm',
    'trackLink'
  ];
  trekkie.factory = function(method) {
    return function() {
      var args = Array.prototype.slice.call(arguments);
      args.unshift(method);
      trekkie.push(args);
      return trekkie;
    };
  };
  for (var i = 0; i < trekkie.methods.length; i++) {
    var key = trekkie.methods[i];
    trekkie[key] = trekkie.factory(key);
  }
  trekkie.load = function(config) {
    trekkie.config = config;
    var first = document.getElementsByTagName('script')[0];
    var script = document.createElement('script');
    script.type = 'text/javascript';
    script.onerror = function(e) {
      var scriptFallback = document.createElement('script');
      scriptFallback.type = 'text/javascript';
      scriptFallback.onerror = function(error) {
              var Monorail = {
      produce: function produce(monorailDomain, schemaId, payload) {
        var currentMs = new Date().getTime();
        var event = {
          schema_id: schemaId,
          payload: payload,
          metadata: {
            event_created_at_ms: currentMs,
            event_sent_at_ms: currentMs
          }
        };
        return Monorail.sendRequest("https://" + monorailDomain + "/v1/produce", JSON.stringify(event));
      },
      sendRequest: function sendRequest(endpointUrl, payload) {
        // Try the sendBeacon API
        if (window && window.navigator && typeof window.navigator.sendBeacon === 'function' && typeof window.Blob === 'function' && !Monorail.isIos12()) {
          var blobData = new window.Blob([payload], {
            type: 'text/plain'
          });
    
          if (window.navigator.sendBeacon(endpointUrl, blobData)) {
            return true;
          } // sendBeacon was not successful
    
        } // XHR beacon   
    
        var xhr = new XMLHttpRequest();
    
        try {
          xhr.open('POST', endpointUrl);
          xhr.setRequestHeader('Content-Type', 'text/plain');
          xhr.send(payload);
        } catch (e) {
          console.log(e);
        }
    
        return false;
      },
      isIos12: function isIos12() {
        return window.navigator.userAgent.lastIndexOf('iPhone; CPU iPhone OS 12_') !== -1 || window.navigator.userAgent.lastIndexOf('iPad; CPU OS 12_') !== -1;
      }
    };
    Monorail.produce('monorail-edge.shopifysvc.com',
      'trekkie_storefront_load_errors/1.1',
      {shop_id: 32636600451,
      theme_id: 98102739075,
      app_name: "storefront",
      context_url: window.location.href,
      source_url: "https://cdn.shopifycdn.net/s/trekkie.storefront.5f7bf96405492b9c1557a597e8c96d3d65752676.min.js"});

      };
      scriptFallback.async = true;
      scriptFallback.src = 'https://cdn.shopifycdn.net/s/trekkie.storefront.5f7bf96405492b9c1557a597e8c96d3d65752676.min.js';
      first.parentNode.insertBefore(scriptFallback, first);
    };
    script.async = true;
    script.src = 'https://cdn.shopifycdn.net/s/trekkie.storefront.5f7bf96405492b9c1557a597e8c96d3d65752676.min.js';
    first.parentNode.insertBefore(script, first);
  };
  trekkie.load(
    {"Trekkie":{"appName":"storefront","development":false,"defaultAttributes":{"shopId":32636600451,"isMerchantRequest":null,"themeId":98102739075,"themeCityHash":"12562064456734049739","contentLanguage":"ja","currency":"JPY"},"isServerSideCookieWritingEnabled":true,"isPixelGateEnabled":true},"Performance":{"navigationTimingApiMeasurementsEnabled":true,"navigationTimingApiMeasurementsSampleRate":1},"Facebook Pixel":{"pixelIds":["209993433436591"],"agent":"plshopify1.2"},"Session Attribution":{}}
  );

  var loaded = false;
  trekkie.ready(function() {
    if (loaded) return;
    loaded = true;

    window.ShopifyAnalytics.lib = window.trekkie;
    

    var originalDocumentWrite = document.write;
    document.write = customDocumentWrite;
    try { window.ShopifyAnalytics.merchantGoogleAnalytics.call(this); } catch(error) {};
    document.write = originalDocumentWrite;
      (function () {
        if (window.BOOMR && (window.BOOMR.version || window.BOOMR.snippetExecuted)) {
          return;
        }
        window.BOOMR = window.BOOMR || {};
        window.BOOMR.snippetStart = new Date().getTime();
        window.BOOMR.snippetExecuted = true;
        window.BOOMR.snippetVersion = 12;
        window.BOOMR.application = "storefront-renderer";
        window.BOOMR.themeName = "";
        window.BOOMR.themeVersion = "";
        window.BOOMR.shopId = 32636600451;
        window.BOOMR.themeId = 98102739075;
        window.BOOMR.url =
          "https://cdn.shopifycdn.net/shopifycloud/boomerang/shopify-boomerang-1.0.0.min.js";
        var where = document.currentScript || document.getElementsByTagName("script")[0];
        var parentNode = where.parentNode;
        var promoted = false;
        var LOADER_TIMEOUT = 3000;
        function promote() {
          if (promoted) {
            return;
          }
          var script = document.createElement("script");
          script.id = "boomr-scr-as";
          script.src = window.BOOMR.url;
          script.async = true;
          parentNode.appendChild(script);
          promoted = true;
        }
        function iframeLoader(wasFallback) {
          promoted = true;
          var dom, bootstrap, iframe, iframeStyle;
          var doc = document;
          var win = window;
          window.BOOMR.snippetMethod = wasFallback ? "if" : "i";
          bootstrap = function(parent, scriptId) {
            var script = doc.createElement("script");
            script.id = scriptId || "boomr-if-as";
            script.src = window.BOOMR.url;
            BOOMR_lstart = new Date().getTime();
            parent = parent || doc.body;
            parent.appendChild(script);
          };
          if (!window.addEventListener && window.attachEvent && navigator.userAgent.match(/MSIE [67]./)) {
            window.BOOMR.snippetMethod = "s";
            bootstrap(parentNode, "boomr-async");
            return;
          }
          iframe = document.createElement("IFRAME");
          iframe.src = "about:blank";
          iframe.title = "";
          iframe.role = "presentation";
          iframe.loading = "eager";
          iframeStyle = (iframe.frameElement || iframe).style;
          iframeStyle.width = 0;
          iframeStyle.height = 0;
          iframeStyle.border = 0;
          iframeStyle.display = "none";
          parentNode.appendChild(iframe);
          try {
            win = iframe.contentWindow;
            doc = win.document.open();
          } catch (e) {
            dom = document.domain;
            iframe.src = "javascript:var d=document.open();d.domain='" + dom + "';void(0);";
            win = iframe.contentWindow;
            doc = win.document.open();
          }
          if (dom) {
            doc._boomrl = function() {
              this.domain = dom;
              bootstrap();
            };
            doc.write("<body onload='document._boomrl();'>");
          } else {
            win._boomrl = function() {
              bootstrap();
            };
            if (win.addEventListener) {
              win.addEventListener("load", win._boomrl, false);
            } else if (win.attachEvent) {
              win.attachEvent("onload", win._boomrl);
            }
          }
          doc.close();
        }
        var link = document.createElement("link");
        if (link.relList &&
          typeof link.relList.supports === "function" &&
          link.relList.supports("preload") &&
          ("as" in link)) {
          window.BOOMR.snippetMethod = "p";
          link.href = window.BOOMR.url;
          link.rel = "preload";
          link.as = "script";
          link.addEventListener("load", promote);
          link.addEventListener("error", function() {
            iframeLoader(true);
          });
          setTimeout(function() {
            if (!promoted) {
              iframeLoader(true);
            }
          }, LOADER_TIMEOUT);
          BOOMR_lstart = new Date().getTime();
          parentNode.appendChild(link);
        } else {
          iframeLoader(false);
        }
        function boomerangSaveLoadTime(e) {
          window.BOOMR_onload = (e && e.timeStamp) || new Date().getTime();
        }
        if (window.addEventListener) {
          window.addEventListener("load", boomerangSaveLoadTime, false);
        } else if (window.attachEvent) {
          window.attachEvent("onload", boomerangSaveLoadTime);
        }
        if (document.addEventListener) {
          document.addEventListener("onBoomerangLoaded", function(e) {
            e.detail.BOOMR.init({
              producer_url: "https://monorail-edge.shopifysvc.com/v1/produce",
              ResourceTiming: {
                enabled: true,
                trackedResourceTypes: ["script", "img", "css"]
              },
            });
            e.detail.BOOMR.t_end = new Date().getTime();
          });
        } else if (document.attachEvent) {
          document.attachEvent("onpropertychange", function(e) {
            if (!e) e=event;
            if (e.propertyName === "onBoomerangLoaded") {
              e.detail.BOOMR.init({
                producer_url: "https://monorail-edge.shopifysvc.com/v1/produce",
                ResourceTiming: {
                  enabled: true,
                  trackedResourceTypes: ["script", "img", "css"]
                },
              });
              e.detail.BOOMR.t_end = new Date().getTime();
            }
          });
        }
      })();
    

    
        window.ShopifyAnalytics.lib.page(
          null,
          {"pageType":"home"}
        );
      

    var match = window.location.pathname.match(/checkouts\/(.+)\/(thank_you|post_purchase)/)
    var token = match? match[1]: undefined;
    if (!hasLoggedConversion(token)) {
      setCookieIfConversion(token);
      
    }
  });

  
      var eventsListenerScript = document.createElement('script');
      eventsListenerScript.async = true;
      eventsListenerScript.src = "//cdn.shopifycdn.net/shopifycloud/shopify/assets/shop_events_listener-68ba3f1321f00bf07cb78a03841621079812265e950cdccade3463749ea2705e.js";
      document.getElementsByTagName('head')[0].appendChild(eventsListenerScript);
    
})();</script>
<script>!function(e){e.addEventListener("DOMContentLoaded",function(){var t;null!==e.querySelector('form[action^="/contact"] input[name="form_type"][value="contact"]')&&(window.Shopify=window.Shopify||{},window.Shopify.recaptchaV3=window.Shopify.recaptchaV3||{siteKey:"6LcCR2cUAAAAANS1Gpq_mDIJ2pQuJphsSQaUEuc9"},(t=e.createElement("script")).setAttribute("src","https://cdn.shopifycdn.net/shopifycloud/storefront-recaptcha-v3/v0.1/index.js"),e.body.appendChild(t))})}(document);</script>
<script crossorigin="anonymous" data-source-attribution="shopify.loadfeatures" defer="defer" integrity="sha256-JP8SIsmqE7shdlPA0+ooxAp5aigObaKa1CHuwqYHXIY=" src="//cdn.shopifycdn.net/shopifycloud/shopify/assets/storefront/load_feature-24ff1222c9aa13bb217653c0d3ea28c40a796a280e6da29ad421eec2a6075c86.js"></script>
<script crossorigin="anonymous" defer="defer" src="//cdn.shopifycdn.net/shopifycloud/shopify/assets/shopify_pay/storefront-21b5dddfc8b64c1ad68cee3ba7448d1ffa15c24e969ebc1fbccf1a3784b659ad.js?v=20190107"></script>
<script crossorigin="anonymous" data-source-attribution="shopify.dynamic-checkout" defer="defer" integrity="sha256-h+g5mYiIAULyxidxudjy/2wpCz/3Rd1CbrDf4NudHa4=" src="//cdn.shopifycdn.net/shopifycloud/shopify/assets/storefront/features-87e8399988880142f2c62771b9d8f2ff6c290b3ff745dd426eb0dfe0db9d1dae.js"></script>
<script async="async" src="https://www.google-analytics.com/analytics.js"></script>
<style id="shopify-dynamic-checkout-cart">@media screen and (min-width: 750px) {
  #dynamic-checkout-cart {
    min-height: 50px;
  }
}

@media screen and (max-width: 750px) {
  #dynamic-checkout-cart {
    min-height: 120px;
  }
}
</style><script>window.performance && window.performance.mark && window.performance.mark('shopify.content_for_header.end');</script>
<script async="" src="https://conditional-redirect.spicegems.com/js/scripttags/bapejp/static/country-redirect.js?shop=bapejp"></script>
<script async="" src="https://kite.spicegems.org/0/js/scripttags/bapejp/static/country-redirect.js"></script>
<link href="//cdn.shopifycdn.net/s/files/1/0326/3660/0451/t/7/assets/sca-pp.css?v=3305956522785906963" media="print" onload="this.media='all'; this.onload=null;" rel="stylesheet"/>
<script>
  
  SCAPPLive = {};
  
  SCAPPShop = {};
  
</script><script async="" src="//cdn.shopifycdn.net/s/files/1/0326/3660/0451/t/7/assets/sca-pp-initial.js?v=1276008243662462391"></script>
<link href="https://bape.com/" rel="canonical"/>
</head>
<body class="js-initializing">
<div class="body-content"><header aria-label="Global header" class="s-header">
<div class="s-header__desktop-content">
<div class="s-header__desktop-top-pane"><ul aria-label="SNS links" class="s-sns-links ">
<li>
<a aria-label="Official Twitter" href="https://twitter.com/BAPEOFFICIAL" rel="noopener" target="_blank"><span class="s-sns-links__icon a-icon fab fa-twitter" role="presentation"></span>
</a>
</li>
<li>
<a aria-label="Official Instagram" href="https://www.instagram.com/bape_japan/" rel="noopener" target="_blank"><span class="s-sns-links__icon a-icon fab fa-instagram" role="presentation"></span>
</a>
</li>
<li>
<a aria-label="Official Facebook page" href="https://www.facebook.com/BAPE.OFFICIAL" rel="noopener" target="_blank"><span class="s-sns-links__icon a-icon fab fa-facebook-f" role="presentation"></span>
</a>
</li><li>
<a aria-label="Official LINE account" href="https://lin.ee/fyR97p7" rel="noopener" target="_blank"><img alt="" class="s-sns-links__img-icon" height="20px" role="presentation" src="//cdn.shopifycdn.net/s/files/1/0326/3660/0451/t/7/assets/icon-line_21x.png?v=11720390789416564853" srcset="//cdn.shopifycdn.net/s/files/1/0326/3660/0451/t/7/assets/icon-line_21x.png?v=11720390789416564853 1x, //cdn.shopifycdn.net/s/files/1/0326/3660/0451/t/7/assets/icon-line_42x.png?v=11720390789416564853 2x, //cdn.shopifycdn.net/s/files/1/0326/3660/0451/t/7/assets/icon-line_63x.png?v=11720390789416564853 3x" width="21px"/>
</a>
</li></ul>
<a aria-label="Logo, bape.com, Move to top page" class="s-header__logo-link" href="/"><img alt="bape.com" class="s-header__logo" height="30px" src="//cdn.shopifycdn.net/s/files/1/0326/3660/0451/t/7/assets/header-logo_196x.png?v=1794200455068153082" srcset="//cdn.shopifycdn.net/s/files/1/0326/3660/0451/t/7/assets/header-logo_196x.png?v=1794200455068153082 1x, //cdn.shopifycdn.net/s/files/1/0326/3660/0451/t/7/assets/header-logo_392x.png?v=1794200455068153082 2x, //cdn.shopifycdn.net/s/files/1/0326/3660/0451/t/7/assets/header-logo_588x.png?v=1794200455068153082 3x" width="196px"/>
</a>
<ul aria-label="Your account controls" class="e-account-controls" role="menu"><li class="e-account-controls__login-item" role="menuitem">
<a class="e-account-controls__link" href="/account/login"><span class="e-account-controls__login-icon a-icon fas fa-user" role="presentation"></span>
LOG IN
    </a>
</li>
<li class="e-account-controls__signup-item" role="menuitem">
<a class="e-account-controls__link" href="/pages/terms?next=/account/register">
      SIGN UP
    </a>
</li>
<li class="e-account-controls__wish-list-item" role="menuitem">
<a aria-label="Wish list" class="e-account-controls__link" href="/account/login"><span class="e-account-controls__wish-list-icon a-icon fas fa-heart" role="presentation"></span>
</a>
</li>
<li class="e-account-controls__cart-item" role="menuitem">
<a aria-label="Your Shopping Cart, Number of Items in Your Cart : 0" class="e-account-controls__link" href="/cart"><span class="e-account-controls__cart-icon a-icon fas fa-shopping-cart" role="presentation"></span>
<span role="presentation">0</span>
</a>
</li>
</ul>
</div>
<div class="s-header__desktop-middle-pane"><nav aria-label="Main navigation" class="s-main-navigation s-header__main-navigation" id="main-navigation">
<ul class="s-main-navigation__menu" role="menu"><li class="s-main-navigation__menu-item js-menu-item" role="menuitem"><a class="s-main-navigation__menu-link" href="/blogs/news">
            NEWS
          </a></li><li class="s-main-navigation__menu-item js-menu-item" role="menuitem"><a class="s-main-navigation__menu-link" href="/pages/lookbook-2021ss-mens">
            LOOKBOOK
          </a></li><li class="s-main-navigation__menu-item js-menu-item" role="menuitem"><a class="s-main-navigation__menu-link" href="/pages/mr">
            MR. BATHING APE®
          </a></li><li class="s-main-navigation__menu-item js-menu-item" role="menuitem"><a class="s-main-navigation__menu-link" href="/pages/milo">
            BABY MILO® STORE
          </a></li><li class="s-main-navigation__menu-item js-menu-item" role="menuitem"><a class="s-main-navigation__menu-link" href="/pages/bape-home">
            BAPE® HOME
          </a></li><li class="s-main-navigation__menu-item js-menu-item" role="menuitem"><a class="s-main-navigation__menu-link" href="/pages/bapy">
            BAPY®
          </a></li><li class="s-main-navigation__menu-item js-menu-item" role="menuitem"><a class="s-main-navigation__menu-link" href="/pages/lookbook-2020aw-bape-black">
            BAPE BLACK
          </a></li><li class="s-main-navigation__menu-item js-menu-item" role="menuitem"><button aria-controls="main-navigation-submenu-8" aria-expanded="false" class="s-main-navigation__menu-link-button js-expand-button">
            WEB STORES

            <img alt="" class="s-main-navigation__menu-link-button-arrow" role="presentation" src="//cdn.shopifycdn.net/s/files/1/0326/3660/0451/t/7/assets/icon-thin-arrow-down-black.svg?v=16628552180472882922"/>
</button>
<ul aria-hidden="true" class="s-main-navigation__submenu" id="main-navigation-submenu-8"><li class="s-main-navigation__submenu-item">
<a class="s-main-navigation__menu-link" href="/collections/all">
                  BAPE.COM
                </a>
</li><li class="s-main-navigation__submenu-item">
<a class="s-main-navigation__menu-link" href="https://bapeonline.com">
                  BAPEONLINE.COM
                </a>
</li><li class="s-main-navigation__submenu-item">
<a class="s-main-navigation__menu-link" href="https://bapepirate.com">
                  BAPEPIRATE.COM
                </a>
</li></ul></li>
</ul>
</nav>
<form action="/search" class="e-search-bar s-header__search-bar" id="desktop-search-bar" role="search">
<input name="type" type="hidden" value="product"/>
<div class="e-search-bar__content">
<label class="visually-hidden" for="desktop-search-bar-input">
      What are you looking for? Enter your keywords.
    </label>
<input class="e-search-bar__input" id="desktop-search-bar-input" name="q" placeholder="何かお探しですか？"/>
<button aria-label="Search" class="e-search-bar__search-button" type="submit"><span class="e-search-bar__icon a-icon fas fa-search" role="presentation"></span>
</button>
</div>
</form>
</div></div>
<div class="s-header__mobile-content">
<div class="s-header__mobile-header">
<a aria-label="Logo, bape.com, Move to top page" class="s-header__logo-link" href="/"><img alt="bape.com" class="s-header__logo" height="30px" src="//cdn.shopifycdn.net/s/files/1/0326/3660/0451/t/7/assets/header-logo_196x.png?v=1794200455068153082" srcset="//cdn.shopifycdn.net/s/files/1/0326/3660/0451/t/7/assets/header-logo_196x.png?v=1794200455068153082 1x, //cdn.shopifycdn.net/s/files/1/0326/3660/0451/t/7/assets/header-logo_392x.png?v=1794200455068153082 2x, //cdn.shopifycdn.net/s/files/1/0326/3660/0451/t/7/assets/header-logo_588x.png?v=1794200455068153082 3x" width="196px"/>
</a>
<ul aria-label="Global menu" class="e-mobile-header-menu" role="menu">
<li role="menuitem">
<button aria-controls="mobile-search-bar" aria-label="Toggle search bar" id="toggle-search-bar-btn"><img alt="" aria-hidden="true" class="e-mobile-header-menu__icon" height="30px" src="//cdn.shopifycdn.net/s/files/1/0326/3660/0451/t/7/assets/mobile-search-btn_27x.png?v=4285173910541194272" srcset="//cdn.shopifycdn.net/s/files/1/0326/3660/0451/t/7/assets/mobile-search-btn_27x.png?v=4285173910541194272 1x, //cdn.shopifycdn.net/s/files/1/0326/3660/0451/t/7/assets/mobile-search-btn_54x.png?v=4285173910541194272 2x, //cdn.shopifycdn.net/s/files/1/0326/3660/0451/t/7/assets/mobile-search-btn_81x.png?v=4285173910541194272 3x" width="27px"/>
</button>
</li>
<li role="menuitem">
<a aria-label="Shopping Cart" href="/cart"><img alt="" aria-hidden="true" class="e-mobile-header-menu__icon" height="30px" src="//cdn.shopifycdn.net/s/files/1/0326/3660/0451/t/7/assets/mobile-cart-btn_25x.png?v=10201131832228725032" srcset="//cdn.shopifycdn.net/s/files/1/0326/3660/0451/t/7/assets/mobile-cart-btn_25x.png?v=10201131832228725032 1x, //cdn.shopifycdn.net/s/files/1/0326/3660/0451/t/7/assets/mobile-cart-btn_50x.png?v=10201131832228725032 2x, //cdn.shopifycdn.net/s/files/1/0326/3660/0451/t/7/assets/mobile-cart-btn_75x.png?v=10201131832228725032 3x" width="25px"/>
</a>
</li>
<li role="menuitem"><a aria-label="Favorites" href="/account/login"><img alt="" aria-hidden="true" class="e-mobile-header-menu__icon" height="36px" src="//cdn.shopifycdn.net/s/files/1/0326/3660/0451/t/7/assets/mobile-favorite-btn_36x.png?v=14992178697460095581" srcset="//cdn.shopifycdn.net/s/files/1/0326/3660/0451/t/7/assets/mobile-favorite-btn_36x.png?v=14992178697460095581 1x, //cdn.shopifycdn.net/s/files/1/0326/3660/0451/t/7/assets/mobile-favorite-btn_72x.png?v=14992178697460095581 2x, //cdn.shopifycdn.net/s/files/1/0326/3660/0451/t/7/assets/mobile-favorite-btn_108x.png?v=14992178697460095581 3x" width="36px"/>
</a>
</li>
<li role="menuitem">
<button aria-controls="mobile-global-menu" aria-label="Toggle global menu" id="toggle-mobile-global-menu-btn"><img alt="" aria-hidden="true" class="e-mobile-header-menu__icon" height="30px" src="//cdn.shopifycdn.net/s/files/1/0326/3660/0451/t/7/assets/mobile-menu-btn_20x.png?v=9262456950767565072" srcset="//cdn.shopifycdn.net/s/files/1/0326/3660/0451/t/7/assets/mobile-menu-btn_20x.png?v=9262456950767565072 1x, //cdn.shopifycdn.net/s/files/1/0326/3660/0451/t/7/assets/mobile-menu-btn_40x.png?v=9262456950767565072 2x, //cdn.shopifycdn.net/s/files/1/0326/3660/0451/t/7/assets/mobile-menu-btn_60x.png?v=9262456950767565072 3x" width="20px"/>
</button>
</li>
</ul>
</div><form action="/search" class="e-search-bar " id="mobile-search-bar" role="search">
<input name="type" type="hidden" value="product"/>
<div class="e-search-bar__content">
<label class="visually-hidden" for="mobile-search-bar-input">
      What are you looking for? Enter your keywords.
    </label>
<input class="e-search-bar__input" id="mobile-search-bar-input" name="q" placeholder="何かお探しですか？"/>
<button aria-label="Search" class="e-search-bar__search-button" type="submit"><span class="e-search-bar__icon a-icon fas fa-search" role="presentation"></span>
</button>
</div>
</form>
<div class="e-mobile-global-menu" id="mobile-global-menu">
<button aria-hidden="true" class="e-mobile-global-menu__overlay" id="mobile-global-menu-overlay"></button>
<nav class="e-mobile-global-menu__nav">
<ul role="menu">
<li class="e-mobile-global-menu__menu-item -dark" role="menuitem">
<a href="/account/login">
      LOG IN
    </a>
</li>
<li class="e-mobile-global-menu__menu-item -dark" role="menuitem">
<a href="/pages/terms?next=/account/register">
      SIGN UP
    </a>
</li>
<li class="e-mobile-global-menu__menu-item" role="menuitem">
<a href="/blogs/news">
              NEWS
            </a>
</li><li class="e-mobile-global-menu__menu-item" role="menuitem">
<a href="/pages/lookbook-2021ss-mens">
              LOOKBOOK
            </a>
</li><li class="e-mobile-global-menu__menu-item" role="menuitem">
<a href="/pages/mr">
              MR. BATHING APE®
            </a>
</li><li class="e-mobile-global-menu__menu-item" role="menuitem">
<a href="/pages/milo">
              BABY MILO® STORE
            </a>
</li><li class="e-mobile-global-menu__menu-item" role="menuitem">
<a href="/pages/bape-home">
              BAPE® HOME
            </a>
</li><li class="e-mobile-global-menu__menu-item" role="menuitem">
<a href="/pages/bapy">
              BAPY®
            </a>
</li><li class="e-mobile-global-menu__menu-item" role="menuitem">
<a href="/pages/lookbook-2020aw-bape-black">
              BAPE BLACK
            </a>
</li><li class="e-mobile-global-menu__menu-item -has-submenu js-menu-item" role="menuitem">
<button aria-controls="mobile-global-submenu-8" aria-expanded="false" class="e-mobile-global-menu__submenu-expand-button js-expand-button">
              WEB STORES

              <img alt="" class="e-mobile-global-menu__submenu-expand-button-arrow" role="presentation" src="//cdn.shopifycdn.net/s/files/1/0326/3660/0451/t/7/assets/icon-thin-arrow-down-black.svg?v=16628552180472882922"/>
</button>
<ul aria-hidden="true" class="e-mobile-global-menu__submenu" data-item-count="3" id="mobile-global-submenu-8"><li class="e-mobile-global-menu__menu-item">
<a href="/collections/all">
                    BAPE.COM
                  </a>
</li><li class="e-mobile-global-menu__menu-item">
<a href="https://bapeonline.com">
                    BAPEONLINE.COM
                  </a>
</li><li class="e-mobile-global-menu__menu-item">
<a href="https://bapepirate.com">
                    BAPEPIRATE.COM
                  </a>
</li></ul>
</li>
</ul>
</nav>
</div>
</div>
</header>
<div class="p-index t-single-column">
<main class="t-single-column__content">
<h1><img alt="Welcome to bape® world!" class="p-index__title-img" height="20px" src="//cdn.shopifycdn.net/s/files/1/0326/3660/0451/t/7/assets/index-title_295x.png?v=5972640844628082263" srcset="//cdn.shopifycdn.net/s/files/1/0326/3660/0451/t/7/assets/index-title_295x.png?v=5972640844628082263 1x, //cdn.shopifycdn.net/s/files/1/0326/3660/0451/t/7/assets/index-title_590x.png?v=5972640844628082263 2x, //cdn.shopifycdn.net/s/files/1/0326/3660/0451/t/7/assets/index-title_885x.png?v=5972640844628082263 3x" width="295px"/>
</h1>
<ul class="p-index__menu s-index-menu" id="index-menu" role="menu"><li class="s-index-menu__item" role="menuitem">
<a class="s-index-menu__link" href="/blogs/news"><img alt="" class="s-index-menu__icon" height="100px" role="presentation" src="//cdn.shopifycdn.net/s/files/1/0326/3660/0451/t/7/assets/index-bape_100x.png?v=178849272629333158" srcset="//cdn.shopifycdn.net/s/files/1/0326/3660/0451/t/7/assets/index-bape_100x.png?v=178849272629333158 1x, //cdn.shopifycdn.net/s/files/1/0326/3660/0451/t/7/assets/index-bape_200x.png?v=178849272629333158 2x, //cdn.shopifycdn.net/s/files/1/0326/3660/0451/t/7/assets/index-bape_300x.png?v=178849272629333158 3x" width="100px"/>
    NEWS
  </a>
</li>
<li class="s-index-menu__item" role="menuitem">
<a class="s-index-menu__link" href="/pages/lookbook"><img alt="" class="s-index-menu__icon" height="100px" role="presentation" src="//cdn.shopifycdn.net/s/files/1/0326/3660/0451/t/7/assets/index-bape_100x.png?v=178849272629333158" srcset="//cdn.shopifycdn.net/s/files/1/0326/3660/0451/t/7/assets/index-bape_100x.png?v=178849272629333158 1x, //cdn.shopifycdn.net/s/files/1/0326/3660/0451/t/7/assets/index-bape_200x.png?v=178849272629333158 2x, //cdn.shopifycdn.net/s/files/1/0326/3660/0451/t/7/assets/index-bape_300x.png?v=178849272629333158 3x" width="100px"/>
    LOOKBOOK
  </a>
</li>
<li class="s-index-menu__item" role="menuitem">
<a class="s-index-menu__link" href="/collections/all"><img alt="" class="s-index-menu__icon" height="100px" role="presentation" src="//cdn.shopifycdn.net/s/files/1/0326/3660/0451/t/7/assets/index-bape_100x.png?v=178849272629333158" srcset="//cdn.shopifycdn.net/s/files/1/0326/3660/0451/t/7/assets/index-bape_100x.png?v=178849272629333158 1x, //cdn.shopifycdn.net/s/files/1/0326/3660/0451/t/7/assets/index-bape_200x.png?v=178849272629333158 2x, //cdn.shopifycdn.net/s/files/1/0326/3660/0451/t/7/assets/index-bape_300x.png?v=178849272629333158 3x" width="100px"/>
    BAPE.COM
  </a>
</li>
<li class="s-index-menu__item" role="menuitem">
<a class="s-index-menu__link" href="/pages/mr"><img alt="" class="s-index-menu__icon" data-hover-src-1x="//cdn.shopifycdn.net/s/files/1/0326/3660/0451/t/7/assets/index-mr_100x.png?v=6653267537360359671" data-hover-src-2x="//cdn.shopifycdn.net/s/files/1/0326/3660/0451/t/7/assets/index-mr_200x.png?v=6653267537360359671" data-hover-src-3x="//cdn.shopifycdn.net/s/files/1/0326/3660/0451/t/7/assets/index-mr_300x.png?v=6653267537360359671" height="100px" role="presentation" src="//cdn.shopifycdn.net/s/files/1/0326/3660/0451/t/7/assets/index-bape_100x.png?v=178849272629333158" srcset="//cdn.shopifycdn.net/s/files/1/0326/3660/0451/t/7/assets/index-bape_100x.png?v=178849272629333158 1x, //cdn.shopifycdn.net/s/files/1/0326/3660/0451/t/7/assets/index-bape_200x.png?v=178849272629333158 2x, //cdn.shopifycdn.net/s/files/1/0326/3660/0451/t/7/assets/index-bape_300x.png?v=178849272629333158 3x" width="100px"/>
    Mr. BATHING APE®
  </a>
</li>
<li class="s-index-menu__item" role="menuitem">
<a class="s-index-menu__link" href="/pages/milo"><img alt="" class="s-index-menu__icon" data-hover-src-1x="//cdn.shopifycdn.net/s/files/1/0326/3660/0451/t/7/assets/index-milo_100x.png?v=16937629932081361368" data-hover-src-2x="//cdn.shopifycdn.net/s/files/1/0326/3660/0451/t/7/assets/index-milo_200x.png?v=16937629932081361368" data-hover-src-3x="//cdn.shopifycdn.net/s/files/1/0326/3660/0451/t/7/assets/index-milo_300x.png?v=16937629932081361368" height="100px" role="presentation" src="//cdn.shopifycdn.net/s/files/1/0326/3660/0451/t/7/assets/index-bape_100x.png?v=178849272629333158" srcset="//cdn.shopifycdn.net/s/files/1/0326/3660/0451/t/7/assets/index-bape_100x.png?v=178849272629333158 1x, //cdn.shopifycdn.net/s/files/1/0326/3660/0451/t/7/assets/index-bape_200x.png?v=178849272629333158 2x, //cdn.shopifycdn.net/s/files/1/0326/3660/0451/t/7/assets/index-bape_300x.png?v=178849272629333158 3x" width="100px"/>
    BABY MILO® STORE
  </a>
</li>
<li class="s-index-menu__item" role="menuitem">
<a class="s-index-menu__link" href="/pages/bapy"><img alt="" class="s-index-menu__icon" data-hover-src-1x="//cdn.shopifycdn.net/s/files/1/0326/3660/0451/t/7/assets/index-bapy_100x.png?v=3044203025414326013" data-hover-src-2x="//cdn.shopifycdn.net/s/files/1/0326/3660/0451/t/7/assets/index-bapy_200x.png?v=3044203025414326013" data-hover-src-3x="//cdn.shopifycdn.net/s/files/1/0326/3660/0451/t/7/assets/index-bapy_300x.png?v=3044203025414326013" height="100px" role="presentation" src="//cdn.shopifycdn.net/s/files/1/0326/3660/0451/t/7/assets/index-bape_100x.png?v=178849272629333158" srcset="//cdn.shopifycdn.net/s/files/1/0326/3660/0451/t/7/assets/index-bape_100x.png?v=178849272629333158 1x, //cdn.shopifycdn.net/s/files/1/0326/3660/0451/t/7/assets/index-bape_200x.png?v=178849272629333158 2x, //cdn.shopifycdn.net/s/files/1/0326/3660/0451/t/7/assets/index-bape_300x.png?v=178849272629333158 3x" width="100px"/>
    BAPY®
  </a>
</li>
<li class="s-index-menu__item" role="menuitem">
<a class="s-index-menu__link" href="https://bape.com/pages/bape-home"><img alt="" class="s-index-menu__icon" data-hover-src-1x="//cdn.shopifycdn.net/s/files/1/0326/3660/0451/t/7/assets/index-bape-home_100x.png?v=17692590353958143020" data-hover-src-2x="//cdn.shopifycdn.net/s/files/1/0326/3660/0451/t/7/assets/index-bape-home_200x.png?v=17692590353958143020" data-hover-src-3x="//cdn.shopifycdn.net/s/files/1/0326/3660/0451/t/7/assets/index-bape-home_300x.png?v=17692590353958143020" height="100px" role="presentation" src="//cdn.shopifycdn.net/s/files/1/0326/3660/0451/t/7/assets/index-bape_100x.png?v=178849272629333158" srcset="//cdn.shopifycdn.net/s/files/1/0326/3660/0451/t/7/assets/index-bape_100x.png?v=178849272629333158 1x, //cdn.shopifycdn.net/s/files/1/0326/3660/0451/t/7/assets/index-bape_200x.png?v=178849272629333158 2x, //cdn.shopifycdn.net/s/files/1/0326/3660/0451/t/7/assets/index-bape_300x.png?v=178849272629333158 3x" width="100px"/>
    BAPE® HOME
  </a>
</li>
<li class="s-index-menu__item" role="menuitem">
<a class="s-index-menu__link" href="/pages/bapeblack20aw"><img alt="" class="s-index-menu__icon" data-hover-src-1x="//cdn.shopifycdn.net/s/files/1/0326/3660/0451/t/7/assets/index-bape-black_100x.png?v=15396444847606843556" data-hover-src-2x="//cdn.shopifycdn.net/s/files/1/0326/3660/0451/t/7/assets/index-bape-black_200x.png?v=15396444847606843556" data-hover-src-3x="//cdn.shopifycdn.net/s/files/1/0326/3660/0451/t/7/assets/index-bape-black_300x.png?v=15396444847606843556" height="100px" role="presentation" src="//cdn.shopifycdn.net/s/files/1/0326/3660/0451/t/7/assets/index-bape_100x.png?v=178849272629333158" srcset="//cdn.shopifycdn.net/s/files/1/0326/3660/0451/t/7/assets/index-bape_100x.png?v=178849272629333158 1x, //cdn.shopifycdn.net/s/files/1/0326/3660/0451/t/7/assets/index-bape_200x.png?v=178849272629333158 2x, //cdn.shopifycdn.net/s/files/1/0326/3660/0451/t/7/assets/index-bape_300x.png?v=178849272629333158 3x" width="100px"/>
    BAPE® BLACK
  </a>
</li>
<li class="s-index-menu__item" role="menuitem">
<a class="s-index-menu__link" href="https://aape.jp/" rel="noopener" target="_blank"><img alt="" class="s-index-menu__icon" data-hover-src-1x="//cdn.shopifycdn.net/s/files/1/0326/3660/0451/t/7/assets/index-aape_100x.png?v=11277889610107763715" data-hover-src-2x="//cdn.shopifycdn.net/s/files/1/0326/3660/0451/t/7/assets/index-aape_200x.png?v=11277889610107763715" data-hover-src-3x="//cdn.shopifycdn.net/s/files/1/0326/3660/0451/t/7/assets/index-aape_300x.png?v=11277889610107763715" height="100px" role="presentation" src="//cdn.shopifycdn.net/s/files/1/0326/3660/0451/t/7/assets/index-bape_100x.png?v=178849272629333158" srcset="//cdn.shopifycdn.net/s/files/1/0326/3660/0451/t/7/assets/index-bape_100x.png?v=178849272629333158 1x, //cdn.shopifycdn.net/s/files/1/0326/3660/0451/t/7/assets/index-bape_200x.png?v=178849272629333158 2x, //cdn.shopifycdn.net/s/files/1/0326/3660/0451/t/7/assets/index-bape_300x.png?v=178849272629333158 3x" width="100px"/>
    AAPE.JP
  </a>
</li>
</ul>
</main>
</div>
<footer aria-label="Footer" class="s-footer">
<div class="s-footer__top-pane"><ul aria-label="SNS links" class="s-sns-links s-footer__sns-links">
<li>
<a aria-label="Official Twitter" href="https://twitter.com/BAPEOFFICIAL" rel="noopener" target="_blank"><span class="s-sns-links__icon a-icon fab fa-twitter" role="presentation"></span>
</a>
</li>
<li>
<a aria-label="Official Instagram" href="https://www.instagram.com/bape_japan/" rel="noopener" target="_blank"><span class="s-sns-links__icon a-icon fab fa-instagram" role="presentation"></span>
</a>
</li>
<li>
<a aria-label="Official Facebook page" href="https://www.facebook.com/BAPE.OFFICIAL" rel="noopener" target="_blank"><span class="s-sns-links__icon a-icon fab fa-facebook-f" role="presentation"></span>
</a>
</li><li>
<a aria-label="Official LINE account" href="https://lin.ee/fyR97p7" rel="noopener" target="_blank"><img alt="" class="s-sns-links__img-icon" height="20px" role="presentation" src="//cdn.shopifycdn.net/s/files/1/0326/3660/0451/t/7/assets/icon-line_21x.png?v=11720390789416564853" srcset="//cdn.shopifycdn.net/s/files/1/0326/3660/0451/t/7/assets/icon-line_21x.png?v=11720390789416564853 1x, //cdn.shopifycdn.net/s/files/1/0326/3660/0451/t/7/assets/icon-line_42x.png?v=11720390789416564853 2x, //cdn.shopifycdn.net/s/files/1/0326/3660/0451/t/7/assets/icon-line_63x.png?v=11720390789416564853 3x" width="21px"/>
</a>
</li></ul>
<form accept-charset="UTF-8" action="/contact#footer-newsletter-form" aria-label="NEWSLETTER subscription form" class="e-newsletter s-footer__newsletter" id="footer-newsletter-form" method="post"><input name="form_type" type="hidden" value="customer"/><input name="utf8" type="hidden" value="✓"/><input name="contact[tags]" type="hidden" value="newsletter"/>
<div class="e-newsletter__input-content">
<label class="visually-hidden" for="footer-newsletter-email-input">
      メールアドレスを入力してNEWSLETTERを購読
    </label>
<input autocomplete="email" class="e-newsletter__email-input" id="footer-newsletter-email-input" name="contact[email]" placeholder="メールアドレスを入力してNEWSLETTERを購読" type="email"/>
<button aria-label="Sign Up NEWSLETTER" class="e-newsletter__submit-button" type="submit">
      &gt;
    </button>
</div></form></div>
<div class="s-footer__bottom-pane">
<ul class="s-footer__bottom-navigation"><li>
<a class="s-footer__bottom-navigation-link" href="/pages/profile">
          PROFILE
        </a>
</li><li>
<a class="s-footer__bottom-navigation-link" href="/pages/contact">
          CONTACT
        </a>
</li><li>
<a class="s-footer__bottom-navigation-link" href="/pages/faq">
          FAQ
        </a>
</li><li>
<a class="s-footer__bottom-navigation-link" href="/pages/policy">
          POLICY
        </a>
</li><li>
<a class="s-footer__bottom-navigation-link" href="/pages/recruit">
          RECRUITE
        </a>
</li><li>
<a class="s-footer__bottom-navigation-link" href="/pages/store-list">
          STORE LIST
        </a>
</li><li>
<a class="s-footer__bottom-navigation-link" href="/products/bape-card">
          BAPE® CARD
        </a>
</li></ul>
<p class="s-footer__copyright-wrapper">
<small class="s-footer__copyright">
      © NOWHERE Co., Ltd. All rights reserved
    </small>
</p>
</div>
</footer>
</div>
<div class="smile-shopify-init" data-channel-key="channel_yfDvpLvVZh0aErQbJJtjOVyz"></div>
<div id="scroll-to-top-button"></div>
</body>
</html>
