<html><head>
<title>Access Denied</title>
</head><body>
<h1>Access Denied</h1>
 
You don't have permission to access "http://www.barnesandnoble.com/s/mark-steyn" on this server.<p>
Reference #18.86302b17.1610596143.1bda67b
</p></body>
</html>
