<html><head>
<title>Access Denied</title>
</head><body>
<h1>Access Denied</h1>
 
You don't have permission to access "http://www.barnesandnoble.com/c/b-c-wolverton" on this server.<p>
Reference #18.86302b17.1610595917.1bb35e1
</p></body>
</html>
