<html><head>
<title>Access Denied</title>
</head><body>
<h1>Access Denied</h1>
 
You don't have permission to access "http://www.barnesandnoble.com/w/mrs-bridge-evan-s-connell/1102217758" on this server.<p>
Reference #18.86302b17.1610596185.1be2663
</p></body>
</html>
