<html><head>
<title>Access Denied</title>
</head><body>
<h1>Access Denied</h1>
 
You don't have permission to access "http://www.barnesandnoble.com/w/fraud-david-rakoff/1004506790" on this server.<p>
Reference #18.86302b17.1610596170.1bdface
</p></body>
</html>
