<html><head>
<title>Access Denied</title>
</head><body>
<h1>Access Denied</h1>
 
You don't have permission to access "http://www.barnesandnoble.com/w/medical-detectives-berton-roueche/1102000297" on this server.<p>
Reference #18.86302b17.1610596184.1be22c1
</p></body>
</html>
