<html><head>
<title>Access Denied</title>
</head><body>
<h1>Access Denied</h1>
 
You don't have permission to access "http://www.barnesandnoble.com/w/eisenhower-carlo-deste/1005127320" on this server.<p>
Reference #18.86302b17.1610596166.1bdef74
</p></body>
</html>
