<html><head>
<title>Access Denied</title>
</head><body>
<h1>Access Denied</h1>
 
You don't have permission to access "http://www.barnesandnoble.com/w/fishbowl-sarah-mlynowski/1005284729" on this server.<p>
Reference #18.86302b17.1610596169.1bdf9ed
</p></body>
</html>
