<html><head>
<title>Access Denied</title>
</head><body>
<h1>Access Denied</h1>
 
You don't have permission to access "http://www.barnesandnoble.com/w/red-china-blues-jan-wong/1103431483" on this server.<p>
Reference #18.86302b17.1610596192.1be395a
</p></body>
</html>
