<html><head>
<title>Access Denied</title>
</head><body>
<h1>Access Denied</h1>
 
You don't have permission to access "http://www.barnesandnoble.com/w/terrible-axe-man-of-new-orleans-rick-geary/1102115592?" on this server.<p>
Reference #18.86302b17.1610596199.1be4d26
</p></body>
</html>
