<html><head>
<title>Access Denied</title>
</head><body>
<h1>Access Denied</h1>
 
You don't have permission to access "http://www.barnesandnoble.com/w/wing-chun-kung-fu-james-yimm-lee/1102879693" on this server.<p>
Reference #18.86302b17.1610596205.1be5fed
</p></body>
</html>
