<!DOCTYPE HTML PUBLIC "-//IETF//DTD HTML 2.0//EN">
<html>
<head><title>403 Forbidden</title></head>
<body bgcolor="white">
<h1>403 Forbidden</h1>
<p>You don't have permission to access the URL on this server. Sorry for the inconvenience.<br/>
Please report this message and include the following information to us.<br/>
Thank you very much!</p>
<table>
<tr>
<td>URL:</td>
<td>http://shenzhen.bczp.cn//</td>
</tr>
<tr>
<td>Server:</td>
<td>localhost.localdomain</td>
</tr>
<tr>
<td>Date:</td>
<td>2021/01/14 11:56:04</td>
</tr>
</table>
<hr/>Powered by Tengine/2.2.2</body>
</html>
