<!DOCTYPE html PUBLIC "-//W3C//DTD XHTML 1.0 Transitional//EN" "http://www.w3.org/TR/xhtml1/DTD/xhtml1-transitional.dtd">
<html lang="en" xml:lang="en" xmlns="http://www.w3.org/1999/xhtml">
<head>
<title>beastbook.net!</title>
<meta content="text/html; charset=utf-8" http-equiv="Content-Type"/>
<link href="/favicon.ico" rel="shortcut icon"/>
<meta content="noindex" name="robots"/>
<style type="text/css"><!--
    body {
        color: #444444;
        background-color: #EEEEEE;
        font-family: 'Trebuchet MS', sans-serif;
        font-size: 80%;
    }
    h1 {}
    h2 { font-size: 1.2em; }
    #page{
        background-color: #FFFFFF;
        width: 60%;
        margin: 24px auto;
        padding: 12px;
    }
    #header{
        padding: 6px ;
        text-align: center;
    }
    .header{ background-color: #83A342; color: #FFFFFF; }
    #content {
        padding: 4px 0 24px 0;
    }
    #footer {
        color: #666666;
        background: #f9f9f9;
        padding: 10px 20px;
        border-top: 5px #efefef solid;
        font-size: 0.8em;
        text-align: center;
    }
    #footer a {
        color: #999999;
    }
    --></style>
</head>
<body>
<div id="page">
<div class="header" id="header">
<h1>Beastbook!</h1>
</div>
<div id="content">
<h2>Beastbook ist dauerhaft geschlossen</h2>
<p>Falls du dich fÃ¼r das Thema Zoophilie interessierst komme zu <a href="https://www.forumzoone.org">forumZOOne.org</a> - Dort gibt es jedoch keine Pornografie! (und auch keine Tierpornos)</p>
</div>
<div id="footer"> </div>
</div>
</body>
</html>
