<!DOCTYPE HTML PUBLIC "-//W3C//DTD HTML 4.01 Transitional//EN" "http://www.w3.org/TR/1999/REC-html401-19991224/loose.dtd">
<html lang="fr">
<head>
<title>Jeux gratuits - Nouveaux Jeux sur 10001Games.fr</title>
<meta content="text/html; charset=utf-8" http-equiv="Content-Type"/>
<link href="https://www.10001games.fr/site/tpl4/css/stylegames.css?v=2.00" rel="stylesheet" type="text/css"/>
<link href="https://www.10001games.fr/site/tpl4/css/custom.css?v=3.03" rel="stylesheet"/>
<meta content="Jeux gratuits - Games: Jouez gratuitement à des nouveaux jeux en ligne aujourd'hui. Visitez le site 10001games.fr" name="description"/>
<meta content="jeux gratuits, jeux gratuit, games, jeux, nouveaux jeux, jeux gratuitment, free games" name="keywords"/>
<meta content="Copyright © 2009 - 2019" name="copyright"/>
<meta content="requiresActiveX=true" http-equiv="X-UA-Compatible"/>
<link href="https://www.10001games.fr/" rel="canonical"/>
<script>
            var customAdTagUrl = '-';
        </script>
<style type="text/css">
			.sc-d {
				display: inline-block;
				width: 300px;
				height: 600px;
				float: right;
			}
            @media (max-width: 1300px) {
                .sc-d {
                    display: none;
                }

                #shd, #snv-nvb, .scl, #sgt, #sup, .ft-stmp, .ft-tl, .ft-b {
                    width: 960px;
                }
            }

            @media (min-width: 1300px) {
                /*.sc-d {
                    display: inline-block;
                    width: 300px;
                    height: 600px;
                    float: right;
                }*/

                #shd, #snv-nvb, .scl, #sgt, #sup, .ft-stmp, .ft-tl, .ft-b {
                    width: 1270px;
                }

                .snv-tbs {
                    width: 1077px;
                }

                #stit {
                    width: 450px;
                }

                .sc-r {
                    float: left;
                    margin-right: 9px;
                }

                #shd-so, .sc-l {
                    margin-right: 9px;
                }
            }

        </style>
<script type="text/javascript">
            var BASE_PATH = 'https://www.10001games.fr/site/';
            var HOST = 'https://www.10001games.fr/';
            var IMG_PATH = ''; //change

            var M_SUC = 1;
            var M_INVINP = -1003;
            var M_SYSERR = -1002;
            var M_NOAUTH = -1001;
            var M_INVCMD = -1005;
            var M_DUPENT = -1006;

            var M_TOOMUCHREV = -2202;
            var __pageType = 'template';
            var __waitLoadMsg = 'Please wait while page is loading!';
            var __errMsg = 'Oops! An error occured.';
            var __loadingMsg = '<img height="16" width="16" src="' + IMG_PATH + '/loading.gif"/>';

            var __username = '';
            __pageLoaded = false;

            function $g(e) {
                if (typeof e == 'string')
                    e = document.getElementById(e);
                return e
            }
            ;
            function isFuncExists(fnc) {
                return eval("typeof " + fnc + " == \"function\"");
            }

            function searchGame(formObj) {
                return true;
            }

            function gosfo(fobj, str, fstat) {
                var fval = fobj.value;
                if (fstat == 1 && fval == str)
                    fobj.value = '';
                else if (fstat == -1 && fval == '')
                    fobj.value = str;
            }

            function gosqIn(_obj, _msg, _duration) {
                if (isFuncExists(GosQMsg))
                    qmsg.showAtObj(_obj, _msg, _duration);
                else
                    alert(_msg);
            }

            function initPage() {
                __pageLoaded = true;
                gpage.init();

            }

            addDOMLoadEvent = (function () {
                var e = [], t, s, n, i, o, d = document, w = window, r = 'readyState', c = 'onreadystatechange', x = function () {
                    n = 1;
                    clearInterval(t);
                    while (i = e.shift())
                        i();
                    if (s)
                        s[c] = ''
                };
                return function (f) {
                    if (n)
                        return f();
                    if (!e[0]) {
                        d.addEventListener && d.addEventListener("DOMContentLoaded", x, false);
                        if (/WebKit/i.test(navigator.userAgent))
                            t = setInterval(function () {
                                /loaded|complete/.test(d[r]) && x()
                            }, 10);
                        o = w.onload;
                        w.onload = function () {
                            x();
                            o && o()
                        }
                    }
                    e.push(f)
                }
            })();
            addDOMLoadEvent(initPage);
        </script>
<script async="async" src="https://www.googletagservices.com/tag/js/gpt.js"></script>
<script>
  var googletag = googletag || {};
  googletag.cmd = googletag.cmd || [];
</script>
<script>
  googletag.cmd.push(function() {googletag.defineSlot('/21768812150/001_network_728x90', [728, 90], 'div-gpt-ad-1546342396265-0').addService(googletag.pubads());    googletag.defineSlot('/21768812150/network_970x250', [970, 250], 'div-gpt-ad-1546369893404-0').addService(googletag.pubads());    googletag.defineSlot('/21768812150/network_300x600', [300, 600], 'div-gpt-ad-1585564492422-0').addService(googletag.pubads());
    googletag.pubads().enableSingleRequest();
    googletag.enableServices();
  });
</script>
<script async="" src="//pagead2.googlesyndication.com/pagead/js/adsbygoogle.js"></script>
<script>
     (adsbygoogle = window.adsbygoogle || []).push({
          google_ad_client: 'ca-pub-6735325077776017',
          enable_page_level_ads: true
     });
</script><script>
  (function(i,s,o,g,r,a,m){i['GoogleAnalyticsObject']=r;i[r]=i[r]||function(){
  (i[r].q=i[r].q||[]).push(arguments)},i[r].l=1*new Date();a=s.createElement(o),
  m=s.getElementsByTagName(o)[0];a.async=1;a.src=g;m.parentNode.insertBefore(a,m)
  })(window,document,'script','//www.google-analytics.com/analytics.js','ga');

  ga('set', 'anonymizeIp', true);
  ga('create', 'UA-29116818-2', 'auto');
  ga('send', 'pageview');

</script>
<script async="" defer="" src="https://apis.google.com/js/platform.js">
          {lang: 'fr'}
        </script>
</head>
<body id="index">
<div id="fb-rt"></div>
<a name="top"></a>
<div id="sp-wrp">
<div id="spage">
<div id="shd-wrp">
<div id="shd">
<a href="https://www.10001games.fr/" id="logoa">
<img alt="Games.gr logo" id="logo" src="https://www.10001games.fr/site/images/logos/logo-desktop.png"/>
</a>
<div align="right" class="stit-ad" style="float:right; width:300px; margin-top:18px;">
<div class="twitterShare" style="float: right; margin-right: 10px;">
<a class="twitter-share-button" data-text="" data-url="https://www.10001games.fr/" data-via=""></a>
</div>
<div class="fblike" style="float: right; margin-right: 10px">
<div class="fb-like" data-action="like" data-href="#" data-layout="button_count" data-share="false" data-show-faces="false"></div>
</div>
</div>
<div id="shd-nav">
</div>
<div class="clear"><span> </span></div>
</div>
</div>
<div id="snv-wrp">
<div id="snv-nvb">
<div class="snv-tbs">
<ul>
<li id="snav-thome"><a href="https://www.10001games.fr"><span>Home</span></a></li>
<li><a href="/newgames/"><span>Nouveaux jeux</span></a></li>
<li><a href="/topgames/2months/"><span>Meilleurs jeux</span></a></li>
<li><a href="/category/Dress_Up/?order=newgames"><span>Filles</span></a></li>
<li><a href="/category/mmo/"><span>Multijoueurs</span></a></li>
<li><a href="/category/Driving/?order=newgames"><span>Conduite</span></a></li>
</ul>
</div>
<div class="snv-srch">
<form id="searchForm">
<table>
<tr>
<td class="td-srctext">
<input class="tb" id="searchInput" type="text" value=""/>
</td>
<td class="td-srcbutton">
<button class="btn" id="searchSubmit" name="topSearchSubmit" type="submit" value=""></button>
</td>
</tr>
</table>
</form>
</div>
</div>
</div>
<div id="cookieArea" style="display:none !important;opacity:0;">
<button class="closeCookieBtn button">X</button>
<p>Cookies help us deliver our services. By using our services you agree to our use of cookies.</p>
<a href="https://www.google.com/intl/en/policies/technologies/cookies/">Learn more</a>
</div><!-- scl starts -->
<div class="scl">
<!-- sc-l starts-->
<div class="sc-l">
<!-- bsm starts -->
<div class="bsm">
<div class="bm-c ct-d">
<div class="tg-ls">
<ul>
<li class="">
<a href="/type/games-for-girls/" title="Fille">
<span>Fille</span>
</a>
</li><li class="">
<a href="/type/racing-driving/" title="Conduite">
<span>Conduite</span>
</a>
</li><li class="">
<a href="/type/action-fighting/" title="Action">
<span>Action</span>
</a>
</li><li class="">
<a href="/type/hidden/" title="Objets Cachés">
<span>Objets Cachés</span>
</a>
</li><li class="">
<a href="/type/puzzle-and-logic/" title="Puzzle">
<span>Puzzle</span>
</a>
</li><li class="">
<a href="/type/management/" title="Gestion, Direction">
<span>Gestion, Direction</span>
</a>
</li><li class="">
<a href="/type/sports/" title="Sport">
<span>Sport</span>
</a>
</li><li class="">
<a href="/type/arcade-classic/" title="Arcade">
<span>Arcade</span>
</a>
</li><li class="">
<a href="/type/multiplayer-mmo/" title="Multijoueur">
<span>Multijoueur</span>
</a>
</li><li class="">
<a href="/type/kids/" title="Enfants">
<span>Enfants</span>
</a>
</li><li class="">
<a href="/type/other/" title="Autres">
<span>Autres</span>
</a>
</li><li class=""><a href="/categorieslist/" title="dress-up games"><span>98 Autres catégories</span></a></li>
</ul>
</div>
</div>
<div class="bsm-fo"><span> </span></div>
</div>
<!-- end of bsm-->
<div class="bnr">
<script src="https://server.cpmstar.com/view.aspx?poolid=20472&amp;subpoolid=1&amp;script=1"></script>
<script src="https://server.cpmstar.com/cached/textad.js"></script>
<script type="text/javascript">
        document.write('<a href="'+cpmStar.getLink()+'" target="_blank"><img src="'+cpmStar.getImageUrl(160,120)+'" width="160" height="120" /></a>');
    </script>
<!-- 045913 SB NET CPM TPL4 home button 3 -->
</div>
</div>
<!-- end of sc-l -->
<div id="">
<div class="tistit" id="hmt">
<h1></h1>
</div>
</div>
<!-- end of scl-ri starts-->
<div class="sc-r">
<!-- cont starts -->
<div class="c-wrp">
<div>
<div class="gm-l">
<div class="gl-bd">
<div class="gll" id="call-of-ops-2">
<a class="li gthli" href="https://www.10001games.fr/jeu/call-of-ops-2" name="Call of Ops 2 0 https://www.10001games.fr/ http://www.10001games.fr/" title="Call of Ops 2">
<img src="https://media.bfgfile.com/images/53_54125.jpg"/>
<span class="ti">
<span class="rdr rd2">75%</span>
<span class="na">Call of Ops 2</span>
</span>
</a>
</div><div class="gll" id="amazing-dominoes">
<a class="li gthli" href="https://www.10001games.fr/jeu/amazing-dominoes" name="Amazing Dominoes 0 https://www.10001games.fr/ http://www.10001games.fr/" title="Amazing Dominoes">
<img src="https://media.bfgfile.com/images/53_54117.jpg"/>
<span class="ti">
<span class="rdr rd2">70%</span>
<span class="na">Amazing Dominoes</span>
</span>
</a>
</div><div class="gll" id="taxi-pickup">
<a class="li gthli" href="https://www.10001games.fr/jeu/taxi-pickup" name="Taxi Pickup 0 https://www.10001games.fr/ http://www.10001games.fr/" title="Taxi Pickup">
<img src="https://media.bfgfile.com/images/53_54115.jpg"/>
<span class="ti">
<span class="rdr rd2">86%</span>
<span class="na">Taxi Pickup</span>
</span>
</a>
</div><div class="gll" id="neon-math">
<a class="li gthli" href="https://www.10001games.fr/jeu/neon-math" name="Neon Math 0 https://www.10001games.fr/ http://www.10001games.fr/" title="Neon Math">
<img src="https://media.bfgfile.com/images/53_54114.jpg"/>
<span class="ti">
<span class="rdr rd2">80%</span>
<span class="na">Neon Math</span>
</span>
</a>
</div><div class="gll" id="marthas-farm">
<a class="li gthli" href="https://www.10001games.fr/jeu/marthas-farm" name="Marthas Farm 0 https://www.10001games.fr/ http://www.10001games.fr/" title="Marthas Farm">
<img src="https://media.bfgfile.com/images/53_54112.jpg"/>
<span class="ti">
<span class="rdr rd2">78%</span>
<span class="na">Marthas Farm</span>
</span>
</a>
</div><div class="gll" id="crazy-hair-school-salon">
<a class="li gthli" href="https://www.10001games.fr/jeu/crazy-hair-school-salon" name="Crazy Hair School Salon 0 https://www.10001games.fr/ http://www.10001games.fr/" title="Crazy Hair School Salon">
<img src="https://media.bfgfile.com/images/53_54082.jpg"/>
<span class="ti">
<span class="rdr rd2">85%</span>
<span class="na">Crazy Hair School Salon</span>
</span>
</a>
</div><div class="gll" id="extreme-makeover-ellie-edition">
<a class="li gthli" href="https://www.10001games.fr/jeu/extreme-makeover-ellie-edition" name="Extreme Makeover: Ellie Edition 0 https://www.10001games.fr/ http://www.10001games.fr/" title="Extreme Makeover: Ellie Edition">
<img src="https://media.bfgfile.com/images/53_54128.jpg"/>
<span class="ti">
<span class="rdr rd2">77%</span>
<span class="na">Extreme Makeover: Ellie Edition</span>
</span>
</a>
</div><div class="gll" id="dr-panda-daycare">
<a class="li gthli" href="https://www.10001games.fr/jeu/dr-panda-daycare" name="Dr Panda Daycare 0 https://www.10001games.fr/ http://www.10001games.fr/" title="Dr Panda Daycare">
<img src="https://media.bfgfile.com/images/53_54118.jpg"/>
<span class="ti">
<span class="rdr rd2">76%</span>
<span class="na">Dr Panda Daycare</span>
</span>
</a>
</div><div class="gll" id="cat-around-the-world-alpine-lakes">
<a class="li gthli" href="https://www.10001games.fr/jeu/cat-around-the-world-alpine-lakes" name="Cat Around The World: Alpine Lakes 0 https://www.10001games.fr/ http://www.10001games.fr/" title="Cat Around The World: Alpine Lakes">
<img src="https://media.bfgfile.com/images/11_44500.jpg"/>
<span class="ti">
<span class="rdr rd2">81%</span>
<span class="na">Cat Around The World: Alpine Lakes</span>
</span>
</a>
</div><div class="gll" id="fit_it_quick">
<a class="li gthli" href="https://www.10001games.fr/jeu/fit_it_quick" name="Fit It Quick 0 https://www.10001games.fr/ http://www.10001games.fr/" title="Fit It Quick">
<img src="https://media.bfgfile.com/images/13_30746.jpg"/>
<span class="ti">
<span class="rdr rd2">81%</span>
<span class="na">Fit It Quick</span>
</span>
</a>
</div><div class="gll" id="bingo-royal">
<a class="li gthli" href="https://www.10001games.fr/jeu/bingo-royal" name="Bingo Royal 0 https://www.10001games.fr/ http://www.10001games.fr/" title="Bingo Royal">
<img src="https://media.bfgfile.com/images/01_54198.jpg"/>
<span class="ti">
<span class="rdr rd2">83%</span>
<span class="na">Bingo Royal</span>
</span>
</a>
</div><div class="gll" id="solitaire-tripeaks-1">
<a class="li gthli" href="https://www.10001games.fr/jeu/solitaire-tripeaks-1" name="Solitaire Tripeaks 0 https://www.10001games.fr/ http://www.10001games.fr/" title="Solitaire Tripeaks">
<img src="https://media.bfgfile.com/images/53_54116.jpg"/>
<span class="ti">
<span class="rdr rd2">83%</span>
<span class="na">Solitaire Tripeaks</span>
</span>
</a>
</div>
<div class="mdd-d">
<div class="inner">
<div style="display:inline-block;width:728px;height:90px;min-width:728px;min-height:90px">
<!-- /21768812150/001_network_728x90 -->
<div id="div-gpt-ad-1546342396265-0" style="height:90px; width:728px;">
<script>
googletag.cmd.push(function() { googletag.display('div-gpt-ad-1546342396265-0'); });
</script>
</div>
<!-- 02016 SB NET DFP ADS home 728x90 TPL4 -->
</div>
</div>
</div>
<div class="gll" id="goodgame_big_farm">
<a class="li gthli" href="https://www.10001games.fr/jeu/goodgame_big_farm" name="Goodgame Big Farm 0 https://www.10001games.fr/ http://www.10001games.fr/" title="Goodgame Big Farm">
<img src="https://media.bfgfile.com/images/46_28721-112019b.jpg"/>
<span class="ti">
<span class="rdr rd2">92%</span>
<span class="na">Goodgame Big Farm</span>
</span>
</a>
</div><div class="gll" id="goodgame_empire">
<a class="li gthli" href="https://www.10001games.fr/jeu/goodgame_empire" name="Goodgame Empire 0 https://www.10001games.fr/ http://www.10001games.fr/" title="Goodgame Empire">
<img src="https://media.bfgfile.com/images/35_22855-08-19.jpg"/>
<span class="ti">
<span class="rdr rd2">93%</span>
<span class="na">Goodgame Empire</span>
</span>
</a>
</div><div class="gll" id="crescent_solitaire">
<a class="li gthli" href="https://www.10001games.fr/jeu/crescent_solitaire" name="Crescent Solitaire 0 https://www.10001games.fr/ http://www.10001games.fr/" title="Crescent Solitaire">
<img src="https://media.bfgfile.com/images/45_27380o.jpg"/>
<span class="ti">
<span class="rdr rd2">87%</span>
<span class="na">Crescent Solitaire</span>
</span>
</a>
</div><div class="gll" id="goodgame-empire-world-war-iii">
<a class="li gthli" href="https://www.10001games.fr/jeu/goodgame-empire-world-war-iii" name="Goodgame Empire: World War III 0 https://www.10001games.fr/ http://www.10001games.fr/" title="Goodgame Empire: World War III">
<img src="https://media.bfgfile.com/images/13_51506b.jpg"/>
<span class="ti">
<span class="rdr rd2">85%</span>
<span class="na">Goodgame Empire: World War III</span>
</span>
</a>
</div><div class="gll" id="shakes-and-fidget">
<a class="li gthli" href="https://www.10001games.fr/jeu/shakes-and-fidget" name="Shakes &amp; Fidget 0 https://www.10001games.fr/ http://www.10001games.fr/" title="Shakes &amp; Fidget">
<img src="https://media.bfgfile.com/images/10_51953.jpg"/>
<span class="ti">
<span class="rdr rd2">91%</span>
<span class="na">Shakes &amp; Fidget</span>
</span>
</a>
</div><div class="gll" id="tiles_of_the_unexpected">
<a class="li gthli" href="https://www.10001games.fr/jeu/tiles_of_the_unexpected" name="Tiles of the Unexpected 0 https://www.10001games.fr/ http://www.10001games.fr/" title="Tiles of the Unexpected">
<img src="https://media.bfgfile.com/images/45_10416o.jpg"/>
<span class="ti">
<span class="rdr rd2">91%</span>
<span class="na">Tiles of the Unexpected</span>
</span>
</a>
</div><div class="gll" id="bubble_shooter">
<a class="li gthli" href="https://www.10001games.fr/jeu/bubble_shooter" name="Bubble Shooter 0 https://www.10001games.fr/ http://www.10001games.fr/" title="Bubble Shooter">
<img src="https://media.bfgfile.com/images/52_01422.jpg"/>
<span class="ti">
<span class="rdr rd2">89%</span>
<span class="na">Bubble Shooter</span>
</span>
</a>
</div><div class="gll" id="pet_connect">
<a class="li gthli" href="https://www.10001games.fr/jeu/pet_connect" name="Pet Connect 0 https://www.10001games.fr/ http://www.10001games.fr/" title="Pet Connect">
<img src="https://media.bfgfile.com/images/45_07317o.jpg"/>
<span class="ti">
<span class="rdr rd2">90%</span>
<span class="na">Pet Connect</span>
</span>
</a>
</div><div class="gll" id="mahjongg">
<a class="li gthli" href="https://www.10001games.fr/jeu/mahjongg" name="Mahjongg 0 https://www.10001games.fr/ http://www.10001games.fr/" title="Mahjongg">
<img src="https://media.bfgfile.com/images/45_11499.jpg"/>
<span class="ti">
<span class="rdr rd2">92%</span>
<span class="na">Mahjongg</span>
</span>
</a>
</div><div class="gll" id="knights-and-brides">
<a class="li gthli" href="https://www.10001games.fr/jeu/knights-and-brides" name="Knights and Brides 0 https://www.10001games.fr/ http://www.10001games.fr/" title="Knights and Brides">
<img src="https://media.bfgfile.com/images/26_40879b.jpg"/>
<span class="ti">
<span class="rdr rd2">90%</span>
<span class="na">Knights and Brides</span>
</span>
</a>
</div><div class="gll" id="mystic_india_pop">
<a class="li gthli" href="https://www.10001games.fr/jeu/mystic_india_pop" name="Mystic India Pop 1 https://www.10001games.fr/ http://www.10001games.fr/" title="Mystic India Pop">
<img src="https://media.bfgfile.com/images/01_22668db.jpg"/>
<span class="ti">
<span class="rdr rd2">90%</span>
<span class="na">Mystic India Pop</span>
</span>
</a>
</div><div class="gll" id="farm_of_dreams">
<a class="li gthli" href="https://www.10001games.fr/jeu/farm_of_dreams" name="Farm of Dreams 0 https://www.10001games.fr/ http://www.10001games.fr/" title="Farm of Dreams">
<img src="https://media.bfgfile.com/images/45_25823o.jpg"/>
<span class="ti">
<span class="rdr rd2">90%</span>
<span class="na">Farm of Dreams</span>
</span>
</a>
</div><div class="gll" id="dream_pet_link">
<a class="li gthli" href="https://www.10001games.fr/jeu/dream_pet_link" name="Dream Pet Link 0 https://www.10001games.fr/ http://www.10001games.fr/" title="Dream Pet Link">
<img src="https://media.bfgfile.com/images/45_02932o.jpg"/>
<span class="ti">
<span class="rdr rd2">88%</span>
<span class="na">Dream Pet Link</span>
</span>
</a>
</div><div class="gll" id="klondike-the-lost-expedition">
<a class="li gthli" href="https://www.10001games.fr/jeu/klondike-the-lost-expedition" name="Klondike: The Lost Expedition 0 https://www.10001games.fr/ http://www.10001games.fr/" title="Klondike: The Lost Expedition">
<img src="https://media.bfgfile.com/images/15_37837b.jpg"/>
<span class="ti">
<span class="rdr rd2">90%</span>
<span class="na">Klondike: The Lost Expedition</span>
</span>
</a>
</div><div class="gll" id="governor_of_poker_2">
<a class="li gthli" href="https://www.10001games.fr/jeu/governor_of_poker_2" name="Governor Of Poker 2 0 https://www.10001games.fr/ http://www.10001games.fr/" title="Governor Of Poker 2">
<img src="https://media.bfgfile.com/images/38_17156b.jpg"/>
<span class="ti">
<span class="rdr rd2">89%</span>
<span class="na">Governor Of Poker 2</span>
</span>
</a>
</div><div class="gll" id="battle-pirates">
<a class="li gthli" href="https://www.10001games.fr/jeu/battle-pirates" name="Battle Pirates 0 https://www.10001games.fr/ http://www.10001games.fr/" title="Battle Pirates">
<img src="https://media.bfgfile.com/images/30_53588.jpg"/>
<span class="ti">
<span class="rdr rd2">88%</span>
<span class="na">Battle Pirates</span>
</span>
</a>
</div><div class="gll" id="mahjong_connect_2">
<a class="li gthli" href="https://www.10001games.fr/jeu/mahjong_connect_2" name="Mahjong Connect 2 0 https://www.10001games.fr/ http://www.10001games.fr/" title="Mahjong Connect 2">
<img src="https://media.bfgfile.com/images/22/16322.jpg"/>
<span class="ti">
<span class="rdr rd2">91%</span>
<span class="na">Mahjong Connect 2</span>
</span>
</a>
</div><div class="gll" id="tiles-mobile">
<a class="li gthli" href="https://www.10001games.fr/jeu/tiles-mobile" name="Tiles Mobile 0 https://www.10001games.fr/ http://www.10001games.fr/" title="Tiles Mobile">
<img src="https://media.bfgfile.com/images/01_47475d.jpg"/>
<span class="ti">
<span class="rdr rd2">91%</span>
<span class="na">Tiles Mobile</span>
</span>
</a>
</div><div class="gll" id="mahjong-titans">
<a class="li gthli" href="https://www.10001games.fr/jeu/mahjong-titans" name="Mahjong Titans 0 https://www.10001games.fr/ http://www.10001games.fr/" title="Mahjong Titans">
<img src="https://media.bfgfile.com/images/48_43092.jpg"/>
<span class="ti">
<span class="rdr rd2">91%</span>
<span class="na">Mahjong Titans</span>
</span>
</a>
</div><div class="gll" id="fast-pixel-bullet">
<a class="li gthli" href="https://www.10001games.fr/jeu/fast-pixel-bullet" name="Fast Pixel Bullet 0 https://www.10001games.fr/ http://www.10001games.fr/" title="Fast Pixel Bullet">
<img src="https://media.bfgfile.com/images/46_46903.jpg"/>
<span class="ti">
<span class="rdr rd2">91%</span>
<span class="na">Fast Pixel Bullet</span>
</span>
</a>
</div><div class="gll" id="hero_zero">
<a class="li gthli" href="https://www.10001games.fr/jeu/hero_zero" name="Hero Zero 0 https://www.10001games.fr/ http://www.10001games.fr/" title="Hero Zero">
<img src="https://media.bfgfile.com/images/48_27358b.jpg"/>
<span class="ti">
<span class="rdr rd2">89%</span>
<span class="na">Hero Zero</span>
</span>
</a>
</div><div class="gll" id="toy-defence">
<a class="li gthli" href="https://www.10001games.fr/jeu/toy-defence" name="Toy Defence 0 https://www.10001games.fr/ http://www.10001games.fr/" title="Toy Defence">
<img src="https://media.bfgfile.com/images/52_47391d.jpg"/>
<span class="ti">
<span class="rdr rd2">89%</span>
<span class="na">Toy Defence</span>
</span>
</a>
</div><div class="gll" id="puppy-blast">
<a class="li gthli" href="https://www.10001games.fr/jeu/puppy-blast" name="Puppy Blast 0 https://www.10001games.fr/ http://www.10001games.fr/" title="Puppy Blast">
<img src="https://media.bfgfile.com/images/22_51853d.jpg"/>
<span class="ti">
<span class="rdr rd2">90%</span>
<span class="na">Puppy Blast</span>
</span>
</a>
</div><div class="gll" id="blocky-farm">
<a class="li gthli" href="https://www.10001games.fr/jeu/blocky-farm" name="Blocky Farm 0 https://www.10001games.fr/ http://www.10001games.fr/" title="Blocky Farm">
<img src="https://media.bfgfile.com/images/21_51847.jpg"/>
<span class="ti">
<span class="rdr rd2">78%</span>
<span class="na">Blocky Farm</span>
</span>
</a>
</div><div class="gll" id="knights-of-fortune">
<a class="li gthli" href="https://www.10001games.fr/jeu/knights-of-fortune" name="Knights of Fortune 0 https://www.10001games.fr/ http://www.10001games.fr/" title="Knights of Fortune">
<img src="https://media.bfgfile.com/images/35_53722.jpg"/>
<span class="ti">
<span class="rdr rd2">83%</span>
<span class="na">Knights of Fortune</span>
</span>
</a>
</div><div class="gll" id="magic_towers_solitaire">
<a class="li gthli" href="https://www.10001games.fr/jeu/magic_towers_solitaire" name="Magic Towers Solitaire 0 https://www.10001games.fr/ http://www.10001games.fr/" title="Magic Towers Solitaire">
<img src="https://media.bfgfile.com/images/45_14105o.jpg"/>
<span class="ti">
<span class="rdr rd2">89%</span>
<span class="na">Magic Towers Solitaire</span>
</span>
</a>
</div><div class="gll" id="mahjong_alchemy">
<a class="li gthli" href="https://www.10001games.fr/jeu/mahjong_alchemy" name="Mahjong Alchemy 0 https://www.10001games.fr/ http://www.10001games.fr/" title="Mahjong Alchemy">
<img src="https://media.bfgfile.com/images/19/05862.jpg"/>
<span class="ti">
<span class="rdr rd2">90%</span>
<span class="na">Mahjong Alchemy</span>
</span>
</a>
</div><div class="gll" id="butterfly_kyodai">
<a class="li gthli" href="https://www.10001games.fr/jeu/butterfly_kyodai" name="Butterfly Kyodai 0 https://www.10001games.fr/ http://www.10001games.fr/" title="Butterfly Kyodai">
<img src="https://media.bfgfile.com/images/23_21176.jpg"/>
<span class="ti">
<span class="rdr rd2">88%</span>
<span class="na">Butterfly Kyodai</span>
</span>
</a>
</div><div class="gll" id="treasures_of_the_mystic_sea">
<a class="li gthli" href="https://www.10001games.fr/jeu/treasures_of_the_mystic_sea" name="Treasures of The Mystic Sea 0 https://www.10001games.fr/ http://www.10001games.fr/" title="Treasures of The Mystic Sea">
<img src="https://media.bfgfile.com/images/45_24491o.jpg"/>
<span class="ti">
<span class="rdr rd2">89%</span>
<span class="na">Treasures of The Mystic Sea</span>
</span>
</a>
</div><div class="gll" id="age_of_war">
<a class="li gthli" href="https://www.10001games.fr/jeu/age_of_war" name="Age of War 0 https://www.10001games.fr/ http://www.10001games.fr/" title="Age of War">
<img src="https://media.bfgfile.com/images/38_38_188-19.jpg"/>
<span class="ti">
<span class="rdr rd2">89%</span>
<span class="na">Age of War</span>
</span>
</a>
</div><div class="gll" id="fireboy_and_watergirl_3_in_the_forest_temple_game">
<a class="li gthli" href="https://www.10001games.fr/jeu/fireboy_and_watergirl_3_in_the_forest_temple_game" name="Fireboy and Watergirl 3 - In The Forest Temple Game 0 https://www.10001games.fr/ http://www.10001games.fr/" title="Fireboy and Watergirl 3 - In The Forest Temple Game">
<img src="https://media.bfgfile.com/images/45_18847db.jpg"/>
<span class="ti">
<span class="rdr rd2">89%</span>
<span class="na">Fireboy and Watergirl 3 - In The Forest Temple Game</span>
</span>
</a>
</div><div class="gll" id="fireboy_and_watergirl_3_in_the_ice_temple">
<a class="li gthli" href="https://www.10001games.fr/jeu/fireboy_and_watergirl_3_in_the_ice_temple" name="Fireboy and Watergirl 3 in The Ice Temple 0 https://www.10001games.fr/ http://www.10001games.fr/" title="Fireboy and Watergirl 3 in The Ice Temple">
<img src="https://media.bfgfile.com/images/45_25764d.jpg"/>
<span class="ti">
<span class="rdr rd2">89%</span>
<span class="na">Fireboy and Watergirl 3 in The Ice Temple</span>
</span>
</a>
</div><div class="gll" id="mahjong_connect">
<a class="li gthli" href="https://www.10001games.fr/jeu/mahjong_connect" name="Mahjong Connect 0 https://www.10001games.fr/ http://www.10001games.fr/" title="Mahjong Connect">
<img src="https://media.bfgfile.com/images/36_11552d.jpg"/>
<span class="ti">
<span class="rdr rd2">89%</span>
<span class="na">Mahjong Connect</span>
</span>
</a>
</div><div class="gll" id="fireboy_watergirl_4_crystal_tempel">
<a class="li gthli" href="https://www.10001games.fr/jeu/fireboy_watergirl_4_crystal_tempel" name="Fireboy &amp; Watergirl 4: Crystal Tempel 0 https://www.10001games.fr/ http://www.10001games.fr/" title="Fireboy &amp; Watergirl 4: Crystal Tempel">
<img src="https://media.bfgfile.com/images/45_30806d.jpg"/>
<span class="ti">
<span class="rdr rd2">86%</span>
<span class="na">Fireboy &amp; Watergirl 4: Crystal Tempel</span>
</span>
</a>
</div><div class="gll" id="moto-x3m">
<a class="li gthli" href="https://www.10001games.fr/jeu/moto-x3m" name="Moto X3M 0 https://www.10001games.fr/ http://www.10001games.fr/" title="Moto X3M">
<img src="https://media.bfgfile.com/images/20_40637.jpg"/>
<span class="ti">
<span class="rdr rd2">86%</span>
<span class="na">Moto X3M</span>
</span>
</a>
</div><div class="gll" id="my-kingdom-for-the-princess-mobile">
<a class="li gthli" href="https://www.10001games.fr/jeu/my-kingdom-for-the-princess-mobile" name="My Kingdom For The Princess Mobile 0 https://www.10001games.fr/ http://www.10001games.fr/" title="My Kingdom For The Princess Mobile">
<img src="https://media.bfgfile.com/images/21_48730d.jpg"/>
<span class="ti">
<span class="rdr rd2">90%</span>
<span class="na">My Kingdom For The Princess Mobile</span>
</span>
</a>
</div><div class="gll" id="10x10-block-puzzle">
<a class="li gthli" href="https://www.10001games.fr/jeu/10x10-block-puzzle" name="10x10 Block Puzzle 0 https://www.10001games.fr/ http://www.10001games.fr/" title="10x10 Block Puzzle">
<img src="https://media.bfgfile.com/images/42_49707d.jpg"/>
<span class="ti">
<span class="rdr rd2">88%</span>
<span class="na">10x10 Block Puzzle</span>
</span>
</a>
</div><div class="gll" id="kris-mahjong">
<a class="li gthli" href="https://www.10001games.fr/jeu/kris-mahjong" name="Kris Mahjong 0 https://www.10001games.fr/ http://www.10001games.fr/" title="Kris Mahjong">
<img src="https://media.bfgfile.com/images/19_48593d.jpg"/>
<span class="ti">
<span class="rdr rd2">88%</span>
<span class="na">Kris Mahjong</span>
</span>
</a>
</div><div class="gll" id="paperio-2">
<a class="li gthli" href="https://www.10001games.fr/jeu/paperio-2" name="Paper.io 2 0 https://www.10001games.fr/ http://www.10001games.fr/" title="Paper.io 2">
<img src="https://media.bfgfile.com/images/21_51834d.jpg"/>
<span class="ti">
<span class="rdr rd2">85%</span>
<span class="na">Paper.io 2</span>
</span>
</a>
</div><div class="gll" id="happy-snakes">
<a class="li gthli" href="https://www.10001games.fr/jeu/happy-snakes" name="Happy Snakes 0 https://www.10001games.fr/ http://www.10001games.fr/" title="Happy Snakes">
<img src="https://media.bfgfile.com/images/45_52290d.jpg"/>
<span class="ti">
<span class="rdr rd2">87%</span>
<span class="na">Happy Snakes</span>
</span>
</a>
</div><div class="gll" id="fireboy-and-watergirl-5-elements">
<a class="li gthli" href="https://www.10001games.fr/jeu/fireboy-and-watergirl-5-elements" name="Fireboy and Watergirl 5 Elements 0 https://www.10001games.fr/ http://www.10001games.fr/" title="Fireboy and Watergirl 5 Elements">
<img src="https://media.bfgfile.com/images/05_51542d.jpg"/>
<span class="ti">
<span class="rdr rd2">86%</span>
<span class="na">Fireboy and Watergirl 5 Elements</span>
</span>
</a>
</div><div class="gll" id="mahjong_chain">
<a class="li gthli" href="https://www.10001games.fr/jeu/mahjong_chain" name="Mahjong Chain 0 https://www.10001games.fr/ http://www.10001games.fr/" title="Mahjong Chain">
<img src="https://media.bfgfile.com/images/13/15443.jpg"/>
<span class="ti">
<span class="rdr rd2">90%</span>
<span class="na">Mahjong Chain</span>
</span>
</a>
</div><div class="gll" id="1001_arabian_nights">
<a class="li gthli" href="https://www.10001games.fr/jeu/1001_arabian_nights" name="1001 Arabian Nights 0 https://www.10001games.fr/ http://www.10001games.fr/" title="1001 Arabian Nights">
<img src="https://media.bfgfile.com/images/45_26609o.jpg"/>
<span class="ti">
<span class="rdr rd2">89%</span>
<span class="na">1001 Arabian Nights</span>
</span>
</a>
</div><div class="gll" id="princesses-fashion-puffer-jacket">
<a class="li gthli" href="https://www.10001games.fr/jeu/princesses-fashion-puffer-jacket" name="Princesses Fashion Puffer Jacket 0 https://www.10001games.fr/ http://www.10001games.fr/" title="Princesses Fashion Puffer Jacket">
<img src="https://media.bfgfile.com/images/01_47454d.jpg"/>
<span class="ti">
<span class="rdr rd2">85%</span>
<span class="na">Princesses Fashion Puffer Jacket</span>
</span>
</a>
</div><div class="gll" id="back-to-candyland-episode-1">
<a class="li gthli" href="https://www.10001games.fr/jeu/back-to-candyland-episode-1" name="Back to Candyland: Episode 1 0 https://www.10001games.fr/ http://www.10001games.fr/" title="Back to Candyland: Episode 1">
<img src="https://media.bfgfile.com/images/39_38089d.jpg"/>
<span class="ti">
<span class="rdr rd2">87%</span>
<span class="na">Back to Candyland: Episode 1</span>
</span>
</a>
</div><div class="gll" id="crazy_quilt_solitaire">
<a class="li gthli" href="https://www.10001games.fr/jeu/crazy_quilt_solitaire" name="Crazy Quilt Solitaire 0 https://www.10001games.fr/ http://www.10001games.fr/" title="Crazy Quilt Solitaire">
<img src="https://media.bfgfile.com/images/45_14818o.jpg"/>
<span class="ti">
<span class="rdr rd2">87%</span>
<span class="na">Crazy Quilt Solitaire</span>
</span>
</a>
</div><div class="gll" id="bubble_hit">
<a class="li gthli" href="https://www.10001games.fr/jeu/bubble_hit" name="Bubble Hit 0 https://www.10001games.fr/ http://www.10001games.fr/" title="Bubble Hit">
<img src="https://media.bfgfile.com/images/36/17805.jpg"/>
<span class="ti">
<span class="rdr rd2">79%</span>
<span class="na">Bubble Hit</span>
</span>
</a>
</div><div class="gll" id="crystal_spider_solitaire">
<a class="li gthli" href="https://www.10001games.fr/jeu/crystal_spider_solitaire" name="Crystal Spider Solitaire 0 https://www.10001games.fr/ http://www.10001games.fr/" title="Crystal Spider Solitaire">
<img src="https://media.bfgfile.com/images/03/14816.jpg"/>
<span class="ti">
<span class="rdr rd2">87%</span>
<span class="na">Crystal Spider Solitaire</span>
</span>
</a>
</div><div class="gll" id="3d-car-simulator">
<a class="li gthli" href="https://www.10001games.fr/jeu/3d-car-simulator" name="3D Car Simulator 0 https://www.10001games.fr/ http://www.10001games.fr/" title="3D Car Simulator">
<img src="https://media.bfgfile.com/images/43_46770.jpg"/>
<span class="ti">
<span class="rdr rd2">83%</span>
<span class="na">3D Car Simulator</span>
</span>
</a>
</div><div class="gll" id="mahjong_link">
<a class="li gthli" href="https://www.10001games.fr/jeu/mahjong_link" name="Mahjong Link 0 https://www.10001games.fr/ http://www.10001games.fr/" title="Mahjong Link">
<img src="https://media.bfgfile.com/images/12_20132.jpg"/>
<span class="ti">
<span class="rdr rd2">89%</span>
<span class="na">Mahjong Link</span>
</span>
</a>
</div><div class="gll" id="jewel-academy">
<a class="li gthli" href="https://www.10001games.fr/jeu/jewel-academy" name="Jewel Academy 0 https://www.10001games.fr/ http://www.10001games.fr/" title="Jewel Academy">
<img src="https://media.bfgfile.com/images/49_38967dn.jpg"/>
<span class="ti">
<span class="rdr rd2">89%</span>
<span class="na">Jewel Academy</span>
</span>
</a>
</div><div class="gll" id="jewels-of-arabia">
<a class="li gthli" href="https://www.10001games.fr/jeu/jewels-of-arabia" name="Jewels of Arabia 0 https://www.10001games.fr/ http://www.10001games.fr/" title="Jewels of Arabia">
<img src="https://media.bfgfile.com/images/03_47661d.jpg"/>
<span class="ti">
<span class="rdr rd2">89%</span>
<span class="na">Jewels of Arabia</span>
</span>
</a>
</div>
<div class="clear"><span> </span></div>
</div>
<div class="gl-ft">
<div class="pgr"><span><a class="sel" href="https://www.10001games.fr" title="Page 1">1</a></span><span><a href="https://www.10001games.fr/2/" title="Page 2">2</a></span><span><a href="https://www.10001games.fr/3/" title="Page 3">3</a></span><span><a href="https://www.10001games.fr/4/" title="Page 4">4</a></span><span><a href="https://www.10001games.fr/5/" title="Page 5">5</a></span><span><a href="https://www.10001games.fr/2/" title="Next Page">&gt; </a></span><span><a href="https://www.10001games.fr/120/" title="Last Page">&gt;&gt; </a></span></div>
<div class="c-cn">
<div class="c-tl"></div>
<div class="c-ds"></div>
</div>
<div class="clear"><span> </span></div>
</div>
</div>
</div>
</div>
<!-- end of c-wrp -->
</div>
<!-- end of scl-ri-->
<div class="ctd-c">
<div class="sc-d">
<div>
<!-- /21768812150/network_300x600 -->
<div id="div-gpt-ad-1585564492422-0" style="width: 300px; height: 600px;">
<script>
    googletag.cmd.push(function() { googletag.display('div-gpt-ad-1585564492422-0'); });
  </script>
</div>
<!-- 02015 SB NET DFP ADS home 300x600 TPL4 -->
</div>
</div>
<div class="clear"><span> </span></div>
</div>
</div>
<!-- end of scl-->
<div class="c-b-d lft">
<!-- /21768812150/network_970x250 -->
<div id="div-gpt-ad-1546369893404-0" style="height:250px; width:970px;">
<script>
googletag.cmd.push(function() { googletag.display('div-gpt-ad-1546369893404-0'); });
</script>
</div>
<!-- 02018 SB NET DFP ADS home 970x250 TPL4 -->
</div>
<style>
                                            @media (min-width: 1300px) {
                                                .lft {
                                                   margin-left: -315px;
                                                   display:inline-block;
                                               }
                                            }
                                        </style>
<div id="ft-wrp">
<footer>
<nav class="b-nv" style="text-align:center;">
<a href="/contact/">Contact us</a> | <a href="/site/content.php?case=terms">Terms</a> | <a href="/site/content.php?case=privacy">Privacy Policy</a> | <a href="/site/content.php?case=cookies">Cookies policy</a>
</nav>
</footer>
</div>
</div>
</div>
<script src="//imasdk.googleapis.com/js/sdkloader/ima3.js" type="text/javascript"></script>
<script src="https://www.10001games.fr/site/tpl4/js/ads.js?v=1.7" type="text/javascript"></script>
<script src="https://www.10001games.fr/site/tpl4/js/all.js?v=1.72" type="text/javascript"></script>
<script src="https://www.10001games.fr/site/tpl4/js/gamesjs.js?v=1.7" type="text/javascript"></script>
<script src="https://www.10001games.fr/site/game.js.php?v=1.71" type="text/javascript"></script>
<script>
            $('#searchForm').submit(function(e){
                e.preventDefault();

                if($('#searchInput').val() == ''){
                    return false;
                }

                location.href='/search/' + ($('#searchInput').val().replace(/ /g,'+'));
            });
            
			
			$(document).ready(function(){
				$('#gamearea').height(($('#sgt-wrp').height() + $('#gamearea-inner').height()) + 'px');
				$("#sg-wrp").css("visibility", "visible");
			});
			
			$(window).scroll(function () {
				let scrollTop = $(window).scrollTop();
				let fromTop = 150;
				let containerHeight = $('#ft-wrp').offset().top;
				
				//console.log($('#ft-wrp').offset().top);
				 //console.log(scrollTop);
				if (scrollTop > containerHeight - 620) {
					$(".banner").css({position : 'relative', bottom: '-' + (containerHeight - 765) + 'px', top:''});
				} else if (scrollTop > fromTop) {
					$(".banner").css({position : 'relative', top: (scrollTop - fromTop + 5) + 'px', bottom: ''});
				} else if (scrollTop <= fromTop) {
					$(".banner").css({position : 'static', top: '0px'});
				}
			});
        </script>
<!-- Quantcast Choice. Consent Manager Tag -->
<script async="true" type="text/javascript">
    var elem = document.createElement('script');
    elem.src = 'https://quantcast.mgr.consensu.org/cmp.js';
    elem.async = true;
    elem.type = "text/javascript";
    var scpt = document.getElementsByTagName('script')[0];
    scpt.parentNode.insertBefore(elem, scpt);
    (function() {
    var gdprAppliesGlobally = true;
    function addFrame() {
        if (!window.frames['__cmpLocator']) {
        if (document.body) {
            var body = document.body,
                iframe = document.createElement('iframe');
            iframe.style = 'display:none';
            iframe.name = '__cmpLocator';
            body.appendChild(iframe);
        } else {
            // In the case where this stub is located in the head,
            // this allows us to inject the iframe more quickly than
            // relying on DOMContentLoaded or other events.
            setTimeout(addFrame, 5);
        }
        }
    }
    addFrame();
    function cmpMsgHandler(event) {
        var msgIsString = typeof event.data === "string";
        var json;
        if(msgIsString) {
        json = event.data.indexOf("__cmpCall") != -1 ? JSON.parse(event.data) : {};
        } else {
        json = event.data;
        }
        if (json.__cmpCall) {
        var i = json.__cmpCall;
        window.__cmp(i.command, i.parameter, function(retValue, success) {
            var returnMsg = {"__cmpReturn": {
            "returnValue": retValue,
            "success": success,
            "callId": i.callId
            }};
            event.source.postMessage(msgIsString ?
            JSON.stringify(returnMsg) : returnMsg, '*');
        });
        }
    }
    window.__cmp = function (c) {
        var b = arguments;
        if (!b.length) {
        return __cmp.a;
        }
        else if (b[0] === 'ping') {
        b[2]({"gdprAppliesGlobally": gdprAppliesGlobally,
            "cmpLoaded": false}, true);
        } else if (c == '__cmp')
        return false;
        else {
        if (typeof __cmp.a === 'undefined') {
            __cmp.a = [];
        }
        __cmp.a.push([].slice.apply(b));
        }
    }
    window.__cmp.gdprAppliesGlobally = gdprAppliesGlobally;
    window.__cmp.msgHandler = cmpMsgHandler;
    if (window.addEventListener) {
        window.addEventListener('message', cmpMsgHandler, false);
    }
    else {
        window.attachEvent('onmessage', cmpMsgHandler);
    }
    })();
    window.__cmp('init', {
    		'Language': 'fr',
		'Initial Screen Title Text': 'Le respect de votre vie privée est notre priorité',
		'Initial Screen Reject Button Text': 'JE N’ACCEPTE PAS',
		'Initial Screen Accept Button Text': 'J&#039;ACCEPTE',
		'Initial Screen Purpose Link Text': 'Afficher les objectifs',
		'Purpose Screen Title Text': 'Le respect de votre vie privée est notre priorité',
		'Purpose Screen Body Text': 'Vous pouvez définir ci-dessous vos préférences de consentement et déterminer la manière dont vous souhaitez que vos données soient utilisées en fonction des objectifs mentionnés. Vous pouvez définir vos préférences pour notre société, indépendamment de celles de nos partenaires tiers. Chaque objectif est décrit afin que vous sachiez comment nos partenaires et nous-mêmes exploitons vos données.',
		'Purpose Screen Vendor Link Text': 'Consulter les fournisseurs',
		'Purpose Screen Cancel Button Text': 'Annuler',
		'Purpose Screen Save and Exit Button Text': 'Enregistrer et quitter',
		'Vendor Screen Title Text': 'Le respect de votre vie privée est notre priorité',
		'Vendor Screen Body Text': 'Vous pouvez définir ci-dessous vos préférences de consentement pour les partenaires tiers avec lesquels nous collaborons. Développez chaque élément de la liste des sociétés afin de découvrir l’objectif de ce traitement de données et de préciser votre choix. Dans certains cas, les sociétés peuvent exploiter vos données sans demander votre consentement, sur la base de leurs intérêts légitimes. Vous pouvez cliquer sur les liens relatifs à leur politique de confidentialité afin d’obtenir plus d’informations et de vous opposer à un tel traitement si vous le désirez.',
		'Vendor Screen Accept All Button Text': 'TOUT ACCEPTER',
		'Vendor Screen Reject All Button Text': 'TOUT REFUSER',
		'Vendor Screen Purposes Link Text': 'Retour aux objectifs',
		'Vendor Screen Cancel Button Text': 'Annuler',
		'Vendor Screen Save and Exit Button Text': 'Enregistrer et quitter',
		'Initial Screen Body Text': 'Nos partenaires et nous-mêmes exploitons différentes technologies, telles que celle des cookies, et traitons vos données à caractère personnel, telles que les adresses IP et les identifiants de cookie, afin de personnaliser les publicités et les contenus en fonction de vos centres d’intérêt, d’évaluer la performance de ces publicités et contenus, et de recueillir des informations sur les publics qui les ont visionnés. Cliquez ci-dessous si vous consentez à l’utilisation de cette technologie et au traitement de vos données à caractère personnel en vue de ces objectifs. Vous pouvez changer d’avis et modifier votre consentement à tout moment en revenant sur ce site.',
		'Initial Screen Body Text Option': 1,
		'Display UI': 'always',
		'Min Days Between UI Displays': 90,
		'Publisher Purpose IDs': [1,2,3,4,5],
		'Publisher Logo': 'https://solobuild.com/wp-content/uploads/2019/02/solobuild-regular-300.png',
		'Publisher Name': 'Solobuild',
		'UI Layout': 'banner',
		'Non-Consent Display Frequency': 30,
    });
</script>
<!-- End Quantcast Choice. Consent Manager Tag -->
<style>
        .qc-cmp-button.qc-cmp-secondary-button {
          border-color: #eee !important;
          background-color: #eee !important;
        }
    </style>
</body>
</html>
