<!DOCTYPE html>
<html lang="en">
<head>
<meta charset="utf-8"/>
<meta content="IE=edge" http-equiv="X-UA-Compatible"/>
<meta content="width=device-width, initial-scale=1" name="viewport"/>
<title>Page Not Found</title>
<!-- Fonts -->
<link href="https://fonts.googleapis.com/css?family=Nunito" rel="stylesheet" type="text/css"/>
<!-- Styles -->
<style>
            html, body {
                background-color: #fff;
                color: #636b6f;
                font-family: 'Nunito', sans-serif;
                font-weight: 100;
                height: 100vh;
                margin: 0;
            }

            .full-height {
                height: 100vh;
            }

            .flex-center {
                align-items: center;
                display: flex;
                justify-content: center;
            }

            .position-ref {
                position: relative;
            }

            .content {
                text-align: center;
            }

            .title {
                font-size: 36px;
                padding: 20px;
            }
        </style>
</head>
<body>
<div class="flex-center position-ref full-height">
<div class="content">
<div class="title">
                    Sorry, the page you are looking for could not be found.                </div>
</div>
</div>
</body>
</html>
