<!DOCTYPE html>
<html lang="en-en">
<head>
<meta content="text/html; charset=utf-8" http-equiv="Content-Type"/>
<meta content="IE=edge" http-equiv="X-UA-Compatible"/>
<meta content="width=device-width" name="viewport"/>
<meta content="Beckhoff Automation GmbH &amp; Co. KG, HÃ¼lshorstweg 20, 33415 Verl, Germany" name="author"/>
<meta content="Beckhoff Automation GmbH &amp; Co. KG, HÃ¼lshorstweg 20, 33415 Verl, Germany" name="copyright"/>
<meta content="info@beckhoff.de" name="email"/>
<title>Beckhoff | New Automation Technology | Beckhoff Worldwide</title>
<meta content="Beckhoff New Automation Technology: A decisive step ahead with PC-based control and EtherCAT!" name="description"/>
<link href="https://www.beckhoff.com/en-en/" rel="canonical"/>
<meta content="" property="og:title"/>
<meta content="" property="og:description"/>
<meta content="Beckhoff Automation" property="og:site_name"/>
<meta content="https://www.beckhoff.com/media/layoutassets/img/social.jpg" property="og:image"/>
<meta content="https://www.beckhoff.com/en-en/" property="og:url"/>
<meta content="website" property="og:type"/>
<meta content="en-en" property="og:locale"/>
<meta content="" property="twitter:title"/>
<meta content="" property="twitter:description"/>
<meta content="summary" name="twitter:card"/>
<meta content="@Beckhoff" property="twitter:site"/>
<meta content="https://www.beckhoff.com/en-en/" property="twitter:url"/>
<link href="/media/layoutassets/img/apple-touch-icon.png" rel="apple-touch-icon-precomposed"/>
<link href="/media/layoutassets/img/apple_touch_icon_120.png" rel="apple-touch-icon-precomposed" sizes="120x120"/>
<link href="/media/layoutassets/img/apple_touch_icon_152.png" rel="apple-touch-icon-precomposed" sizes="152x152"/>
<link href="/media/layoutassets/img/apple_touch_icon_180.png" rel="apple-touch-icon-precomposed" sizes="180x180"/>
<link href="/media/layoutassets/img/favicon_16.png" rel="icon" sizes="16x16" type="image/png"/>
<link href="/media/layoutassets/img/favicon_32.png" rel="icon" sizes="32x32" type="image/png"/>
<link href="/media/layoutassets/img/favicon_96.png" rel="icon" sizes="64x64" type="image/png"/>
<link href="/media/layoutassets/css/main_style.css?12322021093212" rel="stylesheet"/>
<!--map /media/layoutassets/css/main_style.css.map-->
<script src="/media/layoutassets/js/modernizr.js?12322021093212"></script>
<script src="/media/layoutassets/js/layout_engine.js?12322021093212"></script>
<script src="/media/layoutassets/js/fs-lang_js.js?12322021093212"></script>
<script>
      var contentCreatorView = false;
      var previewClient = false;
      var fs_dev = false;
    </script>
</head>
<body class="body--home">
<div class="page-wrapper">
<div class="offcanvas">
<header class="offcanvas-header"><a class="detach-menu" href="#" id="detachMenu">Detach</a><a class="fix-menu" href="#" id="fixMenu">Fix</a><a class="close-menu" href="#" id="closeMenu">Close</a></header>
<nav class="nav-mobile" data-cms-id="216814" data-cms-native-language="EN-EN" data-cms-pid="" data-depth="1" data-plugin="navigation" data-template="mobile"></nav>
</div>
<div class="page-overlay" id="menuOverlay"></div>
<div class="page">
<div class="sticky-top">
<header class="header body--home">
<div class="container">
<a class="toggle-menu" href="#" id="toggleMenu"><i class="icon-menu"><span class="bar"></span><span class="bar"></span><span class="bar"></span></i></a><a class="logo" href="/en-en/"><span class="aural">Beckhoff - New Automation Technology</span>
<div class="logo__name"><svg height="22" viewbox="0 0 112 22" width="112" xmlns="http://www.w3.org/2000/svg">
<g fill="#FFFFFE" fill-rule="evenodd">
<path d="M6.69231818,20.7828636 C10.5508636,20.7828636 12.8716364,19.0278636 12.8716364,14.9263182 C12.8716364,12.4165455 12.4126364,11.3377727 10.2538636,10.0957727 L10.2538636,10.0417727 C11.9008636,9.15077273 12.5476364,7.559 12.5476364,5.77822727 C12.5476364,1.70368182 9.74086364,0.542681818 6.15231818,0.542681818 L0,0.542681818 L0,20.7828636 L6.69231818,20.7828636 Z M4.74954545,4.18645455 C6.42231818,4.18645455 7.79809091,4.10545455 7.79809091,6.10222727 C7.79809091,8.504 6.82731818,8.369 4.74954545,8.504 L4.74954545,4.18645455 Z M4.74954545,12.1465455 C6.77331818,12.2275455 8.12209091,12.1735455 8.12209091,14.5213182 C8.12209091,17.2470909 7.12431818,17.0838636 4.74954545,17.1390909 L4.74954545,12.1465455 L4.74954545,12.1465455 Z"></path>
<polyline points="26.051 20.783 26.051 16.734 19.602 16.734 19.602 12.363 25.538 12.363 25.538 8.315 19.602 8.315 19.602 4.591 25.727 4.591 25.727 .543 14.852 .543 14.852 20.783 26.051 20.783"></polyline>
<path d="M40.8043636,7.61422727 L40.8043636,5.91322727 C40.8043636,1.78468182 38.3755909,0.0579090909 34.3280455,0.0579090909 C29.9835,0.0579090909 27.9597273,2.10868182 27.9597273,6.50722727 L27.9597273,14.8195455 C27.9597273,18.9468636 29.6595,21.2664091 34.0310455,21.2664091 C38.8885909,21.2664091 40.8853636,18.8388636 40.8853636,15.3583182 L40.8853636,12.8755455 L36.1358182,12.8755455 L36.1358182,14.7115455 C36.1358182,15.9535455 36.0008182,17.6263182 34.3820455,17.6263182 C33.1400455,17.6263182 32.6810455,16.9500909 32.6810455,15.8160909 L32.7080455,5.80522727 C32.7080455,4.48345455 33.0590455,3.67345455 34.5428182,3.70045455 C35.4338182,3.70045455 36.0548182,4.59145455 36.0548182,6.31822727 L36.0548182,7.61422727 L40.8043636,7.61422727"></path>
<polyline points="47.642 20.783 47.642 15.79 48.694 13.738 51.312 20.783 56.331 20.783 51.743 9.476 56.062 .543 51.204 .543 47.696 8.639 47.642 8.639 47.642 .543 42.892 .543 42.892 20.783 47.642 20.783"></polyline>
<polyline points="62.359 20.783 62.359 12.363 65.652 12.363 65.652 20.783 70.401 20.783 70.401 .543 65.652 .543 65.652 8.315 62.359 8.315 62.359 .543 57.609 .543 57.609 20.783 62.359 20.783"></polyline>
<path d="M85.2525,6.10222727 C85.2525,2.21668182 83.0127273,0.0579090909 78.8571818,0.0579090909 C74.7016364,0.0579090909 72.3808636,2.21668182 72.3808636,6.10222727 L72.3808636,14.3323182 C72.3808636,18.8940909 74.0536364,21.2664091 78.8571818,21.2664091 C83.6607273,21.2664091 85.2525,18.8940909 85.2525,14.3323182 L85.2525,6.10222727 Z M80.5041818,14.7373182 C80.5041818,15.8983182 80.3949545,17.6263182 78.8571818,17.6263182 C77.3194091,17.6263182 77.1304091,15.8983182 77.1304091,14.7373182 L77.1304091,6.42622727 C77.1304091,5.18545455 77.3194091,3.70045455 78.8301818,3.70045455 C80.3949545,3.70045455 80.5041818,5.18545455 80.5041818,6.42622727 L80.5041818,14.7373182 L80.5041818,14.7373182 Z"></path>
<polyline points="92.171 20.783 92.171 12.228 98.081 12.228 98.081 8.18 92.171 8.18 92.171 4.591 98.594 4.591 98.594 .543 87.422 .543 87.422 20.783 92.171 20.783"></polyline>
<polyline points="105.467 20.783 105.467 12.228 111.377 12.228 111.377 8.18 105.467 8.18 105.467 4.591 111.889 4.591 111.889 .543 100.717 .543 100.717 20.783 105.467 20.783"></polyline>
</g>
</svg></div>
<div class="logo__claim"><svg height="19" viewbox="0 0 215 19" width="215" xmlns="http://www.w3.org/2000/svg">
<g fill="#111" fill-rule="evenodd" transform="translate(.988 .268)">
<polyline points="0 13.515 2.091 13.515 2.091 3.716 2.128 3.716 6.29 13.515 9.039 13.515 9.039 .931 6.955 .931 6.955 10.801 6.919 10.801 2.734 .931 0 .931 0 13.515"></polyline>
<path d="M13.2729545,8.073 C13.2729545,6.83713636 13.7577273,5.59513636 14.9322273,5.59513636 C15.9435,5.59513636 16.4798182,6.43581818 16.4798182,8.073 L13.2729545,8.073 Z M18.0642273,11.2995 C17.6518636,11.6038636 17.0001818,12.0260455 15.633,12.0260455 C13.9025455,12.0260455 13.2729545,11.07 13.2729545,9.47331818 L18.6435,9.47331818 L18.6435,9.03763636 C18.6435,5.26254545 16.9277727,4.08927273 14.9322273,4.08927273 C12.5721818,4.08927273 11.1178636,6.22840909 11.1178636,9.01309091 C11.1178636,11.5179545 12.4126364,13.6607727 15.4022727,13.6607727 C16.7338636,13.6607727 17.7034091,13.2459545 18.1722273,13.0667727 L18.0642273,11.2995 L18.0642273,11.2995 Z"></path>
<polyline points="27.722 13.515 30.153 13.515 32.622 4.234 30.465 4.234 28.969 11.458 28.932 11.458 27.4 4.234 24.861 4.234 23.294 11.458 23.257 11.458 21.768 4.234 19.458 4.234 21.962 13.515 24.407 13.515 26.028 6.291 26.065 6.291 27.722 13.515"></polyline>
<path d="M44.9267727 13.5147273L47.3064545 13.5147273 43.254.9315 40.7282727.9315 36.5162727 13.5147273 38.8161818 13.5147273 39.7231364 10.4919545 44.0419091 10.4919545 44.9267727 13.5147273zM40.2066818 8.721L41.9371364 2.84113636 41.9739545 2.84113636 43.5583636 8.721 40.2066818 8.721 40.2066818 8.721zM55.7525455 4.23409091L53.514 4.23409091 53.514 9.54818182C53.514 10.7288182 53.1777273 11.8198636 51.9860455 11.8198636 51.0459545 11.8198636 50.6507727 11.2258636 50.6507727 9.78995455L50.6507727 4.23409091 48.4208182 4.23409091 48.4208182 10.2121364C48.4208182 12.0763636 49.0491818 13.6607727 51.1564091 13.6607727 52.6193182 13.6607727 53.1936818 12.7746818 53.6232273 12.0763636L53.6060455 12.0640909 53.6612727 12.0763636C53.6612727 12.5586818 53.7140455 13.0275 53.7336818 13.5147273L55.8237273 13.5147273C55.7660455 13.0900909 55.7525455 12.5586818 55.7525455 11.9781818L55.7525455 4.23409091M58.5949091 4.23409091L57.1185 4.23409091 57.1185 5.86636364 58.5949091 5.86636364 58.5949091 10.9497273C58.5949091 12.8863636 59.5264091 13.6607727 61.1832273 13.6607727 61.8496364 13.6607727 62.3393182 13.5147273 62.6829545 13.3588636L62.6829545 11.7548182C62.5172727 11.8468636 62.2325455 11.9659091 61.8349091 11.9659091 61.1832273 11.9659091 60.8285455 11.6738182 60.8285455 10.6723636L60.8285455 5.86636364 62.6829545 5.86636364 62.6829545 4.23409091 60.8285455 4.23409091 60.8285455 1.64577273 58.5949091 2.322 58.5949091 4.23409091M63.8464091 8.8695C63.8464091 12.7624091 66.0432273 13.6607727 67.9369091 13.6607727 69.8256818 13.6607727 72.0053182 12.7624091 72.0053182 8.8695 72.0053182 5.076 69.8256818 4.08927273 67.9369091 4.08927273 66.0432273 4.08927273 63.8464091 5.076 63.8464091 8.8695zM66.1512273 8.8695C66.1512273 7.32068182 66.4911818 5.66754545 67.9369091 5.66754545 69.3801818 5.66754545 69.6992727 7.32068182 69.6992727 8.8695 69.6992727 10.4183182 69.3801818 12.0640909 67.9369091 12.0640909 66.4911818 12.0640909 66.1512273 10.4183182 66.1512273 8.8695L66.1512273 8.8695zM73.7136818 13.5147273L75.9497727 13.5147273 75.9497727 7.90118182C75.9497727 6.86781818 76.4738182 5.93018182 77.4642273 5.93018182 78.2938636 5.93018182 78.651 6.51068182 78.651 7.64713636L78.651 13.5147273 80.8846364 13.5147273 80.8846364 7.90118182C80.8846364 6.86781818 81.4099091 5.93018182 82.3990909 5.93018182 83.2238182 5.93018182 83.5870909 6.51068182 83.5870909 7.64713636L83.5870909 13.5147273 85.8145909 13.5147273 85.8145909 7.77845455C85.8145909 5.53377273 85.1739545 4.08927273 83.1538636 4.08927273 81.7866818 4.08927273 81.1190455 4.90909091 80.6698636 5.56445455 80.3974091 5.05513636 79.8966818 4.08927273 78.3294545 4.08927273 77.0494091 4.08927273 76.329 4.97290909 75.9890455 5.69945455L75.9497727 5.69945455C75.9497727 5.19872727 75.8957727 4.72254545 75.8785909 4.23409091L73.6437273 4.23409091C73.6805455 4.57772727 73.7136818 5.076 73.7136818 5.74240909L73.7136818 13.5147273M92.6333182 9.48559091C92.6333182 11.1534545 92.1399545 12.1365 90.8095909 12.1365 89.9406818 12.1365 89.3896364 11.5535455 89.3896364 10.7226818 89.3896364 9.37513636 90.5187273 8.96522727 92.4295909 8.96522727L92.6333182 8.96522727 92.6333182 9.48559091zM88.3624091 6.58186364C88.7968636 6.21981818 89.7823636 5.66754545 90.8955 5.66754545 92.178 5.66754545 92.6333182 6.52295455 92.6333182 7.43113636L92.6333182 7.77845455 92.178 7.77845455C89.3503636 7.77845455 87.2959091 8.42154545 87.2959091 10.9374545 87.2959091 12.6544091 88.6324091 13.6607727 90.072 13.6607727 91.4023636 13.6607727 92.1080455 13.0066364 92.6627727 12.2543182L92.7057273 12.2543182C92.7057273 12.7022727 92.7192273 13.1502273 92.8223182 13.5147273L94.8473182 13.5147273C94.7896364 13.1502273 94.7172273 12.5439545 94.7172273 11.88L94.7172273 7.82631818C94.7172273 5.49204545 94.0508182 4.08927273 91.1716364 4.08927273 89.7492273 4.08927273 88.8705 4.47218182 88.2323182 4.76672727L88.3624091 6.58186364 88.3624091 6.58186364zM97.6246364 4.23409091L96.1396364 4.23409091 96.1396364 5.86636364 97.6246364 5.86636364 97.6246364 10.9497273C97.6246364 12.8863636 98.5549091 13.6607727 100.224 13.6607727 100.889182 13.6607727 101.362909 13.5147273 101.713909 13.3588636L101.713909 11.7548182C101.556818 11.8468636 101.264727 11.9659091 100.8585 11.9659091 100.224 11.9659091 99.8607273 11.6738182 99.8607273 10.6723636L99.8607273 5.86636364 101.713909 5.86636364 101.713909 4.23409091 99.8607273 4.23409091 99.8607273 1.64577273 97.6246364 2.322 97.6246364 4.23409091M103.314273 2.48890909L105.616636 2.48890909 105.616636.289636364 103.314273.289636364 103.314273 2.48890909zM103.343727 13.5147273L105.577364 13.5147273 105.577364 4.23409091 103.343727 4.23409091 103.343727 13.5147273zM107.552045 8.8695C107.552045 12.7624091 109.752545 13.6607727 111.643773 13.6607727 113.536227 13.6607727 115.720773 12.7624091 115.720773 8.8695 115.720773 5.076 113.536227 4.08927273 111.643773 4.08927273 109.752545 4.08927273 107.552045 5.076 107.552045 8.8695zM109.867909 8.8695C109.867909 7.32068182 110.2005 5.66754545 111.643773 5.66754545 113.079682 5.66754545 113.4135 7.32068182 113.4135 8.8695 113.4135 10.4183182 113.079682 12.0640909 111.643773 12.0640909 110.2005 12.0640909 109.867909 10.4183182 109.867909 8.8695L109.867909 8.8695zM117.480682 13.5147273L119.711864 13.5147273 119.711864 8.09509091C119.711864 6.90831818 120.134045 5.93018182 121.298727 5.93018182 122.214273 5.93018182 122.577545 6.52295455 122.577545 7.93677273L122.577545 13.5147273 124.806273 13.5147273 124.806273 7.53913636C124.806273 5.64668182 124.1865 4.08927273 122.070682 4.08927273 120.562364 4.08927273 119.929091 5.09809091 119.608773 5.64668182L119.625955 5.64668182 119.565818 5.64668182C119.565818 5.19136364 119.521636 4.70045455 119.492182 4.23409091L117.411955 4.23409091C117.4635 4.65136364 117.480682 5.19136364 117.480682 5.7645L117.480682 13.5147273"></path>
<polyline points="132.689 13.515 135.001 13.515 135.001 2.768 137.796 2.768 137.796 .931 129.881 .931 129.881 2.768 132.689 2.768 132.689 13.515"></polyline>
<path d="M139.554409 8.073C139.554409 6.83713636 140.041636 5.59513636 141.214909 5.59513636 142.223727 5.59513636 142.7625 6.43581818 142.7625 8.073L139.554409 8.073zM144.348136 11.2995C143.929636 11.6038636 143.285318 12.0260455 141.913227 12.0260455 140.188909 12.0260455 139.554409 11.07 139.554409 9.47331818L144.918818 9.47331818 144.918818 9.03763636C144.918818 5.26254545 143.214136 4.08927273 141.214909 4.08927273 138.857318 4.08927273 137.393182 6.22840909 137.393182 9.01309091 137.393182 11.5179545 138.690409 13.6607727 141.677591 13.6607727 143.015318 13.6607727 143.987318 13.2459545 144.458591 13.0667727L144.348136 11.2995 144.348136 11.2995zM152.832273 11.5179545C152.530364 11.6995909 151.789091 11.9659091 151.249091 11.9659091 149.540727 11.9659091 148.709864 10.6355455 148.709864 8.89036364 148.709864 6.90831818 149.447455 5.78290909 151.142318 5.78290909 151.754727 5.78290909 152.311909 6.03081818 152.714455 6.22840909L152.832273 4.46359091C152.423591 4.30895455 151.5915 4.08927273 150.885818 4.08927273 147.775909 4.08927273 146.398909 6.22840909 146.398909 8.88177273 146.398909 11.5179545 147.702273 13.6607727 150.760636 13.6607727 151.659 13.6607727 152.437091 13.4644091 152.957455 13.2827727L152.832273 11.5179545M154.333227 13.5147273L156.561955 13.5147273 156.561955 8.09509091C156.561955 6.90831818 156.979227 5.93018182 158.150045 5.93018182 159.063136 5.93018182 159.426409 6.52295455 159.426409 7.93677273L159.426409 13.5147273 161.655136 13.5147273 161.655136 7.53913636C161.655136 5.64668182 161.026773 4.08927273 158.919545 4.08927273 157.535182 4.08927273 157.007455 4.83790909 156.620864 5.41718182L156.561955 5.41718182 156.561955 1.04643567e-13 154.333227 1.04643567e-13 154.333227 13.5147273M163.667864 13.5147273L165.908864 13.5147273 165.908864 8.09509091C165.908864 6.90831818 166.321227 5.93018182 167.489591 5.93018182 168.4125 5.93018182 168.767182 6.52295455 168.767182 7.93677273L168.767182 13.5147273 171.000818 13.5147273 171.000818 7.53913636C171.000818 5.64668182 170.374909 4.08927273 168.270136 4.08927273 166.754455 4.08927273 166.121182 5.09809091 165.799636 5.64668182L165.814364 5.64668182 165.761591 5.64668182C165.761591 5.19136364 165.705136 4.70045455 165.690409 4.23409091L163.594227 4.23409091C163.655591 4.65136364 163.667864 5.19136364 163.667864 5.7645L163.667864 13.5147273M172.769318 8.8695C172.769318 12.7624091 174.957545 13.6607727 176.848773 13.6607727 178.742455 13.6607727 180.918409 12.7624091 180.918409 8.8695 180.918409 5.076 178.742455 4.08927273 176.848773 4.08927273 174.957545 4.08927273 172.769318 5.076 172.769318 8.8695zM175.068 8.8695C175.068 7.32068182 175.416545 5.66754545 176.848773 5.66754545 178.2945 5.66754545 178.617273 7.32068182 178.617273 8.8695 178.617273 10.4183182 178.2945 12.0640909 176.848773 12.0640909 175.416545 12.0640909 175.068 10.4183182 175.068 8.8695L175.068 8.8695z"></path>
<polygon points="182.91 13.515 185.14 13.515 185.14 0 182.91 0"></polygon>
<path d="M187.116136 8.8695C187.116136 12.7624091 189.312955 13.6607727 191.202955 13.6607727 193.095409 13.6607727 195.276273 12.7624091 195.276273 8.8695 195.276273 5.076 193.095409 4.08927273 191.202955 4.08927273 189.312955 4.08927273 187.116136 5.076 187.116136 8.8695zM189.424636 8.8695C189.424636 7.32068182 189.763364 5.66754545 191.202955 5.66754545 192.648682 5.66754545 192.970227 7.32068182 192.970227 8.8695 192.970227 10.4183182 192.648682 12.0640909 191.202955 12.0640909 189.763364 12.0640909 189.424636 10.4183182 189.424636 8.8695L189.424636 8.8695zM197.203091 16.9240909C197.743091 17.1315 198.912682 17.5045909 200.389091 17.5045909 203.794773 17.5045909 204.679636 15.4378636 204.679636 12.5439545L204.679636 5.69945455C204.679636 5.19872727 204.715227 4.72254545 204.747136 4.23409091L202.740545 4.23409091C202.717227 4.72254545 202.664455 5.19136364 202.664455 5.66754545L202.588364 5.66754545C202.120773 4.85631818 201.493636 4.08927273 200.139955 4.08927273 197.7075 4.08927273 196.785818 6.34868182 196.785818 8.89036364 196.785818 12.6421364 198.739636 13.5147273 200.0295 13.5147273 201.493636 13.5147273 202.120773 12.6544091 202.485273 11.9278636L202.515955 11.9278636 202.515955 12.8102727C202.515955 14.2744091 202.176 15.7373182 200.067545 15.7373182 198.899182 15.7373182 197.854773 15.2304545 197.330727 14.9432727L197.203091 16.9240909zM199.091864 8.75904545C199.091864 6.885 199.547182 5.79272727 200.715545 5.78290909 201.779591 5.7645 202.515955 6.81259091 202.515955 8.74677273 202.515955 10.8662727 201.957545 11.88 200.556 11.88 199.795091 11.88 199.091864 10.9497273 199.091864 8.75904545L199.091864 8.75904545zM208.1025 4.23409091L205.795227 4.23409091 208.874455 13.6006364 208.713682 14.3971364C208.427727 15.3519545 208.134409 15.7483636 207.466773 15.7373182 207.124364 15.7373182 206.877682 15.6526364 206.623636 15.5704091L206.492318 17.2750909C206.823682 17.3720455 207.321955 17.5045909 207.918409 17.5045909 209.415682 17.5045909 210.174136 16.551 210.565636 15.2807727L213.951682 4.23409091 211.791682 4.23409091 210.015818 11.2418182 209.972864 11.2418182 208.1025 4.23409091"></path>
</g>
</svg></div></a>
<div class="pull-right">
<a class="downloads-mybeckhoff downloads-mybeckhoff--phone hidden" href="/en-en/download-list/index.aspx" id="downloads-mybeckhoff-phone"><span class="downloads-mybeckhoff__counter download-cart__counter" data-plugin="download-cart" data-template="cart-size" id="downloads-amount-phone"></span></a>
<div class="has-dropdown-meta pull-left">
<a class="toggle-menu-more" href="#" id="toggleMenuMore"><i class="icon-menu-more"><span class="dot"></span><span class="dot"></span><span class="dot"></span></i></a>
<div class="dropdown-meta">
<a class="close" href="#"><i class="icon icon-close"></i></a>
<ul class="nav-meta" data-plugin="navigation" data-template="flyout">
<li class="has-dropdown">
<a class="has-flag" href="" title="Region and language"> <i class="flag flag-en"></i>Beckhoff Worldwide</a>
<div class="dropdown" role="menu"><a class="close" data-close-text="Close" href="#"><i class="icon icon-close"></i></a>
<div class="container">
<h2 class="title">Please choose your region and language</h2>
<ul class="grid grid-25 region">
<li class="grid-item active"><a class="has-flag" data-locale="EN-EN" href="index.html" title=""><i class="flag flag-en flag-has-border"></i>Beckhoff Worldwide</a></li>
<li class="grid-item"><a class="has-flag" data-locale="EN-AU" href="../en-au/" title=""><i class="flag flag-au flag-has-border"></i>Australia</a></li>
<li class="grid-item"><a class="has-flag" data-locale="FR-BE" href="../fr-be/" title=""><i class="flag flag-be flag-has-border"></i>Belgique (FranÃ§ais)</a></li>
<li class="grid-item"><a class="has-flag" data-locale="NL-BE" href="../nl-be/" title=""><i class="flag flag-be flag-has-border"></i>BelgiÃ« (Nederlands)</a></li>
<li class="grid-item"><a class="has-flag" data-locale="PT-BR" href="../pt-br/" title=""><i class="flag flag-br flag-has-border"></i>Brasil</a></li>
<li class="grid-item"><a class="has-flag" data-locale="EN-CA" href="../en-ca/" title=""><i class="flag flag-ca flag-has-border"></i>Canada</a></li>
<li class="grid-item"><a class="has-flag" data-locale="CS-CZ" href="../cs-cz/" title=""><i class="flag flag-cz flag-has-border"></i>ÄeskÃ¡ republika</a></li>
<li class="grid-item"><a class="has-flag" data-locale="DA-DK" href="../da-dk/" title=""><i class="flag flag-dk flag-has-border"></i>Danmark</a></li>
<li class="grid-item"><a class="has-flag" data-locale="DE-DE" href="../de-de/" title=""><i class="flag flag-de flag-has-border"></i>Deutschland</a></li>
<li class="grid-item"><a class="has-flag" data-locale="ET-EE" href="../et-ee/" title=""><i class="flag flag-ee flag-has-border"></i>Eesti</a></li>
<li class="grid-item"><a class="has-flag" data-locale="ES-ES" href="../es-es/" title=""><i class="flag flag-es flag-has-border"></i>EspaÃ±a</a></li>
<li class="grid-item"><a class="has-flag" data-locale="FR-FR" href="../fr-fr/" title=""><i class="flag flag-fr flag-has-border"></i>France</a></li>
<li class="grid-item"><a class="has-flag" data-locale="HI-IN" href="../hi-in/" title=""><i class="flag flag-in flag-has-border"></i>India</a></li>
<li class="grid-item"><a class="has-flag" data-locale="ID-ID" href="../id-id/" title=""><i class="flag flag-id flag-has-border"></i>Indonesia</a></li>
<li class="grid-item"><a class="has-flag" data-locale="IT-IT" href="../it-it/" title=""><i class="flag flag-it flag-has-border"></i>Italia</a></li>
<li class="grid-item"><a class="has-flag" data-locale="HU-HU" href="../hu-hu/" title=""><i class="flag flag-hu flag-has-border"></i>MagyarorszÃ¡g</a></li>
<li class="grid-item"><a class="has-flag" data-locale="MS-MY" href="../ms-my/" title=""><i class="flag flag-my flag-has-border"></i>Malaysia</a></li>
<li class="grid-item"><a class="has-flag" data-locale="ES-MX" href="../es-mx/" title=""><i class="flag flag-mx flag-has-border"></i>MÃ©xico</a></li>
<li class="grid-item"><a class="has-flag" data-locale="NL-NL" href="../nl-nl/" title=""><i class="flag flag-nl flag-has-border"></i>Nederland</a></li>
<li class="grid-item"><a class="has-flag" data-locale="EN-NZ" href="../en-nz/" title=""><i class="flag flag-nz flag-has-border"></i>New Zealand</a></li>
<li class="grid-item"><a class="has-flag" data-locale="NN-NO" href="../nn-no/" title=""><i class="flag flag-no flag-has-border"></i>Norge</a></li>
<li class="grid-item"><a class="has-flag" data-locale="DE-AT" href="../de-at/" title=""><i class="flag flag-at flag-has-border"></i>Ãsterreich</a></li>
<li class="grid-item"><a class="has-flag" data-locale="PL-PL" href="../pl-pl/" title=""><i class="flag flag-pl flag-has-border"></i>Polska</a></li>
<li class="grid-item"><a class="has-flag" data-locale="EN-PH" href="../en-ph/" title=""><i class="flag flag-ph flag-has-border"></i>Republika ng Pilipinas (English)</a></li>
<li class="grid-item"><a class="has-flag" data-locale="DE-CH" href="../de-ch/" title=""><i class="flag flag-ch flag-has-border"></i>Schweiz (Deutsch)</a></li>
<li class="grid-item"><a class="has-flag" data-locale="ZH-SG" href="../zh-sg/" title=""><i class="flag flag-sg flag-has-border"></i>Singapore</a></li>
<li class="grid-item"><a class="has-flag" data-locale="SL-SI" href="../sl-si/" title=""><i class="flag flag-si flag-has-border"></i>Slovenija</a></li>
<li class="grid-item"><a class="has-flag" data-locale="SK-SK" href="../sk-sk/" title=""><i class="flag flag-sk flag-has-border"></i>SlovenskÃ¡ republika</a></li>
<li class="grid-item"><a class="has-flag" data-locale="EN-ZA" href="../en-za/" title=""><i class="flag flag-za flag-has-border"></i>South Africa</a></li>
<li class="grid-item"><a class="has-flag" data-locale="FR-CH" href="../fr-ch/" title=""><i class="flag flag-ch flag-has-border"></i>Suisse (FranÃ§ais)</a></li>
<li class="grid-item"><a class="has-flag" data-locale="FI-FI" href="../fi-fi/" title=""><i class="flag flag-fi flag-has-border"></i>Suomi</a></li>
<li class="grid-item"><a class="has-flag" data-locale="SV-SE" href="../sv-se/" title=""><i class="flag flag-se flag-has-border"></i>Sverige</a></li>
<li class="grid-item"><a class="has-flag" data-locale="IT-CH" href="../it-ch/" title=""><i class="flag flag-ch flag-has-border"></i>Svizzera (Italiano)</a></li>
<li class="grid-item"><a class="has-flag" data-locale="TR-TR" href="../tr-tr/" title=""><i class="flag flag-tr flag-has-border"></i>TÃ¼rkiye</a></li>
<li class="grid-item"><a class="has-flag" data-locale="EN-US" href="../en-us/" title=""><i class="flag flag-us flag-has-border"></i>USA</a></li>
<li class="grid-item"><a class="has-flag" data-locale="EN-GB" href="../en-gb/" title=""><i class="flag flag-gb flag-has-border"></i>United Kingdom</a></li>
<li class="grid-item"><a class="has-flag" data-locale="VI-VN" href="../vi-vn/" title=""><i class="flag flag-vn flag-has-border"></i>Viá»t Nam</a></li>
<li class="grid-item"><a class="has-flag" data-locale="RU-RU" href="../ru-ru/" title=""><i class="flag flag-ru flag-has-border"></i>Ð Ð¾ÑÑÐ¸Ñ</a></li>
<li class="grid-item"><a class="has-flag" data-locale="HE-IL" href="../he-il/" title=""><i class="flag flag-il flag-has-border"></i>××©×¨××</a></li>
<li class="grid-item"><a class="has-flag" data-locale="AR-AE" href="../ar-ae/" title=""><i class="flag flag-ae flag-has-border"></i>Ø§ÙØ¥ÙØ§Ø±Ø§Øª</a></li>
<li class="grid-item"><a class="has-flag" data-locale="AR-EG" href="../ar-eg/" title=""><i class="flag flag-eg flag-has-border"></i>ÙØµØ±</a></li>
<li class="grid-item"><a class="has-flag" data-locale="TH-TH" href="../th-th/" title=""><i class="flag flag-th flag-has-border"></i>à¸à¸£à¸°à¹à¸à¸¨à¹à¸à¸¢</a></li>
<li class="grid-item"><a class="has-flag" data-locale="ZH-CN" href="../zh-cn/" title=""><i class="flag flag-cn flag-has-border"></i>ä¸­å½</a></li>
<li class="grid-item"><a class="has-flag" data-locale="JA-JP" href="../ja-jp/" title=""><i class="flag flag-jp flag-has-border"></i>æ¥æ¬</a></li>
<li class="grid-item"><a class="has-flag" data-locale="KO-KR" href="../ko-kr/" title=""><i class="flag flag-kr flag-has-border"></i>ëíë¯¼êµ­</a></li>
<li class="grid-item"><a class="has-flag" data-locale="ZH-TW" href="../zh-tw/" title=""><i class="flag flag-tw flag-has-border"></i>å°ç£</a></li>
</ul>
</div>
</div>
</li>
<li class="has-dropdown has-dropdown-small" data-cms-language="EN-EN" data-plugin="mybeckhoff" data-template="login"><a class="toggle-mybeckhoff" href="">myBeckhoff <small class="mybeckhoff__logged-in-hidden">Sign in</small><small class="mybeckhoff__logged-in-visible">Signed in</small></a>
<div class="dropdown dropdown-mybeckhoff" role="menu">
<a class="close" data-close-text="Close" href="#"><i class="icon icon-close"></i></a>
<div class="dropdown-mybeckhoff__header"><strong><span class="mybeckhoff__logged-in-hidden">myBeckhoff Login</span><span class="mybeckhoff__logged-in-visible">Welcome, <span class="dropdown-mybeckhoff__username"></span></span></strong></div>
<form autocomplete="off" class="dropdown-mybeckhoff__form" data-mybeckhoff-url="/en-en/mybeckhoff/">
<div class="form-row mybeckhoff__logged-in-hidden">
<div class="ctrl custom-ctrl-input">
<label for="dropdown-mybeckhoff-username">E-mail address</label>
<input id="dropdown-mybeckhoff-username" type="text"/>
</div>
</div>
<div class="form-row mybeckhoff__logged-in-hidden">
<div class="ctrl custom-ctrl-input">
<label for="dropdown-mybeckhoff-password">Password</label>
<input id="dropdown-mybeckhoff-password" type="password"/>
</div>
</div>
<div class="form-row mybeckhoff__logged-in-hidden">
<div class="ctrl">
<span class="custom-checkbox">
<input id="dropdown-mybeckhoff-cookie" type="checkbox"/>
<label for="dropdown-mybeckhoff-cookie">Stay logged in</label>
</span>
</div>
</div>
<div class="form-row mybeckhoff__logged-in-visible">
<p>Would you like to unsubscribe from myBeckhoff?</p>
</div>
<div class="form-row">
<button class="btn btn-wide" type="submit"><span class="btn-text mybeckhoff__logged-in-hidden">Login</span><span class="btn-text mybeckhoff__logged-in-visible">Logout</span></button>
</div>
<div class="form-row mybeckhoff__logged-in-hidden">
<a href="/en-en/mybeckhoff-forget-password/index.aspx">Forgot password?</a>
</div>
</form>
<div class="dropdown-mybeckhoff__register">
<div class="form-row mybeckhoff__logged-in-hidden"><strong>You are not yet registered for myBeckhoff?</strong></div>
<div class="form-row mybeckhoff__logged-in-hidden"><a class="btn btn-grey btn-wide" href="/en-en/mybeckhoff-registration/index.aspx"><span class="btn-text">Register</span></a></div>
<div class="form-row mybeckhoff__logged-in-visible">Do you need any help using myBeckhoff? Please contact us at <a href="mailto:mybeckhoff@beckhoff.com">mybeckhoff@beckhoff.com</a>.</div>
</div>
</div>
</li>
<li id="downloads-mybeckhoff"><a class="downloads-mybeckhoff hidden" href="/en-en/download-list/index.aspx"><span class="downloads-mybeckhoff__counter download-cart__counter" data-plugin="download-cart" data-template="cart-size" id="downloads-amount"></span></a></li>
</ul>
</div>
</div>
<div class="has-dropdown-search pull-left">
<div class="toggle-search">
<a class="btn-search" href="" id="toggleSearch"><span class="btn-text">Search</span><i class="icon icon-search-black"></i></a>
</div>
<div class="dropdown dropdown-search" data-cms-native-language="EN-EN" data-number-of-suggestions='{"terms":"5","pages":"5","products":"4"}' data-pim-language="en" data-plugin="search" data-template="flyout" data-urls='{"search":"/en-en/search-results/","downloadfinder":"/en-en/support/download-finder/"}' role="menu"><a class="close" data-close-text="Close" href="#"><i class="icon icon-close"></i></a>
<div class="container">
<h2 class="title">Search</h2>
<div class="search">
<form action="/en-en/search-results/" class="search__form" id="form_216812" method="get">
<div class="row">
<div class="col col-12">
<div class="form-row">
<label class="aural" for="form_input_216812">Enter search value ...</label>
<div class="ctrl">
<div class="input-group">
<span class="input-addon">
<i class="search__input-icon icon icon-search-black"></i>
<img class="search__input-spinner spinner" src="/media/layoutassets/img/spinner.png" style="display:none;"/>
</span>
<input autocomplete="off" class="search__input" data-content="Search term too short" data-placement="bottom" data-title="" data-toggle="search__input-popover" data-trigger="manual" id="form_input_216812" name="q" placeholder="Enter search value ..." type="text"/>
</div>
<button class="search__button btn" form="form_216812" title="start search" type="submit">Search</button>
</div>
</div>
</div>
</div>
</form>
<div class="search__typeahead" style="display:none;">
<div class="row">
<div class="col col-3">
<p class="title">Suggested Terms</p>
<ul class="search__typeahead-terms"></ul>
</div>
<div class="col col-6">
<p class="title">Suggested Pages</p>
<ul class="search__typeahead-pages"></ul>
</div>
<div class="col col-3">
<p class="title" style="display:none;">Downloads</p>
<ul class="search__typeahead-downloads" style="display:none;"></ul>
</div>
</div>
<div class="row">
<div class="col col-12">
<p class="title">Suggested Products</p>
</div>
</div>
<div class="search__typeahead-products"></div>
</div>
</div>
</div>
</div>
</div>
</div>
</div>
</header>
<nav class="nav-main" data-plugin="navigation" data-template="flyout">
<div class="container">
<a class="toggle-menu" href="#" id="toggleMenu2">
<i class="icon-menu"><span class="bar"></span><span class="bar"></span><span class="bar"></span></i>
</a>
<ul class="level-1">
<li data-dropdown-src="navigation/flyout/company/">
<a href="/en-en/company/">Company</a>
</li>
<li data-dropdown-src="navigation/flyout/products/">
<a href="/en-en/products/">Products</a>
</li>
<li data-dropdown-src="navigation/flyout/industries/">
<a href="/en-en/industries/">Industries</a>
</li>
<li data-dropdown-src="navigation/flyout/support/">
<a href="/en-en/support/">Support</a>
</li>
<li class="mybeckhoff__logged-in-visible" data-dropdown-src="navigation/flyout/flyout-mybeckhoff/">
<a class="nav-item--mybeckhoff" href="/en-en/mybeckhoff/">myBeckhoff</a>
</li>
</ul>
</div>
</nav>
</div>
<div class="section-contact-flyout">
<div class="container">
<div class="contact-position-container" id="js-contact-position-container">
<div class="contact" id="js-contact">
<div class="contact-flyout" id="js-contact-flyout">
<button aria-label="Show Contact" class="contact-button" id="js-contact-button" title="Show contact" type="button"><span class="contact-button__icon"><svg height="47" viewbox="0 0 36 47" width="36" xmlns="http://www.w3.org/2000/svg">
<path d="M15.9844834 0C20.1313406 0 23.8846077 1.67936221 26.6014869 4.39352736 29.3192818 7.10860735 31 10.859202 31 15 31 19.140798 29.3192818 22.8913926 26.6014869 25.6064726 23.8846077 28.3206378 20.1313406 30 15.9844834 30 11.8457269 30 8.10052263 28.3208975 5.38957728 25.6072386 2.67708477 22.892031 1 19.1411147 1 15 1 10.8588853 2.67708476 7.10796901 5.38957728 4.3927614 8.10052262 1.6791025 11.8457268 0 15.9844834 0zM19.6854198 20.7441016L12.3145802 20.7441016 12.4148721 21.0959706C13.103104 23.4334294 14.1824941 25.6033028 15.5796502 27.5518554 15.716735 27.7430417 15.8568195 27.9320144 15.9998778 28.1186915 16.1431035 27.9321248 16.2832296 27.7430972 16.4203543 27.5518548 17.8873635 25.5058747 19.0040407 23.2158885 19.6854198 20.7441016L19.6854198 20.7441016zM10.240314 20.7441016L4.52659089 20.7441016 4.63048161 20.954052C6.11027685 23.8772432 8.64974313 26.119789 11.7469332 27.1946409 12.15917 27.3377039 12.5764651 27.458407 12.9971782 27.5569185 12.7785777 27.1973601 12.570114 26.8323792 12.3729133 26.4625972 11.4255078 24.6860639 10.7149641 22.7553941 10.240314 20.7441016L10.240314 20.7441016zM27.4759598 20.7441016L21.7596907 20.7441016 21.6616143 21.1452634C21.189244 23.0121316 20.5113319 24.8044995 19.6270867 26.4625972 19.4301346 26.8319131 19.2219477 27.19644 19.0030794 27.5558171 19.4238283 27.4580164 19.841075 27.3376189 20.2530668 27.1946409 23.4258548 26.0935534 26.0137105 23.7481236 27.4759598 20.7441016L27.4759598 20.7441016zM9.78076875 11.4882033L3.73988573 11.4882033 3.66496531 11.7683891C3.39908058 12.8004275 3.2323049 13.883522 3.2323049 15 3.2323049 16.217976 3.43078175 17.3962229 3.73988573 18.5117967L3.73988573 18.5117967 9.78076875 18.5117967 9.72531303 18.0762879C9.59949567 17.0605656 9.50202517 16.046477 9.50202517 15 9.50202517 13.8040263 9.62933358 12.6503558 9.78076875 11.4882033L9.78076875 11.4882033zM20.2868097 11.4882033L12.2576608 11.4882033 12.2019683 11.8680408C12.0569949 12.8850826 11.9437387 13.9345687 11.9437387 15 11.9437387 16.1954879 12.0863004 17.350715 12.25634 18.5117967L12.25634 18.5117967 20.2881305 18.5117967 20.343633 18.1249231C20.4880845 17.0935008 20.600726 16.0626559 20.600726 15 20.600726 13.8013898 20.4573859 12.6229601 20.2868097 11.4882033L20.2868097 11.4882033zM28.2601143 11.4882033L22.219228 11.4882033 22.2746864 11.9237121C22.4005085 12.9394344 22.4979748 13.953523 22.4979748 15 22.4979748 16.1959737 22.3706718 17.3496442 22.219228 18.5117967L22.219228 18.5117967 28.2601143 18.5117967 28.3350347 18.2316109C28.6009194 17.1995725 28.7676951 16.116478 28.7676951 15 28.7676951 13.782024 28.5692183 12.6037771 28.2601143 11.4882033L28.2601143 11.4882033zM16.0001279 1.88130906C15.8568195 2.06798564 15.716735 2.2569583 15.5796502 2.44814457 14.1126363 4.49412487 12.9959594 6.78411129 12.3145802 9.25589837L12.3145802 9.25589837 19.6854198 9.25589837 19.5851279 8.90402942C18.8968961 6.56657089 17.817506 4.39669767 16.4203543 2.44814518 16.2832698 2.25695892 16.1431858 2.06798624 16.0001279 1.88130906zM12.9975075 2.44327426C12.5768542 2.54147922 12.1593626 2.66222927 11.7469332 2.80535914 8.57600797 3.90580013 5.98967968 6.23011876 4.52660116 9.25589837L4.52660116 9.25589837 10.2403137 9.25589837 10.3383892 8.85473803C10.810755 6.9878716 11.4886654 5.19544487 12.3729096 3.53740977 12.5700349 3.1677825 12.7784198 2.80294973 12.9975075 2.44327426zM19.0033459 2.44395903C19.2218247 2.8033778 19.4300807 3.16799935 19.6270904 3.53740977 20.5744949 5.31387598 21.2850367 7.24461825 21.759691 9.25589837L21.759691 9.25589837 27.4759494 9.25589837 27.3721123 9.04738549C25.8930152 6.1433753 23.3520616 3.88083734 20.2530668 2.80535914 19.8411708 2.66241435 19.424023 2.54203859 19.0033459 2.44395903zM36 36.4999897C36 35.6749995 35.2800009 35 34.3999996 35L21.6 35C20.7199999 35 20 35.6749995 20 36.4999897L20 45.4999828C20 46.3250005 20.7199999 47 21.6 47L34.3999996 47C35.2800009 47 36 46.3250005 36 45.4999828L36 36.4999897zM34.6666667 36.3333333L28.0000002 40.3333333 21.3333333 36.3333333 34.6666667 36.3333333zM28 41.5679587L21.3333333 37.6666667 21.3333333 45.6666667 34.6666667 45.6666667 34.6666667 37.6666667 28 41.5679587zM2.41333334 40.1933333C3.37333334 42.08 4.92 43.62 6.80666666 44.5866667L8.27333334 43.12C8.45333334 42.94 8.72 42.88 8.95333334 42.96 9.7 43.2066667 10.5066667 43.34 11.3333333 43.34 11.7 43.34 12 43.64 12 44.0066667L12 46.3333333C12 46.7 11.7 47 11.3333333 47 5.07333334 47 0 41.9266667 0 35.6666667 0 35.3.3 35 .666666664 35L3 35C3.36666666 35 3.66666666 35.3 3.66666666 35.6666667 3.66666666 36.5 3.8 37.3 4.04666666 38.0466667 4.12 38.28 4.06666666 38.54 3.88 38.7266667L2.41333334 40.1933333z" fill="#FFF" fill-rule="evenodd"></path>
</svg>
</span><span class="contact-button__text">Contact</span></button>
<div class="contact-flyout__container">
<button aria-label="Close" class="contact-flyout__close" id="js-contact-close" title="Close" type="button"><svg height="25" viewbox="0 0 25 25" width="25" xmlns="http://www.w3.org/2000/svg">
<polygon fill-rule="evenodd" points="12 10.5 1.5 0 0 1.5 10.5 12 0 22.5 1.5 24 12 13.5 22.5 24 24 22.5 13.5 12 24 1.5 22.5 0" transform="translate(.186 .94)"></polygon>
</svg>
</button>
<div class="content-flyout__body">
<div class="content-flyout__block">
<div itemscope="" itemtype="http://schema.org/LocalBusiness">
<p itemprop="name">
<strong>Headquarters Germany</strong><br/>
                                      Beckhoff Automation GmbH &amp; Co. KG
                                    </p>
<address itemprop="address" itemscope="" itemtype="http://schema.org/PostalAddress">
<meta content="de" itemprop="addressCountry"/>
<meta content="Verl" itemprop="addressLocality"/>
<meta content="33415" itemprop="postalCode"/>
<meta content="HÃ¼lshorstweg 20" itemprop="streetAddress"/>
<span>HÃ¼lshorstweg 20</span>
<br/>
<span itemprop="postalCode">33415</span> <span itemprop="addressLocality">Verl</span>, 
                                     Germany
                                     </address>
<p class="mt-2">
<a class="link link--phone" href="tel:+4952469630"><span itemprop="telephone">+49 5246 963-0</span></a>
<br/><a class="link link--mail" href="mailto:info@beckhoff.com"><span itemprop="email">info@beckhoff.com</span></a>
<br/>
<a class="link link--web" href="https://www.beckhoff.com">www.beckhoff.com</a>
</p>
</div>
</div>
<div class="content-flyout__block">
<h3>Sales</h3>
<a class="link link--phone" href="tel:+4952469631000">
<span itemprop="telephone">+49 5246 963-1000</span>
</a><br/>
<a class="link link--mail" href="mailto:sales@beckhoff.de" itemprop="email">
				sales@beckhoff.de
				</a><br/>
<a class="link link--mail" href="/en-en/company/sales-contact-form/index.aspx">Contact form</a><br/>
<a class="link link--cal" href="/en-en/company/sales-appointment/index.aspx">
				Make an appointment
				</a>
</div>
<div class="content-flyout__block">
<h3>Technical Support</h3>
<a class="link link--phone" href="tel:+495246963157">
<span itemprop="telephone">+49 5246 963-157</span>
</a><br/>
<a class="link link--mail" href="mailto:support@beckhoff.com" itemprop="email">
				support@beckhoff.com
				</a><br/>
<a class="link link--mail" href="/en-en/support/support-form/index.aspx">Contact form</a><br/>
</div>
<div class="content-flyout__block">
<h3>Service</h3>
<a class="link link--phone" href="tel:+495246963460">
<span itemprop="telephone">+49 5246 963-460</span>
</a><br/>
<a class="link link--mail" href="mailto:service@beckhoff.com" itemprop="email">
				service@beckhoff.com
				</a><br/>
<a class="link link--mail" href="/en-en/support/service-form/index-2.aspx">Contact form</a><br/>
</div>
<div class="content-flyout__block"><a class="link link--arrow" href="company/global-presence/kontakt-details_21937.html">Detailed contact information</a></div>
</div>
</div>
</div>
</div>
</div>
</div>
</div>
<main class="main" data-language="EN-EN">
<nav class="nav-breadcrumb nav-breadcrumb--phone nav-breadcrumb--long" data-cms-native-language="EN-EN" data-plugin="navigation" data-template="breadcrumb">
<div class="container">
<div class="row">
<div class="col col-12 flex">
<div class="nav-deeplink">
<a class="nav-deeplink__item" data-placement="bottom" data-toggle="tooltip" href="/en-en/products/news/" title="Product news">
<span class="nav-deeplink__icon"><i class="icon icon-deeplink-news"></i></span>
<span class="nav-deeplink__title">Product news</span>
</a> <a class="nav-deeplink__item" data-placement="bottom" data-toggle="tooltip" href="/en-en/products/product-finder/" title="Product finder">
<span class="nav-deeplink__icon"><i class="icon icon-deeplink-afp"></i></span>
<span class="nav-deeplink__title">Product finder</span>
</a> <a class="nav-deeplink__item" data-placement="bottom" data-toggle="tooltip" href="https://infosys.beckhoff.com" target="_blank" title="Beckhoff Information System">
<span class="nav-deeplink__icon"><i class="icon icon-deeplink-infosys"></i></span>
<span class="nav-deeplink__title">Beckhoff Information System</span>
</a> <a class="nav-deeplink__item" data-placement="bottom" data-toggle="tooltip" href="/en-en/support/download-finder/index-2.html" title="Download finder">
<span class="nav-deeplink__icon"><i class="icon icon-deeplink-download"></i></span>
<span class="nav-deeplink__title">Download finder</span>
</a>
</div>
<ol class="breadcrumb">
<li class="breadcrumb-item" data-cms-id="216814">
<a href="/en-en/">
<span class="aural">Start page</span>
<i class="icon icon-home-black"></i>
</a>
</li>
</ol>
</div>
</div>
</div>
</nav>
<div class="section-content section-stage frameless">
<div class="container">
<div class="owl-carousel stage-carousel">
<div class="stage-item-simple">
<figure class="figure figure-focus-left copy-dark copy-pos-right">
<img alt="" height="520" src="/media/bilder/buehnen/component_overview.jpg" width="1160"/>
</figure>
<div class="position position-left">
</div>
</div>
<div class="stage-item-simple">
<figure class="figure figure-focus-left copy-dark copy-pos-right">
<img alt="" height="520" src="/media/bilder/buehnen/news/ethercat.jpg" title="EtherCAT: 
the Ethernet Fieldbus" width="1160"/>
</figure>
<div class="position position-left">
<div class="box">
<p class="sub-title">Invented by Beckhoff</p>
<h2 class="main-title">EtherCAT: <br/>the Ethernet Fieldbus</h2>
<p class="cta">
<a class="btn" href="/en-en/products/i-o/ethercat/" target="">Learn more</a>
</p>
</div>
</div>
</div>
<div class="stage-item-simple">
<figure class="figure figure-focus-right copy-dark copy-pos-left">
<img alt="" height="520" src="/media/bilder/buehnen/news/ampcontrol-completed-pre-production-units.jpg" title="Ventilators for 
COVID-19 treatment" width="1160"/>
</figure>
<div class="position position-right">
<div class="box box-white">
<h2 class="main-title">Ventilators for <br/>COVID-19 treatment</h2>
<p class="sub-title">Beckhoff provides products and support to build Ampcontrolâs Ventasys ventilators</p>
<p class="cta">
<a class="btn " href="/en-en/company/news/news-detail_79425.html">Learn more</a>
</p>
</div>
</div>
</div>
<div class="stage-item-simple">
<figure class="figure figure-focus-left copy-dark copy-pos-right">
<img alt="" height="520" src="/media/bilder/buehnen/news/io.jpg" title="Versatile, modular and scalable for high flexibility" width="1160"/>
</figure>
<div class="position position-left">
<div class="box">
<p class="sub-title">Beckhoff EtherCAT I/O
</p>
<h2 class="main-title">Versatile, modular and scalable for high flexibility</h2>
<p class="cta">
<a class="btn" href="/en-en/products/i-o/" target="">Learn more</a>
</p>
</div>
</div>
</div>
<div class="stage-item-simple">
<figure class="figure figure-focus-right copy-dark copy-pos-right">
<img alt="" height="520" src="/media/bilder/buehnen/news/roche.jpg" title="Efficient PSC production 
with XTS simplifies access
 to HIV tests" width="1160"/>
</figure>
<div class="position position-right">
<div class="box box-white">
<h2 class="main-title">Efficient PSC production <br/>with XTS simplifies access<br/> to HIV tests</h2>
<p class="sub-title">Roche: flexible and cost-effective production of Plasma Separation Cards
</p>
<p class="cta">
<a class="btn " href="/en-en/company/news/news-detail_64641.html">Learn more</a>
</p>
</div>
</div>
</div>
<div class="stage-item-simple">
<figure class="figure figure-focus-right copy-dark copy-pos-right">
<img alt="" height="520" src="/media/bilder/buehnen/news/alpha-ventus.jpg" title="PC-based Control has powered Germanyâs first offshore wind farm from the start" width="1160"/>
</figure>
<div class="position position-right">
<div class="box box-white">
<h2 class="main-title">PC-based Control has powered Germanyâs first offshore wind farm from the start</h2>
<p class="sub-title">10 years of alpha ventus with PC-based wind turbine control</p>
<p class="cta">
<a class="btn " href="/en-en/company/news/news-detail_184049.html">Learn more</a>
</p>
</div>
</div>
</div>
<div class="stage-item-simple">
<figure class="figure figure-focus-right copy-dark copy-pos-right">
<img alt="" height="520" src="/media/bilder/buehnen/news/interactive-automation-days.jpg" title="Watch our videos 
in the archive" width="1160"/>
</figure>
<div class="position position-right">
<div class="box">
<p class="sub-title">Technology shows, presentations, expert roundtables</p>
<h2 class="main-title">Watch our videos <br/>in the archive</h2>
<p class="cta">
<a class="btn" href="https://vimeo.com/channels/BeckhoffAutomationDaysEN" target="_blank">Learn more</a>
</p>
</div>
</div>
</div>
<div class="stage-item-simple">
<figure class="figure figure-focus-right copy-dark copy-pos-right">
<img alt="" height="520" src="/media/bilder/buehnen/news/elm72xx.jpg" title="compact drive technology 
in a robust metal housing
" width="1160"/>
</figure>
<div class="position position-right">
<div class="box">
<p class="sub-title">ELM72xx EtherCAT Terminals</p>
<h2 class="main-title">compact drive technology <br/>in a robust metal housing<br/></h2>
<p class="cta">
<a class="btn" href="/en-en/products/i-o/elm7xxx-compact-drive-technology/" target="">Learn more</a>
</p>
</div>
</div>
</div>
<div class="stage-item-simple">
<figure class="figure figure-focus-right copy-dark copy-pos-right">
<img alt="" height="520" src="/media/bilder/buehnen/news/cx2033.jpg" title="Embedded PC series 
with AMD Ryzenâ¢ processors" width="1160"/>
</figure>
<div class="position position-right">
<div class="box">
<p class="sub-title">CX20x3</p>
<h2 class="main-title">Embedded PC series <br/>with AMD Ryzenâ¢ processors</h2>
<p class="cta">
<a class="btn" href="/en-en/products/ipc/embedded-pcs/cx20x3-amd-ryzen/" target="">Learn more</a>
</p>
</div>
</div>
</div>
<div class="stage-item-simple">
<figure class="figure figure-focus-right copy-dark copy-pos-right">
<img alt="" height="520" src="/media/bilder/buehnen/news/c60xx.jpg" title="Even more scalable 
multicore computing power" width="1160"/>
</figure>
<div class="position position-right">
<div class="box">
<p class="sub-title">Series of ultra-compact Industrial PCs C60xx</p>
<h2 class="main-title">Even more scalable <br/>multicore computing power</h2>
<p class="cta">
<a class="btn" href="/en-en/products/ipc/pcs/c60xx-ultra-compact-industrial-pcs/" target="">Learn more</a>
</p>
</div>
</div>
</div>
<div class="stage-item-simple">
<figure class="figure figure-focus-right copy-dark copy-pos-right">
<img alt="" height="520" src="/media/bilder/buehnen/news/c7015-2.jpg" title="Multi-core directly
 at the machine" width="1160"/>
</figure>
<div class="position position-right">
<div class="box">
<p class="sub-title">Ultra-compact Industrial PC C7015</p>
<h2 class="main-title">Multi-core directly<br/> at the machine</h2>
<p class="cta">
<a class="btn " href="/en-en/products/ipc/pcs/c70xx-ultra-compact-industrial-pcs-in-ip-65-67/c7015.html">Learn more</a>
</p>
</div>
</div>
</div>
<div class="stage-item-simple">
<figure class="figure figure-focus-left copy-dark copy-pos-right">
<img alt="" height="520" src="/media/bilder/buehnen/produkte/xplanar.jpg" title="Free-floating movers 
with 6 degrees of freedom" width="1160"/>
</figure>
<div class="position position-left">
<div class="box">
<p class="sub-title">XPlanar: Flying Motion</p>
<h2 class="main-title">Free-floating movers <br/>with 6 degrees of freedom</h2>
<p class="cta">
<a class="btn" href="/en-en/products/motion/xplanar-planar-motor-system/" target="">Learn more</a>
</p>
</div>
</div>
</div>
<div class="stage-item-simple">
<figure class="figure figure-focus-right copy-dark copy-pos-left">
<img alt="" height="520" src="/media/bilder/buehnen/news/xts.jpg" title="Drive Technology â 
Rethought" width="1160"/>
</figure>
<div class="position position-right">
<div class="box">
<p class="sub-title">eXtended Transport System</p>
<h2 class="main-title">Drive Technology â <br/>Rethought</h2>
<p class="cta">
<a class="btn" href="/en-en/products/motion/xts-linear-product-transport/" target="">Learn more</a>
</p>
</div>
</div>
</div>
<div class="stage-item-simple">
<figure class="figure figure-focus-right copy-dark copy-pos-right">
<img alt="" height="520" src="/media/bilder/buehnen/news/spannungsversorgung.jpg" title="Long service life, reliability 
and high efficiency" width="1160"/>
</figure>
<div class="position position-right">
<div class="box">
<p class="sub-title">Beckhoffs power supply series </p>
<h2 class="main-title">Long service life, reliability <br/>and high efficiency</h2>
<p class="cta">
<a class="btn" href="/en-en/products/i-o/power-supplies/" target="">Learn more</a>
</p>
</div>
</div>
</div>
<div class="stage-item-simple">
<figure class="figure figure-focus-right copy-dark copy-pos-right">
<img alt="" height="520" src="/media/bilder/buehnen/news/machine-learning-2.jpg" title="Scalable, open 
and in real time" width="1160"/>
</figure>
<div class="position position-right">
<div class="box">
<p class="sub-title">TwinCAT Machine Learning</p>
<h2 class="main-title">Scalable, open <br/>and in real time</h2>
<p class="cta">
<a class="btn" href="/en-en/products/automation/twincat-3-machine-learning/" target="">Learn more</a>
</p>
</div>
</div>
</div>
<div class="stage-item-simple">
<figure class="figure figure-focus-left copy-dark copy-pos-right">
<img alt="" height="520" src="/media/bilder/buehnen/news/al8000.jpg" title="Next Generation
 linear Motors AL8000 
Made in Germany" width="1160"/>
</figure>
<div class="position position-left">
<div class="box">
<p class="sub-title">New AL8000 product family</p>
<h2 class="main-title">Next Generation<br/> linear Motors AL8000 <br/>Made in Germany</h2>
<p class="cta">
<a class="btn" href="/en-en/products/motion/translatory-servomotors/al8000-highly-dynamic-linear-servomotors/" target="">Learn more</a>
</p>
</div>
</div>
</div>
<div class="stage-item-simple">
<figure class="figure figure-focus-right copy-dark copy-pos-right">
<img alt="" height="520" src="/media/bilder/buehnen/news/tc-mtp.jpg" title="TwinCAT for the 
process industry " width="1160"/>
</figure>
<div class="position position-right">
<div class="box">
<p class="sub-title">TwinCAT MTP</p>
<h2 class="main-title">TwinCAT for the <br/>process industry </h2>
<p class="cta">
<a class="btn" href="/en-en/products/automation/module-type-package-mtp/" target="">Learn more</a>
</p>
</div>
</div>
</div>
<div class="stage-item-simple">
<figure class="figure figure-focus-left copy-dark copy-pos-left">
<img alt="" height="520" src="/media/bilder/buehnen/news/tc-vision.jpg" title="Integrates machine vision into automation" width="1160"/>
</figure>
<div class="position position-left">
<div class="box">
<p class="sub-title">TwinCAT Vision</p>
<h2 class="main-title">Integrates machine vision into automation</h2>
<p class="cta">
<a class="btn" href="/en-en/products/automation/twincat-vision/" target="">Learn more</a>
</p>
</div>
</div>
</div>
</div>
</div>
</div>
<div class="section-content section-title">
<div class="container">
<div class="row">
<div class="col col-12">
<div class="title-container" data-cms-id="216814" data-cms-language="EN-EN" data-cms-templatename="startseite" data-plugin="mybeckhoff" data-template="bookmark-toggle">
<h1>Beckhoff New Automation Technology: A decisive step ahead with PC-based control and EtherCAT!</h1>
<div class="title-favorite">
<a class="toggle-popover login-request mybeckhoff__logged-in-hidden" data-content="
To use this feature, youâll need to 
&lt;a href='/en-en/mybeckhoff/'&gt;sign in&lt;/a&gt;
 to myBeckhoff or 
&lt;a href='/en-en/mybeckhoff-registration/index.aspx'&gt;register&lt;/a&gt;
 free of charge.
" data-toggle="popover" role="button" tabindex="0" title="Add to watch list">
<svg height="23" viewbox="0 0 24 23" width="24" xmlns="http://www.w3.org/2000/svg">
<path d="M24,8.688 L15.372,7.944 L12,1.13686838e-13 L8.628,7.956 L0,8.688 L6.552,14.364 L4.584,22.8 L12,18.324 L19.416,22.8 L17.46,14.364 L24,8.688 Z M12,16.08 L7.488,18.804 L8.688,13.668 L4.704,10.212 L9.96,9.756 L12,4.92 L14.052,9.768 L19.308,10.224 L15.324,13.68 L16.524,18.816 L12,16.08 Z"></path>
</svg>
</a>
<a class="mybeckhoff__add-bookmark mybeckhoff__logged-in-visible" href="#" role="button" title="Add to watch list">
<svg height="23" viewbox="0 0 24 23" width="24" xmlns="http://www.w3.org/2000/svg">
<path d="M24,8.688 L15.372,7.944 L12,1.13686838e-13 L8.628,7.956 L0,8.688 L6.552,14.364 L4.584,22.8 L12,18.324 L19.416,22.8 L17.46,14.364 L24,8.688 Z M12,16.08 L7.488,18.804 L8.688,13.668 L4.704,10.212 L9.96,9.756 L12,4.92 L14.052,9.768 L19.308,10.224 L15.324,13.68 L16.524,18.816 L12,16.08 Z"></path>
</svg>
</a>
<a class="mybeckhoff__remove-bookmark mybeckhoff__logged-in-visible hidden" href="#" role="button" title="Remove from watch list">
<svg height="23" viewbox="0 0 24 23" width="24" xmlns="http://www.w3.org/2000/svg">
<polygon points="12 18.324 19.416 22.8 17.448 14.364 24 8.688 15.372 7.956 12 0 8.628 7.956 0 8.688 6.552 14.364 4.584 22.8"></polygon>
</svg>
</a>
</div>
</div>
</div>
</div>
</div>
</div>
<div class="section-content productline">
<div class="container">
<div class="tile-grid">
<div class="tile-grid__item">
<div class="tile-card">
<div class="tile-card__image"><img alt="" src="/media/bilder/kacheln/kacheln-ipc/ipc.png"/></div>
<div class="tile-card__title">
<h3>IPC</h3>
</div>
<div class="tile-card__body">
<p>We deliver just the right Panel or the right Industrial PC for every application â with the latest technology for all performance classes.</p>
</div>
<div class="tile-card__link"><a href="/en-en/products/ipc/" title="IPC"><span>Learn more</span></a></div>
</div>
</div>
<div class="tile-grid__item">
<div class="tile-card">
<div class="tile-card__image"><img alt="" src="/media/bilder/kacheln/kacheln-i-o/io.png"/></div>
<div class="tile-card__title">
<h3>I/O</h3>
</div>
<div class="tile-card__body">
<p>Use our I/O components to implement simple or complex applications with EtherCAT and other common fieldbus systems.</p>
</div>
<div class="tile-card__link"><a href="/en-en/products/i-o/" title="I/O"><span>Learn more</span></a></div>
</div>
</div>
<div class="tile-grid__item">
<div class="tile-card">
<div class="tile-card__image"><img alt="" src="/media/bilder/kacheln/kacheln-motion/motion.png"/></div>
<div class="tile-card__title">
<h3>Motion</h3>
</div>
<div class="tile-card__body">
<p>Our innovative drive technologies give you almost unlimited capabilities when it comes to realizing your application.</p>
</div>
<div class="tile-card__link"><a href="/en-en/products/motion/" title="Motion"><span>Learn more</span></a></div>
</div>
</div>
<div class="tile-grid__item">
<div class="tile-card">
<div class="tile-card__image"><img alt="" src="/media/bilder/kacheln/kacheln-automation/automation.png"/></div>
<div class="tile-card__title">
<h3>Automation</h3>
</div>
<div class="tile-card__body">
<p>TwinCAT offers many features and various software function blocks for all automation tasks.</p>
</div>
<div class="tile-card__link"><a href="/en-en/products/automation/" title="Automation"><span>Learn more</span></a></div>
</div>
</div>
</div>
</div>
</div>
<div class="section-content section-context">
<a class="section-anchor" id="text_bild" name="text_bild"></a>
<div class="container">
<div class="row">
<div class="col col-12">
<div class="block-content block-context">
<h2 class="heading">All products at a glance</h2>
<div class="text wysiwyg">
<h3>Locate the components you need quickly and easily with our product finders.</h3>
</div>
<div class="text text--cta text--cta-lg">
<p>
<a class="btn " href="/en-en/products/ipc/product-finder-ipc/" target=""><span class="btn-text">Product finder IPC </span></a><a class="btn " href="/en-en/products/i-o/product-finder-i-o/" target=""><span class="btn-text">Product finder I/O</span></a><a class="btn " href="/en-en/products/motion/product-finder-motion/" target=""><span class="btn-text">Product finder Motion</span></a><a class="btn " href="/en-en/products/automation/product-finder-automation/" target=""><span class="btn-text">Product finder Automation</span></a>
</p>
</div>
</div>
</div>
</div>
</div>
</div>
<div class="section-content section-context">
<a class="section-anchor" id="text_bild_1" name="text_bild_1"></a>
<div class="container">
<div class="row">
<div class="col col-12">
<div class="block-content block-context">
<h2 class="heading">Our latest product news</h2>
<div class="text wysiwyg">
<h3>Discover our product news and find out how they can boost the performance of your application.</h3>
</div>
<div class="text text--cta text--cta-lg">
<p>
<a class="btn " href="/en-en/products/news/" target=""><span class="btn-text">Beckhoff product news</span></a>
</p>
</div>
</div>
</div>
</div>
</div>
</div>
<div class="section-content hidden" data-cms-native-language="EN-EN" data-cms-page-id="216812" data-plugin="listing" data-search='{"tagging_page_ss":[216812],"cms_templatename":["Card"]}' data-template="news-tiles">
<a class="section-anchor" id="news_liste" name="news_liste"></a>
<div class="news news--tiles">
<div class="container">
<div class="row">
<div class="col col-12">
<h2 class="heading">News</h2>
</div>
</div>
<div class="row">
<div class="col col-12">
<form autocomplete="off" data-facet-field-name="tagging_category_ss" data-facet-field-query="or" data-facet-field-type="checkbox">
<div class="toolbar-container item-list__filter">
<div class="filter-toggle">
<a class="toggle-expandable active" data-target="#toggle_248544" href="">
<span class="linktext">Filter options</span>
</a>
</div>
<div class="expandable in toolbar filter-horizontal" id="toggle_248544">
<div class="toolbar-item">
<div class="toolbar-checkbox filter-select-all">
<input checked="checked" id="248544_filter_all" type="checkbox"/>
<label for="248544_filter_all">Select all</label>
</div>
</div>
<div class="toolbar-item">
<div class="toolbar-checkbox filter-select-default">
<input data-facet-field="tagging_category_ss" id="248544_tagging_category_ss-1" name="248544_tagging_category_ss-1" type="checkbox" value="Company"/>
<label for="248544_tagging_category_ss-1">Company</label>
</div>
</div>
<div class="toolbar-item">
<div class="toolbar-checkbox filter-select-default">
<input data-facet-field="tagging_category_ss" id="248544_tagging_category_ss-2" name="248544_tagging_category_ss-2" type="checkbox" value="Events"/>
<label for="248544_tagging_category_ss-2">Events</label>
</div>
</div>
<div class="toolbar-item">
<div class="toolbar-checkbox filter-select-default">
<input data-facet-field="tagging_category_ss" id="248544_tagging_category_ss-3" name="248544_tagging_category_ss-3" type="checkbox" value="Products"/>
<label for="248544_tagging_category_ss-3">Products</label>
</div>
</div>
<div class="toolbar-item">
<div class="toolbar-checkbox filter-select-default">
<input data-facet-field="tagging_category_ss" id="248544_tagging_category_ss-4" name="248544_tagging_category_ss-4" type="checkbox" value="Industries"/>
<label for="248544_tagging_category_ss-4">Industries</label>
</div>
</div>
</div>
</div>
</form>
</div>
</div>
<div class="row">
<div class="news__list item-list">
<div class="col col-12">
                      Loading content ...
                    </div>
</div>
</div>
<div class="row">
<div class="col col-12">
<div class="news__cta">
<a class="btn btn-link" href="/en-en/company/news/">
<span class="btn-text">More news</span>
</a>
</div>
</div>
</div>
</div>
</div>
<div class="item-list__limit">
<input type="hidden" value="5"/>
</div>
</div>
</main>
<footer class="footer">
<div class="footer-links">
<div class="container">
<div class="row">
<div class="col col-4">
<div class="footer-info">
<img alt="Beckhoff New Automation Technology" src="../media/layoutassets/img/beckhoff_logo_full_inverted_2x.png"/>
<p><strong>Headquarters Germany</strong></p>
<p>
                      Beckhoff Automation GmbH &amp; Co. KG
                      <br/>HÃ¼lshorstweg 20
                      <br/><span itemprop="postalCode">33415</span> <span itemprop="addressLocality">Verl</span>
</p>
<dl>
<dt class="sr-only">Phone</dt>
<dd>
<a class="link link--phone" href="tel:+4952469630">
<span itemprop="telephone">+49 5246 963-0</span>
</a>
</dd>
</dl>
<p>
<a class="link link--mail" href="mailto:info@beckhoff.com" itemprop="email">info@beckhoff.com</a>
<br/><a class="link link--web" href="https://www.beckhoff.com">www.beckhoff.com</a>
</p>
<p>
<a class="link link--mail" href="/en-en/newsletter/index.aspx">Newsletter</a>
</p>
<p>
<button class="link link--print" onclick="window.print()" type="button">Print page</button>
</p>
</div>
</div>
<div class="col col-2">
<a class="toggle-quicklinks" href="">Company</a>
<ul class="quicklinks">
<li>
<a href="/en-en/company/">Company profile</a>
</li>
<li>
<a href="/en-en/company/global-presence/">Global presence</a>
</li>
<li>
<a href="/en-en/company/job-opportunities/">Job opportunities</a>
</li>
<li>
<a href="/en-en/company/news/">News</a>
</li>
<li>
<a href="/en-en/company/events-and-dates/">Events and dates</a>
</li>
</ul>
<a class="toggle-quicklinks" href="">Social media</a>
<ul class="quicklinks social">
<li>
<a href="https://www.linkedin.com/company/beckhoff-automation" target="_blank"><i class="icon icon-linkedin"></i> LinkedIn</a>
</li>
<li>
<a href="https://twitter.com/Beckhoff" target="_blank"><i class="icon icon-twitter"></i> Twitter</a>
</li>
<li>
<a href="https://www.instagram.com/beckhoff_com/" target="_blank"><i class="icon icon-instagram"></i>  Instagram</a>
</li>
<li>
<a href="https://www.facebook.com/Beckhoff" target="_blank"><i class="icon icon-facebook"></i> Facebook</a>
</li>
<li>
<a href="https://vimeo.com/channels/beckhoffen" target="_blank"><i class="icon icon-vimeo"></i>   Vimeo</a>
</li>
<li>
<a href="https://www.xing.com/companies/beckhoffautomationgmbh%26co.kg" target="_blank"><i class="icon icon-xing"></i>   XING</a>
</li>
<li>
<a href="https://www.youtube.com/BeckhoffAutomationWorldwide" target="_blank"><i class="icon icon-youtube"></i> YouTube</a>
</li>
</ul>
</div>
<div class="col col-2">
<a class="toggle-quicklinks" href="">Products and technologies</a>
<ul class="quicklinks">
<li>
<a href="/en-en/products/ipc/">Industrial PCs</a>
</li>
<li>
<a href="/en-en/products/ipc/embedded-pcs/">Embedded PCs</a>
</li>
<li>
<a href="/en-en/products/i-o/ethercat/">EtherCAT</a>
</li>
<li>
<a href="/en-en/products/i-o/ethercat-terminals/">EtherCAT terminals</a>
</li>
<li>
<a href="/en-en/products/i-o/ethercat-box/">EtherCAT Box</a>
</li>
<li>
<a href="/en-en/products/i-o/overview-fieldbus-systems/">Fieldbus systems</a>
</li>
<li>
<a href="/en-en/products/motion/servo-drives/">Servo drives</a>
</li>
<li>
<a href="/en-en/products/motion/rotary-servomotors/">Servomotors</a>
</li>
<li>
<a href="/en-en/products/motion/xts-linear-product-transport/">XTS | eXtended Transport System</a>
</li>
<li>
<a href="/en-en/products/motion/xplanar-planar-motor-system/">XPlanar | eXtended Planar motor system</a>
</li>
<li>
<a href="/en-en/products/automation/twincat/">TwinCAT</a>
</li>
<li>
<a href="/en-en/products/automation/twinsafe/">TwinSAFE</a>
</li>
</ul>
</div>
<div class="col col-2">
<a class="toggle-quicklinks" href="">Support</a>
<ul class="quicklinks">
<li>
<a href="/en-en/support/our-support-services/">Technical support</a>
</li>
<li>
<a href="/en-en/support/our-service-offerings/">Service</a>
</li>
<li>
<a href="/en-en/support/training-offerings/">Training</a>
</li>
<li>
<a href="/en-en/support/webinars/">Webinars</a>
</li>
<li>
<a href="https://infosys.beckhoff.com/" target="_blank">Beckhoff Information System</a>
</li>
<li>
<a href="/en-en/support/download-finder/index-2.html">Download finder</a>
</li>
</ul>
</div>
<div class="col col-2">
<a class="toggle-quicklinks" href="">Additional websites</a>
<ul class="quicklinks">
<li>
<a href="https://www.pc-control.net/english" target="_blank">PC Control company magazine</a>
</li>
</ul>
</div>
</div>
</div>
</div>
<div class="footer-lastline">
<div class="container">
<div class="footer-lastline__container">
<div class="footer-lastline__left">
<a href="/en-en/legal-notice/">Legal notice</a>
<a href="/en-en/terms-of-use/">Terms of use</a>
<a href="/en-en/data-privacy-policy/">Data privacy policy</a>
<a href="/en-en/general-terms-and-conditions/">General terms and conditions</a>
</div>
<div class="footer-lastline__right">
<a href="/en-en/trademarks/">Trademarks</a>
<span>Â© Beckhoff Automation 2021</span>
</div>
</div>
</div>
</div>
<div class="toplink invisible">
<a href="#top" title="Scroll to top"><i class="icon icon-arrow-up"></i></a>
</div>
</footer>
<div aria-labelledby="modalLangRegion" class="modal fade in" id="modal_lang_region" role="dialog" tabindex="-1">
<button aria-label="Close" class="close" data-dismiss="modal" type="button">
<svg height="25" viewbox="0 0 25 25" width="25" xmlns="http://www.w3.org/2000/svg">
<polygon fill-rule="evenodd" points="12 10.5 1.5 0 0 1.5 10.5 12 0 22.5 1.5 24 12 13.5 22.5 24 24 22.5 13.5 12 24 1.5 22.5 0" transform="translate(.186 .94)"></polygon>
</svg>
</button>
<div class="modal-dialog" role="document">
<div class="modal-content">
<div class="modal-header">
<h3 class="modal-title" id="modalLangRegion">Please choose your region and language </h3>
</div>
<div class="modal-body"></div>
</div>
</div>
</div>
<div class="modal-dialog modal-lg mfp-hide" id="download-cart__modal" role="dialog" tabindex="-1">
<div class="modal-content angular padded">
<div class="modal-header">
<h5>Download list</h5>
</div>
<div class="modal-body">
<div class="iframe-wrapper mb-20">
<iframe src="/en-en/download-list/download-list-modal/index.aspx"></iframe>
</div>
<a class="btn" href="/en-en/mybeckhoff/software-downloads/index.aspx">Start download</a>
<a class="btn btn-white btn-plain" href="#" onclick="$('#download-cart__modal').magnificPopup('close'); return false;">Add further downloads</a>
</div>
</div>
</div>
<div class="mfp-hide" id="multimedia-popup">
<div class="mfp-iframe-scaler">
<iframe allowfullscreen="" class="mfp-iframe" frameborder="0" id="multimedia-iframe" src="about:blank"></iframe>
</div>
</div>
</div>
</div>
<script src="/media/layoutassets/js/built.min.js?12322021093213"></script>
<script>
    var cmLinks = [		
 ["/en-en/legal-notice/","Legal Notice"],
 ["/en-en/data-privacy-policy/","Data Privacy Policy"],
 ["/en-en/general-terms-and-conditions/","General terms and conditions "],
		];
// remove consent dialog from DOM
function removeConsentQuery(consent, service) {
    $('.cm-consent-query[data-service="' + service.name + '"]').parent().removeClass("cm-consent-query-active");
    $('.cm-consent-query[data-service="' + service.name + '"]').remove();  
}
// adjustments to klaro popup
function buildKlaroFooter(links) {
  var footer = "";
  links.forEach(function (el) {
    footer += '<a href="' + el[0] + '">' + el[1] + "</a>";
  });
  $("#klaro .cm-footer").append(
    '<div class="cm-footer-nav">' + footer + "</div>"
  );
    if ($("html").attr("lang") === "he-il") {
      $("#klaro .cm-modal").attr("dir", "rtl")
    }
}
  function loadKlaro() {
    if (typeof klaro === "undefined") {
      $('*[data-name="klaroscript"]').attr(
        "src",
        $('*[data-name="klaroscript"]').attr("data-src")
      );
      $('*[data-name="klaroscript"]').attr("type", "application/javascript");
      $.ajax({
        url: '/media/layoutassets/js/klaro.js',
        dataType: "jsonp",
        success: function () {
          console.log("done");
        },
      });
      setTimeout(function () {
        klaro.show();
      }, 1000);
    } else {
      klaro.show();
	  buildKlaroFooter(cmLinks)
    }
  }
var cmHideModal = false;
$(window).on("load", function () {
  var klaroscript = document.querySelector("#klaroscript");
  var config = { attributes: true, childList: true, characterData: true };
  if (!cmHideModal) {
    $('*[data-name="klaroscript"]').attr(
      "src",
      $('*[data-name="klaroscript"]').attr("data-src")
    );
    $('*[data-name="klaroscript"]').attr("type", "application/javascript");
	$.ajax({
        url: '/media/layoutassets/js/klaro.js',
        dataType: "jsonp",
    })
  }
});
var cmConfig = {	  
translations: {
  en: {
    privacyPolicyUrl: 'data-privacy-policy/',
    purposeItem: {
      service: "Service",
      services: "Services",
    },
    privacyPolicy: {
      name: "Privacy Policy.",
      text: "{privacyPolicy}",
    },
    policyReminder: "Please refer here to our",
    acceptSelected: "Confirm selection",
    acceptAll: "Select all",
    consentModal: {
      title: "Privacy settings",
      description: "In order to offer you an optimum website experience, cookies are used for performance, statistical and comfort purposes as well as the display of personalized contents. Further information on this and your user rights can be found in our",
      privacyPolicy: {
        text: "{privacyPolicy}.",
        name: "Privacy Policy.",
      },
    },
    ok: "Accept",
    decline: "decline",
    save:  "Save",
    service: {    
	    purpose: "Purpose",
	    purposes: "Purposes",
	    required: {
		    description: "This service is always required",
		    title: "(always required)"
		}
	},
    purposes: {
	      "required": {
	        title:  "Required",
	        description: "These technologies are required in order to activate the core functionality of the website.",
	      },
	      "analytics": {
	        title:  "Performance & statistics",
	        description: "These technologies enable us to analyze the use of the website in order to measure and improve its performance.",
	      },
	      "personalisation": {
	        title:  "Personalization",
	        description: "These technologies enable us to provide personalized contents.",
	      },
    },
	matomo: {
	    description: "This enables us to learn in an anonymized manner how visitors use our website in order to improve our website and adapt it to suit the visitors' needs.",
	        consentQuery: '',
	    },	    
	googleMaps: {
	    description: "This is an online map service.",
	        consentQuery: "When you click on \"Accept\", we show the map and adjust the privacy settings; external content from Google Maps is loaded during this process.",
	    },	    
	vimeo: {
	    description: "This is a video player service.",
	        consentQuery: "When you click on \"Accept\", we show the video and adjust the privacy settings; external content from Video is loaded during this process.",
	    },	    
	auth: {
	    description: "This enables us to provide authentication, with which you can log into myBeckhoff, and to note your previous actions, e.g. the selection of your prior cookie consent.",
	        consentQuery: '',
	    },	    
  },
},
services: [
  {
    name: 'matomo',
    title: "Matomo/Piwik",
    default: false,
    purposes: ["analytics",],
    required: false,
    onlyOnce: false,
    image: '',
    callback: function(consent,service) {    	
    	if(klaro.getManager){
    		console.log(klaro.getManager());
    		logStatus(consent, service, "en-en")
    	} 
    },
    cookies: [ [/^_pk_.*$/, "/", "beckhoff.com"],
 [/^_pk_.*$/, "/", "localhost"], 
 "piwik_ignore",],
  },  	
  {
    name: 'googleMaps',
    title: "Google Maps",
    default: false,
    purposes: ["personalisation",],
    required: false,
    onlyOnce: false,
    image: '/media/worldwide.png',
    callback: function(consent,service) {    	
    	if(klaro.getManager){
    		console.log(klaro.getManager());
    		logStatus(consent, service, "en-en")
    	} 
	    	if(consent){
	    		removeConsentQuery(consent,service)
	    	}
    },
    cookies: ["NID", "PREF", "khcookie"],
  },  	
  {
    name: 'vimeo',
    title: "Vimeo",
    default: false,
    purposes: ["personalisation",],
    required: false,
    onlyOnce: false,
    image: '',
    callback: function(consent,service) {    	
    	if(klaro.getManager){
    		console.log(klaro.getManager());
    		logStatus(consent, service, "en-en")
    	} 
	    	if(consent){
	    		removeConsentQuery(consent,service)
	    	}
    },
    cookies: ["aka_debug"],
  },  	
  {
    name: 'auth',
    title: "Authentification",
    default: true,
    purposes: ["required",],
    required: true,
    onlyOnce: false,
    image: '',
    callback: function(consent,service) {    	
    	if(klaro.getManager){
    		console.log(klaro.getManager());
    		logStatus(consent, service, "en-en")
    	} 
    },
  },  	
  ],
}
    </script>
<script data-name="klaroscript" data-src="/media/layoutassets/js/klaro.js?12322021093213" id="klaroscript" type="text/plain"></script>
<!--/media/layoutassets/js/built.min.js.map-->
<!--/media/layoutassets/js/built.js-->
<script src="https://webapp.beckhoff-web-services.com/mybeckhoff/jquery.mybeckhoff.min.js?12322021093213"></script>
<script src="https://webapp.beckhoff-web-services.com/search/jquery.search.min.js?12322021093213"></script>
<script src="https://webapp.beckhoff-web-services.com/navigation/jquery.navigation.min.js?12322021093213"></script>
<script src="https://webapp.beckhoff-web-services.com/listing/jquery.listing.min.js?12322021093213"></script>
<script src="https://webapp.beckhoff-web-services.com/download-cart/jquery.download-cart.min.js?12322021093213"></script>
<!--<script src="https://maps.googleapis.com/maps/api/js?key=AIzaSyCZfl6yxReAYttw8gWreae0NH_EtGzGct4&v=3.exp"></script>-->
<!--<script src="https://webapp.beckhoff-web-services.com/map/jquery.map.min.js?12322021093213"></script>-->
<!-- Matomo -->
<script data-name="matomo" data-type="application/javascript" type="text/plain">
      var _paq = window._paq || [];
      /* tracker methods like "setCustomDimension" should be called before "trackPageView" */
      _paq.push(['trackPageView']);
      _paq.push(['enableLinkTracking']);
      (function() {
        var u="//statistics.beckhoff.com/";
        _paq.push(['setTrackerUrl', u+'matomo.php']);
        _paq.push(['setSiteId', '1']);
        var d=document, g=d.createElement('script'), s=d.getElementsByTagName('script')[0];
        g.type='text/javascript'; g.async=true; g.defer=true; g.src=u+'matomo.js'; s.parentNode.insertBefore(g,s);
      })();
    </script>
<!-- End Matomo Code -->
<!-- Rendering time: 1260 ms -->
</body>
</html>
