<!DOCTYPE html>
<html lang="en">
<head>
<meta content="text/html; charset=utf-8" http-equiv="Content-Type"/>
<meta content="IE=edge" http-equiv="X-UA-Compatible"/>
<meta content="width=device-width,initial-scale=1,maximum-scale=1,user-scalable=0" name="viewport"/>
<title>Children's Bedtime Stories, Poems and Prayers Bedtime</title>
<meta content="INDEX,FOLLOW" name="ROBOTS"/>
<link href="https://www.bedtime.com/wp-content/themes/bedtime/favicons/apple-touch-icon-57x57.png" rel="apple-touch-icon" sizes="57x57"/>
<link href="https://www.bedtime.com/wp-content/themes/bedtime/favicons/apple-touch-icon-60x60.png" rel="apple-touch-icon" sizes="60x60"/>
<link href="https://www.bedtime.com/wp-content/themes/bedtime/favicons/apple-touch-icon-72x72.png" rel="apple-touch-icon" sizes="72x72"/>
<link href="https://www.bedtime.com/wp-content/themes/bedtime/favicons/apple-touch-icon-76x76.png" rel="apple-touch-icon" sizes="76x76"/>
<link href="https://www.bedtime.com/wp-content/themes/bedtime/favicons/apple-touch-icon-114x114.png" rel="apple-touch-icon" sizes="114x114"/>
<link href="https://www.bedtime.com/wp-content/themes/bedtime/favicons/apple-touch-icon-120x120.png" rel="apple-touch-icon" sizes="120x120"/>
<link href="https://www.bedtime.com/wp-content/themes/bedtime/favicons/apple-touch-icon-144x144.png" rel="apple-touch-icon" sizes="144x144"/>
<link href="https://www.bedtime.com/wp-content/themes/bedtime/favicons/apple-touch-icon-152x152.png" rel="apple-touch-icon" sizes="152x152"/>
<link href="https://www.bedtime.com/wp-content/themes/bedtime/favicons/apple-touch-icon-180x180.png" rel="apple-touch-icon" sizes="180x180"/>
<link href="https://www.bedtime.com/wp-content/themes/bedtime/favicons/favicon-32x32.png" rel="icon" sizes="32x32" type="image/png"/>
<link href="https://www.bedtime.com/wp-content/themes/bedtime/favicons/android-chrome-192x192.png" rel="icon" sizes="192x192" type="image/png"/>
<link href="https://www.bedtime.com/wp-content/themes/bedtime/favicons/favicon-96x96.png" rel="icon" sizes="96x96" type="image/png"/>
<link href="https://www.bedtime.com/wp-content/themes/bedtime/favicons/favicon-16x16.png" rel="icon" sizes="16x16" type="image/png"/>
<link href="https://www.bedtime.com/wp-content/themes/bedtime/favicons/manifest.json" rel="manifest"/>
<meta content="#2b5797" name="msapplication-TileColor"/>
<meta content="https://www.bedtime.com/wp-content/themes/bedtime/favicons/mstile-144x144.png" name="msapplication-TileImage"/>
<meta content="#ffffff" name="theme-color"/>
<!-- PVC Template -->
<script id="pvc-stats-view-template" type="text/template">
    <i class="pvc-stats-icon medium" aria-hidden="true"><svg xmlns="http://www.w3.org/2000/svg" version="1.0" viewBox="0 0 502 315" preserveAspectRatio="xMidYMid meet"><g transform="translate(0,332) scale(0.1,-0.1)" fill="" stroke="none"><path d="M2394 3279 l-29 -30 -3 -207 c-2 -182 0 -211 15 -242 39 -76 157 -76 196 0 15 31 17 60 15 243 l-3 209 -33 29 c-26 23 -41 29 -80 29 -41 0 -53 -5 -78 -31z"/><path d="M3085 3251 c-45 -19 -58 -50 -96 -229 -47 -217 -49 -260 -13 -295 52 -53 146 -42 177 20 16 31 87 366 87 410 0 70 -86 122 -155 94z"/><path d="M1751 3234 c-13 -9 -29 -31 -37 -50 -12 -29 -10 -49 21 -204 19 -94 39 -189 45 -210 14 -50 54 -80 110 -80 34 0 48 6 76 34 21 21 34 44 34 59 0 14 -18 113 -40 219 -37 178 -43 195 -70 221 -36 32 -101 37 -139 11z"/><path d="M1163 3073 c-36 -7 -73 -59 -73 -102 0 -56 133 -378 171 -413 34 -32 83 -37 129 -13 70 36 67 87 -16 290 -86 209 -89 214 -129 231 -35 14 -42 15 -82 7z"/><path d="M3689 3066 c-15 -9 -33 -30 -42 -48 -48 -103 -147 -355 -147 -375 0 -98 131 -148 192 -74 13 15 57 108 97 206 80 196 84 226 37 273 -30 30 -99 39 -137 18z"/><path d="M583 2784 c-38 -19 -67 -74 -58 -113 9 -42 211 -354 242 -373 16 -10 45 -18 66 -18 51 0 107 52 107 100 0 39 -1 41 -124 234 -80 126 -108 162 -133 173 -41 17 -61 16 -100 -3z"/><path d="M4250 2784 c-14 -9 -74 -91 -133 -183 -95 -150 -107 -173 -107 -213 0 -55 33 -94 87 -104 67 -13 90 8 211 198 130 202 137 225 78 284 -27 27 -42 34 -72 34 -22 0 -50 -8 -64 -16z"/><path d="M2275 2693 c-553 -48 -1095 -270 -1585 -649 -135 -104 -459 -423 -483 -476 -23 -49 -22 -139 2 -186 73 -142 361 -457 571 -626 285 -228 642 -407 990 -497 242 -63 336 -73 660 -74 310 0 370 5 595 52 535 111 1045 392 1455 803 122 121 250 273 275 326 19 41 19 137 0 174 -41 79 -309 363 -465 492 -447 370 -946 591 -1479 653 -113 14 -422 18 -536 8z m395 -428 c171 -34 330 -124 456 -258 112 -119 167 -219 211 -378 27 -96 24 -300 -5 -401 -72 -255 -236 -447 -474 -557 -132 -62 -201 -76 -368 -76 -167 0 -236 14 -368 76 -213 98 -373 271 -451 485 -162 444 86 934 547 1084 153 49 292 57 452 25z m909 -232 c222 -123 408 -262 593 -441 76 -74 138 -139 138 -144 0 -16 -233 -242 -330 -319 -155 -123 -309 -223 -461 -299 l-81 -41 32 46 c18 26 49 83 70 128 143 306 141 649 -6 957 -25 52 -61 116 -79 142 l-34 47 45 -20 c26 -10 76 -36 113 -56z m-2057 25 c-40 -58 -105 -190 -130 -263 -110 -324 -59 -707 132 -981 25 -35 42 -64 37 -64 -19 0 -241 119 -326 174 -188 122 -406 314 -532 468 l-58 71 108 103 c185 178 428 349 672 473 66 33 121 60 123 61 2 0 -10 -19 -26 -42z"/><path d="M2375 1950 c-198 -44 -350 -190 -395 -379 -18 -76 -8 -221 19 -290 114 -284 457 -406 731 -260 98 52 188 154 231 260 27 69 37 214 19 290 -38 163 -166 304 -326 360 -67 23 -215 33 -279 19z"/></g></svg></i> 
	 <%= total_view %> total views	<% if ( today_view > 0 ) { %>
		<span class="views_today">,  <%= today_view %> views today</span>
	<% } %>
	</span>
	</script>
<!-- This site is optimized with the Yoast SEO plugin v15.5 - https://yoast.com/wordpress/plugins/seo/ -->
<meta content="Bedtime Stories, Poems and Prayers for children of all ages. The best bedtime stories on the web" name="description"/>
<meta content="index, follow, max-snippet:-1, max-image-preview:large, max-video-preview:-1" name="robots"/>
<link href="https://www.bedtime.com/" rel="canonical"/>
<meta content="en_US" property="og:locale"/>
<meta content="website" property="og:type"/>
<meta content="Children's Bedtime Stories, Poems and Prayers" property="og:title"/>
<meta content="Bedtime Stories, Poems and Prayers for children of all ages. The best bedtime stories on the web" property="og:description"/>
<meta content="https://www.bedtime.com/" property="og:url"/>
<meta content="Bedtime" property="og:site_name"/>
<meta content="2019-06-18T18:43:16+00:00" property="article:modified_time"/>
<meta content="summary" name="twitter:card"/>
<meta content="Est. reading time" name="twitter:label1"/>
<meta content="3 minutes" name="twitter:data1"/>
<script class="yoast-schema-graph" type="application/ld+json">{"@context":"https://schema.org","@graph":[{"@type":"Organization","@id":"https://www.bedtime.com/#organization","name":"Bedtime.com, LLC","url":"https://www.bedtime.com/","sameAs":[],"logo":{"@type":"ImageObject","@id":"https://www.bedtime.com/#logo","inLanguage":"en-US","url":"https://www.bedtime.com/wp-content/uploads/2015/08/Bedtime-Logo-Web-Use.png","width":600,"height":126,"caption":"Bedtime.com, LLC"},"image":{"@id":"https://www.bedtime.com/#logo"}},{"@type":"WebSite","@id":"https://www.bedtime.com/#website","url":"https://www.bedtime.com/","name":"Bedtime","description":"Children&#039;s Short Stories, Poems and Prayers","publisher":{"@id":"https://www.bedtime.com/#organization"},"potentialAction":[{"@type":"SearchAction","target":"https://www.bedtime.com/?s={search_term_string}","query-input":"required name=search_term_string"}],"inLanguage":"en-US"},{"@type":"WebPage","@id":"https://www.bedtime.com/#webpage","url":"https://www.bedtime.com/","name":"Children's Bedtime Stories, Poems and Prayers","isPartOf":{"@id":"https://www.bedtime.com/#website"},"about":{"@id":"https://www.bedtime.com/#organization"},"datePublished":"2016-09-06T00:49:48+00:00","dateModified":"2019-06-18T18:43:16+00:00","description":"Bedtime Stories, Poems and Prayers for children of all ages. The best bedtime stories on the web","inLanguage":"en-US","potentialAction":[{"@type":"ReadAction","target":["https://www.bedtime.com/"]}]}]}</script>
<!-- / Yoast SEO plugin. -->
<link href="//fonts.googleapis.com" rel="dns-prefetch"/>
<link href="//s.w.org" rel="dns-prefetch"/>
<script type="text/javascript">
			window._wpemojiSettings = {"baseUrl":"https:\/\/s.w.org\/images\/core\/emoji\/13.0.0\/72x72\/","ext":".png","svgUrl":"https:\/\/s.w.org\/images\/core\/emoji\/13.0.0\/svg\/","svgExt":".svg","source":{"concatemoji":"https:\/\/www.bedtime.com\/wp-includes\/js\/wp-emoji-release.min.js"}};
			!function(e,a,t){var r,n,o,i,p=a.createElement("canvas"),s=p.getContext&&p.getContext("2d");function c(e,t){var a=String.fromCharCode;s.clearRect(0,0,p.width,p.height),s.fillText(a.apply(this,e),0,0);var r=p.toDataURL();return s.clearRect(0,0,p.width,p.height),s.fillText(a.apply(this,t),0,0),r===p.toDataURL()}function l(e){if(!s||!s.fillText)return!1;switch(s.textBaseline="top",s.font="600 32px Arial",e){case"flag":return!c([127987,65039,8205,9895,65039],[127987,65039,8203,9895,65039])&&(!c([55356,56826,55356,56819],[55356,56826,8203,55356,56819])&&!c([55356,57332,56128,56423,56128,56418,56128,56421,56128,56430,56128,56423,56128,56447],[55356,57332,8203,56128,56423,8203,56128,56418,8203,56128,56421,8203,56128,56430,8203,56128,56423,8203,56128,56447]));case"emoji":return!c([55357,56424,8205,55356,57212],[55357,56424,8203,55356,57212])}return!1}function d(e){var t=a.createElement("script");t.src=e,t.defer=t.type="text/javascript",a.getElementsByTagName("head")[0].appendChild(t)}for(i=Array("flag","emoji"),t.supports={everything:!0,everythingExceptFlag:!0},o=0;o<i.length;o++)t.supports[i[o]]=l(i[o]),t.supports.everything=t.supports.everything&&t.supports[i[o]],"flag"!==i[o]&&(t.supports.everythingExceptFlag=t.supports.everythingExceptFlag&&t.supports[i[o]]);t.supports.everythingExceptFlag=t.supports.everythingExceptFlag&&!t.supports.flag,t.DOMReady=!1,t.readyCallback=function(){t.DOMReady=!0},t.supports.everything||(n=function(){t.readyCallback()},a.addEventListener?(a.addEventListener("DOMContentLoaded",n,!1),e.addEventListener("load",n,!1)):(e.attachEvent("onload",n),a.attachEvent("onreadystatechange",function(){"complete"===a.readyState&&t.readyCallback()})),(r=t.source||{}).concatemoji?d(r.concatemoji):r.wpemoji&&r.twemoji&&(d(r.twemoji),d(r.wpemoji)))}(window,document,window._wpemojiSettings);
		</script>
<style type="text/css">
img.wp-smiley,
img.emoji {
	display: inline !important;
	border: none !important;
	box-shadow: none !important;
	height: 1em !important;
	width: 1em !important;
	margin: 0 .07em !important;
	vertical-align: -0.1em !important;
	background: none !important;
	padding: 0 !important;
}
</style>
<link href="https://www.bedtime.com/wp-includes/css/dist/block-library/style.min.css" id="wp-block-library-css" media="all" rel="stylesheet" type="text/css"/>
<link href="https://www.bedtime.com/wp-content/plugins/page-views-count/assets/css/style.min.css" id="a3-pvc-style-css" media="all" rel="stylesheet" type="text/css"/>
<link href="https://www.bedtime.com/wp-content/plugins/wp-ulike/assets/css/wp-ulike.min.css" id="wp-ulike-css" media="all" rel="stylesheet" type="text/css"/>
<link href="//www.bedtime.com/wp-content/uploads/sass/pvc.min.css" id="a3pvc-css" media="all" rel="stylesheet" type="text/css"/>
<link href="https://www.bedtime.com/wp-content/plugins/wr-pagebuilder/assets/3rd-party/font-icomoon/css/icomoon.css" id="wr-pb-font-icomoon-css" media="all" rel="stylesheet" type="text/css"/>
<link href="https://www.bedtime.com/wp-content/plugins/wr-pagebuilder/assets/3rd-party/bootstrap3/css/bootstrap_frontend.min.css" id="wr-pb-bootstrap-css" media="all" rel="stylesheet" type="text/css"/>
<link href="https://www.bedtime.com/wp-content/plugins/wr-pagebuilder/assets/woorockets/css/jsn-gui-frontend.css" id="wr-pb-joomlashine-frontend-css" media="all" rel="stylesheet" type="text/css"/>
<link href="https://www.bedtime.com/wp-content/plugins/wr-pagebuilder/assets/woorockets/css/front_end.css" id="wr-pb-frontend-css" media="all" rel="stylesheet" type="text/css"/>
<link href="https://www.bedtime.com/wp-content/plugins/wr-pagebuilder/assets/woorockets/css/front_end_responsive.css" id="wr-pb-frontend-responsive-css" media="all" rel="stylesheet" type="text/css"/>
<link href="https://www.bedtime.com/wp-content/themes/bedtime/css/jquery.mCustomScrollbar.min.css" id="scroller_css-css" media="screen" rel="stylesheet" type="text/css"/>
<link href="//fonts.googleapis.com/css?family=Lato%3A100%2C300%2C400%2C700%2C900&amp;ver=5.5.3" id="font_google-css" media="all" rel="stylesheet" type="text/css"/>
<link href="https://www.bedtime.com/wp-content/themes/bedtime/css/bootstrap.min.css" id="bootstrap-css" media="all" rel="stylesheet" type="text/css"/>
<link href="https://www.bedtime.com/wp-content/themes/bedtime/css/bootstrap-theme.min.css" id="bootstrap_theme-css" media="all" rel="stylesheet" type="text/css"/>
<link href="https://www.bedtime.com/wp-content/themes/bedtime/css/font-awesome.min.css" id="font_awesome-css" media="all" rel="stylesheet" type="text/css"/>
<link href="https://www.bedtime.com/wp-content/themes/bedtime/style.css" id="genstyle-css" media="screen" rel="stylesheet" type="text/css"/>
<script id="jquery-core-js" src="https://www.bedtime.com/wp-includes/js/jquery/jquery.js" type="text/javascript"></script>
<script id="underscore-js" src="https://www.bedtime.com/wp-includes/js/underscore.min.js" type="text/javascript"></script>
<script id="backbone-js" src="https://www.bedtime.com/wp-includes/js/backbone.min.js" type="text/javascript"></script>
<script id="a3-pvc-backbone-js-extra" type="text/javascript">
/* <![CDATA[ */
var vars = {"rest_api_url":"https:\/\/www.bedtime.com\/wp-json\/pvc\/v1"};
/* ]]> */
</script>
<script id="a3-pvc-backbone-js" src="https://www.bedtime.com/wp-content/plugins/page-views-count/assets/js/pvc.backbone.min.js" type="text/javascript"></script>
<script id="bootstrap_script-js" src="https://www.bedtime.com/wp-content/themes/bedtime/js/bootstrap.min.js" type="text/javascript"></script>
<script id="responsive_tabs_script-js" src="https://www.bedtime.com/wp-content/themes/bedtime/js/responsive-tabs.js" type="text/javascript"></script>
<script id="sameheight_script-js" src="https://www.bedtime.com/wp-content/themes/bedtime/js/jquery.matchHeight-min.js" type="text/javascript"></script>
<script id="scroller_script-js" src="https://www.bedtime.com/wp-content/themes/bedtime/js/jquery.mCustomScrollbar.concat.min.js" type="text/javascript"></script>
<script id="custom_script-js" src="https://www.bedtime.com/wp-content/themes/bedtime/js/custom.js" type="text/javascript"></script>
<link href="https://www.bedtime.com/wp-json/" rel="https://api.w.org/"/><link href="https://www.bedtime.com/wp-json/wp/v2/pages/2728" rel="alternate" type="application/json"/><link href="https://www.bedtime.com/wp-includes/wlwmanifest.xml" rel="wlwmanifest" type="application/wlwmanifest+xml"/>
<meta content="WordPress 5.5.3" name="generator"/>
<link href="https://www.bedtime.com/" rel="shortlink"/>
<link href="https://www.bedtime.com/wp-json/oembed/1.0/embed?url=https%3A%2F%2Fwww.bedtime.com%2F" rel="alternate" type="application/json+oembed"/>
<link href="https://www.bedtime.com/wp-json/oembed/1.0/embed?url=https%3A%2F%2Fwww.bedtime.com%2F&amp;format=xml" rel="alternate" type="text/xml+oembed"/>
<style id="cresta-social-share-counter-inline-css">.cresta-share-icon .sbutton {font-family: 'Noto Sans', sans-serif;}#crestashareiconincontent {float: left;}</style><script type="text/javascript">
    window._mNHandle = window._mNHandle || {};
    window._mNHandle.queue = window._mNHandle.queue || [];
    medianet_versionId = "3121199";
</script>
<script async="async" src="//contextual.media.net/dmedianet.js?cid=8CUXV77G2"></script><style id="wr-pb-custom-2728-css">
</style>
<meta content="e5c50f615bf6baf79e72985cc16d3925" name="p:domain_verify"/>
</head>
<body class="home page-template-default page page-id-2728" data-rsssl="1" itemscope="" itemtype="http://schema.org/WebPage">
<div class="mainwrapper clearfix">
<div id="content_wrap">
<div class="navbarplace"></div>
<div class="mosttop">
<div class="container">
<div class="row">
<div class="col-md-12">
<div class="widget_text widget-odd widget-last widget-first widget-1 top-box clearfix widget_custom_html" id="custom_html-3"><div class="textwidget custom-html-widget"><script type="text/javascript">
    window._mNHandle = window._mNHandle || {};
    window._mNHandle.queue = window._mNHandle.queue || [];
    medianet_versionId = "3121199";
</script>
<script async="async" src="//contextual.media.net/dmedianet.js?cid=8CUXV77G2"></script>
<script id="mNCC" language="javascript">
    medianet_width = "300";
    medianet_height = "250";
    medianet_crid = "581364241";
    medianet_versionId = "3111299"; 
  </script>
<script src="//contextual.media.net/nmedianet.js?cid=8CUXV77G2"></script></div></div> </div>
</div>
</div>
</div>
<div class="headertop navbar_wrap ">
<div class="container">
<div class="row menurow">
<div class="col-md-3 col-sm-3 logo_col">
<div class="pull-left">
<a class="logo" href="https://www.bedtime.com" title="Bedtime - Children's Short Stories, Poems and Prayers">
<img alt="Bedtime" class="img-responsive" height="37" src="https://www.bedtime.com/wp-content/themes/bedtime/images/bedtime-stories-poems-prayers.png" width="186"/>
</a>
</div>
</div>
<div class="col-md-6 col-sm-6 primarymenu menucol" role="navigation">
<div class="navbar-header">
<div class="visible-xs-inline-block pull-right" id="search_toggler">
<i class="fa fa-search"></i>
</div>
<button class="navbar-toggle collapsed" data-target="#primary_nav" data-toggle="collapse" type="button">
<span class="sr-only">Toggle navigation</span>
<span class="icon-bar"></span>
<span class="icon-bar"></span>
<span class="icon-bar"></span>
</button>
</div>
<div class="">
<div class="collapse navbar-collapse" id="primary_nav"><ul class="nav navbar-nav" id="primary-menu"><li class="menu-item menu-item-type-post_type menu-item-object-page menu-item-42" id="menu-item-42"><a href="https://www.bedtime.com/stories/">Stories</a></li>
<li class="menu-item menu-item-type-post_type menu-item-object-page menu-item-41" id="menu-item-41"><a href="https://www.bedtime.com/poems/">Poems</a></li>
<li class="menu-item menu-item-type-post_type menu-item-object-page menu-item-40" id="menu-item-40"><a href="https://www.bedtime.com/prayers/">Prayers</a></li>
</ul></div> </div>
</div>
<div class="col-sm-3 menu_right_widget">
<div class="widget-odd widget-last widget-first widget-1 menu-box widget_search" id="search-2"><form action="https://www.bedtime.com/" class="searchform" id="searchform" method="get" role="search">
<div>
<label class="screen-reader-text" for="s">Search for:</label>
<input id="s" name="s" type="text" value=""/>
<input id="searchsubmit" type="submit" value="Search"/>
</div>
</form></div> </div>
</div>
<div class="row secmenu_row">
<div class="wraplow"></div>
<div class="secondary_menu oversidemargin overfix">
<div class="col-md-12">
<ul class="nav navbar-nav pull-right" id="secondary-menu"><li class="menu-item menu-item-type-post_type menu-item-object-page menu-item-43" id="menu-item-43"><a href="https://www.bedtime.com/authors/">Authors</a></li>
<li class="menu-item menu-item-type-post_type menu-item-object-page menu-item-225" id="menu-item-225"><a href="https://www.bedtime.com/get-published/" title="register">Get published</a></li>
<li class="menu-item menu-item-type-post_type menu-item-object-page menu-item-229" id="menu-item-229"><a href="https://www.bedtime.com/submit-story/">Submit Work</a></li>
<li class="menu-item menu-item-type-post_type menu-item-object-page menu-item-45" id="menu-item-45"><a href="https://www.bedtime.com/contact/">Contact</a></li>
<li class="menu-item menu-item-type-post_type menu-item-object-page menu-item-278" id="menu-item-278"><a href="https://www.bedtime.com/login/">Login</a></li>
</ul> </div>
</div>
</div>
<div class="row slider_row">
<div class="derow">
<div class="slider_wrapper clearfix">
<div class="col-md-12">
<div class="carousel slide topcarousel" data-interval="5000" data-ride="carousel" id="carousel-bedtime-offers">
<!--<ol class="carousel-indicators">
      <li data-target="#carousel-bedtime-offers" data-slide-to="0" class="active"></li>
        <li data-target="#carousel-bedtime-offers" data-slide-to="1" class=""></li>
        <li data-target="#carousel-bedtime-offers" data-slide-to="2" class=""></li>
        <li data-target="#carousel-bedtime-offers" data-slide-to="3" class=""></li>
        <li data-target="#carousel-bedtime-offers" data-slide-to="4" class=""></li>
        </ol>-->
<div class="carousel-inner">
<div class="item active">
<div class="top-box slide-frontpage slide0 top1 widget_text"><p><a href="https://www.bedtime.com/category/stories/adventure/" rel="attachment wp-att-2033"><img alt="adventure-banner" class="alignnone size-full wp-image-2033" height="274" loading="lazy" sizes="(max-width: 1000px) 100vw, 1000px" src="https://www.bedtime.com/wp-content/uploads/2015/06/adventure-banner.png" srcset="https://www.bedtime.com/wp-content/uploads/2015/06/adventure-banner.png 1000w, https://www.bedtime.com/wp-content/uploads/2015/06/adventure-banner-300x82.png 300w, https://www.bedtime.com/wp-content/uploads/2015/06/adventure-banner-128x35.png 128w" width="1000"/></a></p>
</div>
</div>
<div class="item ">
<div class="top-box slide-frontpage slide1 top2 widget_text"><p><a href="https://bedtime.com/category/stories/animal-stories/"><img alt="animal-banner" class="alignnone size-full wp-image-368" height="274" loading="lazy" sizes="(max-width: 1000px) 100vw, 1000px" src="https://bedtime.com/wp-content/uploads/2015/05/animal-banner.png" srcset="https://www.bedtime.com/wp-content/uploads/2015/05/animal-banner.png 1000w, https://www.bedtime.com/wp-content/uploads/2015/05/animal-banner-300x82.png 300w, https://www.bedtime.com/wp-content/uploads/2015/05/animal-banner-128x35.png 128w" width="1000"/></a></p>
<p> </p>
</div>
</div>
<div class="item ">
<div class="top-box slide-frontpage slide2 top3 widget_text"><p><a href="https://www.bedtime.com/category/stories/fables-bedtime-com/"><img alt="fables-banner (2)" class="alignnone size-full wp-image-366" height="274" loading="lazy" sizes="(max-width: 1000px) 100vw, 1000px" src="https://bedtime.com/wp-content/uploads/2015/05/fables-banner-2.png" srcset="https://www.bedtime.com/wp-content/uploads/2015/05/fables-banner-2.png 1000w, https://www.bedtime.com/wp-content/uploads/2015/05/fables-banner-2-300x82.png 300w, https://www.bedtime.com/wp-content/uploads/2015/05/fables-banner-2-128x35.png 128w" width="1000"/></a></p>
</div>
</div>
<div class="item ">
<div class="top-box slide-frontpage slide3 top4 widget_text"><p><a href="https://www.bedtime.com/category/stories/bedtime-stories-by-kids/"><img alt="stories-by-kids-banner (1)" class="alignnone size-full wp-image-359" height="274" loading="lazy" sizes="(max-width: 1000px) 100vw, 1000px" src="https://bedtime.com/wp-content/uploads/2015/05/stories-by-kids-banner-1.png" srcset="https://www.bedtime.com/wp-content/uploads/2015/05/stories-by-kids-banner-1.png 1000w, https://www.bedtime.com/wp-content/uploads/2015/05/stories-by-kids-banner-1-300x82.png 300w, https://www.bedtime.com/wp-content/uploads/2015/05/stories-by-kids-banner-1-128x35.png 128w" width="1000"/></a></p>
</div>
</div>
<div class="item ">
<div class="top-box slide-frontpage slide4 top5 widget_text"><p><a href="https://bedtime.com/get-published/"><img alt="become_author" class="alignnone wp-image-46 size-full" height="274" loading="lazy" sizes="(max-width: 1000px) 100vw, 1000px" src="https://bedtime.com/wp-content/uploads/2015/03/become_author.jpg" srcset="https://www.bedtime.com/wp-content/uploads/2015/03/become_author.jpg 1000w, https://www.bedtime.com/wp-content/uploads/2015/03/become_author-300x82.jpg 300w, https://www.bedtime.com/wp-content/uploads/2015/03/become_author-128x35.jpg 128w" width="1000"/></a></p>
</div>
</div>
</div>
<a class="left carousel-control" data-slide="prev" href="#carousel-bedtime-offers">
<span class="glyphicon glyphicon-chevron-left"></span>
</a>
<a class="right carousel-control" data-slide="next" href="#carousel-bedtime-offers">
<span class="glyphicon glyphicon-chevron-right"></span>
</a>
</div>
</div>
</div>
</div>
</div>
</div>
</div>
<div class="fixedmenu_wrapper clearfix">
</div>
<div class="main_cont_wrap frontpage clearfix">
<div class="container">
<div class="row row_frontpage">
<div class="maincontent_center col-md-12">
<article class="post-2728 page type-page status-publish hentry jsn-master" id="post-2728">
<div class="entry-content"><p></p><div class="jsn-bootstrap3"><div class="row " id="first_content_front_row" style="padding-top:0px;padding-bottom:0px;padding-left:0px;padding-right:0px;"><div class="col-md-8 col-sm-8 col-xs-12 "><div class="jsn-bootstrap3 wr-element-container wr-element-heading" style="margin-top:5px; margin-bottom:10px "><h2 style="">Featured Stories</h2></div><div class="jsn-bootstrap3 wr-element-container wr-element-tab greyblock" id="featured_tabs" style="margin-bottom:25px "><div class="tabbable " id="tab_MmtWzQ"><ul class="nav nav-tabs"><li class="active"><a href="#paneMmtWzQ0">Adventure</a></li><li><a href="#paneMmtWzQ1">Animal</a></li><li><a href="#paneMmtWzQ2">Fairy Tales</a></li><li><a href="#paneMmtWzQ3">Scary</a></li><li><a href="#paneMmtWzQ4">Funny</a></li><li><a href="#paneMmtWzQ5">Mysteries</a></li></ul><div class="tab-content"><div _wr_style_="" class="tab-pane active fade in" id="paneMmtWzQ0">
<p></p><ul class="bedtime-articles"><li><h3><a class="post-title" href="https://www.bedtime.com/gone-fishing/" title="Gone Fishing">Gone Fishing</a></h3><a class="btn read-more" href="https://www.bedtime.com/gone-fishing/" title="Gone Fishing">Display</a></li><li><h3><a class="post-title" href="https://www.bedtime.com/harrys-magic-pirate-ship/" title="Harry’s magic pirate ship">Harry’s magic pirate ship</a></h3><a class="btn read-more" href="https://www.bedtime.com/harrys-magic-pirate-ship/" title="Harry’s magic pirate ship">Display</a></li><li><h3><a class="post-title" href="https://www.bedtime.com/pugsley/" title="PUGSLEY">PUGSLEY</a></h3><a class="btn read-more" href="https://www.bedtime.com/pugsley/" title="PUGSLEY">Display</a></li><li><h3><a class="post-title" href="https://www.bedtime.com/trigs-smokin-wheels/" title="Trig’s Smokin’ Wheels">Trig’s Smokin’ Wheels</a></h3><a class="btn read-more" href="https://www.bedtime.com/trigs-smokin-wheels/" title="Trig’s Smokin’ Wheels">Display</a></li></ul>
</div><div _wr_style_="" class="tab-pane fade in" id="paneMmtWzQ1">
<p></p><ul class="bedtime-articles"><li><h3><a class="post-title" href="https://www.bedtime.com/a-surprise-gift/" title="A Surprise Gift">A Surprise Gift</a></h3><a class="btn read-more" href="https://www.bedtime.com/a-surprise-gift/" title="A Surprise Gift">Display</a></li><li><h3><a class="post-title" href="https://www.bedtime.com/pugsley/" title="PUGSLEY">PUGSLEY</a></h3><a class="btn read-more" href="https://www.bedtime.com/pugsley/" title="PUGSLEY">Display</a></li><li><h3><a class="post-title" href="https://www.bedtime.com/aloysiuss-secret/" title="Aloysius’s Secret">Aloysius’s Secret</a></h3><a class="btn read-more" href="https://www.bedtime.com/aloysiuss-secret/" title="Aloysius’s Secret">Display</a></li><li><h3><a class="post-title" href="https://www.bedtime.com/1927-2/" title="A Seaside Adventure (Ears Mouse)">A Seaside Adventure (Ears Mouse)</a></h3><a class="btn read-more" href="https://www.bedtime.com/1927-2/" title="A Seaside Adventure (Ears Mouse)">Display</a></li></ul>
</div><div _wr_style_="" class="tab-pane fade in" id="paneMmtWzQ2">
<p></p><ul class="bedtime-articles"><li><h3><a class="post-title" href="https://www.bedtime.com/abigail-queen-natronia/" title="Abigail Queen of Natronia">Abigail Queen of Natronia</a></h3><a class="btn read-more" href="https://www.bedtime.com/abigail-queen-natronia/" title="Abigail Queen of Natronia">Display</a></li><li><h3><a class="post-title" href="https://www.bedtime.com/adventures-cogs-tinkerer/" title="The Adventures of Cogs the Tinkerer">The Adventures of Cogs the Tinkerer</a></h3><a class="btn read-more" href="https://www.bedtime.com/adventures-cogs-tinkerer/" title="The Adventures of Cogs the Tinkerer">Display</a></li><li><h3><a class="post-title" href="https://www.bedtime.com/a-grand-journey/" title="A Grand Journey">A Grand Journey</a></h3><a class="btn read-more" href="https://www.bedtime.com/a-grand-journey/" title="A Grand Journey">Display</a></li><li><h3><a class="post-title" href="https://www.bedtime.com/snidely-the-bridge-troll/" title="Snidely the Bridge Troll">Snidely the Bridge Troll</a></h3><a class="btn read-more" href="https://www.bedtime.com/snidely-the-bridge-troll/" title="Snidely the Bridge Troll">Display</a></li></ul>
</div><div _wr_style_="" class="tab-pane fade in" id="paneMmtWzQ3">
<p></p><ul class="bedtime-articles"><li><h3><a class="post-title" href="https://www.bedtime.com/snidely-the-bridge-troll/" title="Snidely the Bridge Troll">Snidely the Bridge Troll</a></h3><a class="btn read-more" href="https://www.bedtime.com/snidely-the-bridge-troll/" title="Snidely the Bridge Troll">Display</a></li><li><h3><a class="post-title" href="https://www.bedtime.com/when-shadows-come/" title="When Shadows Come">When Shadows Come</a></h3><a class="btn read-more" href="https://www.bedtime.com/when-shadows-come/" title="When Shadows Come">Display</a></li><li><h3><a class="post-title" href="https://www.bedtime.com/the-skull-tree/" title="The Skull Tree">The Skull Tree</a></h3><a class="btn read-more" href="https://www.bedtime.com/the-skull-tree/" title="The Skull Tree">Display</a></li><li><h3><a class="post-title" href="https://www.bedtime.com/the-witchs-messangers/" title="The Witch’s Messangers">The Witch’s Messangers</a></h3><a class="btn read-more" href="https://www.bedtime.com/the-witchs-messangers/" title="The Witch’s Messangers">Display</a></li></ul>
</div><div _wr_style_="" class="tab-pane fade in" id="paneMmtWzQ4">
<p></p><ul class="bedtime-articles"><li><h3><a class="post-title" href="https://www.bedtime.com/857/" title="The Clam Said, Ouch!">The Clam Said, Ouch!</a></h3><a class="btn read-more" href="https://www.bedtime.com/857/" title="The Clam Said, Ouch!">Display</a></li><li><h3><a class="post-title" href="https://www.bedtime.com/lenny-the-flying-inventor-2/" title="Lenny the Flying Inventor">Lenny the Flying Inventor</a></h3><a class="btn read-more" href="https://www.bedtime.com/lenny-the-flying-inventor-2/" title="Lenny the Flying Inventor">Display</a></li><li><h3><a class="post-title" href="https://www.bedtime.com/up-up-and-away/" title="Up, Up and Away">Up, Up and Away</a></h3><a class="btn read-more" href="https://www.bedtime.com/up-up-and-away/" title="Up, Up and Away">Display</a></li><li><h3><a class="post-title" href="https://www.bedtime.com/ugg-yaak/" title="UGG…YAAK">UGG…YAAK</a></h3><a class="btn read-more" href="https://www.bedtime.com/ugg-yaak/" title="UGG…YAAK">Display</a></li></ul>
</div><div _wr_style_="" class="tab-pane fade in" id="paneMmtWzQ5">
<p></p><ul class="bedtime-articles"><li><h3><a class="post-title" href="https://www.bedtime.com/the-missing-picnic-food-2/" title="THE MISSING PICNIC FOOD">THE MISSING PICNIC FOOD</a></h3><a class="btn read-more" href="https://www.bedtime.com/the-missing-picnic-food-2/" title="THE MISSING PICNIC FOOD">Display</a></li><li><h3><a class="post-title" href="https://www.bedtime.com/voice-in-a-bottle-2/" title="Voice in a Bottle">Voice in a Bottle</a></h3><a class="btn read-more" href="https://www.bedtime.com/voice-in-a-bottle-2/" title="Voice in a Bottle">Display</a></li></ul>
</div></div></div></div>
</div><div class="col-md-4 col-sm-4 col-xs-12 "><div class="jsn-bootstrap3 wr-element-container wr-element-text"><div class="wr_text" id="9ZIqsA"><p><script async="async" src="//contextual.media.net/dmedianet.js?cid=8CUXV77G2"></script></p>
</div></div>
</div>
</div></div><div class="jsn-bootstrap3"><div class="row " id="top_articles" style="padding-top:0px;padding-bottom:0px;padding-left:0px;padding-right:0px;"><div class="col-md-6 col-sm-6 col-xs-12 "><div data-scroll-reveal="enter bottom and move 150px over 0.6s"><div class="jsn-bootstrap3 wr-element-container wr-element-heading" style="margin-top:5px; margin-bottom:10px "><h2 style="">New Content</h2></div></div><div data-scroll-reveal="enter bottom and move 150px over 0.6s"><div class="jsn-bootstrap3 wr-element-container wr-element-tab greyblock smallthumb withthumb"><div class="tabbable " id="tab_ILkg84"><ul class="nav nav-tabs"><li class="active"><a href="#paneILkg840">Top Story</a></li><li><a href="#paneILkg841">Top Poem</a></li><li><a href="#paneILkg842">Top Prayer</a></li></ul><div class="tab-content"><div _wr_style_="" class="tab-pane active fade in" id="paneILkg840">
<p></p><ul class="bedtime-articles"><li>
<div class="front post-thumb thumbbypost">
<a class="post-title effect6" href="https://www.bedtime.com/a-surprise-gift/" title="A Surprise Gift"><img alt="" class="attachment-frontthumb size-frontthumb wp-post-image" height="290" loading="lazy" sizes="(max-width: 290px) 100vw, 290px" src="https://www.bedtime.com/wp-content/uploads/2021/01/Cycle-290x290.jpg" srcset="https://www.bedtime.com/wp-content/uploads/2021/01/Cycle-290x290.jpg 290w, https://www.bedtime.com/wp-content/uploads/2021/01/Cycle-150x150.jpg 150w, https://www.bedtime.com/wp-content/uploads/2021/01/Cycle-230x230.jpg 230w" width="290"/></a>
</div>
<h3><a class="post-title" href="https://www.bedtime.com/a-surprise-gift/" title="A Surprise Gift">A Surprise Gift</a></h3><div class="post-content">Sammy the young chimp hurried on his way, it was his birthday the next day and he was out to invite his friends to his birthday party. On the way he stopped like every day in front of the cycle shop. The cycle was standing near the window as usual, just the right size for him in black and red. Sammy sighed he would never be able to buy the cycle he knew. His father was without a job for some time. His mother worked in the local bakery and…</div><a class="btn read-more" href="https://www.bedtime.com/a-surprise-gift/" title="A Surprise Gift">Display</a></li></ul>
</div><div _wr_style_="" class="tab-pane fade in" id="paneILkg841">
<p></p><ul class="bedtime-articles"><li>
<div class="front post-thumb">
<a class="post-title effect6" href="https://www.bedtime.com/acrostic-fall/" title="Acrostic: Fall"><img alt="Warm Feelings" class="front_thumb" src="https://www.bedtime.com/wp-content/uploads/2015/04/poems-warm-feelings-290x290.jpg"/></a>
</div>
<h3><a class="post-title" href="https://www.bedtime.com/acrostic-fall/" title="Acrostic: Fall">Acrostic: Fall</a></h3><div class="post-content">Floating down from the trees, And dancing on a colorful breeze. Leaping and twirling on this autumn day, Leaves are performing their golden ballet. ©2019 Elizabeth Wrobel</div><a class="btn read-more" href="https://www.bedtime.com/acrostic-fall/" title="Acrostic: Fall">Display</a></li></ul>
</div><div _wr_style_="" class="tab-pane fade in" id="paneILkg842">
<p></p><ul class="bedtime-articles"><li>
<div class="front post-thumb">
<a class="post-title effect6" href="https://www.bedtime.com/glory-breakdown-according-johanna-schmitz/" title="Glory Be Breakdown According to Johanna Schmitz"><img alt="Daily Prayer" class="front_thumb" src="https://www.bedtime.com/wp-content/uploads/2015/04/prayers-daily-290x290.jpg"/></a>
</div>
<h3><a class="post-title" href="https://www.bedtime.com/glory-breakdown-according-johanna-schmitz/" title="Glory Be Breakdown According to Johanna Schmitz">Glory Be Breakdown According to Johanna Schmitz</a></h3><div class="post-content">Glory be to the Father, Son, and the Holy Spirit - Praise the Holy Trinity who will save us sinners. As it was in the beggining - We worshiped the Lord to begin with. Is now - Currently, many people worship the Lord. And ever shall be. - People will always worship the Lord. World without end. - People will go on worshiping the Lord forever because life in heaven will never cease. Amen.</div><a class="btn read-more" href="https://www.bedtime.com/glory-breakdown-according-johanna-schmitz/" title="Glory Be Breakdown According to Johanna Schmitz">Display</a></li></ul>
</div></div></div></div></div>
</div><div class="col-md-6 col-sm-6 col-xs-12 "><div data-scroll-reveal="enter bottom and move 150px over 0.6s"><div class="jsn-bootstrap3 wr-element-container wr-element-heading" style="margin-top:5px; margin-bottom:10px "><h2 style="">Recent Content</h2></div></div><div class="jsn-bootstrap3 wr-element-container wr-element-text greyblock recent_posts_box"><div class="wr_text" id="BOnFq0"><div class="recent_posts_wrap bedtimeScrollbar"><ul class="bedtime_recent_posts bedtime-articles">
<li>
<h4><a class="post-title" href="https://www.bedtime.com/a-surprise-gift/" title="A Surprise Gift">A Surprise Gift</a></h4>
<!-- <a href="https://www.bedtime.com/a-surprise-gift/" title="A Surprise Gift" class="btn read-more">Display</a> -->
</li>
<li>
<h4><a class="post-title" href="https://www.bedtime.com/the-christmas-gift/" title="The Christmas Gift">The Christmas Gift</a></h4>
<!-- <a href="https://www.bedtime.com/the-christmas-gift/" title="The Christmas Gift" class="btn read-more">Display</a> -->
</li>
<li>
<h4><a class="post-title" href="https://www.bedtime.com/gone-fishing/" title="Gone Fishing">Gone Fishing</a></h4>
<!-- <a href="https://www.bedtime.com/gone-fishing/" title="Gone Fishing" class="btn read-more">Display</a> -->
</li>
<li>
<h4><a class="post-title" href="https://www.bedtime.com/maggie-coco-and-dojo/" title="Maggie, Coco and Dojo">Maggie, Coco and Dojo</a></h4>
<!-- <a href="https://www.bedtime.com/maggie-coco-and-dojo/" title="Maggie, Coco and Dojo" class="btn read-more">Display</a> -->
</li>
<li>
<h4><a class="post-title" href="https://www.bedtime.com/lilys-first-day-at-school/" title="Lily's First day at School">Lily's First day at School</a></h4>
<!-- <a href="https://www.bedtime.com/lilys-first-day-at-school/" title="Lily's First day at School" class="btn read-more">Display</a> -->
</li>
<li>
<h4><a class="post-title" href="https://www.bedtime.com/ears-mouse-book-4-christmas-crackers/" title="Ears Mouse  - Christmas Crackers">Ears Mouse  - Christmas Crackers</a></h4>
<!-- <a href="https://www.bedtime.com/ears-mouse-book-4-christmas-crackers/" title="Ears Mouse  - Christmas Crackers" class="btn read-more">Display</a> -->
</li>
<li>
<h4><a class="post-title" href="https://www.bedtime.com/a-walk-in-the-woods/" title="A Walk in the Woods">A Walk in the Woods</a></h4>
<!-- <a href="https://www.bedtime.com/a-walk-in-the-woods/" title="A Walk in the Woods" class="btn read-more">Display</a> -->
</li>
<li>
<h4><a class="post-title" href="https://www.bedtime.com/a-fun-summer-holiday/" title="A fun summer holiday">A fun summer holiday</a></h4>
<!-- <a href="https://www.bedtime.com/a-fun-summer-holiday/" title="A fun summer holiday" class="btn read-more">Display</a> -->
</li>
<li>
<h4><a class="post-title" href="https://www.bedtime.com/my-holiday-to-goa/" title="My holiday to Goa">My holiday to Goa</a></h4>
<!-- <a href="https://www.bedtime.com/my-holiday-to-goa/" title="My holiday to Goa" class="btn read-more">Display</a> -->
</li>
<li>
<h4><a class="post-title" href="https://www.bedtime.com/the-lazy-kings-lesson/" title="The Lazy King's Lesson">The Lazy King's Lesson</a></h4>
<!-- <a href="https://www.bedtime.com/the-lazy-kings-lesson/" title="The Lazy King's Lesson" class="btn read-more">Display</a> -->
</li>
<li>
<h4><a class="post-title" href="https://www.bedtime.com/acrostic-fall/" title="Acrostic: Fall">Acrostic: Fall</a></h4>
<!-- <a href="https://www.bedtime.com/acrostic-fall/" title="Acrostic: Fall" class="btn read-more">Display</a> -->
</li>
<li>
<h4><a class="post-title" href="https://www.bedtime.com/charlie-the-imaginative/" title="Charlie the Imaginative">Charlie the Imaginative</a></h4>
<!-- <a href="https://www.bedtime.com/charlie-the-imaginative/" title="Charlie the Imaginative" class="btn read-more">Display</a> -->
</li>
<li>
<h4><a class="post-title" href="https://www.bedtime.com/devs-favourite-milkshake/" title="Dev's Favourite Milkshake">Dev's Favourite Milkshake</a></h4>
<!-- <a href="https://www.bedtime.com/devs-favourite-milkshake/" title="Dev's Favourite Milkshake" class="btn read-more">Display</a> -->
</li>
<li>
<h4><a class="post-title" href="https://www.bedtime.com/bedtime-is-here/" title="Bedtime is Here">Bedtime is Here</a></h4>
<!-- <a href="https://www.bedtime.com/bedtime-is-here/" title="Bedtime is Here" class="btn read-more">Display</a> -->
</li>
<li>
<h4><a class="post-title" href="https://www.bedtime.com/the-great-camping-adventure/" title="The Great Camping Adventure">The Great Camping Adventure</a></h4>
<!-- <a href="https://www.bedtime.com/the-great-camping-adventure/" title="The Great Camping Adventure" class="btn read-more">Display</a> -->
</li>
<li>
<h4><a class="post-title" href="https://www.bedtime.com/brush-brush/" title="Brush, Brush">Brush, Brush</a></h4>
<!-- <a href="https://www.bedtime.com/brush-brush/" title="Brush, Brush" class="btn read-more">Display</a> -->
</li>
<li>
<h4><a class="post-title" href="https://www.bedtime.com/my-blanket/" title="MY BLANKET">MY BLANKET</a></h4>
<!-- <a href="https://www.bedtime.com/my-blanket/" title="MY BLANKET" class="btn read-more">Display</a> -->
</li>
<li>
<h4><a class="post-title" href="https://www.bedtime.com/tweety-the-bird/" title="Tweety the Bird">Tweety the Bird</a></h4>
<!-- <a href="https://www.bedtime.com/tweety-the-bird/" title="Tweety the Bird" class="btn read-more">Display</a> -->
</li>
<li>
<h4><a class="post-title" href="https://www.bedtime.com/a-tiny-bird/" title="A Tiny Bird">A Tiny Bird</a></h4>
<!-- <a href="https://www.bedtime.com/a-tiny-bird/" title="A Tiny Bird" class="btn read-more">Display</a> -->
</li>
<li>
<h4><a class="post-title" href="https://www.bedtime.com/tias-unicorn/" title="Tia's Unicorn">Tia's Unicorn</a></h4>
<!-- <a href="https://www.bedtime.com/tias-unicorn/" title="Tia&#039;s Unicorn" class="btn read-more">Display</a> -->
</li></ul></div>
</div></div>
</div>
</div></div><div class="jsn-bootstrap3"><div class="row " id="zMSzIu" style="padding-top:0px;padding-bottom:0px;padding-left:0px;padding-right:0px;"><div class="col-md-12 col-sm-12 col-xs-12 "><div class="jsn-bootstrap3 wr-element-container wr-element-heading" style="margin-top:25px; margin-bottom:10px "><h2 style="">All Story Categories</h2></div><div class="jsn-bootstrap3 wr-element-container wr-element-text"><div class="wr_text" id="LUOBC0">
<div class="row category-list-row">
<div class="col-md-3 col-sm-3 col-xs-4 category-list hideme">
<a class="category-link effect6" href="https://www.bedtime.com/category/stories/adventure/" title="Adventure">
<span class="titlefx effect6"></span>
<span class="category-title">Adventure</span>
<span class="go-overlay">GO</span>
<img alt="Adventure" src="https://www.bedtime.com/wp-content/uploads/2017/04/adventture-stories.jpg"/>
</a>
</div>
<div class="col-md-3 col-sm-3 col-xs-4 category-list hideme">
<a class="category-link effect6" href="https://www.bedtime.com/category/stories/animal-stories/" title="Animal Stories">
<span class="titlefx effect6"></span>
<span class="category-title">Animal Stories</span>
<span class="go-overlay">GO</span>
<img alt="Animal Stories" src="https://www.bedtime.com/wp-content/uploads/2017/04/animal-images.jpg"/>
</a>
</div>
<div class="col-md-3 col-sm-3 col-xs-4 category-list hideme">
<a class="category-link effect6" href="https://www.bedtime.com/category/stories/bedtime-stories-by-kids/" title="By kids">
<span class="titlefx effect6"></span>
<span class="category-title">By kids</span>
<span class="go-overlay">GO</span>
<img alt="By kids" src="https://www.bedtime.com/wp-content/uploads/2017/04/stories-by-kids-230x230.jpg"/>
</a>
</div>
<div class="col-md-3 col-sm-3 col-xs-4 category-list hideme">
<a class="category-link effect6" href="https://www.bedtime.com/category/stories/christmas/" title="Christmas">
<span class="titlefx effect6"></span>
<span class="category-title">Christmas</span>
<span class="go-overlay">GO</span>
<img alt="Christmas" src="https://www.bedtime.com/wp-content/uploads/2015/11/christmas-callout-230x230.jpg"/>
</a>
</div>
<div class="col-md-3 col-sm-3 col-xs-4 category-list hideme">
<a class="category-link effect6" href="https://www.bedtime.com/category/stories/fables-bedtime-com/" title="Fables">
<span class="titlefx effect6"></span>
<span class="category-title">Fables</span>
<span class="go-overlay">GO</span>
<img alt="Fables" src="https://www.bedtime.com/wp-content/uploads/2017/04/stories-fables.jpg"/>
</a>
</div>
<div class="col-md-3 col-sm-3 col-xs-4 category-list hideme">
<a class="category-link effect6" href="https://www.bedtime.com/category/stories/fairy-tales/" title="Fairy Tales">
<span class="titlefx effect6"></span>
<span class="category-title">Fairy Tales</span>
<span class="go-overlay">GO</span>
<img alt="Fairy Tales" src="https://www.bedtime.com/wp-content/uploads/2015/04/stories-fairy-tales-230x230.jpg"/>
</a>
</div>
<div class="col-md-3 col-sm-3 col-xs-4 category-list hideme">
<a class="category-link effect6" href="https://www.bedtime.com/category/stories/funny/" title="Funny">
<span class="titlefx effect6"></span>
<span class="category-title">Funny</span>
<span class="go-overlay">GO</span>
<img alt="Funny" src="https://www.bedtime.com/wp-content/uploads/2015/04/stories-funny-230x230.jpg"/>
</a>
</div>
<div class="col-md-3 col-sm-3 col-xs-4 category-list hideme">
<a class="category-link effect6" href="https://www.bedtime.com/category/stories/history/" title="History">
<span class="titlefx effect6"></span>
<span class="category-title">History</span>
<span class="go-overlay">GO</span>
<img alt="History" src="https://www.bedtime.com/wp-content/uploads/2015/04/stories-history-230x230.jpg"/>
</a>
</div>
<div class="col-md-3 col-sm-3 col-xs-4 category-list hideme">
<a class="category-link effect6" href="https://www.bedtime.com/category/stories/mysteries/" title="Mysteries">
<span class="titlefx effect6"></span>
<span class="category-title">Mysteries</span>
<span class="go-overlay">GO</span>
<img alt="Mysteries" src="https://www.bedtime.com/wp-content/uploads/2015/04/stories-mysteries-230x230.jpg"/>
</a>
</div>
<div class="col-md-3 col-sm-3 col-xs-4 category-list hideme">
<a class="category-link effect6" href="https://www.bedtime.com/category/stories/scary/" title="Scary">
<span class="titlefx effect6"></span>
<span class="category-title">Scary</span>
<span class="go-overlay">GO</span>
<img alt="Scary" src="https://www.bedtime.com/wp-content/uploads/2015/04/stories-scary-230x230.jpg"/>
</a>
</div>
<div class="col-md-3 col-sm-3 col-xs-4 category-list hideme">
<a class="category-link effect6" href="https://www.bedtime.com/category/stories/science/" title="Science">
<span class="titlefx effect6"></span>
<span class="category-title">Science</span>
<span class="go-overlay">GO</span>
<img alt="Science" src="https://www.bedtime.com/wp-content/uploads/2015/04/stories-science-230x230.jpg"/>
</a>
</div>
<div class="col-md-3 col-sm-3 col-xs-4 category-list hideme">
<a class="category-link effect6" href="https://www.bedtime.com/category/stories/sports/" title="Sports">
<span class="titlefx effect6"></span>
<span class="category-title">Sports</span>
<span class="go-overlay">GO</span>
<img alt="Sports" src="https://www.bedtime.com/wp-content/uploads/2015/04/stories-sports-230x230.jpg"/>
</a>
</div>
<div class="col-md-3 col-sm-3 col-xs-4 category-list hideme">
<a class="category-link effect6" href="https://www.bedtime.com/category/stories/warm/" title="Warm">
<span class="titlefx effect6"></span>
<span class="category-title">Warm</span>
<span class="go-overlay">GO</span>
<img alt="Warm" src="https://www.bedtime.com/wp-content/uploads/2015/04/stories-warm-230x230.jpg"/>
</a>
</div></div>
<p>
</p></div></div>
</div>
</div></div><div class="jsn-bootstrap3"><div class="row hideme" id="pp_categories" style="padding-top:0px;padding-bottom:0px;padding-left:0px;padding-right:0px;"><div class="col-md-8 col-sm-8 col-xs-12 "><div class="jsn-bootstrap3 wr-element-container wr-element-heading" style="margin-top:25px; margin-bottom:10px "><h2 style="">Poem Categories</h2></div><div class="jsn-bootstrap3 wr-element-container wr-element-text"><div class="wr_text" id="c3REAw">
<div class="row category-list-row">
<div class="col-md-6 col-sm-6 col-xs-4 category-list hideme">
<a class="category-link effect6" href="https://www.bedtime.com/category/poems/adventure-poems/" title="Adventure">
<span class="titlefx effect6"></span>
<span class="category-title">Adventure</span>
<span class="go-overlay">GO</span>
<img alt="Adventure" src="https://www.bedtime.com/wp-content/uploads/2015/08/stories-adventure.jpg"/>
</a>
</div>
<div class="col-md-6 col-sm-6 col-xs-4 category-list hideme">
<a class="category-link effect6" href="https://www.bedtime.com/category/poems/animal-poems/" title="Animal Poems">
<span class="titlefx effect6"></span>
<span class="category-title">Animal Poems</span>
<span class="go-overlay">GO</span>
<img alt="Animal Poems" src="https://www.bedtime.com/wp-content/uploads/2015/04/poems-animals-302x271.jpg"/>
</a>
</div>
<div class="col-md-6 col-sm-6 col-xs-4 category-list hideme">
<a class="category-link effect6" href="https://www.bedtime.com/category/poems/for-ages-2-8/" title="For ages 2-8">
<span class="titlefx effect6"></span>
<span class="category-title">For ages 2-8</span>
<span class="go-overlay">GO</span>
<img alt="For ages 2-8" src="https://www.bedtime.com/wp-content/uploads/2015/04/poems-2to8-302x271.jpg"/>
</a>
</div><div class="col-md-6 col-sm-6 col-xs-4 category-list hideme"><div class="textwidget custom-html-widget"><script id="mNCC" language="javascript">
    medianet_width = "300";
    medianet_height = "250";
    medianet_crid = "581364241";
    medianet_versionId = "3111299"; 
  </script>
<script src="//contextual.media.net/nmedianet.js?cid=8CUXV77G2"></script>
</div>
</div>
<div class="col-md-6 col-sm-6 col-xs-4 category-list hideme">
<a class="category-link effect6" href="https://www.bedtime.com/category/poems/patriotism/" title="Patriotism">
<span class="titlefx effect6"></span>
<span class="category-title">Patriotism</span>
<span class="go-overlay">GO</span>
<img alt="Patriotism" src="https://www.bedtime.com/wp-content/uploads/2015/04/poems-patriotic-302x271.jpg"/>
</a>
</div>
<div class="col-md-6 col-sm-6 col-xs-4 category-list hideme">
<a class="category-link effect6" href="https://www.bedtime.com/category/poems/poems-by-kids/" title="Poems by Kids">
<span class="titlefx effect6"></span>
<span class="category-title">Poems by Kids</span>
<span class="go-overlay">GO</span>
<img alt="Poems by Kids" src="https://www.bedtime.com/wp-content/uploads/2015/04/poems-by-kids-302x271.jpg"/>
</a>
</div>
<div class="col-md-6 col-sm-6 col-xs-4 category-list hideme">
<a class="category-link effect6" href="https://www.bedtime.com/category/poems/scary-poems/" title="Scary Poems">
<span class="titlefx effect6"></span>
<span class="category-title">Scary Poems</span>
<span class="go-overlay">GO</span>
<img alt="Scary Poems" src="https://www.bedtime.com/wp-content/uploads/2015/04/poems-scary-302x271.jpg"/>
</a>
</div>
<div class="col-md-6 col-sm-6 col-xs-4 category-list hideme">
<a class="category-link effect6" href="https://www.bedtime.com/category/poems/warm-feelings/" title="Warm Feelings">
<span class="titlefx effect6"></span>
<span class="category-title">Warm Feelings</span>
<span class="go-overlay">GO</span>
<img alt="Warm Feelings" src="https://www.bedtime.com/wp-content/uploads/2015/04/poems-warm-feelings-302x271.jpg"/>
</a>
</div><div class="col-md-6 col-sm-6 col-xs-4 category-list hideme"></div></div>
<p>
</p></div></div>
</div><div class="col-md-4 col-sm-4 col-xs-12 "><div class="jsn-bootstrap3 wr-element-container wr-element-heading" style="margin-top:28px; margin-bottom:10px "><h2 style="">Prayers Categories</h2></div><div class="jsn-bootstrap3 wr-element-container wr-element-text"><div class="wr_text" id="C82b2e">
<div class="row category-list-row">
<div class="col-md-12 col-sm-12 col-xs-4 category-list hideme">
<a class="category-link effect6" href="https://www.bedtime.com/category/prayers/bedtime/" title="Bedtime">
<span class="titlefx effect6"></span>
<span class="category-title">Bedtime</span>
<span class="go-overlay">GO</span>
<img alt="Bedtime" src="https://www.bedtime.com/wp-content/uploads/2015/04/prayers-bedtime-313x271.jpg"/>
</a>
</div>
<div class="col-md-12 col-sm-12 col-xs-4 category-list hideme">
<a class="category-link effect6" href="https://www.bedtime.com/category/prayers/daily-prayer/" title="Daily Prayer">
<span class="titlefx effect6"></span>
<span class="category-title">Daily Prayer</span>
<span class="go-overlay">GO</span>
<img alt="Daily Prayer" src="https://www.bedtime.com/wp-content/uploads/2015/04/prayers-daily-313x271.jpg"/>
</a>
</div>
<div class="col-md-12 col-sm-12 col-xs-4 category-list hideme">
<a class="category-link effect6" href="https://www.bedtime.com/category/prayers/table-graces/" title="Table Graces">
<span class="titlefx effect6"></span>
<span class="category-title">Table Graces</span>
<span class="go-overlay">GO</span>
<img alt="Table Graces" src="https://www.bedtime.com/wp-content/uploads/2015/04/prayers-table-313x271.jpg"/>
</a>
</div><div class="col-md-12 col-sm-12 col-xs-4 category-list hideme"><div class="textwidget custom-html-widget"><script id="mNCC" language="javascript">
    medianet_width = "300";
    medianet_height = "250";
    medianet_crid = "581364241";
    medianet_versionId = "3111299"; 
  </script>
<script src="//contextual.media.net/nmedianet.js?cid=8CUXV77G2"></script>
</div>
</div></div>
<p>
</p></div></div>
</div>
</div></div>
<div class="wpulike wpulike-default "><div class="wp_ulike_general_class wp_ulike_is_not_liked"><button aria-label="Like Button" class="wp_ulike_btn wp_ulike_put_image wp_post_btn_2728" data-ulike-disable-pophover="0" data-ulike-display-likers="0" data-ulike-id="2728" data-ulike-nonce="147b34f641" data-ulike-template="wpulike-default" data-ulike-type="post" type="button"></button><span class="count-box">+1</span> </div></div>
</div>
</article>
</div><!-- close main content -->
</div><!-- close content_wrap -->
</div><!-- close main content row -->
</div><!-- close main_cont_wrap -->
</div><!-- close mainwrapper container -->
<div class="clearfix" id="beforefooter">
<div class="beforefooter_inner">
<div class="container">
<div class="row rowbeforefooter">
<div class="widget_text widget-odd widget-last widget-first widget-1 beforefooter-box widget_custom_html" id="custom_html-4"><div class="textwidget custom-html-widget"><script type="text/javascript">
    window._mNHandle = window._mNHandle || {};
    window._mNHandle.queue = window._mNHandle.queue || [];
    medianet_versionId = "3121199";
</script>
<script async="async" src="//contextual.media.net/dmedianet.js?cid=8CUXV77G2"></script>
<!-- put the above code in head -->
<!-- put the below code in body -->
<div id="267777545">
<script type="text/javascript">
        try {
            window._mNHandle.queue.push(function (){
                window._mNDetails.loadTag("267777545", "728x90", "267777545");
            });
        }
        catch (error) {}
    </script>
</div>
</div></div> </div>
</div>
</div>
</div>
<div class="clearfix" id="footer">
<div class="footer_inner">
<div class="container">
<div class="row rowfooter">
<div class="widget-odd widget-first widget-1 col-md-3 col-sm-3 footer-box widget_nav_menu" id="nav_menu-4"><h4 class="widget-title footer-title">Story Categories</h4><div class="menu-story-categories-container"><ul class="menu" id="menu-story-categories"><li class="menu-item menu-item-type-taxonomy menu-item-object-category menu-item-121" id="menu-item-121"><a href="https://www.bedtime.com/category/stories/adventure/">Adventure</a></li>
<li class="menu-item menu-item-type-taxonomy menu-item-object-category menu-item-122" id="menu-item-122"><a href="https://www.bedtime.com/category/stories/animal-stories/">Animal Stories</a></li>
<li class="menu-item menu-item-type-taxonomy menu-item-object-category menu-item-123" id="menu-item-123"><a href="https://www.bedtime.com/category/stories/bedtime-stories-by-kids/">By kids</a></li>
<li class="menu-item menu-item-type-taxonomy menu-item-object-category menu-item-124" id="menu-item-124"><a href="https://www.bedtime.com/category/stories/fables-bedtime-com/">Fables</a></li>
<li class="menu-item menu-item-type-taxonomy menu-item-object-category menu-item-125" id="menu-item-125"><a href="https://www.bedtime.com/category/stories/fairy-tales/">Fairy Tales</a></li>
<li class="menu-item menu-item-type-taxonomy menu-item-object-category menu-item-126" id="menu-item-126"><a href="https://www.bedtime.com/category/stories/funny/">Funny</a></li>
<li class="menu-item menu-item-type-taxonomy menu-item-object-category menu-item-127" id="menu-item-127"><a href="https://www.bedtime.com/category/stories/history/">History</a></li>
<li class="menu-item menu-item-type-taxonomy menu-item-object-category menu-item-128" id="menu-item-128"><a href="https://www.bedtime.com/category/stories/mysteries/">Mysteries</a></li>
<li class="menu-item menu-item-type-taxonomy menu-item-object-category menu-item-129" id="menu-item-129"><a href="https://www.bedtime.com/category/stories/scary/">Scary</a></li>
<li class="menu-item menu-item-type-taxonomy menu-item-object-category menu-item-130" id="menu-item-130"><a href="https://www.bedtime.com/category/stories/science/">Science</a></li>
<li class="menu-item menu-item-type-taxonomy menu-item-object-category menu-item-131" id="menu-item-131"><a href="https://www.bedtime.com/category/stories/sports/">Sports</a></li>
<li class="menu-item menu-item-type-taxonomy menu-item-object-category menu-item-132" id="menu-item-132"><a href="https://www.bedtime.com/category/stories/warm/">Warm</a></li>
</ul></div></div><div class="widget-even widget-2 col-md-2 col-sm-2 footer-box widget_nav_menu" id="nav_menu-3"><h4 class="widget-title footer-title">Poetry Categories</h4><div class="menu-poetry-categories-container"><ul class="menu" id="menu-poetry-categories"><li class="menu-item menu-item-type-taxonomy menu-item-object-category menu-item-895" id="menu-item-895"><a href="https://www.bedtime.com/category/poems/adventure-poems/">Adventure</a></li>
<li class="menu-item menu-item-type-taxonomy menu-item-object-category menu-item-133" id="menu-item-133"><a href="https://www.bedtime.com/category/poems/animal-poems/">Animal Poems</a></li>
<li class="menu-item menu-item-type-taxonomy menu-item-object-category menu-item-136" id="menu-item-136"><a href="https://www.bedtime.com/category/poems/for-ages-2-8/">For ages 2-8</a></li>
<li class="menu-item menu-item-type-taxonomy menu-item-object-category menu-item-135" id="menu-item-135"><a href="https://www.bedtime.com/category/poems/poems-by-kids/">Poems by Kids</a></li>
<li class="menu-item menu-item-type-taxonomy menu-item-object-category menu-item-137" id="menu-item-137"><a href="https://www.bedtime.com/category/poems/scary-poems/">Scary Poems</a></li>
<li class="menu-item menu-item-type-taxonomy menu-item-object-category menu-item-138" id="menu-item-138"><a href="https://www.bedtime.com/category/poems/warm-feelings/">Warm Feelings</a></li>
<li class="menu-item menu-item-type-taxonomy menu-item-object-category menu-item-134" id="menu-item-134"><a href="https://www.bedtime.com/category/poems/patriotism/">Patriotism</a></li>
</ul></div></div><div class="widget-odd widget-3 col-md-2 col-sm-2 footer-box widget_nav_menu" id="nav_menu-2"><h4 class="widget-title footer-title">Prayer Categories</h4><div class="menu-prayer-categories-container"><ul class="menu" id="menu-prayer-categories"><li class="menu-item menu-item-type-taxonomy menu-item-object-category menu-item-141" id="menu-item-141"><a href="https://www.bedtime.com/category/prayers/table-graces/">Table Graces</a></li>
<li class="menu-item menu-item-type-taxonomy menu-item-object-category menu-item-139" id="menu-item-139"><a href="https://www.bedtime.com/category/prayers/bedtime/">Bedtime</a></li>
<li class="menu-item menu-item-type-taxonomy menu-item-object-category menu-item-140" id="menu-item-140"><a href="https://www.bedtime.com/category/prayers/daily-prayer/">Daily Prayer</a></li>
<li class="divider menu-item menu-item-type-custom menu-item-object-custom menu-item-143" id="menu-item-143"><a> </a></li>
<li class="menu-item menu-item-type-post_type menu-item-object-page menu-item-145" id="menu-item-145"><a href="https://www.bedtime.com/contact/">Contact</a></li>
<li class="menu-item menu-item-type-post_type menu-item-object-page menu-item-146" id="menu-item-146"><a href="https://www.bedtime.com/submit-story/">Submit Work</a></li>
<li class="menu-item menu-item-type-post_type menu-item-object-page menu-item-144" id="menu-item-144"><a href="https://www.bedtime.com/authors/">Authors</a></li>
<li class="menu-item menu-item-type-post_type menu-item-object-page menu-item-3332" id="menu-item-3332"><a href="https://www.bedtime.com/legal/">Legal</a></li>
<li class="menu-item menu-item-type-post_type menu-item-object-page menu-item-3333" id="menu-item-3333"><a href="https://www.bedtime.com/terms-conditions/">Terms &amp; Conditions</a></li>
<li class="menu-item menu-item-type-post_type menu-item-object-page menu-item-privacy-policy menu-item-3334" id="menu-item-3334"><a href="https://www.bedtime.com/privacy-policy/">Privacy Policy</a></li>
</ul></div></div><div class="widget-even widget-4 col-md-2 col-sm-2 footer-box widget_nav_menu" id="nav_menu-5"><h4 class="widget-title footer-title">General</h4><div class="menu-story-categories-container"><ul class="menu" id="menu-story-categories-1"><li class="menu-item menu-item-type-taxonomy menu-item-object-category menu-item-121"><a href="https://www.bedtime.com/category/stories/adventure/">Adventure</a></li>
<li class="menu-item menu-item-type-taxonomy menu-item-object-category menu-item-122"><a href="https://www.bedtime.com/category/stories/animal-stories/">Animal Stories</a></li>
<li class="menu-item menu-item-type-taxonomy menu-item-object-category menu-item-123"><a href="https://www.bedtime.com/category/stories/bedtime-stories-by-kids/">By kids</a></li>
<li class="menu-item menu-item-type-taxonomy menu-item-object-category menu-item-124"><a href="https://www.bedtime.com/category/stories/fables-bedtime-com/">Fables</a></li>
<li class="menu-item menu-item-type-taxonomy menu-item-object-category menu-item-125"><a href="https://www.bedtime.com/category/stories/fairy-tales/">Fairy Tales</a></li>
<li class="menu-item menu-item-type-taxonomy menu-item-object-category menu-item-126"><a href="https://www.bedtime.com/category/stories/funny/">Funny</a></li>
<li class="menu-item menu-item-type-taxonomy menu-item-object-category menu-item-127"><a href="https://www.bedtime.com/category/stories/history/">History</a></li>
<li class="menu-item menu-item-type-taxonomy menu-item-object-category menu-item-128"><a href="https://www.bedtime.com/category/stories/mysteries/">Mysteries</a></li>
<li class="menu-item menu-item-type-taxonomy menu-item-object-category menu-item-129"><a href="https://www.bedtime.com/category/stories/scary/">Scary</a></li>
<li class="menu-item menu-item-type-taxonomy menu-item-object-category menu-item-130"><a href="https://www.bedtime.com/category/stories/science/">Science</a></li>
<li class="menu-item menu-item-type-taxonomy menu-item-object-category menu-item-131"><a href="https://www.bedtime.com/category/stories/sports/">Sports</a></li>
<li class="menu-item menu-item-type-taxonomy menu-item-object-category menu-item-132"><a href="https://www.bedtime.com/category/stories/warm/">Warm</a></li>
</ul></div></div><div class="widget-odd widget-last widget-5 col-md-offset-1 col-md-2 socialfooter footer-box widget_text" id="text-3"> <div class="textwidget"><a href="http://www.twitter.com" title="Bedtime on Twitter"><i class="fa fa-twitter-square"></i></a>
<a href="http://www.facebook.com" title="Bedtime on Facebook"><i class="fa fa-facebook-square"></i></a>
<a class="totop" href="#top">Top</a></div>
</div> </div>
</div>
</div>
</div>
<div class="clearfix" id="footersplit">
<div class="container">
<div class="row rowfootersplit">
<div class="wraphigh"></div>
<div class="bluestripe oversidemargin overfix">
<div class="col-md-12">
<div class="pull-right">
<a class="logo" href="https://www.bedtime.com" title="Bedtime - Children's Short Stories, Poems and Prayers">
<img alt="Bedtime" class="img-responsive" height="21" src="https://www.bedtime.com/wp-content/themes/bedtime/images/bedtime-stories-poems-prayers-white.png" width="105"/>
</a>
</div>
</div>
</div>
</div>
</div>
</div>
<div class="clearfix" id="socket">
<div class="socket_inner">
<div class="container">
<div class="row rowsocket">
<div class="col-xs-6 socketleft">
              Copyright 2021 Bedtime.com LLC
            </div>
<div class="col-xs-6 socketright">
</div>
</div>
</div>
</div>
</div>
</div><!-- close mainwrapper -->
<div id="toTop" style="display: block;"><span aria-hidden="true" class="glyphicon glyphicon-chevron-up"></span></div>
<link href="https://www.bedtime.com/wp-content/uploads/igcache/pagebuilder/901034a34a77327739e30cdf4ee6227c.css" id="901034a34a77327739e30cdf4ee6227c.css-css" media="all" rel="stylesheet" type="text/css"/>
<script id="wpdc_wp-disable-comments-js" src="https://www.bedtime.com/wp-content/plugins/wp-disable-comments/javascript/wp-disable-comments.js" type="text/javascript"></script>
<script id="wp_ulike-js-extra" type="text/javascript">
/* <![CDATA[ */
var wp_ulike_params = {"ajax_url":"https:\/\/www.bedtime.com\/wp-admin\/admin-ajax.php","notifications":"1"};
/* ]]> */
</script>
<script id="wp_ulike-js" src="https://www.bedtime.com/wp-content/plugins/wp-ulike/assets/js/wp-ulike.min.js" type="text/javascript"></script>
<script id="wr-pb-bootstrap-js" src="https://www.bedtime.com/wp-content/plugins/wr-pagebuilder/assets/3rd-party/bootstrap3/js/bootstrap_frontend.min.js" type="text/javascript"></script>
<script id="wr-pb-scrollreveal-js" src="https://www.bedtime.com/wp-content/plugins/wr-pagebuilder/assets/3rd-party/scrollreveal/scrollReveal.js" type="text/javascript"></script>
<script id="wr-pb-stellar-js" src="https://www.bedtime.com/wp-content/plugins/wr-pagebuilder/assets/3rd-party/stellar/stellar.js" type="text/javascript"></script>
<script id="wp-embed-js" src="https://www.bedtime.com/wp-includes/js/wp-embed.min.js" type="text/javascript"></script>
<script id="dbd17d3660dbbdb267b7d18d93bdd055.js-js" src="https://www.bedtime.com/wp-content/uploads/igcache/pagebuilder/dbd17d3660dbbdb267b7d18d93bdd055.js" type="text/javascript"></script>
<script type="text/javascript">
(function($) {
	$(document).ready(function() {
$('#toplevel_page_wr-pb-about-us .wp-first-item').hide();

			var WR_Ig_RevealObjects  = null;
			var WR_Ig_StellarObjects = null;
			$(document).ready(function (){
				// Enable Appearing animations for elements
				if($('[data-scroll-reveal]').length) {
					if (!WR_Ig_RevealObjects) {
						WR_Ig_RevealObjects = new scrollReveal({
						        reset: true
						    });
					}
				}
				// Enable paralax for row container
				if($('[data-stellar-background-ratio]').length) {
					if (!WR_Ig_StellarObjects) {
						WR_Ig_StellarObjects = $.stellar({
					        horizontalScrolling: false,
					        verticalOffset: 40
					    });
					}
				}
			});
		
	});
})(jQuery);
</script>
<script>
  jQuery(document).ready(function(){
    
    if (jQuery('.top_vote_button .wpulike .counter a.wp_ulike_btn[data-ulike-status="2"]').length > 0) {
      jQuery('.bottom_vote_wrap .like_trigger').addClass('like_triggered').removeClass('like_trigger').text('Thank you for your like');
    }
    
    jQuery('.bottom_vote_wrap .like_trigger').on('click', function(e) {
      jQuery('.top_vote_button .wpulike .counter a.wp_ulike_btn[data-ulike-status="1"]').trigger('click');
    });
    jQuery('.top_vote_button .wpulike .counter a.wp_ulike_btn[data-ulike-status="1"]').on('click', function(e) {
      jQuery('.top_vote_wrap .like_count').text(parseInt(jQuery('.top_vote_wrap .like_count').text()) + 1);
      
      if (jQuery('.bottom_vote_wrap .like_trigger').length > 0) {
        jQuery('.bottom_vote_wrap .like_trigger').addClass('like_triggered').removeClass('like_trigger').text('Thank you for your like');
      }
    });
    jQuery('.top_vote_button .wpulike .counter a.wp_ulike_btn[data-ulike-status="2"]').on('click', function(e) {
      e.preventDefault();
      return false;  
    });
  });
  </script>
</body>
</html>