<!DOCTYPE html>
<html>
<head><meta charset="utf-8"/></head>
<title>403ç¦æ­¢è®¿é®é¡µé¢-21ä¸çºªæ¿è½¦ç½</title>
<body>
<style>
@import url("https://fonts.googleapis.com/css?family=Share+Tech+Mono|Montserrat:700");
* {margin: 0; padding: 0; border: 0; font-size: 100%; font: inherit; vertical-align: baseline; box-sizing: border-box; color: inherit;}
body {background-image: linear-gradient(120deg, #4f0088 0%, #000000 100%); height: 100vh;}
h1 {font-size: 45vw; text-align: center; position: fixed; width: 100vw; z-index: 1; color: #ffffff26; text-shadow: 0 0 50px rgba(0, 0, 0, 0.07); top: 50%;  -webkit-transform: translateY(-50%); transform: translateY(-50%); font-family: "Montserrat", monospace;}
div {background: rgba(0, 0, 0, 0);
    width: 70vw;
    position: relative;
    top: 50%;
    -webkit-transform: translateY(-50%);
            transform: translateY(-50%);
    margin: 0 auto;
    padding: 30px 30px 10px;
    box-shadow: 0 0 150px -20px rgba(0, 0, 0, 0.5);
    z-index: 3;
}

P {
    font-family: "Share Tech Mono", monospace;
    color: #f5f5f5;
    margin: 0 0 20px;
    font-size: 17px;
    line-height: 1.2;
}

span {color: #f0c674;}

i {color: #8abeb7;}
div a {text-decoration: none;}
b {color: #81a2be;}
a.avatar {position: fixed; bottom: 15px; right: -100px; -webkit-animation: slide 0.5s 4.5s forwards; animation: slide 0.5s 4.5s forwards; display: block; z-index: 4}
a.avatar img {border-radius: 100%; width: 44px; border: 2px solid white;}
@-webkit-keyframes slide {
    from {
        right: -100px;
        -webkit-transform: rotate(360deg);
                transform: rotate(360deg);
        opacity: 0;
    }
    to {
        right: 15px;
        -webkit-transform: rotate(0deg);
                transform: rotate(0deg);
        opacity: 1;
    }
}

@keyframes slide {
    from {
        right: -100px;
        -webkit-transform: rotate(360deg);
                transform: rotate(360deg);
        opacity: 0;
    }
    to {
        right: 15px;
        -webkit-transform: rotate(0deg);
                transform: rotate(0deg);
        opacity: 1;
    }
}
</style>
<h1>403</h1>
<div>
<p>&gt; <span>URL</span>: "<i>http://www.21rv.com/index.htmlndex.php</i>"</p>
<p>&gt; <span>Event-ID </span>: "<i>a39b1d5b-b16f-4d2b-8a08-44bb63c5411b</i>"</p>
<p>&gt; <span>IP </span>: <b>119.145.9.75</b></p>
<p>&gt; <span>Time</span>: 1610585171000</p>
<p>&gt; <span>User-Agent </span>45ACC02499E97BC85B89CEC0ED7729D3638390C2363D029C</p>
<p>&gt; <span>Bot-Block-ID </span></p>
</div>
<script>
var str = document.getElementsByTagName('div')[0].innerHTML.toString();
var i = 0;
document.getElementsByTagName('div')[0].innerHTML = "";

setTimeout(function() {
    var se = setInterval(function() {
        i++;
        document.getElementsByTagName('div')[0].innerHTML = str.slice(0, i) + "|";
        if (i == str.length) {
            clearInterval(se);
            document.getElementsByTagName('div')[0].innerHTML = str;
        }
    }, 10);
},0);
</script>
<script>
function judgeLanguage(){
    var lang = navigator.language || navigator.userLanguage;
    var langFlag ;
    if(lang=="zh-CN"){
       langFlag=0;
    } else{
       langFlag=1;
    }
    return langFlag;
}
function toLT(date){
    date = new Date(parseInt(date));
    var utc;
    if (judgeLanguage() == 0)
        utc = date.toLocaleString('zh',{timeZoneName: 'short', hour12: false});
    else
        utc = date.toLocaleString('en',{timeZoneName: 'short', hour12: false});
    return utc;
}

window.onload = function () {
    var res = toLT(1610585171000);
    console.log(res);
    document.getElementById("test").innerHTML=res;
}
 </script>
</body>
</html>
