<!DOCTYPE html>
<html>
<head>
<meta charset="utf-8"/>
<meta content="width=device-width, initial-scale=1.0" name="viewport"/>
<title>Em manutenção</title>
<script crossorigin="anonymous" integrity="sha256-pasqAKBDmFT4eHoN2ndd6lN370kFiGUFyTiUHWhU7k8=" src="https://code.jquery.com/jquery-3.4.1.slim.min.js"></script>
<script>
		var context = {{ Context }};
		context["Domain"] = document.domain;
		context["Now"] = new Date();
	</script>
<style media="screen" type="text/css">
		/* http://meyerweb.com/eric/tools/css/reset/ v2.0 | 20110126 License: none (public domain)*/
		html,
		body,
		div,
		span,
		applet,
		object,
		iframe,
		h1,
		h2,
		h3,
		h4,
		h5,
		h6,
		p,
		blockquote,
		pre,
		a,
		abbr,
		acronym,
		address,
		big,
		cite,
		code,
		del,
		dfn,
		em,
		img,
		ins,
		kbd,
		q,
		s,
		samp,
		small,
		strike,
		strong,
		sub,
		sup,
		tt,
		var,
		b,
		u,
		i,
		center,
		dl,
		dt,
		dd,
		ol,
		ul,
		li,
		fieldset,
		form,
		label,
		legend,
		table,
		caption,
		tbody,
		tfoot,
		thead,
		tr,
		th,
		td,
		article,
		aside,
		canvas,
		details,
		embed,
		figure,
		figcaption,
		footer,
		header,
		hgroup,
		menu,
		nav,
		output,
		ruby,
		section,
		summary,
		time,
		mark,
		audio,
		video {
			margin: 0;
			padding: 0;
			border: 0;
			font-size: 100%;
			font: inherit;
			vertical-align: baseline;
		}

		/* HTML5 display-role reset for older browsers */
		article,
		aside,
		details,
		figcaption,
		figure,
		footer,
		header,
		hgroup,
		menu,
		nav,
		section {
			display: block;
		}

		body {
			line-height: 1;
		}

		ol,
		ul {
			list-style: none;
		}

		blockquote,
		q {
			quotes: none;
		}

		blockquote:before,
		blockquote:after,
		q:before,
		q:after {
			content: '';
			content: none;
		}

		table {
			border-collapse: collapse;
			border-spacing: 0;
		}

		body {
			text-align: center;
			color: #212529;
			background: #f8f9fa;
			font-family: sans-serif;
		}

		html,
		body,
		table,
		.container {
			height: 100%;
			width: 100%;
			overflow: hidden;
			font-size: 10px;
		}

		h1 {
			font-size: 2.5rem;
			width: 250px;
			margin-left: auto;
			margin-right: auto;
		}

		h4 {
			font-size: 1.5rem;
			font-weight: bold;
			color: #6b747d;
		}

		h5 {
			margin-top: 5rem;
			color: #6b747d;
			font-size: 1rem;
		}

		h1,
		h4 {
			margin-bottom: .7rem;
		}

		td {
			vertical-align: middle;
		}

		.toolbox {
			width: 6rem;
			margin-bottom: 2rem;
		}

		.container {
			width: 100%;
			padding-right: 25px;
			padding-left: 25px;
			margin-right: auto;
			margin-left: auto;
			box-sizing: border-box;
		}

		.domain {
			font-weight: 400;
			margin-bottom: 1.9rem;
		}

		.please {
			width: 250px;
			margin-left: auto;
			margin-right: auto;
		}

		.hide {
			display: none;
		}

		@media (min-width: 576px) {
			html {
				font-size: 12px;
			}

			.container {
				max-width: 540px;
			}

			h1,
			.please {
				width: auto;
			}
		}

		@media (min-width: 768px) {
			html {
				font-size: 14px;
			}

			.container {
				max-width: 720px;
			}
		}

		@media (min-width: 992px) {
			.container {
				max-width: 960px;
			}
		}

		@media (min-width: 1200px) {
			html {
				font-size: 16px;
			}

			.container {
				max-width: 1140px;
			}
		}
	</style>
</head>
<body>
<div class="container hide">
<table class="table">
<tbody>
<tr>
<td>
<svg class="toolbox" version="1.1" viewbox="0 0 60 60" xmlns="http://www.w3.org/2000/svg" xmlns:xlink="http://www.w3.org/1999/xlink">
<g transform="translate(-1849 1504)">
<use fill="#212529" transform="translate(1849 -1475)" xlink:href="#path0_fill"></use>
<use fill="#212529" transform="translate(1851 -1500)" xlink:href="#path1_fill"></use>
<use fill="#212529" transform="translate(1855 -1496)" xlink:href="#path2_fill"></use>
<use fill="#212529" transform="translate(1873 -1504)" xlink:href="#path3_fill"></use>
<use fill="#212529" transform="translate(1855 -1504)" xlink:href="#path4_fill"></use>
<use fill="#212529" transform="translate(1895 -1504)" xlink:href="#path5_fill"></use>
<use fill="#212529" transform="translate(1855 -1475)" xlink:href="#path6_fill"></use>
<use fill="#212529" transform="translate(1855 -1464)" xlink:href="#path7_fill"></use>
<use fill="#212529" transform="translate(1855 -1468)" xlink:href="#path7_fill"></use>
<use fill="#212529" transform="translate(1895 -1475)" xlink:href="#path8_fill"></use>
<use fill="#212529" transform="translate(1895 -1464)" xlink:href="#path9_fill"></use>
<use fill="#212529" transform="translate(1895 -1468)" xlink:href="#path9_fill"></use>
<use fill="#212529" transform="translate(1873 -1475)" xlink:href="#path10_fill"></use>
<use fill="#212529" transform="translate(1885.58 -1492)" xlink:href="#path11_fill"></use>
<use fill="#212529" transform="translate(1877.91 -1484.35)" xlink:href="#path12_fill"></use>
<use fill="#212529" transform="translate(1884.73 -1480.34)" xlink:href="#path13_fill"></use>
<use fill="#212529" transform="translate(1859 -1488)" xlink:href="#path14_fill"></use>
<use fill="#212529" transform="translate(1864.25 -1482)" xlink:href="#path15_fill"></use>
</g>
<defs>
<path d="M 57 31L 3 31C 1.3439 30.9982 0.00180771 29.6561 0 28L 0 3C 0.00180771 1.3439 1.3439 0.0018077 3 0L 57 0C 58.6561 0.0018077 59.9982 1.3439 60 3L 60 28C 59.9982 29.6561 58.6561 30.9982 57 31ZM 3 2C 2.44794 2.00055 2.00055 2.44794 2 3L 2 28C 2.00055 28.5521 2.44794 28.9994 3 29L 57 29C 57.5521 28.9994 57.9994 28.5521 58 28L 58 3C 57.9994 2.44794 57.5521 2.00055 57 2L 3 2Z" id="path0_fill"></path>
<path d="M 55 27L 1 27C 0.734762 27.0001 0.480368 26.8947 0.292817 26.7072C 0.105266 26.5196 -6.89561e-05 26.2652 3.38679e-08 26L 3.38679e-08 3C 0.00180774 1.3439 1.3439 0.00180771 3 0L 53 0C 54.6561 0.00180771 55.9982 1.3439 56 3L 56 26C 56.0001 26.2652 55.8947 26.5196 55.7072 26.7072C 55.5196 26.8947 55.2652 27.0001 55 27ZM 2 25L 54 25L 54 3C 53.9994 2.44794 53.5521 2.00055 53 2L 3 2C 2.44794 2.00055 2.00055 2.44794 2 3L 2 25Z" id="path1_fill"></path>
<path d="M 47 23L 1 23C 0.734762 23.0001 0.480368 22.8947 0.292817 22.7072C 0.105266 22.5196 -6.89561e-05 22.2652 3.38679e-08 22L 3.38679e-08 1C -6.89561e-05 0.734762 0.105266 0.480368 0.292817 0.292817C 0.480368 0.105266 0.734762 -6.89561e-05 1 3.38679e-08L 47 3.38679e-08C 47.2652 -6.89561e-05 47.5196 0.105266 47.7072 0.292817C 47.8947 0.480368 48.0001 0.734762 48 1L 48 22C 48.0001 22.2652 47.8947 22.5196 47.7072 22.7072C 47.5196 22.8947 47.2652 23.0001 47 23ZM 2 21L 46 21L 46 2L 2 2L 2 21Z" id="path2_fill"></path>
<path d="M 11 6L 1 6C 0.734762 6.00007 0.480368 5.89473 0.292816 5.70718C 0.105265 5.51963 -6.89661e-05 5.26524 3.38777e-08 5L 3.38777e-08 3C 0.00180773 1.3439 1.3439 0.00180771 3 2.99875e-25L 9 2.99875e-25C 10.6561 0.00180771 11.9982 1.3439 12 3L 12 5C 12.0001 5.26524 11.8947 5.51963 11.7072 5.70718C 11.5196 5.89473 11.2652 6.00007 11 6ZM 2 4L 10 4L 10 3C 9.99945 2.44794 9.55206 2.00055 9 2L 3 2C 2.44794 2.00055 2.00055 2.44794 2 3L 2 4Z" id="path3_fill"></path>
<path d="M 7 6L 1 6C 0.734762 6.00007 0.480368 5.89473 0.292817 5.70718C 0.105266 5.51963 -6.89561e-05 5.26524 3.38679e-08 5L 3.38679e-08 3C 0.00180774 1.3439 1.3439 0.00180771 3 0L 5 0C 6.6561 0.00180771 7.99819 1.3439 8 3L 8 5C 8.00007 5.26524 7.89473 5.51963 7.70718 5.70718C 7.51963 5.89473 7.26524 6.00007 7 6ZM 2 4L 6 4L 6 3C 5.99945 2.44794 5.55206 2.00055 5 2L 3 2C 2.44794 2.00055 2.00055 2.44794 2 3L 2 4Z" id="path4_fill"></path>
<path d="M 7 6L 1 6C 0.734762 6.00007 0.480368 5.89473 0.292816 5.70718C 0.105265 5.51963 -6.89661e-05 5.26524 3.38777e-08 5L 3.38777e-08 3C 0.00180773 1.3439 1.3439 0.00180771 3 0L 5 0C 6.6561 0.00180771 7.99819 1.3439 8 3L 8 5C 8.00007 5.26524 7.89474 5.51963 7.70718 5.70718C 7.51963 5.89473 7.26524 6.00007 7 6ZM 2 4L 6 4L 6 3C 5.99945 2.44794 5.55206 2.00055 5 2L 3 2C 2.44794 2.00055 2.00055 2.44794 2 3L 2 4Z" id="path5_fill"></path>
<path d="M 5 20L 3 20C 1.3439 19.9982 0.00180774 18.6561 3.38679e-08 17L 3.38679e-08 1C -6.89561e-05 0.734762 0.105266 0.480368 0.292817 0.292816C 0.480368 0.105265 0.734762 -6.89661e-05 1 3.38777e-08L 7 3.38777e-08C 7.26524 -6.89661e-05 7.51963 0.105265 7.70718 0.292816C 7.89473 0.480368 8.00007 0.734762 8 1L 8 17C 7.99819 18.6561 6.6561 19.9982 5 20ZM 2 2L 2 17C 2.00055 17.5521 2.44794 17.9994 3 18L 5 18C 5.55206 17.9994 5.99945 17.5521 6 17L 6 2L 2 2Z" id="path6_fill"></path>
<path d="M 7 2L 1 2C 0.447715 2 0 1.55228 0 1C 0 0.447715 0.447715 0 1 0L 7 0C 7.55228 0 8 0.447715 8 1C 8 1.55228 7.55228 2 7 2Z" id="path7_fill"></path>
<path d="M 5 20L 3 20C 1.3439 19.9982 0.00180773 18.6561 3.38777e-08 17L 3.38777e-08 1C -6.89661e-05 0.734762 0.105265 0.480368 0.292816 0.292816C 0.480368 0.105265 0.734762 -6.89661e-05 1 3.38777e-08L 7 3.38777e-08C 7.26524 -6.89661e-05 7.51963 0.105265 7.70718 0.292816C 7.89474 0.480368 8.00007 0.734762 8 1L 8 17C 7.99819 18.6561 6.6561 19.9982 5 20ZM 2 2L 2 17C 2.00055 17.5521 2.44794 17.9994 3 18L 5 18C 5.55206 17.9994 5.99945 17.5521 6 17L 6 2L 2 2Z" id="path8_fill"></path>
<path d="M 7 2L 1 2C 0.447715 2 0 1.55228 0 1C 0 0.447715 0.447715 0 1 0L 7 0C 7.55228 0 8 0.447715 8 1C 8 1.55228 7.55228 2 7 2Z" id="path9_fill"></path>
<path d="M 9 13L 3 13C 1.3439 12.9982 0.00180773 11.6561 3.38777e-08 10L 3.38777e-08 1C -6.89661e-05 0.734762 0.105265 0.480368 0.292816 0.292816C 0.480368 0.105265 0.734762 -6.89661e-05 1 3.38777e-08L 11 3.38777e-08C 11.2652 -6.89661e-05 11.5196 0.105265 11.7072 0.292816C 11.8947 0.480368 12.0001 0.734762 12 1L 12 10C 11.9982 11.6561 10.6561 12.9982 9 13ZM 2 2L 2 10C 2.00055 10.5521 2.44794 10.9994 3 11L 9 11C 9.55206 10.9994 9.99945 10.5521 10 10L 10 2L 2 2Z" id="path10_fill"></path>
<path d="M 7.09877 14.1693C 6.11829 14.1681 5.14863 13.9643 4.25063 13.5706C 3.74419 13.3498 3.51267 12.7602 3.73353 12.2537C 3.95439 11.7473 4.54399 11.5158 5.05043 11.7366C 6.33437 12.2937 7.79108 12.2974 9.07782 11.7468C 10.3645 11.1962 11.3677 10.1399 11.8512 8.82648L 9.56555 10.1419C 8.25189 10.896 6.57569 10.4432 5.82043 9.1302L 4.81604 7.38704C 4.0712 6.07505 4.51896 4.40805 5.82092 3.64583L 8.39905 2.16829C 6.64595 1.69723 4.77472 2.19752 3.49062 3.48062C 2.20652 4.76372 1.70476 6.63455 2.17444 8.38802C 2.31847 8.92097 2.00345 9.46982 1.47062 9.61428C 0.937791 9.75875 0.388679 9.44417 0.243783 8.91146C -0.529283 6.04123 0.574964 2.99392 3.00729 1.28522C 5.43962 -0.42348 8.68082 -0.428838 11.1188 1.27181C 11.3992 1.46812 11.5596 1.79423 11.5441 2.13616C 11.5286 2.47809 11.3392 2.7883 11.0421 2.95837L 6.82192 5.37637C 6.47061 5.58452 6.35001 6.03525 6.55044 6.39102L 7.55483 8.13418C 7.65292 8.30534 7.81513 8.4304 8.00562 8.4817C 8.19611 8.53301 8.39918 8.50636 8.56997 8.40762L 12.652 6.05801C 12.9562 5.88262 13.3301 5.8797 13.637 6.05031C 13.944 6.22092 14.1389 6.54005 14.1505 6.89101C 14.202 8.79741 13.4829 10.6441 12.1559 12.0138C 10.8289 13.3835 9.00583 14.1605 7.09875 14.1693L 7.09877 14.1693Z" id="path11_fill"></path>
<path d="M 0.999594 11.3497C 0.610627 11.3495 0.257046 11.1238 0.0931361 10.7711C -0.0707732 10.4183 -0.0152672 10.0026 0.235434 9.70516L 8.11531 0.355546C 8.47128 -0.0667587 9.10219 -0.120537 9.52449 0.235427C 9.9468 0.591391 10.0006 1.2223 9.64462 1.64461L 1.76472 10.9942C 1.57471 11.2199 1.29462 11.35 0.999594 11.3497Z" id="path12_fill"></path>
<path d="M 0.999593 7.33992C 0.610625 7.33975 0.257046 7.11406 0.0931365 6.76131C -0.0707728 6.40857 -0.0152687 5.99278 0.235432 5.69539L 4.73543 0.355547C 5.0914 -0.0667574 5.72231 -0.120538 6.14462 0.235426C 6.56692 0.59139 6.6207 1.2223 6.26473 1.64461L 1.76473 6.98445C 1.57472 7.21014 1.29463 7.34027 0.999593 7.33992Z" id="path13_fill"></path>
<path d="M 5.91368 15.0047C 5.56849 15.0053 5.24743 14.8277 5.06456 14.535L 0.764271 7.65508C -0.185527 6.14108 -0.254714 4.23517 0.582807 2.65628C 1.42033 1.07739 3.03711 0.0658005 4.82327 0.00308928C 6.60944 -0.0596219 8.29318 0.836091 9.23937 2.35235L 16.1906 13.4744C 16.4834 13.9428 16.3411 14.56 15.8727 14.8528C 15.4043 15.1457 14.7871 15.0034 14.4943 14.535L 7.54455 3.41485C 6.64827 2.03493 4.81909 1.61452 3.41027 2.46465C 2.00944 3.34411 1.58444 5.1913 2.46007 6.59453L 6.76085 13.4744C 6.95332 13.7826 6.96354 14.1709 6.78755 14.4888C 6.61156 14.8067 6.27704 15.0042 5.91368 15.0047Z" id="path14_fill"></path>
<path d="M 5.38235 9.00247C 5.03729 9.00311 4.71638 8.82548 4.53372 8.53274L 0.153836 1.53274C -0.0369339 1.22987 -0.0512433 0.848118 0.116318 0.531812C 0.283879 0.215505 0.607745 0.0129021 0.965481 0.000593935C 1.32322 -0.0117142 1.66024 0.168151 1.84915 0.472194L 6.22902 7.47219C 6.42167 7.78028 6.43205 8.16862 6.25614 8.48656C 6.08023 8.8045 5.74571 9.00201 5.38235 9.00247Z" id="path15_fill"></path>
</defs>
</svg>
<h4 class="domain">{{Domain}}</h4>
<h1>Em manutenção</h1>
<h4 class="please">Por favor, tente novamente em alguns instantes.</h4>
<h5>ID: {{RequestID}} - {{Now}}</h5>
<h5>Status: {{Status}} - {{Reason}}</h5>
<div class="details">
<h5>B: {{Backend}} - IP: {{Ip}}</h5>
<h5>M: {{Method}} - BAN: {{Ban}} - INV: {{Inv}}</h5>
</div>
</td>
</tr>
</tbody>
</table>
</div>
<script>

		try {
			var html = $('.container').html();
			html.match(/\{\{([a-z0-9]+)\}\}/gi).forEach(function (value, index) {
				html = html.replace(value, context[value.replace(/[\{\}]+/gi, '')]);
				$('.container').html(html);
			});

			if (context.Trustful != 'true') {
				$('div.details').hide();
			}
			$('.container').removeClass('hide');

			if (context.Reason.includes("StartingAsync")) {
				setTimeout(window.location.reload.bind(window.location), 5 * 1000);
			}
		}
		catch (e) {
			console.log(e);
		}

		(function (i, s, o, g, r, a, m) {
			i['GoogleAnalyticsObject'] = r; i[r] = i[r] || function () {
				(i[r].q = i[r].q || []).push(arguments)
			}, i[r].l = 1 * new Date(); a = s.createElement(o),
				m = s.getElementsByTagName(o)[0]; a.async = 1; a.src = g; m.parentNode.insertBefore(a, m)
		})(window, document, 'script', 'https://www.google-analytics.com/analytics.js', 'ga');

		ga('create', 'UA-2269208-3', 'auto');
		ga('send', 'pageview');
	</script>
</body>
</html>