<!DOCTYPE html>
<html lang="pt-br">
<head>
<link href="//maxcdn.bootstrapcdn.com" rel="preconnect"/>
<link href="//www.google-analytics.com" rel="preconnect"/>
<link href="//www.googletagservices.com" rel="preconnect"/>
<link href="//gadasource.storage.googleapis.com/" rel="preconnect"/>
<link href="//uploads.bemparana.com.br/" rel="preconnect"/>
<link href="//v3.denakop.com/" rel="preconnect"/>
<link href="//tagmanager.alright.network/" rel="preconnect"/>
<link href="//pagead2.googlesyndication.com/" rel="preconnect"/>
<link href="//ajax.googleapis.com/" rel="preconnect"/>
<link href="//cdn.onesignal.com/" rel="preconnect"/>
<link href="//connect.facebook.net/" rel="preconnect"/>
<meta charset="utf-8"/>
<meta content="IE=edge" http-equiv="X-UA-Compatible"/>
<meta content="width=device-width, initial-scale=1" name="viewport"/>
<title>Bem Paraná</title>
<meta content="Jornal Bem Paraná" property="author"/>
<meta content="summary" name="twitter:card"/>
<meta content="" property="og:title"/>
<meta content="" property="og:description"/>
<meta content="https://www.bemparana.com.br/" property="og:url"/>
<meta content="" name="description"/>
<meta content="" name="keywords"/>
<meta content="https://uploads.bemparana.com.br/img/bemparana-facebook-padrao.png" property="og:image"/>
<meta content="600" property="og:image:width"/>
<meta content="420" property="og:image:height"/>
<meta content="image/jpeg" property="og:image:mime"/>
<meta content="" property="og:image:alt"/>
<meta content="" name="keywords"/>
<meta content="b94232b44389dba" name="cf-2fa-verify"/>
<link crossorigin="anonymous" href="https://maxcdn.bootstrapcdn.com/font-awesome/4.7.0/css/font-awesome.min.css" integrity="sha384-wvfXpqpZZVQGK6TAh5PVlGOfQNHSoD2xbE+QkPxCAFlNEevoEH3Sl0sibVcOQVnN" rel="stylesheet"/>
<link href="/css/app.min.css" rel="stylesheet"/>
<!-- <link rel="stylesheet" href="/css/app-adm.css"> -->
<link href="/css/featherlight.css" rel="stylesheet"/>
<link href="/css/theme.css" rel="stylesheet"/>
<script>
            var bpass = localStorage.getItem('bpass')||false;

            (function (i, s, o, g, r, a, m) {
                i['GoogleAnalyticsObject'] = r;
                i[r] = i[r] || function () {
                    (i[r].q = i[r].q || []).push(arguments)
                }, i[r].l = 1 * new Date();
                a = s.createElement(o),
                    m = s.getElementsByTagName(o)[0];
                a.async = 1;
                a.src = g;
                m.parentNode.insertBefore(a, m)
            })(window, document, 'script', '//www.google-analytics.com/analytics.js', 'ga');

            ga('create', 'UA-1990209-1', 'auto', { 'name': 'id0' });
            ga('create', 'UA-1990209-12', 'auto', { 'name': 'id1' });
            ga('id0.send', 'pageview');
            ga('id1.send', 'pageview', '/home');
            
            var trackOutboundLink = function (url) {
                ga('send', 'event', 'outbound', 'click', url, {
                    'transport': 'beacon',
                    'hitCallback': function () {
                        document.location = url;
                    }
                });
            }
        </script>
<meta content="300" http-equiv="refresh"/>
<script async="async" src="https://securepubads.g.doubleclick.net/tag/js/gpt.js"></script>
<script>
        window.googletag = window.googletag || {cmd: []};
    </script>
<script>
        googletag.cmd.push(function() {
            if (bpass == false) {
                googletag.defineSlot('/1025059/bemparana_728x90_topo', [[728, 90],[960,90],[980,120],[980,90]], 'div-gpt-ad-1522770509444-0').addService(googletag.pubads());
                googletag.defineSlot('/1025059/bemparana_300x120_mobile_topo', [[300, 120],[300, 50],[320, 50],[300, 100],[300, 75],[300, 150],[320, 100]], 'div-gpt-ad-1523969115942-0').addService(googletag.pubads());
                googletag.defineSlot('/1025059/bemparana_300x600_direita_topo', [[300, 600],[300, 250]], 'div-gpt-ad-1522770458753-0').addService(googletag.pubads());
                googletag.defineSlot('/1025059/bemparana_300x250_direita_1', [300, 250], 'div-gpt-ad-1522770563385-0').addService(googletag.pubads());
                googletag.defineSlot('/1025059/bemparana_300x250_bloco', [300, 250], 'div-gpt-ad-1522770614767-0').addService(googletag.pubads());
            }

            googletag.defineSlot('/1025059/bemparana_300x133', [300, 133], 'div-gpt-ad-1581467797178-0').addService(googletag.pubads());
            googletag.defineSlot('/1025059/300x120-parceria', [300, 120], 'div-gpt-ad-1602194018226-0').addService(googletag.pubads());

            //googletag.pubads().enableSingleRequest();
            
            // googletag.pubads().enableLazyLoad();
            // googletag.pubads().enableLazyLoad({fetchMarginPercent: -1});
            googletag.pubads().enableLazyLoad({
              fetchMarginPercent: 300,
              renderMarginPercent: 200,
              mobileScaling: 2.0
            });

            // googletag.pubads().collapseEmptyDivs();
            googletag.enableServices();
        });
    </script>
<!-- IVC TAG não remover -->
<script type="text/javascript">
      ;(function(p,l,o,w,i,n,g){if(!p[i]){p.GlobalIvcNamespace=p.GlobalIvcNamespace||[];
      p.GlobalIvcNamespace.push(i);p[i]=function(){(p[i].q=p[i].q||[]).push(arguments)
      };p[i].q=p[i].q||[];n=l.createElement(o);g=l.getElementsByTagName(o)[0];n.async=1;
      n.src=w;g.parentNode.insertBefore(n,g)}}(window,document,"script","//gadasource.storage.googleapis.com/ivc.js","ivc"));

      window.ivc('newTracker', 'cf', 'ivccf.ivcbrasil.org.br', {
        idWeb: '88'
      });

      window.ivc('setUserId', 'login_do_usuario');
      window.ivc('trackPageView');
     </script>
<!-- IVC TAG não remover -->
<link href="/onesignal/manifest.json" rel="manifest"/>
<style>
        .underhome { /* ajuste denakop p/ home */
            margin-bottom: 0 !important;
        }

        nav .topbar .btn.btn-follow:first-child, nav .topbar .btn {
            width: auto;
            margin-right: 0;
        }
        nav .topbar .btn .text {
            /* display: none; */
        }
        nav .topbar .btn.btn-assine .text{
            margin-left: 35px;
        }
        nav .topbar .btn.btn-assine .text.mobile-only {
                display: none;
        }


        @media (max-width:640px)
        {
            nav .topbar .btn.btn-facebook, nav .topbar .btn.btn-twitter, nav .topbar .btn.btn-instagram {
                display: none;
            }
            nav .topbar .btn.btn-assine {
                width: 100%;
            }
            nav .topbar .btn.btn-assine .text.mobile-only {
                display: block;
                margin-left: 0;
                font-size: 14px;
            }
            nav .topbar .btn.btn-assine .text.desktop-only {
                display: none;
            }

            #feed-lastnews .col-lg-12.col-md-12.col-sm-12 .heading h1 {
                min-height:auto 180px;
                height:auto !important;
                line-height: 38px;
            }
            #feed-lastnews .col-lg-8.col-md-12.col-sm-12 .heading h1 {
                min-height:auto 132px;
                height:auto !important;
                line-height: 32px;
            }
            
        }

        .headover-ads a{ color: #b3b3b3; }
        .headover-ads a:hover{ color: #ad2a89; }
    </style>
<script async="" src="https://v3.denakop.com/denakop.js"></script>
<script>
        if (bpass == false) {
            window.denakoptag = window.denakoptag || { cmd: [] };
            denakoptag.cmd.push(function () {
                denakoptag.setAccountId(10165);
            });
        }
    </script>
</head>
<body itemscope="" itemtype="http://schema.org/WebPage">
<!-- Alright Tag Manager -->
<script type="text/javascript">
        if (bpass == false) {
            var _mtm = _mtm || [];
            _mtm.push({'mtm.startTime': (new Date().getTime()), 'event': 'mtm.Start'});
            var d=document, g=d.createElement('script'), s=d.getElementsByTagName('script')[0];
            g.type='text/javascript'; g.async=true; g.defer=true; g.src='https://tagmanager.alright.network/manager/js/container_180evlVa.js'; s.parentNode.insertBefore(g,s);
        }
    </script>
<!-- End Alright Tag Manager -->
<!-- Menu Principal -->
<nav class="navbar navbar-bemparana">
<div class="topbar">
<div class="container">
<div class="navbar-header">
<!-- Logo -->
<a class="navbar-brand" href="/">
<figure class="logo-bem-parana">
<img alt="Logo Bem Paraná" src="/img/marca-bem-parana.svg"/>
</figure>
</a>
</div>
<!-- Curta nossa página -->
<div class="follow-us">
<a class="btn btn-follow btn-facebook" href="https://www.facebook.com/bemparana" target="_blank" title="Curta nossa página">
<span aria-label="Ícone do Facebook" class="icon fa fa-facebook" role="icon"></span>
<!-- <span class="text" aria-label="Curta nossa página">Curta nossa página</span> -->
</a>
<a class="btn btn-follow btn-twitter" href="https://twitter.com/portalbemparana" target="_blank" title="Siga-nos no Twitter">
<span aria-label="Ícone do Twitter" class="icon fa fa-twitter" role="icon"></span>
<!-- <span class="text" aria-label="Siga-nos no Twitter">Siga-nos no Twitter</span> -->
</a>
<a class="btn btn-follow btn-instagram" href="https://www.instagram.com/bemparana" target="_blank" title="Siga-nos no Intagram">
<span aria-label="Ícone do Instagram" class="icon fa fa-instagram" role="icon"></span>
<!-- <span class="text" aria-label="Siga-nos no Instagram">Siga-nos no Twitter</span> -->
</a>
<a class="btn btn-follow btn-assine" href="/assinatura" onclick="javascript:ga('id0.send', 'event', 'INTERACAO', 'click', 'Assine - topo');" target="_blank" title="Faça sua assintura digital">
<span aria-label="Faça sua assintura digital" class="text desktop-only">Assine por R$ 1,99 / mês</span>
<span aria-label="Faça sua assintura digital" class="text mobile-only">Assine R$ 1,99</span>
</a>
</div>
<!-- Pesquisa -->
<form action="/search" class="navbar-form navbar-right">
<div class="form-group">
<input class="search form-control" name="q" placeholder="Buscar" required="true" type="search"/>
<button class="btn" type="submit">
<span aria-label="Buscar" class="icon fa fa-search" role="icon"></span>
</button>
</div>
</form>
</div>
</div>
<!-- Menu de navegação -->
<div class="container">
<!-- Menu de navegação -->
<div class="navbar-second" id="navbar">
<ul class="nav navbar-nav">
<li class="list-group-item">
<a href="/noticia">Notícias</a>
</li>
<li class="list-group-item">
<a href="/noticia/term/esportes">Esportes</a>
</li>
<li class="list-group-item">
<a href="/noticia/term/turismo-parana">Turismo Paraná</a>
</li>
<li class="list-group-item">
<a href="/noticia/term/politica">Política</a>
</li>
</ul>
<button aria-controls="megamenu" aria-expanded="false" class="megamenu-toggle" data-target="#megamenu" data-toggle="collapse" type="button">
<span class="sr-only">Toggle navigation</span>
<span class="fa fa-plus"></span>
<span class="fa fa-bars"></span>
</button>
</div>
<!-- Mega Menu -->
<div class="container collapse" id="megamenu">
<div class="row col-lg-11 col-lg-offset-1 col-md-12">
<div class="col-lg-2 col-md-3 col-sm-6 col-xs-12" id="151">
<h1>Notícias</h1>
<ul class="list-group">
<li class="list-group-item">
<a href="/noticia/term/regiao-metropolitana">Região Metropolitana</a>
</li>
<li class="list-group-item">
<a href="/noticia/term/parana">Paraná</a>
</li>
<li class="list-group-item">
<a href="/noticia/term/brasil">Brasil</a>
</li>
<li class="list-group-item">
<a href="/noticia/term/mundo">Mundo</a>
</li>
<li class="list-group-item">
<a href="/noticia/term/politica">Política</a>
</li>
<li class="list-group-item">
<a href="/noticia/term/economia">Economia</a>
</li>
<li class="list-group-item">
<a href="/noticia/term/educacao">Educação</a>
</li>
<!-- <li class="list-group-item">
                                <a href="/obituario">Obituário</a>
                            </li> -->
</ul>
</div>
<div class="col-lg-2 col-md-3 col-sm-6 col-xs-12" id="162">
<h1>Esportes</h1>
<ul class="list-group">
<li class="list-group-item">
<a href="/noticia/term/atletico-paranaense">Atlético Paranaense</a>
</li>
<li class="list-group-item">
<a href="/noticia/term/coritiba">Coritiba</a>
</li>
<li class="list-group-item">
<a href="/noticia/term/parana-clube">Paraná Clube</a>
</li>
<li class="list-group-item">
<a href="/bolao">Bolão Paranaense 2020</a>
</li>
</ul>
</div>
<div class="col-lg-2 col-md-3 col-sm-6 col-xs-12" id="166">
<h1>Diversão e Arte</h1>
<ul class="list-group">
<li class="list-group-item">
<a href="https://barulhocuritiba.bemparana.com.br/post/term/festival-teatro-curitiba">Festival de Teatro de Curitiba</a>
</li>
<!-- <li class="list-group-item">
                                <a href="/noticia/term/especialnatal">Especial Natal</a>
                            </li> -->
<li class="list-group-item">
<a href="/guia-curitiba">Programação Curitiba</a>
</li>
<li class="list-group-item">
<a href="/guia-curitiba/cinema">Cinema</a>
</li>
<li class="list-group-item">
<a href="/guia-curitiba/musica">Música</a>
</li>
<li class="list-group-item">
<a href="/guia-curitiba/exposicoes">Exposições</a>
</li>
<li class="list-group-item">
<a href="/noticia/term/cultura">Cultura</a>
</li>
<li class="list-group-item">
<a class="televisao" href="/noticia/term/televisao">Televisão</a>
</li>
<li class="list-group-item">
<a href="https://barulhocuritiba.bemparana.com.br">Barulho Curitiba</a>
</li>
<li class="list-group-item">
<a href="https://quale.bemparana.com.br">Qualé</a>
</li>
</ul>
</div>
<div class="col-lg-2 col-md-3 col-sm-6 col-xs-12" id="172">
<h1>Bem Estar</h1>
<ul class="list-group">
<li class="list-group-item">
<a href="/noticia/term/gastronomia">Gastronomia</a>
</li>
<li class="list-group-item">
<a href="/noticia/term/saude-e-beleza">Saúde e Beleza</a>
</li>
<li class="list-group-item">
<a href="/noticia/term/tendencias">Moda e Tendências</a>
</li>
<li class="list-group-item">
<a href="/noticia/term/turismo">Turismo</a>
</li>
<li class="list-group-item">
<a href="/noticia/term/turismo-parana">Turismo Bem Paraná</a>
</li>
<li class="list-group-item">
<a href="/horoscopo">Horóscopo</a>
</li>
<li class="list-group-item">
<a href="https://saudedebate.com.br" target="_blank">Saúde Debate</a>
</li>
</ul>
</div>
<div class="clearfix visible-md visible-sm visible-xs"></div>
<div class="col-lg-2 col-md-3 col-sm-6 col-xs-12" id="215">
<h1>Opinião</h1>
<ul class="list-group">
<li class="list-group-item"><a href="/noticia/term/opiniao">Artigos</a></li>
<li class="list-group-item"><a href="/blogs">Blogs</a></li>
<li class="list-group-item"><a href="/noticia/term/colunas">Colunas</a></li>
<li class="list-group-item"><a href="/galeria">Galeria de Fotos</a></li>
<li class="list-group-item"><a href="/noticia/term/podcast">Podcast Bem Paraná</a></li>
</ul>
</div>
</div>
</div>
</div>
</nav>
<!-- /nav -->
<!-- BLOG HEADER -->
<!-- ANUNCIO -->
<div class="container-fluid" id="main" role="main">
<!-- Breadcrumb -->
<!-- CONTEUDO PRINCIPAL -->
<main itemprop="mainEntity" itemscope="" itemtype="http://schema.org/Article">
<!-- FULL DESTAQUE -->
<article class="article__header home-cover special" data-pos="1">
<header class="container" itemprop="headline">
<div class="heading" role="heading">
<span class="headover">Nesta quarta-feira</span>
<h1 itemprop="name">
<a href="/noticia/pazuello-confirma-envio-de-aviao-a-india-para-embarque-de-2-milhoes-de-doses-de-vacina-contra-covid-19" rel="bookmark" title="Pazuello confirma avião para embarque de 2 milhões de doses contra Covid-19 na Índia e inicio de vacinação em janeiro">Pazuello confirma avião para embarque de 2 milhões de doses contra Covid-19 na Índia e inicio de vacinação em janeiro</a>
</h1>
</div>
<div class="row">
<figure class="">
<div class="img-responsive">
<img alt="Pazuello confirma avião para embarque de 2 milhões de doses contra Covid-19 na Índia e inicio de vacinação em janeiro" itemprop="image" src="https://uploads.bemparana.com.br/upload/image/noticia/tb3/noticia_309514_img1_pazuello.jpg"/>
</div>
<figcaption>Pazuello confirma avião para embarque de 2 milhões de doses contra Covid-19 na Índia e inicio de vacinação em janeiro</figcaption>
</figure>
</div>
</header>
<div class="container" data-pg-collapsed="">
<div class="col-lg-12 col-md-12 col-sm-12 manchete related-content">
<div class="related-content">
<ul class="list-group fa-ul">
<li class="list-group-item">
<i class="fa fa-li fa-arrow-right"></i>
<a href="/noticia/pesquisadores-de-ohio-identificam-2-novas-variantes-do-coronavirus-nos-eua-769">Pesquisadores de Ohio identificam 2 novas variantes do coronavírus nos EUA</a>
</li>
</ul>
</div>
</div>
</div>
</article>
<!-- ANUNCIO -->
<div class="container bpbanner">
<div class="ads ads--super-banner hidden-sm">
<span class="headover-ads rows--x2"><a href="/assinatura" onclick="javascript:ga('id0.send', 'event', 'INTERACAO', 'click', 'Assine - banners');" target="_blank">Assine e navegue sem anúncios [+]</a></span>
<div class="content w728">
<!-- /1025059/bemparana_728x90_topo -->
<div class="hidden-sm" id="div-gpt-ad-1522770509444-0" style="min-height:90px; min-width:728px;">
<script>
                            googletag.cmd.push(function() { googletag.display('div-gpt-ad-1522770509444-0'); });
                        </script>
</div>
</div>
</div>
</div>
<div class="container bpbanner" style="width: 100%; padding:0px !important">
<div class="ads ads--rectangle-medium--half visible-sm">
<span class="headover-ads"><a href="/assinatura" onclick="javascript:ga('id0.send', 'event', 'INTERACAO', 'click', 'Assine - banners');" target="_blank">Assine e navegue sem anúncios [+]</a></span>
<div class="content">
<!-- /1025059/bemparana_300x120_mobile_topo -->
<div id="div-gpt-ad-1523969115942-0" style="text-align:center; min-height:50px; min-width:300px;">
<script>
                            googletag.cmd.push(function() { googletag.display('div-gpt-ad-1523969115942-0'); });
                        </script>
</div>
</div>
</div>
</div>
<div class="section container feed-lastnews" id="feed-lastnews">
<div class="row">
<div class="col-lg-12 col-md-12 col-sm-12">
<article data-pos="2">
<header class="container">
<a href="/noticia/parana-esta-pronto-para-iniciar-vacinacao-contra-a-covid-19-diz-ratinho-junior">
<div class="heading" role="heading">
<span class="headover">Pandemia</span>
<figure class="bp-media sm-rows--x23">
<div class="img-responsive">
<img alt="Paraná está pronto para iniciar vacinação contra a Covid-19, diz Ratinho Junior" src="https://uploads.bemparana.com.br/upload/image/noticia/tb2/noticia_844662_img1_seringas.jpg"/>
</div>
</figure>
<h1>Paraná está pronto para iniciar vacinação contra a Covid-19, diz Ratinho Junior</h1>
</div>
</a>
</header>
<div class="container" data-pg-collapsed="">
<div class="col-lg-12 col-md-12 col-sm-12 manchete related-content">
<div class="related-content">
<ul class="list-group fa-ul">
<li class="list-group-item">
<i class="fa fa-li fa-arrow-right"></i>
<a href="/noticia/eficacia-menor-da-coronavac-exige-rapidez-na-vacinacao-298">Eficácia menor da Coronavac exige rapidez na vacinação</a>
</li>
<li class="list-group-item">
<i class="fa fa-li fa-arrow-right"></i>
<a href="/noticia/parana-tem-mais-8.927-novos-casos-e-116-obitos-pela-covid-19-mostra-boletim-desta-terca">Paraná tem mais 8.927 novos casos e 116 óbitos pela Covid-19, mostra boletim desta terça</a>
</li>
<li class="list-group-item">
<i class="fa fa-li fa-arrow-right"></i>
<a href="/noticia/curitiba-registra-743-casos-de-covid-19-e-12-mortes-nesta-terca.-vitima-mais-jovem-tinha-29-anos">Curitiba registra 743 casos de Covid-19 e 12 mortes nesta terça. Vítima mais jovem tinha 29 anos</a>
</li>
</ul>
</div>
</div>
</div>
</article>
</div>
</div>
<!-- main coluna principal -->
<div class="col-main pull-left col-lg-8 col-md-12 col-sm-12">
<article data-pos="3">
<header class="container">
<div class="heading" role="heading">
<span class="headover ">Pandemia</span>
<a href="/noticia/morre-algaci-tulio-aos-80-anos-por-complicacoes-da-covid-19">
<figure class="bp-media sm-rows--x23">
<div class="img-responsive">
<img alt="Morre Algaci Tulio, aos 80 anos, por complicações da Covid-19" src="https://uploads.bemparana.com.br/upload/image/noticia/noticia_422920_img1_algaci-tlio.jpg"/>
</div>
</figure>
<h1>Morre Algaci Tulio, aos 80 anos, por complicações da Covid-19</h1>
</a>
</div>
</header>
<div class="container" data-pg-collapsed="">
<div class="col-lg-12 col-md-12 col-sm-12 submanchete related-content">
<div class="related-content">
<ul class="list-group fa-ul">
<li class="list-group-item">
<i class="fa fa-li fa-arrow-right"></i>
<a href="/noticia/filha-faz-postagem-de-despedida-emocionada-do-pai-algaci-tulio-morto-pela-covid-19">Filha faz postagem de despedida emocionada do pai Algaci Tulio, morto pela Covid-19</a>
</li>
</ul>
</div>
</div>
</div>
</article>
</div>
<!-- sidebar coluna de direita -->
<div class="col-sidebar pull-right col-lg-4 col-md-6 col-sm-12">
<!-- blog box -->
<div class="col-box col-blog__stories container">
<h2 class="col-box__title">
<span>Blogs</span>
</h2>
<article class="blog-box">
<header class="blog-box__header">
<a href="/blog/metropole">
<div class="blog-box__avatar">
<figure class="bp-avatar">
<div class="img-responsive">
<img alt="Metropole" src="https://uploads.bemparana.com.br/upload/image/blog/tb1/blog_339123_img1_metropole.jpg"/>
</div>
</figure>
</div>
<div class="blog-box__heading-txt">
<h3 class="blog-box__name">Metropole</h3>
</div>
</a>
</header>
<div class="blog-box__content row">
<a href="/blog/metropole">
<div class="blog-box__content-txt col-sm-12">
<h1>Pacientes que realizaram coleta para exames de Covid-19…</h1>
</div>
</a>
</div>
</article>
<article class="blog-box">
<header class="blog-box__header">
<a href="/blog/mesadividida">
<div class="blog-box__avatar">
<figure class="bp-avatar">
<div class="img-responsive">
<img alt="Mesa Dividida" src="https://uploads.bemparana.com.br/upload/image/blog/tb1/blog_236922_img1_mesadividida.jpg"/>
</div>
</figure>
</div>
<div class="blog-box__heading-txt">
<h3 class="blog-box__name">Mesa Dividida</h3>
</div>
</a>
</header>
<div class="blog-box__content row">
<a href="/blog/mesadividida">
<div class="blog-box__content-txt col-sm-12">
<h1>Museu Histórico de Witmarsum reformará sede com…</h1>
</div>
</a>
</div>
</article>
<article class="blog-box">
<header class="blog-box__header">
<a href="/blog/comerecurtir">
<div class="blog-box__avatar">
<figure class="bp-avatar">
<div class="img-responsive">
<img alt="Comer e Curtir" src="https://uploads.bemparana.com.br/upload/image/blog/tb1/blog_970988_img1_comerecurtir.jpg"/>
</div>
</figure>
</div>
<div class="blog-box__heading-txt">
<h3 class="blog-box__name">Comer e Curtir</h3>
</div>
</a>
</header>
<div class="blog-box__content row">
<a href="/blog/comerecurtir">
<div class="blog-box__content-txt col-sm-12">
<h1>Verão e carne suína combinam! Confira receitas leves…</h1>
</div>
</a>
</div>
</article>
<a class="btn btn-default" href="/blogs">Todos os Blogs</a>
</div>
<!-- noticias -->
<div class="col-box container">
<article data-pos="6">
<header class="container">
<div class="heading" role="heading">
<a href="/noticia/filha-de-ex-prefeito-de-ponta-grossa-posta-video-com-frasco-de-vacina-em-rede-social">
<span class="headover">Polêmica</span>
<figure class="bp-media">
<div class="img-responsive">
<img alt="Filha de ex-prefeito de Ponta Grossa posta vídeo com frasco de vacina em rede social" src="https://uploads.bemparana.com.br/upload/image/noticia/tb1/noticia_440638_img1_tiktok.jpg"/>
</div>
</figure>
<h1>Filha de ex-prefeito de Ponta Grossa posta vídeo com frasco de vacina em rede social</h1>
</a>
</div>
</header>
</article>
<article data-pos="9">
<header class="container">
<div class="heading" role="heading">
<a href="/noticia/sequestrador-de-irmao-da-dupla-zeze-de-camargo-e-luciano-morre-em-confronto-na-grande-curitiba">
<span class="headover">Estava foragido</span>
<h1>Sequestrador de irmão da dupla Zezé de Camargo e Luciano morre em confronto na Grande Curitiba</h1>
</a>
</div>
</header>
</article>
<article data-pos="10">
<header class="container">
<div class="heading" role="heading">
<a href="/noticia/condenada-por-crimes-de-transito-mulher-e-presa-em-londrina">
<span class="headover">Norte do Paraná</span>
<h1>Condenada por crimes de trânsito, mulher é presa em Londrina</h1>
</a>
</div>
</header>
</article>
</div>
<!-- ANUNCIO -->
<div class="ads ads--rectangle-medium bpbanner">
<span class="headover-ads"><a href="/assinatura" onclick="javascript:ga('id0.send', 'event', 'INTERACAO', 'click', 'Assine - banners');" target="_blank">Assine e navegue sem anúncios [+]</a></span>
<div class="content">
<!-- /1025059/bemparana_300x250_direita_1 -->
<div id="div-gpt-ad-1522770563385-0" style="min-height:250px; min-width:300px;">
<script>
                                    googletag.cmd.push(function() { googletag.display('div-gpt-ad-1522770563385-0'); });
                                </script>
</div>
</div>
</div>
</div>
<!-- /col-sidebar -->
<!-- main coluna principal - duas colunas, 4 news e 2 fotos -->
<div class="col-main pull-left col-lg-8 col-md-6 col-sm-12">
<div class="container">
<div class="row">
<div class="col-lg-6">
<div class="container-fluid">
<div class="row">
<article data-pos="4">
<header class="container">
<div class="heading" role="heading">
<a href="/noticia/na-onda-de-liquidacoes-mais-um-shopping-de-curitiba-anuncia-descontos-de-ate-70">
<span class="headover">Lápis Vermelho</span>
<figure class="bp-media">
<div class="img-responsive">
<img alt="Na onda de liquidações, mais um shopping de Curitiba anuncia descontos de até 70%" src="https://uploads.bemparana.com.br/upload/image/noticia/tb1/noticia_766054_img1_pkb.jpg"/>
</div>
</figure>
<h1>Na onda de liquidações, mais um shopping de Curitiba anuncia descontos de até 70%</h1>
</a>
</div>
</header>
</article>
</div>
<div class="row">
<article data-pos="7">
<header class="container">
<div class="heading" role="heading">
<a href="/noticia/prefeito-licenciado-de-goiania-maguito-vilela-morre-de-covid-19-630">
<span class="headover">Internado desde outubro</span>
<h1>Prefeito licenciado de Goiânia, Maguito Vilela morre de covid-19</h1>
</a>
</div>
</header>
</article>
</div>
</div>
</div>
<div class=" col-lg-6 ">
<div class="container-fluid">
<div class="row">
<article data-pos="5">
<header class="container">
<div class="heading" role="heading">
<a href="/noticia/procura-se-curitibano-que-ganhou-r-1-milhao-em-sorteio-do-nota-parana">
<span class="headover">Inusitado</span>
<figure class="bp-media">
<div class="img-responsive">
<img alt="Procura-se curitibano que ganhou R$ 1 milhão em sorteio do Nota Paraná" src="https://uploads.bemparana.com.br/upload/image/noticia/tb1/noticia_273011_img1_notaparana.jpg"/>
</div>
</figure>
<h1>Procura-se curitibano que ganhou R$ 1 milhão em sorteio do Nota Paraná</h1>
</a>
</div>
</header>
</article>
</div>
<div class="row">
<article data-pos="8">
<header class="container">
<div class="heading" role="heading">
<a href="/noticia/beneficios-do-inss-acima-do-minimo-tem-reajuste-de-545-teto-vai-a-r-6.43357-792">
<span class="headover">Pensão e aposentadoria</span>
<h1>Benefícios do INSS acima do mínimo têm reajuste de 5,45%; teto vai a R$ 6.433,57</h1>
</a>
</div>
</header>
</article>
</div>
</div>
</div>
</div>
</div>
</div>
<!-- main coluna principal - 1 foto grande -->
<div class="col-main pull-left col-lg-8 col-md-12 col-sm-12">
<article data-pos="11">
<header class="container">
<div class="heading" role="heading">
<span class="headover ">Renda</span>
<a href="/noticia/salario-minimo-do-parana-varia-de-r-1.46740-a-r-1.69620-o-maior-do-pais">
<figure class="bp-media sm-rows--x23">
<div class="img-responsive">
<img alt="Salário mínimo do Paraná varia de R$ 1.467,40 a R$ 1.696,20; o maior do País" src="https://uploads.bemparana.com.br/upload/image/noticia/noticia_932959_img1_carteira-de-trabalho.jpg"/>
</div>
</figure>
<h1>Salário mínimo do Paraná varia de R$ 1.467,40 a R$ 1.696,20; o maior do País</h1>
</a>
</div>
</header>
<div class="container" data-pg-collapsed="">
<div class="col-lg-12 col-md-12 col-sm-12 manchete related-content">
<div class="related-content">
<ul class="list-group fa-ul">
<li class="list-group-item">
<i class="fa fa-li fa-arrow-right"></i>
<a href="/noticia/em-2020-arrecadacao-do-parana-cai-r-11-milhao-recuo-de-34">Em 2020, arrecadação do Paraná cai R$ 1,1 milhão; recuo de 3,4% </a>
</li>
<li class="list-group-item">
<i class="fa fa-li fa-arrow-right"></i>
<a href="/noticia/governo-do-parana-suspende-reajuste-salarial-servidores-publicos-estaduais">Governo do Paraná suspende reajuste salarial servidores públicos estaduais</a>
</li>
</ul>
</div>
</div>
</div>
</article>
</div>
<!-- main coluna principal - uma noticia -->
<div class="col-main pull-left col-lg-8 col-md-6 col-sm-12">
<div class="container">
<div class="row">
<div class="col-lg-6">
<div class="container-fluid">
<div class="row"> </div>
<div class="row"> </div>
</div>
</div>
<div class=" col-lg-6 ">
<div class="container-fluid">
<div class="row"> </div>
<div class="row"> </div>
</div>
</div>
</div>
</div>
</div>
</div>
<!-- /feed-lastnews -->
<div class="container" style="display:none;">
<!-- <div class="row"> -->
<div class="col-lg-12 col-md-12 col-sm-12">
<div style="padding-top:0px; margin-bottom:30px; height=183px;">
<!-- <iframe src="https://community.lomadee.com/developers/vitrine_responsiva/frameads.html?sourceId=36141214" width="100%" height="183" scrolling="no" frameborder="0"></iframe> -->
</div>
</div>
<!-- </div> -->
</div>
<div class="container sem-padding blocos-outros-impresso">
<div class="col-lg-4 col-md-6 col-sm-12 sem-padding">
<!-- <div class="newsletter-box" data-pg-collapsed="">
                        <form action="/mail_chimp/news/subscribe/ultimas-noticias" method="post">
                            <div class="form-group" data-pg-collapsed="">
                                <label class="headover--label" for="to-comment">Assine nossa newsletter</label>
                                <input id="email-newsletter" name="email" class="form-control" type="email" required="true"> 
                            </div>
                            <div class="text-center" data-pg-collapsed="">
                                <button type="submit" class="btn btn-default">Receber</button>
                            </div>
                        </form>
                    </div> -->
<!-- Newsletter box -->
<div id="impresso-box">
<!-- Botões curtir e compartilhar -->
<div class="col-lg-6 col-md-6 col-sm-6">
<div>
<div class="text-center" data-pg-collapsed="">
<a class="btn btn-default" href="/assinatura">Assinatura digital</a>
</div>
<div class="text-center">
<a class="btn btn-default" href="/edital" style="line-height:14px;">Publicidade legal<br/>Certificada</a>
</div>
<div class="text-center">
<a class="btn btn-default" href="/jornaldoestado/impresso">Edição impressa</a>
</div>
</div>
</div>
<div class="col-lg-6 col-md-6 col-sm-6">
<a href="/jornaldoestado/assinatura?redirect=https%3A%2F%2Fuploads.bemparana.com.br%2Fupload%2Fimpresso%2F2021%2F01%2F13" target="_blank">
<img src="https://uploads.bemparana.com.br/upload/image/jornal/jornal_604753_img1_0113-1.jpg"/>
</a>
</div>
</div>
</div>
<div class="col-lg-4 col-md-6 col-sm-12 sem-padding">
<div class="buttons-box" data-pg-collapsed="">
<a class="btn btn-default btn--facebook" href="https://www.facebook.com/bemparana" target="_blank"><span class="icon fa fa-lg fa-facebook"></span>Curta nossa página</a>
<a class="btn btn-default btn--twitter" href="https://twitter.com/portalbemparana" target="_blank"><span class="icon fa fa-lg fa-twitter"></span>Siga-nos no twitter</a>
</div>
<!-- Botões curtir e compartilhar -->
</div>
<div class="col-lg-4 col-md-6 col-sm-12 sem-padding" data-pg-collapsed="">
<div id="div-gpt-ad-1602194018226-0" style="width: 300px; height: 120px; margin: 0 auto !important;">
<script>
                        googletag.cmd.push(function() { googletag.display('div-gpt-ad-1602194018226-0'); });
                      </script>
</div>
</div>
</div>
<!-- /blocos-outros-impresso -->
<div class="row section-guiacultural">
<section class="section section--bg-img coverage-news" style="background-image:url(https://uploads.bemparana.com.br/upload/image/noticia/tb3/noticia_415004_img1_carrigo.jpg)">
<div class="section--black-opacity">
<div class="container">
<h1 class="section__title">Diversão e Arte</h1>
<div class="row">
<div class="col-lg-8 col-md-12 col-sm-12 submanchete">
<div class="bg-article">
<a href="/noticia/mostra-pocket-lives-abre-espaco-para-artistas-curitibanos">
<article data-pos="13">
<header>
<div class="heading" role="heading">
<span class="headover">Música</span>
<figure class="bp-media">
<div class="img-responsive">
<img alt="Mostra Pocket-Lives abre espaço para artistas curitibanos" src="https://uploads.bemparana.com.br/upload/image/noticia/tb1/noticia_415004_img1_carrigo.jpg"/>
</div>
</figure>
<h1>Mostra Pocket-Lives abre espaço para artistas curitibanos</h1>
</div>
</header>
<div class="clearfix"></div>
</article>
</a>
</div>
</div>
<div class="col-box col-lg-4 col-md-12 col-sm-12" style="float:right">
<div class="row">
<div class="col-lg-12 col-md-6 col-sm-12 bannerbarulho">
<!-- <div class="bg-article" style="background: url('/img/curitiba_topo.jpg') no-repeat;">
                                                <article style="text-align:center;">
                                                    <header class="container">
                                                        <a href="https://barulhocuritiba.bemparana.com.br/" target="_blank" style="display:block;">
                                                            <img src="/img/logo-barulho.png" />
                                                        </a>
                                                    </header>
                                                </article>
                                            </div> -->
<!-- /1025059/bemparana_300x133 -->
<div id="div-gpt-ad-1581467797178-0" style="min-width: 300px; min-height: 133px; margin-bottom:12px;">
<script>
                                                googletag.cmd.push(function() { googletag.display('div-gpt-ad-1581467797178-0'); });
                                              </script>
</div>
</div>
<!-- /bannerbarulho -->
<div class="col-lg-12 col-md-6 col-sm-12 culturalsuperior">
<div id="cinema-box" style="background-color:#de3c65">
<a href="https://www.instagram.com/bemparana" target="_blank"><img border="0" src="https://uploads.bemparana.com.br/img/banner-instagram-home.gif"/></a>
</div>
<!-- /cinema-box -->
</div>
<!-- /culturalsuperior -->
<div class="col-lg-12 col-md-6 col-sm-12">
<div class="bg-article">
<a href="/noticia/morre-aos-84-anos-john-reilly-ator-de-dallas-e-general-hospital-139">
<article data-pos="17">
<header class="container">
<div class="heading" role="heading">
<span class="headover">Luto</span>
<h1>Morre aos 84 anos John Reilly, ator de 'Dallas' e 'General Hospital'</h1>
</div>
</header>
</article>
</a>
</div>
</div>
<div class="col-lg-12 col-md-6 col-sm-12">
<div class="bg-article">
<a href="/noticia/gloria-pires-publica-foto-com-o-pai-e-presta-homenagem-961">
<article data-pos="18">
<header class="container">
<div class="heading" role="heading">
<span class="headover">Televisão</span>
<h1>Gloria Pires publica foto com o pai e presta homenagem</h1>
</div>
</header>
</article>
</a>
</div>
</div>
</div>
</div>
<div class="col-lg-4 col-md-6 col-sm-12">
<div class="bg-article">
<a href="/noticia/baixista-do-nightwish-deixa-a-banda-alegando-depressao-e-injusta-relacao-com-industria-musical">
<article data-pos="15">
<header class="container">
<div class="heading" role="heading">
<span class="headover">Música</span>
<figure class="bp-media">
<div class="img-responsive">
<img alt="Baixista do Nightwish deixa a banda alegando depressão e injusta relação com indústria musical" src="https://uploads.bemparana.com.br/upload/image/noticia/tb1/noticia_783939_img1_blogpost_996509_img1_marco-hietala-ruostumaton-2017-1.jpg"/>
</div>
</figure>
<h1>Baixista do Nightwish deixa a banda alegando depressão e injusta relação com indústria musical</h1>
</div>
</header>
</article>
</a>
</div>
</div>
<div class="col-lg-4 col-md-6 col-sm-12">
<div class="bg-article">
<a href="/noticia/covid-19-1-festival-de-cultura-marginal-comeca-nesta-quarta-feira">
<article data-pos="16">
<header class="container">
<div class="heading" role="heading">
<span class="headover">Música</span>
<figure class="bp-media">
<div class="img-responsive">
<img alt="Covid-19: 1° Festival de Cultura Marginal começa nesta quarta-feira" src="https://uploads.bemparana.com.br/upload/image/noticia/tb1/noticia_697909_img1_cultura-marginal.jpg"/>
</div>
</figure>
<h1>Covid-19: 1° Festival de Cultura Marginal começa nesta quarta-feira</h1>
</div>
</header>
</article>
</a>
</div>
</div>
</div>
<!-- /row -->
</div>
</div>
</section>
</div>
<!-- /section-guiacultural -->
<div class="container">
<div class="row">
<section class="col-side col-lg-4 col-md-12 col-sm-12">
<div class="container">
<div class="row">
<div class="col-lg-12 col-md-6 col-sm-12">
<!-- Mais lidas do dia  -->
<div class="col-box col-box--top-daily-news container-fluid">
<h2 class="col-box__title">
<span>Mais Lidas</span>
</h2>
<ol class="list-group" type="1">
<li class="list-group-item">
<article>
<header class="container">
<div class="heading" role="heading">
<a href="/noticia/dono-de-rede-de-supermercados-da-grande-curitiba-morre-vitima-da-covid-19">
<span class="headover">Luto</span>
<h1>Dono de rede de supermercados da Grande Curitiba morre vítima da Covid-19</h1>
</a>
</div>
</header>
</article>
</li>
<li class="list-group-item">
<article>
<header class="container">
<div class="heading" role="heading">
<a href="/noticia/mais-um-shopping-de-curitiba-anuncia-liquidacao-com-desconto-de-ate-70-e-frete-gratis">
<span class="headover">Liquida Verão</span>
<h1>Mais um: shopping de Curitiba anuncia liquidação com descontos de até 70% e frete grátis</h1>
</a>
</div>
</header>
</article>
</li>
<li class="list-group-item">
<article>
<header class="container">
<div class="heading" role="heading">
<a href="/noticia/curitiba-registra-743-casos-de-covid-19-e-12-mortes-nesta-terca.-vitima-mais-jovem-tinha-29-anos">
<span class="headover">Boletim 284</span>
<h1>Curitiba registra 743 casos de Covid-19 e 12 mortes nesta terça. Vítima mais jovem tinha 29 anos</h1>
</a>
</div>
</header>
</article>
</li>
<li class="list-group-item">
<article>
<header class="container">
<div class="heading" role="heading">
<a href="/noticia/governo-do-parana-suspende-reajuste-salarial-servidores-publicos-estaduais">
<span class="headover">Funcionalismo</span>
<h1>Governo do Paraná suspende reajuste salarial servidores públicos estaduais</h1>
</a>
</div>
</header>
</article>
</li>
<li class="list-group-item">
<article>
<header class="container">
<div class="heading" role="heading">
<a href="/noticia/procura-se-curitibano-que-ganhou-r-1-milhao-em-sorteio-do-nota-parana">
<span class="headover">Inusitado</span>
<h1>Procura-se curitibano que ganhou R$ 1 milhão em sorteio do Nota Paraná</h1>
</a>
</div>
</header>
</article>
</li>
</ol>
</div>
<!-- Naoleu  -->
<div class="col-box col-box--top-daily-news container-fluid">
<div class="ads ads--rectangle-medium bpbanner">
<span class="headover-ads"><a href="/assinatura" onclick="javascript:ga('id0.send', 'event', 'INTERACAO', 'click', 'Assine - banners');" target="_blank">Assine e navegue sem anúncios [+]</a></span>
<div class="content">
<!-- /1025059/bemparana_300x250_bloco -->
<div id="div-gpt-ad-1522770614767-0" style="min-height:250px; min-width:300px;">
<script>
                                                        googletag.cmd.push(function() { googletag.display('div-gpt-ad-1522770614767-0'); });
                                                    </script>
</div>
</div>
</div>
<h2 class="col-box__title">
<span>Ainda não leu?</span>
</h2>
<ul class="">
<li class="list-group-item col-lg-12 col-md-12 col-sm-12">
<article>
<header class="container">
<div class="heading" role="heading">
<a href="/noticia/especialista-da-dicas-do-que-fazer-ou-nao-na-hora-de-regar-plantas">
<figure class="bp-media">
<div class="img-responsive">
<img src="https://uploads.bemparana.com.br/upload/image/noticia/tb1/noticia_691142_img1_rega-de-plantas.jpg"/>
</div>
</figure>
<h1>Especialista dá dicas do que fazer ou não na hora de regar plantas</h1>
</a>
</div>
</header>
</article>
</li>
<li class="list-group-item col-lg-12 col-md-12 col-sm-12">
<article>
<header class="container">
<div class="heading" role="heading">
<a href="/noticia/campanha-coleta-tampinhas-de-garrafa-e-lacres-de-latinhas">
<figure class="bp-media">
<div class="img-responsive">
<img src="https://uploads.bemparana.com.br/upload/image/noticia/tb1/noticia_184888_img1_6f1.jpg"/>
</div>
</figure>
<h1>Tampinhas de garrafa e lacres de latinhas podem ajudar causa animal. Saiba como</h1>
</a>
</div>
</header>
</article>
</li>
<li class="list-group-item col-lg-12 col-md-12 col-sm-12">
<article>
<header class="container">
<div class="heading" role="heading">
<a href="/noticia/covid-pode-estar-circulando-no-pais-desde-novembro-de-2019">
<figure class="bp-media">
<div class="img-responsive">
<img src="https://uploads.bemparana.com.br/upload/image/noticia/tb1/noticia_490187_img1_5f1.jpg"/>
</div>
</figure>
<h1>Covid pode estar circulando no País desde novembro de 2019</h1>
</a>
</div>
</header>
</article>
</li>
<li class="list-group-item col-lg-12 col-md-12 col-sm-12">
<article>
<header class="container">
<div class="heading" role="heading">
<a href="/noticia/covid-19-ex-governador-paulo-pimentel-esta-estavel-mas-segue-sedado-na-uti">
<figure class="bp-media">
<div class="img-responsive">
<img src="https://uploads.bemparana.com.br/upload/image/noticia/tb1/noticia_124902_img1_pimentel.jpg"/>
</div>
</figure>
<h1>Covid-19: ex-governador Paulo Pimentel está estável, mas segue sedado na UTI</h1>
</a>
</div>
</header>
</article>
</li>
<li class="list-group-item col-lg-12 col-md-12 col-sm-12">
<article>
<header class="container">
<div class="heading" role="heading">
<a href="/noticia/morre-francis-night-compositor-de-hino-em-homenagem-ao-coritiba">
<figure class="bp-media">
<div class="img-responsive">
<img src="https://uploads.bemparana.com.br/upload/image/noticia/tb1/noticia_789752_img1_esp-coxanautas-francis.jpg"/>
</div>
</figure>
<h1>Morre Francis Night, compositor de hino em homenagem ao Coritiba</h1>
</a>
</div>
</header>
</article>
</li>
<li class="list-group-item col-lg-12 col-md-12 col-sm-12">
<article>
<header class="container">
<div class="heading" role="heading">
<a href="/noticia/aposta-do-parana-leva-r-17-milhao-da-lotofacil">
<figure class="bp-media">
<div class="img-responsive">
<img src="https://uploads.bemparana.com.br/upload/image/noticia/tb1/noticia_251043_img1_lotofacil_00534096_0_-640x400.jpg"/>
</div>
</figure>
<h1>Aposta do Paraná leva R$ 1,7 milhão da Lotofácil</h1>
</a>
</div>
</header>
</article>
</li>
</ul>
</div>
<!-- /Naoleu  -->
</div>
<div class="col-lg-12 col-md-6 col-sm-12 bloco-plantao">
<!-- Plantão de Notícia  -->
<div class="col-box col-box--breaking-news container-fluid">
<h2 class="col-box__title">
<span>Plantão de Notícias</span>
</h2>
<ul class="list-group">
<li class="list-group-item">
<article>
<header class="container">
<div class="heading" role="heading">
<span class="headover">Lápis Vermelho</span>
<h1>
<a href="/noticia/na-onda-de-liquidacoes-mais-um-shopping-de-curitiba-anuncia-descontos-de-ate-70">Na onda de liquidações, mais um shopping de Curitiba…</a>
</h1>
</div>
</header>
</article>
</li>
<li class="list-group-item">
<article>
<header class="container">
<div class="heading" role="heading">
<span class="headover"></span>
<h1>
<a href="/noticia/mpf-pede-adiamento-de-enem-no-amazonas-em-razao-de-aumento-de-casos-de-covid-19-417">MPF pede adiamento de Enem no Amazonas em razão de aumento…</a>
</h1>
</div>
</header>
</article>
</li>
<li class="list-group-item">
<article>
<header class="container">
<div class="heading" role="heading">
<span class="headover"></span>
<h1>
<a href="/noticia/bolsonaro-veta-liberacao-total-de-recursos-de-fundo-para-ciencia-e-tecnologia-745">Bolsonaro veta liberação total de recursos de…</a>
</h1>
</div>
</header>
</article>
</li>
<li class="list-group-item">
<article>
<header class="container">
<div class="heading" role="heading">
<span class="headover"></span>
<h1>
<a href="/noticia/maisa-e-jovem-hippie-em-busca-do-pai-no-novo-filme-pai-em-dobro-151">Maisa é jovem hippie em busca do pai no novo filme 'Pai…</a>
</h1>
</div>
</header>
</article>
</li>
<li class="list-group-item">
<article>
<header class="container">
<div class="heading" role="heading">
<span class="headover"></span>
<h1>
<a href="/noticia/juiza-suspende-processo-do-cidadania-contra-fernando-cury-por-assedio-a-isa-penna-994">Juíza suspende processo do Cidadania contra Fernando…</a>
</h1>
</div>
</header>
</article>
</li>
<li class="list-group-item">
<article>
<header class="container">
<div class="heading" role="heading">
<span class="headover"></span>
<h1>
<a href="/noticia/com-retomada-da-industria-e-vendas-de-embalagens-setor-cresce-55-em-2020-918">Com retomada da indústria e vendas de embalagens, setor…</a>
</h1>
</div>
</header>
</article>
</li>
</ul>
<a class="btn btn-default" href="/noticia">Mais notícias</a>
</div>
<!-- <div class="ads ads--rectangle-medium">
                                        <span class="headover-ads"><a href="/assinatura" target="_blank" onclick="javascript:ga('id0.send', 'event', 'INTERACAO', 'click', 'Assine - banners');">Assine e navegue sem anúncios [+]</a></span>
                                        <div style="margin-bottom:30px; height=183px;">
                                            <iframe src="https://community.lomadee.com/developers/vitrine_responsiva/frameads.html?sourceId=36141214" width="100%" height="183" scrolling="no" frameborder="0"></iframe>
                                        </div>
                                    </div> -->
</div>
<!-- bloco-plantao -->
</div>
</div>
</section>
<section class="section list-news col-lg-8 col-md-12 col-sm-12">
<div id="display2_alright"></div>
<h1 class="section__title">DESTAQUES DOS EDITORES</h1>
<div class="container">
<div class="row">
<ul class="list-group">
<li class="list-group-item">
<article data-pos="19">
<header class="row">
<a href="/noticia/com-gol-de-falta-parana-clube-vence-time-do-g4-e-encerra-jejum-caseiro">
<div class="heading" role="heading">
<div class="col-lg-12 col-md-12 col-sm-12">
<span class="headover">Série B</span>
</div>
<div class="row">
<div class="col-lg-6 col-md-12 col-sm-12">
<div class="container-fluid">
<figure class="bp-media">
<div class="img-responsive">
<img src="https://uploads.bemparana.com.br/upload/image/noticia/tb1/noticia_644076_img1_whatsapp-image-2021-01-12-at-19.48.54.jpeg"/>
</div>
</figure>
</div>
</div>
<div class="col-lg-6 col-md-12 col-sm-12">
<div class="container-fluid">
<h1>Com gol de falta, Paraná Clube vence time do G4 e encerra jejum caseiro</h1>
</div>
</div>
</div>
</div>
</a>
</header>
</article>
</li>
<li class="list-group-item">
<article data-pos="20">
<header class="row">
<a href="/noticia/autuori-registra-seu-melhor-aproveitamento-na-historia-dos-pontos-corridos">
<div class="heading" role="heading">
<div class="col-lg-12 col-md-12 col-sm-12">
<span class="headover">Brasileirão</span>
</div>
<div class="row">
<div class="col-lg-6 col-md-12 col-sm-12">
<div class="container-fluid">
<figure class="bp-media">
<div class="img-responsive">
<img src="https://uploads.bemparana.com.br/upload/image/noticia/tb1/noticia_613824_img1_esp-cap-autuori.jpg"/>
</div>
</figure>
</div>
</div>
<div class="col-lg-6 col-md-12 col-sm-12">
<div class="container-fluid">
<h1>Autuori registra seu melhor aproveitamento na Era dos Pontos Corridos</h1>
</div>
</div>
</div>
</div>
</a>
</header>
</article>
</li>
<li class="list-group-item">
<article data-pos="21">
<header class="row">
<a href="/noticia/coritiba-contrata-analista-de-mercado-do-athletico-e-coordenador-da-chapecoense">
<div class="heading" role="heading">
<div class="col-lg-12 col-md-12 col-sm-12">
<span class="headover">Mercado da bola</span>
</div>
<div class="row">
<div class="col-lg-6 col-md-12 col-sm-12">
<div class="container-fluid">
<figure class="bp-media">
<div class="img-responsive">
<img src="https://uploads.bemparana.com.br/upload/image/noticia/tb1/noticia_942822_img1_esp-coxa-profissionais.jpg"/>
</div>
</figure>
</div>
</div>
<div class="col-lg-6 col-md-12 col-sm-12">
<div class="container-fluid">
<h1>Coritiba contrata analista de mercado do Athletico e coordenador da Chapecoense</h1>
</div>
</div>
</div>
</div>
</a>
</header>
</article>
</li>
<li class="list-group-item">
<article data-pos="22">
<header class="row">
<a href="/noticia/volume-de-servicos-cresce-21-em-novembro-no-parana">
<div class="heading" role="heading">
<div class="col-lg-12 col-md-12 col-sm-12">
<span class="headover">Paraná</span>
</div>
<div class="row">
<div class="col-lg-6 col-md-12 col-sm-12">
<div class="container-fluid">
<figure class="bp-media">
<div class="img-responsive">
<img src="https://uploads.bemparana.com.br/upload/image/noticia/tb1/noticia_493947_img1_carambei-parque-historico.jpg"/>
</div>
</figure>
</div>
</div>
<div class="col-lg-6 col-md-12 col-sm-12">
<div class="container-fluid">
<h1>Volume de serviços cresce 2,1% em novembro no Paraná</h1>
</div>
</div>
</div>
</div>
</a>
</header>
</article>
</li>
<li class="list-group-item">
<article data-pos="23">
<header class="row">
<a href="/noticia/ibge-safra-de-2021-sera-recorde-de-2605-milhoes-de-toneladas-25-ante-2020-707">
<div class="heading" role="heading">
<div class="col-lg-12 col-md-12 col-sm-12">
<span class="headover">Produção</span>
</div>
<div class="row">
<div class="col-lg-6 col-md-12 col-sm-12">
<div class="container-fluid">
<figure class="bp-media">
<div class="img-responsive">
<img src="https://uploads.bemparana.com.br/upload/image/noticia/tb1/noticia_531866_img1_plantacao_colheita_de_soja1211202710.jpg"/>
</div>
</figure>
</div>
</div>
<div class="col-lg-6 col-md-12 col-sm-12">
<div class="container-fluid">
<h1>IBGE: safra de 2021 será recorde de 260,5 milhões de toneladas (+2,5% ante 2020)</h1>
</div>
</div>
</div>
</div>
</a>
</header>
</article>
</li>
<div id="display3_alright"></div>
<li class="list-group-item">
<article data-pos="24">
<header class="row">
<a href="/noticia/gas-de-cozinha-sobe-o-dobro-da-inflacao-mas-nao-foi-o-unico">
<div class="heading" role="heading">
<div class="col-lg-12 col-md-12 col-sm-12">
<span class="headover">Custo de vida</span>
</div>
<div class="row">
<div class="col-lg-6 col-md-12 col-sm-12">
<div class="container-fluid">
<figure class="bp-media">
<div class="img-responsive">
<img src="https://uploads.bemparana.com.br/upload/image/noticia/tb1/noticia_840216_img1_8f1.jpg"/>
</div>
</figure>
</div>
</div>
<div class="col-lg-6 col-md-12 col-sm-12">
<div class="container-fluid">
<h1>Gás de cozinha sobe o dobro da inflação, mas não foi o único</h1>
</div>
</div>
</div>
</div>
</a>
</header>
</article>
</li>
<li class="list-group-item">
<article data-pos="25">
<header class="row">
<a href="/noticia/suspeitos-de-assalto-a-motoboy-morrem-em-confronto-com-pm-no-trevo-do-atuba">
<div class="heading" role="heading">
<div class="col-lg-12 col-md-12 col-sm-12">
<span class="headover">Região Metropolitana de Curitiba</span>
</div>
<div class="row">
<div class="col-lg-6 col-md-12 col-sm-12">
<div class="container-fluid">
<figure class="bp-media">
<div class="img-responsive">
<img src="https://uploads.bemparana.com.br/upload/image/noticia/tb1/noticia_894290_img1_policia-militar.jpg"/>
</div>
</figure>
</div>
</div>
<div class="col-lg-6 col-md-12 col-sm-12">
<div class="container-fluid">
<h1>Suspeitos de assalto a motoboy morrem em confronto com PM no Trevo do Atuba</h1>
</div>
</div>
</div>
</div>
</a>
</header>
</article>
</li>
<li class="list-group-item">
<article data-pos="26">
<header class="row">
<a href="/noticia/mega-sena-acumulada-sorteia-nesta-quarta-feira-premio-de-r-12-milhoes">
<div class="heading" role="heading">
<div class="col-lg-12 col-md-12 col-sm-12">
<span class="headover">Loteria</span>
</div>
<div class="row">
<div class="col-lg-6 col-md-12 col-sm-12">
<div class="container-fluid">
<figure class="bp-media">
<div class="img-responsive">
<img src="https://uploads.bemparana.com.br/upload/image/noticia/tb1/noticia_250957_img1_mega-sena-premio.jpg"/>
</div>
</figure>
</div>
</div>
<div class="col-lg-6 col-md-12 col-sm-12">
<div class="container-fluid">
<h1>Mega-Sena acumulada sorteia nesta quarta-feira prêmio de R$ 12 milhões</h1>
</div>
</div>
</div>
</div>
</a>
</header>
</article>
</li>
<li class="list-group-item">
<article data-pos="27">
<header class="row">
<a href="/noticia/nao-faco-contas-diz-o-tecnico-do-parana-clube">
<div class="heading" role="heading">
<div class="col-lg-12 col-md-12 col-sm-12">
<span class="headover">Série B</span>
</div>
<div class="row">
<div class="col-lg-6 col-md-12 col-sm-12">
<div class="container-fluid">
<figure class="bp-media">
<div class="img-responsive">
<img src="https://uploads.bemparana.com.br/upload/image/noticia/tb1/noticia_805854_img1_whatsapp-image-2021-01-12-at-19.44.36.jpeg"/>
</div>
</figure>
</div>
</div>
<div class="col-lg-6 col-md-12 col-sm-12">
<div class="container-fluid">
<h1>‘Não faço contas’, diz o técnico do Paraná Clube</h1>
</div>
</div>
</div>
</div>
</a>
</header>
</article>
</li>
<li class="list-group-item">
<article data-pos="28">
<header class="row">
<a href="/noticia/um-dia-apos-anuncio-de-saida-do-brasil-ford-se-reune-com-presidente-do-tst-654">
<div class="heading" role="heading">
<div class="col-lg-12 col-md-12 col-sm-12">
<span class="headover">Tribunal Superior do Trabalho</span>
</div>
<div class="row">
<div class="col-lg-6 col-md-12 col-sm-12">
<div class="container-fluid">
<figure class="bp-media">
<div class="img-responsive">
<img src="https://uploads.bemparana.com.br/upload/image/noticia/tb1/noticia_561528_img1_reunio-ford.png"/>
</div>
</figure>
</div>
</div>
<div class="col-lg-6 col-md-12 col-sm-12">
<div class="container-fluid">
<h1>Um dia após anúncio de saída do Brasil, Ford se reúne com presidente do TST</h1>
</div>
</div>
</div>
</div>
</a>
</header>
</article>
</li>
<li class="list-group-item">
<article data-pos="29">
<header class="row">
<a href="/noticia/supermercados-devem-melhorar-praticas-de-responsabilidade-diz-ong">
<div class="heading" role="heading">
<div class="col-lg-12 col-md-12 col-sm-12">
<span class="headover">Direitos Humanos</span>
</div>
<div class="row">
<div class="col-lg-6 col-md-12 col-sm-12">
<div class="container-fluid">
<figure class="bp-media">
<div class="img-responsive">
<img src="https://uploads.bemparana.com.br/upload/image/noticia/tb1/noticia_633771_img1_supermercados.jpg"/>
</div>
</figure>
</div>
</div>
<div class="col-lg-6 col-md-12 col-sm-12">
<div class="container-fluid">
<h1>Supermercados devem melhorar práticas de responsabilidade, diz ONG</h1>
</div>
</div>
</div>
</div>
</a>
</header>
</article>
</li>
<li class="list-group-item">
<article data-pos="30">
<header class="row">
<a href="/noticia/ex-miss-do-parana-condenada-por-forjar-proprio-sequestro-passa-so-um-dia-na-prisao">
<div class="heading" role="heading">
<div class="col-lg-12 col-md-12 col-sm-12">
<span class="headover">Sequestro forjado</span>
</div>
<div class="row">
<div class="col-lg-6 col-md-12 col-sm-12">
<div class="container-fluid">
<figure class="bp-media">
<div class="img-responsive">
<img src="https://uploads.bemparana.com.br/upload/image/noticia/tb1/noticia_943891_img1_miss.jpg"/>
</div>
</figure>
</div>
</div>
<div class="col-lg-6 col-md-12 col-sm-12">
<div class="container-fluid">
<h1>Ex-miss do Paraná condenada por forjar próprio sequestro passa só um dia na prisão</h1>
</div>
</div>
</div>
</div>
</a>
</header>
</article>
</li>
<li class="list-group-item">
<article data-pos="31">
<header class="row">
<a href="/noticia/extrema-direita-planeja-atos-com-armas-alerta-o-fbi-896">
<div class="heading" role="heading">
<div class="col-lg-12 col-md-12 col-sm-12">
<span class="headover">EUA</span>
</div>
<div class="row">
<div class="col-lg-6 col-md-12 col-sm-12">
<div class="container-fluid">
<figure class="bp-media">
<div class="img-responsive">
<img src="https://uploads.bemparana.com.br/upload/image/noticia/tb1/noticia_206905_img1_jor-biden.jpg"/>
</div>
</figure>
</div>
</div>
<div class="col-lg-6 col-md-12 col-sm-12">
<div class="container-fluid">
<h1>Extrema direita planeja atos com armas na posse de Joe Biden, alerta o FBI</h1>
</div>
</div>
</div>
</div>
</a>
</header>
</article>
</li>
<li class="list-group-item">
<article data-pos="32">
<header class="row">
<a href="/noticia/pence-anuncia-que-nao-ira-invocar-25a-emenda-da-constituicao-para-afastar-trump-910">
<div class="heading" role="heading">
<div class="col-lg-12 col-md-12 col-sm-12">
<span class="headover">EUA</span>
</div>
<div class="row">
<div class="col-lg-6 col-md-12 col-sm-12">
<div class="container-fluid">
<figure class="bp-media">
<div class="img-responsive">
<img src="https://uploads.bemparana.com.br/upload/image/noticia/tb1/noticia_503346_img1_mike_pence_official_vice_presidential_portrait.jpg"/>
</div>
</figure>
</div>
</div>
<div class="col-lg-6 col-md-12 col-sm-12">
<div class="container-fluid">
<h1>Pence anuncia que não irá invocar 25ª Emenda da Constituição para afastar Trump</h1>
</div>
</div>
</div>
</div>
</a>
</header>
</article>
</li>
<li class="list-group-item">
<article data-pos="33">
<header class="row">
<a href="/noticia/pence-ignora-pressao-e-camara-deve-aprovar-impeachment-de-trump-hoje-258">
<div class="heading" role="heading">
<div class="col-lg-12 col-md-12 col-sm-12">
<span class="headover">EUA</span>
</div>
<div class="row">
<div class="col-lg-6 col-md-12 col-sm-12">
<div class="container-fluid">
<figure class="bp-media">
<div class="img-responsive">
<img src="https://uploads.bemparana.com.br/upload/image/noticia/tb1/noticia_567156_img1_trump.jpg"/>
</div>
</figure>
</div>
</div>
<div class="col-lg-6 col-md-12 col-sm-12">
<div class="container-fluid">
<h1>Pence ignora pressão e Câmara deve aprovar impeachment de Trump hoje</h1>
</div>
</div>
</div>
</div>
</a>
</header>
</article>
</li>
</ul>
</div>
</div>
</section>
</div>
</div>
</main>
</div>
<!-- #main -->
<section class="section">
</section>
<!-- RODAPÉ DA PÁGINA -->
<footer class="footer">
<nav class="navbar-footer container" id="navbar-footer">
<div class="col-lg-2 col-md-4 col-sm-6 col-xs-12" id="178">
<h1 class="noticias">Notícias</h1>
<ul class="list-group">
<li class="list-group-item">
<a class="parana" href="/noticia/term/parana">Paraná</a> </li>
<li class="list-group-item">
<a class="regiao-metropolitana" href="/noticia/term/regiao-metropolitana">Região Metropolitana</a> </li>
<li class="list-group-item">
<a class="brasil" href="/noticia/term/brasil">Brasil</a> </li>
<li class="list-group-item">
<a class="mundo" href="/noticia/term/mundo">Mundo</a> </li>
<li class="list-group-item">
<a class="politica" href="/noticia/term/politica">Política</a> </li>
<li class="list-group-item">
<a class="economia" href="/noticia/term/economia">Economia</a> </li>
<li class="list-group-item">
<a class="educacao" href="/noticia/term/educacao">Educação</a> </li>
</ul>
</div>
<div class="col-lg-2 col-md-4 col-sm-6 col-xs-12" id="189">
<h1 class="esportes">Esportes</h1>
<ul class="list-group">
<li class="list-group-item">
<a class="atletico-paranaense" href="/noticia/term/atletico-paranaense">Atlético Paranaense</a> </li>
<li class="list-group-item">
<a class="coritiba" href="/noticia/term/coritiba">Coritiba</a> </li>
<li class="list-group-item">
<a class="parana-clube" href="/noticia/term/parana-clube">Paraná Clube</a> </li>
<li class="list-group-item">
<a class="copa-2018" href="/bolao">Bolão Paranaense 2020</a> </li>
</ul>
</div>
<div class="clearfix visible-sm visible-xs"></div> <div class="col-lg-2 col-md-4 col-sm-6 col-xs-12" id="193">
<h1 class="diversao-e-arte">Diversão e Arte</h1>
<ul class="list-group">
<li class="list-group-item">
<a href="https://barulhocuritiba.bemparana.com.br/post/term/festival-teatro-curitiba">Festival de Teatro de Curitiba</a>
</li>
<!-- 
                    <li class="list-group-item">
                        <a href="/noticia/term/especialnatal">Especial Natal</a>
                    </li> -->
<li class="list-group-item">
<a class="programacao" href="/guia-curitiba">Programação Curitiba</a>
</li>
<li class="list-group-item">
<a class="cinema" href="/guia-curitiba/cinema">Cinema</a> </li>
<li class="list-group-item">
<a class="musica" href="/guia-curitiba/musica">Música</a> </li>
<li class="list-group-item">
<a href="/guia-curitiba/exposicoes">Exposições</a>
</li>
<li class="list-group-item">
<a class="televisao" href="/noticia/term/televisao">Televisão</a> </li>
<li class="list-group-item">
<a class="cultura" href="/noticia/term/cultura">Cultura</a> </li>
<li class="list-group-item">
<a href="https://barulhocuritiba.bemparana.com.br">Barulho Curitiba</a>
</li>
<li class="list-group-item">
<a href="https://quale.bemparana.com.br">Qualé</a>
</li>
</ul>
</div>
<div class="clearfix visible-md"></div> <div class="col-lg-2 col-md-4 col-sm-6 col-xs-12" id="199">
<h1 class="bem-estar">Bem Estar</h1>
<ul class="list-group">
<li class="list-group-item">
<a class="gastronomia" href="/noticia/term/gastronomia">Gastronomia</a> </li>
<li class="list-group-item">
<a class="saude-e-beleza" href="/noticia/term/saude-e-beleza">Saúde e Beleza</a> </li>
<li class="list-group-item">
<a class="moda-e-tendencias" href="/noticia/term/tendencias">Moda e Tendências</a> </li>
<li class="list-group-item">
<a class="turismo" href="/noticia/term/turismo">Turismo</a> </li>
<li class="list-group-item">
<a class="horoscopo" href="/horoscopo">Horóscopo</a> </li>
</ul>
</div>
<div class="clearfix visible-sm visible-xs"></div> <div class="col-lg-2 col-md-4 col-sm-6 col-xs-12" id="205">
<h1 class="sobre-o-site">Sobre o Site</h1>
<ul class="list-group">
<li class="list-group-item">
<a class="expediente" href="/page/expediente">Expediente</a> </li>
<li class="list-group-item">
<a class="jornal-impresso" href="/jornaldoestado/impresso">Jornal Impresso</a> </li>
<li class="list-group-item">
<a class="publicidade-legal" href="/edital">Publicidade Legal Certificada</a> </li>
<li class="list-group-item">
<a class="assinaturas" href="/assinatura">Assinaturas</a> </li>
<li class="list-group-item">
<a class="anuncie" href="/page/anuncie">Anuncie</a> </li>
<li class="list-group-item">
<a href="/privacidade">Política de privacidade</a>
</li>
<li class="list-group-item">
<a class="webmail" href="http://mail.bemparana.com.br/">Webmail</a> </li>
</ul>
</div>
<div class="col-lg-2 col-md-4 col-sm-6 col-xs-12" id="221">
<h1 class="opiniao">Opinião</h1>
<ul class="list-group">
<li class="list-group-item">
<a class="artigos" href="/noticia/term/opiniao">Artigos</a> </li>
<li class="list-group-item">
<a class="blogs" href="/blogs">Blogs</a> </li>
<li class="list-group-item">
<a class="colunas" href="/noticia/term/colunas">Colunas</a> </li>
<li class="list-group-item">
<a class="galeria-de-fotos" href="/galeria">Galeria de Fotos</a> </li>
</ul>
</div>
<div class="col-lg-2 col-md-4 col-sm-6 col-xs-12" id="212">
<h1 class="oculto">Outros</h1>
<ul class="list-group">
<li class="list-group-item">
<a class="tag-ivc" href="https://digitalaudit.ivcbrasil.org.br/MediaPlanner/CertificateWebsite/88" target="_blank">IVC</a>
</li>
</ul>
</div>
</nav>
</footer>
<style>
            .aviso-privacidade { 
                display:  none;
                position:  fixed;
                bottom: 120px;
                z-index: 100;
                width: 100%;
                font-size: 12px;
                color:  #fff;
                background-color: rgba(0,0,0,0.8);
            }
            .aviso-privacidade.visible { 
                display:  block; 
            }
            .aviso-privacidade .pad { 
                margin: 0 auto;
                padding: 20px;
                max-width: 960px;
                text-align: center;
            }
            .aviso-privacidade .btn-ok {
                /* display: block;
                float: right; */
                display:  inline-block;
                margin-left: 15px;
                padding: 0px 10px;
                color: #000;
                font-weight: bold;
                background-color: #ffcd00;
            }
            @media (max-width:728px) {
                bottom: 160px;
            }
        </style>
<div class="aviso-privacidade">
<div class="pad">
                Utilizamos cookies e tecnologias semelhantes de acordo com a nossa <a href="/privacidade" style="color:#ffcd00" target="_blank">Política de Privacidade</a> e, ao continuar navegando, você concorda com estas condições. <a class="btn-ok" href="#">OK</a>
</div>
</div>
<script async="" src="//pagead2.googlesyndication.com/pagead/js/adsbygoogle.js"></script>
<script src="/js/jquery.min.js"></script>
<script src="/js/bootstrap.min.js"></script>
<script src="/js/slick.min.js"></script>
<script src="/js/main.js"></script>
<script src="/js/featherlight.js"></script>
<script src="/js/ResizeSensor.min.js"></script>
<script src="/js/theia-sticky-sidebar.min.js"></script>
<script type="text/javascript">
            jQuery(document).ready(function() {
                jQuery('.main-content, .col-side').theiaStickySidebar({
                    // Settings
                    additionalMarginTop: 30
                });

                /* botao de cadastro na news */
                $('.newsletter-box .btn').click(function(e){
                    e.preventDefault();
                    console.log($('.newsletter-box form').serialize());
                    
                    $.post('/utils/addtonewsletter', $('.newsletter-box form').serialize(), function(retorno){
                        if (retorno == 'ok') {
                            $('#email-newsletter').val('');
                            alert('E-mail cadastrado com sucesso');
                        } else if (retorno == 'jacadastrado') {
                            alert('E-mail já cadastrado em nosso banco de dados.');
                        } else {
                            alert('Falha ao cadastrar e-mail. Verifique e tente novamente.');
                        }
                    });
                });


                function setCookie(cname, cvalue, exdays) {
                    var d = new Date();
                    d.setTime(d.getTime() + (exdays*24*60*60*1000));
                    var expires = "expires="+ d.toUTCString();
                    document.cookie = cname + "=" + cvalue + ";" + expires + ";path=/";
                }
                // GET COOKIE
                function getCookie(cname) {
                  var name = cname + "=";
                  var decodedCookie = decodeURIComponent(document.cookie);
                  var ca = decodedCookie.split(';');
                    for(var i = 0; i <ca.length; i++) {
                        var c = ca[i];
                        while (c.charAt(0) == ' ') {
                            c = c.substring(1);
                        }
                        if (c.indexOf(name) == 0) {
                            return c.substring(name.length, c.length);
                        }
                    }
                    return "";
                }

                $('.aviso-privacidade .btn-ok').click(function(e){
                    e.preventDefault();
                    $('.aviso-privacidade').hide();

                    setCookie('aceitouPrivacidade', true, 365);
                });


                var aceitouPrivacidade = getCookie("aceitouPrivacidade") || '';
                if (aceitouPrivacidade == '' || aceitouPrivacidade == false || aceitouPrivacidade == 'false') {
                    $('.aviso-privacidade').addClass('visible');

                    $(window).scroll(function() {
                        if($(window).scrollTop() > 200) {
                            $('.aviso-privacidade').hide();
                        }
                    });
                }
            });
          
          function BrowserDetection() {
              if (navigator.userAgent.search("MSIE") >= 0) {
                  return "ie";
              }
              //Check if browser is Chrome
              else if (navigator.userAgent.search("Chrome") >= 0) {
                  return "chrome";
              }
              //Check if browser is Firefox 
              else if (navigator.userAgent.search("Firefox") >= 0) {
                  return "firefox";
              }
              //Check if browser is Safari
              else if (navigator.userAgent.search("Safari") >= 0 && navigator.userAgent.search("Chrome") >= 0) {
                  return "safari";
              }
              //Check if browser is Opera
              else if (navigator.userAgent.search("Opera") >= 0) {
                  return "opera";
              }
          }
          var userBrowser = BrowserDetection(); 
          
          

          var addthis_config = { data_track_addressbar: true, data_ga_property: 'UA-1990209-1' }
          if (bpass != false) { document.body.classList.add("bpass"); }
        </script>
<style> .bpass .bpbanner { display:none !important; } </style>
<script src="//s7.addthis.com/js/300/addthis_widget.js#pubid=ra-54d264714c451406"></script>
<script src="/js/revisao.js"></script>
<!-- advertising tQk9owuzvOIOHHO3gg67q-S1_KcfVAIwqn_hEsmZ4f4igMAld9Tqq9fPetcJlxR-XBTtQ6136QZ0m54L2k_Npw==-->
<script data-cfasync="false" id="clevernt" type="text/javascript">
            if (bpass == false) {
                (function (document, window) {
                    var c = document.createElement("script");
                    c.type = "text/javascript";
                    c.async = !0;
                    c.src = "//clevernt.com/scripts/401aa047ab4e86ec57373856abadce1b.min.js?20180730=" + Math.floor((new Date).getTime());
                    var a = !1;
                    try {
                        a = parent.document.getElementsByTagName("script")[0] || document.getElementsByTagName("script")[0];
                    } catch (e) {
                        a = !1;
                    }
                    a || ( a = document.getElementsByTagName("head")[0] || document.getElementsByTagName("body")[0]);
                    a.parentNode.insertBefore(c, a);
                })(document, window);
            }
        </script>
<!-- end advertising -->
<script async="" src="https://cdn.onesignal.com/sdks/OneSignalSDK.js"></script>
<script>
            var OneSignal = window.OneSignal || [];
            OneSignal.push(["init", {
                appId: "af1eb03d-2687-4439-ad3d-a851a0b70c7d",
                autoResubscribe: true,
                promptOptions: {
                    actionMessage: "Receba notificações com as notícias mais importantes de Curitiba e do Paraná.",
                    acceptButtonText: "Permitir",
                    cancelButtonText: "Não, obrigado"
                },
                welcomeNotification: {
                    "title": "Bem Paraná",
                    "message": "Obrigado por se inscrever!"
                },
                notifyButton: {
                    enable: true, /* Required to use the notify button */
                    size: 'large', /* One of 'small', 'medium', or 'large' */
                    theme: 'default', /* One of 'default' (red-white) or 'inverse" (white-red) */
                    position: 'bottom-right', /* Either 'bottom-left' or 'bottom-right' */
                    prenotify: true, /* Show an icon with 1 unread message for first-time site visitors */
                    showCredit: false, /* Hide the OneSignal logo */
                    text: {
                        'tip.state.unsubscribed': 'Inscreva-se para receber notificações',
                        'tip.state.subscribed': "Você está inscrito para receber notificações",
                        'tip.state.blocked': "Você bloqueou as notificações",
                        'message.prenotify': 'Clique para assinar as notificações',
                        'message.action.subscribed': "Obrigado por se inscrever!",
                        'message.action.resubscribed': "Você está inscrito em notificações",
                        'message.action.unsubscribed': "Você não receberá notificações novamente",
                        'dialog.main.title': 'Gerenciar notificações do site',
                        'dialog.main.button.subscribe': 'SE INSCREVER',
                        'dialog.main.button.unsubscribe': 'CANCELAR INSCRIÇÃO',
                        'dialog.blocked.title': 'Desbloquear notificações',
                        'dialog.blocked.message': "Siga estas instruções para permitir notificações:"
                    }
                }
            }]);
            OneSignal.push(function() {
                OneSignal.showHttpPrompt();
            });
        </script>
<!-- Facebook Pixel Code -->
<script>
            !function(f,b,e,v,n,t,s)
            {if(f.fbq)return;n=f.fbq=function(){n.callMethod?
            n.callMethod.apply(n,arguments):n.queue.push(arguments)};
            if(!f._fbq)f._fbq=n;n.push=n;n.loaded=!0;n.version='2.0';
            n.queue=[];t=b.createElement(e);t.async=!0;
            t.src=v;s=b.getElementsByTagName(e)[0];
            s.parentNode.insertBefore(t,s)}(window,document,'script',
            'https://connect.facebook.net/en_US/fbevents.js');
            fbq('init', '623486004793399'); 
            fbq('track', 'PageView');
        </script>
<noscript>
<img height="1" src="https://www.facebook.com/tr?id=623486004793399&amp;ev=PageView&amp;noscript=1" width="1"/>
</noscript>
<!-- End Facebook Pixel Code -->
</body>
</html>