<!DOCTYPE html PUBLIC "-//W3C//DTD XHTML 1.0 Transitional//EN" "http://www.w3.org/TR/xhtml1/DTD/xhtml1-transitional.dtd">
<html lang="en" xml:lang="en" xmlns="http://www.w3.org/1999/xhtml" xmlns:fb="http://www.facebook.com/2008/fbml" xmlns:og="http://opengraphprotocol.org/schema/">
<head>
<meta content="width=device-width, initial-scale=1, maximum-scale=1,user-scalable=0" name="viewport"/>
<!-- CHARTBEAT script/CODE -->
<script type="text/javascript">var _sf_startpt=(new Date()).getTime()</script>
<!-- END -->
<meta content="text/html; charset=utf-8" http-equiv="Content-Type"/>
<meta content="" name="description"/>
<meta content="" name="keywords"/>
<meta content="653435665,584931693,662899847" property="fb:admins"/>
<meta content="134481893241634" property="fb:app_id"/>
<script src="/assets/js/jquery.min.js" type="text/javascript"></script>
<script src="/assets/js/jquery-1.11.0.js" type="text/javascript"></script>
<script src="/assets/js/jquery-migrate.js" type="text/javascript"></script>
<script src="/assets/js/jquery-ui.min.js" type="text/javascript"></script>
<!--        <script type="text/javascript" src="/assets/js/swfobject.js"></script>-->
<script src="/assets/js/polite.js" type="text/javascript"></script>
<script src="/assets/js/slick.js" type="text/javascript"></script>
<script type="text/javascript">
            $(document).ready(function () {
            
                if ($('.mobile-sponsor-popup').length) {
                    $('.mobile-sponsor-popup').delay(5000).addClass('opened'); 
                    $('.close-sponsor').click( function () {
                        $('.mobile-sponsor-popup').toggleClass('closed');
                         return false;
                    })
                }
                
            })
         </script>
<script async="async" src="https://www.googletagservices.com/tag/js/gpt.js"></script>
<script>
          var googletag = googletag || {};
          googletag.cmd = googletag.cmd || [];
        </script>
<script>
          googletag.cmd.push(function() {
            googletag.defineSlot('/1405338/Bestads_leaderboard', [728, 90], 'div-gpt-ad-1547679201045-0').addService(googletag.pubads());
            googletag.defineSlot('/1405338/Bestads_mrec1', [300, 250], 'div-gpt-ad-1547681251260-0').addService(googletag.pubads());
            googletag.defineSlot('/1405338/Bestads_mrec2', [300, 250], 'div-gpt-ad-1547685334478-0').addService(googletag.pubads());
            googletag.defineSlot('/1405338/Bestads_mrec3', [300, 250], 'div-gpt-ad-1547685383016-0').addService(googletag.pubads());
            googletag.defineSlot('/1405338/Bestads_mrec5', [300, 250], 'div-gpt-ad-1547685407244-0').addService(googletag.pubads());
            googletag.defineSlot('/1405338/Bestads_sqgold1', [125, 125], 'div-gpt-ad-1547685472594-0').addService(googletag.pubads());
            googletag.defineSlot('/1405338/Bestads_sqgold2', [125, 125], 'div-gpt-ad-1547685507098-0').addService(googletag.pubads());
            googletag.defineSlot('/1405338/Bestads_sqgold3', [125, 125], 'div-gpt-ad-1547685538389-0').addService(googletag.pubads());
            googletag.defineSlot('/1405338/Bestads_sqgold4', [125, 125], 'div-gpt-ad-1547685571202-0').addService(googletag.pubads());
            googletag.defineSlot('/1405338/Bestads_sqgold5', [125, 125], 'div-gpt-ad-1547689253276-0').addService(googletag.pubads());
            googletag.defineSlot('/1405338/Bestads_sqgold6', [125, 125], 'div-gpt-ad-1547689284329-0').addService(googletag.pubads());
            googletag.defineSlot('/1405338/Bestads_sqgold7', [125, 125], 'div-gpt-ad-1547689319569-0').addService(googletag.pubads());
            googletag.defineSlot('/1405338/Bestads_sqgold8', [125, 125], 'div-gpt-ad-1547689351045-0').addService(googletag.pubads());
            googletag.defineSlot('/1405338/Bestads_sqgold9', [125, 125], 'div-gpt-ad-1547689383312-0').addService(googletag.pubads());
            googletag.defineSlot('/1405338/Bestads_sqgold10', [125, 125], 'div-gpt-ad-1547689413907-0').addService(googletag.pubads());
            googletag.defineSlot('/1405338/Bestads_sqgold11', [125, 125], 'div-gpt-ad-1547689443773-0').addService(googletag.pubads());
            googletag.defineSlot('/1405338/Bestads_sqgold12', [125, 125], 'div-gpt-ad-1547689468987-0').addService(googletag.pubads());
            googletag.defineSlot('/1405338/Bestads_sponsor_home_tv', [125, 125], 'div-gpt-ad-1547685598372-0').addService(googletag.pubads());
            googletag.defineSlot('/1405338/Bestads_sponsor_home_radio', [125, 125], 'div-gpt-ad-1561625684160-0').addService(googletag.pubads());            
            googletag.defineSlot('/1405338/Bestads_sponsor_home_outdoor', [125, 125], 'div-gpt-ad-1547686542401-0').addService(googletag.pubads());
            googletag.defineSlot('/1405338/Bestads_sponsor_home_interactive', [125, 125], 'div-gpt-ad-1547686571430-0').addService(googletag.pubads());
            googletag.pubads().enableSingleRequest();
            googletag.enableServices();
          });
        </script>
<!--    <script type="text/javascript">
        (function () {
            document.write('<scr' + 'ipt src="' + ('https:' == document.location.protocol ? 'https:' : 'http:') + '//partner.googleadservices.com/gampad/google_service.js' + '"></scr' + 'ipt>');
        })();
        </script>-->
<!--         <script type='text/javascript' src='https://partner.googleadservices.com/gampad/google_service.js'  ></script>
        <script type='text/javascript'>
            GS_googleAddAdSenseService("ca-pub-9901085976814325");
            GS_googleEnableAllServices();
        </script> -->
<!--         <script type='text/javascript'> -->
<!--             GA_googleAddSlot("ca-pub-9901085976814325", "Bestads_leaderboard");

            GA_googleAddSlot("ca-pub-9901085976814325", "Bestads_mrec1");
            GA_googleAddSlot("ca-pub-9901085976814325", "Bestads_mrec2");
            GA_googleAddSlot("ca-pub-9901085976814325", "Bestads_mrec3");
            GA_googleAddSlot("ca-pub-9901085976814325", "Bestads_mrec5");
            GA_googleAddSlot("ca-pub-9901085976814325", "Bestads_sqbronze1");
            GA_googleAddSlot("ca-pub-9901085976814325", "Bestads_sqbronze2");
            GA_googleAddSlot("ca-pub-9901085976814325", "Bestads_sqbronze3");
            GA_googleAddSlot("ca-pub-9901085976814325", "Bestads_sqbronze4");
            GA_googleAddSlot("ca-pub-9901085976814325", "Bestads_sqgold1");
            GA_googleAddSlot("ca-pub-9901085976814325", "Bestads_sqgold2");
            GA_googleAddSlot("ca-pub-9901085976814325", "Bestads_sqgold3");
            GA_googleAddSlot("ca-pub-9901085976814325", "Bestads_sqgold4");
            GA_googleAddSlot("ca-pub-9901085976814325", "Bestads_sqgold5");
            GA_googleAddSlot("ca-pub-9901085976814325", "Bestads_sqgold6");
            GA_googleAddSlot("ca-pub-9901085976814325", "Bestads_sqgold7");
            GA_googleAddSlot("ca-pub-9901085976814325", "Bestads_sqgold8");
            GA_googleAddSlot("ca-pub-9901085976814325", "Bestads_sqgold9");
            GA_googleAddSlot("ca-pub-9901085976814325", "Bestads_sqgold10");
            GA_googleAddSlot("ca-pub-9901085976814325", "Bestads_sqgold11");
            GA_googleAddSlot("ca-pub-9901085976814325", "Bestads_sqgold12");
            GA_googleAddSlot("ca-pub-9901085976814325", "Bestads_sqsilver1");
            GA_googleAddSlot("ca-pub-9901085976814325", "Bestads_sqsilver2");
            GA_googleAddSlot("ca-pub-9901085976814325", "Bestads_sqsilver3");
            GA_googleAddSlot("ca-pub-9901085976814325", "Bestads_sqsilver4");
            GA_googleAddSlot("ca-pub-9901085976814325", "Bestads_sqsilver5");
            GA_googleAddSlot("ca-pub-9901085976814325", "Bestads_sqsilver6");
            GA_googleAddSlot("ca-pub-9901085976814325", "Bestads_sqsilver7");
            GA_googleAddSlot("ca-pub-9901085976814325", "Bestads_sqsilver8");
            GA_googleAddSlot("ca-pub-9901085976814325", "Bestads_sqsilver9");
            GA_googleAddSlot("ca-pub-9901085976814325", "Bestads_sqsilver10");
            GA_googleAddSlot("ca-pub-9901085976814325", "Bestads_sponsor_home_interactive");
            GA_googleAddSlot("ca-pub-9901085976814325", "Bestads_sponsor_home_outdoor");
            GA_googleAddSlot("ca-pub-9901085976814325", "Bestads_sponsor_home_print");
            GA_googleAddSlot("ca-pub-9901085976814325", "Bestads_sponsor_home_radio");
            GA_googleAddSlot("ca-pub-9901085976814325", "Bestads_sponsor_home_tv"); -->
<!-- </script> -->
<!--         <script type='text/javascript'>
            GA_googleFetchAds();
        </script> -->
<title>
                            Best ads from United Kingdom
                    </title>
<link href="/assets/css/style4.css" rel="stylesheet" type="text/css"/>
<link href="/assets/css/header2.css" rel="stylesheet" type="text/css"/>
<link href="/assets/css/smoothness/jquery-ui.css" rel="stylesheet" type="text/css"/>
<link href="/assets/css/print.css" media="print" rel="stylesheet" type="text/css"/>
<link href="/assets/css/responsive.css" rel="stylesheet" type="text/css"/>
<!-- GOOGLE ANALYTICS -->
<script type="text/javascript">
 
            var _gaq = _gaq || [];
            _gaq.push(['_setAccount', 'UA-8977815-1']);
            _gaq.push(['_setDomainName', 'none']);
            _gaq.push(['_setAllowLinker', true]);
            _gaq.push(['_trackPageview']);
 
            (function() {
                var ga = document.createElement('script'); ga.type = 'text/javascript'; ga.async = true;
                ga.src = ('https:' == document.location.protocol ? 'https://ssl' : 'http://www') + '.google-analytics.com/ga.js';
                var s = document.getElementsByTagName('script')[0]; s.parentNode.insertBefore(ga, s);
            })();
            
        </script>
<!-- END GOOGLE ANALYTICS -->
</head>
<body>
<!-- SUPERTAG CODE ASYNC v2.6.13
    <script type="text/javascript">
    (function(s,d,src) {
        var st = d.createElement(s); st.type = 'text/javascript';st.async = true;st.src = src;
        var sc = d.getElementsByTagName(s)[0]; sc.parentNode.insertBefore(st, sc);
    })('script', document, '//c.supert.ag/campaign-brief/bestadsontv-com/supertag-async.js');
    </script>-->
<div class="mobile-hader">
<div class="m-header-bar">
<div class="m-logo"><a href="/"><img alt="" src="/assets/css/responsive/mobile_logo.png"/></a></div>
<div class="m-actions">
<button class="search-ico " type="button"><img alt="" src="/assets/css/responsive/search.svg"/></button>
<button class="nav-button navbar-toggler " type="button"><span class="menu-icon menu-icon-random"><span class="bars"><span class="m-b1"></span><span class="m-b2"></span><span class="m-b3"></span></span></span></button>
<ul id="subnav">
<li><a href="/">Home</a></li>
<li><a href="/submit/form.php">Submit work</a></li>
<li><a href="/rankings.php">Rankings</a></li>
<li><a href="/login.php?U=">My profile</a></li>
<!--<li><a href="http://www.campaignbrief.com/campaign-brief-and-bestads-app.html">Bestads app</a></li>-->
<li><a href="https://www.instagram.com/bestadsontv_/">Bestads on Instagram</a></li>
<li><a href="http://twitter.com/bestads">Bestads on Twitter</a></li>
<li><a href="/feed/">RSS</a></li>
<li><a href="/advertise.php">Advertise</a></li>
<li><a href="/contact.php">Contact</a></li>
<li class="subnav_last"><a href="/login.php"><b>Login</b></a></li>
</ul>
</div>
</div>
<div class="m-header-subbar">
<ul>
<li><span class="red best">Best:</span></li>
<li><a href="/best/tv">TV</a></li>
<li><a href="/best/print">Print</a></li>
<li><a href="/best/outdoor">Outdoor</a></li>
<li><a href="/best/interactive">Interactive</a></li>
<li><a href="/best/radio">Radio</a></li>
</ul>
</div>
</div>
<!-- / mobile -header -->
<div class="header-data">
<table cellpadding="0" cellspacing="0" id="header_table">
<tr class="hide-mobile">
<td id="banner_td"><div id="logo" onclick="document.location='/';"></div>
<div id="banner_div">
<div id="div-gpt-ad-1547679201045-0">
<!-- <script type='text/javascript'>GA_googleFillSlot("Bestads_leaderboard");</script> -->
<script>
                            googletag.cmd.push(function() { googletag.display('div-gpt-ad-1547679201045-0'); });
                            </script>
</div>
</div>
</td>
</tr>
<tr class="hide-mobile">
<td id="subnav_td">
<ul id="subnav">
<li><a href="/">Home</a></li>
<li><a href="/submit/form.php">Submit work</a></li>
<li><a href="/rankings.php">Rankings</a></li>
<li><a href="/login.php?U=">My profile</a></li>
<!--<li><a href="http://www.campaignbrief.com/campaign-brief-and-bestads-app.html">Bestads app</a></li>-->
<li><a href="https://www.instagram.com/bestadsontv_/">Bestads on Instagram</a></li>
<li><a href="http://twitter.com/bestads">Bestads on Twitter</a></li>
<li><a href="/feed/">RSS</a></li>
<li><a href="/advertise.php">Advertise</a></li>
<li><a href="/contact.php">Contact</a></li>
<li class="subnav_last"><a href="/login.php"><b>Login</b></a></li>
</ul>
</td>
</tr>
<tr>
<td id="main_nav_td">
<ul class="hide-mobile" id="main_nav_ul">
<li><span class="red best">Best:</span></li>
<li><a href="/best/tv">TV</a></li>
<li><a href="/best/print">Print</a></li>
<li><a href="/best/outdoor">Outdoor</a></li>
<li><a href="/best/interactive">Interactive</a></li>
<li><a href="/best/radio">Radio</a></li>
</ul>
<div id="new_search">
<div id="search_type">
<div id="current_item">Ads</div>
<div id="dropdown">
<ul>
<li><a href="javascript:;" id="search_ads">Ads</a></li>
<li><a href="javascript:;" id="search_ppl">People</a></li>
<li><a href="javascript:;" id="search_com">Companies</a></li>
</ul>
</div>
</div>
<script type="text/javascript">
                                /* ------------- search drop down menu ------------- */
                                setTimeout(function(){
                                    switch (window.location.pathname) {
                                        case '/search_people.php':
                                            change_search_type(1);
                                            break;
                                        case '/search_companies.php':
                                            change_search_type(2);
                                            break;
                                    }

                                    // make sure the query is at least 3 characters long
                                    $('#search_button').click(function(){
                                        if ( $('#q_field').val().length < 3 ) {
                                            alert('Your search query must be at least 3 characters long.');
                                            return false;
                                        }
                                    });
                                }, 500);

                                // webkit fix
                                //if ($.browser.webkit) {
                                 //   $('#search_type').css('top', '2px');
                                 //   $('input#search_button').css('top', '-2px');
                                //}

                                $('#search_type').click(function(){
                                    var dd = $(this).children('#dropdown');
                                    if ( dd.is(':visible') ) {
                                        dd.slideUp(100);
                                    } else {
                                        dd.slideDown(100);
                                    }
                                });
                                $('#search_ads').click(function(){ change_search_type(0); $('#q_field').focus(); });
                                $('#search_ppl').click(function(){ change_search_type(1); $('#q_field').focus(); });
                                $('#search_com').click(function(){ change_search_type(2); $('#q_field').focus(); });

                                function change_search_type(id) {
                                    var data = [
                                        { txt: 'Ads', action:'/search.php' },
                                        { txt: 'People', action:'/search_people.php' },
                                        { txt: 'Companies', action:'/search_companies.php' }
                                    ];

                                    // disable search.php's fields if we're not searching there
                                    switch (id) {
                                        case 0:
                                            set_hidden_fields('enabled');
                                            break;
                                        case 1:
                                        case 2:
                                            set_hidden_fields('disabled');
                                            break;
                                    }

                                    $('#current_item').text(data[id].txt);
                                    $('#search_form').attr({
                                        'action': data[id].action
                                    });
                                }
                                function set_hidden_fields(state) {
                                    if (state == 'enabled') {
                                        $('#category_field').attr('disabled', null);
                                        $('#adtype_field').attr('disabled', null);
                                        $('#client_field').attr('disabled', null);
                                        $('#agency_field').attr('disabled', null);
                                        $('#prodco_field').attr('disabled', null);
                                        $('#country_field').attr('disabled', null);
                                        $('#year_field').attr('disabled', null);
                                        $('#month_field').attr('disabled', null);
                                        $('#next_field').attr('disabled', null);
                                    } else {
                                        $('#category_field').attr('disabled', 'disabled');
                                        $('#adtype_field').attr('disabled', 'disabled');
                                        $('#client_field').attr('disabled', 'disabled');
                                        $('#agency_field').attr('disabled', 'disabled');
                                        $('#prodco_field').attr('disabled', 'disabled');
                                        $('#country_field').attr('disabled', 'disabled');
                                        $('#year_field').attr('disabled', 'disabled');
                                        $('#month_field').attr('disabled', 'disabled');
                                        $('#next_field').attr('disabled', 'disabled');
                                    }
                                }
                            </script>
<form action="/search.php" id="search_form" method="get" name="search_form">
<input id="q_field" name="q" type="text" value=""/>
<input id="category_field" name="category" type="hidden" value=""/>
<input id="adtype_field" name="adtype" type="hidden" value=""/>
<input id="client_field" name="client" type="hidden" value=""/>
<input id="agency_field" name="agency" type="hidden" value=""/>
<input id="prodco_field" name="prodco" type="hidden" value=""/>
<input id="country_field" name="country" type="hidden" value="219"/>
<input id="year_field" name="year" type="hidden" value=""/>
<input id="month_field" name="month" type="hidden" value=""/>
<input id="next_field" name="next" type="hidden" value="1"/>
<input class="button_large" id="search_button" type="submit" value="Search"/>
</form>
</div>
</td>
</tr>
<tr class="hide-mobile" height="20">
<td id="categories_nav" valign="top">
<strong>Browse ads:</strong>
<a href="/category/27/Automotive">Automotive</a>-
                        <a href="/category/43/Beverages-Alcoholic-drinks">Alcoholic beverages</a>-
                        <a href="/category/19/Clothing-footwear-accessories">Clothing</a>-
                        <a href="/category/9/Cosmetics-beauty-toiletries">Cosmetics</a>-
                        <a href="/category/55/Entertainment-leisure">Entertainment</a>-
                        <a href="/category/32/Food">Food</a>-
                        <a href="/category/45/Travel-Transport-Tourism">Travel</a>-
                        <a href="/category/60/Telecommunications">Telecommunications</a>-
                        <a href="/search.php">More...</a>
</td>
</tr>
</table>
</div>
<table cellpadding="0" cellspacing="0" id="content_table">
<tr valign="top">
<td id="left_td"><img height="30" src="/images/black.gif" width="8"/></td>
<td id="content_td"> <div id="content_div">
<div id="search_query">
<h1 style="font-size: 16px">Best ads from United Kingdom</h1>
<p>Showing results: 1-18 of 8430</p>
</div>
<div id="filtered_by">
<strong>Filtering results by:</strong> <a href="/search.php?q=&amp;category=&amp;adtype=&amp;client=&amp;agency=&amp;prodco=&amp;country=&amp;year=&amp;month=&amp;next=1">United Kingdom <img alt="Remove filter" src="https://www.bestadsontv.com/images/filter_x.gif"/></a>
</div>
<div id="filter_results">
<div class="mobile-filter">
<h3>Ad Types</h3>
<div class="mobile-filter-content">
<ul class="filter_ul" id="ad_types_ul">
<li class="selected"><a href="/search.php?q=&amp;category=&amp;adtype=&amp;client=&amp;agency=&amp;prodco=&amp;country=219&amp;year=&amp;month=&amp;next=1">All ad types</a></li><li><a href="/search.php?q=&amp;category=&amp;adtype=1&amp;client=&amp;agency=&amp;prodco=&amp;country=219&amp;year=&amp;month=&amp;next=1"><div class="filter_box red_box"></div> TV</a></li><li><a href="/search.php?q=&amp;category=&amp;adtype=2&amp;client=&amp;agency=&amp;prodco=&amp;country=219&amp;year=&amp;month=&amp;next=1"><div class="filter_box orange_box"></div> Print</a></li><li><a href="/search.php?q=&amp;category=&amp;adtype=5&amp;client=&amp;agency=&amp;prodco=&amp;country=219&amp;year=&amp;month=&amp;next=1"><div class="filter_box green_box"></div> Outdoor</a></li><li><a href="/search.php?q=&amp;category=&amp;adtype=3&amp;client=&amp;agency=&amp;prodco=&amp;country=219&amp;year=&amp;month=&amp;next=1"><div class="filter_box blue_box"></div> Interactive</a></li><li><a href="/search.php?q=&amp;category=&amp;adtype=6&amp;client=&amp;agency=&amp;prodco=&amp;country=219&amp;year=&amp;month=&amp;next=1"><div class="filter_box purple_box"></div> Radio</a></li>
</ul>
<br/>
</div>
</div>
<div class="mobile-filter">
<h3>Country</h3>
<div class="mobile-filter-content">
<select id="country_select" name="country" onchange="filterCountry();">
<option label="All countries" value="">All countries</option><option label="Abkhazia" value="387">Abkhazia</option><option label="Afghanistan" value="254">Afghanistan</option><option label="Aland" value="450">Aland</option><option label="Albania" value="255">Albania</option><option label="Algeria" value="256">Algeria</option><option label="American Samoa" value="431">American Samoa</option><option label="Andorra" value="257">Andorra</option><option label="Angola" value="258">Angola</option><option label="Anguilla" value="416">Anguilla</option><option label="Antarctica" value="456">Antarctica</option><option label="Antigua and Barbuda" value="259">Antigua and Barbuda</option><option label="Argentina" value="10">Argentina</option><option label="Armenia" value="260">Armenia</option><option label="Ascension" value="454">Ascension</option><option label="Asia Pacific" value="466">Asia Pacific</option><option label="Australia" value="13">Australia</option><option label="Australia / New Zealand" value="465">Australia / New Zealand</option><option label="Austria" value="14">Austria</option><option label="Azerbaijan" value="261">Azerbaijan</option><option label="Bahrain" value="263">Bahrain</option><option label="Bangladesh" value="264">Bangladesh</option><option label="Belarus" value="266">Belarus</option><option label="Belgium" value="21">Belgium</option><option label="Bermuda" value="417">Bermuda</option><option label="Bolivia" value="26">Bolivia</option><option label="Botswana" value="271">Botswana</option><option label="Bouvet Island" value="409">Bouvet Island</option><option label="Brazil" value="30">Brazil</option><option label="British Antarctic Territory" value="464">British Antarctic Territory</option><option label="Brunei" value="272">Brunei</option><option label="Bulgaria" value="251">Bulgaria</option><option label="Cambodia" value="275">Cambodia</option><option label="Canada" value="38">Canada</option><option label="Chad" value="279">Chad</option><option label="Chile" value="242">Chile</option><option label="China" value="44">China</option><option label="China, Republic of (Taiwan)" value="388">China, Republic of (Taiwan)</option><option label="Cocos (Keeling) Islands" value="396">Cocos (Keeling) Islands</option><option label="Colombia" value="47">Colombia</option><option label="Common Name" value="253">Common Name</option><option label="Costa Rica" value="249">Costa Rica</option><option label="Cote d'Ivoire (Ivory Coast)" value="284">Cote d'Ivoire (Ivory Coast)</option><option label="Croatia" value="248">Croatia</option><option label="Cuba" value="285">Cuba</option><option label="Cyprus" value="286">Cyprus</option><option label="Czech Republic" value="56">Czech Republic</option><option label="Denmark" value="57">Denmark</option><option label="Dominican Republic" value="289">Dominican Republic</option><option label="Ecuador" value="290">Ecuador</option><option label="Egypt" value="241">Egypt</option><option label="El Salvador" value="291">El Salvador</option><option label="Estonia" value="245">Estonia</option><option label="Finland" value="72">Finland</option><option label="France" value="73">France</option><option label="Georgia" value="298">Georgia</option><option label="Germany" value="80">Germany</option><option label="Germany &amp; UK" value="468">Germany &amp; UK</option><option label="Ghana" value="299">Ghana</option><option label="Greece" value="82">Greece</option><option label="Guatemala" value="250">Guatemala</option><option label="Honduras" value="305">Honduras</option><option label="Hong Kong" value="94">Hong Kong</option><option label="Hungary" value="95">Hungary</option><option label="Iceland" value="96">Iceland</option><option label="India" value="97">India</option><option label="Indonesia" value="98">Indonesia</option><option label="Iran" value="306">Iran</option><option label="Iraq" value="307">Iraq</option><option label="Ireland" value="101">Ireland</option><option label="Israel" value="102">Israel</option><option label="Italy" value="103">Italy</option><option label="Jamaica" value="308">Jamaica</option><option label="Japan" value="105">Japan</option><option label="Johnston Atoll" value="436">Johnston Atoll</option><option label="Jordan" value="309">Jordan</option><option label="Kazakhstan" value="310">Kazakhstan</option><option label="Kenya" value="246">Kenya</option><option label="Kiribati" value="311">Kiribati</option><option label="Korea (south)" value="111">Korea (south)</option><option label="Korea, Republic of  (South Korea)" value="313">Korea, Republic of  (South Korea)</option><option label="Kuwait" value="252">Kuwait</option><option label="Latvia" value="243">Latvia</option><option label="Lebanon" value="316">Lebanon</option><option label="Lithuania" value="244">Lithuania</option><option label="Luxembourg" value="321">Luxembourg</option><option label="Macedonia" value="322">Macedonia</option><option label="Madagascar" value="323">Madagascar</option><option label="Malaysia" value="125">Malaysia</option><option label="Mauritius" value="330">Mauritius</option><option label="Mexico" value="135">Mexico</option><option label="Moldova" value="332">Moldova</option><option label="Morocco" value="336">Morocco</option><option label="Mozambique" value="337">Mozambique</option><option label="Myanmar (Burma)" value="338">Myanmar (Burma)</option><option label="Namibia" value="339">Namibia</option><option label="Nepal" value="341">Nepal</option><option label="Netherlands" value="148">Netherlands</option><option label="NETHERLANDS SWEDEN" value="467">NETHERLANDS SWEDEN</option><option label="New Caledonia" value="400">New Caledonia</option><option label="New Zealand" value="150">New Zealand</option><option label="Nicaragua" value="342">Nicaragua</option><option label="Niger" value="343">Niger</option><option label="Nigeria" value="344">Nigeria</option><option label="Norway" value="157">Norway</option><option label="Oman" value="345">Oman</option><option label="Pakistan" value="159">Pakistan</option><option label="Panama" value="347">Panama</option><option label="Papua New Guinea" value="348">Papua New Guinea</option><option label="Paraguay" value="163">Paraguay</option><option label="Peru" value="240">Peru</option><option label="Philippines" value="165">Philippines</option><option label="Poland" value="167">Poland</option><option label="Portugal" value="168">Portugal</option><option label="Puerto Rico" value="430">Puerto Rico</option><option label="Qatar" value="349">Qatar</option><option label="Reunion" value="449">Reunion</option><option label="Romania" value="172">Romania</option><option label="Russia" value="350">Russia</option><option label="Saudi Arabia" value="183">Saudi Arabia</option><option label="Serbia" value="359">Serbia</option><option label="Singapore" value="187">Singapore</option><option label="Slovakia" value="362">Slovakia</option><option label="Slovenia" value="363">Slovenia</option><option label="Solomon Islands" value="364">Solomon Islands</option><option label="South Africa" value="192">South Africa</option><option label="South Ossetia" value="393">South Ossetia</option><option label="Spain" value="194">Spain</option><option label="Sri Lanka" value="247">Sri Lanka</option><option label="Sudan" value="366">Sudan</option><option label="Swaziland" value="368">Swaziland</option><option label="Sweden" value="200">Sweden</option><option label="Switzerland" value="201">Switzerland</option><option label="Syria" value="369">Syria</option><option label="Taiwan" value="203">Taiwan</option><option label="Tanzania" value="371">Tanzania</option><option label="Thailand" value="206">Thailand</option><option label="Trinidad and Tobago" value="375">Trinidad and Tobago</option><option label="Tunisia" value="376">Tunisia</option><option label="Turkey" value="212">Turkey</option><option label="U.S. Virgin Islands" value="441">U.S. Virgin Islands</option><option label="Uganda" value="379">Uganda</option><option label="Ukraine" value="380">Ukraine</option><option label="United Arab Emirates" value="218">United Arab Emirates</option><option label="United Kingdom" selected="selected" value="219">United Kingdom</option><option label="United States of America" value="220">United States of America</option><option label="Unknown" value="236">Unknown</option><option label="Uruguay" value="221">Uruguay</option><option label="Uzbekistan" value="382">Uzbekistan</option><option label="Venezuela" value="225">Venezuela</option><option label="Vietnam" value="226">Vietnam</option><option label="Worldwide" value="237">Worldwide</option><option label="Yemen" value="385">Yemen</option><option label="Zimbabwe" value="235">Zimbabwe</option>
</select>
<br/><br/>
</div>
</div>
<div class="mobile-filter">
<h3>Date</h3>
<div class="mobile-filter-content">
<select id="month_select" name="month" onchange="filterMonth();">
<option label="All months" value="">All months</option><option label="January" value="1">January</option><option label="February" value="2">February</option><option label="March" value="3">March</option><option label="April" value="4">April</option><option label="May" value="5">May</option><option label="June" value="6">June</option><option label="July" value="7">July</option><option label="August" value="8">August</option><option label="September" value="9">September</option><option label="October" value="10">October</option><option label="November" value="11">November</option><option label="December" value="12">December</option>
</select>
<select id="year_select" name="year" onchange="filterYear();">
<option label="All years" value="">All years</option><option label="2003" value="2003">2003</option><option label="2004" value="2004">2004</option><option label="2005" value="2005">2005</option><option label="2006" value="2006">2006</option><option label="2007" value="2007">2007</option><option label="2008" value="2008">2008</option><option label="2009" value="2009">2009</option><option label="2010" value="2010">2010</option><option label="2011" value="2011">2011</option><option label="2012" value="2012">2012</option><option label="2013" value="2013">2013</option><option label="2014" value="2014">2014</option><option label="2015" value="2015">2015</option><option label="2016" value="2016">2016</option><option label="2017" value="2017">2017</option><option label="2018" value="2018">2018</option><option label="2019" value="2019">2019</option><option label="2020" value="2020">2020</option><option label="2021" value="2021">2021</option>
</select>
<br/><br/>
</div>
</div>
<div class="mobile-filter">
<h3>Categories</h3>
<div class="mobile-filter-content">
<ul class="filter_ul" id="categories_ul">
<li class="selected"><a href="/search.php?q=&amp;category=&amp;adtype=&amp;client=&amp;agency=&amp;prodco=&amp;country=219&amp;year=&amp;month=&amp;next=1">All categories</a></li><li><a href="/search.php?q=&amp;category=72&amp;adtype=&amp;client=&amp;agency=&amp;prodco=&amp;country=219&amp;year=&amp;month=&amp;next=1">Ambient</a></li><li><a href="/search.php?q=&amp;category=27&amp;adtype=&amp;client=&amp;agency=&amp;prodco=&amp;country=219&amp;year=&amp;month=&amp;next=1">Automotive</a></li><li><a href="/search.php?q=&amp;category=62&amp;adtype=&amp;client=&amp;agency=&amp;prodco=&amp;country=219&amp;year=&amp;month=&amp;next=1">Award show</a></li><li><a href="/search.php?q=&amp;category=59&amp;adtype=&amp;client=&amp;agency=&amp;prodco=&amp;country=219&amp;year=&amp;month=&amp;next=1">Business equipment &amp; services</a></li><li><a href="/search.php?q=&amp;category=63&amp;adtype=&amp;client=&amp;agency=&amp;prodco=&amp;country=219&amp;year=&amp;month=&amp;next=1">Cannes</a></li><li><a href="/search.php?q=&amp;category=56&amp;adtype=&amp;client=&amp;agency=&amp;prodco=&amp;country=219&amp;year=&amp;month=&amp;next=1">Charities &amp; appeals</a></li><li><a href="/search.php?q=&amp;category=19&amp;adtype=&amp;client=&amp;agency=&amp;prodco=&amp;country=219&amp;year=&amp;month=&amp;next=1">Clothing &amp; footwear</a></li><li><a href="/search.php?q=&amp;category=48&amp;adtype=&amp;client=&amp;agency=&amp;prodco=&amp;country=219&amp;year=&amp;month=&amp;next=1">Confectionery &amp; snacks</a></li><li><a href="/search.php?q=&amp;category=51&amp;adtype=&amp;client=&amp;agency=&amp;prodco=&amp;country=219&amp;year=&amp;month=&amp;next=1">Corporate identity</a></li><li><a href="/search.php?q=&amp;category=9&amp;adtype=&amp;client=&amp;agency=&amp;prodco=&amp;country=219&amp;year=&amp;month=&amp;next=1">Cosmetics &amp; toiletries</a></li><li><a href="/search.php?q=&amp;category=70&amp;adtype=&amp;client=&amp;agency=&amp;prodco=&amp;country=219&amp;year=&amp;month=&amp;next=1">Direct Marketing</a></li><li><a href="/search.php?q=&amp;category=43&amp;adtype=&amp;client=&amp;agency=&amp;prodco=&amp;country=219&amp;year=&amp;month=&amp;next=1">Drinks, alcoholic</a></li><li><a href="/search.php?q=&amp;category=10&amp;adtype=&amp;client=&amp;agency=&amp;prodco=&amp;country=219&amp;year=&amp;month=&amp;next=1">Drinks, non-alcoholic</a></li><li><a href="/search.php?q=&amp;category=61&amp;adtype=&amp;client=&amp;agency=&amp;prodco=&amp;country=219&amp;year=&amp;month=&amp;next=1">Education</a></li><li><a href="/search.php?q=&amp;category=55&amp;adtype=&amp;client=&amp;agency=&amp;prodco=&amp;country=219&amp;year=&amp;month=&amp;next=1">Entertainment &amp; leisure</a></li><li><a href="/search.php?q=&amp;category=75&amp;adtype=&amp;client=&amp;agency=&amp;prodco=&amp;country=219&amp;year=&amp;month=&amp;next=1">Experiential</a></li><li><a href="/search.php?q=&amp;category=40&amp;adtype=&amp;client=&amp;agency=&amp;prodco=&amp;country=219&amp;year=&amp;month=&amp;next=1">Finance &amp; insurance</a></li><li><a href="/search.php?q=&amp;category=32&amp;adtype=&amp;client=&amp;agency=&amp;prodco=&amp;country=219&amp;year=&amp;month=&amp;next=1">Food</a></li><li><a href="/search.php?q=&amp;category=77&amp;adtype=&amp;client=&amp;agency=&amp;prodco=&amp;country=219&amp;year=&amp;month=&amp;next=1">Government</a></li><li><a href="/search.php?q=&amp;category=50&amp;adtype=&amp;client=&amp;agency=&amp;prodco=&amp;country=219&amp;year=&amp;month=&amp;next=1">Health &amp; safety</a></li><li><a href="/search.php?q=&amp;category=53&amp;adtype=&amp;client=&amp;agency=&amp;prodco=&amp;country=219&amp;year=&amp;month=&amp;next=1">Home appliances &amp; furnishings</a></li><li><a href="/search.php?q=&amp;category=7&amp;adtype=&amp;client=&amp;agency=&amp;prodco=&amp;country=219&amp;year=&amp;month=&amp;next=1">Home electronics</a></li><li><a href="/search.php?q=&amp;category=52&amp;adtype=&amp;client=&amp;agency=&amp;prodco=&amp;country=219&amp;year=&amp;month=&amp;next=1">Household, garden &amp; pets</a></li><li><a href="/search.php?q=&amp;category=76&amp;adtype=&amp;client=&amp;agency=&amp;prodco=&amp;country=219&amp;year=&amp;month=&amp;next=1">Inflight Video</a></li><li><a href="/search.php?q=&amp;category=66&amp;adtype=&amp;client=&amp;agency=&amp;prodco=&amp;country=219&amp;year=&amp;month=&amp;next=1">Integrated</a></li><li><a href="/search.php?q=&amp;category=73&amp;adtype=&amp;client=&amp;agency=&amp;prodco=&amp;country=219&amp;year=&amp;month=&amp;next=1">Interactive</a></li><li><a href="/search.php?q=&amp;category=17&amp;adtype=&amp;client=&amp;agency=&amp;prodco=&amp;country=219&amp;year=&amp;month=&amp;next=1">Online services</a></li><li><a href="/search.php?q=&amp;category=47&amp;adtype=&amp;client=&amp;agency=&amp;prodco=&amp;country=219&amp;year=&amp;month=&amp;next=1">Other</a></li><li><a href="/search.php?q=&amp;category=71&amp;adtype=&amp;client=&amp;agency=&amp;prodco=&amp;country=219&amp;year=&amp;month=&amp;next=1">Outdoor</a></li><li><a href="/search.php?q=&amp;category=38&amp;adtype=&amp;client=&amp;agency=&amp;prodco=&amp;country=219&amp;year=&amp;month=&amp;next=1">Pharmaceutical &amp; medical</a></li><li><a href="/search.php?q=&amp;category=69&amp;adtype=&amp;client=&amp;agency=&amp;prodco=&amp;country=219&amp;year=&amp;month=&amp;next=1">Press</a></li><li><a href="/search.php?q=&amp;category=68&amp;adtype=&amp;client=&amp;agency=&amp;prodco=&amp;country=219&amp;year=&amp;month=&amp;next=1">Print</a></li><li><a href="/search.php?q=&amp;category=20&amp;adtype=&amp;client=&amp;agency=&amp;prodco=&amp;country=219&amp;year=&amp;month=&amp;next=1">Public interest</a></li><li><a href="/search.php?q=&amp;category=25&amp;adtype=&amp;client=&amp;agency=&amp;prodco=&amp;country=219&amp;year=&amp;month=&amp;next=1">Public services &amp; utilities</a></li><li><a href="/search.php?q=&amp;category=29&amp;adtype=&amp;client=&amp;agency=&amp;prodco=&amp;country=219&amp;year=&amp;month=&amp;next=1">Publications &amp; media</a></li><li><a href="/search.php?q=&amp;category=74&amp;adtype=&amp;client=&amp;agency=&amp;prodco=&amp;country=219&amp;year=&amp;month=&amp;next=1">Radio</a></li><li><a href="/search.php?q=&amp;category=54&amp;adtype=&amp;client=&amp;agency=&amp;prodco=&amp;country=219&amp;year=&amp;month=&amp;next=1">Restaurants &amp; fast food</a></li><li><a href="/search.php?q=&amp;category=49&amp;adtype=&amp;client=&amp;agency=&amp;prodco=&amp;country=219&amp;year=&amp;month=&amp;next=1">Retail services</a></li><li><a href="/search.php?q=&amp;category=35&amp;adtype=&amp;client=&amp;agency=&amp;prodco=&amp;country=219&amp;year=&amp;month=&amp;next=1">Self promotion</a></li><li><a href="/search.php?q=&amp;category=64&amp;adtype=&amp;client=&amp;agency=&amp;prodco=&amp;country=219&amp;year=&amp;month=&amp;next=1">Seminar</a></li><li><a href="/search.php?q=&amp;category=57&amp;adtype=&amp;client=&amp;agency=&amp;prodco=&amp;country=219&amp;year=&amp;month=&amp;next=1">Sportswear</a></li><li><a href="/search.php?q=&amp;category=60&amp;adtype=&amp;client=&amp;agency=&amp;prodco=&amp;country=219&amp;year=&amp;month=&amp;next=1">Telecommunications</a></li><li><a href="/search.php?q=&amp;category=45&amp;adtype=&amp;client=&amp;agency=&amp;prodco=&amp;country=219&amp;year=&amp;month=&amp;next=1">Travel, transport &amp; tourism</a></li><li><a href="/search.php?q=&amp;category=65&amp;adtype=&amp;client=&amp;agency=&amp;prodco=&amp;country=219&amp;year=&amp;month=&amp;next=1">TV</a></li><li><a href="/search.php?q=&amp;category=67&amp;adtype=&amp;client=&amp;agency=&amp;prodco=&amp;country=219&amp;year=&amp;month=&amp;next=1">Web Film</a></li>
</ul>
<br/><br/>
</div>
</div>
<script type="text/javascript">
	  function Querystring(qs) { this.params = {}; if (qs == null) qs = location.search.substring(1, location.search.length); if (qs.length == 0) return; qs = qs.replace(/\+/g, ' '); var args = qs.split('&'); for (var i = 0; i < args.length; i++) { var pair = args[i].split('='); var name = decodeURIComponent(pair[0]); var value = (pair.length==2) ? decodeURIComponent(pair[1]) : name; this.params[name] = value; } }
	  Querystring.prototype.get = function(key, default_) { var value = this.params[key]; return (value != null) ? value : default_; }
	  Querystring.prototype.contains = function(key) { var value = this.params[key]; return (value != null); }
	  
	  var qs = new Querystring();
	  
	  var query 	= (qs.contains('q')) 		? qs.params.q 			: '';
	  var category 	= (qs.contains('category')) ? qs.params.category	: '';
	  var adtype 	= (qs.contains('adtype')) 	? qs.params.adtype 		: '';
	  var client 	= (qs.contains('client')) 	? qs.params.client 		: '';
	  var agency 	= (qs.contains('agency')) 	? qs.params.agency 		: '';
	  var prodco 	= (qs.contains('prodco')) 	? qs.params.prodco 		: '';
	  var country	= (qs.contains('country')) 	? qs.params.country 	: '';
	  var year 		= (qs.contains('year')) 	? qs.params.year 		: '';
	  var month 	= (qs.contains('month')) 	? qs.params.month 		: '';
	  
	  function filterMonth() {
		if (year != '') {
		  filterYear();
		}
	  }
	  function filterYear() {
		var year_id = document.getElementById('year_select').value;
		var month_id = document.getElementById('month_select').value;
		
		var url = '/search.php?q='+query+'&category='+category+'&adtype='+adtype+'&client='+client+'&agency='+agency+'&prodco='+prodco+'&country='+country+'&year='+year_id+'&month='+month_id+'&next=1';
		window.location.href = url;
	  }
	  function filterCountry() {
		var country_id = document.getElementById('country_select').value;
		
		var url = '/search.php?q='+query+'&category='+category+'&adtype='+adtype+'&client='+client+'&agency='+agency+'&prodco='+prodco+'&country='+country_id+'&year='+year+'&month='+month+'&next=1';
		window.location.href = url;
	  }
	</script>
</div>
<div id="search_results">
<ul class="search_ul row4">
<li>
<div class="best_box small"><div class="thumb_badge interactive">INTERACTIVE</div>
<a href="/ad/121577/BMW-Step-Into-The-4"><img alt="BMW: Step Into The 4" class="best_thumb" src="/includes/image.php?width=140&amp;height=95&amp;cropratio=140:95&amp;filetime=1610496000&amp;image=%2Ffiles%2Fprint%2F2021%2FJan%2Ftn_121577_1610509356_BMW1%5B1%5D.png" style="width: 140px; height:95px;"/></a>
<div class="best_div">
<a href="/ad/121577/BMW-Step-Into-The-4">BMW: Step Into The 4</a>
<br/>
</div>
</div>
</li>
<li>
<div class="best_box small"><div class="thumb_badge tv">TV</div>
<a href="/ad/121594/Cadbury-Creme-Egg-Its-The-Creme-Egg-Golden-Goobilee"><img alt="Cadbury Creme Egg: It's The Creme Egg Golden Goobilee!" class="best_thumb" src="/includes/image.php?width=140&amp;height=95&amp;cropratio=140:95&amp;filetime=1610496000&amp;image=s3%3A%2F%2Fbestadsontv.com%2Fthumbs%2F12c34_0000.png" style="width: 140px; height:95px;"/></a>
<div class="best_div">
<a href="/ad/121594/Cadbury-Creme-Egg-Its-The-Creme-Egg-Golden-Goobilee">Cadbury Creme Egg: It's The Creme Egg Golden Goobilee!</a>
<br/>
</div>
</div>
</li>
<li>
<div class="best_box small"><div class="thumb_badge tv">TV</div>
<a href="/ad/121499/Radox-Lifes-Better-with-Bubbles"><img alt="Radox: Life’s Better with Bubbles" class="best_thumb" src="/includes/image.php?width=140&amp;height=95&amp;cropratio=140:95&amp;filetime=1610409600&amp;image=s3%3A%2F%2Fbestadsontv.com%2Fthumbs%2F20017_0002.png" style="width: 140px; height:95px;"/></a>
<div class="best_div">
<a href="/ad/121499/Radox-Lifes-Better-with-Bubbles">Radox: Life’s Better with Bubbles</a>
<br/>
</div>
</div>
</li>
<li>
<div class="best_box small"><div class="thumb_badge outdoor">OUTDOOR</div>
<a href="/ad/121505/London-Advertising-The-Marketing-Agencies-Save-2021-Sale"><img alt="London Advertising: The Marketing Agencies Save 2021 Sale" class="best_thumb" src="/includes/image.php?width=140&amp;height=95&amp;cropratio=140:95&amp;filetime=1610409600&amp;image=%2Ffiles%2Fprint%2F2021%2FJan%2Ftn_121505_1610424406_image002.jpg" style="width: 140px; height:95px;"/></a>
<div class="best_div">
<a href="/ad/121505/London-Advertising-The-Marketing-Agencies-Save-2021-Sale">London Advertising: The Marketing Agencies Save 2021 Sale</a>
<br/>
</div>
</div>
</li>
<li>
<div class="best_box small"><div class="thumb_badge outdoor">OUTDOOR</div>
<a href="/ad/121506/London-Advertising-Save-2021"><img alt="London Advertising: Save 2021" class="best_thumb" src="/includes/image.php?width=140&amp;height=95&amp;cropratio=140:95&amp;filetime=1610409600&amp;image=%2Ffiles%2Fprint%2F2021%2FJan%2Ftn_121506_1610424413_image004.png" style="width: 140px; height:95px;"/></a>
<div class="best_div">
<a href="/ad/121506/London-Advertising-Save-2021">London Advertising: Save 2021</a>
<br/>
</div>
</div>
</li>
<li>
<div class="best_box small"><div class="thumb_badge outdoor">OUTDOOR</div>
<a href="/ad/121507/London-Advertising-Were-Doing-Our-Bit"><img alt="London Advertising: We're Doing Our Bit" class="best_thumb" src="/includes/image.php?width=140&amp;height=95&amp;cropratio=140:95&amp;filetime=1610409600&amp;image=%2Ffiles%2Fprint%2F2021%2FJan%2Ftn_121507_1610424421_image005.png" style="width: 140px; height:95px;"/></a>
<div class="best_div">
<a href="/ad/121507/London-Advertising-Were-Doing-Our-Bit">London Advertising: We're Doing Our Bit</a>
<br/>
</div>
</div>
</li>
<li>
<div class="best_box small"><div class="thumb_badge tv">TV</div>
<a href="/ad/121508/allplants-Were-All-Plants-You-Dont-Have-To-Be"><img alt="allplants: We're All Plants. You Don't Have To Be." class="best_thumb" src="/includes/image.php?width=140&amp;height=95&amp;cropratio=140:95&amp;filetime=1610409600&amp;image=s3%3A%2F%2Fbestadsontv.com%2Fthumbs%2F3c3e4_0000.png" style="width: 140px; height:95px;"/></a>
<div class="best_div">
<a href="/ad/121508/allplants-Were-All-Plants-You-Dont-Have-To-Be">allplants: We're All Plants. You Don't Have To Be.</a>
<br/>
</div>
</div>
</li>
<li>
<div class="best_box small"><div class="thumb_badge tv">TV</div>
<a href="/ad/121515/Macmillan-Cancer-Support-Tender-Yet-Tough"><img alt="Macmillan Cancer Support: Tender Yet Tough" class="best_thumb" src="/includes/image.php?width=140&amp;height=95&amp;cropratio=140:95&amp;filetime=1610409600&amp;image=s3%3A%2F%2Fbestadsontv.com%2Fthumbs%2Fcd342_0000.png" style="width: 140px; height:95px;"/></a>
<div class="best_div">
<a href="/ad/121515/Macmillan-Cancer-Support-Tender-Yet-Tough">Macmillan Cancer Support: Tender Yet Tough</a>
<br/>
</div>
</div>
</li>
<li>
<div class="best_box small"><div class="thumb_badge tv">TV</div>
<a href="/ad/121456/BBC-Backing-British-Creativity"><img alt="BBC: Backing British Creativity" class="best_thumb" src="/includes/image.php?width=140&amp;height=95&amp;cropratio=140:95&amp;filetime=1610150400&amp;image=s3%3A%2F%2Fbestadsontv.com%2Fthumbs%2F75da3_0001.png" style="width: 140px; height:95px;"/></a>
<div class="best_div">
<a href="/ad/121456/BBC-Backing-British-Creativity">BBC: Backing British Creativity</a>
<br/>
</div>
</div>
</li>
<li>
<div class="best_box small"><div class="best_badge"><img alt="Best Ad" src="/images/best_badge.png"/></div><div class="thumb_badge interactive">INTERACTIVE</div>
<a href="/ad/121189/Hellmanns-UK-Animal-Crossing-Twas-a-Christmas-Food-Waste-Miracle-with-Stephen-Fry"><img alt="Hellmann's UK / Animal Crossing: Twas a Christmas Food Waste Miracle with Stephen Fry" class="best_thumb" src="/includes/image.php?width=140&amp;height=95&amp;cropratio=140:95&amp;filetime=1610064000&amp;image=s3%3A%2F%2Fbestadsontv.com%2Fthumbs%2Fe410b_0000.png" style="width: 140px; height:95px;"/></a>
<div class="best_div">
<a href="/ad/121189/Hellmanns-UK-Animal-Crossing-Twas-a-Christmas-Food-Waste-Miracle-with-Stephen-Fry">Hellmann's UK / Animal Crossing: Twas a Christmas Food Waste Miracle with Stephen Fry</a>
<br/>
</div>
</div>
</li>
<li>
<div class="best_box small"><div class="best_badge"><img alt="Best Ad" src="/images/best_badge.png"/></div><div class="thumb_badge tv">TV</div>
<a href="/ad/121209/On-the-Beach-Monologue"><img alt="On the Beach: Monologue" class="best_thumb" src="/includes/image.php?width=140&amp;height=95&amp;cropratio=140:95&amp;filetime=1610064000&amp;image=s3%3A%2F%2Fbestadsontv.com%2Fthumbs%2Fa31d8_0003.png" style="width: 140px; height:95px;"/></a>
<div class="best_div">
<a href="/ad/121209/On-the-Beach-Monologue">On the Beach: Monologue</a>
<br/>
</div>
</div>
</li>
<li>
<div class="best_box small"><div class="thumb_badge tv">TV</div>
<a href="/ad/121183/TSB-Bank-Get-the-Most-Out-of-Life"><img alt="TSB Bank: Get the Most Out of Life" class="best_thumb" src="/includes/image.php?width=140&amp;height=95&amp;cropratio=140:95&amp;filetime=1608768000&amp;image=s3%3A%2F%2Fbestadsontv.com%2Fthumbs%2F0af5f_0001.png" style="width: 140px; height:95px;"/></a>
<div class="best_div">
<a href="/ad/121183/TSB-Bank-Get-the-Most-Out-of-Life">TSB Bank: Get the Most Out of Life</a>
<br/>
</div>
</div>
</li>
<li>
<div class="best_box small"><div class="thumb_badge interactive">INTERACTIVE</div>
<a href="/ad/121191/Samsung-Lockdown"><img alt="Samsung: Lockdown" class="best_thumb" src="/includes/image.php?width=140&amp;height=95&amp;cropratio=140:95&amp;filetime=1608768000&amp;image=s3%3A%2F%2Fbestadsontv.com%2Fthumbs%2F23582_0001.png" style="width: 140px; height:95px;"/></a>
<div class="best_div">
<a href="/ad/121191/Samsung-Lockdown">Samsung: Lockdown</a>
<br/>
</div>
</div>
</li>
<li>
<div class="best_box small"><div class="thumb_badge web_film">WEB FILM</div>
<a href="/ad/121141/Alzheimers-Society-Imagine"><img alt="Alzheimer's Society: Imagine" class="best_thumb" src="/includes/image.php?width=140&amp;height=95&amp;cropratio=140:95&amp;filetime=1608681600&amp;image=s3%3A%2F%2Fbestadsontv.com%2Fthumbs%2Ffbc6d_0000.png" style="width: 140px; height:95px;"/></a>
<div class="best_div">
<a href="/ad/121141/Alzheimers-Society-Imagine">Alzheimer's Society: Imagine</a>
<br/>
</div>
</div>
</li>
<li>
<div class="best_box small"><div class="thumb_badge tv">TV</div>
<a href="/ad/121089/Womens-Aid-The-Lockdown"><img alt="Women’s Aid: The Lockdown" class="best_thumb" src="/includes/image.php?width=140&amp;height=95&amp;cropratio=140:95&amp;filetime=1608336000&amp;image=s3%3A%2F%2Fbestadsontv.com%2Fthumbs%2Fa4c41_0000.png" style="width: 140px; height:95px;"/></a>
<div class="best_div">
<a href="/ad/121089/Womens-Aid-The-Lockdown">Women’s Aid: The Lockdown</a>
<br/>
</div>
</div>
</li>
<li>
<div class="best_box small"><div class="thumb_badge tv">TV</div>
<a href="/ad/121060/BT-Rio-Carol"><img alt="BT: Rio &amp; Carol" class="best_thumb" src="/includes/image.php?width=140&amp;height=95&amp;cropratio=140:95&amp;filetime=1608249600&amp;image=s3%3A%2F%2Fbestadsontv.com%2Fthumbs%2F13319_0002.png" style="width: 140px; height:95px;"/></a>
<div class="best_div">
<a href="/ad/121060/BT-Rio-Carol">BT: Rio &amp; Carol</a>
<br/>
</div>
</div>
</li>
<li>
<div class="best_box small"><div class="thumb_badge tv">TV</div>
<a href="/ad/121061/BT-Clare-Jessica"><img alt="BT: Clare &amp; Jessica" class="best_thumb" src="/includes/image.php?width=140&amp;height=95&amp;cropratio=140:95&amp;filetime=1608163200&amp;image=s3%3A%2F%2Fbestadsontv.com%2Fthumbs%2F304d9_0000.png" style="width: 140px; height:95px;"/></a>
<div class="best_div">
<a href="/ad/121061/BT-Clare-Jessica">BT: Clare &amp; Jessica</a>
<br/>
</div>
</div>
</li>
<li>
<div class="best_box small"><div class="thumb_badge tv">TV</div>
<a href="/ad/121063/innocent-Drinks-A-Jolly-Safe-Christmas"><img alt="innocent Drinks: A Jolly Safe Christmas" class="best_thumb" src="/includes/image.php?width=140&amp;height=95&amp;cropratio=140:95&amp;filetime=1608249600&amp;image=s3%3A%2F%2Fbestadsontv.com%2Fthumbs%2F80ec2_0002.png" style="width: 140px; height:95px;"/></a>
<div class="best_div">
<a href="/ad/121063/innocent-Drinks-A-Jolly-Safe-Christmas">innocent Drinks: A Jolly Safe Christmas</a>
<br/>
</div>
</div>
</li>
</ul>
<div id="search_pagination">
<span id="week_date">Page 1 of 469</span><br/>
	   1 <a format="page" href="/search.php?q=&amp;category=&amp;adtype=&amp;client=&amp;agency=&amp;prodco=&amp;country=219&amp;year=&amp;month=&amp;next=19"> 2 </a><a format="page" href="/search.php?q=&amp;category=&amp;adtype=&amp;client=&amp;agency=&amp;prodco=&amp;country=219&amp;year=&amp;month=&amp;next=37"> 3 </a><a format="page" href="/search.php?q=&amp;category=&amp;adtype=&amp;client=&amp;agency=&amp;prodco=&amp;country=219&amp;year=&amp;month=&amp;next=55"> 4 </a><a format="page" href="/search.php?q=&amp;category=&amp;adtype=&amp;client=&amp;agency=&amp;prodco=&amp;country=219&amp;year=&amp;month=&amp;next=73"> 5 </a><a format="page" href="/search.php?q=&amp;category=&amp;adtype=&amp;client=&amp;agency=&amp;prodco=&amp;country=219&amp;year=&amp;month=&amp;next=91"> 6 </a><a format="page" href="/search.php?q=&amp;category=&amp;adtype=&amp;client=&amp;agency=&amp;prodco=&amp;country=219&amp;year=&amp;month=&amp;next=109"> 7 </a><a format="page" href="/search.php?q=&amp;category=&amp;adtype=&amp;client=&amp;agency=&amp;prodco=&amp;country=219&amp;year=&amp;month=&amp;next=127"> 8 </a><a format="page" href="/search.php?q=&amp;category=&amp;adtype=&amp;client=&amp;agency=&amp;prodco=&amp;country=219&amp;year=&amp;month=&amp;next=145"> 9 </a><a format="page" href="/search.php?q=&amp;category=&amp;adtype=&amp;client=&amp;agency=&amp;prodco=&amp;country=219&amp;year=&amp;month=&amp;next=163"> 10 </a><a href="/search.php?q=&amp;category=&amp;adtype=&amp;client=&amp;agency=&amp;prodco=&amp;country=219&amp;year=&amp;month=&amp;next=19" text=" &lt;img src='/images/pagination_next.gif' /&gt;"> <img src="/images/pagination_next.gif"/></a>
</div>
</div>
</div>
</td>
<td id="right_col">
<div class="Sponsor-container">
<!-- <div class="Mrec-container"> -->
<div class="Mrec-container" div="" id="div-gpt-ad-1547681251260-0">
<!-- <script type='text/javascript'>GA_googleFillSlot("Bestads_mrec1");</script> -->
<script type="text/javascript">
		googletag.cmd.push(function() { googletag.display('div-gpt-ad-1547681251260-0'); });
		</script>
</div>
<a class="advertise" href="https://www.bestadsontv.com/advertise.php">Advertise Here</a>
</div>
<div style="width: 290px;clear: both;padding-top: 12px;">
<h2>Gold <span class="red">sponsors</span></h2>
<div class="Sponsor-container">
<ul class="sponsorbanner">
<li>
<div id="div-gpt-ad-1547685472594-0" style="height:125px; width:125px;">
<script>
                googletag.cmd.push(function() { googletag.display('div-gpt-ad-1547685472594-0'); });
                </script>
</div>
</li>
<li>
<div id="div-gpt-ad-1547685507098-0" style="height:125px; width:125px;">
<script>
                googletag.cmd.push(function() { googletag.display('div-gpt-ad-1547685507098-0'); });
                </script>
</div>
</li>
<li>
<div id="div-gpt-ad-1547685538389-0" style="height:125px; width:125px;">
<script>
                googletag.cmd.push(function() { googletag.display('div-gpt-ad-1547685538389-0'); });
                </script>
</div>
</li>
<li>
<div id="div-gpt-ad-1547685571202-0" style="height:125px; width:125px;">
<script>
                googletag.cmd.push(function() { googletag.display('div-gpt-ad-1547685571202-0'); });
                </script>
</div>
</li>
<li>
<div id="div-gpt-ad-1547689253276-0" style="height:125px; width:125px;">
<script>
                googletag.cmd.push(function() { googletag.display('div-gpt-ad-1547689253276-0'); });
                </script>
</div>
</li>
<li>
<div id="div-gpt-ad-1547689284329-0" style="height:125px; width:125px;">
<script>
                googletag.cmd.push(function() { googletag.display('div-gpt-ad-1547689284329-0'); });
                </script>
</div>
</li>
<li>
<div id="div-gpt-ad-1547689319569-0" style="height:125px; width:125px;">
<script>
                googletag.cmd.push(function() { googletag.display('div-gpt-ad-1547689319569-0'); });
                </script>
</div>
</li>
<li>
<div id="div-gpt-ad-1547689351045-0" style="height:125px; width:125px;">
<script>
                googletag.cmd.push(function() { googletag.display('div-gpt-ad-1547689351045-0'); });
                </script>
</div>
</li>
<li>
<div id="div-gpt-ad-1547689383312-0" style="height:125px; width:125px;">
<script>
                googletag.cmd.push(function() { googletag.display('div-gpt-ad-1547689383312-0'); });
                </script>
</div>
</li>
<li>
<div id="div-gpt-ad-1547689413907-0" style="height:125px; width:125px;">
<script>
                googletag.cmd.push(function() { googletag.display('div-gpt-ad-1547689413907-0'); });
                </script>
</div>
</li>
<li>
<div id="div-gpt-ad-1547689443773-0" style="height:125px; width:125px;">
<script>
                googletag.cmd.push(function() { googletag.display('div-gpt-ad-1547689443773-0'); });
                </script>
</div>
</li>
<li>
<div id="div-gpt-ad-1547689468987-0" style="height:125px; width:125px;">
<script>
                googletag.cmd.push(function() { googletag.display('div-gpt-ad-1547689468987-0'); });
                </script>
</div>
</li>
</ul>
</div>
<div class="Sponsor-container">
<div class="Mrec-container" id="div-gpt-ad-1547685334478-0">
<!-- <script type='text/javascript'>GA_googleFillSlot("Bestads_mrec2");</script> -->
<script>
            googletag.cmd.push(function() { googletag.display('div-gpt-ad-1547685334478-0'); });
            </script>
</div>
<a class="advertise" href="https://www.bestadsontv.com/advertise.php">Advertise Here</a>
</div>
<h2>Silver <span class="red">sponsors</span></h2>
<div class="Sponsor-container">
<ul class="sponsorbanner">
<li><script type="text/javascript">GA_googleFillSlot("Bestads_sqsilver1");</script></li>
<li><script type="text/javascript">GA_googleFillSlot("Bestads_sqsilver2");</script></li>
<li><script type="text/javascript">GA_googleFillSlot("Bestads_sqsilver3");</script></li>
<li><script type="text/javascript">GA_googleFillSlot("Bestads_sqsilver4");</script></li>
<li><script type="text/javascript">GA_googleFillSlot("Bestads_sqsilver5");</script></li>
<li><script type="text/javascript">GA_googleFillSlot("Bestads_sqsilver6");</script></li>
<li><script type="text/javascript">GA_googleFillSlot("Bestads_sqsilver7");</script></li>
<li><script type="text/javascript">GA_googleFillSlot("Bestads_sqsilver8");</script></li>
<li><script type="text/javascript">GA_googleFillSlot("Bestads_sqsilver9");</script></li>
<li><script type="text/javascript">GA_googleFillSlot("Bestads_sqsilver10");</script></li>
</ul>
</div>
</div>
<a href="http://www.campaignbrief.com/">Visit Campaign Brief for Australian creative<br/>advertising news</a>
</td>
<td id="right_td"><img height="30" src="https://www.bestadsontv.com/images/black.gif" width="8"/></td>
</tr>
</table>
<script src="/assets/js/responsive.js" type="text/javascript"></script>
<!-- Quantcast Tag -->
<script type="text/javascript">
var _qevents = _qevents || [];

(function() {
var elem = document.createElement('script');
elem.src = (document.location.protocol == "https:" ? "https://secure" : "http://edge") + ".quantserve.com/quant.js";
elem.async = true;
elem.type = "text/javascript";
var scpt = document.getElementsByTagName('script')[0];
scpt.parentNode.insertBefore(elem, scpt);
})();

_qevents.push({
qacct:"p-04QDp4ACiGxC2"
});
</script>
<noscript>
<div style="display:none;">
<img alt="Quantcast" border="0" height="1" src="//pixel.quantserve.com/pixel/p-04QDp4ACiGxC2.gif" width="1"/>
</div>
</noscript>
<!-- End Quantcast tag -->
<!--  CHARTBEAT script/CODE -->
<script type="text/javascript">
var _sf_async_config={uid:11388,domain:"bestadsontv.com"};
(function(){
  function loadChartbeat() {
    window._sf_endpt=(new Date()).getTime();
    var e = document.createElement('script');
    e.setAttribute('language', 'javascript');
    e.setAttribute('type', 'text/javascript');
    e.setAttribute('src',
       (("https:" == document.location.protocol) ? "https://s3.amazonaws.com/" : "http://") +
       "static.chartbeat.com/js/chartbeat.js");
    document.body.appendChild(e);
  }
  var oldonload = window.onload;
  window.onload = (typeof window.onload != 'function') ?
     loadChartbeat : function() { oldonload(); loadChartbeat(); };
})();

</script>
<!-- END -->
<!-- Site Meter
<script type="text/javascript" src="http://s11.sitemeter.com/js/counter.js?site=s11bestads">
</script>
<noscript>
<a href="http://s11.sitemeter.com/stats.asp?site=s11bestads" target="_top">
<img src="http://s11.sitemeter.com/meter.asp?site=s11bestads" alt="Site Meter" border="0"/></a>
</noscript>
-->
<!-- Copyright (c)2009 Site Meter -->
</body>
</html> 