<html><head>
<title>Access Denied</title>
</head><body>
<h1>Access Denied</h1>
 
You don't have permission to access "http://www.bestbuy.com/site/Mission%3A+Impossible+-+Complete+Series+%5B46+Discs%5D+-+DVD/18073932.p?" on this server.<p>
Reference #18.b57a19b8.1610597382.373cdc8b
</p></body>
</html>
