<html><head>
<title>Access Denied</title>
</head><body>
<h1>Access Denied</h1>
 
You don't have permission to access "http://www.bestcharterdeals.com/" on this server.<p>
Reference #18.ff02817.1610597389.221137
</p></body>
</html>
