<html>
<head>
<title>Beyond Interracial</title>
<style type="text/css">
<!--
.style7 {
	color: #FFFFFF;
	font-size: 18px;
}
.style9 {font-size: 24px}
.style10 {color: #FFFFFF}
-->
</style><script>
  (function(i,s,o,g,r,a,m){i['GoogleAnalyticsObject']=r;i[r]=i[r]||function(){
  (i[r].q=i[r].q||[]).push(arguments)},i[r].l=1*new Date();a=s.createElement(o),
  m=s.getElementsByTagName(o)[0];a.async=1;a.src=g;m.parentNode.insertBefore(a,m)
  })(window,document,'script','//www.google-analytics.com/analytics.js','ga');


  ga('create', 'UA-44270122-1', 'dfwknight.com');
  ga('send', 'pageview');


</script>
</head>
<body bgcolor="#000000" text="#000000">
<p>
<style type="text/css">
	A:link		{ color:white; }
	A:visited	{ color:white; }
	A:hover		{ color:yellow;     }
</style>
</p>
<p align="center"><img height="204" src="../blankbanner.png" width="863"/></p>
<table align="center" border="0" cellpadding="1" width="813">
<tr>
<td width="245"><img height="332" src="../byi001.jpg" width="245"/></td>
<td width="31"> </td>
<td width="245"><div align="center"><img height="332" src="../byi002.jpg" width="245"/></div></td>
<td width="25"> </td>
<td width="245"><img height="332" src="../byi003.jpg" width="245"/></td>
</tr>
<tr>
<td> </td>
<td> </td>
<td> </td>
<td> </td>
<td> </td>
</tr>
<tr>
<td><div align="center"><a class="style9" href="http://www.beyondinterracial.com/amberblank">Amber Blank</a></div></td>
<td><div align="center">......</div></td>
<td><div align="center"><a class="style9" href="http://harmonikalifornia.xxx/">Harmoni Kalifornia</a></div></td>
<td><div align="center"></div></td>
<td><div align="center" class="style9"><a href="http://www.beyondinterracial.com/lauren/">Lauren DeWynters</a></div></td>
</tr>
<tr>
<td> </td>
<td> </td>
<td> </td>
<td> </td>
<td> </td>
</tr>
<tr>
<td> </td>
<td> </td>
<td> </td>
<td> </td>
<td><div align="center" class="style10"></div></td>
</tr>
<tr>
<td><img height="332" src="../by005.jpg" width="245"/></td>
<td> </td>
<td><img height="332" src="../by004.jpg" width="245"/></td>
<td> </td>
<td><img height="332" src="../by006.jpg" width="245"/></td>
</tr>
<tr>
<td> </td>
<td> </td>
<td> </td>
<td> </td>
<td> </td>
</tr>
<tr>
<td><div align="center"><a class="style9" href="http://www.beyondinterracial.com/butterfly">Theater Slut - Butterfly</a></div></td>
<td><div align="center"></div></td>
<td><div align="center"><a class="style9" href="http://www.beyondinterracial.com/kara">Kara Sweet</a></div></td>
<td><div align="center"></div></td>
<td><div align="center"><a class="style9" href="http://www.beyondinterracial.com/nolarouge">Nola Rouge</a></div></td>
</tr>
<tr>
<td> </td>
<td> </td>
<td> </td>
<td> </td>
<td> </td>
</tr>
<tr>
<td> </td>
<td> </td>
<td> </td>
<td> </td>
<td> </td>
</tr>
<tr>
<td><img height="332" src="http://www.dfwknight.com/graphs/20151204-30749a.jpg" width="245"/></td>
<td> </td>
<td><img height="332" src="http://www.dfwknight.com/graphs/IMG_3001.jpg" width="243"/></td>
<td> </td>
<td> </td>
</tr>
<tr>
<td> </td>
<td> </td>
<td><div align="center" class="style10">coming soon</div></td>
<td> </td>
<td> </td>
</tr>
<tr>
<td><div align="center"><a class="style9" href="http://www.beyondinterracial.com/mandy">Mandy Monroe</a></div></td>
<td><div align="center"></div></td>
<td><div align="center"><a class="style9" href="http://www.beyondinterracial.com/">Ashlee Chambers</a></div></td>
<td><div align="center"></div></td>
<td><div align="center"></div></td>
</tr>
</table>
I 
<p align="center"> </p>
<p align="center" class="style7">Adults Only +18</p>
<p align="center"> </p>
</body></html>
