<html><head>
<title>Access Denied</title>
</head><body>
<h1>Access Denied</h1>
 
You don't have permission to access "http://www.bharatmatrimony.com/" on this server.<p>
Reference #18.96d9c045.1610597662.20bb152f
</p></body>
</html>
