<!DOCTYPE html>
<html lang="bg"><head><meta charset="utf-8"/><meta content="IE=edge" http-equiv="X-UA-Compatible"/><!-- BEGIN META TAGS --><title>Добре дошли! | 24Kitchen</title><meta content="Добре дошли! | 24Kitchen" name="title"/><meta content="Добре дошли! | 24Kitchen" name="description"/><meta content="24Kitchen,24китчен, recepti, рецепти, кулинарни предавания, Джейми Оливър, програма, Гордън Рамзи, сайт за рецепти, готварство" name="keywords"/><meta content="Добре дошли! | 24Kitchen" property="og:title"/><meta content="Добре дошли! | 24Kitchen" property="og:description"/><meta content="https://www.24kitchen.bg/" property="og:url"/><meta content="24Kitchen" name="author"/><meta content="24Kitchen" name="twitter:card"/><!-- END META TAGS --><!-- Header generic scripts --><!-- OneTrust Cookies Consent Notice start for www.24kitchen.bg --><script charset="UTF-8" data-domain-script="874bd16b-66c2-4ead-bdf7-4d82a4695ca8" data-language="bg" src="https://cdn.cookielaw.org/scripttemplates/otSDKStub.js" type="text/javascript"></script><script type="text/javascript">
function OptanonWrapper() {window.dataLayer = window.dataLayer || [];
window.dataLayer.push({
 'event': 'OT_loaded'
 });  }
</script><!-- OneTrust Cookies Consent Notice end for www.24kitchen.bg --><meta content="8fIGrbXRj6Qhb8lVHVMCUKQW4TJxcrzSXH8ZnMkBqB4" name="google-site-verification"/><script async="" src="https://securepubads.g.doubleclick.net/tag/js/gpt.js"></script><script>
    window.googletag = window.googletag || {cmd: []};
    var size970 = 0;
    var size728 = 0;
    var size320 = 0;
    var size300 = 0;
        function getPosByScreenWidth(adSlotId,pos = ''){
        const WIDTH_DESKTOP = 1280;
        const WIDTH_TABLET = 1024;
        const WIDTH_MOBILE = 768;
         var posUpdated;
         var posSplited = pos.split('_');
         var posWithoutSize = [];
         for (i = 0; i < (posSplited.length)-1; i++) {
             posWithoutSize.push(posSplited[i]);
         }
         var windowWidth = window.innerWidth;
         posUpdated = posWithoutSize.toString();
        switch (adSlotId) {
            case 'push-top':
                if (windowWidth >= WIDTH_MOBILE  ){
                    size728++;
                    posUpdated = size728;
                }
                if (windowWidth < WIDTH_MOBILE){
                    size320++;
                    posUpdated = size320;
                }
                break;
             case 'push':
                 if (windowWidth >= WIDTH_DESKTOP){
                     size970++;
                     posUpdated = size970;
                 }
                 if (windowWidth >= WIDTH_TABLET && windowWidth < WIDTH_DESKTOP ){
                     size728++;
                     posUpdated = size728;
                 }
                 if (windowWidth >= WIDTH_MOBILE && windowWidth < WIDTH_TABLET){
                     size300++;
                     posUpdated = size300;
                 }
                 if (windowWidth < WIDTH_MOBILE){
                     size320++;
                     posUpdated = size320;
                 }
                 break;
             case 'standard':
                 if (windowWidth >= WIDTH_TABLET  ){
                     size728++;
                     posUpdated = size728;
                 }
                 if (windowWidth >= WIDTH_MOBILE && windowWidth < WIDTH_TABLET){
                     size300++;
                     posUpdated = size300;
                 }
                 if (windowWidth < WIDTH_MOBILE){
                     size320++;
                     posUpdated = size320;
                 }
                 break;
             case 'box':
                 size300++;
                 posUpdated = size300;
                 break;
            default:
                if (windowWidth >= WIDTH_TABLET  ){
                    size728++;
                    posUpdated = size728;
                }
                if (windowWidth >= WIDTH_MOBILE && windowWidth < WIDTH_TABLET){
                    size300++;
                    posUpdated = size300;
                }
                if (windowWidth < WIDTH_MOBILE){
                    size320++;
                    posUpdated = size320;
                }
                break;
        }
        return posUpdated;
    }
    googletag.cmd.push(function () {
        var REFRESH_KEY = 'refresh';
        var REFRESH_VALUE = 'true';
                var posUpdated = getPosByScreenWidth('standard','/21783347309/24kitchen/24kitchen.bg/web/homepage_[728x90]');
var mapping =  googletag.sizeMapping().
        addSize([1024,10],[728,90]).
        addSize([768,10],[300,250]).
        addSize([0,0],[320,50]).
build();
var adSlot = googletag.defineSlot('/21783347309/24kitchen/24kitchen.bg/web/homepage', [[728,90],[300,250],[320,50]], 'standard')
//for lazyloading until viewport reached
.setTargeting(REFRESH_KEY, REFRESH_VALUE)
//Other key values
         .setTargeting('objid', '24K_TV_CH_BG_home')
             .setTargeting('ed', 'bg')
             .setTargeting('lang', 'bg')
             .setTargeting('plt', 'web')
        
.setTargeting('pos',posUpdated)
.addService(googletag.pubads());
adSlot.defineSizeMapping(mapping);
        
        // Number of seconds to wait after the slot becomes viewable.
        var SECONDS_TO_WAIT_AFTER_VIEWABILITY = 18;
        var ONETRUST_GROUP = 'C0004';
        var COOKIES_NON_GDPR = false;
        if (COOKIES_NON_GDPR) {
            googletag.pubads().setRequestNonPersonalizedAds(0);
        } else {
            if (typeof (OnetrustActiveGroups) != 'undefined') {
                if (OnetrustActiveGroups.indexOf(',' + ONETRUST_GROUP + ',') == -1) { // Targeting
                    console.info('Ads -- No Targeting');
                    googletag.pubads().setRequestNonPersonalizedAds(1);
                } else {
                    console.info('Ads -- Allow Targeting');
                    googletag.pubads().setRequestNonPersonalizedAds(0);
                }
            }
        }
        console.log('GPT loading');
        var previousSlot;
        var timer;
        // googletag.pubads().setTargeting("topic","basketball"); //key value example for all slots in the page
        googletag.pubads().addEventListener('impressionViewable', function (event) {
            console.log('impression');
            var slot = event.slot;
            var posUpdated;
            if (previousSlot !== undefined) {
                if (slot.getSlotId().getId() === previousSlot.getSlotId().getId()) {
                    clearTimeout(timer);
                    console.log('clear timer');
                }
            }
            previousSlot = event.slot;
            console.log('Impression for slot', slot.getSlotElementId(), 'became viewable.');
            if (slot.getTargeting(REFRESH_KEY).indexOf(REFRESH_VALUE) > -1) {
                 timer = setTimeout(function () {
                    console.log('Refreshing slot', slot.getSlotElementId());
                   /* posUpdated = getPosByScreenWidth(slot.getSlotElementId(),slot.getTargeting('pos')[0]);
                    slot.setTargeting('pos',posUpdated);*/
                    googletag.pubads().refresh([slot]);
                }, SECONDS_TO_WAIT_AFTER_VIEWABILITY * 1000);
            }
        });
        googletag.pubads().enableSingleRequest();
        googletag.pubads().enableLazyLoad();
        if (typeof(OnetrustActiveGroups) != 'undefined') {
            if (OnetrustActiveGroups.indexOf(',tg,') == -1) { // Targeting
                console.info('Ads -- No Targeting');
                googletag.pubads().setRequestNonPersonalizedAds(0);
            } else {
                console.info('Ads -- Allow Targeting');
                googletag.pubads().setRequestNonPersonalizedAds(1);
            }
        }
        googletag.enableServices();
    });
    window.addEventListener("orientationchange", function(event) {
        var posUpdated = '';
        size970 = 0;
        size728 = 0;
        size320 = 0;
        size300 = 0;
        var slots = googletag.pubads().getSlots();
        console.log('slotes',slots);
        console.log('lenght',slots.length);
        setTimeout(function () {
            slots.forEach(slot => {
                console.log('elementID',slot.getSlotElementId());
                console.log('pos',slot.getTargeting('pos')[0]);
                posUpdated = getPosByScreenWidth(slot.getSlotElementId(), slot.getTargeting('pos')[0]);
                slot.setTargeting('pos', posUpdated);
                googletag.pubads().refresh([slot]);
            });
        }, 50);
    });
</script><!-- Product region specific css files --><link href="https://fonts.googleapis.com/css?family=Ubuntu:400,500,700,300%7CDroid+Sans:400,700" rel="stylesheet" type="text/css"/><link href="//sirefox-assets.fichub.com/compiled/css/product_region_asset_24kitchen.css?1610372992" rel="stylesheet"/><link href="//sirefox-assets.fichub.com/assets/24kitchen/images/misc/favicon.ico?1610372992" rel="shortcut icon"/><link href="//sirefox-assets.fichub.com/assets/24kitchen/images/misc/apple-touch-icon.png?1610372992" rel="apple-touch-icon"/><!--Responsive viewport--><meta content="width=device-width, initial-scale=0.0, minimum-scale=1.0, maximum-scale=1.0" name="viewport"/><!-- Inline css --><style type="text/css">/*NEW ONETRUST STYLE*/
#mainFooter #ot-sdk-btn.ot-sdk-show-settings {
    color: #fff;
    border: none;
    text-decoration: underline;
    background: none;
    padding: 0;
    font-size: 12px;
    line-height: 1;
}
#mainFooter #ot-sdk-btn.ot-sdk-show-settings:hover {
   text-decoration: none;
color: #263816;
}
@media only screen and (min-width: 64em){
   #mainFooter #ot-sdk-btn.ot-sdk-show-settings {
           font-size: 16px;
   }
}
#MenuFooter li.optali {
   margin:0;
}
.articles .cardBox .label h4, .article .cardBox .label h4{display:none;}
#Newsletter {
   display:flow-root !important;
}</style><script src="https://ajax.googleapis.com/ajax/libs/jquery/2.1.4/jquery.min.js"></script><script async="" src="https://specials.fnghub.com/ng/global/js/age-verification.js"></script></head><body class="home 24kitchen_bg sire_bg" data-cookie-path="/"><!--[if lt IE 10]><div class="browserupgrade" id="acilia-browser-detection-box-dialog"><a href="#" class="closeBrowser" id="acilia-browser-detection-close-box-dialog"><img src="//sirefox-assets.fichub.com/assets//images/close.png?1610372992"/></a><div class="browCont"><p class="alertBrow"><svg class="vector icoAlertVector" ><use xmlns:xlink="http://www.w3.org/1999/xlink" xlink:href="/assets/images/icons.svg?1610372992#Alert"></use></svg></p><p class="Browtext">Използвате <span>стара</span> версия на браузъра. Моля, <a href="http://browsehappy.com/" target="_blank">обновете браузъра, който използвате</a>, за да подобрите преживяването си.</p></div></div><![endif]--><div class="st-container" id="st-container"><nav class="st-menu st-effect-1" id="menu-1"><div class="closeMenu" id="btnCloseMenu"><svg class="vector icoMenuVector menu noSmall" id="btnCloseMenu"><use xlink:href="/assets/images/icons.svg?1610372992#LeftArrow" xmlns:xlink="http://www.w3.org/1999/xlink"></use></svg></div><ul><li><a class="firstMenu" href="/">НАЧАЛО</a></li><li><a class="firstMenu" href="/recipe">Рецепти</a></li><li><a class="firstMenu" href="/shows">ПРЕДАВАНИЯ</a></li><li><a class="firstMenu" href="/tvprogram">ПРОГРАМАТА</a></li><li><a class="firstMenu" href="/chefs">ГОТВАЧИ</a></li><li><a class="firstMenu" href="/articles">БЛОГ</a></li><li id="howMenu"><ol><li><a href="/special/ways-to-watch" title="Излъчване на 24KITCHEN"><ol><li class="clearfix"><h3>Излъчване на 24KITCHEN</h3></li><li><svg class="vector smallSize kitchen"><use xlink:href="/assets/images/logos.svg?1610372992#kitchen" xmlns:xlink="http://www.w3.org/1999/xlink"></use></svg></li></ol></a></li></ol></li><li><a class="firstMenu" href="/contacts">КОНТАКТИ</a></li><ul class="small-12 columns" id="SocialMenu"><li><ul id="smGroup"><li class="smChannel"><a class="acilia-social-fb-link" data-fb-page-id="" href="https://www.facebook.com/24kitchenbg" target="_blank" title="Facebook"><svg class="vector icoFacebookF"><use xlink:href="/assets/images/icons.svg?1610372992#fb" xmlns:xlink="http://www.w3.org/1999/xlink"></use></svg></a></li><li class="smChannel"><a href="https://www.youtube.com/channel/UComwZnGoyazXP6S1fO6_53Q" target="_blank" title="Youtube"><svg class="vector icoYoutubeF"><use xlink:href="/assets/images/icons.svg?1610372992#yt" xmlns:xlink="http://www.w3.org/1999/xlink"></use></svg></a></li><li class="smChannel"><a href="https://instagram.com/24kitchenbg" target="_blank" title="Instagram"><svg class="vector icoInstagramF"><use xlink:href="/assets/images/icons.svg?1610372992#insta" xmlns:xlink="http://www.w3.org/1999/xlink"></use></svg></a></li></ul></li><!-- facebook --><li class="socialCountry" site="facebook"><ul class="dropDownList"><li><a class="acilia-social-fb-link" data-fb-page-id="" href="https://www.facebook.com/24kitchenbg" target="_blank" title="Facebook"><svg class="vector icoFacebookF"><use xlink:href="/assets/images/icons.svg?1610372992#fbcolor" xmlns:xlink="http://www.w3.org/1999/xlink"></use></svg><span>24kitchen</span></a></li></ul></li><!-- twitter --><li class="socialCountry" site="twitter"><ul class="dropDownList"></ul></li><!-- Youtube --><li class="socialCountry" site="youtube"><ul class="dropDownList"><li><a href="https://www.youtube.com/channel/UComwZnGoyazXP6S1fO6_53Q" target="_blank" title="Youtube"><svg class="vector icoYoutubeF"><use xlink:href="/assets/images/icons.svg?1610372992#ytColor" xmlns:xlink="http://www.w3.org/1999/xlink"></use></svg><span>24kitchenbg</span></a></li></ul></li><!-- Instagram --><li class="socialCountry" site="instagram"><ul class="dropDownList"><li><a href="https://instagram.com/24kitchenbg" target="_blank" title="Instagram"><svg class="vector icoInstagramF"><use xlink:href="/assets/images/icons.svg?1610372992#instacolor" xmlns:xlink="http://www.w3.org/1999/xlink"></use></svg><span>24kitchenbg</span></a></li></ul></li><!-- VK --><li class="socialCountry" site="vk"><ul class="dropDownList"></ul></li><!-- Pinterest --><li class="socialCountry" site="pinterest"><ul class="dropDownList"></ul></li></ul><li><a class="secondMenu" href="/info/reklama" target="_blank">Реклама</a></li><li><a class="secondMenu" href="/info/za-nas" target="_blank">За нас</a></li><li><a class="secondMenu" href="/info/uslovia-za-polzvane">Правила и условия</a></li><li><a class="secondMenu" href="/info/politika-za-zashtita-na-lichnite-danni">Политика за защита на личните данни</a></li><li><a class="secondMenu" href="/info/politika-otnosno-izpolzvanite-kukita-biskvitki">Политика относно използваните кукита</a></li><li><a class="secondMenu" href="/info/politiki" target="_blank">Политики</a></li><li id="menu-consent-management"><a class="secondMenu" href="/consent-management">Управление на съгласията</a></li></ul></nav><div class="st-pusher"><div class="st-content"><div class="st-content-inner"><div class="main clearfix"><header data-magellan-expedition="fixed" data-options="threshold:1;" id="mainHeader"><div class="row relative"><div class="left" id="st-trigger-effects"><button data-effect="st-effect-1" id="menuBtn"><svg class="vector icoMenuVector"><use xlink:href="/assets/images/icons.svg?1610372992#menuNat" xmlns:xlink="http://www.w3.org/1999/xlink"></use></svg></button></div><a class="left" href="/" id="mainLogo"><svg class="vector mainIcon"><use xlink:href="/assets/images/logos.svg?1610372992#kitchen" xmlns:xlink="http://www.w3.org/1999/xlink"></use></svg></a><aside class="sb-profile" id="sb-registerLogin"><a href="/user/login" id="acilia-user-login" style="display: none;"><button class="regisrerLogin"><svg class="vector icoProfileVector"><use xlink:href="/assets/images/icons.svg?1610372992#profile" xmlns:xlink="http://www.w3.org/1999/xlink"></use></svg>
                    Вход/Регистрация
                </button></a><a href="/user/profile" id="acilia-user-profile" style="display: none;"><button class="regisrerLogin loggedIn"><svg class="vector icoProfileVector"><use xlink:href="/assets/images/icons.svg?1610372992#profile" xmlns:xlink="http://www.w3.org/1999/xlink"></use></svg><span id="acilia-hi-user">Здравейте!</span></button></a></aside><div class="mobile-only"><a href="/user/login" id="acilia-user-login-mobile" style="display: none;"><button class="regisrerLogin"><svg class="vector icoProfileVector"><use xlink:href="/assets/images/icons.svg?1610372992#profile" xmlns:xlink="http://www.w3.org/1999/xlink"></use></svg></button></a><a href="/user/profile" id="acilia-user-profile-mobile" style="display: none;"><button class="regisrerLogin loggedIn"><svg class="vector icoProfileVector"><use xlink:href="/assets/images/icons.svg?1610372992#profile" xmlns:xlink="http://www.w3.org/1999/xlink"></use></svg></button></a></div><aside class="sb-search right" id="sb-search"><form action="/search" id="sb-search-form" method="get"><input class="sb-search-input" id="sb-search-input" name="search" placeholder="Търсене...." type="text" value=""/><input class="sb-search-submit" type="submit" value=""/><span class="sb-icon-search"><svg class="vector icoSearchVector"><use xlink:href="/assets/images/icons.svg?1610372992#searchNat" xmlns:xlink="http://www.w3.org/1999/xlink"></use></svg></span></form></aside></div></header><aside class="acilia-verfiedBar-newsletter" id="verifiedBar" style="display: none;"><div class="accordionContent3 default"><span class="verify"><svg class="vector icoSuccessVector"><use xlink:href="/assets/images/icons.svg?1610372992#Success" xmlns:xlink="http://www.w3.org/1999/xlink"></use></svg><p>Вашият имейл беше потвърден и добавен в нашата база данни. Вече сте регистриран/а за бюлетина на 24Kitchen.</p></span><span class="accordionToggle3 right"><svg class="vector icoCloseCircle left"><use xlink:href="/assets/images/icons.svg?1610372992#closeCircle" xmlns:xlink="http://www.w3.org/1999/xlink"></use></svg></span></div></aside><aside class="acilia-verfiedBar-newsletter-unsubscribed" id="verifiedBar" style="display: none;"><div class="accordionContent3 default"><span class="verify"><svg class="vector icoSuccessVector"><use xlink:href="/assets/images/icons.svg?1610372992#Success" xmlns:xlink="http://www.w3.org/1999/xlink"></use></svg><p>Бяхте отписан/а от абонамента за бюлетин на 24Kitchen.</p></span><span class="accordionToggle3 right"><svg class="vector icoCloseCircle left"><use xlink:href="/assets/images/icons.svg?1610372992#closeCircle" xmlns:xlink="http://www.w3.org/1999/xlink"></use></svg></span></div></aside><aside class="acilia-verfiedBar-user-notification" id="verifiedBar" style="display: none;"><div class="accordionContent3 default"><span class="verify"><svg class="vector icoSuccessVector"><use xlink:href="/assets/images/icons.svg?1610372992#Success" xmlns:xlink="http://www.w3.org/1999/xlink"></use></svg><p>Профилът Ви е потвърден! Добре дошли в сайта на 24Kitchen! Станете велик готвач с помощта на най-добрите професионални готвачи и техните най-добри рецепти.</p></span><span class="accordionToggle3 right"><svg class="vector icoCloseCircle left"><use xlink:href="/assets/images/icons.svg?1610372992#closeCircle" xmlns:xlink="http://www.w3.org/1999/xlink"></use></svg></span></div></aside><div id="mainContainer"><section class="row"><!-- CardType: Featured/NonFeatured --><div class="large-12 columns cardBox kitchen " id="mainCard"><div class="badgeLike acilia-like" data-rid="159555" id="acilia-like-159555"><a class="acilia-heart-empty" data-tooltip="Запази рецептата" href="#"><svg class="vector heart-empty"><use xlink:href="/assets/images/icons.svg?1610372992#heart" xmlns:xlink="http://www.w3.org/1999/xlink"></use></svg><span class="acilia-likes">5</span></a><a class="acilia-heart-filled" data-tooltip="Премахване от моите рецепти" href="#" style="display: none;"><svg class="vector heart-filled"><use xlink:href="/assets/images/icons.svg?1610372992#heart" xmlns:xlink="http://www.w3.org/1999/xlink"></use></svg><span class="acilia-likes">5</span></a></div><a class="intrinsic intrinsic169 cards cardBig" gtm-data='{"fngChannel":null,"fngShowId":null,"fngEpisodeId":null,"fngClipId":null,"fngShowTitle":null,"fngEpisodeTitle":null,"fngClipTitle":null,"fngContentType":null,"fngSpecialTitle":"\u041a\u044a\u0440\u0438 \u0441 \u043a\u0430\u0440\u0442\u043e\u0444\u0438 \u0438 \u0433\u0440\u0430\u0445","fngRegion":"BG","fngItemPosition":"non_featured_card","event":"modulos_home"}' gtm-event="click" href="/recipe/kari-s-kartofi-i-grah" id="mainHighlight" title=""><div class="label"><b class="channelLogo">Рецепта на деня</b><h1>Къри с картофи и грах</h1><h4></h4></div><picture><!-- Next Gen Images - WEBP --><source data-srcset="//origin-sire-media.fichub.com/24k_bg/recipe-image/369897.1200x675.webp" media="(min-width: 1024px)" type="image/webp"/><source data-srcset="//origin-sire-media.fichub.com/24k_bg/recipe-image/369897.1024x576.webp" media="(min-width: 568px)" type="image/webp"/><source data-srcset="//origin-sire-media.fichub.com/24k_bg/recipe-image/369897.640x640.webp" type="image/webp"/><!-- Next Gen Images - JPEG2000 --><source data-srcset="//origin-sire-media.fichub.com/24k_bg/recipe-image/369897.1200x675.jp2" media="(min-width: 1024px)" type="image/jp2"/><source data-srcset="//origin-sire-media.fichub.com/24k_bg/recipe-image/369897.1024x576.jp2" media="(min-width: 568px)" type="image/jp2"/><source data-srcset="//origin-sire-media.fichub.com/24k_bg/recipe-image/369897.640x640.jp2" type="image/jp2"/><!--[if IE 9]><audio><![endif]--><source data-srcset="//origin-sire-media.fichub.com/24k_bg/recipe-image/369897.1200x675.jpg" media="(min-width: 1024px)" type="image/jpeg"/><source data-srcset="//origin-sire-media.fichub.com/24k_bg/recipe-image/369897.1024x576.jpg" media="(min-width: 568px)" type="image/jpeg"/><source data-srcset="//origin-sire-media.fichub.com/24k_bg/recipe-image/369897.640x640.jpg" type="image/jpeg"/><!--[if IE 9]></audio><![endif]--><img alt="Къри с картофи и грах" class="lazyload"/></picture></a></div></section><section class="row" id="tuneIn"><div class="small-12 columns"><div class="small-12 column noLarge noMedium"><div class="nowOn"><h4>Сега</h4><a class="link right noLarge noMedium" href="/tvprogram/24kitchen">Пълна програма</a></div><ul class="tuneChannels"><li class="small-6 column"><span class="channel"><svg class="vector smallSize channel kitchen"><use xlink:href="/assets/images/logos.svg?1610372992#kitchen" xmlns:xlink="http://www.w3.org/1999/xlink"></use></svg></span><span class="show" id="acilia-mobile-tunein-112"></span></li></ul></div><div class="medium-12 columns noSmall" id="tuneInList"><div class="channelDrop selected left"><div><span data-id="112" id="acilia-channel-selected"><svg class="vector smallSize channel kitchen"><use xlink:href="/assets/images/logos.svg?1610372992#kitchen" xmlns:xlink="http://www.w3.org/1999/xlink"></use></svg></span></div></div><div class="tuneContent acilia-channel-tunein " data-channel-id="112" id="acilia-channel-tunein-112"><div class="nowOn left relative"><h5>Сега</h5><h3>В ритъма на Антъни Бурдейн</h3></div><a href="/tvprogram/24kitchen" title="24Kitchen"><ul><li data-nowon-text="В ритъма на Антъни Бурдейн" data-timestamp="1610426520"><h4><span>06:00</span>В ритъма на Антъни Бурдейн</h4></li><li data-nowon-text="Рик Стайн – пътят към Мексико" data-timestamp="1610431140"><h4><span>06:55</span>Рик Стайн – пътят към Мексико</h4></li><li data-nowon-text="Бързи и лесни рецепти с Джейми" data-timestamp="1610433000"><h4><span>08:00</span>Бързи и лесни рецепти с Джейми</h4></li><li data-nowon-text="Бързи и лесни рецепти с Джейми" data-timestamp="1610434680"><h4><span>08:30</span>Бързи и лесни рецепти с Джейми</h4></li><li data-nowon-text="Пекарната на Рудолф" data-timestamp="1610436540"><h4><span>09:00</span>Пекарната на Рудолф</h4></li><li data-nowon-text="Пекарната на Рудолф" data-timestamp="1610438280"><h4><span>09:30</span>Пекарната на Рудолф</h4></li><li data-nowon-text="Вкусна седмица" data-timestamp="1610441700"><h4><span>10:00</span>Вкусна седмица</h4></li><li data-nowon-text="Рецепти от крайбрежието с Рейчъл Алън" data-timestamp="1610443740"><h4><span>11:00</span>Рецепти от крайбрежието с Рейчъл Алън</h4></li><li data-nowon-text="Бон Апети" data-timestamp="1610445480"><h4><span>11:30</span>Бон Апети</h4></li><li data-nowon-text="Уикенд в кухнята на Джон и Лиса" data-timestamp="1610448780"><h4><span>12:00</span>Уикенд в кухнята на Джон и Лиса</h4></li><li data-nowon-text="Печивата на Марта Стюарт" data-timestamp="1610452680"><h4><span>13:30</span>Печивата на Марта Стюарт</h4></li><li data-nowon-text="Рик Стайн – пътят към Мексико" data-timestamp="1610456640"><h4><span>14:00</span>Рик Стайн – пътят към Мексико</h4></li><li data-nowon-text="Бързи и лесни рецепти с Джейми" data-timestamp="1610458020"><h4><span>15:00</span>Бързи и лесни рецепти с Джейми</h4></li><li data-nowon-text="Бързи и лесни рецепти с Джейми" data-timestamp="1610459880"><h4><span>15:30</span>Бързи и лесни рецепти с Джейми</h4></li><li data-nowon-text="Рецепти от крайбрежието с Рейчъл Алън" data-timestamp="1610461620"><h4><span>16:00</span>Рецепти от крайбрежието с Рейчъл Алън</h4></li><li data-nowon-text="Бон Апети" data-timestamp="1610463480"><h4><span>16:30</span>Бон Апети</h4></li><li data-nowon-text="Пекарната на Рудолф" data-timestamp="1610465400"><h4><span>17:00</span>Пекарната на Рудолф</h4></li><li data-nowon-text="Пекарната на Рудолф" data-timestamp="1610467140"><h4><span>17:30</span>Пекарната на Рудолф</h4></li><li data-nowon-text="Вкусна седмица" data-timestamp="1610470560"><h4><span>18:00</span>Вкусна седмица</h4></li><li data-nowon-text="Уикенд в кухнята на Джон и Лиса" data-timestamp="1610474040"><h4><span>19:00</span>Уикенд в кухнята на Джон и Лиса</h4></li><li data-nowon-text="Моята кухня е най-добрата – Австралия" data-timestamp="1610477880"><h4><span>20:00</span>Моята кухня е най-добрата – Австралия</h4></li><li data-nowon-text="Бързи и лесни рецепти с Джейми" data-timestamp="1610479680"><h4><span>21:00</span>Бързи и лесни рецепти с Джейми</h4></li><li data-nowon-text="Бързи и лесни рецепти с Джейми" data-timestamp="1610481480"><h4><span>21:30</span>Бързи и лесни рецепти с Джейми</h4></li><li data-nowon-text="Рик Стайн – пътят към Мексико" data-timestamp="1610485440"><h4><span>22:00</span>Рик Стайн – пътят към Мексико</h4></li><li data-nowon-text="Печивата на Марта Стюарт" data-timestamp="1610486880"><h4><span>23:00</span>Печивата на Марта Стюарт</h4></li><li data-nowon-text="Печивата на Марта Стюарт" data-timestamp="1610488680"><h4><span>23:30</span>Печивата на Марта Стюарт</h4></li><li data-nowon-text="Бон Апети" data-timestamp="1610490540"><h4><span>00:00</span>Бон Апети</h4></li><li data-nowon-text="Рецепти от крайбрежието с Рейчъл Алън" data-timestamp="1610492220"><h4><span>00:30</span>Рецепти от крайбрежието с Рейчъл Алън</h4></li><li data-nowon-text="В ритъма на Антъни Бурдейн" data-timestamp="1610495280"><h4><span>01:00</span>В ритъма на Антъни Бурдейн</h4></li><li data-nowon-text="Вкусна седмица" data-timestamp="1610498460"><h4><span>01:55</span>Вкусна седмица</h4></li><li data-nowon-text="Моята кухня е най-добрата – Австралия" data-timestamp="1610501280"><h4><span>02:40</span>Моята кухня е най-добрата – Австралия</h4></li><li data-nowon-text="Пекарната на Рудолф" data-timestamp="1610502960"><h4><span>03:30</span>Пекарната на Рудолф</h4></li><li data-nowon-text="Пекарната на Рудолф" data-timestamp="1610504460"><h4><span>03:55</span>Пекарната на Рудолф</h4></li><li data-nowon-text="Уикенд в кухнята на Джон и Лиса" data-timestamp="1610506980"><h4><span>04:20</span>Уикенд в кухнята на Джон и Лиса</h4></li><li data-nowon-text="Бързи и лесни рецепти с Джейми" data-timestamp="1610508900"><h4><span>05:10</span>Бързи и лесни рецепти с Джейми</h4></li><li data-nowon-text="Бързи и лесни рецепти с Джейми" data-timestamp="1610510400"><h4><span>05:35</span>Бързи и лесни рецепти с Джейми</h4></li></ul></a></div></div></div></section><section class="row"><!-- CardType: History:Show --><div class="large-6 small-12 columns cardBox kitchen "><a class="intrinsic intrinsic169 cards cardSmall" gtm-data='{"fngChannel":"24Kitchen","fngShowId":"141610","fngEpisodeId":null,"fngClipId":null,"fngShowTitle":"\u041d\u043e\u0432\u0430\u0442\u0430 \u0431\u0430\u043b\u043a\u0430\u043d\u0441\u043a\u0430 \u043a\u0443\u0445\u043d\u044f \u0441 \u0411\u043e\u0436\u0430\u043d\u0430","fngEpisodeTitle":null,"fngClipTitle":null,"fngContentType":"Serie","fngSpecialTitle":null,"fngRegion":"BG","fngItemPosition":"automatic","event":"modulos_home"}' gtm-event="click" href="/shows/24kitchen/new-balkan-cuisine-with-bozhana" title="Новата балканска кухня с Божана"><div class="label"><b class="channelLogo">По телевизията</b><h3>Новата балканска кухня с Божана</h3><h4></h4></div><picture><!-- Next Gen Images - WEBP --><source data-srcset="//origin-sire-media.fichub.com/24k_bg/serie-main/292436.1024x576.webp" media="(min-width: 1024px)" type="image/webp"/><source data-srcset="//origin-sire-media.fichub.com/24k_bg/serie-main/292436.640x360.webp" media="(min-width: 568px)" type="image/webp"/><source data-srcset="//origin-sire-media.fichub.com/24k_bg/serie-main/292436.600x338.webp" type="image/webp"/><!-- Next Gen Images - JPEG2000 --><source data-srcset="//origin-sire-media.fichub.com/24k_bg/serie-main/292436.1024x576.jp2" media="(min-width: 1024px)" type="image/jp2"/><source data-srcset="//origin-sire-media.fichub.com/24k_bg/serie-main/292436.640x360.jp2" media="(min-width: 568px)" type="image/jp2"/><source data-srcset="//origin-sire-media.fichub.com/24k_bg/serie-main/292436.600x338.jp2" type="image/jp2"/><!--[if IE 9]><audio><![endif]--><source data-srcset="//origin-sire-media.fichub.com/24k_bg/serie-main/292436.1024x576.jpg" media="(min-width: 1024px)" type="image/jpeg"/><source data-srcset="//origin-sire-media.fichub.com/24k_bg/serie-main/292436.640x360.jpg" media="(min-width: 568px)" type="image/jpeg"/><source data-srcset="//origin-sire-media.fichub.com/24k_bg/serie-main/292436.600x338.jpg" type="image/jpeg"/><!--[if IE 9]></audio><![endif]--><img alt="Новата балканска кухня с Божана" class="lazyload"/></picture></a></div><!-- CardType: History:Recipe --><div class="large-6 small-12 columns cardBox "><div class="badgeLike acilia-like" data-rid="159577" id="acilia-like-159577"><a class="acilia-heart-empty" data-tooltip="Запази рецептата" href="#"><svg class="vector heart-empty"><use xlink:href="/assets/images/icons.svg?1610372992#heart" xmlns:xlink="http://www.w3.org/1999/xlink"></use></svg><span class="acilia-likes">1</span></a><a class="acilia-heart-filled" data-tooltip="Премахване от моите рецепти" href="#" style="display: none;"><svg class="vector heart-filled"><use xlink:href="/assets/images/icons.svg?1610372992#heart" xmlns:xlink="http://www.w3.org/1999/xlink"></use></svg><span class="acilia-likes">1</span></a></div><a class="intrinsic intrinsic169 cards cardSmall" gtm-data='{"fngChannel":null,"fngShowId":null,"fngEpisodeId":null,"fngClipId":null,"fngShowTitle":null,"fngEpisodeTitle":null,"fngClipTitle":null,"fngContentType":null,"fngSpecialTitle":"\u041f\u0430\u043d\u0438\u0440 \u0434\u0436\u0430\u043b\u0444\u0440\u0435\u0437\u0438","fngRegion":"BG","fngItemPosition":"automatic","event":"modulos_home"}' gtm-event="click" href="/recipe/panir-dzhalfrezi" title="Панир джалфрези"><div class="playIcon"><svg class="vector icoPlayBig"><use xlink:href="/assets/images/icons.svg?1610372992#Play" xmlns:xlink="http://www.w3.org/1999/xlink"></use></svg></div><div class="label"><b class="channelLogo">Рецепта</b><h3>Панир джалфрези</h3><h4>Рик Стайн</h4></div><picture><!-- Next Gen Images - WEBP --><source data-srcset="//origin-sire-media.fichub.com/24k_bg/recipe-image/371527.1024x576.webp" media="(min-width: 1024px)" type="image/webp"/><source data-srcset="//origin-sire-media.fichub.com/24k_bg/recipe-image/371527.640x360.webp" media="(min-width: 568px)" type="image/webp"/><source data-srcset="//origin-sire-media.fichub.com/24k_bg/recipe-image/371527.600x338.webp" type="image/webp"/><!-- Next Gen Images - JPEG2000 --><source data-srcset="//origin-sire-media.fichub.com/24k_bg/recipe-image/371527.1024x576.jp2" media="(min-width: 1024px)" type="image/jp2"/><source data-srcset="//origin-sire-media.fichub.com/24k_bg/recipe-image/371527.640x360.jp2" media="(min-width: 568px)" type="image/jp2"/><source data-srcset="//origin-sire-media.fichub.com/24k_bg/recipe-image/371527.600x338.jp2" type="image/jp2"/><!--[if IE 9]><audio><![endif]--><source data-srcset="//origin-sire-media.fichub.com/24k_bg/recipe-image/371527.1024x576.jpg" media="(min-width: 1024px)" type="image/jpeg"/><source data-srcset="//origin-sire-media.fichub.com/24k_bg/recipe-image/371527.640x360.jpg" media="(min-width: 568px)" type="image/jpeg"/><source data-srcset="//origin-sire-media.fichub.com/24k_bg/recipe-image/371527.600x338.jpg" type="image/jpeg"/><!--[if IE 9]></audio><![endif]--><img alt="Панир джалфрези" class="lazyload"/></picture></a></div></section><section class="row"><!-- CardType: History:Show --><div class="large-12 columns cardBox kitchen "><a class="intrinsic intrinsic169 cards cardBig kitchen" gtm-data='{"fngChannel":"24Kitchen","fngShowId":"171445","fngEpisodeId":null,"fngClipId":null,"fngShowTitle":"\u0412\u043a\u0443\u0441\u043d\u0430 \u0441\u0435\u0434\u043c\u0438\u0446\u0430","fngEpisodeTitle":null,"fngClipTitle":null,"fngContentType":"Serie","fngSpecialTitle":null,"fngRegion":"BG","fngItemPosition":"automatic","event":"modulos_home"}' gtm-event="click" href="/shows/24kitchen/eat-the-week" title="Вкусна седмица"><div class="label"><b class="channelLogo">По телевизията</b><h3>Вкусна седмица</h3><h4></h4></div><picture><!-- Next Gen Images - WEBP --><source data-srcset="//origin-sire-media.fichub.com/24k_bg/serie-main/261972.1200x675.webp" media="(min-width: 1024px)" type="image/webp"/><source data-srcset="//origin-sire-media.fichub.com/24k_bg/serie-main/261972.1024x576.webp" media="(min-width: 568px)" type="image/webp"/><source data-srcset="//origin-sire-media.fichub.com/24k_bg/serie-main/261972.640x360.webp" type="image/webp"/><!-- Next Gen Images - JPEG2000 --><source data-srcset="//origin-sire-media.fichub.com/24k_bg/serie-main/261972.1200x675.jp2" media="(min-width: 1024px)" type="image/jp2"/><source data-srcset="//origin-sire-media.fichub.com/24k_bg/serie-main/261972.1024x576.jp2" media="(min-width: 568px)" type="image/jp2"/><source data-srcset="//origin-sire-media.fichub.com/24k_bg/serie-main/261972.640x360.jp2" type="image/jp2"/><!--[if IE 9]><audio><![endif]--><source data-srcset="//origin-sire-media.fichub.com/24k_bg/serie-main/261972.1200x675.jpg" media="(min-width: 1024px)" type="image/jpeg"/><source data-srcset="//origin-sire-media.fichub.com/24k_bg/serie-main/261972.1024x576.jpg" media="(min-width: 568px)" type="image/jpeg"/><source data-srcset="//origin-sire-media.fichub.com/24k_bg/serie-main/261972.640x360.jpg" type="image/jpeg"/><!--[if IE 9]></audio><![endif]--><img alt="Вкусна седмица" class="lazyload"/></picture></a></div><!-- CardType: History:Recipe --><div class="large-6 small-12 columns cardBox "><div class="badgeLike acilia-like" data-rid="159576" id="acilia-like-159576"><a class="acilia-heart-empty" data-tooltip="Запази рецептата" href="#"><svg class="vector heart-empty"><use xlink:href="/assets/images/icons.svg?1610372992#heart" xmlns:xlink="http://www.w3.org/1999/xlink"></use></svg><span class="acilia-likes">1</span></a><a class="acilia-heart-filled" data-tooltip="Премахване от моите рецепти" href="#" style="display: none;"><svg class="vector heart-filled"><use xlink:href="/assets/images/icons.svg?1610372992#heart" xmlns:xlink="http://www.w3.org/1999/xlink"></use></svg><span class="acilia-likes">1</span></a></div><a class="intrinsic intrinsic169 cards cardSmall" gtm-data='{"fngChannel":null,"fngShowId":null,"fngEpisodeId":null,"fngClipId":null,"fngShowTitle":null,"fngEpisodeTitle":null,"fngClipTitle":null,"fngContentType":null,"fngSpecialTitle":"\u041d\u0438\u043c\u0438\u0448","fngRegion":"BG","fngItemPosition":"automatic","event":"modulos_home"}' gtm-event="click" href="/recipe/nimish" title="Нимиш"><div class="playIcon"><svg class="vector icoPlayBig"><use xlink:href="/assets/images/icons.svg?1610372992#Play" xmlns:xlink="http://www.w3.org/1999/xlink"></use></svg></div><div class="label"><b class="channelLogo">Рецепта</b><h3>Нимиш</h3><h4>Рик Стайн</h4></div><picture><!-- Next Gen Images - WEBP --><source data-srcset="//origin-sire-media.fichub.com/24k_bg/recipe-image/371526.1024x576.webp" media="(min-width: 1024px)" type="image/webp"/><source data-srcset="//origin-sire-media.fichub.com/24k_bg/recipe-image/371526.640x360.webp" media="(min-width: 568px)" type="image/webp"/><source data-srcset="//origin-sire-media.fichub.com/24k_bg/recipe-image/371526.600x338.webp" type="image/webp"/><!-- Next Gen Images - JPEG2000 --><source data-srcset="//origin-sire-media.fichub.com/24k_bg/recipe-image/371526.1024x576.jp2" media="(min-width: 1024px)" type="image/jp2"/><source data-srcset="//origin-sire-media.fichub.com/24k_bg/recipe-image/371526.640x360.jp2" media="(min-width: 568px)" type="image/jp2"/><source data-srcset="//origin-sire-media.fichub.com/24k_bg/recipe-image/371526.600x338.jp2" type="image/jp2"/><!--[if IE 9]><audio><![endif]--><source data-srcset="//origin-sire-media.fichub.com/24k_bg/recipe-image/371526.1024x576.jpg" media="(min-width: 1024px)" type="image/jpeg"/><source data-srcset="//origin-sire-media.fichub.com/24k_bg/recipe-image/371526.640x360.jpg" media="(min-width: 568px)" type="image/jpeg"/><source data-srcset="//origin-sire-media.fichub.com/24k_bg/recipe-image/371526.600x338.jpg" type="image/jpeg"/><!--[if IE 9]></audio><![endif]--><img alt="Нимиш" class="lazyload"/></picture></a></div><!-- CardType: History:Chef --><div class="large-6 small-12 columns cardBox "><a class="intrinsic intrinsic169 cards cardSmall" gtm-data='{"fngChannel":null,"fngShowId":null,"fngEpisodeId":null,"fngClipId":null,"fngShowTitle":null,"fngEpisodeTitle":null,"fngClipTitle":null,"fngContentType":null,"fngSpecialTitle":"\u041f\u0438\u0442\u044a\u0440 \u041a\u0443\u0440\u0443\u0432\u0438\u0442\u0430","fngRegion":"BG","fngItemPosition":"automatic","event":"modulos_home"}' gtm-event="click" href="/chefs/pitar-kuruvita" title="Питър Курувита"><div class="label"><b class="channelLogo">Страница на готвача</b><h3>Питър Курувита</h3><h4></h4></div><picture><!-- Next Gen Images - WEBP --><source data-srcset="//origin-sire-media.fichub.com/24k_bg/chef-image/262654.1024x576.webp" media="(min-width: 1024px)" type="image/webp"/><source data-srcset="//origin-sire-media.fichub.com/24k_bg/chef-image/262654.640x360.webp" media="(min-width: 568px)" type="image/webp"/><source data-srcset="//origin-sire-media.fichub.com/24k_bg/chef-image/262654.600x338.webp" type="image/webp"/><!-- Next Gen Images - JPEG2000 --><source data-srcset="//origin-sire-media.fichub.com/24k_bg/chef-image/262654.1024x576.jp2" media="(min-width: 1024px)" type="image/jp2"/><source data-srcset="//origin-sire-media.fichub.com/24k_bg/chef-image/262654.640x360.jp2" media="(min-width: 568px)" type="image/jp2"/><source data-srcset="//origin-sire-media.fichub.com/24k_bg/chef-image/262654.600x338.jp2" type="image/jp2"/><!--[if IE 9]><audio><![endif]--><source data-srcset="//origin-sire-media.fichub.com/24k_bg/chef-image/262654.1024x576.jpg" media="(min-width: 1024px)" type="image/jpeg"/><source data-srcset="//origin-sire-media.fichub.com/24k_bg/chef-image/262654.640x360.jpg" media="(min-width: 568px)" type="image/jpeg"/><source data-srcset="//origin-sire-media.fichub.com/24k_bg/chef-image/262654.600x338.jpg" type="image/jpeg"/><!--[if IE 9]></audio><![endif]--><img alt="Питър Курувита" class="lazyload"/></picture></a></div><!-- CardType: History:Show --><div class="large-6 small-12 columns cardBox kitchen "><a class="intrinsic intrinsic169 cards cardSmall" gtm-data='{"fngChannel":"24Kitchen","fngShowId":"108035","fngEpisodeId":null,"fngClipId":null,"fngShowTitle":"\u0412\u043a\u0443\u0441\u044a\u0442 \u043d\u0430 \u0412\u0435\u043b\u0438\u043a\u043e\u0431\u0440\u0438\u0442\u0430\u043d\u0438\u044f \u0441 \u0414\u0436\u0435\u0439\u043c\u0438 \u041e\u043b\u0438\u0432\u044a\u0440","fngEpisodeTitle":null,"fngClipTitle":null,"fngContentType":"Serie","fngSpecialTitle":null,"fngRegion":"BG","fngItemPosition":"automatic","event":"modulos_home"}' gtm-event="click" href="/shows/24kitchen/jamies-great-britain" title="Вкусът на Великобритания с Джейми Оливър"><div class="label"><b class="channelLogo">По телевизията</b><h3>Вкусът на Великобритания с Джейми Оливър</h3><h4></h4></div><picture><!-- Next Gen Images - WEBP --><source data-srcset="//origin-sire-media.fichub.com/24k_bg/serie-main/292435.1024x576.webp" media="(min-width: 1024px)" type="image/webp"/><source data-srcset="//origin-sire-media.fichub.com/24k_bg/serie-main/292435.640x360.webp" media="(min-width: 568px)" type="image/webp"/><source data-srcset="//origin-sire-media.fichub.com/24k_bg/serie-main/292435.600x338.webp" type="image/webp"/><!-- Next Gen Images - JPEG2000 --><source data-srcset="//origin-sire-media.fichub.com/24k_bg/serie-main/292435.1024x576.jp2" media="(min-width: 1024px)" type="image/jp2"/><source data-srcset="//origin-sire-media.fichub.com/24k_bg/serie-main/292435.640x360.jp2" media="(min-width: 568px)" type="image/jp2"/><source data-srcset="//origin-sire-media.fichub.com/24k_bg/serie-main/292435.600x338.jp2" type="image/jp2"/><!--[if IE 9]><audio><![endif]--><source data-srcset="//origin-sire-media.fichub.com/24k_bg/serie-main/292435.1024x576.jpg" media="(min-width: 1024px)" type="image/jpeg"/><source data-srcset="//origin-sire-media.fichub.com/24k_bg/serie-main/292435.640x360.jpg" media="(min-width: 568px)" type="image/jpeg"/><source data-srcset="//origin-sire-media.fichub.com/24k_bg/serie-main/292435.600x338.jpg" type="image/jpeg"/><!--[if IE 9]></audio><![endif]--><img alt="Вкусът на Великобритания с Джейми Оливър" class="lazyload"/></picture></a></div><!-- CardType: History:Recipe --><div class="large-6 small-12 columns cardBox "><div class="badgeLike acilia-like" data-rid="159575" id="acilia-like-159575"><a class="acilia-heart-empty" data-tooltip="Запази рецептата" href="#"><svg class="vector heart-empty"><use xlink:href="/assets/images/icons.svg?1610372992#heart" xmlns:xlink="http://www.w3.org/1999/xlink"></use></svg><span class="acilia-likes">4</span></a><a class="acilia-heart-filled" data-tooltip="Премахване от моите рецепти" href="#" style="display: none;"><svg class="vector heart-filled"><use xlink:href="/assets/images/icons.svg?1610372992#heart" xmlns:xlink="http://www.w3.org/1999/xlink"></use></svg><span class="acilia-likes">4</span></a></div><a class="intrinsic intrinsic169 cards cardSmall" gtm-data='{"fngChannel":null,"fngShowId":null,"fngEpisodeId":null,"fngClipId":null,"fngShowTitle":null,"fngEpisodeTitle":null,"fngClipTitle":null,"fngContentType":null,"fngSpecialTitle":"\u0421\u0430\u043b\u0430\u0442\u0430 \u0441 \u043f\u0435\u0440\u043b\u0435\u043d \u043a\u0443\u0441\u043a\u0443\u0441, \u0440\u0438\u0431\u0430 \u0442\u043e\u043d \u0438 \u0430\u0432\u043e\u043a\u0430\u0434\u043e","fngRegion":"BG","fngItemPosition":"automatic","event":"modulos_home"}' gtm-event="click" href="/recipe/salata-s-perlen-kuskus-riba-ton-i-avokado" title="Салата с перлен кускус, риба тон и авокадо"><div class="playIcon"><svg class="vector icoPlayBig"><use xlink:href="/assets/images/icons.svg?1610372992#Play" xmlns:xlink="http://www.w3.org/1999/xlink"></use></svg></div><div class="label"><b class="channelLogo">Рецепта</b><h3>Салата с перлен кускус, риба тон и авокадо</h3><h4>Джъстин Скофийлд</h4></div><picture><!-- Next Gen Images - WEBP --><source data-srcset="//origin-sire-media.fichub.com/24k_bg/recipe-image/371525.1024x576.webp" media="(min-width: 1024px)" type="image/webp"/><source data-srcset="//origin-sire-media.fichub.com/24k_bg/recipe-image/371525.640x360.webp" media="(min-width: 568px)" type="image/webp"/><source data-srcset="//origin-sire-media.fichub.com/24k_bg/recipe-image/371525.600x338.webp" type="image/webp"/><!-- Next Gen Images - JPEG2000 --><source data-srcset="//origin-sire-media.fichub.com/24k_bg/recipe-image/371525.1024x576.jp2" media="(min-width: 1024px)" type="image/jp2"/><source data-srcset="//origin-sire-media.fichub.com/24k_bg/recipe-image/371525.640x360.jp2" media="(min-width: 568px)" type="image/jp2"/><source data-srcset="//origin-sire-media.fichub.com/24k_bg/recipe-image/371525.600x338.jp2" type="image/jp2"/><!--[if IE 9]><audio><![endif]--><source data-srcset="//origin-sire-media.fichub.com/24k_bg/recipe-image/371525.1024x576.jpg" media="(min-width: 1024px)" type="image/jpeg"/><source data-srcset="//origin-sire-media.fichub.com/24k_bg/recipe-image/371525.640x360.jpg" media="(min-width: 568px)" type="image/jpeg"/><source data-srcset="//origin-sire-media.fichub.com/24k_bg/recipe-image/371525.600x338.jpg" type="image/jpeg"/><!--[if IE 9]></audio><![endif]--><img alt="Салата с перлен кускус, риба тон и авокадо" class="lazyload"/></picture></a></div></section><!-- Block has Ads --><!-- GAM standard --><aside class="row adBlock"><div class="large-12 columns"><div class="ad"><!-- Slot Definition --><div id="standard"><script>
                    googletag.cmd.push(function() { googletag.display('standard'); });
                </script></div><!-- // Slot Definition --><div class="copyImage publi" style="display: none;">Реклама</div></div></div></aside><section class="row"><!-- CardType: History:Show --><div class="large-12 columns cardBox kitchen "><a class="intrinsic intrinsic169 cards cardBig kitchen" gtm-data='{"fngChannel":"24Kitchen","fngShowId":"140992","fngEpisodeId":null,"fngClipId":null,"fngShowTitle":"\u0411\u044a\u0440\u0437\u0438 \u0438 \u043b\u0435\u0441\u043d\u0438 \u0440\u0435\u0446\u0435\u043f\u0442\u0438 \u0441 \u0414\u0436\u0435\u0439\u043c\u0438","fngEpisodeTitle":null,"fngClipTitle":null,"fngContentType":"Serie","fngSpecialTitle":null,"fngRegion":"BG","fngItemPosition":"automatic","event":"modulos_home"}' gtm-event="click" href="/shows/24kitchen/jamies-quick-easy-food" title="Бързи и лесни рецепти с Джейми"><div class="label"><b class="channelLogo">По телевизията</b><h3>Бързи и лесни рецепти с Джейми</h3><h4></h4></div><picture><!-- Next Gen Images - WEBP --><source data-srcset="//origin-sire-media.fichub.com/generic/serie-main/290680.1200x675.webp" media="(min-width: 1024px)" type="image/webp"/><source data-srcset="//origin-sire-media.fichub.com/generic/serie-main/290680.1024x576.webp" media="(min-width: 568px)" type="image/webp"/><source data-srcset="//origin-sire-media.fichub.com/generic/serie-main/290680.640x360.webp" type="image/webp"/><!-- Next Gen Images - JPEG2000 --><source data-srcset="//origin-sire-media.fichub.com/generic/serie-main/290680.1200x675.jp2" media="(min-width: 1024px)" type="image/jp2"/><source data-srcset="//origin-sire-media.fichub.com/generic/serie-main/290680.1024x576.jp2" media="(min-width: 568px)" type="image/jp2"/><source data-srcset="//origin-sire-media.fichub.com/generic/serie-main/290680.640x360.jp2" type="image/jp2"/><!--[if IE 9]><audio><![endif]--><source data-srcset="//origin-sire-media.fichub.com/generic/serie-main/290680.1200x675.jpg" media="(min-width: 1024px)" type="image/jpeg"/><source data-srcset="//origin-sire-media.fichub.com/generic/serie-main/290680.1024x576.jpg" media="(min-width: 568px)" type="image/jpeg"/><source data-srcset="//origin-sire-media.fichub.com/generic/serie-main/290680.640x360.jpg" type="image/jpeg"/><!--[if IE 9]></audio><![endif]--><img alt="Бързи и лесни рецепти с Джейми" class="lazyload"/></picture></a></div><!-- CardType: History:Recipe --><div class="large-6 small-12 columns cardBox "><div class="badgeLike acilia-like" data-rid="159557" id="acilia-like-159557"><a class="acilia-heart-empty" data-tooltip="Запази рецептата" href="#"><svg class="vector heart-empty"><use xlink:href="/assets/images/icons.svg?1610372992#heart" xmlns:xlink="http://www.w3.org/1999/xlink"></use></svg><span class="acilia-likes">8</span></a><a class="acilia-heart-filled" data-tooltip="Премахване от моите рецепти" href="#" style="display: none;"><svg class="vector heart-filled"><use xlink:href="/assets/images/icons.svg?1610372992#heart" xmlns:xlink="http://www.w3.org/1999/xlink"></use></svg><span class="acilia-likes">8</span></a></div><a class="intrinsic intrinsic169 cards cardSmall" gtm-data='{"fngChannel":null,"fngShowId":null,"fngEpisodeId":null,"fngClipId":null,"fngShowTitle":null,"fngEpisodeTitle":null,"fngClipTitle":null,"fngContentType":null,"fngSpecialTitle":"\u0411\u0438\u0440\u0438\u044f\u043d\u0438 \u0441 \u043f\u0438\u043b\u0435 \u0438 \u0440\u043e\u0437\u043e\u0432\u0430 \u0432\u043e\u0434\u0430","fngRegion":"BG","fngItemPosition":"automatic","event":"modulos_home"}' gtm-event="click" href="/recipe/biriani-s-pile-i-rozova-voda" title="Бирияни с пиле и розова вода"><div class="playIcon"><svg class="vector icoPlayBig"><use xlink:href="/assets/images/icons.svg?1610372992#Play" xmlns:xlink="http://www.w3.org/1999/xlink"></use></svg></div><div class="label"><b class="channelLogo">Рецепта</b><h3>Бирияни с пиле и розова вода</h3><h4>Рик Стайн</h4></div><picture><!-- Next Gen Images - WEBP --><source data-srcset="//origin-sire-media.fichub.com/24k_bg/recipe-image/369901.1024x576.webp" media="(min-width: 1024px)" type="image/webp"/><source data-srcset="//origin-sire-media.fichub.com/24k_bg/recipe-image/369901.640x360.webp" media="(min-width: 568px)" type="image/webp"/><source data-srcset="//origin-sire-media.fichub.com/24k_bg/recipe-image/369901.600x338.webp" type="image/webp"/><!-- Next Gen Images - JPEG2000 --><source data-srcset="//origin-sire-media.fichub.com/24k_bg/recipe-image/369901.1024x576.jp2" media="(min-width: 1024px)" type="image/jp2"/><source data-srcset="//origin-sire-media.fichub.com/24k_bg/recipe-image/369901.640x360.jp2" media="(min-width: 568px)" type="image/jp2"/><source data-srcset="//origin-sire-media.fichub.com/24k_bg/recipe-image/369901.600x338.jp2" type="image/jp2"/><!--[if IE 9]><audio><![endif]--><source data-srcset="//origin-sire-media.fichub.com/24k_bg/recipe-image/369901.1024x576.jpg" media="(min-width: 1024px)" type="image/jpeg"/><source data-srcset="//origin-sire-media.fichub.com/24k_bg/recipe-image/369901.640x360.jpg" media="(min-width: 568px)" type="image/jpeg"/><source data-srcset="//origin-sire-media.fichub.com/24k_bg/recipe-image/369901.600x338.jpg" type="image/jpeg"/><!--[if IE 9]></audio><![endif]--><img alt="Бирияни с пиле и розова вода" class="lazyload"/></picture></a></div><!-- CardType: History:Chef --><div class="large-6 small-12 columns cardBox "><a class="intrinsic intrinsic169 cards cardSmall" gtm-data='{"fngChannel":null,"fngShowId":null,"fngEpisodeId":null,"fngClipId":null,"fngShowTitle":null,"fngEpisodeTitle":null,"fngClipTitle":null,"fngContentType":null,"fngSpecialTitle":"\u0414\u0436\u0435\u0439\u043c\u0441 \u041c\u0430\u0440\u0442\u0438\u043d","fngRegion":"BG","fngItemPosition":"automatic","event":"modulos_home"}' gtm-event="click" href="/chefs/dzheims-martin" title="Джеймс Мартин"><div class="label"><b class="channelLogo">Страница на готвача</b><h3>Джеймс Мартин</h3><h4></h4></div><picture><!-- Next Gen Images - WEBP --><source data-srcset="//origin-sire-media.fichub.com/24k_bg/chef-image/297402.1024x576.webp" media="(min-width: 1024px)" type="image/webp"/><source data-srcset="//origin-sire-media.fichub.com/24k_bg/chef-image/297402.640x360.webp" media="(min-width: 568px)" type="image/webp"/><source data-srcset="//origin-sire-media.fichub.com/24k_bg/chef-image/297402.600x338.webp" type="image/webp"/><!-- Next Gen Images - JPEG2000 --><source data-srcset="//origin-sire-media.fichub.com/24k_bg/chef-image/297402.1024x576.jp2" media="(min-width: 1024px)" type="image/jp2"/><source data-srcset="//origin-sire-media.fichub.com/24k_bg/chef-image/297402.640x360.jp2" media="(min-width: 568px)" type="image/jp2"/><source data-srcset="//origin-sire-media.fichub.com/24k_bg/chef-image/297402.600x338.jp2" type="image/jp2"/><!--[if IE 9]><audio><![endif]--><source data-srcset="//origin-sire-media.fichub.com/24k_bg/chef-image/297402.1024x576.jpg" media="(min-width: 1024px)" type="image/jpeg"/><source data-srcset="//origin-sire-media.fichub.com/24k_bg/chef-image/297402.640x360.jpg" media="(min-width: 568px)" type="image/jpeg"/><source data-srcset="//origin-sire-media.fichub.com/24k_bg/chef-image/297402.600x338.jpg" type="image/jpeg"/><!--[if IE 9]></audio><![endif]--><img alt="Джеймс Мартин" class="lazyload"/></picture></a></div><!-- CardType: History:Show --><div class="large-6 small-12 columns cardBox kitchen "><a class="intrinsic intrinsic169 cards cardSmall" gtm-data='{"fngChannel":"24Kitchen","fngShowId":"189193","fngEpisodeId":null,"fngClipId":null,"fngShowTitle":"\u041b\u0435\u0441\u043d\u0438 \u0440\u0435\u0446\u0435\u043f\u0442\u0438 \u0437\u0430 \u0432\u0441\u0435\u043a\u0438 \u0434\u0435\u043d \u0441 \u0414\u0436\u0435\u0439\u043c\u0438","fngEpisodeTitle":null,"fngClipTitle":null,"fngContentType":"Serie","fngSpecialTitle":null,"fngRegion":"BG","fngItemPosition":"automatic","event":"modulos_home"}' gtm-event="click" href="/shows/24kitchen/jamies-easy-meals-for-every-day" title="Лесни рецепти за всеки ден с Джейми"><div class="label"><b class="channelLogo">По телевизията</b><h3>Лесни рецепти за всеки ден с Джейми</h3><h4></h4></div><picture><!-- Next Gen Images - WEBP --><source data-srcset="//origin-sire-media.fichub.com/24k_bg/serie-main/358144.1024x576.webp" media="(min-width: 1024px)" type="image/webp"/><source data-srcset="//origin-sire-media.fichub.com/24k_bg/serie-main/358144.640x360.webp" media="(min-width: 568px)" type="image/webp"/><source data-srcset="//origin-sire-media.fichub.com/24k_bg/serie-main/358144.600x338.webp" type="image/webp"/><!-- Next Gen Images - JPEG2000 --><source data-srcset="//origin-sire-media.fichub.com/24k_bg/serie-main/358144.1024x576.jp2" media="(min-width: 1024px)" type="image/jp2"/><source data-srcset="//origin-sire-media.fichub.com/24k_bg/serie-main/358144.640x360.jp2" media="(min-width: 568px)" type="image/jp2"/><source data-srcset="//origin-sire-media.fichub.com/24k_bg/serie-main/358144.600x338.jp2" type="image/jp2"/><!--[if IE 9]><audio><![endif]--><source data-srcset="//origin-sire-media.fichub.com/24k_bg/serie-main/358144.1024x576.jpg" media="(min-width: 1024px)" type="image/jpeg"/><source data-srcset="//origin-sire-media.fichub.com/24k_bg/serie-main/358144.640x360.jpg" media="(min-width: 568px)" type="image/jpeg"/><source data-srcset="//origin-sire-media.fichub.com/24k_bg/serie-main/358144.600x338.jpg" type="image/jpeg"/><!--[if IE 9]></audio><![endif]--><img alt="Лесни рецепти за всеки ден с Джейми" class="lazyload"/></picture></a></div><!-- CardType: History:Recipe --><div class="large-6 small-12 columns cardBox "><div class="badgeLike acilia-like" data-rid="159556" id="acilia-like-159556"><a class="acilia-heart-empty" data-tooltip="Запази рецептата" href="#"><svg class="vector heart-empty"><use xlink:href="/assets/images/icons.svg?1610372992#heart" xmlns:xlink="http://www.w3.org/1999/xlink"></use></svg><span class="acilia-likes">3</span></a><a class="acilia-heart-filled" data-tooltip="Премахване от моите рецепти" href="#" style="display: none;"><svg class="vector heart-filled"><use xlink:href="/assets/images/icons.svg?1610372992#heart" xmlns:xlink="http://www.w3.org/1999/xlink"></use></svg><span class="acilia-likes">3</span></a></div><a class="intrinsic intrinsic169 cards cardSmall" gtm-data='{"fngChannel":null,"fngShowId":null,"fngEpisodeId":null,"fngClipId":null,"fngShowTitle":null,"fngEpisodeTitle":null,"fngClipTitle":null,"fngContentType":null,"fngSpecialTitle":"\u041f\u044a\u0440\u0436\u0435\u043d\u0438 \u0430\u0433\u043d\u0435\u0448\u043a\u0438 \u043a\u043e\u0442\u043b\u0435\u0442\u0438","fngRegion":"BG","fngItemPosition":"automatic","event":"modulos_home"}' gtm-event="click" href="/recipe/parzheni-agneshki-kotleti" title="Пържени агнешки котлети"><div class="playIcon"><svg class="vector icoPlayBig"><use xlink:href="/assets/images/icons.svg?1610372992#Play" xmlns:xlink="http://www.w3.org/1999/xlink"></use></svg></div><div class="label"><b class="channelLogo">Рецепта</b><h3>Пържени агнешки котлети</h3><h4>Рик Стайн</h4></div><picture><!-- Next Gen Images - WEBP --><source data-srcset="//origin-sire-media.fichub.com/24k_bg/recipe-image/369898.1024x576.webp" media="(min-width: 1024px)" type="image/webp"/><source data-srcset="//origin-sire-media.fichub.com/24k_bg/recipe-image/369898.640x360.webp" media="(min-width: 568px)" type="image/webp"/><source data-srcset="//origin-sire-media.fichub.com/24k_bg/recipe-image/369898.600x338.webp" type="image/webp"/><!-- Next Gen Images - JPEG2000 --><source data-srcset="//origin-sire-media.fichub.com/24k_bg/recipe-image/369898.1024x576.jp2" media="(min-width: 1024px)" type="image/jp2"/><source data-srcset="//origin-sire-media.fichub.com/24k_bg/recipe-image/369898.640x360.jp2" media="(min-width: 568px)" type="image/jp2"/><source data-srcset="//origin-sire-media.fichub.com/24k_bg/recipe-image/369898.600x338.jp2" type="image/jp2"/><!--[if IE 9]><audio><![endif]--><source data-srcset="//origin-sire-media.fichub.com/24k_bg/recipe-image/369898.1024x576.jpg" media="(min-width: 1024px)" type="image/jpeg"/><source data-srcset="//origin-sire-media.fichub.com/24k_bg/recipe-image/369898.640x360.jpg" media="(min-width: 568px)" type="image/jpeg"/><source data-srcset="//origin-sire-media.fichub.com/24k_bg/recipe-image/369898.600x338.jpg" type="image/jpeg"/><!--[if IE 9]></audio><![endif]--><img alt="Пържени агнешки котлети" class="lazyload"/></picture></a></div></section></div><footer id="mainFooter"><div class="row"><nav class="large-12 small-6 columns" id="MenuFooter"><ul><li><a href="/">НАЧАЛО</a></li><li><a href="/tvprogram/24kitchen">ПРОГРАМАТА</a></li><li><a href="/shows">ПРЕДАВАНИЯ</a></li><li><a href="/special/ways-to-watch">Излъчване на 24KITCHEN</a></li></ul></nav><ul class="large-12 small-6 columns" id="SocialFooter"><li><h6>Следвайте ни</h6></li><li class="smChannel"><a class="acilia-social-fb-link" data-fb-page-id="" href="https://www.facebook.com/24kitchenbg" target="_blank" title="Facebook"><svg class="vector icoFacebookF"><use xlink:href="/assets/images/icons.svg?1610372992#fb" xmlns:xlink="http://www.w3.org/1999/xlink"></use></svg></a></li><li class="smChannel"><a href="https://www.youtube.com/channel/UComwZnGoyazXP6S1fO6_53Q" target="_blank" title="Youtube"><svg class="vector icoYoutubeF"><use xlink:href="/assets/images/icons.svg?1610372992#yt" xmlns:xlink="http://www.w3.org/1999/xlink"></use></svg></a></li><li class="smChannel"><a href="https://instagram.com/24kitchenbg" target="_blank" title="Instagram"><svg class="vector icoInstagramF"><use xlink:href="/assets/images/icons.svg?1610372992#insta" xmlns:xlink="http://www.w3.org/1999/xlink"></use></svg></a></li><!-- facebook --><li class="socialCountry" site="facebook"><ul class="dropDownList"><li><a class="acilia-social-fb-link" data-fb-page-id="" href="https://www.facebook.com/24kitchenbg" target="_blank" title="Facebook"><svg class="vector icoFacebookF"><use xlink:href="/assets/images/icons.svg?1610372992#fbcolor" xmlns:xlink="http://www.w3.org/1999/xlink"></use></svg><span>24kitchen</span></a></li></ul></li><!-- twitter --><li class="socialCountry" site="twitter"><ul class="dropDownList"></ul></li><!-- Youtube --><li class="socialCountry" site="youtube"><ul class="dropDownList"><li><a href="https://www.youtube.com/channel/UComwZnGoyazXP6S1fO6_53Q" target="_blank" title="Youtube"><svg class="vector icoYoutubeF"><use xlink:href="/assets/images/icons.svg?1610372992#ytColor" xmlns:xlink="http://www.w3.org/1999/xlink"></use></svg><span>24kitchenbg</span></a></li></ul></li><!-- Instagram --><li class="socialCountry" site="instagram"><ul class="dropDownList"><li><a href="https://instagram.com/24kitchenbg" target="_blank" title="Instagram"><svg class="vector icoInstagramF"><use xlink:href="/assets/images/icons.svg?1610372992#instacolor" xmlns:xlink="http://www.w3.org/1999/xlink"></use></svg><span>24kitchenbg</span></a></li></ul></li><!-- VK --><li class="socialCountry" site="vk"><ul class="dropDownList"></ul></li><!-- Pinterest --><li class="socialCountry" site="pinterest"><ul class="dropDownList"></ul></li></ul><ul class="small-12 columns" id="logosFooter"><li><h6>Къде да гледате</h6></li><li><a href="/special/ways-to-watch" title="24Kitchen"><svg class="vector smallSize kitchen"><use xlink:href="/assets/images/logos.svg?1610372992#kitchen" xmlns:xlink="http://www.w3.org/1999/xlink"></use></svg></a></li></ul><aside class="small-12 columns" id="disclamer"><span class="clearfix">© 2020 THE WALT DISNEY COMPANY BULGARIA EOOD, "ДЪ УОЛТ ДИСНИ КЪМПАНИ БЪЛГАРИЯ" ЕООД. Този сайт и неговото съдържание не могат да бъдат използвани без изричното съгласие на THE WALT DISNEY COMPANY BULGARIA EOOD, "ДЪ УОЛТ ДИСНИ КЪМПАНИ БЪЛГАРИЯ" ЕООД</span><span class="clearfix">Всички права запазени.
                    <a href="/info/uslovia-za-polzvane">Правила и условия</a>                     - <a href="/info/politika-za-zashtita-na-lichnite-danni">Политика за защита на личните данни</a>                     - <a href="/info/politika-otnosno-izpolzvanite-kukita-biskvitki">Политика относно използваните кукита</a></span></aside></div></footer></div></div></div></div></div><script src="//sirefox-assets.fichub.com/compiled/foundation.js?1610372992"></script><script>
    $(document).foundation();
</script><script>
    var textLoadMore = 'Зарежда още...';
    var logoutUser = 'header.logout';
    var profileUser = 'Здравейте!';
    var pendingValidationSuccess = 'Изпратен е нов имейл за потвърждение ';
    var profileSuccess = 'Предпочитанията Ви бяха променени успешно.';
    var forgotPasswordSuccess = 'Изпратено Ви е съобщение за промяна на паролата.';
    var resetPasswordSuccess = 'Паролата Ви беше променена успешно. Вече можете да използвате новата си парола.';
</script><script src="//sirefox-assets.fichub.com/compiled/acilia-user.js?1610372992"></script><script>
// User Related functionality
User.dataUrl = '/user/_user_data';
User.likeUrl = '/user/_user_like';
User.loginUrl = '/user/login';
User.loginFacebookUrl = '/user/facebook';
User.loginGoogleUrl = '/user/google';
User.loginMessage = 'Влезте в профила си, за да можете да харесвате рецепти';
User.logoutUrl = '/user/logout';
User.registerUrl = '/user/_user_register';
User.consentUrl = '/user/_user_consent';
User.logoutUrl = '/user/logout';
User.profileUrl = '/user/profile';
User.forgotPasswordUrl = '/user/_user_forgot_password';
User.resetPasswordUrl = '/user/_user_reset_password';
User.resendVerificationEmailUrl = '/user/_user_resend_verification_email';
User.loadData();
</script><script src="//sirefox-assets.fichub.com/compiled/vendors-main.js?1610372992"></script><script src="//sirefox-assets.fichub.com/compiled/acilia-main.js?1610372992"></script><!-- Google Tag Manager --><script>
(function(w,d,s,l,i){w[l]=w[l]||[];w[l].push({'gtm.start':
new Date().getTime(),event:'gtm.js'});var f=d.getElementsByTagName(s)[0],
j=d.createElement(s),dl=l!='dataLayer'?'&l='+l:'';j.async=true;j.src=
'https://www.googletagmanager.com/gtm.js?id='+i+dl;f.parentNode.insertBefore(j,f);
})(window,document,'script','dataLayer', 'GTM-KX77WHQ');
GTM.init();
</script><!-- End Google Tag Manager --><!-- Google Tag Manager (noscript) --><noscript>&lt;iframe src="https://www.googletagmanager.com/ns.html?id=GTM-KX77WHQ" height="0" width="0" style="display:none;visibility:hidden"&gt;&lt;/iframe&gt;</noscript><!-- End Google Tag Manager (noscript) --><script>
	GTM.send({ 'fngRegion': 'BG' });
</script><script>
$('.smChannel a').on('click',function(){
	GTM.send({ 'event':'Outgoing links', 'fngCustomInfo': $(this).attr('href')});
});
$('.socialCountry a').on('click',function(){
    GTM.send({ 'event':'Outgoing links', 'fngCustomInfo': $(this).attr('href')});
});
</script><!--  Infinite Scroll  --><script>
Scroll.index = 2;
Scroll.firstIndex = 3;
Scroll.max = 10;
Scroll.enable = true;
Scroll.loading = '//sirefox-assets.fichub.com/assets/24kitchen/images/loader.gif?1610372992';
Scroll.resource = '/_cards';
Scroll.callback.push(function() {
	GTM.send({'event':'virtual_pageview'});
	if (typeof User !== 'undefined') {
		User.paintLikes();
	}
	if (Scroll.index == Scroll.firstIndex) {
		GTM.send({
			'event':'first_loading',
			'pageTitle': document.title,
			'pageCategory': 'Scroll',
		});
    }
});
$(window).scroll(Scroll.scrolling);
</script><!-- tune in seek --><script>
Home.seekTuneIn();
</script><!-- Footer generic scripts --><!-- OneTrust Consent Receipt End --><script>
jQuery("#disclamer").find("span:last").append(' - <button id="ot-sdk-btn" class="ot-sdk-show-settings">Настройки на бисквитките</button>');
</script></body></html>
