<!DOCTYPE html>
<html dir="ltr" lang="ca" prefix="content: http://purl.org/rss/1.0/modules/content/  dc: http://purl.org/dc/terms/  foaf: http://xmlns.com/foaf/0.1/  og: http://ogp.me/ns#  rdfs: http://www.w3.org/2000/01/rdf-schema#  schema: http://schema.org/  sioc: http://rdfs.org/sioc/ns#  sioct: http://rdfs.org/sioc/types#  skos: http://www.w3.org/2004/02/skos/core#  xsd: http://www.w3.org/2001/XMLSchema# ">
<head>
<meta charset="utf-8"/>
<script src="https://w9.barcelona.cat/assets/core/javascripts/core.js"></script>
<link href="https://w9.barcelona.cat/assets/core/stylesheets/core.css" media="all" rel="stylesheet"/>
<meta module="bcn_barra" name="bcninfo" type="module" version="8.x-1.1"/>
<link href="http://www.bicing.barcelona/" rel="shortlink"/>
<meta content="Bicing" property="og:site_name"/>
<link href="http://www.bicing.barcelona/" rel="canonical"/>
<meta content="https://www.bicing.barcelona/sites/default/files/styles/1280_644/public/2018-10/slide-6_0.jpg" property="og:image"/>
<meta content="Drupal 8 (https://www.drupal.org)" name="Generator"/>
<meta content="width" name="MobileOptimized"/>
<meta content="true" name="HandheldFriendly"/>
<meta content="width=device-width, initial-scale=1.0" name="viewport"/>
<link href="/sites/default/files/bicing2-ico.jpg" rel="shortcut icon" type="image/jpeg"/>
<link href="http://www.bicing.barcelona/" hreflang="ca" rel="alternate"/>
<link href="http://www.bicing.barcelona/es" hreflang="es" rel="alternate"/>
<link href="http://www.bicing.barcelona/" rel="revision"/>
<script>window.a2a_config=window.a2a_config||{};a2a_config.callbacks=[];a2a_config.overlays=[];a2a_config.templates={};var a2a_config = a2a_config || {};
a2a_config.no_3p = 1;</script>
<title>Mou-te de manera sostenible per Barcelona! | Bicing</title>
<meta content="unsafe-url" name="referer"/>
<link crossorigin="anonymous" href="https://use.fontawesome.com/releases/v5.4.1/css/all.css" integrity="sha384-5sAR7xN1Nv6T6+dT2mhtzEpVJvfS3NScPQTrOxhwjIuvcA67KV2R5Jz6kr4abQsz" rel="stylesheet"/>
<style>
		/* latin-ext */
		@font-face {
		  font-family: 'Raleway';
		  font-style: normal;
		  font-weight: 300;
		  src: local('Raleway Light'), local('Raleway-Light'), url(https://fonts.gstatic.com/s/raleway/v12/1Ptrg8zYS_SKggPNwIYqWqhPANqczVsq4A.woff2) format('woff2');
		  unicode-range: U+0100-024F, U+0259, U+1E00-1EFF, U+2020, U+20A0-20AB, U+20AD-20CF, U+2113, U+2C60-2C7F, U+A720-A7FF;
		}
		/* latin */
		@font-face {
		  font-family: 'Raleway';
		  font-style: normal;
		  font-weight: 300;
		  src: local('Raleway Light'), local('Raleway-Light'), url(https://fonts.gstatic.com/s/raleway/v12/1Ptrg8zYS_SKggPNwIYqWqZPANqczVs.woff2) format('woff2');
		  unicode-range: U+0000-00FF, U+0131, U+0152-0153, U+02BB-02BC, U+02C6, U+02DA, U+02DC, U+2000-206F, U+2074, U+20AC, U+2122, U+2191, U+2193, U+2212, U+2215, U+FEFF, U+FFFD;
		}
		/* latin-ext */
		@font-face {
		  font-family: 'Raleway'!important;
		  font-style: normal!important;
		  font-weight: 400!important;
		  src: local('Raleway'), local('Raleway-Regular'), url(https://fonts.gstatic.com/s/raleway/v12/1Ptug8zYS_SKggPNyCMIT4ttDfCmxA.woff2) format('woff2')!important;
		  unicode-range: U+0100-024F, U+0259, U+1E00-1EFF, U+2020, U+20A0-20AB, U+20AD-20CF, U+2113, U+2C60-2C7F, U+A720-A7FF!important;
		}
		/* latin */
		@font-face {
		  font-family: 'Raleway'!important;
		  font-style: normal!important;
		  font-weight: 400!important;
		  src: local('Raleway'), local('Raleway-Regular'), url(https://fonts.gstatic.com/s/raleway/v12/1Ptug8zYS_SKggPNyC0IT4ttDfA.woff2) format('woff2')!important;
		  unicode-range: U+0000-00FF, U+0131, U+0152-0153, U+02BB-02BC, U+02C6, U+02DA, U+02DC, U+2000-206F, U+2074, U+20AC, U+2122, U+2191, U+2193, U+2212, U+2215, U+FEFF, U+FFFD!important;
		}
		/* latin-ext */
		@font-face {
		  font-family: 'Raleway';
		  font-style: normal;
		  font-weight: 500;
		  src: local('Raleway Medium'), local('Raleway-Medium'), url(https://fonts.gstatic.com/s/raleway/v12/1Ptrg8zYS_SKggPNwN4rWqhPANqczVsq4A.woff2) format('woff2');
		  unicode-range: U+0100-024F, U+0259, U+1E00-1EFF, U+2020, U+20A0-20AB, U+20AD-20CF, U+2113, U+2C60-2C7F, U+A720-A7FF;
		}
		/* latin */
		@font-face {
		  font-family: 'Raleway';
		  font-style: normal;
		  font-weight: 500;
		  src: local('Raleway Medium'), local('Raleway-Medium'), url(https://fonts.gstatic.com/s/raleway/v12/1Ptrg8zYS_SKggPNwN4rWqZPANqczVs.woff2) format('woff2');
		  unicode-range: U+0000-00FF, U+0131, U+0152-0153, U+02BB-02BC, U+02C6, U+02DA, U+02DC, U+2000-206F, U+2074, U+20AC, U+2122, U+2191, U+2193, U+2212, U+2215, U+FEFF, U+FFFD;
		}
		/* latin-ext */
		@font-face {
		  font-family: 'Raleway';
		  font-style: normal;
		  font-weight: 700;
		  src: local('Raleway Bold'), local('Raleway-Bold'), url(https://fonts.gstatic.com/s/raleway/v12/1Ptrg8zYS_SKggPNwJYtWqhPANqczVsq4A.woff2) format('woff2');
		  unicode-range: U+0100-024F, U+0259, U+1E00-1EFF, U+2020, U+20A0-20AB, U+20AD-20CF, U+2113, U+2C60-2C7F, U+A720-A7FF;
		}
		/* latin */
		@font-face {
		  font-family: 'Raleway';
		  font-style: normal;
		  font-weight: 700;
		  src: local('Raleway Bold'), local('Raleway-Bold'), url(https://fonts.gstatic.com/s/raleway/v12/1Ptrg8zYS_SKggPNwJYtWqZPANqczVs.woff2) format('woff2');
		  unicode-range: U+0000-00FF, U+0131, U+0152-0153, U+02BB-02BC, U+02C6, U+02DA, U+02DC, U+2000-206F, U+2074, U+20AC, U+2122, U+2191, U+2193, U+2212, U+2215, U+FEFF, U+FFFD;
		}
			
	</style>
<style>
		.centrado-global-custom {
			position: absolute;
		    top: 50%!important;
		    left: 50%;
		    right:inherit!important;
		    transform: translateY(-50%) translateX(-50%);
		    line-height: 1;
		}		
		.vista-especiada .card-custom .avantatge-pc {
			width:80px!important;
		}
	</style>
<link href="/core/modules/system/css/components/ajax-progress.module.css?qhrozu" media="all" rel="stylesheet"/>
<link href="/core/modules/system/css/components/align.module.css?qhrozu" media="all" rel="stylesheet"/>
<link href="/core/modules/system/css/components/autocomplete-loading.module.css?qhrozu" media="all" rel="stylesheet"/>
<link href="/core/modules/system/css/components/fieldgroup.module.css?qhrozu" media="all" rel="stylesheet"/>
<link href="/core/modules/system/css/components/container-inline.module.css?qhrozu" media="all" rel="stylesheet"/>
<link href="/core/modules/system/css/components/clearfix.module.css?qhrozu" media="all" rel="stylesheet"/>
<link href="/core/modules/system/css/components/details.module.css?qhrozu" media="all" rel="stylesheet"/>
<link href="/core/modules/system/css/components/hidden.module.css?qhrozu" media="all" rel="stylesheet"/>
<link href="/core/modules/system/css/components/item-list.module.css?qhrozu" media="all" rel="stylesheet"/>
<link href="/core/modules/system/css/components/js.module.css?qhrozu" media="all" rel="stylesheet"/>
<link href="/core/modules/system/css/components/nowrap.module.css?qhrozu" media="all" rel="stylesheet"/>
<link href="/core/modules/system/css/components/position-container.module.css?qhrozu" media="all" rel="stylesheet"/>
<link href="/core/modules/system/css/components/progress.module.css?qhrozu" media="all" rel="stylesheet"/>
<link href="/core/modules/system/css/components/reset-appearance.module.css?qhrozu" media="all" rel="stylesheet"/>
<link href="/core/modules/system/css/components/resize.module.css?qhrozu" media="all" rel="stylesheet"/>
<link href="/core/modules/system/css/components/sticky-header.module.css?qhrozu" media="all" rel="stylesheet"/>
<link href="/core/modules/system/css/components/system-status-counter.css?qhrozu" media="all" rel="stylesheet"/>
<link href="/core/modules/system/css/components/system-status-report-counters.css?qhrozu" media="all" rel="stylesheet"/>
<link href="/core/modules/system/css/components/system-status-report-general-info.css?qhrozu" media="all" rel="stylesheet"/>
<link href="/core/modules/system/css/components/tabledrag.module.css?qhrozu" media="all" rel="stylesheet"/>
<link href="/core/modules/system/css/components/tablesort.module.css?qhrozu" media="all" rel="stylesheet"/>
<link href="/core/modules/system/css/components/tree-child.module.css?qhrozu" media="all" rel="stylesheet"/>
<link href="/sites/default/files/css/menu_icons.css?qhrozu" media="all" rel="stylesheet"/>
<link href="/core/modules/views/css/views.module.css?qhrozu" media="all" rel="stylesheet"/>
<link href="/modules/contrib/addtoany/css/addtoany.css?qhrozu" media="all" rel="stylesheet"/>
<link href="/modules/contrib/paragraphs/css/paragraphs.unpublished.css?qhrozu" media="all" rel="stylesheet"/>
<link href="/themes/bicing/assets/libs/bootstrap.min.css?qhrozu" media="all" rel="stylesheet"/>
<link href="/themes/bicing/assets/style.css?qhrozu" media="all" rel="stylesheet"/>
<link href="/themes/bicing/assets/responsive.css?qhrozu" media="all" rel="stylesheet"/>
<link href="/themes/bicing/assets/detalls.css?qhrozu" media="all" rel="stylesheet"/>
<link href="/themes/bicing/assets/style2.css?qhrozu" media="all" rel="stylesheet"/>
<link href="/themes/bicing/libs/slick/slick.css?qhrozu" media="all" rel="stylesheet"/>
<link href="/themes/bicing/libs/slick/slick-theme.css?qhrozu" media="all" rel="stylesheet"/>
<link href="/themes/bicing/assets/libs/bsm_chatbox/widgetbot/styles/bots.1.12.2.css?qhrozu" media="all" rel="stylesheet"/>
<link href="/themes/bicing/assets/libs/bsm_chatbox/widgetbot/styles/frame.1.12.2.css?qhrozu" media="all" rel="stylesheet"/>
<link href="/themes/bicing/assets/libs/bsm_chatbox/widgetbot/styles/style.css?qhrozu" media="all" rel="stylesheet"/>
<!--[if lte IE 8]>
<script src="/core/assets/vendor/html5shiv/html5shiv.min.js?v=3.7.3"></script>
<![endif]-->
<!-- Global site tag (gtag.js) - Google Analytics -->
<script async="" src="https://www.googletagmanager.com/gtag/js?id=UA-131277274-1"></script>
<script>

  	window.dataLayer = window.dataLayer || [];

	 function gtag(){dataLayer.push(arguments);}

 	 gtag('js', new Date());

 	 gtag('config', 'UA-131277274-1');

   </script>
<!-- Global site tag (gtag.js) - Google Analytics -->
<script async="" src="https://www.googletagmanager.com/gtag/js?id=UA-37686714-24"></script>
<script>

        window.dataLayer = window.dataLayer || [];

         function gtag(){dataLayer.push(arguments);}

         gtag('js', new Date());

         gtag('config', 'UA-37686714-24');

   </script>
<script>
       !function(f,b,e,v,n,t,s)
       {if(f.fbq)return;n=f.fbq=function(){n.callMethod?
       n.callMethod.apply(n,arguments):n.queue.push(arguments)};
       if(!f._fbq)f._fbq=n;n.push=n;n.loaded=!0;n.version='2.0';                                                                                                                                                                                                                                                          
       n.queue=[];t=b.createElement(e);t.async=!0;
       t.src=v;s=b.getElementsByTagName(e)[0];
       s.parentNode.insertBefore(t,s)}(window, document,'script',
       'https://connect.facebook.net/en_US/fbevents.js');
       fbq('init', '299179896940727');
       fbq('track', 'PageView');
     </script>
<noscript>
<img height="1" src="https://www.facebook.com/tr?id=299179896940727&amp;ev=PageView" width="1"/>
</noscript>
</head>
<body>
<a class="visually-hidden focusable" href="#main-content">
      Vés al contingut
    </a>
<div class="dialog-off-canvas-main-canvas" data-off-canvas-main-canvas="">
<div class="layout-container page_home">
<div class="mb30 container container-custom container-custom-menu-main mt30">
<div class="row">
<div class="col-xs-12 lh1">
<div class="container-menu">
<a href="http://www.bicing.barcelona/"><img alt="Bicing" class="logo-bicing" src="/themes/bicing/img/logo-bicingv2.svg" width="113"/></a>
<div class="buttons-extendend float-right dim-button-4">
<div class="social-feeds-header ">
<a href="https://es-es.facebook.com/bicingbcn" target="_blank"><span><i class="fab fa-facebook-f"></i></span></a>
<a href="https://www.instagram.com/bicing/?hl=es" target="_blank"><span><i class="fab fa-instagram"></i></span></a>
<a href="https://twitter.com/bicing" target="_blank"><span><i class="fab fa-twitter"></i></span></a>
</div>
<a class="btn btn-reverse mr20" href="/vinculacio">Inicia sessió</a>
<a class="btn" href="/alta-smou">Dona't d'alta</a>
<div class="responsive-button">
<span></span>
</div>
</div>
<div class="menu-main float-right mr50">
<div>
<nav aria-labelledby="block-bicing-main-menu-menu" id="block-bicing-main-menu" role="navigation">
<h2 class="visually-hidden" id="block-bicing-main-menu-menu">Navegació principal</h2>
<ul>
<li>
<a data-drupal-link-system-path="node/98" href="/mapa-de-disponibilitat">Mapa de disponibilitat</a>
</li>
<li>
<a data-drupal-link-system-path="node/6" href="/noticies">Notícies</a>
</li>
<li>
<a data-drupal-link-system-path="node/18" href="/tarifes">Tarifes</a>
</li>
<li>
<a data-drupal-link-system-path="node/4" href="/avantatges">Avantatges</a>
</li>
<li>
<a data-drupal-link-system-path="node/11" href="/app-bicing">Apps Bicing</a>
</li>
<li>
<a data-drupal-link-system-path="node/10" href="/faqs-i-normes">FAQs i Normes</a>
</li>
<li>
<a data-drupal-link-system-path="node/88" href="/contacte">Contacte</a>
</li>
</ul>
</nav>
</div>
</div>
<div class="attached-bottom-menu">
<span class="attached-bottom-menu-content-button"><a class="btn btn-reverse mr20" href="/vinculacio">Inicia sessió</a></span>
<span class="attached-bottom-menu-content-button"><a class="btn" href="/alta-smou">Dona't d'alta</a></span>
<div class="social-feeds-header">
<a href="https://es-es.facebook.com/bicingbcn" target="_blank"><span><i class="fab fa-facebook-f"></i></span></a>
<a href="https://www.instagram.com/bicing/?hl=es" target="_blank"><span><i class="fab fa-instagram"></i></span></a>
<a href="https://twitter.com/bicing" target="_blank"><span><i class="fab fa-twitter"></i></span></a>
</div>
</div>
</div>
</div>
</div>
</div>
<div class="breadcrumb">
<div class="container">
</div>
</div>
<div class="layout-content container">
<div>
<div class="hidden" data-drupal-messages-fallback=""></div>
</div>
</div>
<main role="main">
<a id="main-content" tabindex="-1"></a>
<div class="layout-content ">
<div>
<div id="block-bicing-content">
<article about="/" data-history-node-id="1" role="article">
<div class="links-control}">
<div class="img-inside">
<div class="slider-home-content inside-slider-images-arrows">
<div class="slider-home">
<div>
<div class="pos-rel">
<div class="capa-black"></div>
<div class="div-imagen-home" style="background-image:url(/sites/default/files/styles/1280_644/public/2020-07/Banner%20home%20bicing-Bicing-2001x745_1.jpg?h=14ba4f9b&amp;itok=RHSN3pJ0)"></div>
<div class="home-slider-content-text">
<div class="container dim-button-3 ">
<div class="row">
<div class="col-lg-9 col-lg-offset-1 col-md-8 col-xs-12 btn-big-inside centrado-991">
<div class="arreglar-slider-home">
<p class="fs58 color-white lh1 ">Mou-te de manera sostenible per Barcelona!</p>
<div class="color-white mb60 fs34 ">
<div class="hidden-xs hidden-sm hidden-md">Utilitza el Bicing per menys de 5€ al mes 
</div>
</div>
<a class="btn btn-white-custom" href="/alta-smou#">
											Dóna't d’alta
										</a>
</div>
</div>
</div>
</div>
</div>
</div>
</div>
</div>
<div class="slider-home-thumnails-container-container hidden-xs">
<a class="mostrar-slider-home" href="#"><span>+</span></a>
<div class="slider-home-thumnails-container">
<div class="slider-home-thumnails">
<div>
<div>
<img alt="" src="/sites/default/files/styles/1280_644/public/2020-07/Banner%20home%20bicing-Bicing-2001x745_1.jpg?h=14ba4f9b&amp;itok=RHSN3pJ0"/>
<span class="text-thumbnail-slider">1</span>
</div>
</div>
</div>
</div>
</div>
</div>
</div>
<div class="background-red mt-10-neg zona-roja" style="margin-top: -15px;position: relative;z-index: 10;">
<div class="container">
<div class="row mt70 mb70 pos-rel centrado-991">
<div class="col-md-9 col-xs-12 col-xs-offset-0 col-md-offset-0">
<div class="fs41 color-white">
<div>El 30 de Novembre l’app del Bicing desapareix. T’expliquem com vincular el teu abonament a la nova app smou.<br/>
<br/>
<br/>
</div>
</div>
</div>
<div class="col-md-6 col-xs-12 col-xs-offset-0 col-md-offset-0 btn-white-3-inside btn-inside text-right centrar-link dim-button-2 display-block-future">
<div class="text-center-inside-a btn-big-inside btn-inside-transparent ">
<div><a href="/vinculacio">+ Info</a></div>
</div>
</div>
</div>
</div>
</div>
<div class="background-grey overflow-hidden">
<div class="container mt60 mb60 slider-home-content-control-arrows">
<div class="separation-false row" id="home-cards">
<div class="">
<div class="paragraph paragraph--type--banners paragraph--view-mode--default">
<div class="banner-paragraph pos-rel">
<div class="">
<div class="zona-image img-inside ">
<div> <img alt="Què és i com funciona bicing" height="410" src="/sites/default/files/styles/2587_336/public/2018-10/Que-es-i-com-funciona-2.jpg?h=4aad7db9&amp;itok=BHWzr6M9" typeof="foaf:Image" width="129"/>
</div>
</div>
<div class="zona-text-content dim-button-1 ">
<div class="igualar-altura-v3 mb15">
<p class="fs32 lh1-2">Què és i com funciona bicing</p>
</div>
<div class="mb30">
<div>T’expliquem tot el que necessites saber per començar a moure’t amb Bicing per Barcelona. </div>
</div>
<a class="btn mt20" href="/nou-servei-bicing">Veure més</a>
</div>
</div>
</div>
</div>
</div>
<div class="">
<div class="paragraph paragraph--type--banners paragraph--view-mode--default">
<div class="banner-paragraph pos-rel">
<div class="">
<div class="zona-image img-inside ">
<div> <img alt="Xarxa d'estacions Bicing" height="410" src="/sites/default/files/styles/2587_336/public/2018-10/Xarxa-destacions-2%20%281%29.jpg?h=4aad7db9&amp;itok=jnSsVkij" typeof="foaf:Image" width="129"/>
</div>
</div>
<div class="zona-text-content dim-button-1 ">
<div class="igualar-altura-v3 mb15">
<p class="fs32 lh1-2">Xarxa d'estacions Bicing</p>
</div>
<div class="mb30">
<div>Descobreix les més de 400 estacions Bicing repartides per tota la ciutat.</div>
</div>
<a class="btn mt20" href="/mapa-de-disponibilitat">Veure més</a>
</div>
</div>
</div>
</div>
</div>
<div class="">
<div class="paragraph paragraph--type--banners paragraph--view-mode--default">
<div class="banner-paragraph pos-rel">
<div class="">
<div class="zona-image img-inside ">
<div> <img alt="L’app del Bicing, ara al Smou " height="361" src="/sites/default/files/styles/2587_336/public/2020-07/Banner%20Bicing%203_B.jpg?h=f9536c83&amp;itok=y2AWP7GV" typeof="foaf:Image" width="113"/>
</div>
</div>
<div class="zona-text-content dim-button-1 ">
<div class="igualar-altura-v3 mb15">
<p class="fs32 lh1-2">L’app del Bicing, ara al Smou </p>
</div>
<div class="mb30">
<div>L’smou és l’app amb la qual podràs utilitzar el Bicing. Descobreix tots els altres serveis de mobilitat que integra.</div>
</div>
<a class="btn mt20" href="/app-bicing">Veure més</a>
</div>
</div>
</div>
</div>
</div>
</div>
</div>
</div>
<div class="container pos-rel com-funciona com-funciona-ver">
<div class="row">
<div class="col-md-10 col-md-offset-1">
<h2 class="text-center mt60 mb50">Com funciona?</h2>
</div>
</div>
<div class="row mb90 pos-rel">
<img id="linea1" src="/themes/bicing/assets/images/linea1.png"/>
<div class="col-md-offset-1 col-md-4 text-center float-right corregir-right mt60 mb40">
<div class="centrado-global">
<div class="fs21 circle-element mb40"><span>1</span></div>
</div>
<div class="fs32 mb40">
<div>Dóna’t d’alta</div>
</div>
<div><p><span><span><span><span><a href="https://zonausuaris.smou.cat/register"><span><span><span><span>Dona’t</span></span></span></span> <span><span><span><span>d’alta a </span></span></span></span><span><span><span><span>smou</span></span></span></span></a><span><span><span><span>, activa el servei B</span></span></span></span><span><span><span><span>icing</span></span></span></span><span><span><span><span> en el menú serveis i escull la teva tarifa</span></span></span></span><span><span><span><span>. Rebràs el </span></span></span></span><span><span><span><span>Welcome</span></span></span></span><span><span><span><span> Pack amb la Targeta </span></span></span></span><span><span><span><span>Bicing</span></span></span></span><span><span><span><span>. Activa-la i comença a fer </span></span></span></span><span><span><span><span>Bicing</span></span></span></span><span><span><span><span>.</span></span></span></span></span></span></span></span></p></div>
</div>
<div class="col-md-offset-1 col-md-5 img-inside">
<img alt="Alta bicing" src="/themes/bicing/img/alta-bicing.svg"/>
</div>
</div>
<div class="row mb90 pos-rel">
<img id="linea2" src="/themes/bicing/assets/images/linea2.png"/>
<div class="col-md-offset-1 col-md-4 text-center mt60 mb40">
<div class="centrado-global">
<div class="fs21 circle-element mb40"><span>2</span></div>
</div>
<div class="fs32 mb40">
<div>El Bicing sempre a mà</div>
</div>
<div><p><span><span><span><span><span><span><span><span>Descarrega </span></span></span></span><a href="/alta-smou"><span><span><span><span>l’</span></span></span></span><span><span><span><strong><span>app</span></strong></span></span></span><span><span><span><strong><span> Smou</span></strong></span></span></span></a> <span><span><span><span>per gaudir de totes les funcionalitats del </span></span></span></span><span><span><span><span>Bicing</span></span></span></span><span><span><span><span> en el teu </span></span></span></span><span><span><span><span>smartphone</span></span></span></span><span><span><span><span>: reserva i agafa bicis, consulta disponibilitat d’estacions i molt més!</span></span></span></span></span></span></span></span></p></div>
</div>
<div class="col-md-offset-1 col-md-5 img-inside mt20">
<img alt="Consulta disponibilitat bicing" src="/themes/bicing/img/consulta-disponibilitat-bicing.svg"/>
</div>
<img id="linea3" src="/themes/bicing/assets/images/linea3.png"/>
</div>
<div class="row mb90 pos-rel">
<img id="linea4" src="/themes/bicing/assets/images/linea4.png"/>
<div class="col-md-offset-1 col-md-4 text-center float-right corregir-right mt60 mb30">
<div class="centrado-global">
<div class="fs21 circle-element mb40"><span>3</span></div>
</div>
<div class="fs32 mb40">
<div>Fes Bicing</div>
</div>
<div><ul><li>Sigues sostenible</li>
<li>Practica esport</li>
<li>Gaudeix dels teus desplaçaments</li>
<li>Fes ciutat, estima Barcelona</li>
</ul></div>
</div>
<div class="col-md-offset-1 col-md-5 img-inside">
<img alt="Pedala i suma punts" src="/themes/bicing/img/pedala-suma-punts.svg"/>
</div>
<img id="linea5" src="/themes/bicing/assets/images/linea5.png"/>
</div>
<div class="row mb90 pos-rel">
<img id="linea6" src="/themes/bicing/assets/images/linea6.png"/>
<div class="col-md-offset-1 col-md-4 text-center mt60 btn-big-inside mb80">
<div class="centrado-global">
<div class="fs21 circle-element mb40"><span>4</span></div>
</div>
<div class="fs32 mb40">
<div>Pedala i suma punts</div>
</div>
<div><p><span><span>Uneix-te al <a href="/app-bicing">Joc del Bicing</a> descarregant l’app, amb cada desplaçament guanyaràs punts, podràs participar en reptes i desafiaments, competir contra els teus amics i guanyar premis!</span></span></p>
<ul></ul></div>
</div>
<div class="col-md-offset-1 col-md-5 img-inside">
<img alt="fes bicing" src="/themes/bicing/img/fes-bicing.svg"/>
</div>
<img id="linea7" src="/themes/bicing/assets/images/linea7.png"/>
</div>
</div>
<div class="background-grey-4 overflow-hidden" id="news-container">
<div class="container mb30">
<div class="row">
<div class="col-md-12">
<h2 class="text-center mt60 mb50">Notícies</h2>
<div class="row">
<div class="col-md-10 col-md-offset-1 pager-like-slider">
<div class="cards-capa-inside">
<div class="views-element-container"><div class="js-view-dom-id-314102ce134ce6fd29f89ca11d7c80b8e6eee947ccd5ef292e7c1c863cf1fdf4">
<div class="results-rows">
<div class="views-row"><article about="/estacio-virtual-cursa-nassos-2020" data-history-node-id="217" role="article">
<div class="cards-capa"></div>
<div class="pos-rel">
<div class="limitar-altura-noticia">
<div style="height: 25px;"></div>
<h2 class="fs18 text-center fwr mt10 mb0 ml10 mr10">
<a class="color-black fwb" href="/estacio-virtual-cursa-nassos-2020">El Bicing col·labora amb la Cursa dels Nassos habilitant una estació virtual al Fòrum  </a>
</h2>
</div>
<a class="color-black" href="/estacio-virtual-cursa-nassos-2020"><div class="img-inside mb30"><div class=""> <img alt="cursa dels nassos bicing" height="609" src="/sites/default/files/styles/945/public/2021-01/PHOTO-2020-12-31-19-59-54.jpg?h=596a055e&amp;itok=e4FuT5sg" typeof="foaf:Image" width="800"/>
</div></div></a>
<div class="text-center dim-button-2 mb30">
<span class="span-link-no-space"><a class="btn " href="/estacio-virtual-cursa-nassos-2020">Llegir més</a></span>
</div>
</div>
</article>
</div>
</div>
<nav aria-labelledby="pagination-heading" class="pager" role="navigation">
<h4 class="visually-hidden" id="pagination-heading">Paginació</h4>
<ul class="pager__items js-pager__items">
<li class="pager__item is-active">
<a href="?page=0" title="Pàgina actual">
<span class="visually-hidden">
              Pàgina actual
            </span>1</a>
</li>
<li class="pager__item">
<a href="?page=1" title="Go to page 2">
<span class="visually-hidden">
              Page
            </span>2</a>
</li>
<li class="pager__item">
<a href="?page=2" title="Go to page 3">
<span class="visually-hidden">
              Page
            </span>3</a>
</li>
<li class="pager__item pager__item--ellipsis" role="presentation">…</li>
<li class="pager__item pager__item--next">
<a href="?page=1" rel="next" title="Vés a la pàgina següent">
<span class="visually-hidden">Pàgina següent</span>
<span aria-hidden="true">››</span>
</a>
</li>
<li class="pager__item pager__item--last">
<a href="?page=31" title="Vés a la darrera pàgina">
<span class="visually-hidden">Última pàgina</span>
<span aria-hidden="true">Darrer »</span>
</a>
</li>
</ul>
</nav>
</div>
</div>
</div>
</div>
</div>
<div class="text-center mt50 mb20 btn-big-inside">
<a class="btn" href="/noticies">Veure tot</a>
</div>
</div>
</div>
</div>
</div>
<div class="container">
<div class="row">
<div class="col-md-10 col-md-offset-1">
<h2 class="text-center mt60 mb50">Dades bicing</h2>
<div class="row mb30">
<div class="col-sm-4 col-xs-4 dades-bicing text-center">
<div class="paragraph paragraph--type--icon-text paragraph--view-mode--default">
<div> <img alt="abonats" height="" src="/sites/default/files/2018-10/abonats.svg" typeof="foaf:Image" width=""/>
</div>
<div content="128706">128.706</div>
<div>Abonats</div>
</div>
</div>
<div class="col-sm-4 col-xs-4 dades-bicing text-center">
<div class="paragraph paragraph--type--icon-text paragraph--view-mode--default">
<div> <img alt="bicicletes" height="" src="/sites/default/files/2018-10/bicicletes.svg" typeof="foaf:Image" width=""/>
</div>
<div content="6700">6.700</div>
<div>Bicicletes</div>
</div>
</div>
<div class="col-sm-4 col-xs-4 dades-bicing text-center">
<div class="paragraph paragraph--type--icon-text paragraph--view-mode--default">
<div> <img alt="estacions" height="" src="/sites/default/files/2018-10/estacions.svg" typeof="foaf:Image" width=""/>
</div>
<div>517</div>
<div>estacions</div>
</div>
</div>
</div>
<div class="text-center mb60 btn-inside btn-big-inside">
<div><a href="/dades-bicing">Consulta les dades</a></div>
</div>
</div>
</div>
</div>
<div class="background-grey-4 overflow-hidden ">
<div class="container" id="avantatges-home">
<div class="row mt60 mb30">
<div class="col-md-offset-1 col-md-4 text-center mb30">
<h2 class="mb50">Avantatges Bicing</h2>
<div><p><span><span><span>Ara, ser abonat del Bicing, té un munt d’avantatges!</span></span></span></p>
<p><span>Volem premiar la teva fidelitat amb l’accés a molts avantatges en productes i serveis relacionats amb la vida sana, l’ecologia i la sostenibilitat.</span></p></div>
<div class="btn-inside mt30 mb30 dim-button-2 btn-big-inside">
<div><a href="/avantatges">Descobreix més</a></div>
</div>
</div>
<div class="col-md-offset-1 col-md-5 img-inside img-inside-991-80 ">
<div> <img alt="Avantatges Bicing" height="" src="/sites/default/files/2018-10/avantatges.svg" typeof="foaf:Image" width=""/>
</div>
</div>
</div>
</div>
</div>
</div>
</article>
</div>
</div>
</div>
</main>
<div id="limite-inferior">
<div class="background-grey-2">
<div class="container">
<div class="row">
<div class="col-lg-8 col-lg-offset-2 col-md-10 col-md-offset-1 mt70 mb70">
<div>
<div id="block-appbloc">
<p class="fs32 color-white mb30 text-center">Descarrega l'app Smou i comença a fer Bicing</p>
<div class="links-apps">
<a class="" href="https://play.google.com/store/apps/details?id=cat.bcn.smoubcn&amp;hl=es" target="_blank">
<img alt="" src="/themes/bicing/assets/images/google-play-android.png"/>
</a>
<a class="" href="https://apps.apple.com/es/app/smou/id1439898721" target="_blank">
<img alt="" src="/themes/bicing/assets/images/app-store-icon.png"/>
</a>
</div>
</div>
</div>
</div>
</div>
</div>
</div>
<div class="background-blue">
<div class="container mt75 mb60">
<div class="menu-footer-main fs16 mb40 text-center">
<div>
<nav aria-labelledby="block-menufooter-menu" id="block-menufooter" role="navigation">
<h2 class="visually-hidden" id="block-menufooter-menu">Menu footer</h2>
<ul>
<li>
<a data-drupal-link-system-path="node/18" href="/tarifes">Tarifes</a>
</li>
<li>
<a data-drupal-link-system-path="node/4" href="/avantatges">Avantatges</a>
</li>
<li>
<a data-drupal-link-system-path="node/11" href="/app-bicing">Apps Bicing</a>
</li>
<li>
<a data-drupal-link-system-path="node/10" href="/faqs-i-normes">FAQs i Normes</a>
</li>
<li>
<a data-drupal-link-system-path="node/6" href="/noticies">Notícies</a>
</li>
<li>
<a data-drupal-link-system-path="node/99" href="/dades-bicing">Dades Bicing</a>
</li>
<li>
<a data-drupal-link-system-path="node/88" href="/contacte">Contacte</a>
</li>
</ul>
</nav>
</div>
</div>
<div class="centrado-global mb40 buttons-extendend dim-button-1">
<a class="btn mr20 btn-white-2" href="/vinculacio">Inicia sessió</a>
<a class="btn btn-white-2" href="/alta-smou">Dona't d'alta</a>
</div>
<div class="centrado-global botones-sociales">
<a class="facebook" href="https://es-es.facebook.com/bicingbcn" target="_blank"><span><i class="fab fa-facebook-f"></i></span></a>
<a class="instagram" href="https://www.instagram.com/bicing/?hl=es" target="_blank"><span><i class="fab fa-instagram"></i></span></a>
<a class="twitter" href="https://twitter.com/bicing" target="_blank"><span><i class="fab fa-twitter"></i></span></a>
</div>
</div>
</div>
<div>
<footer class="contentinfo-footer" role="contentinfo">
<img alt="logo ajuntament de Barcelona" src="/themes/bicing/img/ajuntament-barcelona-logo.png"/>
<div class="menu-footer float-right text-right">
<div>
<nav aria-labelledby="block-peu-menu" id="block-peu" role="navigation">
<h2 class="visually-hidden" id="block-peu-menu">Peu</h2>
<ul>
<li>
<a data-drupal-link-system-path="node/15" href="/avis-legal-i-privacitat">Avís legal i privacitat</a>
</li>
<li>
<a data-drupal-link-system-path="node/13" href="/politica-de-cookies">Política de cookies</a>
</li>
</ul>
</nav>
</div>
</div>
</footer>
</div>
</div>
</div>
</div>
<script data-drupal-selector="drupal-settings-json" type="application/json">{"path":{"baseUrl":"\/","scriptPath":null,"pathPrefix":"","currentPath":"node\/1","currentPathIsAdmin":false,"isFront":true,"currentLanguage":"ca"},"pluralDelimiter":"\u0003","suppressDeprecationErrors":true,"ajaxPageState":{"libraries":"addtoany\/addtoany,bcn_barra\/bcn_barra_init,bicing\/base-bicing-custom,bicing\/base-bicing-slider,bicing\/bicing-chatbox,core\/html5shiv,drauta_connect\/assets\/script.js,paragraphs\/drupal.paragraphs.unpublished,system\/base,views\/views.ajax,views\/views.module","theme":"bicing","theme_token":null},"ajaxTrustedUrl":[],"views":{"ajax_path":"\/views\/ajax","ajaxViews":{"views_dom_id:314102ce134ce6fd29f89ca11d7c80b8e6eee947ccd5ef292e7c1c863cf1fdf4":{"view_name":"noticies_una_x_fila","view_display_id":"block_2","view_args":"","view_path":"\/node\/1","view_base_path":null,"view_dom_id":"314102ce134ce6fd29f89ca11d7c80b8e6eee947ccd5ef292e7c1c863cf1fdf4","pager_element":0}}},"barra":{"barra":"\u003C!-- NIRON_bicing-barcelona-2017_2020-06-15T09:12:15Z  --\u003E\r\n\u003Cheader id=\u0022brand\u0022 alias=\u0022bicing-barcelona-2017\u0022 brand=\u0022bicing-barcelona-2017_2020-06-15T09:12:15Z\u0022 class=\u0022v2017  bcnbrand-fullscreen  lang-ca\u0022\u003E\r\n  \u003Cdiv class=\u0022bcnbrand-desktop\u0022\u003E\r\n    \u003Cdiv class=\u0022bcnbrand-navs-container\u0022\u003E\r\n      \u003Cnav class=\u0022bcnbrand-shortcuts\u0022 id=\u0022bcnbrand-shortcuts-nav\u0022 aria-hidden=\u0022true\u0022\u003E\r\n        \u003Ch2 tabindex=\u0022-1\u0022 class=\u0022sr-only-bcn\u0022 id=\u0022header_menu_dreceres\u0022\u003ECerca a barcelona.cat\u003C\/h2\u003E\r\n        \u003Cul class=\u0022bcnbrand-list\u0022\u003E\r\n          \u003Cli\u003E\r\n            \u003Ca target=\u0022_blank\u0022 href=\u0022https:\/\/ajuntament.barcelona.cat\/ca\/\u0022 tabindex=\u00223\u0022 data-ga=\u0022Ajuntament\u0022\u003E\r\n              \u003Cspan class=\u0022bcnbrand-icon bcn-icon-ajuntament bcnbrand-circle bcnbrand-bg-purple\u0022 aria-hidden=\u0022true\u0022\u003E\u003C\/span\u003E\r\n              \u003Cspan class=\u0022bcnbrand-link\u0022\u003E\r\n                    ajuntament.barcelona.cat\r\n              \u003C\/span\u003E\r\n            \u003C\/a\u003E\r\n          \u003C\/li\u003E\r\n          \u003Cli\u003E\r\n            \u003Ca target=\u0022_blank\u0022 href=\u0022https:\/\/meet.barcelona.cat\/ca\/\u0022 tabindex=\u00223\u0022 data-ga=\u0022Meet\u0022\u003E\r\n              \u003Cspan class=\u0022bcnbrand-icon bcn-icon-meet bcnbrand-circle bcnbrand-bg-yellow\u0022 aria-hidden=\u0022true\u0022\u003E\u003C\/span\u003E\r\n              \u003Cspan class=\u0022bcnbrand-link\u0022\u003E\r\n                    meet.barcelona.cat\r\n               \u003C\/span\u003E\r\n            \u003C\/a\u003E\r\n          \u003C\/li\u003E\r\n        \u003C\/ul\u003E\r\n        \u003Cul class=\u0022bcnbrand-list\u0022\u003E\r\n          \u003Cli\u003E\r\n            \u003Ca target=\u0022_blank\u0022 href=\u0022https:\/\/www.barcelona.cat\/infobarcelona\/ca\/\u0022 tabindex=\u00223\u0022 data-ga=\u0022Noticies\u0022\u003E\r\n              \u003Cspan class=\u0022bcnbrand-icon bcn-icon-noticies\u0022 aria-hidden=\u0022true\u0022\u003E\u003C\/span\u003E\r\n              \u003Cspan class=\u0022bcnbrand-link\u0022\u003E\r\n                    Info Barcelona\r\n              \u003C\/span\u003E\r\n            \u003C\/a\u003E\r\n          \u003C\/li\u003E\r\n          \u003Cli\u003E\r\n            \u003Ca target=\u0022_blank\u0022 href=\u0022https:\/\/guia.barcelona.cat\/ca\/\u0022 tabindex=\u00223\u0022 data-ga=\u0022Guia\u0022\u003E\r\n              \u003Cspan class=\u0022bcnbrand-icon bcn-icon-guia\u0022 aria-hidden=\u0022true\u0022\u003E\u003C\/span\u003E\r\n              \u003Cspan class=\u0022bcnbrand-link\u0022\u003E\r\n                    Guia BCN\r\n              \u003C\/span\u003E\r\n            \u003C\/a\u003E\r\n          \u003C\/li\u003E\r\n          \u003Cli\u003E\r\n            \u003Ca target=\u0022_blank\u0022 href=\u0022https:\/\/www.barcelona.cat\/tramits\/ca\/\u0022 tabindex=\u00223\u0022 data-ga=\u0022Tramits\u0022\u003E\r\n              \u003Cspan class=\u0022bcnbrand-icon bcn-icon-tramits-o\u0022 aria-hidden=\u0022true\u0022\u003E\u003C\/span\u003E\r\n              \u003Cspan class=\u0022bcnbrand-link\u0022\u003E\r\n                    Tr\u00e0mits\r\n              \u003C\/span\u003E\r\n            \u003C\/a\u003E\r\n          \u003C\/li\u003E\r\n          \u003Cli\u003E\r\n            \u003Ca target=\u0022_blank\u0022 href=\u0022https:\/\/www.barcelona.cat\/planol\/ca\/\u0022 tabindex=\u00223\u0022 data-ga=\u0022Planol\u0022\u003E\r\n              \u003Cspan class=\u0022bcnbrand-icon bcn-icon-planol\u0022 aria-hidden=\u0022true\u0022\u003E\u003C\/span\u003E\r\n              \u003Cspan class=\u0022bcnbrand-link\u0022\u003E\r\n                    Pl\u00e0nol BCN\r\n              \u003C\/span\u003E\r\n            \u003C\/a\u003E\r\n          \u003C\/li\u003E\r\n          \u003Cli\u003E\r\n            \u003Ca target=\u0022_blank\u0022 href=\u0022https:\/\/ajuntament.barcelona.cat\/canals-comunicacio-ciutadana\/\u0022 tabindex=\u00223\u0022 data-ga=\u0022Canals\u0022\u003E\r\n              \u003Cspan class=\u0022bcnbrand-icon bcn-icon-relacio-ciutada\u0022 aria-hidden=\u0022true\u0022\u003E\u003C\/span\u003E\r\n              \u003Cspan class=\u0022bcnbrand-link\u0022\u003E\r\n                    Canals de comunicaci\u00f3\r\n                  \u003C\/span\u003E\r\n            \u003C\/a\u003E\r\n          \u003C\/li\u003E\r\n          \u003Cli\u003E\r\n            \u003Ca target=\u0022_blank\u0022 href=\u0022https:\/\/www.barcelona.cat\/com-shi-va\/ca\/\u0022\r\n               tabindex=\u00223\u0022 data-ga=\u0022Com shi va\u0022\u003E\r\n              \u003Cspan class=\u0022bcnbrand-icon bcn-icon-comshiva\u0022 aria-hidden=\u0022true\u0022\u003E\u003C\/span\u003E\r\n              \u003Cspan class=\u0022bcnbrand-link\u0022\u003E\r\n                    Com s\u0027hi va\r\n                  \u003C\/span\u003E\r\n            \u003C\/a\u003E\r\n          \u003C\/li\u003E\r\n        \u003C\/ul\u003E\r\n        \u003Ca href=\u0022javascript:;\u0022\r\n           class=\u0022bcnbrand-close\u0022 tabindex=\u00224\u0022 title=\u0022Tanca\u0022\r\n           aria-label=\u0022Tanca\u0022 aria-expanded=\u0022false\u0022\r\n           aria-controls=\u0022bcnbrand-shortcuts-nav\u0022 data-ga=\u0022Tanca-Drecera\u0022\u003E\r\n          \u003Cspan class=\u0022bcnbrand-icon bcn-icon-tancar-light\u0022 aria-hidden=\u0022true\u0022\u003E\u003C\/span\u003E\r\n        \u003C\/a\u003E\r\n      \u003C\/nav\u003E\r\n      \u003Cnav class=\u0022bcnbrand-lang lang bcnbrand-lang-extended\u0022\r\n           id=\u0022bcnbrand-lang-nav\u0022 aria-hidden=\u0022true\u0022\u003E\r\n        \u003Ch2 tabindex=\u0022-1\u0022 class=\u0022sr-only-bcn\u0022 id=\u0022header-menu-bcnbrand-lang\u0022\u003ECanviar idioma\u003C\/h2\u003E\r\n        \u003Cul class=\u0022bcnbrand-list\u0022\u003E\r\n          \u003Cli\u003E\u003Ca href=\u0022\/\u0022 tabindex=\u00228\u0022 class=\u0022active\u0022 lang=\u0022ca\u0022 data-ga=\u0022CA\u0022\u003ECatal\u00e0\u003C\/a\u003E\u003C\/li\u003E\n\u003Cli\u003E\u003Ca href=\u0022\/es\/\u0022 tabindex=\u00228\u0022 lang=\u0022es\u0022 data-ga=\u0022ES\u0022\u003ECastellano\u003C\/a\u003E\u003C\/li\u003E\n\r\n        \u003C\/ul\u003E\r\n        \u003C!--\u003Cul class=\u0022bcnbrand-list\u0022 aria-expanded=\u0022true\u0022\u003E\r\n          \u003Cli\u003E\r\n            \u003Ca href=\u0022javascript:;\u0022 tabindex=\u00228\u0022 lang=\u0022it\u0022 title=\u0022Informazioni per i visitatori\u0022\u003EInformazioni per i visitatori\u003C\/a\u003E\r\n          \u003C\/li\u003E\r\n          \u003Cli\u003E\r\n            \u003Ca href=\u0022javascript:;\u0022 tabindex=\u00228\u0022 lang=\u0022de\u0022 title=\u0022Informationen f\u00fcr Besucher\u0022\u003EInformationen f\u00fcr Besucher\u003C\/a\u003E\r\n          \u003C\/li\u003E\r\n          \u003Cli\u003E\r\n            \u003Ca href=\u0022javascript:;\u0022 tabindex=\u00228\u0022 lang=\u0022pt\u0022 title=\u0022Informa\u00e7\u00f5es para os visitantes\u0022\u003EInforma\u00e7\u00f5es para os visitantes\u003C\/a\u003E\r\n          \u003C\/li\u003E\r\n        \u003C\/ul\u003E\r\n        \u003Cul class=\u0022bcnbrand-list\u0022 aria-expanded=\u0022true\u0022\u003E\r\n          \u003Cli\u003E\r\n            \u003Ca href=\u0022javascript:;\u0022 tabindex=\u00228\u0022 lang=\u0022ru\u0022 title=\u0022\u0418\u043d\u0444\u043e\u0440\u043c\u0430\u0446\u0438\u044f \u0434\u043b\u044f \u043f\u043e\u0441\u0435\u0442\u0438\u0442\u0435\u043b\u0435\u0439\u0022\u003E\u0418\u043d\u0444\u043e\u0440\u043c\u0430\u0446\u0438\u044f \u0434\u043b\u044f \u043f\u043e\u0441\u0435\u0442\u0438\u0442\u0435\u043b\u0435\u0439\u003C\/a\u003E\r\n          \u003C\/li\u003E\r\n          \u003Cli\u003E\r\n            \u003Ca href=\u0022javascript:;\u0022 tabindex=\u00228\u0022 lang=\u0022jp\u0022 title=\u0022\u30d3\u30b8\u30bf\u30fc\u00b7\u30a4\u30f3\u30d5\u30a9\u30e1\u30fc\u30b7\u30e7\u30f3\u0022\u003E\u30d3\u30b8\u30bf\u30fc\u00b7\u30a4\u30f3\u30d5\u30a9\u30e1\u30fc\u30b7\u30e7\u30f3\u003C\/a\u003E\r\n          \u003C\/li\u003E\r\n          \u003Cli\u003E\r\n            \u003Ca href=\u0022javascript:;\u0022 tabindex=\u00228\u0022 lang=\u0022zh\u0022 title=\u0022\u904a\u5ba2\u4fe1\u606f\u0022\u003E\u904a\u5ba2\u4fe1\u606f\u003C\/a\u003E\r\n          \u003C\/li\u003E\r\n        \u003C\/ul\u003E--\u003E\r\n        \u003Ca href=\u0022javascript:;\u0022 class=\u0022bcnbrand-close\u0022 tabindex=\u00229\u0022 title=\u0022Tanca\u0022\r\n           aria-label=\u0022Tanca\u0022 aria-expanded=\u0022false\u0022\r\n           aria-controls=\u0022bcnbrand-lang-nav\u0022 data-ga=\u0022Tanca-Idioma\u0022\u003E\r\n          \u003Cspan class=\u0022bcnbrand-icon bcn-icon-tancar-light\u0022 aria-hidden=\u0022true\u0022\u003E\u003C\/span\u003E\r\n        \u003C\/a\u003E\r\n      \u003C\/nav\u003E\r\n    \u003C\/div\u003E\r\n    \u003Cdiv class=\u0022bcnbrand-main-container\u0022\u003E\r\n      \u003Cdiv class=\u0022bcnbrand-main\u0022\u003E\r\n        \u003Cul class=\u0022bcnbrand-list\u0022\u003E\r\n          \u003Cli\u003E\r\n            \u003Ca href=\u0022https:\/\/www.barcelona.cat\/ca\/\u0022 class=\u0022bcnbrand-main-link\u0022\r\n               tabindex=\u00221\u0022 title=\u0022Barcelona\u0022 data-ga=\u0022barcelona.cat\u0022\u003E\r\n              www.barcelona.cat\r\n            \u003C\/a\u003E\r\n          \u003C\/li\u003E\r\n          \u003Cli\u003E\r\n            \u003Ca href=\u0022javascript:;\u0022\r\n               class=\u0022bcnbrand-nav-link bcnbrand-nav-link-squares\u0022\r\n               data-target=\u0022bcnbrand-shortcuts\u0022 tabindex=\u00222\u0022\r\n               title=\u0022Dreceres de barcelona.cat\u0022\r\n               aria-label=\u0022Dreceres de barcelona.cat\u0022 aria-expanded=\u0022false\u0022\r\n               aria-controls=\u0022bcnbrand-shortcuts-nav\u0022 data-ga=\u0022Drecera\u0022\u003E\r\n              \u003Cspan class=\u0022bcnbrand-icon bcn-icon-menu-drecera\u0022 aria-hidden=\u0022true\u0022\u003E\u003C\/span\u003E\r\n            \u003C\/a\u003E\r\n          \u003C\/li\u003E\r\n          \u003Cli\u003E\r\n            \u003Cform action=\u0022https:\/\/cercador.barcelona.cat\/ca\u0022\u003E\r\n              \u003Cdiv class=\u0022bcnbrand-input\u0022\u003E\r\n                \u003Cinput type=\u0022text\u0022 name=\u0022query\u0022 aria-label=\u0022Cerca a barcelona.cat\u0022\r\n                       placeholder=\u0022Cerca a barcelona.cat...\u0022 tabindex=\u00225\u0022\r\n                       title=\u0022Cerca a barcelona.cat\u0022 data-ga=\u0022Cerca\u0022\u003E\r\n                \u003Cbutton type=\u0022submit\u0022 tabindex=\u00226\u0022 title=\u0022Cerca a barcelona.cat\u0022 aria-label=\u0022Cerca a barcelona.cat\u0022\r\n                        data-ga=\u0022Cerca\u0022\u003E\r\n                  \u003Cspan class=\u0022bcnbrand-icon bcn-icon-cerca\u0022 aria-hidden=\u201dtrue\u201d\u003E\u003C\/span\u003E\r\n                \u003C\/button\u003E\r\n              \u003C\/div\u003E\r\n            \u003C\/form\u003E\r\n          \u003C\/li\u003E\r\n          \u003Cli\u003E\r\n            \u003Ca href=\u0022javascript:;\u0022\r\n               class=\u0022bcnbrand-nav-link bcnbrand-nav-link-lang-selector\u0022\r\n               data-target=\u0022bcnbrand-lang\u0022 tabindex=\u00227\u0022 title=\u0022Canviar idioma\u0022\r\n               aria-label=\u0022Canviar idioma\u0022 aria-expanded=\u0022false\u0022\r\n               aria-controls=\u0022bcnbrand-lang-nav\u0022 data-ga=\u0022Idioma\u0022\u003E\r\n              \u003Cspan class=\u0022bcnbrand-icon bcn-icon-idioma\u0022 aria-hidden=\u0022true\u0022\u003E\u003C\/span\u003E\r\n              \u003Cspan class=\u0022bcnbrand-select-lang\u0022\u003E\r\n                    \u003Cspan class=\u0022bcnbrand-lang-text\u0022\u003ECatal\u00e0\u003C\/span\u003E\r\n                    \u003Cspan class=\u0022bcnbrand-icon bcn-icon-baix-bold\u0022 aria-hidden=\u0022true\u0022\u003E\u003C\/span\u003E\r\n                    \u003Cspan class=\u0022bcnbrand-icon bcn-icon-dalt-bold\u0022 aria-hidden=\u0022true\u0022\u003E\u003C\/span\u003E\r\n                  \u003C\/span\u003E\r\n            \u003C\/a\u003E\r\n          \u003C\/li\u003E\r\n          \u003Cli\u003E\r\n            \u003Ca target=\u0022_blank\u0022 class=\u0022bcnbrand-logo-main shield-svg\u0022\r\n               href=\u0022https:\/\/ajuntament.barcelona.cat\/ca\/\u0022 tabindex=\u002210\u0022\r\n               data-ga=\u0022Llima\u0022\u003E\r\n              \u003Cimg\r\n                  src=\u0022https:\/\/www.barcelona.cat\/assets\/images\/brand\/banner\/2017\/logo.svg\u0022\r\n                  alt=\u0022Logo Ajuntament de Barcelona\u0022\u003E\r\n            \u003C\/a\u003E\r\n          \u003C\/li\u003E\r\n        \u003C\/ul\u003E\r\n      \u003C\/div\u003E\r\n    \u003C\/div\u003E\r\n  \u003C\/div\u003E\r\n  \u003C!-- MOBILE BRAND --\u003E\r\n  \u003Cdiv class=\u0022bcnbrand-mobile\u0022\u003E\r\n    \u003Cdiv class=\u0022bcnbrand-main-container\u0022\u003E\r\n\r\n      \u003Cdiv class=\u0022bcnbrand-main\u0022\u003E\r\n        \u003Cul class=\u0022bcnbrand-list\u0022\u003E\r\n          \u003Cli\u003E\r\n            \u003Ca href=\u0022https:\/\/www.barcelona.cat\/ca\/\u0022 class=\u0022bcnbrand-main-link\u0022\r\n               title=\u0022Barcelona\u0022 data-ga=\u0022barcelona.cat\u0022\u003E\r\n              www.barcelona.cat\r\n            \u003C\/a\u003E\r\n          \u003C\/li\u003E\r\n        \u003C\/ul\u003E\r\n        \u003Cul class=\u0022bcnbrand-list\u0022\u003E\r\n          \u003Cli\u003E\r\n            \u003Ca href=\u0022javascript:;\u0022\r\n               class=\u0022bcnbrand-nav-link bcnbrand-nav-link-squares\u0022\r\n               data-target=\u0022bcnbrand-shortcuts\u0022\r\n               title=\u0022Dreceres de barcelona.cat\u0022\r\n               aria-label=\u0022Dreceres de barcelona.cat\u0022 aria-expanded=\u0022false\u0022\r\n               aria-controls=\u0022bcnbrand-shortcuts-mobile-nav\u0022 data-ga=\u0022Drecera\u0022\u003E\r\n              \u003Cspan class=\u0022bcnbrand-icon bcn-icon-menu-drecera\u0022 aria-hidden=\u0022true\u0022\u003E\u003C\/span\u003E\r\n            \u003C\/a\u003E\r\n          \u003C\/li\u003E\r\n          \u003Cli\u003E\r\n            \u003Ca href=\u0022javascript:;\u0022\r\n               class=\u0022bcnbrand-nav-link bcnbrand-nav-link-lang-selector\u0022\r\n               data-target=\u0022bcnbrand-lang\u0022 title=\u0022Canviar idioma\u0022\r\n               aria-label=\u0022Canviar idioma\u0022 aria-expanded=\u0022false\u0022\r\n               aria-controls=\u0022bcnbrand-lang-mobile-nav\u0022 data-ga=\u0022Idioma\u0022\u003E\r\n              \u003Cspan class=\u0022bcnbrand-icon bcn-icon-idioma\u0022 aria-hidden=\u0022true\u0022\u003E\u003C\/span\u003E\r\n              \u003Cspan class=\u0022bcnbrand-select-lang\u0022\u003E\r\n                    \u003Cspan class=\u0022bcnbrand-icon bcn-icon-baix-bold\u0022 aria-hidden=\u0022true\u0022\u003E\u003C\/span\u003E\r\n                    \u003Cspan class=\u0022bcnbrand-icon bcn-icon-dalt-bold\u0022 aria-hidden=\u0022true\u0022\u003E\u003C\/span\u003E\r\n                  \u003C\/span\u003E\r\n            \u003C\/a\u003E\r\n          \u003C\/li\u003E\r\n          \u003Cli\u003E\r\n            \u003Ca target=\u0022_blank\u0022 href=\u0022https:\/\/ajuntament.barcelona.cat\/ca\/\u0022\r\n               data-ga=\u0022Llima\u0022\u003E\r\n              \u003Cimg\r\n                  src=\u0022https:\/\/www.barcelona.cat\/assets\/images\/brand\/banner\/2017\/llima-vermella.svg\u0022\r\n                  alt=\u0022Ajuntament de Barcelona\u0022\u003E\r\n            \u003C\/a\u003E\r\n          \u003C\/li\u003E\r\n        \u003C\/ul\u003E\r\n      \u003C\/div\u003E\r\n      \u003C!-- END MAIN BRAND --\u003E\r\n    \u003C\/div\u003E\r\n    \u003Cdiv class=\u0022bcnbrand-navs-container\u0022\u003E\r\n      \u003Cnav class=\u0022bcnbrand-shortcuts\u0022 id=\u0022bcnbrand-shortcuts-mobile-nav\u0022\r\n           aria-hidden=\u0022true\u0022\u003E\r\n        \u003Ch2 tabindex=\u0022-1\u0022 class=\u0022sr-only-bcn\u0022 id=\u0022header-menu-dreceres-mobile-nav\u0022\u003ECerca a barcelona.cat\u003C\/h2\u003E\r\n        \u003Cform action=\u0022https:\/\/cercador.barcelona.cat\/ca\u0022\u003E\r\n          \u003Cdiv class=\u0022bcnbrand-input\u0022\u003E\r\n            \u003Cinput type=\u0022text\u0022 name=\u0022query\u0022 aria-label=\u0022Cerca a barcelona.cat\u0022\r\n                   placeholder=\u0022Cerca a barcelona.cat...\u0022 data-ga=\u0022Cerca\u0022\u003E\r\n            \u003Cbutton type=\u0022submit\u0022 title=\u0022Cerca a barcelona.cat\u0022 data-ga=\u0022Cerca\u0022 aria-label=\u0022Cerca a barcelona.cat\u0022\u003E\r\n              \u003Cspan class=\u0022bcnbrand-icon bcn-icon-cerca\u0022 aria-hidden=\u201dtrue\u201d\u003E\u003C\/span\u003E\r\n            \u003C\/button\u003E\r\n          \u003C\/div\u003E\r\n        \u003C\/form\u003E\r\n        \u003Cul class=\u0022bcnbrand-list\u0022\u003E\r\n          \u003Cli\u003E\r\n            \u003Ca target=\u0022_blank\u0022 href=\u0022https:\/\/ajuntament.barcelona.cat\/ca\/\u0022 data-ga=\u0022Ajuntament\u0022\u003E\r\n              \u003Cspan\r\n                  class=\u0022bcnbrand-icon bcn-icon-ajuntament bcnbrand-circle bcnbrand-bg-purple\u0022 aria-hidden=\u0022true\u0022\u003E\u003C\/span\u003E\r\n              \u003Cspan class=\u0022bcnbrand-link\u0022\u003E\r\n                    ajuntament.barcelona.cat\r\n                  \u003C\/span\u003E\r\n            \u003C\/a\u003E\r\n          \u003C\/li\u003E\r\n          \u003Cli\u003E\r\n            \u003Ca target=\u0022_blank\u0022 href=\u0022https:\/\/meet.barcelona.cat\/ca\/\u0022 data-ga=\u0022Meet\u0022\u003E\r\n              \u003Cspan\r\n                  class=\u0022bcnbrand-icon bcn-icon-meet bcnbrand-circle bcnbrand-bg-yellow\u0022 aria-hidden=\u0022true\u0022\u003E\u003C\/span\u003E\r\n              \u003Cspan class=\u0022bcnbrand-link\u0022\u003E\r\n                    meet.barcelona.cat\r\n                  \u003C\/span\u003E\r\n            \u003C\/a\u003E\r\n          \u003C\/li\u003E\r\n        \u003C\/ul\u003E\r\n        \u003Cul class=\u0022bcnbrand-list\u0022\u003E\r\n          \u003Cli\u003E\r\n            \u003Ca target=\u0022_blank\u0022\r\n               href=\u0022https:\/\/www.barcelona.cat\/infobarcelona\/ca\/\u0022 data-ga=\u0022Noticies\u0022\u003E\r\n              \u003Cspan class=\u0022bcnbrand-icon bcn-icon-noticies\u0022 aria-hidden=\u0022true\u0022\u003E\u003C\/span\u003E\r\n              \u003Cspan class=\u0022bcnbrand-link\u0022\u003E\r\n                    Info Barcelona\r\n                  \u003C\/span\u003E\r\n            \u003C\/a\u003E\r\n          \u003C\/li\u003E\r\n          \u003Cli\u003E\r\n            \u003Ca target=\u0022_blank\u0022 href=\u0022https:\/\/guia.barcelona.cat\/ca\/\u0022 data-ga=\u0022Guia\u0022\u003E\r\n              \u003Cspan class=\u0022bcnbrand-icon bcn-icon-guia\u0022 aria-hidden=\u0022true\u0022\u003E\u003C\/span\u003E\r\n              \u003Cspan class=\u0022bcnbrand-link\u0022\u003E\r\n                    Guia BCN\r\n                  \u003C\/span\u003E\r\n            \u003C\/a\u003E\r\n          \u003C\/li\u003E\r\n          \u003Cli\u003E\r\n            \u003Ca target=\u0022_blank\u0022 href=\u0022https:\/\/www.barcelona.cat\/tramits\/ca\/\u0022 data-ga=\u0022Tramits\u0022\u003E\r\n              \u003Cspan class=\u0022bcnbrand-icon bcn-icon-tramits-o\u0022 aria-hidden=\u0022true\u0022\u003E\u003C\/span\u003E\r\n              \u003Cspan class=\u0022bcnbrand-link\u0022\u003E\r\n                    Tr\u00e0mits\r\n                  \u003C\/span\u003E\r\n            \u003C\/a\u003E\r\n          \u003C\/li\u003E\r\n          \u003Cli\u003E\r\n            \u003Ca target=\u0022_blank\u0022 href=\u0022https:\/\/www.barcelona.cat\/planol\/ca\/\u0022 data-ga=\u0022Planol\u0022\u003E\r\n              \u003Cspan class=\u0022bcnbrand-icon bcn-icon-planol\u0022 aria-hidden=\u0022true\u0022\u003E\u003C\/span\u003E\r\n              \u003Cspan class=\u0022bcnbrand-link\u0022\u003E\r\n                    Pl\u00e0nol BCN\r\n                  \u003C\/span\u003E\r\n            \u003C\/a\u003E\r\n          \u003C\/li\u003E\r\n          \u003Cli\u003E\r\n            \u003Ca target=\u0022_blank\u0022\r\n               href=\u0022https:\/\/ajuntament.barcelona.cat\/canals-comunicacio-ciutadana\/\u0022 data-ga=\u0022Canals\u0022\u003E\r\n              \u003Cspan class=\u0022bcnbrand-icon bcn-icon-relacio-ciutada\u0022 aria-hidden=\u0022true\u0022\u003E\u003C\/span\u003E\r\n              \u003Cspan class=\u0022bcnbrand-link\u0022\u003E\r\n                    Canals de comunicaci\u00f3\r\n                  \u003C\/span\u003E\r\n            \u003C\/a\u003E\r\n          \u003C\/li\u003E\r\n          \u003Cli\u003E\r\n            \u003Ca target=\u0022_blank\u0022 href=\u0022https:\/\/www.barcelona.cat\/com-shi-va\/ca\/\u0022 data-ga=\u0022Com shi va\u0022\u003E\r\n              \u003Cspan class=\u0022bcnbrand-icon bcn-icon-comshiva\u0022 aria-hidden=\u0022true\u0022\u003E\u003C\/span\u003E\r\n              \u003Cspan class=\u0022bcnbrand-link\u0022\u003E\r\n                    Com s\u0027hi va\r\n                  \u003C\/span\u003E\r\n            \u003C\/a\u003E\r\n          \u003C\/li\u003E\r\n        \u003C\/ul\u003E\r\n        \u003Ca href=\u0022javascript:;\u0022 class=\u0022bcnbrand-close\u0022 title=\u0022Tanca\u0022\r\n           aria-label=\u0022Tanca\u0022 aria-expanded=\u0022false\u0022\r\n           aria-controls=\u0022bcnbrand-shortcuts-mobile-nav\u0022\r\n           data-ga=\u0022Tanca-Drecera\u0022\u003E\r\n          \u003Cspan class=\u0022bcnbrand-icon bcn-icon-tancar-light\u0022 aria-hidden=\u0022true\u0022\u003E\u003C\/span\u003E\r\n        \u003C\/a\u003E\r\n      \u003C\/nav\u003E\r\n      \u003Cnav class=\u0022bcnbrand-lang lang\u0022 id=\u0022bcnbrand-lang-mobile-nav\u0022\r\n           aria-hidden=\u0022true\u0022\u003E\r\n        \u003Ch2 tabindex=\u0022-1\u0022 class=\u0022sr-only-bcn\u0022 id=\u0022header-menu-bcnbrand-lang-mobile-nav\u0022\u003ECanviar idioma\u003C\/h2\u003E\r\n        \u003Cul class=\u0022bcnbrand-list\u0022\u003E\r\n          \u003Cli\u003E\u003Ca href=\u0022\/\u0022 tabindex=\u00226\u0022 class=\u0022active\u0022 lang=\u0022ca\u0022 data-ga=\u0022CA\u0022\u003ECatal\u00e0\u003C\/a\u003E\u003C\/li\u003E\n\u003Cli\u003E\u003Ca href=\u0022\/es\/\u0022 tabindex=\u00226\u0022 lang=\u0022es\u0022 data-ga=\u0022ES\u0022\u003ECastellano\u003C\/a\u003E\u003C\/li\u003E\n\r\n        \u003C!--\u003Cul class=\u0022bcnbrand-list  bcnbrand-extended\u0022\u003E\r\n          \u003Cli\u003E\r\n            \u003Ca href=\u0022#\u0022 lang=\u0022it\u0022 title=\u0022it\u0022 tabindex=\u00226\u0022\u003EInformazioni per i visitatori\u003C\/a\u003E\r\n          \u003C\/li\u003E\r\n          \u003Cli\u003E\r\n            \u003Ca href=\u0022#\u0022 lang=\u0022de\u0022 title=\u0022de\u0022 tabindex=\u00226\u0022\u003EInformationen f\u00fcr Besucher\u003C\/a\u003E\r\n          \u003C\/li\u003E\r\n          \u003Cli\u003E\r\n            \u003Ca href=\u0022#\u0022 lang=\u0022pt\u0022 title=\u0022pt\u0022 tabindex=\u00226\u0022\u003EInforma\u00e7\u00f5es para os visitantes\u003C\/a\u003E\r\n          \u003C\/li\u003E\r\n          \u003Cli\u003E\r\n            \u003Ca href=\u0022#\u0022 lang=\u0022ru\u0022 title=\u0022ru\u0022 tabindex=\u00226\u0022\u003E\u0418\u043d\u0444\u043e\u0440\u043c\u0430\u0446\u0438\u044f \u0434\u043b\u044f \u043f\u043e\u0441\u0435\u0442\u0438\u0442\u0435\u043b\u0435\u0439\u003C\/a\u003E\r\n          \u003C\/li\u003E\r\n          \u003Cli\u003E\r\n            \u003Ca href=\u0022#\u0022 lang=\u0022jp\u0022 title=\u0022jp\u0022 tabindex=\u00226\u0022\u003E\u30d3\u30b8\u30bf\u30fc\u00b7\u30a4\u30f3\u30d5\u30a9\u30e1\u30fc\u30b7\u30e7\u30f3\u003C\/a\u003E\r\n          \u003C\/li\u003E\r\n          \u003Cli\u003E\r\n            \u003Ca href=\u0022#\u0022 lang=\u0022zh\u0022 title=\u0022zh\u0022 tabindex=\u00226\u0022\u003E\u904a\u5ba2\u4fe1\u606f\u003C\/a\u003E\r\n          \u003C\/li\u003E\r\n        \u003C\/ul\u003E --\u003E\r\n        \u003Ca href=\u0022javascript:;\u0022 class=\u0022bcnbrand-close\u0022 title=\u0022Tanca\u0022\r\n           aria-label=\u0022Tanca\u0022 aria-expanded=\u0022false\u0022\r\n           aria-controls=\u0022bcnbrand-lang-mobile-nav\u0022 data-ga=\u0022Tanca-Idioma\u0022 tabindex=\u00227\u0022\u003E\r\n          \u003Cspan class=\u0022bcnbrand-icon bcn-icon-tancar-light\u0022 aria-hidden=\u0022true\u0022\u003E\u003C\/span\u003E\r\n        \u003C\/a\u003E\r\n      \u003C\/nav\u003E\r\n    \u003C\/div\u003E\r\n  \u003C\/div\u003E\r\n\u003C\/header\u003E"},"user":{"uid":0,"permissionsHash":"a23cb1edec3dacb9256f70ca91b9fe85a25921796f7ffd1b7cdf7d78ba909669"}}</script>
<script src="/core/assets/vendor/jquery/jquery.min.js?v=3.5.1"></script>
<script src="/core/assets/vendor/jquery-once/jquery.once.min.js?v=2.2.3"></script>
<script src="/core/misc/drupalSettingsLoader.js?v=8.9.6"></script>
<script src="/sites/default/files/languages/ca_DtzEFYWtNLEPljrJl6taGBLASclkY_sJaohDQ-Tv0do.js?qhrozu"></script>
<script src="/core/misc/drupal.js?v=8.9.6"></script>
<script src="/core/misc/drupal.init.js?v=8.9.6"></script>
<script async="" src="https://static.addtoany.com/menu/page.js"></script>
<script src="/modules/contrib/addtoany/js/addtoany.js?v=8.9.6"></script>
<script src="/themes/bicing/assets/libs/maxheight.js?qhrozu"></script>
<script src="/themes/bicing/assets/responsive.js?qhrozu"></script>
<script src="/themes/bicing/assets/script.js?qhrozu"></script>
<script src="/core/assets/vendor/jquery-form/jquery.form.min.js?v=4.22"></script>
<script src="/core/misc/progress.js?v=8.9.6"></script>
<script src="/core/misc/ajax.js?v=8.9.6"></script>
<script src="/core/modules/views/js/base.js?v=8.9.6"></script>
<script src="/core/modules/views/js/ajax_view.js?v=8.9.6"></script>
<script src="/themes/bicing/libs/slick/slick.js?qhrozu"></script>
<script src="/themes/bicing/assets/libs/bsm_chatbox/scripts/config.js?qhrozu"></script>
<script src="/themes/bicing/assets/libs/bsm_chatbox/scripts/app.js?qhrozu"></script>
<script src="/modules/custom/bcn/bcn_barra/js/bcn_barra_init.js?v=1.x"></script>
</body>
</html>
