<html><head>
<title>Access Denied</title>
</head><body>
<h1>Access Denied</h1>
 
You don't have permission to access "http://www.bigtallfanatics.com/" on this server.<p>
Reference #18.877a19b8.1610597935.7a85b92
</p></body>
</html>
