<!DOCTYPE html>
<html lang="en">
<head>
<title>Online Road, BMX, Mountain Bike Parts And Bicycle Accessories USA  | Bikeparts.Com</title>
<meta charset="utf-8"/>
<!--[if IE]>
        <meta http-equiv="X-UA-Compatible" content="IE=Edge,chrome=1">
    <![endif]-->
<meta content="width=device-width, initial-scale=1.0" name="viewport"/>
<meta content="Bikeparts.com is an online bike store specializing in mountain bike, road bike, and BMX bike parts and accessories. Call: 1-888-606-1616." name="description"/>
<meta content="https://plus.google.com/100971877849702083293" name="publisher"/>
<meta content="© 1998-2021 BikeParts.com, Inc. All Rights Reserved" name="copyright"/>
<meta content="webutation4426944eaccd880cc22e574d893640ed" name="webutation-site-verification"/>
<link href="/dist/site.min.css?v=1.0.0.626" rel="stylesheet"/>
<!-- Google Web Fonts -->
<link href="//fonts.googleapis.com/css?family=Roboto+Condensed:300italic,400italic,700italic,400,300,700" rel="stylesheet" type="text/css"/>
<link href="//fonts.googleapis.com/css?family=Open+Sans:300italic,400italic,600italic,700italic,800italic,400,300,600,700,800' rel='stylesheet' type='text/css"/>
<!--[if lt IE 9]>
        <script src="/Scripts/ie8-responsive-file-warning.js"></script>
    <![endif]-->
<!-- HTML5 Shim and Respond.js IE8 support of HTML5 elements and media queries -->
<!-- WARNING: Respond.js doesn't work if you view the page via file:// -->
<!--[if lt IE 9]>
        <script src="https://oss.maxcdn.com/libs/html5shiv/3.7.0/html5shiv.js"></script>
        <script src="https://oss.maxcdn.com/libs/respond.js/1.4.2/respond.min.js"></script>
    <![endif]-->
<!-- Fav and touch icons -->
<link href="/favicon.ico" rel="apple-touch-icon-precomposed" sizes="144x144"/>
<link href="/favicon.ico" rel="apple-touch-icon-precomposed" sizes="114x114"/>
<link href="/favicon.ico" rel="apple-touch-icon-precomposed" sizes="72x72"/>
<link href="/favicon.ico" rel="apple-touch-icon-precomposed"/>
<link href="/favicon.ico" rel="shortcut icon"/>
<script>
            (function(i, s, o, g, r, a, m) {
                i['GoogleAnalyticsObject'] = r;
                i[r] = i[r] || function() {
                    (i[r].q = i[r].q || []).push(arguments)
                }, i[r].l = 1 * new Date();
                a = s.createElement(o),
                    m = s.getElementsByTagName(o)[0];
                    a.async = 1;
                    a.src = g;
                    m.parentNode.insertBefore(a, m)
            })(window, document, 'script', '//www.google-analytics.com/analytics.js', 'ga');

            ga('create', 'UA-2625416-1', 'auto');
            ga('send', 'pageview');
            
        </script>
<script>(function (w, d, t, r, u) { var f, n, i; w[u] = w[u] || [], f = function () { var o = { ti: "5129802" }; o.q = w[u], w[u] = new UET(o), w[u].push("pageLoad") }, n = d.createElement(t), n.src = r, n.async = 1, n.onload = n.onreadystatechange = function () { var s = this.readyState; s && s !== "loaded" && s !== "complete" || (f(), n.onload = n.onreadystatechange = null) }, i = d.getElementsByTagName(t)[0], i.parentNode.insertBefore(n, i) })(window, document, "script", "//bat.bing.com/bat.js", "uetq");</script>
<noscript><img height="0" src="//bat.bing.com/action/0?ti=5129802&amp;Ver=2" style="display:none; visibility: hidden;" width="0"/></noscript>
<script>
            !function (f, b, e, v, n, t, s) {
                if (f.fbq) return; n = f.fbq = function () {
                    n.callMethod ?
                    n.callMethod.apply(n, arguments) : n.queue.push(arguments)
                }; if (!f._fbq) f._fbq = n;
                n.push = n; n.loaded = !0; n.version = '2.0'; n.queue = []; t = b.createElement(e); t.async = !0;
                t.src = v; s = b.getElementsByTagName(e)[0]; s.parentNode.insertBefore(t, s)
            }(window,
                document, 'script', '//connect.facebook.net/en_US/fbevents.js');

            fbq('init', '1741970986033316');
            fbq('track', "PageView");
        </script>
<noscript>
<img height="1" src="https://www.facebook.com/tr?id=1741970986033316&amp;ev=PageView&amp;noscript=1" style="display:none" width="1"/>
</noscript>
</head>
<body>
<div class="container" id="wrapper">
<!-- Header Section Starts -->
<header class="hidden-print" id="header-area">
<!-- Nested Row Starts -->
<div class="row">
<!-- Logo Starts -->
<div class="col-md-4 col-xs-6 logo-container">
<div id="logo">
<a href="/"><img alt="Bikeparts logo" class="img-responsive" src="/Content/images/logo.jpg?v=1.0.0.626" title="Bikeparts"/></a>
</div>
</div>
<!-- Account md/lg-->
<div class="col-md-4 hidden-sm hidden-xs pull-right account-md-lg text-right">
<span class="home-contact-info">Contact: 888.606.1616 10-6 M-F, 10-5 Sat MST</span>
<br/>
<span class="" data-return-url="/" id="Welcome">

                         
                    </span>
</div>
<!-- Account/Cart sm/xs -->
<div class="hidden-lg hidden-md col-xs-3 pull-right account-sm-xs">
<div class="text-center" style="border-right: 1px solid grey; display: inline-block; padding-right: 4px;">
<p>
<a href="/Account/Index">
<i class="fa fa-3x fa-user"></i><br/>
<b>Account</b>
</a>
</p>
</div>
<div class="text-center" style="display: inline-block; margin-left: -2px;">
<p>
<a href="/Cart/Index">
<i class="fa fa-3x fa-shopping-cart"></i><span class="mobile-cart-quantity" id="mobile-cart-qty"></span><br/>
<b>Cart</b>
</a>
</p>
</div>
</div>
<!-- Free shipping-->
<div class="">
<div class="clearfix visible-xxs"></div>
<p class="free-shipping-header">
<a class="" data-target="#free-shipping-modal" data-toggle="modal" href="#" style="text-decoration: underline;">
<span style="color: #cd2026;">*FREE</span> Shipping orders over $75
                        </a>
<br/>
<a class="" data-target="#covid-19-modal" data-toggle="modal" href="#">
<span style="color: #cd2026;">COVID-19 Update</span> - Learn More
                        </a>
</p>
</div>
</div>
<div class="row">
<!-- Search -->
<div class="col-md-8 col-xs-12">
<div id="search">
<div class="input-group">
<input aria-label="Search all categories" class="form-control input-lg" id="txtMainSearch" placeholder="Search all categories" type="text"/>
<span class="input-group-btn" id="btnMainSearch">
<button aria-label="Search" class="btn btn-lg" type="button">
<i class="fa fa-search"></i>
</button>
</span>
</div>
</div>
</div>
<!-- Shopping Cart Starts -->
<div class="col-md-4 hidden-xs hidden-sm">
<div class="btn-group btn-block" id="cart">
</div>
</div>
</div>
</header>
<!-- Header Section Ends -->
<!-- Main Menu Starts -->
<nav class="menu navbar yamm hidden-print" id="main-menu" role="navigation">
<!-- Nav Header Starts -->
<div class="navbar-header navbar-left">
<div class="nav-separator"></div>
<button class="btn btn-navbar navbar-toggle" data-target=".navbar-cat-collapse" data-toggle="collapse" type="button">
<i class="fa fa-bars"></i>
<span style="margin-left: 4px;">SHOP</span>
</button>
</div>
<div class="nav-header-bottom"></div>
<!-- Nav Header Ends -->
<!--Desktop menu starts-->
<ul class="nav navbar-nav" id="menu-desktop">
<li class="dropdown yamm-fullwidth">
<a class="dropdown-toggle" data-delay="10" data-hover="dropdown" href="/categories/bike-parts-components/">Bike Parts &amp; Components</a>
<ul class="dropdown-menu">
<li>
<div class="yamm-content">
<div class="row">
<ul class="col-sm-2 list-unstyled">
<li class="dropdown-header"><a href="/categories/bike-parts-components/drivetrain-parts/" tabindex="-1">DRIVETRAIN Parts</a></li>
<li><a href="/categories/bike-parts-components/drivetrain-parts/cassettes-cogs-freewheels/" tabindex="-1">Cassettes, Cogs &amp; Freewheels</a></li>
<li><a href="/categories/bike-parts-components/drivetrain-parts/chainrings-and-chainwheels/" tabindex="-1">Chainrings and Chainwheels</a></li>
<li><a href="/categories/bike-parts-components/drivetrain-parts/derailleurs/" tabindex="-1">Derailleurs</a></li>
<li><a href="/categories/bike-parts-components/drivetrain-parts/" tabindex="-1">More...</a></li>
</ul>
<ul class="col-sm-2 list-unstyled">
<li class="dropdown-header"><a href="/categories/bike-parts-components/shifters/" tabindex="-1">Shifters</a></li>
<li><a href="/categories/bike-parts-components/shifters/shifters/" tabindex="-1">Shifters</a></li>
<li><a href="/categories/bike-parts-components/shifters/shifter-brake-combos/" tabindex="-1">Shifter/Brake Combos</a></li>
<li><a href="/categories/bike-parts-components/shifters/shifter-parts/" tabindex="-1">Shifter Parts</a></li>
</ul>
<ul class="col-sm-2 list-unstyled">
<li class="dropdown-header"><a href="/categories/bike-parts-components/brakes/" tabindex="-1">Brakes</a></li>
<li><a href="/categories/bike-parts-components/brakes/disc-brakes/" tabindex="-1">Disc Brakes</a></li>
<li><a href="/categories/bike-parts-components/brakes/rim-brakes/" tabindex="-1">Rim Brakes</a></li>
<li><a href="/categories/bike-parts-components/brakes/brake-parts-bmx-gyro/" tabindex="-1">Brake Parts - BMX Gyro</a></li>
<li><a href="/categories/bike-parts-components/brakes/" tabindex="-1">More...</a></li>
</ul>
<ul class="col-sm-2 list-unstyled">
<li class="dropdown-header"><a href="/categories/bike-parts-components/tires-tubes/" tabindex="-1">Tires &amp; Tubes</a></li>
<li><a href="/categories/bike-parts-components/tires-tubes/tires/" tabindex="-1">Tires</a></li>
<li><a href="/categories/bike-parts-components/tires-tubes/tubes/" tabindex="-1">Tubes</a></li>
<li><a href="/categories/bike-parts-components/tires-tubes/tube-protection-and-repair/" tabindex="-1">Tube Protection and Repair</a></li>
<li><a href="/categories/bike-parts-components/tires-tubes/" tabindex="-1">More...</a></li>
</ul>
<ul class="col-sm-2 list-unstyled">
<li class="dropdown-header"><a href="/categories/bike-parts-components/wheels-rims-spokes/" tabindex="-1">Wheels, Rims, Spokes</a></li>
<li><a href="/categories/bike-parts-components/wheels-rims-spokes/wheels/" tabindex="-1">Wheels</a></li>
<li><a href="/categories/bike-parts-components/wheels-rims-spokes/rims/" tabindex="-1">Rims</a></li>
<li><a href="/categories/bike-parts-components/wheels-rims-spokes/spokes/" tabindex="-1">Spokes</a></li>
</ul>
</div>
<div class="row">
<ul class="col-sm-2 list-unstyled">
<li class="dropdown-header"><a href="/categories/bike-parts-components/handlebars-aerobars-bar-ends/" tabindex="-1">Handlebars, Aerobars, Bar Ends</a></li>
<li><a href="/categories/bike-parts-components/handlebars-aerobars-bar-ends/handlebars/" tabindex="-1">Handlebars</a></li>
<li><a href="/categories/bike-parts-components/handlebars-aerobars-bar-ends/handlebar-tape/" tabindex="-1">Handlebar Tape</a></li>
<li><a href="/categories/bike-parts-components/handlebars-aerobars-bar-ends/aero-bars-parts-levers/" tabindex="-1">Aero Bars, Parts, Levers</a></li>
<li><a href="/categories/bike-parts-components/handlebars-aerobars-bar-ends/" tabindex="-1">More...</a></li>
</ul>
<ul class="col-sm-2 list-unstyled">
<li class="dropdown-header"><a href="/categories/bike-parts-components/stems/" tabindex="-1">Stems</a></li>
<li><a href="/categories/bike-parts-components/stems/stems-risers-adaptors-parts/" tabindex="-1">Stems -  Risers, Adaptors, Parts</a></li>
<li><a href="/categories/bike-parts-components/stems/stems/" tabindex="-1">Stems</a></li>
</ul>
<ul class="col-sm-2 list-unstyled">
<li class="dropdown-header"><a href="/categories/bike-parts-components/seatposts/" tabindex="-1">Seatposts</a></li>
<li><a href="/categories/bike-parts-components/seatposts/seatposts/" tabindex="-1">Seatposts</a></li>
<li><a href="/categories/bike-parts-components/seatposts/seatpost-clamps/" tabindex="-1">Seatpost Clamps</a></li>
<li><a href="/categories/bike-parts-components/seatposts/suspension-dropper-posts/" tabindex="-1">Suspension &amp; Dropper Posts</a></li>
<li><a href="/categories/bike-parts-components/seatposts/" tabindex="-1">More...</a></li>
</ul>
<ul class="col-sm-2 list-unstyled">
<li class="dropdown-header"><a href="/categories/bike-parts-components/saddles/" tabindex="-1">Saddles</a></li>
<li><a href="/categories/bike-parts-components/saddles/saddles/" tabindex="-1">Saddles</a></li>
<li><a href="/categories/bike-parts-components/saddles/saddles-care-covers-parts/" tabindex="-1">Saddles - Care, Covers, Parts</a></li>
</ul>
<ul class="col-sm-2 list-unstyled">
<li class="dropdown-header"><a href="/categories/bike-parts-components/pedals/" tabindex="-1">Pedals</a></li>
<li><a href="/categories/bike-parts-components/pedals/pedals/" tabindex="-1">Pedals</a></li>
<li><a href="/categories/bike-parts-components/pedals/pedal-parts-cleats-parts-toe-clips/" tabindex="-1">Pedal Parts -  Cleats, Parts, Toe Clips</a></li>
</ul>
</div>
<div class="row">
<ul class="col-sm-2 list-unstyled">
<li class="dropdown-header"><a href="/categories/bike-parts-components/frames-frameparts/" tabindex="-1">Frames &amp; Frameparts</a></li>
<li><a href="/categories/bike-parts-components/frames-frameparts/frames/" tabindex="-1">Frames</a></li>
<li><a href="/categories/bike-parts-components/frames-frameparts/frame-protection/" tabindex="-1">Frame Protection</a></li>
<li><a href="/categories/bike-parts-components/frames-frameparts/frameparts-and-derailleur-hangers/" tabindex="-1">Frameparts and Derailleur Hangers</a></li>
</ul>
<ul class="col-sm-2 list-unstyled">
<li class="dropdown-header"><a href="/categories/bike-parts-components/build-kits-groupos/" tabindex="-1">Build Kits &amp; Groupos</a></li>
<li><a href="/categories/bike-parts-components/build-kits-groupos/build-groupos-drivetrains/" tabindex="-1">Build Groupos - Drivetrains</a></li>
<li><a href="/categories/bike-parts-components/build-kits-groupos/build-kits-(bars-stem-etc)/" tabindex="-1">Build Kits (bars, stem etc.)</a></li>
</ul>
<ul class="col-sm-2 list-unstyled">
<li class="dropdown-header"><a href="/categories/bike-parts-components/forks/" tabindex="-1">Forks</a></li>
<li><a href="/categories/bike-parts-components/forks/forks-suspension/" tabindex="-1">Forks - Suspension</a></li>
<li><a href="/categories/bike-parts-components/forks/forks-rigid/" tabindex="-1">Forks - Rigid</a></li>
<li><a href="/categories/bike-parts-components/forks/fork-maintenance-and-service-parts/" tabindex="-1">Fork Maintenance and Service Parts</a></li>
<li><a href="/categories/bike-parts-components/forks/" tabindex="-1">More...</a></li>
</ul>
<ul class="col-sm-2 list-unstyled">
<li class="dropdown-header"><a href="/categories/bike-parts-components/rear-shocks/" tabindex="-1">Rear Shocks</a></li>
<li><a href="/categories/bike-parts-components/rear-shocks/frame-shocks/" tabindex="-1">Frame Shocks</a></li>
<li><a href="/categories/bike-parts-components/rear-shocks/frame-shock-hardware/" tabindex="-1">Frame Shock Hardware</a></li>
<li><a href="/categories/bike-parts-components/rear-shocks/frame-shock-service-parts/" tabindex="-1">Frame Shock Service Parts</a></li>
<li><a href="/categories/bike-parts-components/rear-shocks/" tabindex="-1">More...</a></li>
</ul>
<ul class="col-sm-2 list-unstyled">
<li class="dropdown-header"><a href="/categories/bike-parts-components/headsets/" tabindex="-1">Headsets</a></li>
<li><a href="/categories/bike-parts-components/headsets/headsets/" tabindex="-1">Headsets</a></li>
<li><a href="/categories/bike-parts-components/headsets/headset-parts/" tabindex="-1">Headset Parts</a></li>
</ul>
</div>
<div class="row">
<ul class="col-sm-2 list-unstyled">
<li class="dropdown-header"><a href="/categories/bike-parts-components/cables-housing-and-parts/" tabindex="-1">Cables, Housing, and Parts</a></li>
<li><a href="/categories/bike-parts-components/cables-housing-and-parts/cables-and-housing/" tabindex="-1">Cables and Housing</a></li>
<li><a href="/categories/bike-parts-components/cables-housing-and-parts/adjusters-caps-ferrules-parts/" tabindex="-1">Adjusters, Caps, Ferrules, Parts</a></li>
<li><a href="/categories/bike-parts-components/cables-housing-and-parts/hangers-stops-guides-pulleys/" tabindex="-1">Hangers, Stops, Guides, Pulleys</a></li>
</ul>
<ul class="col-sm-2 list-unstyled">
<li class="dropdown-header"><a href="/categories/bike-parts-components/hubs/" tabindex="-1">Hubs</a></li>
<li><a href="/categories/bike-parts-components/hubs/hubs/" tabindex="-1">Hubs</a></li>
<li><a href="/categories/bike-parts-components/hubs/hub-parts/" tabindex="-1">Hub Parts</a></li>
</ul>
<ul class="col-sm-2 list-unstyled">
<li class="dropdown-header"><a href="/categories/bike-parts-components/quick-releases-thru-axles/" tabindex="-1">Quick Releases &amp; Thru-axles</a></li>
</ul>
<ul class="col-sm-2 list-unstyled">
<li class="dropdown-header"><a href="/categories/bike-parts-components/bearings/" tabindex="-1">Bearings</a></li>
</ul>
<ul class="col-sm-2 list-unstyled">
<li class="dropdown-header"><a href="/categories/bike-parts-components/electric-powered-bike-parts/" tabindex="-1">Electric Powered Bike Parts</a></li>
</ul>
</div>
<div class="row">
<ul class="col-sm-2 list-unstyled">
<li class="dropdown-header"><a href="/categories/bike-parts-components/unicycles-and-parts/" tabindex="-1">Unicycles and  Parts</a></li>
</ul>
</div>
</div>
</li>
</ul>
</li>
<li class="dropdown yamm-fullwidth">
<a class="dropdown-toggle" data-delay="10" data-hover="dropdown" href="/categories/cycling-accessories/">Cycling Accessories</a>
<ul class="dropdown-menu">
<li>
<div class="yamm-content">
<div class="row">
<ul class="col-sm-2 list-unstyled">
<li class="dropdown-header"><a href="/categories/cycling-accessories/gift-ideas/" tabindex="-1">Gift Ideas</a></li>
<li><a href="/categories/cycling-accessories/gift-ideas/gloves/" tabindex="-1">Gloves</a></li>
<li><a href="/categories/cycling-accessories/gift-ideas/socks/" tabindex="-1">Socks</a></li>
<li><a href="/categories/cycling-accessories/gift-ideas/pint-glasses-mugs-and-thermos/" tabindex="-1">Pint Glasses, Mugs and Thermos</a></li>
<li><a href="/categories/cycling-accessories/gift-ideas/" tabindex="-1">More...</a></li>
</ul>
<ul class="col-sm-2 list-unstyled">
<li class="dropdown-header"><a href="/categories/cycling-accessories/pumps-and-inflation/" tabindex="-1">Pumps and Inflation</a></li>
<li><a href="/categories/cycling-accessories/pumps-and-inflation/pumps-co2/" tabindex="-1">Pumps - CO2</a></li>
<li><a href="/categories/cycling-accessories/pumps-and-inflation/pumps-frame-portable/" tabindex="-1">Pumps - Frame, Portable</a></li>
<li><a href="/categories/cycling-accessories/pumps-and-inflation/pumps-floor/" tabindex="-1">Pumps - Floor</a></li>
<li><a href="/categories/cycling-accessories/pumps-and-inflation/" tabindex="-1">More...</a></li>
</ul>
<ul class="col-sm-2 list-unstyled">
<li class="dropdown-header"><a href="/categories/cycling-accessories/bags/" tabindex="-1">Bags</a></li>
<li><a href="/categories/cycling-accessories/bags/bags-seat-handlebar-frame/" tabindex="-1">Bags - Seat, Handlebar, Frame</a></li>
<li><a href="/categories/cycling-accessories/bags/bags-pannier-and-trunk/" tabindex="-1">Bags - Pannier and Trunk</a></li>
<li><a href="/categories/cycling-accessories/bags/phone-mounts-bags/" tabindex="-1">Phone Mounts &amp; Bags</a></li>
<li><a href="/categories/cycling-accessories/bags/" tabindex="-1">More...</a></li>
</ul>
<ul class="col-sm-2 list-unstyled">
<li class="dropdown-header"><a href="/categories/cycling-accessories/bar-mittens-pogies/" tabindex="-1">Bar Mittens/Pogies</a></li>
</ul>
<ul class="col-sm-2 list-unstyled">
<li class="dropdown-header"><a href="/categories/cycling-accessories/racks/" tabindex="-1">Racks</a></li>
<li><a href="/categories/cycling-accessories/racks/bike-racks-pannier-touring/" tabindex="-1">Bike Racks - Pannier, Touring</a></li>
<li><a href="/categories/cycling-accessories/racks/bike-storage-indoor-outdoor-racks/" tabindex="-1">Bike Storage, Indoor/Outdoor Racks</a></li>
<li><a href="/categories/cycling-accessories/racks/car-rack-parts-bars-locks-pads-etc/" tabindex="-1">Car Rack Parts -  Bars, Locks, Pads, Etc.</a></li>
<li><a href="/categories/cycling-accessories/racks/" tabindex="-1">More...</a></li>
</ul>
</div>
<div class="row">
<ul class="col-sm-2 list-unstyled">
<li class="dropdown-header"><a href="/categories/cycling-accessories/electronics-computers/" tabindex="-1">Electronics &amp; Computers</a></li>
<li><a href="/categories/cycling-accessories/electronics-computers/computers-gps-hrms-bike-mounted/" tabindex="-1">Computers/GPS/HRMs - Bike Mounted</a></li>
<li><a href="/categories/cycling-accessories/electronics-computers/computers-gps-hrms-wrist-worn/" tabindex="-1">Computers/GPS/HRMs - Wrist-Worn</a></li>
<li><a href="/categories/cycling-accessories/electronics-computers/computers-gps-hrms-parts-mounts/" tabindex="-1">Computers/GPS/HRMs - Parts, Mounts</a></li>
<li><a href="/categories/cycling-accessories/electronics-computers/" tabindex="-1">More...</a></li>
</ul>
<ul class="col-sm-2 list-unstyled">
<li class="dropdown-header"><a href="/categories/cycling-accessories/dvds-books-maps-gifts/" tabindex="-1">DVDs, Books, Maps, Gifts</a></li>
<li><a href="/categories/cycling-accessories/dvds-books-maps-gifts/books-and-maps/" tabindex="-1">Books and Maps</a></li>
<li><a href="/categories/cycling-accessories/dvds-books-maps-gifts/gifts-goodies-and-more/" tabindex="-1">Gifts, Goodies and More</a></li>
<li><a href="/categories/cycling-accessories/dvds-books-maps-gifts/pint-glasses-mugs-and-thermos/" tabindex="-1">Pint Glasses, Mugs and Thermos</a></li>
<li><a href="/categories/cycling-accessories/dvds-books-maps-gifts/" tabindex="-1">More...</a></li>
</ul>
<ul class="col-sm-2 list-unstyled">
<li class="dropdown-header"><a href="/categories/cycling-accessories/food-skin-care/" tabindex="-1">Food/Skin Care</a></li>
<li><a href="/categories/cycling-accessories/food-skin-care/nutrition-bars-gel-drinks/" tabindex="-1">Nutrition - Bars, Gel, Drinks</a></li>
<li><a href="/categories/cycling-accessories/food-skin-care/sunscreen-and-skin-care/" tabindex="-1">Sunscreen and Skin Care</a></li>
<li><a href="/categories/cycling-accessories/food-skin-care/first-aid-survival-kits/" tabindex="-1">First Aid &amp; Survival Kits</a></li>
<li><a href="/categories/cycling-accessories/food-skin-care/" tabindex="-1">More...</a></li>
</ul>
<ul class="col-sm-2 list-unstyled">
<li class="dropdown-header"><a href="/categories/cycling-accessories/water-hydration/" tabindex="-1">Water/Hydration</a></li>
<li><a href="/categories/cycling-accessories/water-hydration/water-bottles-containers/" tabindex="-1">Water Bottles &amp; Containers</a></li>
<li><a href="/categories/cycling-accessories/water-hydration/water-bottle-cages/" tabindex="-1">Water Bottle Cages</a></li>
<li><a href="/categories/cycling-accessories/water-hydration/hydration-packs/" tabindex="-1">Hydration Packs</a></li>
<li><a href="/categories/cycling-accessories/water-hydration/" tabindex="-1">More...</a></li>
</ul>
<ul class="col-sm-2 list-unstyled">
<li class="dropdown-header"><a href="/categories/cycling-accessories/grips-tape-plugs/" tabindex="-1">Grips, Tape &amp; Plugs</a></li>
<li><a href="/categories/cycling-accessories/grips-tape-plugs/grips/" tabindex="-1">Grips</a></li>
<li><a href="/categories/cycling-accessories/grips-tape-plugs/handlebar-tape/" tabindex="-1">Handlebar Tape</a></li>
<li><a href="/categories/cycling-accessories/grips-tape-plugs/handlebar-plugs/" tabindex="-1">Handlebar Plugs</a></li>
</ul>
</div>
<div class="row">
<ul class="col-sm-2 list-unstyled">
<li class="dropdown-header"><a href="/categories/cycling-accessories/bmx-pads-pegs-plates/" tabindex="-1">BMX Pads, Pegs &amp; Plates</a></li>
<li><a href="/categories/cycling-accessories/bmx-pads-pegs-plates/bmx-pegs/" tabindex="-1">BMX Pegs</a></li>
<li><a href="/categories/cycling-accessories/bmx-pads-pegs-plates/bmx-padsets/" tabindex="-1">BMX Padsets</a></li>
<li><a href="/categories/cycling-accessories/bmx-pads-pegs-plates/number-plates/" tabindex="-1">Number Plates</a></li>
</ul>
<ul class="col-sm-2 list-unstyled">
<li class="dropdown-header"><a href="/categories/cycling-accessories/random-stuff/" tabindex="-1">Random Stuff</a></li>
<li><a href="/categories/cycling-accessories/random-stuff/camping-equipment/" tabindex="-1">Camping Equipment</a></li>
<li><a href="/categories/cycling-accessories/random-stuff/disc-golf/" tabindex="-1">Disc Golf</a></li>
<li><a href="/categories/cycling-accessories/random-stuff/dog-gear/" tabindex="-1">Dog Gear</a></li>
<li><a href="/categories/cycling-accessories/random-stuff/" tabindex="-1">More...</a></li>
</ul>
<ul class="col-sm-2 list-unstyled">
<li class="dropdown-header"><a href="/categories/cycling-accessories/lights/" tabindex="-1">Lights</a></li>
<li><a href="/categories/cycling-accessories/lights/lights/" tabindex="-1">Lights</a></li>
<li><a href="/categories/cycling-accessories/lights/lights-parts/" tabindex="-1">Lights - Parts</a></li>
</ul>
<ul class="col-sm-2 list-unstyled">
<li class="dropdown-header"><a href="/categories/cycling-accessories/locks/" tabindex="-1">Locks</a></li>
<li><a href="/categories/cycling-accessories/locks/#pN=1&amp;f[]=3205pN=1&amp;f[]=3205" tabindex="-1">Cable Locks</a></li>
<li><a href="/categories/cycling-accessories/locks/#pN=1&amp;f[]=3206" tabindex="-1">Chain Locks</a></li>
<li><a href="/categories/cycling-accessories/locks/#pN=1&amp;f[]=3207" tabindex="-1">U-Locks</a></li>
</ul>
<ul class="col-sm-2 list-unstyled">
<li class="dropdown-header"><a href="/categories/cycling-accessories/mirrors/" tabindex="-1">Mirrors</a></li>
</ul>
</div>
<div class="row">
<ul class="col-sm-2 list-unstyled">
<li class="dropdown-header"><a href="/categories/cycling-accessories/baskets/" tabindex="-1">Baskets</a></li>
</ul>
<ul class="col-sm-2 list-unstyled">
<li class="dropdown-header"><a href="/categories/cycling-accessories/fenders/" tabindex="-1">Fenders</a></li>
</ul>
<ul class="col-sm-2 list-unstyled">
<li class="dropdown-header"><a href="/categories/cycling-accessories/trainers/" tabindex="-1">Trainers</a></li>
</ul>
<ul class="col-sm-2 list-unstyled">
<li class="dropdown-header"><a href="/categories/cycling-accessories/trailers-strollers/" tabindex="-1">Trailers &amp; Strollers</a></li>
<li><a href="/categories/cycling-accessories/trailers-strollers/strollers/" tabindex="-1">Strollers</a></li>
<li><a href="/categories/cycling-accessories/trailers-strollers/trailers/" tabindex="-1">Trailers</a></li>
</ul>
<ul class="col-sm-2 list-unstyled">
<li class="dropdown-header"><a href="/categories/cycling-accessories/travel-cases-parts/" tabindex="-1">Travel Cases/Parts</a></li>
</ul>
</div>
<div class="row">
<ul class="col-sm-2 list-unstyled">
<li class="dropdown-header"><a href="/categories/cycling-accessories/training-wheels/" tabindex="-1">Training Wheels</a></li>
</ul>
<ul class="col-sm-2 list-unstyled">
<li class="dropdown-header"><a href="/categories/cycling-accessories/kickstands/" tabindex="-1">Kickstands</a></li>
</ul>
<ul class="col-sm-2 list-unstyled">
<li class="dropdown-header"><a href="/categories/cycling-accessories/triathlete-gear-caps-goggles/" tabindex="-1">Triathlete - Gear, Caps, Goggles</a></li>
</ul>
<ul class="col-sm-2 list-unstyled">
<li class="dropdown-header"><a href="/categories/cycling-accessories/performance-therapy/" tabindex="-1">Performance Therapy</a></li>
</ul>
<ul class="col-sm-2 list-unstyled">
<li class="dropdown-header"><a href="/categories/cycling-accessories/reflectors-and-safety-gear/" tabindex="-1">Reflectors and Safety Gear</a></li>
</ul>
</div>
<div class="row">
<ul class="col-sm-2 list-unstyled">
<li class="dropdown-header"><a href="/categories/cycling-accessories/bells-and-horns/" tabindex="-1">Bells and Horns</a></li>
</ul>
<ul class="col-sm-2 list-unstyled">
<li class="dropdown-header"><a href="/categories/cycling-accessories/bar-ends/" tabindex="-1">Bar Ends</a></li>
</ul>
</div>
</div>
</li>
</ul>
</li>
<li class="dropdown">
<a class="dropdown-toggle" data-delay="10" data-hover="dropdown" href="/categories/complete-bicycles/">Complete Bicycles</a>
<ul class="dropdown-menu">
<li>
<div class="yamm-content">
<div class="row">
<ul class="col-sm-12 list-unstyled">
<li class="dropdown-header"><a href="/categories/complete-bicycles/all-bikes/" tabindex="-1">All Bikes</a></li>
</ul>
<ul class="col-sm-12 list-unstyled">
<li class="dropdown-header"><a href="/categories/complete-bicycles/all-bikes/#pN=1&amp;f[]=7488" tabindex="-1">BMX</a></li>
</ul>
<ul class="col-sm-12 list-unstyled">
<li class="dropdown-header"><a href="/categories/complete-bicycles/all-bikes/#pN=1&amp;f[]=7492" tabindex="-1">Cyclocross/Gravel</a></li>
</ul>
<ul class="col-sm-12 list-unstyled">
<li class="dropdown-header"><a href="/categories/complete-bicycles/all-bikes/#pN=1&amp;f[]=7498" tabindex="-1">Dirt Jump</a></li>
</ul>
<ul class="col-sm-12 list-unstyled">
<li class="dropdown-header"><a href="/categories/complete-bicycles/all-bikes/#pN=1&amp;f[]=7493" tabindex="-1">Electric Bikes</a></li>
</ul>
</div>
<div class="row">
<ul class="col-sm-12 list-unstyled">
<li class="dropdown-header"><a href="/categories/complete-bicycles/all-bikes/#pN=1&amp;f[]=7490" tabindex="-1">Fat Bikes</a></li>
</ul>
<ul class="col-sm-12 list-unstyled">
<li class="dropdown-header"><a href="/categories/complete-bicycles/all-bikes/#pN=1&amp;f[]=7497" tabindex="-1">Folding</a></li>
</ul>
<ul class="col-sm-12 list-unstyled">
<li class="dropdown-header"><a href="/categories/complete-bicycles/all-bikes/#pN=1&amp;f[]=7496" tabindex="-1">Hybrid/Commuter</a></li>
</ul>
<ul class="col-sm-12 list-unstyled">
<li class="dropdown-header"><a href="/categories/complete-bicycles/all-bikes/#pN=1&amp;f[]=7489" tabindex="-1">Mountain</a></li>
</ul>
<ul class="col-sm-12 list-unstyled">
<li class="dropdown-header"><a href="/categories/complete-bicycles/all-bikes/#pN=1&amp;f[]=7487" tabindex="-1">Road</a></li>
</ul>
</div>
<div class="row">
<ul class="col-sm-12 list-unstyled">
<li class="dropdown-header"><a href="/categories/complete-bicycles/all-bikes/#pN=1&amp;f[]=7494" tabindex="-1">Time Trial/Triathlon</a></li>
</ul>
<ul class="col-sm-12 list-unstyled">
<li class="dropdown-header"><a href="/categories/complete-bicycles/all-bikes/#pN=1&amp;f[]=7495" tabindex="-1">Touring</a></li>
</ul>
<ul class="col-sm-12 list-unstyled">
<li class="dropdown-header"><a href="/categories/complete-bicycles/all-bikes/#pN=1&amp;f[]=7499" tabindex="-1">Track</a></li>
</ul>
<ul class="col-sm-12 list-unstyled">
<li class="dropdown-header"><a href="/categories/complete-bicycles/all-bikes/#pN=1&amp;f[]=7491" tabindex="-1">Youth/Kids</a></li>
</ul>
</div>
</div>
</li>
</ul>
</li>
<li class="dropdown yamm-fullwidth">
<a class="dropdown-toggle" data-delay="10" data-hover="dropdown" href="/categories/cycling-apparel/">Cycling Apparel</a>
<ul class="dropdown-menu">
<li>
<div class="yamm-content">
<div class="row">
<ul class="col-sm-2 list-unstyled">
<li class="dropdown-header"><a href="/categories/cycling-apparel/gloves/" tabindex="-1">Gloves</a></li>
</ul>
<ul class="col-sm-2 list-unstyled">
<li class="dropdown-header"><a href="/categories/cycling-apparel/bar-mittens-pogies/" tabindex="-1">Bar Mittens/Pogies</a></li>
</ul>
<ul class="col-sm-2 list-unstyled">
<li class="dropdown-header"><a href="/categories/cycling-apparel/jerseys/" tabindex="-1">Jerseys</a></li>
<li><a href="/categories/cycling-apparel/jerseys/jerseys-mens/" tabindex="-1">Jerseys - Mens</a></li>
<li><a href="/categories/cycling-apparel/jerseys/jerseys-womens/" tabindex="-1">Jerseys - Womens</a></li>
<li><a href="/categories/cycling-apparel/jerseys/jerseys-sports-bras-tanks/" tabindex="-1">Jerseys - Sports Bras/Tanks</a></li>
</ul>
<ul class="col-sm-2 list-unstyled">
<li class="dropdown-header"><a href="/categories/cycling-apparel/shorts-and-skirts/" tabindex="-1">Shorts and Skirts</a></li>
<li><a href="/categories/cycling-apparel/shorts-and-skirts/shorts-mens-baggies/" tabindex="-1">Shorts - Mens Baggies</a></li>
<li><a href="/categories/cycling-apparel/shorts-and-skirts/shorts-womens-baggies/" tabindex="-1">Shorts - Womens Baggies</a></li>
<li><a href="/categories/cycling-apparel/shorts-and-skirts/shorts-mens-lycra/" tabindex="-1">Shorts - Mens Lycra</a></li>
<li><a href="/categories/cycling-apparel/shorts-and-skirts/" tabindex="-1">More...</a></li>
</ul>
<ul class="col-sm-2 list-unstyled">
<li class="dropdown-header"><a href="/categories/cycling-apparel/shoes/" tabindex="-1">Shoes</a></li>
<li><a href="/categories/cycling-apparel/shoes/shoes-cycling/" tabindex="-1">Shoes - Cycling</a></li>
<li><a href="/categories/cycling-apparel/shoes/shoes-running-and-casual/" tabindex="-1">Shoes - Running and Casual</a></li>
<li><a href="/categories/cycling-apparel/shoes/shoes-foot-beds/" tabindex="-1">Shoes - Foot Beds</a></li>
<li><a href="/categories/cycling-apparel/shoes/" tabindex="-1">More...</a></li>
</ul>
</div>
<div class="row">
<ul class="col-sm-2 list-unstyled">
<li class="dropdown-header"><a href="/categories/cycling-apparel/triathlete-gear/" tabindex="-1">Triathlete Gear</a></li>
<li><a href="/categories/cycling-apparel/triathlete-gear/hydration-triathlete-running-hiking/" tabindex="-1">Hydration - Triathlete/Running/Hiking</a></li>
<li><a href="/categories/cycling-apparel/triathlete-gear/triathlete-gear-caps-goggles/" tabindex="-1">Triathlete - Gear, Caps, Goggles</a></li>
<li><a href="/categories/cycling-apparel/triathlete-gear/triathlete-suits/" tabindex="-1">Triathlete - Suits</a></li>
<li><a href="/categories/cycling-apparel/triathlete-gear/" tabindex="-1">More...</a></li>
</ul>
<ul class="col-sm-2 list-unstyled">
<li class="dropdown-header"><a href="/categories/cycling-apparel/arm-leg-knee-warmers-coolers/" tabindex="-1">Arm, Leg, &amp; Knee Warmers/Coolers</a></li>
</ul>
<ul class="col-sm-2 list-unstyled">
<li class="dropdown-header"><a href="/categories/cycling-apparel/socks/" tabindex="-1">Socks</a></li>
</ul>
<ul class="col-sm-2 list-unstyled">
<li class="dropdown-header"><a href="/categories/cycling-apparel/booties-and-shoe-covers/" tabindex="-1">Booties and Shoe Covers</a></li>
</ul>
<ul class="col-sm-2 list-unstyled">
<li class="dropdown-header"><a href="/categories/cycling-apparel/base-layers/" tabindex="-1">Base Layers</a></li>
</ul>
</div>
<div class="row">
<ul class="col-sm-2 list-unstyled">
<li class="dropdown-header"><a href="/categories/cycling-apparel/compression-gear/" tabindex="-1">Compression Gear</a></li>
</ul>
<ul class="col-sm-2 list-unstyled">
<li class="dropdown-header"><a href="/categories/cycling-apparel/helmets/" tabindex="-1">Helmets</a></li>
<li><a href="/categories/cycling-apparel/helmets/helmet-parts-covers/" tabindex="-1">Helmet Parts &amp; Covers</a></li>
<li><a href="/categories/cycling-apparel/helmets/helmets/" tabindex="-1">Helmets</a></li>
</ul>
<ul class="col-sm-2 list-unstyled">
<li class="dropdown-header"><a href="/categories/cycling-apparel/hats-headbands-and-facemasks/" tabindex="-1">Hats, Headbands, and Facemasks</a></li>
</ul>
<ul class="col-sm-2 list-unstyled">
<li class="dropdown-header"><a href="/categories/cycling-apparel/eyewear/" tabindex="-1">Eyewear</a></li>
</ul>
<ul class="col-sm-2 list-unstyled">
<li class="dropdown-header"><a href="/categories/cycling-apparel/protective-gear/" tabindex="-1">Protective Gear</a></li>
</ul>
</div>
<div class="row">
<ul class="col-sm-2 list-unstyled">
<li class="dropdown-header"><a href="/categories/cycling-apparel/jackets-vests/" tabindex="-1">Jackets &amp; Vests</a></li>
<li><a href="/categories/cycling-apparel/jackets-vests/jackets/" tabindex="-1">Jackets</a></li>
<li><a href="/categories/cycling-apparel/jackets-vests/vests/" tabindex="-1">Vests</a></li>
</ul>
<ul class="col-sm-2 list-unstyled">
<li class="dropdown-header"><a href="/categories/cycling-apparel/pants/" tabindex="-1">Pants</a></li>
<li><a href="/categories/cycling-apparel/pants/pants/" tabindex="-1">Pants</a></li>
<li><a href="/categories/cycling-apparel/pants/pants-casual/" tabindex="-1">Pants - Casual</a></li>
</ul>
<ul class="col-sm-2 list-unstyled">
<li class="dropdown-header"><a href="/categories/cycling-apparel/tights-and-knickers/" tabindex="-1">Tights and Knickers</a></li>
</ul>
<ul class="col-sm-2 list-unstyled">
<li class="dropdown-header"><a href="/categories/cycling-apparel/running-tops/" tabindex="-1">Running Tops</a></li>
</ul>
<ul class="col-sm-2 list-unstyled">
<li class="dropdown-header"><a href="/categories/cycling-apparel/shirts/" tabindex="-1">Shirts</a></li>
</ul>
</div>
<div class="row">
<ul class="col-sm-2 list-unstyled">
<li class="dropdown-header"><a href="/categories/cycling-apparel/sweatshirts-sweaters-and-fleece/" tabindex="-1">Sweatshirts, Sweaters and Fleece</a></li>
</ul>
<ul class="col-sm-2 list-unstyled">
<li class="dropdown-header"><a href="/categories/cycling-apparel/aprons/" tabindex="-1">Aprons</a></li>
</ul>
<ul class="col-sm-2 list-unstyled">
<li class="dropdown-header"><a href="/categories/cycling-apparel/apparel-care/" tabindex="-1">Apparel Care</a></li>
</ul>
</div>
</div>
</li>
</ul>
</li>
<li class="dropdown yamm-fullwidth">
<a class="dropdown-toggle" data-delay="10" data-hover="dropdown" href="/categories/bike-maintenance/">Bike Maintenance</a>
<ul class="dropdown-menu">
<li>
<div class="yamm-content">
<div class="row">
<ul class="col-sm-2 list-unstyled">
<li class="dropdown-header"><a href="/categories/bike-maintenance/cables-housing/" tabindex="-1">Cables &amp; Housing</a></li>
<li><a href="/categories/bike-maintenance/cables-housing/cables-and-housing/" tabindex="-1">Cables and Housing</a></li>
<li><a href="/categories/bike-maintenance/cables-housing/hangers-stops-guides-pulleys/" tabindex="-1">Hangers, Stops, Guides, Pulleys</a></li>
<li><a href="/categories/bike-maintenance/cables-housing/adjusters-caps-ferrules-parts/" tabindex="-1">Adjusters, Caps, Ferrules, Parts</a></li>
</ul>
<ul class="col-sm-2 list-unstyled">
<li class="dropdown-header"><a href="/categories/bike-maintenance/brake-maintenance/" tabindex="-1">Brake Maintenance</a></li>
<li><a href="/categories/bike-maintenance/brake-maintenance/brake-pads-disc/" tabindex="-1">Brake Pads - Disc</a></li>
<li><a href="/categories/bike-maintenance/brake-maintenance/brake-pads-rim/" tabindex="-1">Brake Pads - Rim</a></li>
<li><a href="/categories/bike-maintenance/brake-maintenance/brake-fluids/" tabindex="-1">Brake Fluids</a></li>
<li><a href="/categories/bike-maintenance/brake-maintenance/" tabindex="-1">More...</a></li>
</ul>
<ul class="col-sm-2 list-unstyled">
<li class="dropdown-header"><a href="/categories/bike-maintenance/tire-tube-maintenance/" tabindex="-1">Tire &amp; Tube Maintenance</a></li>
<li><a href="/categories/bike-maintenance/tire-tube-maintenance/tube-protection-and-repair/" tabindex="-1">Tube Protection and Repair</a></li>
<li><a href="/categories/bike-maintenance/tire-tube-maintenance/ust-tubeless-parts/" tabindex="-1">UST/Tubeless Parts</a></li>
<li><a href="/categories/bike-maintenance/tire-tube-maintenance/tire-and-tube-tools/" tabindex="-1">Tire and Tube Tools</a></li>
<li><a href="/categories/bike-maintenance/tire-tube-maintenance/" tabindex="-1">More...</a></li>
</ul>
<ul class="col-sm-2 list-unstyled">
<li class="dropdown-header"><a href="/categories/bike-maintenance/suspension-maintenance/" tabindex="-1">Suspension Maintenance</a></li>
<li><a href="/categories/bike-maintenance/suspension-maintenance/fork-maintenance-and-service-parts/" tabindex="-1">Fork Maintenance and Service Parts</a></li>
<li><a href="/categories/bike-maintenance/suspension-maintenance/shock-oil/" tabindex="-1">Shock Oil</a></li>
<li><a href="/categories/bike-maintenance/suspension-maintenance/frame-shock-service-parts/" tabindex="-1">Frame Shock Service Parts</a></li>
<li><a href="/categories/bike-maintenance/suspension-maintenance/" tabindex="-1">More...</a></li>
</ul>
<ul class="col-sm-2 list-unstyled">
<li class="dropdown-header"><a href="/categories/bike-maintenance/component-small-parts/" tabindex="-1">Component Small Parts</a></li>
<li><a href="/categories/bike-maintenance/component-small-parts/belt-drive-parts/" tabindex="-1">Belt Drive Parts</a></li>
<li><a href="/categories/bike-maintenance/component-small-parts/cassettes-lockrings-spacers-cogs/" tabindex="-1">Cassettes - Lockrings, Spacers, Cogs</a></li>
<li><a href="/categories/bike-maintenance/component-small-parts/bottom-bracket-parts/" tabindex="-1">Bottom Bracket Parts</a></li>
<li><a href="/categories/bike-maintenance/component-small-parts/" tabindex="-1">More...</a></li>
</ul>
</div>
<div class="row">
<ul class="col-sm-2 list-unstyled">
<li class="dropdown-header"><a href="/categories/bike-maintenance/lube/" tabindex="-1">Lube</a></li>
</ul>
<ul class="col-sm-2 list-unstyled">
<li class="dropdown-header"><a href="/categories/bike-maintenance/degreasers-cleaners-brushes/" tabindex="-1">Degreasers, Cleaners, Brushes</a></li>
</ul>
<ul class="col-sm-2 list-unstyled">
<li class="dropdown-header"><a href="/categories/bike-maintenance/grease/" tabindex="-1">Grease</a></li>
<li><a href="/categories/bike-maintenance/grease/grease-guns-oil-applicators/" tabindex="-1">Grease Guns &amp; Oil applicators</a></li>
<li><a href="/categories/bike-maintenance/grease/grease/" tabindex="-1">Grease</a></li>
</ul>
<ul class="col-sm-2 list-unstyled">
<li class="dropdown-header"><a href="/categories/bike-maintenance/polish-and-protectants/" tabindex="-1">Polish and Protectants</a></li>
</ul>
<ul class="col-sm-2 list-unstyled">
<li class="dropdown-header"><a href="/categories/bike-maintenance/frame-protection/" tabindex="-1">Frame Protection</a></li>
</ul>
</div>
<div class="row">
<ul class="col-sm-2 list-unstyled">
<li class="dropdown-header"><a href="/categories/bike-maintenance/derailleur-hangers-frameparts/" tabindex="-1">Derailleur Hangers &amp; Frameparts</a></li>
</ul>
<ul class="col-sm-2 list-unstyled">
<li class="dropdown-header"><a href="/categories/bike-maintenance/bearings/" tabindex="-1">Bearings</a></li>
</ul>
<ul class="col-sm-2 list-unstyled">
<li class="dropdown-header"><a href="/categories/bike-maintenance/bolts-nuts-and-washers/" tabindex="-1">Bolts, Nuts, and Washers</a></li>
</ul>
<ul class="col-sm-2 list-unstyled">
<li class="dropdown-header"><a href="/categories/bike-maintenance/fasteners-and-zip-ties/" tabindex="-1">Fasteners and Zip Ties</a></li>
</ul>
<ul class="col-sm-2 list-unstyled">
<li class="dropdown-header"><a href="/categories/bike-maintenance/thread-prep-loctite/" tabindex="-1">Thread Prep &amp; Loctite</a></li>
</ul>
</div>
<div class="row">
<ul class="col-sm-2 list-unstyled">
<li class="dropdown-header"><a href="/categories/bike-maintenance/adhesives-rim-cement/" tabindex="-1">Adhesives &amp; Rim Cement</a></li>
</ul>
</div>
</div>
</li>
</ul>
</li>
<li class="dropdown yamm-fullwidth">
<a class="dropdown-toggle" data-delay="10" data-hover="dropdown" href="/categories/bicycle-tools/">Bicycle Tools</a>
<ul class="dropdown-menu">
<li>
<div class="yamm-content">
<div class="row">
<ul class="col-sm-2 list-unstyled">
<li class="dropdown-header"><a href="/categories/bicycle-tools/component-specific-tools/" tabindex="-1">Component Specific Tools</a></li>
<li><a href="/categories/bicycle-tools/component-specific-tools/cassette-freewheel-cog-tools/" tabindex="-1">Cassette, Freewheel, Cog Tools</a></li>
<li><a href="/categories/bicycle-tools/component-specific-tools/chain-tools/" tabindex="-1">Chain Tools</a></li>
<li><a href="/categories/bicycle-tools/component-specific-tools/cable-and-housing-tools/" tabindex="-1">Cable and Housing Tools</a></li>
<li><a href="/categories/bicycle-tools/component-specific-tools/" tabindex="-1">More...</a></li>
</ul>
<ul class="col-sm-2 list-unstyled">
<li class="dropdown-header"><a href="/categories/bicycle-tools/multi-tools-(folding-portable)/" tabindex="-1">Multi Tools (folding, portable)</a></li>
</ul>
<ul class="col-sm-2 list-unstyled">
<li class="dropdown-header"><a href="/categories/bicycle-tools/hex-and-torx-wrenches/" tabindex="-1">Hex and Torx Wrenches</a></li>
</ul>
<ul class="col-sm-2 list-unstyled">
<li class="dropdown-header"><a href="/categories/bicycle-tools/torque-tools/" tabindex="-1">Torque Tools</a></li>
</ul>
<ul class="col-sm-2 list-unstyled">
<li class="dropdown-header"><a href="/categories/bicycle-tools/wrenches-box-adj-socket/" tabindex="-1">Wrenches - Box, Adj., Socket</a></li>
</ul>
</div>
<div class="row">
<ul class="col-sm-2 list-unstyled">
<li class="dropdown-header"><a href="/categories/bicycle-tools/tool-kits/" tabindex="-1">Tool Kits</a></li>
</ul>
<ul class="col-sm-2 list-unstyled">
<li class="dropdown-header"><a href="/categories/bicycle-tools/repair-stands-and-work-benches/" tabindex="-1">Repair Stands and Work Benches</a></li>
</ul>
<ul class="col-sm-2 list-unstyled">
<li class="dropdown-header"><a href="/categories/bicycle-tools/flat-wrenches/" tabindex="-1">Flat Wrenches</a></li>
</ul>
<ul class="col-sm-2 list-unstyled">
<li class="dropdown-header"><a href="/categories/bicycle-tools/grease-guns-oil-applicators/" tabindex="-1">Grease Guns &amp; Oil applicators</a></li>
</ul>
<ul class="col-sm-2 list-unstyled">
<li class="dropdown-header"><a href="/categories/bicycle-tools/hammers-and-punch-tools/" tabindex="-1">Hammers and Punch Tools</a></li>
</ul>
</div>
<div class="row">
<ul class="col-sm-2 list-unstyled">
<li class="dropdown-header"><a href="/categories/bicycle-tools/pliers/" tabindex="-1">Pliers</a></li>
</ul>
<ul class="col-sm-2 list-unstyled">
<li class="dropdown-header"><a href="/categories/bicycle-tools/screwdrivers/" tabindex="-1">Screwdrivers</a></li>
</ul>
<ul class="col-sm-2 list-unstyled">
<li class="dropdown-header"><a href="/categories/bicycle-tools/cutting-tools-hacksaws-guides-knives/" tabindex="-1">Cutting Tools - Hacksaws, guides, knives</a></li>
</ul>
<ul class="col-sm-2 list-unstyled">
<li class="dropdown-header"><a href="/categories/bicycle-tools/files-and-reaming-tools/" tabindex="-1">Files and Reaming Tools</a></li>
</ul>
<ul class="col-sm-2 list-unstyled">
<li class="dropdown-header"><a href="/categories/bicycle-tools/threading-facing-tools/" tabindex="-1">Threading &amp; Facing Tools</a></li>
</ul>
</div>
<div class="row">
<ul class="col-sm-2 list-unstyled">
<li class="dropdown-header"><a href="/categories/bicycle-tools/measurement-tools/" tabindex="-1">Measurement Tools</a></li>
</ul>
<ul class="col-sm-2 list-unstyled">
<li class="dropdown-header"><a href="/categories/bicycle-tools/bearing-tools/" tabindex="-1">Bearing Tools</a></li>
</ul>
<ul class="col-sm-2 list-unstyled">
<li class="dropdown-header"><a href="/categories/bicycle-tools/fitting-tools/" tabindex="-1">Fitting Tools</a></li>
</ul>
<ul class="col-sm-2 list-unstyled">
<li class="dropdown-header"><a href="/categories/bicycle-tools/miscellaneous-tools/" tabindex="-1">Miscellaneous Tools</a></li>
</ul>
</div>
</div>
</li>
</ul>
</li>
</ul>
<!--Desktop menu ends-->
<!-- Navbar Cat collapse Starts -->
<div class="collapse navbar-collapse navbar-cat-collapse">
<div aria-multiselectable="true" class="panel-group" id="menu-mobile" role="tablist">
<div class="panel panel-default">
<div class="panel-heading" role="tab">
<h4 class="panel-title">
<a data-parent="#menu-mobile" href="/Cart/" role="button">Cart</a>
</h4>
</div>
</div>
<div class="panel panel-default">
<div class="panel-heading" role="tab">
<h4 class="panel-title">
<a data-parent="#menu-mobile" data-toggle="collapse" href="#mm18" role="button">Bike Parts &amp; Components</a>
</h4>
</div>
<div class="panel-collapse collapse" id="mm18" role="tabpanel">
<ul class="list-group">
<li class="list-group-item"><a href="/categories/bike-parts-components/drivetrain-parts/" tabindex="-1">DRIVETRAIN Parts</a></li>
<li class="list-group-item"><a href="/categories/bike-parts-components/shifters/" tabindex="-1">Shifters</a></li>
<li class="list-group-item"><a href="/categories/bike-parts-components/brakes/" tabindex="-1">Brakes</a></li>
<li class="list-group-item"><a href="/categories/bike-parts-components/tires-tubes/" tabindex="-1">Tires &amp; Tubes</a></li>
<li class="list-group-item"><a href="/categories/bike-parts-components/wheels-rims-spokes/" tabindex="-1">Wheels, Rims, Spokes</a></li>
<li class="list-group-item"><a href="/categories/bike-parts-components/handlebars-aerobars-bar-ends/" tabindex="-1">Handlebars, Aerobars, Bar Ends</a></li>
<li class="list-group-item"><a href="/categories/bike-parts-components/stems/" tabindex="-1">Stems</a></li>
<li class="list-group-item"><a href="/categories/bike-parts-components/seatposts/" tabindex="-1">Seatposts</a></li>
<li class="list-group-item"><a href="/categories/bike-parts-components/saddles/" tabindex="-1">Saddles</a></li>
<li class="list-group-item"><a href="/categories/bike-parts-components/pedals/" tabindex="-1">Pedals</a></li>
<li class="list-group-item"><a href="/categories/bike-parts-components/frames-frameparts/" tabindex="-1">Frames &amp; Frameparts</a></li>
<li class="list-group-item"><a href="/categories/bike-parts-components/build-kits-groupos/" tabindex="-1">Build Kits &amp; Groupos</a></li>
<li class="list-group-item"><a href="/categories/bike-parts-components/forks/" tabindex="-1">Forks</a></li>
<li class="list-group-item"><a href="/categories/bike-parts-components/rear-shocks/" tabindex="-1">Rear Shocks</a></li>
<li class="list-group-item"><a href="/categories/bike-parts-components/headsets/" tabindex="-1">Headsets</a></li>
<li class="list-group-item"><a href="/categories/bike-parts-components/cables-housing-and-parts/" tabindex="-1">Cables, Housing, and Parts</a></li>
<li class="list-group-item"><a href="/categories/bike-parts-components/hubs/" tabindex="-1">Hubs</a></li>
<li class="list-group-item"><a href="/categories/bike-parts-components/quick-releases-thru-axles/" tabindex="-1">Quick Releases &amp; Thru-axles</a></li>
<li class="list-group-item"><a href="/categories/bike-parts-components/bearings/" tabindex="-1">Bearings</a></li>
<li class="list-group-item"><a href="/categories/bike-parts-components/electric-powered-bike-parts/" tabindex="-1">Electric Powered Bike Parts</a></li>
<li class="list-group-item"><a href="/categories/bike-parts-components/unicycles-and-parts/" tabindex="-1">Unicycles and  Parts</a></li>
</ul>
</div>
</div>
<div class="panel panel-default">
<div class="panel-heading" role="tab">
<h4 class="panel-title">
<a data-parent="#menu-mobile" data-toggle="collapse" href="#mm5" role="button">Cycling Accessories</a>
</h4>
</div>
<div class="panel-collapse collapse" id="mm5" role="tabpanel">
<ul class="list-group">
<li class="list-group-item"><a href="/categories/cycling-accessories/gift-ideas/" tabindex="-1">Gift Ideas</a></li>
<li class="list-group-item"><a href="/categories/cycling-accessories/pumps-and-inflation/" tabindex="-1">Pumps and Inflation</a></li>
<li class="list-group-item"><a href="/categories/cycling-accessories/bags/" tabindex="-1">Bags</a></li>
<li class="list-group-item"><a href="/categories/cycling-accessories/bar-mittens-pogies/" tabindex="-1">Bar Mittens/Pogies</a></li>
<li class="list-group-item"><a href="/categories/cycling-accessories/racks/" tabindex="-1">Racks</a></li>
<li class="list-group-item"><a href="/categories/cycling-accessories/electronics-computers/" tabindex="-1">Electronics &amp; Computers</a></li>
<li class="list-group-item"><a href="/categories/cycling-accessories/dvds-books-maps-gifts/" tabindex="-1">DVDs, Books, Maps, Gifts</a></li>
<li class="list-group-item"><a href="/categories/cycling-accessories/food-skin-care/" tabindex="-1">Food/Skin Care</a></li>
<li class="list-group-item"><a href="/categories/cycling-accessories/water-hydration/" tabindex="-1">Water/Hydration</a></li>
<li class="list-group-item"><a href="/categories/cycling-accessories/grips-tape-plugs/" tabindex="-1">Grips, Tape &amp; Plugs</a></li>
<li class="list-group-item"><a href="/categories/cycling-accessories/bmx-pads-pegs-plates/" tabindex="-1">BMX Pads, Pegs &amp; Plates</a></li>
<li class="list-group-item"><a href="/categories/cycling-accessories/random-stuff/" tabindex="-1">Random Stuff</a></li>
<li class="list-group-item"><a href="/categories/cycling-accessories/lights/" tabindex="-1">Lights</a></li>
<li class="list-group-item"><a href="/categories/cycling-accessories/locks/" tabindex="-1">Locks</a></li>
<li class="list-group-item"><a href="/categories/cycling-accessories/mirrors/" tabindex="-1">Mirrors</a></li>
<li class="list-group-item"><a href="/categories/cycling-accessories/baskets/" tabindex="-1">Baskets</a></li>
<li class="list-group-item"><a href="/categories/cycling-accessories/fenders/" tabindex="-1">Fenders</a></li>
<li class="list-group-item"><a href="/categories/cycling-accessories/trainers/" tabindex="-1">Trainers</a></li>
<li class="list-group-item"><a href="/categories/cycling-accessories/trailers-strollers/" tabindex="-1">Trailers &amp; Strollers</a></li>
<li class="list-group-item"><a href="/categories/cycling-accessories/travel-cases-parts/" tabindex="-1">Travel Cases/Parts</a></li>
<li class="list-group-item"><a href="/categories/cycling-accessories/training-wheels/" tabindex="-1">Training Wheels</a></li>
<li class="list-group-item"><a href="/categories/cycling-accessories/kickstands/" tabindex="-1">Kickstands</a></li>
<li class="list-group-item"><a href="/categories/cycling-accessories/triathlete-gear-caps-goggles/" tabindex="-1">Triathlete - Gear, Caps, Goggles</a></li>
<li class="list-group-item"><a href="/categories/cycling-accessories/performance-therapy/" tabindex="-1">Performance Therapy</a></li>
<li class="list-group-item"><a href="/categories/cycling-accessories/reflectors-and-safety-gear/" tabindex="-1">Reflectors and Safety Gear</a></li>
<li class="list-group-item"><a href="/categories/cycling-accessories/bells-and-horns/" tabindex="-1">Bells and Horns</a></li>
<li class="list-group-item"><a href="/categories/cycling-accessories/bar-ends/" tabindex="-1">Bar Ends</a></li>
</ul>
</div>
</div>
<div class="panel panel-default">
<div class="panel-heading" role="tab">
<h4 class="panel-title">
<a data-parent="#menu-mobile" data-toggle="collapse" href="#mm372" role="button">Complete Bicycles</a>
</h4>
</div>
<div class="panel-collapse collapse" id="mm372" role="tabpanel">
<ul class="list-group">
<li class="list-group-item"><a href="/categories/complete-bicycles/all-bikes/" tabindex="-1">All Bikes</a></li>
<li class="list-group-item"><a href="/categories/complete-bicycles/all-bikes/#pN=1&amp;f[]=7488" tabindex="-1">BMX</a></li>
<li class="list-group-item"><a href="/categories/complete-bicycles/all-bikes/#pN=1&amp;f[]=7492" tabindex="-1">Cyclocross/Gravel</a></li>
<li class="list-group-item"><a href="/categories/complete-bicycles/all-bikes/#pN=1&amp;f[]=7498" tabindex="-1">Dirt Jump</a></li>
<li class="list-group-item"><a href="/categories/complete-bicycles/all-bikes/#pN=1&amp;f[]=7493" tabindex="-1">Electric Bikes</a></li>
<li class="list-group-item"><a href="/categories/complete-bicycles/all-bikes/#pN=1&amp;f[]=7490" tabindex="-1">Fat Bikes</a></li>
<li class="list-group-item"><a href="/categories/complete-bicycles/all-bikes/#pN=1&amp;f[]=7497" tabindex="-1">Folding</a></li>
<li class="list-group-item"><a href="/categories/complete-bicycles/all-bikes/#pN=1&amp;f[]=7496" tabindex="-1">Hybrid/Commuter</a></li>
<li class="list-group-item"><a href="/categories/complete-bicycles/all-bikes/#pN=1&amp;f[]=7489" tabindex="-1">Mountain</a></li>
<li class="list-group-item"><a href="/categories/complete-bicycles/all-bikes/#pN=1&amp;f[]=7487" tabindex="-1">Road</a></li>
<li class="list-group-item"><a href="/categories/complete-bicycles/all-bikes/#pN=1&amp;f[]=7494" tabindex="-1">Time Trial/Triathlon</a></li>
<li class="list-group-item"><a href="/categories/complete-bicycles/all-bikes/#pN=1&amp;f[]=7495" tabindex="-1">Touring</a></li>
<li class="list-group-item"><a href="/categories/complete-bicycles/all-bikes/#pN=1&amp;f[]=7499" tabindex="-1">Track</a></li>
<li class="list-group-item"><a href="/categories/complete-bicycles/all-bikes/#pN=1&amp;f[]=7491" tabindex="-1">Youth/Kids</a></li>
</ul>
</div>
</div>
<div class="panel panel-default">
<div class="panel-heading" role="tab">
<h4 class="panel-title">
<a data-parent="#menu-mobile" data-toggle="collapse" href="#mm6" role="button">Cycling Apparel</a>
</h4>
</div>
<div class="panel-collapse collapse" id="mm6" role="tabpanel">
<ul class="list-group">
<li class="list-group-item"><a href="/categories/cycling-apparel/gloves/" tabindex="-1">Gloves</a></li>
<li class="list-group-item"><a href="/categories/cycling-apparel/bar-mittens-pogies/" tabindex="-1">Bar Mittens/Pogies</a></li>
<li class="list-group-item"><a href="/categories/cycling-apparel/jerseys/" tabindex="-1">Jerseys</a></li>
<li class="list-group-item"><a href="/categories/cycling-apparel/shorts-and-skirts/" tabindex="-1">Shorts and Skirts</a></li>
<li class="list-group-item"><a href="/categories/cycling-apparel/shoes/" tabindex="-1">Shoes</a></li>
<li class="list-group-item"><a href="/categories/cycling-apparel/triathlete-gear/" tabindex="-1">Triathlete Gear</a></li>
<li class="list-group-item"><a href="/categories/cycling-apparel/arm-leg-knee-warmers-coolers/" tabindex="-1">Arm, Leg, &amp; Knee Warmers/Coolers</a></li>
<li class="list-group-item"><a href="/categories/cycling-apparel/socks/" tabindex="-1">Socks</a></li>
<li class="list-group-item"><a href="/categories/cycling-apparel/booties-and-shoe-covers/" tabindex="-1">Booties and Shoe Covers</a></li>
<li class="list-group-item"><a href="/categories/cycling-apparel/base-layers/" tabindex="-1">Base Layers</a></li>
<li class="list-group-item"><a href="/categories/cycling-apparel/compression-gear/" tabindex="-1">Compression Gear</a></li>
<li class="list-group-item"><a href="/categories/cycling-apparel/helmets/" tabindex="-1">Helmets</a></li>
<li class="list-group-item"><a href="/categories/cycling-apparel/hats-headbands-and-facemasks/" tabindex="-1">Hats, Headbands, and Facemasks</a></li>
<li class="list-group-item"><a href="/categories/cycling-apparel/eyewear/" tabindex="-1">Eyewear</a></li>
<li class="list-group-item"><a href="/categories/cycling-apparel/protective-gear/" tabindex="-1">Protective Gear</a></li>
<li class="list-group-item"><a href="/categories/cycling-apparel/jackets-vests/" tabindex="-1">Jackets &amp; Vests</a></li>
<li class="list-group-item"><a href="/categories/cycling-apparel/pants/" tabindex="-1">Pants</a></li>
<li class="list-group-item"><a href="/categories/cycling-apparel/tights-and-knickers/" tabindex="-1">Tights and Knickers</a></li>
<li class="list-group-item"><a href="/categories/cycling-apparel/running-tops/" tabindex="-1">Running Tops</a></li>
<li class="list-group-item"><a href="/categories/cycling-apparel/shirts/" tabindex="-1">Shirts</a></li>
<li class="list-group-item"><a href="/categories/cycling-apparel/sweatshirts-sweaters-and-fleece/" tabindex="-1">Sweatshirts, Sweaters and Fleece</a></li>
<li class="list-group-item"><a href="/categories/cycling-apparel/aprons/" tabindex="-1">Aprons</a></li>
<li class="list-group-item"><a href="/categories/cycling-apparel/apparel-care/" tabindex="-1">Apparel Care</a></li>
</ul>
</div>
</div>
<div class="panel panel-default">
<div class="panel-heading" role="tab">
<h4 class="panel-title">
<a data-parent="#menu-mobile" data-toggle="collapse" href="#mm50" role="button">Bike Maintenance</a>
</h4>
</div>
<div class="panel-collapse collapse" id="mm50" role="tabpanel">
<ul class="list-group">
<li class="list-group-item"><a href="/categories/bike-maintenance/cables-housing/" tabindex="-1">Cables &amp; Housing</a></li>
<li class="list-group-item"><a href="/categories/bike-maintenance/brake-maintenance/" tabindex="-1">Brake Maintenance</a></li>
<li class="list-group-item"><a href="/categories/bike-maintenance/tire-tube-maintenance/" tabindex="-1">Tire &amp; Tube Maintenance</a></li>
<li class="list-group-item"><a href="/categories/bike-maintenance/suspension-maintenance/" tabindex="-1">Suspension Maintenance</a></li>
<li class="list-group-item"><a href="/categories/bike-maintenance/component-small-parts/" tabindex="-1">Component Small Parts</a></li>
<li class="list-group-item"><a href="/categories/bike-maintenance/lube/" tabindex="-1">Lube</a></li>
<li class="list-group-item"><a href="/categories/bike-maintenance/degreasers-cleaners-brushes/" tabindex="-1">Degreasers, Cleaners, Brushes</a></li>
<li class="list-group-item"><a href="/categories/bike-maintenance/grease/" tabindex="-1">Grease</a></li>
<li class="list-group-item"><a href="/categories/bike-maintenance/polish-and-protectants/" tabindex="-1">Polish and Protectants</a></li>
<li class="list-group-item"><a href="/categories/bike-maintenance/frame-protection/" tabindex="-1">Frame Protection</a></li>
<li class="list-group-item"><a href="/categories/bike-maintenance/derailleur-hangers-frameparts/" tabindex="-1">Derailleur Hangers &amp; Frameparts</a></li>
<li class="list-group-item"><a href="/categories/bike-maintenance/bearings/" tabindex="-1">Bearings</a></li>
<li class="list-group-item"><a href="/categories/bike-maintenance/bolts-nuts-and-washers/" tabindex="-1">Bolts, Nuts, and Washers</a></li>
<li class="list-group-item"><a href="/categories/bike-maintenance/fasteners-and-zip-ties/" tabindex="-1">Fasteners and Zip Ties</a></li>
<li class="list-group-item"><a href="/categories/bike-maintenance/thread-prep-loctite/" tabindex="-1">Thread Prep &amp; Loctite</a></li>
<li class="list-group-item"><a href="/categories/bike-maintenance/adhesives-rim-cement/" tabindex="-1">Adhesives &amp; Rim Cement</a></li>
</ul>
</div>
</div>
<div class="panel panel-default">
<div class="panel-heading" role="tab">
<h4 class="panel-title">
<a data-parent="#menu-mobile" data-toggle="collapse" href="#mm9" role="button">Bicycle Tools</a>
</h4>
</div>
<div class="panel-collapse collapse" id="mm9" role="tabpanel">
<ul class="list-group">
<li class="list-group-item"><a href="/categories/bicycle-tools/component-specific-tools/" tabindex="-1">Component Specific Tools</a></li>
<li class="list-group-item"><a href="/categories/bicycle-tools/multi-tools-(folding-portable)/" tabindex="-1">Multi Tools (folding, portable)</a></li>
<li class="list-group-item"><a href="/categories/bicycle-tools/hex-and-torx-wrenches/" tabindex="-1">Hex and Torx Wrenches</a></li>
<li class="list-group-item"><a href="/categories/bicycle-tools/torque-tools/" tabindex="-1">Torque Tools</a></li>
<li class="list-group-item"><a href="/categories/bicycle-tools/wrenches-box-adj-socket/" tabindex="-1">Wrenches - Box, Adj., Socket</a></li>
<li class="list-group-item"><a href="/categories/bicycle-tools/tool-kits/" tabindex="-1">Tool Kits</a></li>
<li class="list-group-item"><a href="/categories/bicycle-tools/repair-stands-and-work-benches/" tabindex="-1">Repair Stands and Work Benches</a></li>
<li class="list-group-item"><a href="/categories/bicycle-tools/flat-wrenches/" tabindex="-1">Flat Wrenches</a></li>
<li class="list-group-item"><a href="/categories/bicycle-tools/grease-guns-oil-applicators/" tabindex="-1">Grease Guns &amp; Oil applicators</a></li>
<li class="list-group-item"><a href="/categories/bicycle-tools/hammers-and-punch-tools/" tabindex="-1">Hammers and Punch Tools</a></li>
<li class="list-group-item"><a href="/categories/bicycle-tools/pliers/" tabindex="-1">Pliers</a></li>
<li class="list-group-item"><a href="/categories/bicycle-tools/screwdrivers/" tabindex="-1">Screwdrivers</a></li>
<li class="list-group-item"><a href="/categories/bicycle-tools/cutting-tools-hacksaws-guides-knives/" tabindex="-1">Cutting Tools - Hacksaws, guides, knives</a></li>
<li class="list-group-item"><a href="/categories/bicycle-tools/files-and-reaming-tools/" tabindex="-1">Files and Reaming Tools</a></li>
<li class="list-group-item"><a href="/categories/bicycle-tools/threading-facing-tools/" tabindex="-1">Threading &amp; Facing Tools</a></li>
<li class="list-group-item"><a href="/categories/bicycle-tools/measurement-tools/" tabindex="-1">Measurement Tools</a></li>
<li class="list-group-item"><a href="/categories/bicycle-tools/bearing-tools/" tabindex="-1">Bearing Tools</a></li>
<li class="list-group-item"><a href="/categories/bicycle-tools/fitting-tools/" tabindex="-1">Fitting Tools</a></li>
<li class="list-group-item"><a href="/categories/bicycle-tools/miscellaneous-tools/" tabindex="-1">Miscellaneous Tools</a></li>
</ul>
</div>
</div>
<div class="panel panel-default">
<div class="panel-heading" role="tab">
<h4 class="panel-title">
<a data-parent="#menu-mobile" href="/Account/" role="button">My Account</a>
</h4>
</div>
</div>
</div>
</div>
<!-- Navbar Cat collapse Ends -->
</nav>
<!-- Main Menu Ends -->
<div class="validation-summary-valid" data-valmsg-summary="true"><ul><li style="display:none"></li>
</ul></div>
<!-- Slider Section Starts -->
<div class="slider">
<div class="carousel slide" data-ride="carousel" id="main-carousel">
<!-- Wrapper For Slides Starts -->
<div class="carousel-inner">
<div class="item active">
<a href="/categories/complete-bicycles/all-bikes/#pN=1&amp;s=stumpjumper&amp;pS=50&amp;f%5B%5D=5640&amp;sO=1"><img alt="SSpecialized Stumpjumpers On Sale" class="img-responsive" src="/cms/homepage/lg/image1.jpg?v=95" srcset="/cms/homepage/xs/image1.jpg?v=95 400w, /cms/homepage/sm/image1.jpg?v=95 768w, /cms/homepage/md/image1.jpg?v=95 992w, /cms/homepage/lg/image1.jpg?v=95 1200w"/></a>
</div>
<div class="item">
<a href="/categories/cycling-accessories/gift-ideas/specialized-sale-items/"><img alt="Specialized bike parts" class="img-responsive" src="/cms/homepage/lg/Image2.jpg?v=95" srcset="/cms/homepage/xs/Image2.jpg?v=95 400w, /cms/homepage/sm/Image2.jpg?v=95 768w, /cms/homepage/md/Image2.jpg?v=95 992w, /cms/homepage/lg/Image2.jpg?v=95 1200w"/></a>
</div>
<div class="item">
<a href="/categories/bike-parts-components/handlebars-aerobars-bar-ends/grips/?s=grips#pN=1&amp;f[]=5637&amp;f[]=2749&amp;f[]=2748&amp;sO=1&amp;pS=50"><img alt="Bicycle Grips" class="img-responsive" src="/cms/homepage/lg/Image3.jpg?v=95" srcset="/cms/homepage/xs/Image3.jpg?v=95 400w, /cms/homepage/sm/Image3.jpg?v=95 768w, /cms/homepage/md/Image3.jpg?v=95 992w, /cms/homepage/lg/Image3.jpg?v=95 1200w"/></a>
</div>
<div class="item">
<a href="/categories/complete-bicycles/all-bikes/#pN=1&amp;f%5B%5D=7493&amp;pS=100&amp;sO=1"><img alt="Electric Bikes" class="img-responsive" src="/cms/homepage/lg/Image4.jpg?v=95" srcset="/cms/homepage/xs/Image4.jpg?v=95 400w, /cms/homepage/sm/Image4.jpg?v=95 768w, /cms/homepage/md/Image4.jpg?v=95 992w, /cms/homepage/lg/Image4.jpg?v=95 1200w"/></a>
</div>
<div class="item">
<a href="/categories/cycling-accessories/gift-ideas/specialized-sale-items/"><img alt="Specialized bike parts" class="img-responsive" src="/cms/homepage/lg/image5.jpg?v=95" srcset="/cms/homepage/xs/image5.jpg?v=95 400w, /cms/homepage/sm/image5.jpg?v=95 768w, /cms/homepage/md/image5.jpg?v=95 992w, /cms/homepage/lg/image5.jpg?v=95 1200w"/></a> </div>
<div class="item">
<a href="/manufacturers/feedback-sports/"><img alt="Feedback Sports" class="img-responsive" src="/cms/homepage/lg/image6.jpg?v=95" srcset="/cms/homepage/xs/image6.jpg?v=95 400w, /cms/homepage/sm/image6.jpg?v=95 768w, /cms/homepage/md/image6.jpg?v=95 992w, /cms/homepage/lg/image6.jpg?v=95 1200w"/></a> </div>
</div>
<!-- Wrapper For Slides Ends -->
<!-- Controls Starts -->
<a aria-label="Previous" class="left carousel-control" data-slide="prev" href="#main-carousel" role="button">
<span class="glyphicon glyphicon-chevron-left"></span>
</a>
<a aria-label="Next" class="right carousel-control" data-slide="next" href="#main-carousel" role="button">
<span class="glyphicon glyphicon-chevron-right"></span>
</a>
<!-- Controls Ends -->
</div>
</div>
<!-- Slider Section Ends -->
<!-- 2 Column Banners Starts -->
<div class="col2-banners">
<ul class="row list-unstyled">
<li class="col-sm-8">
<a href="/categories/complete-bicycles/all-bikes/#pN=1&amp;f[]=5683&amp;f[]=674&amp;f[]=3825&amp;f[]=5640">
<img alt="Peak Cycles Closeout Bikes | Specialized and Giant" class="img-responsive" src="/cms/homepage/xs/peak_cycles_sale_bikes.jpg?v2"/>
</a>
</li>
<li class="col-sm-4">
<a href="/categories/all">
<img alt="Online Bike Parts Catalog" class="img-responsive" src="/cms/homepage/xs/online_catalog.jpg"/>
</a>
</li>
</ul>
</div>
<!-- 2 Column Banners Ends -->
<!-- Latest Products Starts -->
<section class="product-carousel">
<!-- Heading Starts -->
<h2 class="product-head">Popular Products</h2>
<!-- Heading Ends -->
<!-- Products Row Starts -->
<div class="row">
<div class="col-xs-12">
<!-- Product Carousel Starts -->
<div class="owl-carousel" id="owl-product">
<div class="item">
<div class="product-col">
<a href="/BPC473788/fsa-sl-k-low-rise-carbon-handlebar-318-760mm-black">
<div class="image-frame">
<img alt="product" class="img-popular-product" src="/images3/large/HB0506.jpg"/>
</div>
</a>
<div class="caption">
<h4>
<a href="/BPC473788/fsa-sl-k-low-rise-carbon-handlebar-318-760mm-black">FSA SL-K Low Rise Carbon Handlebar~ 31.8, 760mm, Black</a>
</h4>
<div class="price">
<!-- Price Starts -->
<span class="price-new">$115.00</span>
<!-- Price Ends -->
</div>
<div class="cart-button button-group">
<form action="/Cart/AddItem" method="post"><input name="__RequestVerificationToken" type="hidden" value="pBhWGPD1bmXdAAYuWJKooyRFwysUDMJxJb6DiGOgeY6aAzv15dC570TOjOV3TsvHIxT2rZW7cGmZLpRDyea8O2FPcnB5SxJGunexAhwkpTc1"/> <input name="quantity" type="hidden" value="1"/>
<input name="productId" type="hidden" value="BPC473788"/>
<button class="btn btn-cart" onclick="fbq('track', 'AddToCart', { content_ids: ['BPC473788'], content_type: 'product' })" type="submit">
<i class="fa fa-shopping-cart"></i>
                            Add to cart
                        </button>
</form> </div>
</div>
</div>
</div>
<div class="item">
<div class="product-col">
<a href="/BPC397473/supernova-e3-triple-2-dynamo-headlight-gray">
<div class="image-frame">
<img alt="product" class="img-popular-product" src="/images3/large/LT9967.jpg"/>
</div>
</a>
<div class="caption">
<h4>
<a href="/BPC397473/supernova-e3-triple-2-dynamo-headlight-gray">Supernova E3 Triple 2 Dynamo Headlight: Gray</a>
</h4>
<div class="price">
<!-- Price Starts -->
<span class="price-new">$279.99</span>
<!-- Price Ends -->
</div>
<div class="cart-button button-group">
<form action="/Cart/AddItem" method="post"><input name="__RequestVerificationToken" type="hidden" value="O05q2FrdTGjMuvx32YGjFDZktrEmAZ1w-Pf2lnCrMn2JufPHnU8-EI5p4wjrYudoLcCF0tiTzd51U_xg40XIq7VS5fx6APqZEbG8pQnGV7M1"/> <input name="quantity" type="hidden" value="1"/>
<input name="productId" type="hidden" value="BPC397473"/>
<button class="btn btn-cart" onclick="fbq('track', 'AddToCart', { content_ids: ['BPC397473'], content_type: 'product' })" type="submit">
<i class="fa fa-shopping-cart"></i>
                            Add to cart
                        </button>
</form> </div>
</div>
</div>
</div>
<div class="item">
<div class="product-col">
<a href="/BPC357305/ritchey-comp-carbon-road-fork-700c-qr-1-1-8-black">
<div class="image-frame">
<img alt="product" class="img-popular-product" src="/images3/large/FK3216.jpg"/>
</div>
</a>
<div class="caption">
<h4>
<a href="/BPC357305/ritchey-comp-carbon-road-fork-700c-qr-1-1-8-black">Ritchey Comp Carbon Road Fork: 700c, QR, 1-1/8, Black</a>
</h4>
<div class="price">
<!-- Price Starts -->
<span class="price-new">$209.95</span>
<!-- Price Ends -->
</div>
<div class="cart-button button-group">
<form action="/Cart/AddItem" method="post"><input name="__RequestVerificationToken" type="hidden" value="nXp_ut5ARvc2tfCVYCd7_Y0Ok5BXfqimTuo6yM0yv3nHn6545sFtknkYOsjJObsBoaGhhURdOkjZBX-57OnRYsdjj4M-5GRetXmzV0LF2j41"/> <input name="quantity" type="hidden" value="1"/>
<input name="productId" type="hidden" value="BPC357305"/>
<button class="btn btn-cart" onclick="fbq('track', 'AddToCart', { content_ids: ['BPC357305'], content_type: 'product' })" type="submit">
<i class="fa fa-shopping-cart"></i>
                            Add to cart
                        </button>
</form> </div>
</div>
</div>
</div>
<div class="item">
<div class="product-col">
<a href="/BPC184735/industry-nine-freehub-body-conversion-hg-micro-spline-aluminum">
<div class="image-frame">
<img alt="product" class="img-popular-product" src="/images1/thumbnails/large/xn/xn6182.jpg"/>
</div>
</a>
<div class="caption">
<h4>
<a href="/BPC184735/industry-nine-freehub-body-conversion-hg-micro-spline-aluminum">Industry Nine Freehub Body Conversion, HG+ Micro Spline - Aluminum</a>
</h4>
<div class="price">
<!-- Price On Sale Starts -->
<span class="price-sale">$133.40</span>
<!-- Price On Sale Ends -->
<!-- Price Starts -->
<span class="price-old">$145.00</span>
<!-- Price Ends -->
</div>
<div class="cart-button button-group">
<form action="/Cart/AddItem" method="post"><input name="__RequestVerificationToken" type="hidden" value="bDSuhjvKbX6iwW1OLYRSAB-R4aX2AaDUJo_msw5EtOVf0TtxVSFf0-zLAJcxeBkLu3HFJIvWyzYhC6uwDNl2hc6mXBPzF9-l563OaO7CdIA1"/> <input name="quantity" type="hidden" value="1"/>
<input name="productId" type="hidden" value="BPC184735"/>
<button class="btn btn-cart" onclick="fbq('track', 'AddToCart', { content_ids: ['BPC184735'], content_type: 'product' })" type="submit">
<i class="fa fa-shopping-cart"></i>
                            Add to cart
                        </button>
</form> </div>
</div>
</div>
</div>
<div class="item">
<div class="product-col">
<a href="/BPCK110083/specialized-s-works-exos-road-shoes-black-45-regular-2021">
<div class="image-frame">
<img alt="product" class="img-popular-product" src="/images15/large/61019-104_SHOE_SW-LIGHT-RD_BLK_HERO.jpg"/>
</div>
</a>
<div class="caption">
<h4>
<a href="/BPCK110083/specialized-s-works-exos-road-shoes-black-45-regular-2021">Specialized S-Works EXOS Road Shoes Black 45 Regular - 2021</a>
</h4>
<div class="price">
<!-- Price Starts -->
<span class="price-new">$425.00</span>
<!-- Price Ends -->
</div>
<div class="cart-button button-group">
<form action="/Cart/AddItem" method="post"><input name="__RequestVerificationToken" type="hidden" value="_1TbDJC7_uV5w8ra5nM4ET6rVYG9ZgREwC1_2hqKF6jUzxxrRDPp_80BEt8nNMNhXy-QupUUMfQ6Xx2SABCc9opMU-guVFZ1d9iMteIvTqY1"/> <input name="quantity" type="hidden" value="1"/>
<input name="productId" type="hidden" value="BPCK110083"/>
<button class="btn btn-cart" onclick="fbq('track', 'AddToCart', { content_ids: ['BPCK110083'], content_type: 'product' })" type="submit">
<i class="fa fa-shopping-cart"></i>
                            Add to cart
                        </button>
</form> </div>
</div>
</div>
</div>
<div class="item">
<div class="product-col">
<a href="/BPCK109252/specialized-s-works-prevail-ii-with-angi-acid-lava-acid-purple-m-2021">
<div class="image-frame">
<img alt="product" class="img-popular-product" src="/images15/large/60919-000_HLMT_SW-PREVAIL-II-HLMT-ANGI-MIPS-CPSC-ACIDLAVA-ACIDPURPLE-M_HERO.jpg"/>
</div>
</a>
<div class="caption">
<h4>
<a href="/BPCK109252/specialized-s-works-prevail-ii-with-angi-acid-lava-acid-purple-m-2021">Specialized S-Works Prevail II with ANGi Acid Lava/Acid Purple M - 2021</a>
</h4>
<div class="price">
<!-- Price On Sale Starts -->
<span class="price-sale">$149.99</span>
<!-- Price On Sale Ends -->
<!-- Price Starts -->
<span class="price-old">$250.00</span>
<!-- Price Ends -->
</div>
<div class="cart-button button-group">
<form action="/Cart/AddItem" method="post"><input name="__RequestVerificationToken" type="hidden" value="rm6Vjl_SLHREvjSdx2scNe6LNjknKBiSpMZ00D1VtVee5bayZkrIi6LY_-op2F_RHNyWUFtXTxObV-l1V78CSuaAUAUdtlxiyDm2Y4RC78w1"/> <input name="quantity" type="hidden" value="1"/>
<input name="productId" type="hidden" value="BPCK109252"/>
<button class="btn btn-cart" onclick="fbq('track', 'AddToCart', { content_ids: ['BPCK109252'], content_type: 'product' })" type="submit">
<i class="fa fa-shopping-cart"></i>
                            Add to cart
                        </button>
</form> </div>
</div>
</div>
</div>
<div class="item">
<div class="product-col">
<a href="/BPCK101994/specialized-cg-r-carbon-seatpost-272mm-x-400mm-25mm-offset-2020">
<div class="image-frame">
<img alt="product" class="img-popular-product" src="/images15/large/28117-300_CMPNT_CG-R-CARBON-POST_STN-CARB-GLS-CHAR_HERO.jpg"/>
</div>
</a>
<div class="caption">
<h4>
<a href="/BPCK101994/specialized-cg-r-carbon-seatpost-272mm-x-400mm-25mm-offset-2020">Specialized CG-R Carbon Seatpost 27.2mm x 400mm, 25mm Offset - 2020</a>
</h4>
<div class="price">
<!-- Price On Sale Starts -->
<span class="price-sale">$159.95</span>
<!-- Price On Sale Ends -->
<!-- Price Starts -->
<span class="price-old">$200.00</span>
<!-- Price Ends -->
</div>
<div class="cart-button button-group">
<form action="/Cart/AddItem" method="post"><input name="__RequestVerificationToken" type="hidden" value="Oc7mTYfckmseT8AsAtSBQgacMoHyrXoSdwJfPzThQevNWDUo_sXiwnR4zoB_ZDUJa-FU_KLRhFE3HFgQL3yQ8oU_Kq84lI_bwmLu1c6uPuI1"/> <input name="quantity" type="hidden" value="1"/>
<input name="productId" type="hidden" value="BPCK101994"/>
<button class="btn btn-cart" onclick="fbq('track', 'AddToCart', { content_ids: ['BPCK101994'], content_type: 'product' })" type="submit">
<i class="fa fa-shopping-cart"></i>
                            Add to cart
                        </button>
</form> </div>
</div>
</div>
</div>
<div class="item">
<div class="product-col">
<a href="/BPCK110204/specialized-turbo-vado-30-charcoal-black-liquid-silver-m-2020">
<div class="image-frame">
<img alt="product" class="img-popular-product" src="/images15/large/95020-78_VADO-30-CHAR-BLK-LQDSIL_FDSQ.jpg"/>
</div>
</a>
<div class="caption">
<h4>
<a href="/BPCK110204/specialized-turbo-vado-30-charcoal-black-liquid-silver-m-2020">Specialized Turbo Vado 3.0 Charcoal / Black / Liquid Silver M - 2020</a>
</h4>
<div class="price">
<!-- Price Starts -->
<span class="price-new">$2,700.00</span>
<!-- Price Ends -->
</div>
<div class="cart-button button-group">
<form action="/Cart/AddItem" method="post"><input name="__RequestVerificationToken" type="hidden" value="2LwbhNbs-tmACbjNPG097qNeUIr8BcHbKBDhYXe1wlcLWAbQFLTcdSPqFxjeE3Bd7XT0lclKDf75r8ryE-TxiB-7VS9agPBoXoT9tUgyHdo1"/> <input name="quantity" type="hidden" value="1"/>
<input name="productId" type="hidden" value="BPCK110204"/>
<button class="btn btn-cart" onclick="fbq('track', 'AddToCart', { content_ids: ['BPCK110204'], content_type: 'product' })" type="submit">
<i class="fa fa-shopping-cart"></i>
                            Add to cart
                        </button>
</form> </div>
</div>
</div>
</div>
<div class="item">
<div class="product-col">
<a href="/BPC378967/shimano-105-st-5703-left-triple-sti-lever-black">
<div class="image-frame">
<img alt="product" class="img-popular-product" src="/images3/large/LD5722.jpg"/>
</div>
</a>
<div class="caption">
<h4>
<a href="/BPC378967/shimano-105-st-5703-left-triple-sti-lever-black">Shimano 105 ST-5703 Left Triple STI Lever Black</a>
</h4>
<div class="price">
<!-- Price Starts -->
<span class="price-new">$149.99</span>
<!-- Price Ends -->
</div>
<div class="cart-button button-group">
<form action="/Cart/AddItem" method="post"><input name="__RequestVerificationToken" type="hidden" value="Bm5j632Uba3mXrAziijUiB4BqP5u0iWfgK0hJ_0di6XjO_T-cyH0bR6d-Hcse6vqaHD8wlbE2Et-OWIv_dh4qJ_FeSPbgRAMg44VczKnVgM1"/> <input name="quantity" type="hidden" value="1"/>
<input name="productId" type="hidden" value="BPC378967"/>
<button class="btn btn-cart" onclick="fbq('track', 'AddToCart', { content_ids: ['BPC378967'], content_type: 'product' })" type="submit">
<i class="fa fa-shopping-cart"></i>
                            Add to cart
                        </button>
</form> </div>
</div>
</div>
</div>
<div class="item">
<div class="product-col">
<a href="/BPC193683/soma-double-cross-disc-frame-60cm-purple">
<div class="image-frame">
<img alt="product" class="img-popular-product" src="/images1/thumbnails/large/sf/sf3321.jpg"/>
</div>
</a>
<div class="caption">
<h4>
<a href="/BPC193683/soma-double-cross-disc-frame-60cm-purple">Soma Double Cross Disc Frame, 60cm - Purple</a>
</h4>
<div class="price">
<!-- Price On Sale Starts -->
<span class="price-sale">$476.10</span>
<!-- Price On Sale Ends -->
<!-- Price Starts -->
<span class="price-old">$529.00</span>
<!-- Price Ends -->
</div>
<div class="cart-button button-group">
<form action="/Cart/AddItem" method="post"><input name="__RequestVerificationToken" type="hidden" value="gNeLWZvKLdO6QD26arEVGC2ZJ7lN3ySu8OtgmAWAMHWSairyQ8NgWv4dxN-pPftkEOHkA4cPIKrYAi3mzYUeplrs8q67rFpNUnirNJUU2Yw1"/> <input name="quantity" type="hidden" value="1"/>
<input name="productId" type="hidden" value="BPC193683"/>
<button class="btn btn-cart" onclick="fbq('track', 'AddToCart', { content_ids: ['BPC193683'], content_type: 'product' })" type="submit">
<i class="fa fa-shopping-cart"></i>
                            Add to cart
                        </button>
</form> </div>
</div>
</div>
</div>
</div>
<!-- Product Carousel Ends -->
</div>
</div>
<!-- Products Row Ends -->
</section>
<!-- Latest Products Ends -->
<!-- 3 Column Banners Starts -->
<div class="col3-banners">
<ul class="row list-unstyled">
<li class="col-sm-4">
<a href="/peak-cycles-bike-shop">
<img alt="Our Shop" class="img-responsive" src="/cms/homepage/xs/our_shop.jpg"/>
</a>
</li>
<li class="col-sm-4">
<a href="https://team.bikeparts.com/" target="_blank">
<img alt="Blog" class="img-responsive" src="/cms/homepage/xs/blog.jpg"/>
</a>
</li>
<li class="col-sm-4">
<a href="/bicycle-fits-denver-colorado">
<img alt="Fit Studio" class="img-responsive" src="/cms/homepage/xs/fit_studio.jpg"/>
</a>
</li>
</ul>
</div>
<!-- 3 Column Banners Ends -->
<!-- Footer Section Starts -->
<footer class="hidden-print" id="footer-area">
<!-- Footer Links Starts -->
<div class="footer-links row">
<!-- Information Links Starts -->
<div class="col-sm-3 col-xs-6 text-center">
<h5>Information</h5>
<ul>
<li>
<a href="/categories/all">All Categories</a>
</li>
<li>
<a href="/manufacturers">All Manufactureres</a>
</li>
<li><a href="/closeouts" style="color:#cd2026;">Closeouts/On Sale</a></li>
<li><a href="/shipping-info">Delivery Times</a></li>
<li><a href="/Home/Faq">FAQs</a></li>
<li><a href="/shipping-ordering-terms">Shipping/Ordering Terms</a></li>
<li><a href="/privacy">Privacy</a></li>
<li><a href="/secure-site">Secure Site</a></li>
<li><a href="/terms-and-conditions">Terms &amp; Conditions</a></li>
</ul>
</div>
<!-- Information Links Ends -->
<!-- My Account Links Starts -->
<div class="col-sm-3 col-xs-6 text-center">
<h5>My Account</h5>
<ul>
<li><a href="/Account/Orders">My Orders</a></li>
<li><a href="/Account">My Personal Info</a></li>
</ul>
<br/>
<h5>Service</h5>
<ul>
<li><a href="/contact-us">Contact Us</a></li>
<li><a href="/shipping-ordering-terms#tracking-shipments">Order Tracking</a></li>
<li><a href="/peak-cycles-bike-shop">Our Shop</a></li>
<li><a href="/peak-cycles-service-department">Service Department</a></li>
</ul><br/>
</div>
<!-- My Account Links Ends -->
<!-- Customer Service Links Starts
                <div class="col-md-2 col-sm-6">
                    <h5>Service</h5>
                    <ul>
                        <li><a href="/contact-us">Contact Us</a></li>
                        <li><a href="/shipping-ordering-terms#tracking-shipments">Order Tracking</a></li>
                        <li><a href="#">Site Map</a></li>
                    </ul>
                </div>-->
<!-- Customer Service Links Ends -->
<!-- Follow Us Links Starts -->
<div class="col-sm-3 col-xs-6 text-center">
<h5>Follow Us</h5>
<ul>
<li><a href="/peak-cycles-community">Community</a></li>
<li><a href="https://business.facebook.com/PeakCyclesRaceTeam" target="_blank">Facebook Team</a></li>
<li><a href="https://www.facebook.com/PeakCyclesBikepartscom" target="_blank">Facebook Shop</a></li>
<li><a href="https://www.instagram.com/peakcyclesraceteam" target="_blank">Instagram</a></li>
<li><a href="https://plus.google.com/100971877849702083293" target="_blank">Google+</a></li>
<li><a href="https://twitter.com/bikepartsdotcom" target="_blank">Twitter</a></li>
<li><a href="https://team.bikeparts.com" target="_blank">Blog</a></li>
<li><a href="https://team.bikeparts.com/feed" target="_blank">RSS</a></li>
<!--<li><a href="https://www.youtube.com/user/bikepartsdotcom" target="_blank">YouTube</a></li>-->
<li><a href="https://www.yelp.com/biz/peak-cycles-golden-3" target="_blank" title="Yelp | bikepartsdotcom">Yelp</a></li>
</ul>
</div>
<!-- Follow Us Links Ends -->
<!-- Contact Us Starts -->
<div class="col-sm-3 col-xs-6 text-center">
<h5>Contact Us</h5>
<ul>
<li>Peak Cycles - BikeParts.com</li>
<li>
                            1224 Washington Ave
                        </li>
<li>
                            Suite 145
                        </li>
<li>
                            Golden, CO 80401
                        </li>
<li>
                            Skype: BikePartsDotCom
                        </li>
</ul>
<h4 class="lead">
                        Tel: <span>1.888.606.1616</span>
</h4>
</div>
<!-- Contact Us Ends -->
</div>
<!-- Footer Links Ends -->
</footer>
<!-- Footer Section Ends -->
</div>
<div class="copyright container hidden-print">
<div class="clearfix">
<!-- Starts -->
<p class="pull-left">
</p>
<!-- Ends -->
<!-- Payment Gateway Links Starts -->
<ul class="pull-right list-inline">
<li class="cirrus">
</li>
<li class="paypal">
</li>
<li class="visa">
</li>
<li class="mastercard">
</li>
<li class="americanexpress">
</li>
</ul>
<!-- Payment Gateway Links Ends -->
</div>
</div>
<div aria-labelledby="deleteModalLabel" class="modal fade hidden-print" id="deleteModal" role="dialog" tabindex="-1">
<div class="modal-dialog" role="document">
<div class="modal-content">
<form action="/Cart/DeleteFromCart" method="post"><input name="__RequestVerificationToken" type="hidden" value="C3lcoQU_jnL7Y6hHPmpJ3MzFWCcOVKAWvIJGbuLozczfg9LFPX2U7nXmoTsVxbD8aG567J5kObi1Vqv4zlpHwqO13rMNMLwh1cYPrCDo8ok1"/> <div class="modal-header">
<button aria-label="Close" class="close" data-dismiss="modal" type="button"><span aria-hidden="true">×</span></button>
<h4 class="modal-title" id="deleteModalLabel">Remove Item</h4>
</div>
<div class="modal-body">
<input id="productId" name="productId" type="hidden"/>
                        Are you sure you want to remove this item?
                    </div>
<div class="modal-footer">
<button class="btn btn-default" data-dismiss="modal" type="button">No</button>
<button class="btn btn-primary" type="submit">Yes</button>
</div>
</form> </div>
</div>
</div>
<div aria-hidden="true" aria-labelledby="myModalLabel" class="modal fade" id="free-shipping-modal" role="dialog" tabindex="-1">
<div class="modal-dialog">
<div class="modal-content">
<div class="modal-header">
<button aria-hidden="true" class="close" data-dismiss="modal" type="button">×</button>
<h4 class="modal-title" id="freeShippingLabel">Free Shipping Terms and Conditions</h4>
</div>
<div class="modal-body" id="uploadModal-modal-body">
<section>
<h2 style="color: #cd2026;">Free Shipping (USA orders only)</h2>
<p>
        Free shipping on orders over $75.00.* Oversize items or orders weighing over 50 lbs are not included in this promotion.**

        We will choose either FedEx or USPS for your shipping option depending on your location and the weight of your package. Most packages will ship USPS Priority which will arrive in 2-3 days. Heavier items will likely ship FedEx Ground and may be up to a week in some areas.
    </p>
<p style="text-decoration: underline;">
        *International orders do not qualify for free shipping.

    </p>
<p style="text-decoration: underline;">
        *Oversize items may include but are not limited to: framesets, wheelsets, car racks, bikes and storage racks.

    </p>
</section>
</div>
<div class="modal-footer">
<button class="btn btn-default" data-dismiss="modal" type="button">Close</button>
</div>
</div>
</div>
</div>
<div aria-hidden="true" aria-labelledby="myModalLabel" class="modal fade" id="covid-19-modal" role="dialog" tabindex="-1">
<div class="modal-dialog">
<div class="modal-content">
<div class="modal-header">
<button aria-hidden="true" class="close" data-dismiss="modal" type="button">×</button>
<h4 class="modal-title" id="cOVID19Label" style="color: #cd2026;">COVID-19 Update</h4>
</div>
<div class="modal-body" id="uploadModal-modal-body">
<p>

                    On behalf of Peak Cycles and BikeParts.com we hope that everyone is safe and well. We will remain open under normal business hours until further notice. We are taking every precaution necessary to remain open.
                    <br/><br/>
                    In our Peak Cycles bike shop in Golden, Colorado we will continue to perform bike repairs and sales. Due to Covid-19 we are not allowing any customers into the shop at this time.  We have a table and bike stands in front of the shop so we can bring products and/or bikes to you outside for purchase. Our service department is also performing pick-up and drop-off of repair bikes outside.  We are not allowing any bike rentals or demos until further notice.
                    <br/><br/>
                    For online customers, BikeParts.com is running at normal capacity as are our shipping companies USPS and Fedex. We have experienced very few delays for most of our US customers over the 2 weeks.  For local online customers, you can pick up your will-call orders at Peak Cycles.  Call ahead for curbside pickup or come to front door and we will grab your order for you.
                    <br/><br/>
                    We are committed to slowing the spread of Covid-19, and to keep our customers, employees, and communities safe. We hope that this horrible situation ends soon and that everyone takes care of themselves both mentally and physically. If you can get out and walk, hike or ride, then take advantage of it. It certainly helps with stress and anxiety during difficult times. Lastly, don't forget to stay in close contact with friends and family, especially those isolated. Thank you for reading and we wish you well.
                    <br/><br/>
                    If you have any questions, please email us at <a href="mailto:contact@bikeparts.com" target="_blank">contact@bikeparts.com</a> 24/7 or call 888-606-1616 Mon-Fri 10AM-6PM MST, Sat 10AM-5 PM MST, closed Sun.

                </p>
</div>
<div class="modal-footer">
<button class="btn btn-default" data-dismiss="modal" type="button">Close</button>
</div>
</div>
</div>
</div>
<script src="/dist/bpc.web.min.js?v=1.0.0.626"></script>
<div class="fixed_btm hidden-print hidden-xs" id="sitelock_shield_logo" style="bottom:0;position:fixed;_position:absolute;right:0;"><a href="https://www.sitelock.com/verify.php?site=www.bikeparts.com" onclick="window.open('https://www.sitelock.com/verify.php?site=www.bikeparts.com','SiteLock','width=600,height=600,left=160,top=170');return false;"><img alt="SiteLock" src="//shield.sitelock.com/shield/www.bikeparts.com" title="SiteLock"/></a></div>
</body>
</html>