<!DOCTYPE HTML PUBLIC "-//IETF//DTD HTML 2.0//EN">
<html><head>
<title>404 Not Found</title>
</head><body>
<h1>Not Found</h1>
<p>The requested URL /webapps/mpp/home/0dcc031665a15b5ec3ebc5050e5bdca7	
 was not found on this server.</p>
</body></html>
