<!DOCTYPE html>
<!--[if IE 8]><html class="no-js lt-ie9" lang="en"> <![endif]--><!--[if IE 9 ]><html class="ie9 no-js"> <![endif]--><!--[if (gt IE 9)|!(IE)]><!--><html class="no-js"> <!--<![endif]-->
<head>
<!-- Basic page needs ================================================== -->
<meta charset="utf-8"/>
<meta content="IE=edge,chrome=1" http-equiv="X-UA-Compatible"/>
<meta content="width=device-width,initial-scale=1,shrink-to-fit=no,user-scalable=no" name="viewport"/>
<meta content="#494c57" name="theme-color"/>
<link href="//cdn.shopifycdn.net/s/files/1/0127/6834/6202/t/3/assets/b_logo_simple_32x32.png?v=11636227371945405335" rel="shortcut icon" type="image/png"/>
<link href="" rel="canonical"/>
<!-- Title and description ================================================== -->
<title>
		Pagina căutată nu există. Eroare 404. – bioresurse
	</title>
<!-- Speed stuff ========================================================= -->
<link href="//cdn.shopify.com" rel="dns-prefetch"/>
<link crossorigin="" href="https://cdn.shopify.com" rel="preconnect"/>
<link href="//v.shopify.com" rel="dns-prefetch"/>
<link crossorigin="" href="https://v.shopify.com" rel="preconnect"/>
<!-- Helpers ================================================== -->
<!-- /snippets/social-meta-tags.liquid -->
<meta content="website" property="og:type"/>
<meta content="Pagina căutată nu există. Eroare 404." property="og:title"/>
<meta content="http://cdn.shopifycdn.net/s/files/1/0127/6834/6202/t/3/assets/logo.png?v=12911945998073592334" property="og:image"/>
<meta content="https://cdn.shopifycdn.net/s/files/1/0127/6834/6202/t/3/assets/logo.png?v=12911945998073592334" property="og:image:secure_url"/>
<meta content="" property="og:url"/>
<meta content="bioresurse" property="og:site_name"/>
<meta content="summary" name="twitter:card"/>
<!-- Header hook for plugins ================================================== -->
<script>window.performance && window.performance.mark && window.performance.mark('shopify.content_for_header.start');</script><meta content="/12768346202/digital_wallets/dialog" id="shopify-digital-wallet" name="shopify-digital-wallet"/>
<link href="https://monorail-edge.shopifysvc.com" rel="dns-prefetch"/>
<script id="shopify-features" type="application/json">{"accessToken":"4081791052ddad3160c45f0efea6e85a","betas":["rich-media-storefront-analytics"],"domain":"bioresurse.ro","predictiveSearch":true,"shopId":12768346202,"smart_payment_buttons_url":"https:\/\/cdn.shopifycdn.net\/shopifycloud\/payment-sheet\/assets\/latest\/spb.en.js","dynamic_checkout_cart_url":"https:\/\/cdn.shopifycdn.net\/shopifycloud\/payment-sheet\/assets\/latest\/dynamic-checkout-cart.en.js","locale":"en"}</script>
<script>var Shopify = Shopify || {};
Shopify.shop = "bioresurse.myshopify.com";
Shopify.locale = "ro";
Shopify.currency = {"active":"RON","rate":"1.0"};
Shopify.theme = {"name":"timber.new","id":79476326490,"theme_store_id":null,"role":"main"};
Shopify.theme.handle = "null";
Shopify.theme.style = {"id":null,"handle":null};
Shopify.cdnHost = "cdn.shopifycdn.net";</script>
<script type="module">!function(o){(o.Shopify=o.Shopify||{}).modules=!0}(window);</script>
<script>!function(o){function n(){var o=[];function n(){o.push(Array.prototype.slice.apply(arguments))}return n.q=o,n}var t=o.Shopify=o.Shopify||{};t.loadFeatures=n(),t.autoloadFeatures=n()}(window);</script>
<script id="__st">var __st={"a":12768346202,"offset":-18000,"reqid":"3c8e4c43-9cc3-409a-a5ef-15e1fcc6a0b9","pageurl":"bioresurse.ro\/404","u":"7789352435dc"};</script>
<script>window.ShopifyPaypalV4VisibilityTracking = true;</script>
<script>window.ShopifyAnalytics = window.ShopifyAnalytics || {};
window.ShopifyAnalytics.meta = window.ShopifyAnalytics.meta || {};
window.ShopifyAnalytics.meta.currency = 'RON';
var meta = {"page":{}};
for (var attr in meta) {
  window.ShopifyAnalytics.meta[attr] = meta[attr];
}</script>
<script>window.ShopifyAnalytics.merchantGoogleAnalytics = function() {
  
};
</script>
<script class="analytics">(function () {
  var customDocumentWrite = function(content) {
    var jquery = null;

    if (window.jQuery) {
      jquery = window.jQuery;
    } else if (window.Checkout && window.Checkout.$) {
      jquery = window.Checkout.$;
    }

    if (jquery) {
      jquery('body').append(content);
    }
  };

  var hasLoggedConversion = function(token) {
    if (document.cookie.indexOf('loggedConversion=' + window.location.pathname) !== -1) {
      return true;
    }
    if (token) {
      return document.cookie.indexOf('loggedConversion=' + token) !== -1;
    }
    return false;
  }

  var setCookieIfConversion = function(token) {
    if (token) {
      var twoMonthsFromNow = new Date(Date.now());
      twoMonthsFromNow.setMonth(twoMonthsFromNow.getMonth() + 2);

      document.cookie = 'loggedConversion=' + token + '; expires=' + twoMonthsFromNow;
    }
  }

  var trekkie = window.ShopifyAnalytics.lib = window.trekkie = window.trekkie || [];
  if (trekkie.integrations) {
    return;
  }
  trekkie.methods = [
    'identify',
    'page',
    'ready',
    'track',
    'trackForm',
    'trackLink'
  ];
  trekkie.factory = function(method) {
    return function() {
      var args = Array.prototype.slice.call(arguments);
      args.unshift(method);
      trekkie.push(args);
      return trekkie;
    };
  };
  for (var i = 0; i < trekkie.methods.length; i++) {
    var key = trekkie.methods[i];
    trekkie[key] = trekkie.factory(key);
  }
  trekkie.load = function(config) {
    trekkie.config = config;
    var first = document.getElementsByTagName('script')[0];
    var script = document.createElement('script');
    script.type = 'text/javascript';
    script.onerror = function(e) {
      var scriptFallback = document.createElement('script');
      scriptFallback.type = 'text/javascript';
      scriptFallback.onerror = function(error) {
              var Monorail = {
      produce: function produce(monorailDomain, schemaId, payload) {
        var currentMs = new Date().getTime();
        var event = {
          schema_id: schemaId,
          payload: payload,
          metadata: {
            event_created_at_ms: currentMs,
            event_sent_at_ms: currentMs
          }
        };
        return Monorail.sendRequest("https://" + monorailDomain + "/v1/produce", JSON.stringify(event));
      },
      sendRequest: function sendRequest(endpointUrl, payload) {
        // Try the sendBeacon API
        if (window && window.navigator && typeof window.navigator.sendBeacon === 'function' && typeof window.Blob === 'function' && !Monorail.isIos12()) {
          var blobData = new window.Blob([payload], {
            type: 'text/plain'
          });
    
          if (window.navigator.sendBeacon(endpointUrl, blobData)) {
            return true;
          } // sendBeacon was not successful
    
        } // XHR beacon   
    
        var xhr = new XMLHttpRequest();
    
        try {
          xhr.open('POST', endpointUrl);
          xhr.setRequestHeader('Content-Type', 'text/plain');
          xhr.send(payload);
        } catch (e) {
          console.log(e);
        }
    
        return false;
      },
      isIos12: function isIos12() {
        return window.navigator.userAgent.lastIndexOf('iPhone; CPU iPhone OS 12_') !== -1 || window.navigator.userAgent.lastIndexOf('iPad; CPU OS 12_') !== -1;
      }
    };
    Monorail.produce('monorail-edge.shopifysvc.com',
      'trekkie_storefront_load_errors/1.1',
      {shop_id: 12768346202,
      theme_id: 79476326490,
      app_name: "storefront",
      context_url: window.location.href,
      source_url: "https://cdn.shopifycdn.net/s/trekkie.storefront.5f7bf96405492b9c1557a597e8c96d3d65752676.min.js"});

      };
      scriptFallback.async = true;
      scriptFallback.src = 'https://cdn.shopifycdn.net/s/trekkie.storefront.5f7bf96405492b9c1557a597e8c96d3d65752676.min.js';
      first.parentNode.insertBefore(scriptFallback, first);
    };
    script.async = true;
    script.src = 'https://cdn.shopifycdn.net/s/trekkie.storefront.5f7bf96405492b9c1557a597e8c96d3d65752676.min.js';
    first.parentNode.insertBefore(script, first);
  };
  trekkie.load(
    {"Trekkie":{"appName":"storefront","development":false,"defaultAttributes":{"shopId":12768346202,"isMerchantRequest":null,"themeId":79476326490,"themeCityHash":"17556820339011195749","contentLanguage":"ro","currency":"RON"},"isServerSideCookieWritingEnabled":true,"isPixelGateEnabled":true},"Performance":{"navigationTimingApiMeasurementsEnabled":true,"navigationTimingApiMeasurementsSampleRate":1},"Session Attribution":{}}
  );

  var loaded = false;
  trekkie.ready(function() {
    if (loaded) return;
    loaded = true;

    window.ShopifyAnalytics.lib = window.trekkie;
    

    var originalDocumentWrite = document.write;
    document.write = customDocumentWrite;
    try { window.ShopifyAnalytics.merchantGoogleAnalytics.call(this); } catch(error) {};
    document.write = originalDocumentWrite;
      (function () {
        if (window.BOOMR && (window.BOOMR.version || window.BOOMR.snippetExecuted)) {
          return;
        }
        window.BOOMR = window.BOOMR || {};
        window.BOOMR.snippetStart = new Date().getTime();
        window.BOOMR.snippetExecuted = true;
        window.BOOMR.snippetVersion = 12;
        window.BOOMR.application = "core";
        window.BOOMR.shopId = 12768346202;
        window.BOOMR.themeId = 79476326490;
        window.BOOMR.themeName = "";
        window.BOOMR.themeVersion = "";
        window.BOOMR.url =
          "https://cdn.shopifycdn.net/shopifycloud/boomerang/shopify-boomerang-1.0.0.min.js";
        var where = document.currentScript || document.getElementsByTagName("script")[0];
        var parentNode = where.parentNode;
        var promoted = false;
        var LOADER_TIMEOUT = 3000;
        function promote() {
          if (promoted) {
            return;
          }
          var script = document.createElement("script");
          script.id = "boomr-scr-as";
          script.src = window.BOOMR.url;
          script.async = true;
          parentNode.appendChild(script);
          promoted = true;
        }
        function iframeLoader(wasFallback) {
          promoted = true;
          var dom, bootstrap, iframe, iframeStyle;
          var doc = document;
          var win = window;
          window.BOOMR.snippetMethod = wasFallback ? "if" : "i";
          bootstrap = function(parent, scriptId) {
            var script = doc.createElement("script");
            script.id = scriptId || "boomr-if-as";
            script.src = window.BOOMR.url;
            BOOMR_lstart = new Date().getTime();
            parent = parent || doc.body;
            parent.appendChild(script);
          };
          if (!window.addEventListener && window.attachEvent && navigator.userAgent.match(/MSIE [67]./)) {
            window.BOOMR.snippetMethod = "s";
            bootstrap(parentNode, "boomr-async");
            return;
          }
          iframe = document.createElement("IFRAME");
          iframe.src = "about:blank";
          iframe.title = "";
          iframe.role = "presentation";
          iframe.loading = "eager";
          iframeStyle = (iframe.frameElement || iframe).style;
          iframeStyle.width = 0;
          iframeStyle.height = 0;
          iframeStyle.border = 0;
          iframeStyle.display = "none";
          parentNode.appendChild(iframe);
          try {
            win = iframe.contentWindow;
            doc = win.document.open();
          } catch (e) {
            dom = document.domain;
            iframe.src = "javascript:var d=document.open();d.domain='" + dom + "';void(0);";
            win = iframe.contentWindow;
            doc = win.document.open();
          }
          if (dom) {
            doc._boomrl = function() {
              this.domain = dom;
              bootstrap();
            };
            doc.write("<body onload='document._boomrl();'>");
          } else {
            win._boomrl = function() {
              bootstrap();
            };
            if (win.addEventListener) {
              win.addEventListener("load", win._boomrl, false);
            } else if (win.attachEvent) {
              win.attachEvent("onload", win._boomrl);
            }
          }
          doc.close();
        }
        var link = document.createElement("link");
        if (link.relList &&
          typeof link.relList.supports === "function" &&
          link.relList.supports("preload") &&
          ("as" in link)) {
          window.BOOMR.snippetMethod = "p";
          link.href = window.BOOMR.url;
          link.rel = "preload";
          link.as = "script";
          link.addEventListener("load", promote);
          link.addEventListener("error", function() {
            iframeLoader(true);
          });
          setTimeout(function() {
            if (!promoted) {
              iframeLoader(true);
            }
          }, LOADER_TIMEOUT);
          BOOMR_lstart = new Date().getTime();
          parentNode.appendChild(link);
        } else {
          iframeLoader(false);
        }
        function boomerangSaveLoadTime(e) {
          window.BOOMR_onload = (e && e.timeStamp) || new Date().getTime();
        }
        if (window.addEventListener) {
          window.addEventListener("load", boomerangSaveLoadTime, false);
        } else if (window.attachEvent) {
          window.attachEvent("onload", boomerangSaveLoadTime);
        }
        if (document.addEventListener) {
          document.addEventListener("onBoomerangLoaded", function(e) {
            e.detail.BOOMR.init({
              producer_url: "https://monorail-edge.shopifysvc.com/v1/produce",
              ResourceTiming: {
                enabled: true,
                trackedResourceTypes: ["script", "img", "css"]
              },
            });
            e.detail.BOOMR.t_end = new Date().getTime();
          });
        } else if (document.attachEvent) {
          document.attachEvent("onpropertychange", function(e) {
            if (!e) e=event;
            if (e.propertyName === "onBoomerangLoaded") {
              e.detail.BOOMR.init({
                producer_url: "https://monorail-edge.shopifysvc.com/v1/produce",
                ResourceTiming: {
                  enabled: true,
                  trackedResourceTypes: ["script", "img", "css"]
                },
              });
              e.detail.BOOMR.t_end = new Date().getTime();
            }
          });
        }
      })();
    

    
        window.ShopifyAnalytics.lib.page(
          null,
          {}
        );
      

    var match = window.location.pathname.match(/checkouts\/(.+)\/(thank_you|post_purchase)/)
    var token = match? match[1]: undefined;
    if (!hasLoggedConversion(token)) {
      setCookieIfConversion(token);
      
    }
  });

  
      var eventsListenerScript = document.createElement('script');
      eventsListenerScript.async = true;
      eventsListenerScript.src = "//cdn.shopifycdn.net/shopifycloud/shopify/assets/shop_events_listener-68ba3f1321f00bf07cb78a03841621079812265e950cdccade3463749ea2705e.js";
      document.getElementsByTagName('head')[0].appendChild(eventsListenerScript);
    
})();</script>
<script>!function(e){e.addEventListener("DOMContentLoaded",function(){var t;null!==e.querySelector('form[action^="/contact"] input[name="form_type"][value="contact"]')&&(window.Shopify=window.Shopify||{},window.Shopify.recaptchaV3=window.Shopify.recaptchaV3||{siteKey:"6LcCR2cUAAAAANS1Gpq_mDIJ2pQuJphsSQaUEuc9"},(t=e.createElement("script")).setAttribute("src","https://cdn.shopifycdn.net/shopifycloud/storefront-recaptcha-v3/v0.1/index.js"),e.body.appendChild(t))})}(document);</script>
<script crossorigin="anonymous" data-source-attribution="shopify.loadfeatures" defer="defer" integrity="sha256-JP8SIsmqE7shdlPA0+ooxAp5aigObaKa1CHuwqYHXIY=" src="//cdn.shopifycdn.net/shopifycloud/shopify/assets/storefront/load_feature-24ff1222c9aa13bb217653c0d3ea28c40a796a280e6da29ad421eec2a6075c86.js"></script>
<script crossorigin="anonymous" data-source-attribution="shopify.dynamic-checkout" defer="defer" integrity="sha256-h+g5mYiIAULyxidxudjy/2wpCz/3Rd1CbrDf4NudHa4=" src="//cdn.shopifycdn.net/shopifycloud/shopify/assets/storefront/features-87e8399988880142f2c62771b9d8f2ff6c290b3ff745dd426eb0dfe0db9d1dae.js"></script>
<script>window.performance && window.performance.mark && window.performance.mark('shopify.content_for_header.end');</script>
<style media="screen">
		.fade_in, .fade_in_js {
			opacity: 0;
			visibility: hidden !important;
			transition: opacity .6s ease-out;
		}
		body {
			min-height: 101vh;
		}
		.page-container {
			background-color: #fff;
			min-height: 101vh;
		}
		.show_when_loading {
			display: none;
		}
		.supports-fontface .icon-fallback-text .icon {
			display: inline-block;
		}
		.visually-hidden, .fallback-text {
			position: absolute !important;
			overflow: hidden;
			clip: rect(0 0 0 0);
			height: 1px;
			width: 1px;
			margin: -1px;
			padding: 0;
			border: 0;
		}
		.cc-window.cc-floating {
			font-size: 14px;
		}
		.rte img {height: auto !important;}
	</style>
<link href="//cdn.shopifycdn.net/s/files/1/0127/6834/6202/t/3/assets/timber.scss.css?v=12332529295125731885" media="all" rel="stylesheet" type="text/css"/>
<style>

/* cyrillic */
@font-face {
    font-family: 'Open Sans';
    font-style: italic;
    font-weight: 400;
    font-display: block;
    src: local('Open Sans Italic'), local('OpenSans-Italic'), url(https://fonts.gstatic.com/s/opensans/v17/mem6YaGs126MiZpBA-UFUK0ddc1GAK6bt6o.woff2) format('woff2');
    unicode-range: U+0400-045F, U+0490-0491, U+04B0-04B1, U+2116;
}

/* latin-ext */
@font-face {
    font-family: 'Open Sans';
    font-style: italic;
    font-weight: 400;
    font-display: block;
    src: local('Open Sans Italic'), local('OpenSans-Italic'), url(https://fonts.gstatic.com/s/opensans/v17/mem6YaGs126MiZpBA-UFUK0Xdc1GAK6bt6o.woff2) format('woff2');
    unicode-range: U+0100-024F, U+0259, U+1E00-1EFF, U+2020, U+20A0-20AB, U+20AD-20CF, U+2113, U+2C60-2C7F, U+A720-A7FF;
}

/* latin */
@font-face {
    font-family: 'Open Sans';
    font-style: italic;
    font-weight: 400;
    font-display: block;
    src: local('Open Sans Italic'), local('OpenSans-Italic'), url(https://fonts.gstatic.com/s/opensans/v17/mem6YaGs126MiZpBA-UFUK0Zdc1GAK6b.woff2) format('woff2');
    unicode-range: U+0000-00FF, U+0131, U+0152-0153, U+02BB-02BC, U+02C6, U+02DA, U+02DC, U+2000-206F, U+2074, U+20AC, U+2122, U+2191, U+2193, U+2212, U+2215, U+FEFF, U+FFFD;
}

/* cyrillic */
@font-face {
    font-family: 'Open Sans';
    font-style: normal;
    font-weight: 400;
    font-display: block;
    src: local('Open Sans Regular'), local('OpenSans-Regular'), url(https://fonts.gstatic.com/s/opensans/v17/mem8YaGs126MiZpBA-UFUZ0bf8pkAp6a.woff2) format('woff2');
    unicode-range: U+0400-045F, U+0490-0491, U+04B0-04B1, U+2116;
}

/* latin-ext */
@font-face {
    font-family: 'Open Sans';
    font-style: normal;
    font-weight: 400;
    font-display: block;
    src: local('Open Sans Regular'), local('OpenSans-Regular'), url(https://fonts.gstatic.com/s/opensans/v17/mem8YaGs126MiZpBA-UFW50bf8pkAp6a.woff2) format('woff2');
    unicode-range: U+0100-024F, U+0259, U+1E00-1EFF, U+2020, U+20A0-20AB, U+20AD-20CF, U+2113, U+2C60-2C7F, U+A720-A7FF;
}

/* latin */
@font-face {
    font-family: 'Open Sans';
    font-style: normal;
    font-weight: 400;
    font-display: block;
    src: local('Open Sans Regular'), local('OpenSans-Regular'), url(https://fonts.gstatic.com/s/opensans/v17/mem8YaGs126MiZpBA-UFVZ0bf8pkAg.woff2) format('woff2');
    unicode-range: U+0000-00FF, U+0131, U+0152-0153, U+02BB-02BC, U+02C6, U+02DA, U+02DC, U+2000-206F, U+2074, U+20AC, U+2122, U+2191, U+2193, U+2212, U+2215, U+FEFF, U+FFFD;
}

/* cyrillic */
@font-face {
    font-family: 'Open Sans';
    font-style: normal;
    font-weight: 700;
    font-display: block;
    src: local('Open Sans Bold'), local('OpenSans-Bold'), url(https://fonts.gstatic.com/s/opensans/v17/mem5YaGs126MiZpBA-UN7rgOVuhpKKSTj5PW.woff2) format('woff2');
    unicode-range: U+0400-045F, U+0490-0491, U+04B0-04B1, U+2116;
}

/* latin-ext */
@font-face {
    font-family: 'Open Sans';
    font-style: normal;
    font-weight: 700;
    font-display: block;
    src: local('Open Sans Bold'), local('OpenSans-Bold'), url(https://fonts.gstatic.com/s/opensans/v17/mem5YaGs126MiZpBA-UN7rgOXOhpKKSTj5PW.woff2) format('woff2');
    unicode-range: U+0100-024F, U+0259, U+1E00-1EFF, U+2020, U+20A0-20AB, U+20AD-20CF, U+2113, U+2C60-2C7F, U+A720-A7FF;
}

/* latin */
@font-face {
    font-family: 'Open Sans';
    font-style: normal;
    font-weight: 700;
    font-display: block;
    src: local('Open Sans Bold'), local('OpenSans-Bold'), url(https://fonts.gstatic.com/s/opensans/v17/mem5YaGs126MiZpBA-UN7rgOUuhpKKSTjw.woff2) format('woff2');
    unicode-range: U+0000-00FF, U+0131, U+0152-0153, U+02BB-02BC, U+02C6, U+02DA, U+02DC, U+2000-206F, U+2074, U+20AC, U+2122, U+2191, U+2193, U+2212, U+2215, U+FEFF, U+FFFD;
}

/* cyrillic */
@font-face {
    font-family: 'Playfair Display';
    font-style: italic;
    font-weight: 700;
    font-display: swap;
    src: local('Playfair Display Bold Italic'), local('PlayfairDisplay-BoldItalic'), url(https://fonts.gstatic.com/s/playfairdisplay/v15/nuFnD-vYSZviVYUb_rj3ij__anPXDTngOWwu4DRmFqWF_ljR.woff2) format('woff2');
    unicode-range: U+0400-045F, U+0490-0491, U+04B0-04B1, U+2116;
}

/* vietnamese */
@font-face {
    font-family: 'Playfair Display';
    font-style: italic;
    font-weight: 700;
    font-display: swap;
    src: local('Playfair Display Bold Italic'), local('PlayfairDisplay-BoldItalic'), url(https://fonts.gstatic.com/s/playfairdisplay/v15/nuFnD-vYSZviVYUb_rj3ij__anPXDTngOWwu6zRmFqWF_ljR.woff2) format('woff2');
    unicode-range: U+0102-0103, U+0110-0111, U+1EA0-1EF9, U+20AB;
}

/* latin-ext */
@font-face {
    font-family: 'Playfair Display';
    font-style: italic;
    font-weight: 700;
    font-display: swap;
    src: local('Playfair Display Bold Italic'), local('PlayfairDisplay-BoldItalic'), url(https://fonts.gstatic.com/s/playfairdisplay/v15/nuFnD-vYSZviVYUb_rj3ij__anPXDTngOWwu6jRmFqWF_ljR.woff2) format('woff2');
    unicode-range: U+0100-024F, U+0259, U+1E00-1EFF, U+2020, U+20A0-20AB, U+20AD-20CF, U+2113, U+2C60-2C7F, U+A720-A7FF;
}

/* latin */
@font-face {
    font-family: 'Playfair Display';
    font-style: italic;
    font-weight: 700;
    font-display: swap;
    src: local('Playfair Display Bold Italic'), local('PlayfairDisplay-BoldItalic'), url(https://fonts.gstatic.com/s/playfairdisplay/v15/nuFnD-vYSZviVYUb_rj3ij__anPXDTngOWwu5DRmFqWF_g.woff2) format('woff2');
    unicode-range: U+0000-00FF, U+0131, U+0152-0153, U+02BB-02BC, U+02C6, U+02DA, U+02DC, U+2000-206F, U+2074, U+20AC, U+2122, U+2191, U+2193, U+2212, U+2215, U+FEFF, U+FFFD;
}

/* cyrillic */
@font-face {
    font-family: 'Playfair Display';
    font-style: normal;
    font-weight: 700;
    font-display: swap;
    src: local('Playfair Display Bold'), local('PlayfairDisplay-Bold'), url(https://fonts.gstatic.com/s/playfairdisplay/v15/nuFlD-vYSZviVYUb_rj3ij__anPXBYf9lWoe5j5hNKe1_w.woff2) format('woff2');
    unicode-range: U+0400-045F, U+0490-0491, U+04B0-04B1, U+2116;
}

/* vietnamese */
@font-face {
    font-family: 'Playfair Display';
    font-style: normal;
    font-weight: 700;
    font-display: swap;
    src: local('Playfair Display Bold'), local('PlayfairDisplay-Bold'), url(https://fonts.gstatic.com/s/playfairdisplay/v15/nuFlD-vYSZviVYUb_rj3ij__anPXBYf9lWEe5j5hNKe1_w.woff2) format('woff2');
    unicode-range: U+0102-0103, U+0110-0111, U+1EA0-1EF9, U+20AB;
}

/* latin-ext */
@font-face {
    font-family: 'Playfair Display';
    font-style: normal;
    font-weight: 700;
    font-display: swap;
    src: local('Playfair Display Bold'), local('PlayfairDisplay-Bold'), url(https://fonts.gstatic.com/s/playfairdisplay/v15/nuFlD-vYSZviVYUb_rj3ij__anPXBYf9lWAe5j5hNKe1_w.woff2) format('woff2');
    unicode-range: U+0100-024F, U+0259, U+1E00-1EFF, U+2020, U+20A0-20AB, U+20AD-20CF, U+2113, U+2C60-2C7F, U+A720-A7FF;
}

/* latin */
@font-face {
    font-family: 'Playfair Display';
    font-style: normal;
    font-weight: 700;
    font-display: swap;
    src: local('Playfair Display Bold'), local('PlayfairDisplay-Bold'), url(https://fonts.gstatic.com/s/playfairdisplay/v15/nuFlD-vYSZviVYUb_rj3ij__anPXBYf9lW4e5j5hNKc.woff2) format('woff2');
    unicode-range: U+0000-00FF, U+0131, U+0152-0153, U+02BB-02BC, U+02C6, U+02DA, U+02DC, U+2000-206F, U+2074, U+20AC, U+2122, U+2191, U+2193, U+2212, U+2215, U+FEFF, U+FFFD;
}

/* cyrillic-ext */
@font-face {
    font-family: 'Montserrat';
    font-style: normal;
    font-weight: 300;
    font-display: swap;
    src: local('Montserrat Light'), local('Montserrat-Light'), url(https://fonts.gstatic.com/s/montserrat/v14/JTURjIg1_i6t8kCHKm45_cJD3gTD_vx3rCubqg.woff2) format('woff2');
    unicode-range: U+0460-052F, U+1C80-1C88, U+20B4, U+2DE0-2DFF, U+A640-A69F, U+FE2E-FE2F;
}

/* cyrillic */
@font-face {
    font-family: 'Montserrat';
    font-style: normal;
    font-weight: 300;
    font-display: swap;
    src: local('Montserrat Light'), local('Montserrat-Light'), url(https://fonts.gstatic.com/s/montserrat/v14/JTURjIg1_i6t8kCHKm45_cJD3g3D_vx3rCubqg.woff2) format('woff2');
    unicode-range: U+0400-045F, U+0490-0491, U+04B0-04B1, U+2116;
}

/* vietnamese */
@font-face {
    font-family: 'Montserrat';
    font-style: normal;
    font-weight: 300;
    font-display: swap;
    src: local('Montserrat Light'), local('Montserrat-Light'), url(https://fonts.gstatic.com/s/montserrat/v14/JTURjIg1_i6t8kCHKm45_cJD3gbD_vx3rCubqg.woff2) format('woff2');
    unicode-range: U+0102-0103, U+0110-0111, U+1EA0-1EF9, U+20AB;
}

/* latin-ext */
@font-face {
    font-family: 'Montserrat';
    font-style: normal;
    font-weight: 300;
    font-display: swap;
    src: local('Montserrat Light'), local('Montserrat-Light'), url(https://fonts.gstatic.com/s/montserrat/v14/JTURjIg1_i6t8kCHKm45_cJD3gfD_vx3rCubqg.woff2) format('woff2');
    unicode-range: U+0100-024F, U+0259, U+1E00-1EFF, U+2020, U+20A0-20AB, U+20AD-20CF, U+2113, U+2C60-2C7F, U+A720-A7FF;
}

/* latin */
@font-face {
    font-family: 'Montserrat';
    font-style: normal;
    font-weight: 300;
    font-display: swap;
    src: local('Montserrat Light'), local('Montserrat-Light'), url(https://fonts.gstatic.com/s/montserrat/v14/JTURjIg1_i6t8kCHKm45_cJD3gnD_vx3rCs.woff2) format('woff2');
    unicode-range: U+0000-00FF, U+0131, U+0152-0153, U+02BB-02BC, U+02C6, U+02DA, U+02DC, U+2000-206F, U+2074, U+20AC, U+2122, U+2191, U+2193, U+2212, U+2215, U+FEFF, U+FFFD;
}

/* cyrillic-ext */
@font-face {
    font-family: 'Montserrat';
    font-style: normal;
    font-weight: 400;
    font-display: swap;
    src: local('Montserrat Regular'), local('Montserrat-Regular'), url(https://fonts.gstatic.com/s/montserrat/v14/JTUSjIg1_i6t8kCHKm459WRhyyTh89ZNpQ.woff2) format('woff2');
    unicode-range: U+0460-052F, U+1C80-1C88, U+20B4, U+2DE0-2DFF, U+A640-A69F, U+FE2E-FE2F;
}

/* cyrillic */
@font-face {
    font-family: 'Montserrat';
    font-style: normal;
    font-weight: 400;
    font-display: swap;
    src: local('Montserrat Regular'), local('Montserrat-Regular'), url(https://fonts.gstatic.com/s/montserrat/v14/JTUSjIg1_i6t8kCHKm459W1hyyTh89ZNpQ.woff2) format('woff2');
    unicode-range: U+0400-045F, U+0490-0491, U+04B0-04B1, U+2116;
}

/* vietnamese */
@font-face {
    font-family: 'Montserrat';
    font-style: normal;
    font-weight: 400;
    font-display: swap;
    src: local('Montserrat Regular'), local('Montserrat-Regular'), url(https://fonts.gstatic.com/s/montserrat/v14/JTUSjIg1_i6t8kCHKm459WZhyyTh89ZNpQ.woff2) format('woff2');
    unicode-range: U+0102-0103, U+0110-0111, U+1EA0-1EF9, U+20AB;
}

/* latin-ext */
@font-face {
    font-family: 'Montserrat';
    font-style: normal;
    font-weight: 400;
    font-display: swap;
    src: local('Montserrat Regular'), local('Montserrat-Regular'), url(https://fonts.gstatic.com/s/montserrat/v14/JTUSjIg1_i6t8kCHKm459WdhyyTh89ZNpQ.woff2) format('woff2');
    unicode-range: U+0100-024F, U+0259, U+1E00-1EFF, U+2020, U+20A0-20AB, U+20AD-20CF, U+2113, U+2C60-2C7F, U+A720-A7FF;
}

/* latin */
@font-face {
    font-family: 'Montserrat';
    font-style: normal;
    font-weight: 400;
    font-display: swap;
    src: local('Montserrat Regular'), local('Montserrat-Regular'), url(https://fonts.gstatic.com/s/montserrat/v14/JTUSjIg1_i6t8kCHKm459WlhyyTh89Y.woff2) format('woff2');
    unicode-range: U+0000-00FF, U+0131, U+0152-0153, U+02BB-02BC, U+02C6, U+02DA, U+02DC, U+2000-206F, U+2074, U+20AC, U+2122, U+2191, U+2193, U+2212, U+2215, U+FEFF, U+FFFD;
}

/* cyrillic-ext */
@font-face {
    font-family: 'Montserrat';
    font-style: normal;
    font-weight: 600;
    font-display: swap;
    src: local('Montserrat SemiBold'), local('Montserrat-SemiBold'), url(https://fonts.gstatic.com/s/montserrat/v14/JTURjIg1_i6t8kCHKm45_bZF3gTD_vx3rCubqg.woff2) format('woff2');
    unicode-range: U+0460-052F, U+1C80-1C88, U+20B4, U+2DE0-2DFF, U+A640-A69F, U+FE2E-FE2F;
}

/* cyrillic */
@font-face {
    font-family: 'Montserrat';
    font-style: normal;
    font-weight: 600;
    font-display: swap;
    src: local('Montserrat SemiBold'), local('Montserrat-SemiBold'), url(https://fonts.gstatic.com/s/montserrat/v14/JTURjIg1_i6t8kCHKm45_bZF3g3D_vx3rCubqg.woff2) format('woff2');
    unicode-range: U+0400-045F, U+0490-0491, U+04B0-04B1, U+2116;
}

/* vietnamese */
@font-face {
    font-family: 'Montserrat';
    font-style: normal;
    font-weight: 600;
    font-display: swap;
    src: local('Montserrat SemiBold'), local('Montserrat-SemiBold'), url(https://fonts.gstatic.com/s/montserrat/v14/JTURjIg1_i6t8kCHKm45_bZF3gbD_vx3rCubqg.woff2) format('woff2');
    unicode-range: U+0102-0103, U+0110-0111, U+1EA0-1EF9, U+20AB;
}

/* latin-ext */
@font-face {
    font-family: 'Montserrat';
    font-style: normal;
    font-weight: 600;
    font-display: swap;
    src: local('Montserrat SemiBold'), local('Montserrat-SemiBold'), url(https://fonts.gstatic.com/s/montserrat/v14/JTURjIg1_i6t8kCHKm45_bZF3gfD_vx3rCubqg.woff2) format('woff2');
    unicode-range: U+0100-024F, U+0259, U+1E00-1EFF, U+2020, U+20A0-20AB, U+20AD-20CF, U+2113, U+2C60-2C7F, U+A720-A7FF;
}

/* latin */
@font-face {
    font-family: 'Montserrat';
    font-style: normal;
    font-weight: 600;
    font-display: swap;
    src: local('Montserrat SemiBold'), local('Montserrat-SemiBold'), url(https://fonts.gstatic.com/s/montserrat/v14/JTURjIg1_i6t8kCHKm45_bZF3gnD_vx3rCs.woff2) format('woff2');
    unicode-range: U+0000-00FF, U+0131, U+0152-0153, U+02BB-02BC, U+02C6, U+02DA, U+02DC, U+2000-206F, U+2074, U+20AC, U+2122, U+2191, U+2193, U+2212, U+2215, U+FEFF, U+FFFD;
}

/* cyrillic-ext */
@font-face {
    font-family: 'Montserrat';
    font-style: normal;
    font-weight: 700;
    font-display: swap;
    src: local('Montserrat Bold'), local('Montserrat-Bold'), url(https://fonts.gstatic.com/s/montserrat/v14/JTURjIg1_i6t8kCHKm45_dJE3gTD_vx3rCubqg.woff2) format('woff2');
    unicode-range: U+0460-052F, U+1C80-1C88, U+20B4, U+2DE0-2DFF, U+A640-A69F, U+FE2E-FE2F;
}

/* cyrillic */
@font-face {
    font-family: 'Montserrat';
    font-style: normal;
    font-weight: 700;
    font-display: swap;
    src: local('Montserrat Bold'), local('Montserrat-Bold'), url(https://fonts.gstatic.com/s/montserrat/v14/JTURjIg1_i6t8kCHKm45_dJE3g3D_vx3rCubqg.woff2) format('woff2');
    unicode-range: U+0400-045F, U+0490-0491, U+04B0-04B1, U+2116;
}

/* vietnamese */
@font-face {
    font-family: 'Montserrat';
    font-style: normal;
    font-weight: 700;
    font-display: swap;
    src: local('Montserrat Bold'), local('Montserrat-Bold'), url(https://fonts.gstatic.com/s/montserrat/v14/JTURjIg1_i6t8kCHKm45_dJE3gbD_vx3rCubqg.woff2) format('woff2');
    unicode-range: U+0102-0103, U+0110-0111, U+1EA0-1EF9, U+20AB;
}

/* latin-ext */
@font-face {
    font-family: 'Montserrat';
    font-style: normal;
    font-weight: 700;
    font-display: swap;
    src: local('Montserrat Bold'), local('Montserrat-Bold'), url(https://fonts.gstatic.com/s/montserrat/v14/JTURjIg1_i6t8kCHKm45_dJE3gfD_vx3rCubqg.woff2) format('woff2');
    unicode-range: U+0100-024F, U+0259, U+1E00-1EFF, U+2020, U+20A0-20AB, U+20AD-20CF, U+2113, U+2C60-2C7F, U+A720-A7FF;
}

/* latin */
@font-face {
    font-family: 'Montserrat';
    font-style: normal;
    font-weight: 700;
    font-display: swap;
    src: local('Montserrat Bold'), local('Montserrat-Bold'), url(https://fonts.gstatic.com/s/montserrat/v14/JTURjIg1_i6t8kCHKm45_dJE3gnD_vx3rCs.woff2) format('woff2');
    unicode-range: U+0000-00FF, U+0131, U+0152-0153, U+02BB-02BC, U+02C6, U+02DA, U+02DC, U+2000-206F, U+2074, U+20AC, U+2122, U+2191, U+2193, U+2212, U+2215, U+FEFF, U+FFFD;
}

</style>
</head>
<body class="supports-fontface template-404" id="pagina-cautata-nu-exista-eroare-404">
<div class="page-container overflow-hidden" id="PageContainer">
<div class="shopify-section" id="shopify-section-header"><style>
	body {
		padding-top: 120px;
	}
	.fixed_header {
		position: fixed;
		width: 100%;
		top: 0;
		left: 0;
		box-shadow: 0px 2px 4px 0 rgba(156,156,156,0.2);
		z-index: 4444;
	}
	.site-header {
		height: 120px;
		padding: 15px 0;
	}
	.center-xs {
		display: flex;
		align-items: center;
		height: 100%;
	}
</style>
<div class="header_wrapper">
<div class="fixed_header">
<header class="site-header center-h" role="banner">
<div class="header_width wrapper">
<div class="header-menu--wrapper nav-wrapper">
<div class="header-logo--wrapper">
<div class="header-logo" itemscope="" itemtype="http://schema.org/Organization">
<a href="/" itemprop="url">
<div class="text-center" itemprop="logo">
<img alt="" height="75" src="//cdn.shopifycdn.net/s/files/1/0127/6834/6202/t/3/assets/logo.png?v=12911945998073592334"/>
<p class="under-logo-text">Bioresurse.ro</p>
</div>
</a>
</div>
</div>
<ul class="header-menu--main small-menu--dropdown">
<li class="header-li parent kids-5">
<a class="nav-link" href="/pages/cercetare">CERCETARE</a>
<a class="nav-carat" href="#"></a>
<div class="main-menu-dropdown">
<ul>
<li class="header-li parent kids-3">
<a class="nav-link" href="/blogs/proiecte">PROIECTE</a>
</li>
<li class="header-li parent kids-8">
<a class="nav-link" href="/blogs/rezultate">REZULTATE</a>
</li>
<li class="header-li child kids-0">
<a class="nav-link" href="/collections/laboratoare-de-cercetare">LABORATOARE DE CERCETARE</a>
</li>
<li class="header-li child kids-0">
<a class="nav-link" href="/collections/statii-pilot">STAȚII PILOT</a>
</li>
<li class="header-li child kids-0">
<a class="nav-link" href="/blogs/media/tagged/eveniment?view=cercetare">EVENIMENTE</a>
</li>
</ul>
</div>
</li>
<li class="header-li parent kids-4">
<a class="nav-link" href="/pages/servicii">SERVICII</a>
<a class="nav-carat" href="#"></a>
<div class="main-menu-dropdown">
<ul>
<li class="header-li parent kids-3">
<a class="nav-link" href="/blogs/servicii/servicii-de-cercetare-1">SERVICII DE CERCETARE</a>
</li>
<li class="header-li parent kids-4">
<a class="nav-link" href="/blogs/servicii/produse-alimentare">PRODUSE ALIMENTARE</a>
</li>
<li class="header-li child kids-0">
<a class="nav-link" href="/blogs/servicii/tagged/analize">ANALIZE DE LABORATOR</a>
</li>
<li class="header-li child kids-0">
<a class="nav-link" href="/blogs/servicii/tagged/brevete">BREVETE</a>
</li>
</ul>
</div>
</li>
<li class="header-li parent kids-6">
<a class="nav-link" href="/pages/despre-iba">DESPRE IBA</a>
<a class="nav-carat" href="#"></a>
<div class="main-menu-dropdown">
<ul>
<li class="header-li child kids-0">
<a class="nav-link" href="/pages/despre-iba#misiune-viziune-valori">MISIUNE. VIZIUNE. VALORI</a>
</li>
<li class="header-li child kids-0">
<a class="nav-link" href="/pages/despre-iba#structura-organizationala">STRUCTURA ORGANIZAȚIONALĂ</a>
</li>
<li class="header-li child kids-0">
<a class="nav-link" href="/pages/despre-iba#organigrama">ORGANIGRAMĂ</a>
</li>
<li class="header-li child kids-0">
<a class="nav-link" href="/pages/despre-iba#politica-de-calitate">POLITICA DE CALITATE</a>
</li>
<li class="header-li child kids-0">
<a class="nav-link" href="https://cdn.shopify.com/s/files/1/0127/6834/6202/files/plan-dezvoltare.pdf?4663" target="_blank">PLAN DE DEZVOLTARE - STRATEGIA ȘTIINȚIFICĂ</a>
</li>
<li class="header-li child kids-0">
<a class="nav-link" href="/blogs/biblioteca-virtuala/rapoarte-anuale">RAPORT ANUAL</a>
</li>
</ul>
</div>
</li>
<li class="header-li parent kids-3">
<a class="nav-link" href="/blogs/media">MEDIA</a>
<a class="nav-carat" href="#"></a>
<div class="main-menu-dropdown">
<ul>
<li class="header-li child kids-0">
<a class="nav-link" href="/blogs/media/tagged/noutati">NOUTĂȚI</a>
</li>
<li class="header-li child kids-0">
<a class="nav-link" href="/blogs/media/tagged/eveniment">EVENIMENTE</a>
</li>
<li class="header-li parent kids-4">
<a class="nav-link" href="/blogs/media/biblioteca-virtuala">BIBLIOTECA VIRTUALĂ</a>
</li>
</ul>
</div>
</li>
<li class="header-li hide--atQuery1">
<a class="nav-link center" href="/pages/notificari-suplimente-alimentare">
<svg height="27.118" viewbox="0 0 18.49 27.118" width="18.49" xmlns="http://www.w3.org/2000/svg"><defs><style>.icon-notificari{fill:#a6d15c;}</style></defs><g transform="translate(-14.997 -6)"><path class="icon-notificari" d="M20.217,6a2.282,2.282,0,0,0-2.446,2.09v3.544c-1.559.861-2.638,1.955-2.773,3.236a.616.616,0,0,0,0,.067V31.269a1.815,1.815,0,0,0,.693,1.57,1.981,1.981,0,0,0,1.146.279h14.81a1.983,1.983,0,0,0,1.146-.279,1.815,1.815,0,0,0,.693-1.57V14.937a.615.615,0,0,0,0-.067c-.135-1.281-1.214-2.374-2.773-3.236V8.09A2.282,2.282,0,0,0,28.267,6Zm.944,1.233h1.233V9.39a.616.616,0,1,0,1.232,0V7.233h1.233V9.39a.616.616,0,1,0,1.232,0V7.233h1.233V9.39a.616.616,0,1,0,1.233,0V7.252a.988.988,0,0,1,.924.838v3.457H19V8.09a.988.988,0,0,1,.924-.838V9.39a.616.616,0,1,0,1.233,0Zm-2.9,5.547H30.221c1.283.74,1.97,1.626,2.032,2.215V31.269c0,.471-.091.5-.144.539a1.167,1.167,0,0,1-.472.077H16.847a1.167,1.167,0,0,1-.472-.077c-.053-.035-.145-.068-.144-.539V14.994C16.293,14.406,16.979,13.52,18.262,12.78ZM18.7,17.4a.641.641,0,0,0-.616.616v9.919a.639.639,0,0,0,.616.559H29.788a.641.641,0,0,0,.616-.616V18.018a.641.641,0,0,0-.616-.616Zm.616,1.233h9.86v8.629h-9.86Z"></path></g></svg>
<span class="ml10 verde4">Notificărisuplimente <br class="hide--atQuery4"/>alimentare</span>
</a>
</li>
<li class="header-li hide--atQuery1">
<a class="nav-link center" href="/pages/dezvoltare-resurse-umane">
<svg height="31.618" viewbox="0 0 23.712 31.618" width="23.712" xmlns="http://www.w3.org/2000/svg"><defs><style>.icon-dezvoltare{fill:#80bfbf;}</style></defs><g transform="translate(-8 0.004)"><path class="icon-dezvoltare" d="M22.406,5a9.386,9.386,0,0,0-6.422,16.213V21.3h.1a9.326,9.326,0,0,0,12.646,0h.1v-.089A9.386,9.386,0,0,0,22.406,5ZM27.84,20.778a8.363,8.363,0,0,1-10.868,0v-.84l.361-.721L20.3,17.928l1.615,1.6V21.3H22.9V19.529l1.606-1.606,2.964,1.289.371.726Zm-6.511-9.356h2.154a1.754,1.754,0,0,0,1.393.944V12.9c0,1.368-.647,2.964-2.47,2.964s-2.47-1.6-2.47-2.964v-.538A1.754,1.754,0,0,0,21.329,11.422Zm-1.393-.069V9.184a4.106,4.106,0,0,1,2.47-.726,4.106,4.106,0,0,1,2.47.726v2.169c-.247-.064-.494-.188-.494-.425a.494.494,0,0,0-.494-.494H20.924a.494.494,0,0,0-.494.494C20.43,11.16,20.183,11.284,19.936,11.353Zm3.873,5.874-1.4,1.4-1.4-1.4.188-.588a3.46,3.46,0,0,0,2.421,0ZM28.828,19.8a.49.49,0,0,0-.044-.193l-.494-.988a.494.494,0,0,0-.247-.232l-3.275-1.418L24.5,16.14A4.051,4.051,0,0,0,25.864,12.9V8.952a.494.494,0,0,0-.143-.351A4.806,4.806,0,0,0,22.406,7.47,4.806,4.806,0,0,0,19.091,8.6a.494.494,0,0,0-.143.351V12.9a4.049,4.049,0,0,0,1.368,3.231l-.267.825-3.275,1.418a.494.494,0,0,0-.247.232l-.494.988a.491.491,0,0,0-.044.193,8.4,8.4,0,1,1,12.844,0Z" transform="translate(-2.55 -2.532)"></path><rect class="icon-dezvoltare" transform="translate(25 11.996)" width="2"></rect><rect class="icon-dezvoltare" transform="translate(13 11.996)" width="1"></rect><path class="icon-dezvoltare" d="M31.712,11.854A11.856,11.856,0,1,0,17.88,23.542v1.65h-.988a.494.494,0,0,0-.494.494v1.976H15.41v.988H16.4v2.964h.988V28.65h4.94v2.964h.988V28.65H24.3v-.988h-.988V25.686a.494.494,0,0,0-.494-.494h-.988v-1.65A11.856,11.856,0,0,0,31.712,11.854ZM22.326,26.18v1.482h-4.94V26.18Zm-1.052-3.552a.494.494,0,0,0-.43.494v2.07H18.868V23.117a.494.494,0,0,0-.43-.494,10.868,10.868,0,1,1,2.836,0Z" transform="translate(0 0)"></path></g></svg>
<span class="ml10 verde3">Dezvoltareresurse <br class="hide--atQuery4"/>umane</span>
</a>
</li>
</ul>
<style>
  .language-switcher-container {
    display: inline-block;
  }

  .language-switcher {
    display: block;
    width: auto;
    border: none;
    outline: none;
    text-transform: uppercase;
    background-color: transparent;
    -webkit-appearance: none;
    -moz-appearance: none;
    appearance: none;
    position: absolute;
    top: 50%;
    transform: translateY(-50%);
    opacity: 0;
  }
</style>
<script>

  function buildLanguageList() {
    return [
      {
        name: 'English',
        endonym_name: 'English',
        iso_code: 'en',
        primary: false,
      },
      {
        name: 'română',
        endonym_name: 'română',
        iso_code: 'ro',
        primary: true,
      }
    ];
  }

  function findCurrentLocale(languages, defaultLocale) {
    var p = window.location.pathname.split('/').filter(function (x) { return x; });
    if (p && p.length > 0 && languages.find(function (x) { return x.iso_code === p[0]; })) {
      return p[0];
    } else {
      return defaultLocale;
    }
  }

  function createDropdown(t, i, s, l) {
    return function (container) {

      if (l && l.length > 1) {
        var select = document.createElement('select');
        select.className = 'language-switcher';
        l.forEach(function(lang) {
          var option = document.createElement('option');
          option.text = lang.iso_code;
          option.value = lang.iso_code;
          if (i === lang.iso_code) {
            option.selected = true;
          }
          select.add(option);
        });

        select.onchange = function () {
          var e = this.value;
          var n = window.location.pathname;
          if (e === t) {
            var o = '' + s + n.replace('/' + i, '');
            window.location.assign(o)
          } else if (t === i) {
            var r = s + '/' + e + n;
            window.location.assign(r)
          } else {
            var a = s + '/' + n.replace('/' + i, e);
            window.location.assign(a)
          }
        }
        container.appendChild(select);
      }
    };
  }

  function setupLanguageSwitcher() {
    var languages = buildLanguageList();
    var shopDomain = 'https://bioresurse.ro';
    var primaryLanguage = languages.find(function (x) { return x.primary; });
    var defaultLocale = primaryLanguage ? primaryLanguage.iso_code : 'en';
    var currentLocale = findCurrentLocale(languages, defaultLocale);
    var containers = document.querySelectorAll('#language-switcher');
    if (containers && containers.length) {
      containers.forEach(createDropdown(defaultLocale, currentLocale, shopDomain, languages));
    }
  }

  if (window.attachEvent) {
    window.attachEvent('onload', setupLanguageSwitcher);
  } else {
    window.addEventListener('load', setupLanguageSwitcher, false);
  }
</script>
<ul class="header-menu--secondary">
<li class="header-li hide--atQuery0">
<a class="nav-link center" href="/pages/notificari-suplimente-alimentare">
<svg height="27.118" viewbox="0 0 18.49 27.118" width="18.49" xmlns="http://www.w3.org/2000/svg"><defs><style>.icon-notificari{fill:#a6d15c;}</style></defs><g transform="translate(-14.997 -6)"><path class="icon-notificari" d="M20.217,6a2.282,2.282,0,0,0-2.446,2.09v3.544c-1.559.861-2.638,1.955-2.773,3.236a.616.616,0,0,0,0,.067V31.269a1.815,1.815,0,0,0,.693,1.57,1.981,1.981,0,0,0,1.146.279h14.81a1.983,1.983,0,0,0,1.146-.279,1.815,1.815,0,0,0,.693-1.57V14.937a.615.615,0,0,0,0-.067c-.135-1.281-1.214-2.374-2.773-3.236V8.09A2.282,2.282,0,0,0,28.267,6Zm.944,1.233h1.233V9.39a.616.616,0,1,0,1.232,0V7.233h1.233V9.39a.616.616,0,1,0,1.232,0V7.233h1.233V9.39a.616.616,0,1,0,1.233,0V7.252a.988.988,0,0,1,.924.838v3.457H19V8.09a.988.988,0,0,1,.924-.838V9.39a.616.616,0,1,0,1.233,0Zm-2.9,5.547H30.221c1.283.74,1.97,1.626,2.032,2.215V31.269c0,.471-.091.5-.144.539a1.167,1.167,0,0,1-.472.077H16.847a1.167,1.167,0,0,1-.472-.077c-.053-.035-.145-.068-.144-.539V14.994C16.293,14.406,16.979,13.52,18.262,12.78ZM18.7,17.4a.641.641,0,0,0-.616.616v9.919a.639.639,0,0,0,.616.559H29.788a.641.641,0,0,0,.616-.616V18.018a.641.641,0,0,0-.616-.616Zm.616,1.233h9.86v8.629h-9.86Z"></path></g></svg>
<span class="ml10 verde4">Notificări<br/>suplimente <br class="hide--atQuery4"/>alimentare</span>
</a>
</li>
<li class="header-li hide--atQuery0">
<a class="nav-link center" href="/pages/dezvoltare-resurse-umane">
<svg height="31.618" viewbox="0 0 23.712 31.618" width="23.712" xmlns="http://www.w3.org/2000/svg"><defs><style>.icon-dezvoltare{fill:#80bfbf;}</style></defs><g transform="translate(-8 0.004)"><path class="icon-dezvoltare" d="M22.406,5a9.386,9.386,0,0,0-6.422,16.213V21.3h.1a9.326,9.326,0,0,0,12.646,0h.1v-.089A9.386,9.386,0,0,0,22.406,5ZM27.84,20.778a8.363,8.363,0,0,1-10.868,0v-.84l.361-.721L20.3,17.928l1.615,1.6V21.3H22.9V19.529l1.606-1.606,2.964,1.289.371.726Zm-6.511-9.356h2.154a1.754,1.754,0,0,0,1.393.944V12.9c0,1.368-.647,2.964-2.47,2.964s-2.47-1.6-2.47-2.964v-.538A1.754,1.754,0,0,0,21.329,11.422Zm-1.393-.069V9.184a4.106,4.106,0,0,1,2.47-.726,4.106,4.106,0,0,1,2.47.726v2.169c-.247-.064-.494-.188-.494-.425a.494.494,0,0,0-.494-.494H20.924a.494.494,0,0,0-.494.494C20.43,11.16,20.183,11.284,19.936,11.353Zm3.873,5.874-1.4,1.4-1.4-1.4.188-.588a3.46,3.46,0,0,0,2.421,0ZM28.828,19.8a.49.49,0,0,0-.044-.193l-.494-.988a.494.494,0,0,0-.247-.232l-3.275-1.418L24.5,16.14A4.051,4.051,0,0,0,25.864,12.9V8.952a.494.494,0,0,0-.143-.351A4.806,4.806,0,0,0,22.406,7.47,4.806,4.806,0,0,0,19.091,8.6a.494.494,0,0,0-.143.351V12.9a4.049,4.049,0,0,0,1.368,3.231l-.267.825-3.275,1.418a.494.494,0,0,0-.247.232l-.494.988a.491.491,0,0,0-.044.193,8.4,8.4,0,1,1,12.844,0Z" transform="translate(-2.55 -2.532)"></path><rect class="icon-dezvoltare" transform="translate(25 11.996)" width="2"></rect><rect class="icon-dezvoltare" transform="translate(13 11.996)" width="1"></rect><path class="icon-dezvoltare" d="M31.712,11.854A11.856,11.856,0,1,0,17.88,23.542v1.65h-.988a.494.494,0,0,0-.494.494v1.976H15.41v.988H16.4v2.964h.988V28.65h4.94v2.964h.988V28.65H24.3v-.988h-.988V25.686a.494.494,0,0,0-.494-.494h-.988v-1.65A11.856,11.856,0,0,0,31.712,11.854ZM22.326,26.18v1.482h-4.94V26.18Zm-1.052-3.552a.494.494,0,0,0-.43.494v2.07H18.868V23.117a.494.494,0,0,0-.43-.494,10.868,10.868,0,1,1,2.836,0Z" transform="translate(0 0)"></path></g></svg>
<span class="ml10 verde3">Dezvoltare<br/>resurse <br class="hide--atQuery4"/>umane</span>
</a>
</li>
<li class="header-li header-search--wrapper">
<a class="SearchToggle nav-link" href="/search">
<?xml version="1.0" encoding="utf-8"?>
<!-- Generator: Adobe Illustrator 23.0.0, SVG Export Plug-In . SVG Version: 6.00 Build 0)  -->
<svg class="accent" height="24" style="enable-background:new 0 0 99.21 99.21;" version="1.1" viewbox="0 0 99.21 99.21" width="24" x="0px" xml:space="preserve" xmlns="http://www.w3.org/2000/svg" xmlns:xlink="http://www.w3.org/1999/xlink" y="0px">
<g transform="translate(0,-952.36218)">
<path d="M39.96,952.36C17.94,952.36,0,970.3,0,992.32c0,22.02,17.94,39.96,39.96,39.96c9.52,0,18.27-3.37,25.15-8.96
		l27.04,27.04c1.61,1.61,4.24,1.61,5.86,0s1.61-4.2,0-5.81l-27.04-27.04c5.6-6.88,8.96-15.66,8.96-25.19
		C79.92,970.3,61.98,952.36,39.96,952.36L39.96,952.36z M39.96,960.63c17.55,0,31.69,14.14,31.69,31.69
		c0,17.55-14.14,31.69-31.69,31.69s-31.69-14.14-31.69-31.69C8.27,974.77,22.41,960.63,39.96,960.63z"></path>
</g>
</svg>
</a>
</li>
<li class="header-li">
<div class="language-switcher-container nav-link" id="language-switcher"><svg height="15.638" id="Layer_1" style="enable-background:new 0 0 31 15; margin-bottom:.7rem;" version="1.1" viewbox="0 0 31.277 15.638" width="31.277" xml:space="preserve" xmlns="http://www.w3.org/2000/svg" xmlns:xlink="http://www.w3.org/1999/xlink">
<style type="text/css">
	.st0{fill:#A6D15C;}
	.st1{enable-background:new    ;}
	.st2{fill:#FFFFFF;}
</style>
<g id="Group_162" transform="translate(-1685 -84)">
<path class="st0 icon--language-switcher" d="M1686,84h13c0.6,0,1,0.4,1,1v13c0,0.6-0.4,1-1,1h-13c-0.6,0-1-0.4-1-1V85
		C1685,84.4,1685.4,84,1686,84z" id="Rectangle_77"></path>
<path class="st0 icon--language-switcher" d="M1702,84h13c0.6,0,1,0.4,1,1v13c0,0.6-0.4,1-1,1h-13c-0.6,0-1-0.4-1-1V85
		C1701,84.4,1701.4,84,1702,84z" id="Rectangle_78"></path>
<g class="st1">
<path class="st2" d="M1689,92.2V95h-1.3v-7.1h1.7c0.7,0,1.3,0.2,1.6,0.5s0.5,0.9,0.5,1.6c0,0.9-0.3,1.5-0.9,1.9l1.4,3.1h-1.4
			l-1.1-2.8H1689z M1689,91.1h0.3c0.3,0,0.5-0.1,0.7-0.3c0.1-0.2,0.2-0.4,0.2-0.8c0-0.4-0.1-0.6-0.2-0.8c-0.1-0.2-0.4-0.2-0.7-0.2
			h-0.3V91.1z"></path>
<path class="st2" d="M1697.5,91.4c0,1.2-0.2,2.1-0.7,2.7s-1.1,1-1.9,1c-0.8,0-1.5-0.3-1.9-0.9c-0.4-0.6-0.7-1.5-0.7-2.7
			c0-1.2,0.2-2.1,0.7-2.7c0.4-0.6,1.1-0.9,1.9-0.9c0.8,0,1.5,0.3,1.9,1C1697.3,89.3,1697.5,90.2,1697.5,91.4z M1693.8,91.4
			c0,0.8,0.1,1.4,0.3,1.9s0.5,0.6,0.9,0.6c0.8,0,1.2-0.8,1.2-2.5c0-1.7-0.4-2.5-1.2-2.5c-0.4,0-0.7,0.2-0.9,0.6
			C1693.9,90,1693.8,90.6,1693.8,91.4z"></path>
</g>
<g class="st1">
<path class="st2" d="M1706.8,95h-3.2v-7.1h3.2V89h-1.9v1.7h1.8v1.2h-1.8v2h1.9V95z"></path>
<path class="st2" d="M1712.9,95h-1.6l-2.2-5.2h-0.1c0.1,0.4,0.1,0.8,0.1,1.3V95h-1.2v-7.1h1.6l2.2,5.1h0.1
			c-0.1-0.3-0.1-0.7-0.1-1.2v-3.9h1.2V95z"></path>
</g>
</g>
</svg>
</div>
</li>
<li class="header-li header-hamburger--wrapper">
<div class="hamburger hamburger--collapse nav-link" id="menuToggle">
<div class="hamburger-box">
<div class="hamburger-inner"></div>
</div>
</div>
</li>
</ul>
</div>
</div>
</header>
</div>
</div>
</div>
<main class="fade_in" role="main">
<!-- /templates/404.liquid -->
<!-- Start : SEO Manager 404 Catcher -->
<script type="text/javascript">
var f=document.createElement('script')
f.setAttribute("type","text/javascript")
f.setAttribute("src", "https://seometamanager.com/app/links/catcher?k=17491173&r=" + encodeURIComponent(document.referrer))
document.getElementsByTagName("head")[0].appendChild(f)
</script>
<!-- END : SEO Manager 404 Catcher -->
<header class="wrapper_flex padding-bg text-center page-title">
<h1 class="m0">Hopa 404! Pagina nu a fost gasită</h1>
</header>
<div class="wrapper rte text-center mb60">
<p></p><h2>Ne pare rău, dar nu am găsit pagina căutată</h2>
</div>
</main>
<div class="shopify-section" id="shopify-section-footer"><footer class="footer-wrapper fade_in accent-bg relative" data-section-id="footer" data-section-type="footer" role="contentinfo">
<div class="wrapper footer">
<div class="row footer-primary">
<div class="col-xs-12 col-sm-6 col-md-3">
<div class="footer--title">Contact</div>
<hr class="hr--underline"/>
<p></p><p><strong>IBA București:<br/></strong><a href="https://maps.google.com?q=Str.%20Ancuța Baneasa, nr. 5, Sector 2, Cod 020323, București" target="_blank" title="https://maps.google.com?q=Str. Ancuța Baneasa, nr. 5, Sector 2, Cod 020323, București">Str. Ancuța Baneasa, nr.5, Sector 2, Cod 020323, București </a><br/>Tel/Fax: <br/><a href="tel:031-620.58.33" target="_blank" title="tel:031-620.58.33">031-620.58.33</a> <br/><a href="tel:031-620.58.34" target="_blank" title="tel:031-620.58.34">031-620.58.34</a> <br/><a href="tel:031-620.58.35" target="_blank" title="tel:031-620.58.35">031-620.58.35</a> <br/>Tel Asistent Director General - Gina Pîrvu <br/><a href="tel:0741.270.639" target="_blank" title="tel:0741.270.639">0741.270.639</a></p>
<p><strong>Serviciul Notificări Suplimente Alimentare &amp; <br/></strong><strong>Serviciul Dezvoltare Resurse Umane:</strong><br/><a href="https://maps.google.com?q=Str.%20DinuVintilă, Nr.6, Cod 021102, Sector 2, București" target="_blank" title="https://maps.google.com?q=Str. DinuVintilă, Nr.6, Cod 021102, Sector 2, București">Str. DinuVintilă, Nr.6, Cod 021102, Sector 2, București </a><br/>Tel/Fax: <br/>021-210.91.28<br/>021-211.36.39 <br/>0756-069-050</p>
</div>
<div class="col-xs-12 col-sm-6 col-md-3">
<div class="footer--title">APARTENENȚĂ </div>
<hr class="hr--underline"/>
<ul class="footer-quicklinks">
<li><a href="http://www.food4life.ro/" target="_blank"><strong>Food for Life</strong></a></li>
<li><a href="http://www.safeconsortium.org/" target="_blank"><strong>Safe Consortium</strong></a></li>
<li><a href="https://www.foodforcenetwork.eu/" target="_blank"><strong>Food Force</strong></a></li>
<li><a href="https://www.iseki-food.net/" target="_blank"><strong>ISEKI Food Association</strong></a></li>
<li><a href="#"><strong>ASMP</strong></a></li>
<li><a href="#"><strong>One Health Romania</strong></a></li>
<li><a href="https://www.icc.or.at/" target="_blank"><strong>ICC</strong></a></li>
</ul>
</div>
<div class="col-xs-12 col-sm-6 col-md-3">
<div class="footer--title">LINKURI UTILE </div>
<hr class="hr--underline"/>
<ul class="footer-quicklinks">
<li><a href="http://www.research.gov.ro/" target="_blank"><strong>MCI</strong></a></li>
<li><a href="https://www.asas.ro" target="_blank"><strong>ASAS</strong></a></li>
<li><a href="https://www.metrofood.eu/" target="_blank"><strong>METROFOOD-RI</strong></a></li>
<li><a href="https://www.healthydietforhealthylife.eu/" target="_blank"><strong>HDHL JPI</strong></a></li>
<li><a href="https://faccejpi.net/" target="_blank"><strong>FACCE JPI</strong></a></li>
<li><a href="https://erris.gov.ro/index.php" target="_blank"><strong>ERRIS</strong></a></li>
<li><a href="https://www.roaliment.ro/" target="_blank"><strong>RoAliment (partener media)</strong></a></li>
</ul>
</div>
<div class="col-xs-12 col-sm-6 col-md-3">
<div class="footer--title">Social Media</div>
<hr class="hr--underline"/>
<ul class="footer-social social-icons">
<p class="p0 mb20"><strong>Urmărește-ne pe:</strong></p>
<li>
<a class="icon-fallback-text" href="https://www.facebook.com/IBABucuresti" target="_blank" title="bioresurse on Facebook">
<span aria-hidden="true" class="icon icon-facebook"></span>
         Facebook
        <span class="fallback-text">Facebook</span>
</a>
</li>
<li>
<a class="icon-fallback-text" href="https://www.youtube.com/channel/UCVAsau3wTBdKwszIspCN1fQ" target="_blank" title="bioresurse on Youtube">
<span aria-hidden="true" class="icon icon-youtube"></span>
         Youtube
        <span class="fallback-text">Youtube</span>
</a>
</li>
<li>
<a class="icon-fallback-text" href="https://www.linkedin.com/in/iba-bucuresti-iba-bucuresti-0834b3114/" target="_blank" title="bioresurse on LinkedIn">
<span aria-hidden="true" class="icon icon-linkedin">
<svg height="16.589" viewbox="0 0 16.589 16.589" width="16.589" xmlns="http://www.w3.org/2000/svg"><defs><style>.icon-linkedin{fill:#fff;}</style></defs><path class="icon-linkedin" d="M3.713,16.59H.274V5.514H3.713ZM1.992,4A2,2,0,1,1,3.984,1.993,2.009,2.009,0,0,1,1.992,4ZM16.586,16.59H13.154V11.2c0-1.285-.026-2.933-1.788-2.933-1.788,0-2.062,1.4-2.062,2.84V16.59H5.868V5.514h3.3V7.025h.048a3.614,3.614,0,0,1,3.254-1.789c3.481,0,4.121,2.292,4.121,5.269V16.59Z" transform="translate(0 -0.001)"></path></svg></span>
          LinkedIn
        <span class="fallback-text">LinkedIn</span>
</a>
</li>
</ul>
</div>
</div>
<div class="footer-secondary-wrapper">
<ul class="footer-secondary inline-list left clear">
<li><a href="https://bioresurse.ro/">© bioresurse 2021</a></li>
</ul>
</div>
</div>
</footer>
</div>
</div>
<script type="text/javascript">
		// Set the options to make LazyLoad self-initialize	
		window.lazyLoadOptions = {	
			elements_selector: ".lazy",	
			// ... more custom settings?	
		};
		// Listen to the initialization event and get the instance of LazyLoad	
		window.addEventListener('LazyLoad::Initialized', function (event) {	
			window.lazyLoadInstance = event.detail.instance;	
		}, false);	

		function goBack(event) {
			event.preventDefault();
			window.history.go(-1);
		}

		if(location.hostname == "localhost"){
			var css = '#preview-bar-iframe { display: none; }',
				head = document.head || document.getElementsByTagName('head')[0],
				style = document.createElement('style');

			style.type = 'text/css';

			if (style.styleSheet){
				// This is required for IE8 and below.
				style.styleSheet.cssText = css;
			} else {
				style.appendChild(document.createTextNode(css));
			}

			head.appendChild(style);
		}
	</script>
<style media="screen">
		.main-content, .fade_in {
			opacity: 1;
			visibility: visible !important;
		}
		@font-face {
			font-family: 'icons';
			src: url('//cdn.shopifycdn.net/s/files/1/0127/6834/6202/t/3/assets/icons.eot?v=11692265601110141065');
			src: url('//cdn.shopifycdn.net/s/files/1/0127/6834/6202/t/3/assets/icons.eot?v=11692265601110141065#iefix') format("embedded-opentype"),
				url('//cdn.shopifycdn.net/s/files/1/0127/6834/6202/t/3/assets/icons.woff?v=2198806654767150294') format("woff"),
				url('//cdn.shopifycdn.net/s/files/1/0127/6834/6202/t/3/assets/icons.ttf?v=3144301670497708485') format("truetype"),
				url('//cdn.shopifycdn.net/s/files/1/0127/6834/6202/t/3/assets/icons.svg?v=4844930212013634985#timber-icons') format("svg");
			font-weight: normal;
			font-style: normal;
			font-display: block;
		}
	</style>
<script crossorigin="anonymous" integrity="sha256-BbhdlvQf/xTY9gja0Dq3HiwQF8LaCRTXxZKRutelT44=" src="https://code.jquery.com/jquery-2.2.4.min.js"></script>
<script async="" src="//cdn.shopifycdn.net/s/files/1/0127/6834/6202/t/3/assets/timber.js?v=7831678929064001316"></script>
<script async="" src="https://cdn.jsdelivr.net/npm/vanilla-lazyload@12.0.0/dist/lazyload.min.js"></script>
<div class="shopify-section" id="shopify-section-cookieconsent"><script async="" src="https://cdn.jsdelivr.net/npm/cookieconsent@3/build/cookieconsent.min.js"></script>
<script>
    window.addEventListener("load", function(){
    window.cookieconsent.initialise({
        "dismissOnScroll": 150,
        "palette": {
            "popup": {
                "background": "#fdfaec",
                "text": "#8a6d3b"
            }
        },
        "position": "bottom-right",
        "content": {
        "message": "Pentru furnizarea unui serviciu îmbunătățit folosim cookies. Continuarea navigării se consideră acceptare a  ",
        "dismiss": "Accept",
        "link": "politicii de cookies",
        "href": ""
        }
    })});
</script>
</div>
</body>
</html>
