<!DOCTYPE html>
<html lang="en">
<head>
<link href="/static/favicon.ico" rel="shortcut icon"/>
<title>Latest Posts</title>
<meta content="width=device-width, initial-scale=1.0" name="viewport"/>
<link href="//netdna.bootstrapcdn.com/bootstrap/3.0.3/css/bootstrap.min.css" rel="stylesheet"/>
<link href="//netdna.bootstrapcdn.com/font-awesome/4.0.3/css/font-awesome.css" rel="stylesheet"/>
<script src="//ajax.googleapis.com/ajax/libs/jquery/2.1.0/jquery.min.js"></script>
<script src="//netdna.bootstrapcdn.com/bootstrap/3.0.3/js/bootstrap.min.js"></script>
<link href="/static/CACHE/css/a263178e5ed2.css" rel="stylesheet" type="text/css"/>
<script src="/static/CACHE/js/6f945e6b21cf.js" type="text/javascript"></script>
<script type="text/javascript">
var googletag = googletag || {};
googletag.cmd = googletag.cmd || [];
(function() {
var gads = document.createElement('script');
gads.async = true;
gads.type = 'text/javascript';
var useSSL = 'https:' == document.location.protocol;
gads.src = (useSSL ? 'https:' : 'http:') +
'//www.googletagservices.com/tag/js/gpt.js';
var node = document.getElementsByTagName('script')[0];
node.parentNode.insertBefore(gads, node);
})();
</script>
<script type="text/javascript">
googletag.cmd.push(function() {
googletag.pubads().collapseEmptyDivs(true);
googletag.defineSlot('/64550467/special_sidebar', [220, 250], 'special_sidebar').addService(googletag.pubads());
googletag.defineSlot('/64550467/Leaderboard', [728, 90], 'div-gpt-ad-1412001329349-0').addService(googletag.pubads());
googletag.defineSlot('/64550467/Sidebar-220x250', [220, 250], 'div-gpt-ad-1412001329349-1').addService(googletag.pubads());
googletag.pubads().enableSingleRequest();
googletag.enableServices();
});
</script>
<script async="" src="//pagead2.googlesyndication.com/pagead/js/adsbygoogle.js"></script>
<script>
  (adsbygoogle = window.adsbygoogle || []).push({
    google_ad_client: "ca-pub-0135720358970849",
    enable_page_level_ads: true
  });
</script>
<script type="application/javascript">
        
            USER_ID = null;
        
        TITLE_SEARCH_URL = "/local/search/title/"
        POST_DISPLAY_URL = "/p/"
    </script>
</head>
<body>
<div class="container" id="content">
<div class="row visible-lg visible-md">
<div class="col-md-12 text-center" id="topnav">
<div class="col-md-1 active">
<a href="/t/Latest/">Latest</a>
</div>
<div class="col-md-1 ">
<a href="/t/Open/">Open</a>
</div>
<div class="col-md-1 ">
<a href="/t/RNA-Seq/">RNA-Seq</a>
</div>
<div class="col-md-1 ">
<a href="/t/ChIP-Seq/">ChIP-Seq</a>
</div>
<div class="col-md-1 ">
<a href="/t/SNP/">SNP</a>
</div>
<div class="col-md-1 ">
<a href="/t/Assembly/">Assembly</a>
</div>
<div class="col-md-1 ">
<a href="/t/Tutorials/">Tutorials</a>
</div>
<div class="col-md-1 ">
<a href="/t/Tools/">Tools</a>
</div>
<div class="col-md-1 ">
<a href="/t/Jobs/">Jobs</a>
</div>
<div class="col-md-1 ">
<a href="/t/Forum/">Forum</a>
</div>
<div class="col-md-1 "><a href="/planet/">Planet</a></div>
<div class="col-md-1 "><a href="/t/">All »</a></div>
</div>
</div>
<div class="row visible-sm visible-xs">
<div class="col-xs-4">
<div class="btn-group">
<button class="btn btn-primary dropdown-toggle" data-toggle="dropdown" type="button">
                 Latest 
                <span class="caret"></span>
</button>
<ul class="dropdown-menu" role="menu">
<li>
<a href="/t/Latest">Latest</a>
</li>
<li>
<a href="/t/Open">Open</a>
</li>
<li>
<a href="/t/RNA-Seq">RNA-Seq</a>
</li>
<li>
<a href="/t/ChIP-Seq">ChIP-Seq</a>
</li>
<li>
<a href="/t/SNP">SNP</a>
</li>
<li>
<a href="/t/Assembly">Assembly</a>
</li>
<li>
<a href="/t/Tutorials">Tutorials</a>
</li>
<li>
<a href="/t/Tools">Tools</a>
</li>
<li>
<a href="/t/Jobs">Jobs</a>
</li>
<li>
<a href="/t/Forum">Forum</a>
</li>
<li><a href="/planet/">Planet</a></li>
<li><a href="/t/">All »</a></li>
</ul>
</div>
</div>
<div class="col-xs-4 text-center" style="margin-bottom:5px">
<a class="btn btn-primary" href="/" role="button">
<i class="fa fa-star fa-1x"></i> Home </a>
</div>
<div class="col-xs-4 ">
<div class="btn-group pull-right">
<div>
<a class="btn btn-primary active" href="/site/login/" role="button">
<i class="fa fa-user fa-1x"></i> Log In
                    </a>
</div>
</div>
</div>
</div>
<div class="row visible-lg visible-md">
<div class="col-md-12" id="navbar">
<div class="col-lg-3 visible-lg" id="logo">
<a href="/"><img src="/static/biostar2.logo.png"/></a>
</div>
<div class="col-md-3 visible-md text-center">
<a href="/">
</a><a href="/"><img src="/static/biostar2.logo.png" style="width:200px; height: auto;"/></a>
</div>
<div class="col-md-9 top text-center">
                 Welcome to Biostar!
                <span class="pull-right">
<a href="/info/about/">about</a> • <a href="/info/faq/">faq</a>
                    • <a href="/info/rss/">rss <i class="fa fa-rss"></i></a>
</span>
</div>
<div class="col-md-2 col-md-offset-10 mid ">
<a href="/user/list/">
<div><i class="fa fa-globe"></i>
</div>
<div>Community</div>
</a>
</div>
<div class="col-md-2 mid ">
<b><a href="/site/login/">
<div><i class="fa fa-user fa-1x"></i></div>
<div>Log In</div>
</a></b>
</div>
<div class="col-md-2 mid ">
<b><a href="/accounts/signup/">
<div><i class="fa fa-arrow-circle-up fa-1x"></i></div>
<div>Sign Up</div>
</a></b>
</div>
<div class="col-md-2 mid newpost">
<a class="navitem " href="/p/new/post/">
<div><i class="fa fa-plus-circle fa-1x"></i></div>
<div>Add New Post</div>
</a>
</div>
</div>
</div>
<div class="row">
<div class="col-md-10 col-md-offset-2 searchbar">
<div class="col-md-8">
<input id="searchform" style="width:100%" type="text"/>
</div>
<div class="visible-lg visible-md">
            or  <a class="btn btn-default btn-xs" href="/local/search/page/" role="button"><i class="fa fa-search"></i>
            Classic search</a>
</div>
</div>
</div>
<div class="row">
<div class="col-md-9">
<div class="row pagebar">
<div class="col-sm-3">
<div class="btn-group visible-lg visible-md">
<button class="btn btn-default btn-sm dropdown-toggle" data-toggle="dropdown" type="button">
                Limit to: all time <span class="caret"></span>
</button>
<ul class="dropdown-menu" role="menu">
<li><a href="?sort=update&amp;limit=all time&amp;q=">all time</a></li>
<li><a href="?sort=update&amp;limit=today&amp;q=">today</a></li>
<li><a href="?sort=update&amp;limit=this week&amp;q=">this week</a></li>
<li><a href="?sort=update&amp;limit=this month&amp;q=">this month</a></li>
<li><a href="?sort=update&amp;limit=this year&amp;q=">this year</a></li>
</ul>
</div>
</div>
<div class="cold-sm-12 col-md-6 text-center ">
<span class="step-links">
        
            &lt;prev
        

            <span class="current">
              • 90,227 results •
                page 1 of 3008 •
        </span>
<a href="?page=2&amp;sort=update&amp;limit=all time&amp;q=">next &gt;</a>
</span>
</div>
<div class="col-sm-3 visible-lg visible-md">
<div class="btn-group pull-right">
<button class="btn btn-default btn-sm dropdown-toggle" data-toggle="dropdown" type="button">
                Sort by: update <span class="caret"></span>
</button>
<ul class="dropdown-menu" role="menu">
<li><a href="?sort=update&amp;limit=all time&amp;q=">update</a></li>
<li><a href="?sort=views&amp;limit=all time&amp;q=">views</a></li>
<li><a href="?sort=followers&amp;limit=all time&amp;q=">followers</a></li>
<li><a href="?sort=answers&amp;limit=all time&amp;q=">answers</a></li>
<li><a href="?sort=bookmarks&amp;limit=all time&amp;q=">bookmarks</a></li>
<li><a href="?sort=votes&amp;limit=all time&amp;q=">votes</a></li>
<li><a href="?sort=rank&amp;limit=all time&amp;q=">rank</a></li>
<li><a href="?sort=creation&amp;limit=all time&amp;q=">creation</a></li>
</ul>
</div>
</div>
</div>
<div id="post-list">
<div class="post-row Question Open">
<div class="count-box visible-lg visible-md">
<div class="box vote">
<div class="c">0</div>
<div class="t">votes</div>
</div>
<div class="box unanswered">
<div class="c">0</div>
<div class="t">answers</div>
</div>
<div class="box view">
<div class="c">2</div>
<div class="t">views</div>
</div>
</div>
<div class="count-box-sm visible-sm visible-xs">
<div class="box unanswered">
<div class="c">0</div>
<div class="t">answers</div>
</div>
</div>
<div class="title-box clearfix">
<div class="post-title">
<a href="/p/484421/">How to get the target sequence of matching consensus motif using Seqkit?</a>
</div>
<div class="clearfix">
<span class="tags tag-pad visible-lg visible-md">
<a class="tag" href="/t/seqkit/">seqkit</a>
<a class="tag" href="/t/motif/">motif</a>
<a class="tag" href="/t/promoter/">promoter</a>
</span>
<span class="userlink text-right muted">
            written just now by 


<a href="/u/85447/">2021yearsold</a> • <b>0</b>
</span>
</div>
</div>
</div>
<div class="post-row Job Open">
<div class="count-box visible-lg visible-md">
<div class="box vote">
<div class="c">0</div>
<div class="t">votes</div>
</div>
<div class="box unanswered">
<div class="c">0</div>
<div class="t">answers</div>
</div>
<div class="box view">
<div class="c">9</div>
<div class="t">views</div>
</div>
</div>
<div class="count-box-sm visible-sm visible-xs">
<div class="box unanswered">
<div class="c">0</div>
<div class="t">answers</div>
</div>
</div>
<div class="title-box clearfix">
<div class="post-title">
            
                Job:
            
            <a href="/p/484417/">Post-doctoral Research Fellow @ Vanderbilt University Medical Center, Nashville TN USA</a>
</div>
<div class="clearfix">
<span class="tags tag-pad visible-lg visible-md">
<a class="tag" href="/t/R/">R</a>
<a class="tag" href="/t/chip-seq/">chip-seq</a>
<a class="tag" href="/t/job/">job</a>
<a class="tag" href="/t/rna-seq/">rna-seq</a>
</span>
<span class="userlink text-right muted">
            written 11 minutes ago by 


<a href="/u/86155/">robb.flynn.az</a> • <b>0</b>
                
                    • updated
                    <span class="ago2">4 minutes ago</span> by
                    


<a href="/u/8494/">_r_am</a> ♦ <b>32k</b>
</span>
</div>
</div>
</div>
<div class="post-row Question Open">
<div class="count-box visible-lg visible-md">
<div class="box vote">
<div class="c">0</div>
<div class="t">votes</div>
</div>
<div class="box unanswered">
<div class="c">0</div>
<div class="t">answers</div>
</div>
<div class="box view">
<div class="c">13</div>
<div class="t">views</div>
</div>
</div>
<div class="count-box-sm visible-sm visible-xs">
<div class="box unanswered">
<div class="c">0</div>
<div class="t">answers</div>
</div>
</div>
<div class="title-box clearfix">
<div class="post-title">
<a href="/p/484411/">Meta-analysis of two datasets.</a>
</div>
<div class="clearfix">
<span class="tags tag-pad visible-lg visible-md">
<a class="tag" href="/t/gene/">gene</a>
<a class="tag" href="/t/assembly/">assembly</a>
<a class="tag" href="/t/snp/">snp</a>
</span>
<span class="userlink text-right muted">
            written 37 minutes ago by 


<a href="/u/86132/">parveenkayenat</a> • <b>0</b>
</span>
</div>
</div>
</div>
<div class="post-row Question Open">
<div class="count-box visible-lg visible-md">
<div class="box vote">
<div class="c">1</div>
<div class="t">vote</div>
</div>
<div class="box unanswered">
<div class="c">0</div>
<div class="t">answers</div>
</div>
<div class="box view">
<div class="c">10</div>
<div class="t">views</div>
</div>
</div>
<div class="count-box-sm visible-sm visible-xs">
<div class="box unanswered">
<div class="c">0</div>
<div class="t">answers</div>
</div>
</div>
<div class="title-box clearfix">
<div class="post-title">
<a href="/p/484409/">VarScan output file genotypes</a>
</div>
<div class="clearfix">
<span class="tags tag-pad visible-lg visible-md">
<a class="tag" href="/t/varscan/">varscan</a>
<a class="tag" href="/t/ngs/">ngs</a>
<a class="tag" href="/t/snp/">snp</a>
</span>
<span class="userlink text-right muted">
            written 41 minutes ago by 


<a href="/u/69759/">biom.andressa</a> • <b>0</b>
</span>
</div>
</div>
</div>
<div class="post-row Question Open">
<div class="count-box visible-lg visible-md">
<div class="box vote">
<div class="c">0</div>
<div class="t">votes</div>
</div>
<div class="box unanswered">
<div class="c">0</div>
<div class="t">answers</div>
</div>
<div class="box view">
<div class="c">12</div>
<div class="t">views</div>
</div>
</div>
<div class="count-box-sm visible-sm visible-xs">
<div class="box unanswered">
<div class="c">0</div>
<div class="t">answers</div>
</div>
</div>
<div class="title-box clearfix">
<div class="post-title">
<a href="/p/484407/">Generate random DNA sequences with variable %identity based on a reference sequence </a>
</div>
<div class="clearfix">
<span class="tags tag-pad visible-lg visible-md">
<a class="tag" href="/t/alignment/">alignment</a>
<a class="tag" href="/t/sequence/">sequence</a>
</span>
<span class="userlink text-right muted">
            written 44 minutes ago by 


<a href="/u/86154/">agnibhat</a> • <b>0</b>
</span>
</div>
</div>
</div>
<div class="post-row Job Open">
<div class="count-box visible-lg visible-md">
<div class="box vote">
<div class="c">3</div>
<div class="t">votes</div>
</div>
<div class="box unanswered">
<div class="c">0</div>
<div class="t">answers</div>
</div>
<div class="box view">
<div class="c">48</div>
<div class="t">views</div>
</div>
</div>
<div class="count-box-sm visible-sm visible-xs">
<div class="box unanswered">
<div class="c">0</div>
<div class="t">answers</div>
</div>
</div>
<div class="title-box clearfix">
<div class="post-title">
            
                Job:
            
            <a href="/p/484395/">I'm highly motivated</a>
</div>
<div class="clearfix">
<span class="tags tag-pad visible-lg visible-md">
<a class="tag" href="/t/python/">python</a>
<a class="tag" href="/t/practise/">practise</a>
<a class="tag" href="/t/trainee/">trainee</a>
<a class="tag" href="/t/barcelona/">barcelona</a>
<a class="tag" href="/t/job/">job</a>
</span>
<span class="userlink text-right muted">
            written 1 hour ago by 


<a href="/u/86153/">sergicarbajosa</a> • <b>10</b>
</span>
</div>
</div>
</div>
<div class="post-row Question Open">
<div class="count-box visible-lg visible-md">
<div class="box vote">
<div class="c">1</div>
<div class="t">vote</div>
</div>
<div class="box answered">
<div class="c">1</div>
<div class="t">answer</div>
</div>
<div class="box view">
<div class="c">30</div>
<div class="t">views</div>
</div>
</div>
<div class="count-box-sm visible-sm visible-xs">
<div class="box answered">
<div class="c">1</div>
<div class="t">answer</div>
</div>
</div>
<div class="title-box clearfix">
<div class="post-title">
<a href="/p/484378/">What is the best way to update a list of deprecated gene symbols? (GeCKO v2 gRNA library)</a>
</div>
<div class="clearfix">
<span class="tags tag-pad visible-lg visible-md">
<a class="tag" href="/t/gene symbol/">gene symbol</a>
<a class="tag" href="/t/sgrna/">sgrna</a>
<a class="tag" href="/t/library/">library</a>
</span>
<span class="userlink text-right muted">
            written 1 hour ago by 


<a href="/u/46060/">Swimming bird</a> • <b>20</b>
                
                    • updated
                    <span class="ago2">1 hour ago</span> by
                    


<a href="/u/25721/">ATpoint</a> ♦ <b>44k</b>
</span>
</div>
</div>
</div>
<div class="post-row Question Open">
<div class="count-box visible-lg visible-md">
<div class="box vote">
<div class="c">2</div>
<div class="t">votes</div>
</div>
<div class="box answered">
<div class="c">2</div>
<div class="t">answers</div>
</div>
<div class="box view">
<div class="c">38</div>
<div class="t">views</div>
</div>
</div>
<div class="count-box-sm visible-sm visible-xs">
<div class="box answered">
<div class="c">2</div>
<div class="t">answers</div>
</div>
</div>
<div class="title-box clearfix">
<div class="post-title">
<a href="/p/484356/">Is there a package that outputs gene coordinates given a list of Ensembl IDs?</a>
</div>
<div class="clearfix">
<span class="tags tag-pad visible-lg visible-md">
<a class="tag" href="/t/gene/">gene</a>
<a class="tag" href="/t/ensembl/">ensembl</a>
<a class="tag" href="/t/biopython/">biopython</a>
</span>
<span class="userlink text-right muted">
            written 3 hours ago by 


<a href="/u/52767/">dustyl259</a> • <b>0</b>
                
                    • updated
                    <span class="ago2">1 hour ago</span> by
                    


<a href="/u/25721/">ATpoint</a> ♦ <b>44k</b>
</span>
</div>
</div>
</div>
<div class="post-row Question Open">
<div class="count-box visible-lg visible-md">
<div class="box vote">
<div class="c">0</div>
<div class="t">votes</div>
</div>
<div class="box unanswered">
<div class="c">0</div>
<div class="t">answers</div>
</div>
<div class="box view">
<div class="c">14</div>
<div class="t">views</div>
</div>
</div>
<div class="count-box-sm visible-sm visible-xs">
<div class="box unanswered">
<div class="c">0</div>
<div class="t">answers</div>
</div>
</div>
<div class="title-box clearfix">
<div class="post-title">
<a href="/p/484386/">Compare mutation frequencies in TCGA and cbioportal</a>
</div>
<div class="clearfix">
<span class="tags tag-pad visible-lg visible-md">
<a class="tag" href="/t/frequency/">frequency</a>
<a class="tag" href="/t/tcga/">tcga</a>
<a class="tag" href="/t/mutation/">mutation</a>
<a class="tag" href="/t/fisher's exact/">fisher's exact</a>
</span>
<span class="userlink text-right muted">
            written 1 hour ago by 


<a href="/u/7198/">P</a> • <b>10</b>
                
                    • updated
                    <span class="ago2">1 hour ago</span> by
                    


<a href="/u/8494/">_r_am</a> ♦ <b>32k</b>
</span>
</div>
</div>
</div>
<div class="post-row Question Open">
<div class="count-box visible-lg visible-md">
<div class="box vote">
<div class="c">0</div>
<div class="t">votes</div>
</div>
<div class="box answered">
<div class="c">1</div>
<div class="t">answer</div>
</div>
<div class="box view">
<div class="c">68</div>
<div class="t">views</div>
</div>
</div>
<div class="count-box-sm visible-sm visible-xs">
<div class="box answered">
<div class="c">1</div>
<div class="t">answer</div>
</div>
</div>
<div class="title-box clearfix">
<div class="post-title">
<a href="/p/483884/">Reads detected/"spill over" on introns after using bamCoverage function from deepTools</a>
</div>
<div class="clearfix">
<span class="tags tag-pad visible-lg visible-md">
<a class="tag" href="/t/bamcoverage/">bamcoverage</a>
<a class="tag" href="/t/intron/">intron</a>
<a class="tag" href="/t/bigwig/">bigwig</a>
<a class="tag" href="/t/deeptools/">deeptools</a>
</span>
<span class="userlink text-right muted">
            written 2 days ago by 


<a href="/u/85923/">kdcastillo</a> • <b>0</b>
</span>
</div>
</div>
</div>
<div class="post-row Tool Open">
<div class="count-box visible-lg visible-md">
<div class="box vote">
<div class="c">5</div>
<div class="t">votes</div>
</div>
<div class="box unanswered">
<div class="c">0</div>
<div class="t">answers</div>
</div>
<div class="box view">
<div class="c">1.9k</div>
<div class="t">views</div>
</div>
</div>
<div class="count-box-sm visible-sm visible-xs">
<div class="box unanswered">
<div class="c">0</div>
<div class="t">answers</div>
</div>
</div>
<div class="title-box clearfix">
<div class="post-title">
            
                Tool:
            
            <a href="/p/375830/">chromoMap- R package for Interactive visualization and Annotation of chromosomes or regions of any living organism.</a>
</div>
<div class="clearfix">
<span class="tags tag-pad visible-lg visible-md">
<a class="tag" href="/t/genome/">genome</a>
<a class="tag" href="/t/R/">R</a>
<a class="tag" href="/t/visualization/">visualization</a>
<a class="tag" href="/t/tool/">tool</a>
<a class="tag" href="/t/annotation/">annotation</a>
</span>
<span class="userlink text-right muted">
            written 21 months ago by 


<a href="/u/54263/">lakshayanand15</a> • <b>50</b>
</span>
</div>
</div>
</div>
<div class="post-row Question Open">
<div class="count-box visible-lg visible-md">
<div class="box vote">
<div class="c">0</div>
<div class="t">votes</div>
</div>
<div class="box answered">
<div class="c">1</div>
<div class="t">answer</div>
</div>
<div class="box view">
<div class="c">15</div>
<div class="t">views</div>
</div>
</div>
<div class="count-box-sm visible-sm visible-xs">
<div class="box answered">
<div class="c">1</div>
<div class="t">answer</div>
</div>
</div>
<div class="title-box clearfix">
<div class="post-title">
<a href="/p/484379/">per base sequence content</a>
</div>
<div class="clearfix">
<span class="tags tag-pad visible-lg visible-md">
<a class="tag" href="/t/assembly/">assembly</a>
<a class="tag" href="/t/next-gen/">next-gen</a>
<a class="tag" href="/t/rna-seq/">rna-seq</a>
</span>
<span class="userlink text-right muted">
            written 1 hour ago by 


<a href="/u/69163/">askari.arezou94</a> • <b>30</b>
                
                    • updated
                    <span class="ago2">1 hour ago</span> by
                    


<a href="/u/18713/">GenoMax</a> ♦ <b>94k</b>
</span>
</div>
</div>
</div>
<div class="post-row Question Open">
<div class="count-box visible-lg visible-md">
<div class="box vote">
<div class="c">3</div>
<div class="t">votes</div>
</div>
<div class="box answered">
<div class="c">1</div>
<div class="t">answer</div>
</div>
<div class="box view">
<div class="c">42</div>
<div class="t">views</div>
</div>
<div class="book_count text-center">
                6 follow
            </div>
</div>
<div class="count-box-sm visible-sm visible-xs">
<div class="box answered">
<div class="c">1</div>
<div class="t">answer</div>
</div>
</div>
<div class="title-box clearfix">
<div class="post-title">
<a href="/p/484371/">Can you tell whether the cell was dead or not using RNA-seq data?</a>
</div>
<div class="clearfix">
<span class="tags tag-pad visible-lg visible-md">
<a class="tag" href="/t/rna-seq/">rna-seq</a>
</span>
<span class="userlink text-right muted">
            written 2 hours ago by 


<a href="/u/32510/">dcheng1</a> • <b>0</b>
                
                    • updated
                    <span class="ago2">2 hours ago</span> by
                    


<a href="/u/56237/">Mensur Dlakic</a> • <b>8.0k</b>
</span>
</div>
</div>
</div>
<div class="post-row Question Open">
<div class="count-box visible-lg visible-md">
<div class="box vote">
<div class="c">0</div>
<div class="t">votes</div>
</div>
<div class="box unanswered">
<div class="c">0</div>
<div class="t">answers</div>
</div>
<div class="box view">
<div class="c">14</div>
<div class="t">views</div>
</div>
</div>
<div class="count-box-sm visible-sm visible-xs">
<div class="box unanswered">
<div class="c">0</div>
<div class="t">answers</div>
</div>
</div>
<div class="title-box clearfix">
<div class="post-title">
<a href="/p/484373/">Deciding on the best read length for metagenomics</a>
</div>
<div class="clearfix">
<span class="tags tag-pad visible-lg visible-md">
<a class="tag" href="/t/assembly/">assembly</a>
<a class="tag" href="/t/next-gen/">next-gen</a>
<a class="tag" href="/t/sequencing/">sequencing</a>
</span>
<span class="userlink text-right muted">
            written 2 hours ago by 


<a href="/u/86150/">capfz200</a> • <b>0</b>
</span>
</div>
</div>
</div>
<div class="post-row Question Open">
<div class="count-box visible-lg visible-md">
<div class="box vote">
<div class="c">0</div>
<div class="t">votes</div>
</div>
<div class="box unanswered">
<div class="c">0</div>
<div class="t">answers</div>
</div>
<div class="box view">
<div class="c">605</div>
<div class="t">views</div>
</div>
</div>
<div class="count-box-sm visible-sm visible-xs">
<div class="box unanswered">
<div class="c">0</div>
<div class="t">answers</div>
</div>
</div>
<div class="title-box clearfix">
<div class="post-title">
<a href="/p/391866/">Interaction terms and main effects in DESeq2</a>
</div>
<div class="clearfix">
<span class="tags tag-pad visible-lg visible-md">
<a class="tag" href="/t/deseq2/">deseq2</a>
<a class="tag" href="/t/rna-seq/">rna-seq</a>
</span>
<span class="userlink text-right muted">
            written 17 months ago by 


<a href="/u/55384/">Sam</a> • <b>120</b>
                
                    • updated
                    <span class="ago2">2 hours ago</span> by
                    


<a href="/u/1/">Biostar</a> ♦♦ <b>20</b>
</span>
</div>
</div>
</div>
<div class="post-row Question Open">
<div class="count-box visible-lg visible-md">
<div class="box vote">
<div class="c">0</div>
<div class="t">votes</div>
</div>
<div class="box unanswered">
<div class="c">0</div>
<div class="t">answers</div>
</div>
<div class="box view">
<div class="c">15</div>
<div class="t">views</div>
</div>
</div>
<div class="count-box-sm visible-sm visible-xs">
<div class="box unanswered">
<div class="c">0</div>
<div class="t">answers</div>
</div>
</div>
<div class="title-box clearfix">
<div class="post-title">
<a href="/p/484367/">Why is `scale-free topology` estimated as -sign(slope) * (R^2) in WGCNA?</a>
</div>
<div class="clearfix">
<span class="tags tag-pad visible-lg visible-md">
<a class="tag" href="/t/wgcna/">wgcna</a>
<a class="tag" href="/t/gene expression/">gene expression</a>
<a class="tag" href="/t/coexpression/">coexpression</a>
</span>
<span class="userlink text-right muted">
            written 2 hours ago by 


<a href="/u/28277/">O.rka</a> • <b>230</b>
</span>
</div>
</div>
</div>
<div class="post-row Question Open">
<div class="count-box visible-lg visible-md">
<div class="box vote">
<div class="c">0</div>
<div class="t">votes</div>
</div>
<div class="box unanswered">
<div class="c">0</div>
<div class="t">answers</div>
</div>
<div class="box view">
<div class="c">13</div>
<div class="t">views</div>
</div>
</div>
<div class="count-box-sm visible-sm visible-xs">
<div class="box unanswered">
<div class="c">0</div>
<div class="t">answers</div>
</div>
</div>
<div class="title-box clearfix">
<div class="post-title">
<a href="/p/484364/">ICE normalization using JuicerTools</a>
</div>
<div class="clearfix">
<span class="tags tag-pad visible-lg visible-md">
<a class="tag" href="/t/genome/">genome</a>
<a class="tag" href="/t/hi-c/">hi-c</a>
<a class="tag" href="/t/cooler/">cooler</a>
<a class="tag" href="/t/juicer/">juicer</a>
<a class="tag" href="/t/3c/">3c</a>
</span>
<span class="userlink text-right muted">
            written 2 hours ago by 


<a href="/u/86149/">maxrhighsmith</a> • <b>0</b>
                
                    • updated
                    <span class="ago2">2 hours ago</span> by
                    


<a href="/u/18713/">GenoMax</a> ♦ <b>94k</b>
</span>
</div>
</div>
</div>
<div class="post-row Question Open">
<div class="count-box visible-lg visible-md">
<div class="box vote">
<div class="c">0</div>
<div class="t">votes</div>
</div>
<div class="box unanswered">
<div class="c">0</div>
<div class="t">answers</div>
</div>
<div class="box view">
<div class="c">10</div>
<div class="t">views</div>
</div>
</div>
<div class="count-box-sm visible-sm visible-xs">
<div class="box unanswered">
<div class="c">0</div>
<div class="t">answers</div>
</div>
</div>
<div class="title-box clearfix">
<div class="post-title">
<a href="/p/484366/">Variant calling Quality Control</a>
</div>
<div class="clearfix">
<span class="tags tag-pad visible-lg visible-md">
<a class="tag" href="/t/next-gen/">next-gen</a>
<a class="tag" href="/t/snp/">snp</a>
</span>
<span class="userlink text-right muted">
            written 2 hours ago by 


<a href="/u/79487/">giusdalt95</a> • <b>0</b>
</span>
</div>
</div>
</div>
<div class="post-row Question Open">
<div class="count-box visible-lg visible-md">
<div class="box vote">
<div class="c">0</div>
<div class="t">votes</div>
</div>
<div class="box unanswered">
<div class="c">0</div>
<div class="t">answers</div>
</div>
<div class="box view">
<div class="c">14</div>
<div class="t">views</div>
</div>
</div>
<div class="count-box-sm visible-sm visible-xs">
<div class="box unanswered">
<div class="c">0</div>
<div class="t">answers</div>
</div>
</div>
<div class="title-box clearfix">
<div class="post-title">
<a href="/p/484365/">How to choose the appropriate gtf file?</a>
</div>
<div class="clearfix">
<span class="tags tag-pad visible-lg visible-md">
<a class="tag" href="/t/gtf genome human/">gtf genome human</a>
</span>
<span class="userlink text-right muted">
            written 2 hours ago by 


<a href="/u/78123/">pomodoro_sinensis</a> • <b>0</b>
</span>
</div>
</div>
</div>
<div class="post-row Question Open">
<div class="count-box visible-lg visible-md">
<div class="box vote">
<div class="c">0</div>
<div class="t">votes</div>
</div>
<div class="box unanswered">
<div class="c">0</div>
<div class="t">answers</div>
</div>
<div class="box view">
<div class="c">28</div>
<div class="t">views</div>
</div>
</div>
<div class="count-box-sm visible-sm visible-xs">
<div class="box unanswered">
<div class="c">0</div>
<div class="t">answers</div>
</div>
</div>
<div class="title-box clearfix">
<div class="post-title">
<a href="/p/484357/">Relative frequency with python</a>
</div>
<div class="clearfix">
<span class="tags tag-pad visible-lg visible-md">
<a class="tag" href="/t/gene/">gene</a>
<a class="tag" href="/t/R/">R</a>
<a class="tag" href="/t/sequence/">sequence</a>
<a class="tag" href="/t/software error/">software error</a>
<a class="tag" href="/t/genome/">genome</a>
</span>
<span class="userlink text-right muted">
            written 3 hours ago by 


<a href="/u/76851/">projetoic</a> • <b>0</b>
</span>
</div>
</div>
</div>
<div class="post-row News Open">
<div class="count-box visible-lg visible-md">
<div class="box vote">
<div class="c">565</div>
<div class="t">votes</div>
</div>
<div class="box answered">
<div class="c">24</div>
<div class="t">answers</div>
</div>
<div class="box view">
<div class="c">61k</div>
<div class="t">views</div>
</div>
<div class="book_count text-center">
                278 follow
            </div>
</div>
<div class="count-box-sm visible-sm visible-xs">
<div class="box answered">
<div class="c">24</div>
<div class="t">answers</div>
</div>
</div>
<div class="title-box clearfix">
<div class="post-title">
            
                News:
            
            <a href="/p/225812/">The Biostar Handbook. A bioinformatics e-book for beginners.</a>
</div>
<div class="clearfix">
<span class="tags tag-pad visible-lg visible-md">
<a class="tag" href="/t/tutorial/">tutorial</a>
<a class="tag" href="/t/news/">news</a>
<a class="tag" href="/t/training/">training</a>
<a class="tag" href="/t/handbook/">handbook</a>
</span>
<span class="userlink text-right muted">
            written 4.1 years ago by 


<a href="/u/2/">Istvan Albert</a> ♦♦ <b>86k</b>
                
                    • updated
                    <span class="ago2">3 hours ago</span> by
                    


<a href="/u/80974/">meriv41409</a> • <b>0</b>
</span>
</div>
</div>
</div>
<div class="post-row Question Open">
<div class="count-box visible-lg visible-md">
<div class="box vote">
<div class="c">0</div>
<div class="t">votes</div>
</div>
<div class="box unanswered">
<div class="c">0</div>
<div class="t">answers</div>
</div>
<div class="box view">
<div class="c">24</div>
<div class="t">views</div>
</div>
</div>
<div class="count-box-sm visible-sm visible-xs">
<div class="box unanswered">
<div class="c">0</div>
<div class="t">answers</div>
</div>
</div>
<div class="title-box clearfix">
<div class="post-title">
<a href="/p/484355/">Pacbio RSII rna handling</a>
</div>
<div class="clearfix">
<span class="tags tag-pad visible-lg visible-md">
<a class="tag" href="/t/alignment/">alignment</a>
</span>
<span class="userlink text-right muted">
            written 3 hours ago by 


<a href="/u/69570/">kishorssf91</a> • <b>0</b>
</span>
</div>
</div>
</div>
<div class="post-row Question Open">
<div class="count-box visible-lg visible-md">
<div class="box vote">
<div class="c">0</div>
<div class="t">votes</div>
</div>
<div class="box answered">
<div class="c">1</div>
<div class="t">answer</div>
</div>
<div class="box view">
<div class="c">43</div>
<div class="t">views</div>
</div>
</div>
<div class="count-box-sm visible-sm visible-xs">
<div class="box answered">
<div class="c">1</div>
<div class="t">answer</div>
</div>
</div>
<div class="title-box clearfix">
<div class="post-title">
<a href="/p/484245/">Design and contrast matrices for including batch effect</a>
</div>
<div class="clearfix">
<span class="tags tag-pad visible-lg visible-md">
<a class="tag" href="/t/R/">R</a>
<a class="tag" href="/t/design/">design</a>
<a class="tag" href="/t/contrasts/">contrasts</a>
<a class="tag" href="/t/rna-seq/">rna-seq</a>
<a class="tag" href="/t/batch effect/">batch effect</a>
</span>
<span class="userlink text-right muted">
            written 10 hours ago by 


<a href="/u/86094/">kristian.urh</a> • <b>0</b>
                
                    • updated
                    <span class="ago2">3 hours ago</span> by
                    


<a href="/u/4407/">swbarnes2</a> ♦ <b>9.3k</b>
</span>
</div>
</div>
</div>
<div class="post-row Question Open">
<div class="count-box visible-lg visible-md">
<div class="box vote">
<div class="c">0</div>
<div class="t">votes</div>
</div>
<div class="box answered">
<div class="c">1</div>
<div class="t">answer</div>
</div>
<div class="box view">
<div class="c">51</div>
<div class="t">views</div>
</div>
</div>
<div class="count-box-sm visible-sm visible-xs">
<div class="box answered">
<div class="c">1</div>
<div class="t">answer</div>
</div>
</div>
<div class="title-box clearfix">
<div class="post-title">
<a href="/p/482618/">Cytoscape crashes when importing a network with Cy3D as renderer</a>
</div>
<div class="clearfix">
<span class="tags tag-pad visible-lg visible-md">
<a class="tag" href="/t/ubuntu/">ubuntu</a>
<a class="tag" href="/t/cy3d/">cy3d</a>
<a class="tag" href="/t/cytoscape/">cytoscape</a>
<a class="tag" href="/t/crash/">crash</a>
</span>
<span class="userlink text-right muted">
            written 9 days ago by 


<a href="/u/85330/">lundgrenolof</a> • <b>0</b>
                
                    • updated
                    <span class="ago2">4 hours ago</span> by
                    


<a href="/u/37330/">scooter</a> • <b>410</b>
</span>
</div>
</div>
</div>
<div class="post-row Question Open">
<div class="count-box visible-lg visible-md">
<div class="box vote">
<div class="c">0</div>
<div class="t">votes</div>
</div>
<div class="box answered">
<div class="c">1</div>
<div class="t">answer</div>
</div>
<div class="box view">
<div class="c">53</div>
<div class="t">views</div>
</div>
</div>
<div class="count-box-sm visible-sm visible-xs">
<div class="box answered">
<div class="c">1</div>
<div class="t">answer</div>
</div>
</div>
<div class="title-box clearfix">
<div class="post-title">
<a href="/p/483105/">Cytoscape Directed Network Layout</a>
</div>
<div class="clearfix">
<span class="tags tag-pad visible-lg visible-md">
<a class="tag" href="/t/cytoscape/">cytoscape</a>
<a class="tag" href="/t/network layout/">network layout</a>
<a class="tag" href="/t/directed graph/">directed graph</a>
</span>
<span class="userlink text-right muted">
            written 6 days ago by 


<a href="/u/53987/">imaparna27</a> • <b>0</b>
                
                    • updated
                    <span class="ago2">4 hours ago</span> by
                    


<a href="/u/37330/">scooter</a> • <b>410</b>
</span>
</div>
</div>
</div>
<div class="post-row Question Open">
<div class="count-box visible-lg visible-md">
<div class="box vote">
<div class="c">1</div>
<div class="t">vote</div>
</div>
<div class="box answered">
<div class="c">1</div>
<div class="t">answer</div>
</div>
<div class="box view">
<div class="c">182</div>
<div class="t">views</div>
</div>
</div>
<div class="count-box-sm visible-sm visible-xs">
<div class="box answered">
<div class="c">1</div>
<div class="t">answer</div>
</div>
</div>
<div class="title-box clearfix">
<div class="post-title">
<a href="/p/442310/">Which python package to use for agent based modeling</a>
</div>
<div class="clearfix">
<span class="tags tag-pad visible-lg visible-md">
<a class="tag" href="/t/python/">python</a>
<a class="tag" href="/t/modeling/">modeling</a>
<a class="tag" href="/t/agent-based modeling/">agent-based modeling</a>
</span>
<span class="userlink text-right muted">
            written 7 months ago by 


<a href="/u/60585/">LizzAlice</a> • <b>30</b>
                
                    • updated
                    <span class="ago2">4 hours ago</span> by
                    


<a href="/u/86146/">Zaphod</a> • <b>0</b>
</span>
</div>
</div>
</div>
<div class="post-row Question Open">
<div class="count-box visible-lg visible-md">
<div class="box vote">
<div class="c">0</div>
<div class="t">votes</div>
</div>
<div class="box answered">
<div class="c">2</div>
<div class="t">answers</div>
</div>
<div class="box view">
<div class="c">36</div>
<div class="t">views</div>
</div>
</div>
<div class="count-box-sm visible-sm visible-xs">
<div class="box answered">
<div class="c">2</div>
<div class="t">answers</div>
</div>
</div>
<div class="title-box clearfix">
<div class="post-title">
<a href="/p/484325/">How to trim reads when I'm not sure where they are?</a>
</div>
<div class="clearfix">
<span class="tags tag-pad visible-lg visible-md">
<a class="tag" href="/t/illumina/">illumina</a>
<a class="tag" href="/t/rna-seq/">rna-seq</a>
<a class="tag" href="/t/cutadapt/">cutadapt</a>
</span>
<span class="userlink text-right muted">
            written 6 hours ago by 


<a href="/u/48438/">avelarbio46</a> • <b>10</b>
                
                    • updated
                    <span class="ago2">4 hours ago</span> by
                    


<a href="/u/13691/">shelkmike</a> • <b>310</b>
</span>
</div>
</div>
</div>
<div class="post-row Question Open">
<div class="count-box visible-lg visible-md">
<div class="box vote">
<div class="c">0</div>
<div class="t">votes</div>
</div>
<div class="box unanswered">
<div class="c">0</div>
<div class="t">answers</div>
</div>
<div class="box view">
<div class="c">23</div>
<div class="t">views</div>
</div>
</div>
<div class="count-box-sm visible-sm visible-xs">
<div class="box unanswered">
<div class="c">0</div>
<div class="t">answers</div>
</div>
</div>
<div class="title-box clearfix">
<div class="post-title">
<a href="/p/484344/">Sequence length distribution after adapter trimming using trimmomatic</a>
</div>
<div class="clearfix">
<span class="tags tag-pad visible-lg visible-md">
<a class="tag" href="/t/alignment/">alignment</a>
</span>
<span class="userlink text-right muted">
            written 4 hours ago by 


<a href="/u/29285/">GK1610</a> • <b>80</b>
</span>
</div>
</div>
</div>
<div class="post-row News Open">
<div class="count-box visible-lg visible-md">
<div class="box vote">
<div class="c">0</div>
<div class="t">votes</div>
</div>
<div class="box unanswered">
<div class="c">0</div>
<div class="t">answers</div>
</div>
<div class="box view">
<div class="c">18</div>
<div class="t">views</div>
</div>
</div>
<div class="count-box-sm visible-sm visible-xs">
<div class="box unanswered">
<div class="c">0</div>
<div class="t">answers</div>
</div>
</div>
<div class="title-box clearfix">
<div class="post-title">
            
                News:
            
            <a href="/p/484340/">ONLINE TRAINING -GENOME ASSEMBLY USING OXFORD NANOPORE SEQUENCING</a>
</div>
<div class="clearfix">
<span class="tags tag-pad visible-lg visible-md">
<a class="tag" href="/t/genome/">genome</a>
<a class="tag" href="/t/assembly/">assembly</a>
<a class="tag" href="/t/news/">news</a>
<a class="tag" href="/t/nanopore/">nanopore</a>
</span>
<span class="userlink text-right muted">
            written 4 hours ago by 


<a href="/u/32251/">carlopecoraro2</a> • <b>1.9k</b>
</span>
</div>
</div>
</div>
<div class="post-row Question Open">
<div class="count-box visible-lg visible-md">
<div class="box vote">
<div class="c">1</div>
<div class="t">vote</div>
</div>
<div class="box answered">
<div class="c">1</div>
<div class="t">answer</div>
</div>
<div class="box view">
<div class="c">30</div>
<div class="t">views</div>
</div>
</div>
<div class="count-box-sm visible-sm visible-xs">
<div class="box answered">
<div class="c">1</div>
<div class="t">answer</div>
</div>
</div>
<div class="title-box clearfix">
<div class="post-title">
<a href="/p/484320/">Count, LT, PH, PT Column in Functional Annotation Chart of DAVID</a>
</div>
<div class="clearfix">
<span class="tags tag-pad visible-lg visible-md">
<a class="tag" href="/t/david/">david</a>
<a class="tag" href="/t/gsea/">gsea</a>
</span>
<span class="userlink text-right muted">
            written 6 hours ago by 


<a href="/u/67622/">nickhir</a> • <b>20</b>
                
                    • updated
                    <span class="ago2">4 hours ago</span> by
                    


<a href="/u/1767/">Asaf</a> ♦ <b>8.5k</b>
</span>
</div>
</div>
</div>
</div>
<div class="row pagebar">
<div class="col-sm-3">
<div class="btn-group visible-lg visible-md">
<button class="btn btn-default btn-sm dropdown-toggle" data-toggle="dropdown" type="button">
                Limit to: all time <span class="caret"></span>
</button>
<ul class="dropdown-menu" role="menu">
<li><a href="?sort=update&amp;limit=all time&amp;q=www.yelp.de/biz/1a-gebÃ¤udereinigung-stuttgart-stuttgart-7">all time</a></li>
<li><a href="?sort=update&amp;limit=today&amp;q=www.yelp.de/biz/1a-gebÃ¤udereinigung-stuttgart-stuttgart-7">today</a></li>
<li><a href="?sort=update&amp;limit=this week&amp;q=www.yelp.de/biz/1a-gebÃ¤udereinigung-stuttgart-stuttgart-7">this week</a></li>
<li><a href="?sort=update&amp;limit=this month&amp;q=www.yelp.de/biz/1a-gebÃ¤udereinigung-stuttgart-stuttgart-7">this month</a></li>
<li><a href="?sort=update&amp;limit=this year&amp;q=www.yelp.de/biz/1a-gebÃ¤udereinigung-stuttgart-stuttgart-7">this year</a></li>
</ul>
</div>
</div>
<div class="cold-sm-12 col-md-6 text-center ">
<span class="step-links">
        
            &lt;prev
        

            <span class="current">
              • 90,227 results •
                page 1 of 3008 •
        </span>
<a href="?page=2&amp;sort=update&amp;limit=all time&amp;q=www.yelp.de/biz/1a-gebÃ¤udereinigung-stuttgart-stuttgart-7">next &gt;</a>
</span>
</div>
<div class="col-sm-3 visible-lg visible-md">
<div class="btn-group pull-right">
<button class="btn btn-default btn-sm dropdown-toggle" data-toggle="dropdown" type="button">
                Sort by: update <span class="caret"></span>
</button>
<ul class="dropdown-menu" role="menu">
<li><a href="?sort=update&amp;limit=all time&amp;q=www.yelp.de/biz/1a-gebÃ¤udereinigung-stuttgart-stuttgart-7">update</a></li>
<li><a href="?sort=views&amp;limit=all time&amp;q=www.yelp.de/biz/1a-gebÃ¤udereinigung-stuttgart-stuttgart-7">views</a></li>
<li><a href="?sort=followers&amp;limit=all time&amp;q=www.yelp.de/biz/1a-gebÃ¤udereinigung-stuttgart-stuttgart-7">followers</a></li>
<li><a href="?sort=answers&amp;limit=all time&amp;q=www.yelp.de/biz/1a-gebÃ¤udereinigung-stuttgart-stuttgart-7">answers</a></li>
<li><a href="?sort=bookmarks&amp;limit=all time&amp;q=www.yelp.de/biz/1a-gebÃ¤udereinigung-stuttgart-stuttgart-7">bookmarks</a></li>
<li><a href="?sort=votes&amp;limit=all time&amp;q=www.yelp.de/biz/1a-gebÃ¤udereinigung-stuttgart-stuttgart-7">votes</a></li>
<li><a href="?sort=rank&amp;limit=all time&amp;q=www.yelp.de/biz/1a-gebÃ¤udereinigung-stuttgart-stuttgart-7">rank</a></li>
<li><a href="?sort=creation&amp;limit=all time&amp;q=www.yelp.de/biz/1a-gebÃ¤udereinigung-stuttgart-stuttgart-7">creation</a></li>
</ul>
</div>
</div>
</div>
</div>
<div class="col-md-3 sidebar">
<div class="banner-sidebar">
<a href="https://biostar.myshopify.com/">
<img src="https://www.biostarhandbook.com/static/book-cover.png"/>
</a>
</div>
<div class="head">Recent Votes</div>
<div class="recent-votes">
<ul style="opacity: 0.8;">
<li><a href="/p/478165/#484374">
                C: Easiest way to homogenize gene aliases across datasets? </a>
</li>
<li><a href="/p/484409/#484413">
                C: VarScan output file genotypes</a>
</li>
<li><a href="/p/484395/#484401">
                C: Looking for practices</a>
</li>
<li><a href="/p/484371/#484376">
                A: Can you tell whether the cell was dead or not using RNA-seq data?</a>
</li>
<li><a href="/p/484007/#484380">
                C: What does p-value mean ? What and how can i interpret the results</a>
</li>
<li><a href="/p/484395/#484401">
                C: Looking for practices</a>
</li>
<li><a href="/p/484395/">
                I'm highly motivated</a>
</li>
</ul>
</div>
<div class="head">Recent Locations •
    <a href="/user/list/">All »</a></div>
<div class="recent-posts">
<ul>
<li>
                        Texas, <span class="subtle">just now</span>
</li>
</ul>
</div>
<div class="head">Recent Awards • <a href="/b/list/">All »</a></div>
<div class="recent-awards">
<ul>
<li>
<a href="/b/3/">Teacher <i class="fa fa-smile-o"></i></a>
                      to 


<a href="/u/56237/">Mensur Dlakic</a> • <b>8.0k</b>
</li>
<li>
<a href="/b/3/">Teacher <i class="fa fa-smile-o"></i></a>
                      to 


<a href="/u/40195/">jared.andrews07</a> ♦ <b>8.3k</b>
</li>
<li>
<a href="/b/6/">Scholar <i class="fa fa-check-circle-o"></i></a>
                      to 


<a href="/u/20/">Alex Reynolds</a> ♦ <b>31k</b>
</li>
<li>
<a href="/b/4/">Commentator <i class="fa fa-comment"></i></a>
                      to 


<a href="/u/25721/">ATpoint</a> ♦ <b>44k</b>
</li>
<li>
<a href="/b/6/">Scholar <i class="fa fa-check-circle-o"></i></a>
                      to 


<a href="/u/40195/">jared.andrews07</a> ♦ <b>8.3k</b>
</li>
<li>
<a href="/b/6/">Scholar <i class="fa fa-check-circle-o"></i></a>
                      to 


<a href="/u/18713/">GenoMax</a> ♦ <b>94k</b>
</li>
</ul>
</div>
<div class="head">Recent Replies</div>
<div class="recent-posts">
<ul>
<li>
<a href="/p/484417/#484420">C: Post-doctoral Research Fellow </a> by <a href="/u/8494/">
</a><a href="/u/8494/">_r_am</a> ♦ <b>32k</b>
<div class="peek">Thank you for creating this posting. However, copy-pasting from an external website doesn't alway...</div>
</li>
<li>
<a href="/p/484395/#484419">C: I'm highly motivated</a> by <a href="/u/8494/">
</a><a href="/u/8494/">_r_am</a> ♦ <b>32k</b>
<div class="peek">I think you misunderstood one of my points - I said that a statement saying "I'm highly motivated...</div>
</li>
<li>
<a href="/p/484395/#484418">C: I'm highly motivated</a> by <a href="/u/8494/">
</a><a href="/u/8494/">_r_am</a> ♦ <b>32k</b>
<div class="peek">I agree that this is a good space to watch, but like you said, the directionality is weird here. ...</div>
</li>
<li>
<a href="/p/484386/#484416">C: Compare mutation frequencies in TCGA and cbioportal</a> by <a href="/u/8494/">
</a><a href="/u/8494/">_r_am</a> ♦ <b>32k</b>
<div class="peek">Ah, I see. That makes a lot more sense.

I don't see how that can be done in a statistically mean...</div>
</li>
<li>
<a href="/p/483591/#484415">C: sortmerna terminates without generating the file with rRNA being removed </a> by <a href="/u/58100/">
</a><a href="/u/58100/">bioinformatics.queries</a> • <b>20</b>
<div class="peek">I ran the command as suggested and the log-file was generated. The command stopped after running ...</div>
</li>
<li>
<a href="/p/484411/#484414">C: Meta-analysis of two datasets.</a> by <a href="/u/72027/">
</a><a href="/u/72027/">rpolicastro</a> ♦ <b>3.1k</b>
<div class="peek">What is the data and what do you want to find out from it?</div>
</li>
<li>
<a href="/p/484409/#484413">C: VarScan output file genotypes</a> by <a href="/u/30/">
</a><a href="/u/30/">Pierre Lindenbaum</a> ♦ <b>132k</b>
<div class="peek">[degenerate notation][1] ?


  [1]: https://en.wikipedia.org/wiki/Nucleic_acid_notation#IUPAC_not...</div>
</li>
<li>
<a href="/p/484007/#484412">C: What does p-value mean ? What and how can i interpret the results</a> by <a href="/u/16790/">
</a><a href="/u/16790/">i.sudbery</a> ♦ <b>10k</b>
<div class="peek">The random chance *if the null is true*</div>
</li>
<li>
<a href="/p/149848/#484410">C: A strange R limma voom function mean-variance trend</a> by <a href="/u/16354/">
</a><a href="/u/16354/">Jautis</a> • <b>290</b>
<div class="peek">OP, did you ever figure this out? I see something similar if I don't filter out lowly expressed g...</div>
</li>
<li>
<a href="/p/484395/#484408">C: I'm highly motivated</a> by <a href="/u/70802/">
</a><a href="/u/70802/">Dunois</a> • <b>420</b>
<div class="peek">I would recommend looking up NGS companies/laboratories and university departments that are invol...</div>
</li>
<li>
<a href="/p/484395/#484406">C: I'm highly motivated</a> by <a href="/u/86153/">
</a><a href="/u/86153/">sergicarbajosa</a> • <b>10</b>
<div class="peek">You are absolutely right but since I am new to the sector and I do not want to enter a pure progr...</div>
</li>
<li>
<a href="/p/484386/#484405">C: Compare mutation frequencies in TCGA and cbioportal</a> by <a href="/u/7198/">
</a><a href="/u/7198/">P</a> • <b>10</b>
<div class="peek">I should perhaps edit the title to "Compare frequency of gene mutations in two different database...</div>
</li>
</ul>
</div>
</div>
</div>
<div class="row">
<div class="col-sm-12 col-md-12">
<hr/>
</div>
</div>
<div class="row toc">
<div class="col-xs-3 col-xs-offset-1 col-md-2 col-md-offset-3">
<div class="title">Content</div>
<ul class="flat">
<li><a href="/local/search/page/">Search</a></li>
<li><a href="/user/list/">Users</a></li>
<li><a href="/t/">Tags</a></li>
<li><a href="/b/list/">Badges</a></li>
</ul>
</div>
<div class="col-xs-3 col-md-2">
<div class="title">Help</div>
<ul class="flat">
<li><a href="/info/about/">About</a></li>
<li><a href="/info/faq/">FAQ</a></li>
</ul>
</div>
<div class="col-xs-3 col-md-2 ">
<div class="title">Access</div>
<ul class="flat">
<li><a href="/info/rss/">RSS</a></li>
<li>Stats</li>
<li><a href="/info/api/">API</a></li>
</ul>
</div>
</div>
<div class="row">
<div class="col-md-12">
<hr/>
</div>
</div>
<div class="row">
<div class="col-md-12 text-center">
                Use of this site constitutes acceptance of our <a href="/info/policy/">User
                Agreement
                and Privacy
                Policy</a>.
            </div>
<div class="col-md-12 text-center">
                Powered by <a href="https://github.com/ialbert/biostar-central">Biostar</a>
                version 2.3.0
            </div>
</div>
<div id="traffic">Traffic: 2126 users visited in the last hour</div>
<div align="center" style="margin-top:2em">
<script async="async" src="//rh.revolvermaps.com/0/0/6.js?i=7pci0h9z8v6&amp;m=0&amp;s=300&amp;c=ff0000&amp;cr1=ffffff&amp;f=arial&amp;l=0" type="text/javascript"></script>
</div>
</div>
<script type="text/javascript">

        var _gaq = _gaq || [];
        _gaq.push(['_setAccount', 'UA-101522-12']);
        _gaq.push(['_setDomainName', 'biostars.org']);
        _gaq.push(['_trackPageview']);

        (function () {
            var ga = document.createElement('script');
            ga.type = 'text/javascript';
            ga.async = true;
            ga.src = ('https:' == document.location.protocol ? 'https://ssl' : 'http://www') + '.google-analytics.com/ga.js';
            var s = document.getElementsByTagName('script')[0];
            s.parentNode.insertBefore(ga, s);
        })();

    </script>
</body>
</html>