<!DOCTYPE html>
<html lang="en">
<head>
<meta charset="utf-8"/>
<title>Netlify App</title>
<meta content="width=device-width" name="viewport"/>
<meta content="#0e1e25" name="theme-color"/>
<link href="https://www.netlify.com/img/global/favicon/apple-touch-icon.png" rel="apple-touch-icon" sizes="180x180"/>
<link href="/favicon-32x32.png" rel="icon" sizes="32x32" type="image/png"/>
<link href="/favicon-16x16.png" rel="icon" sizes="16x16" type="image/png"/>
<link href="https://cdn.netlify.com/css/298b29e29cc0c3b7b1fafb1f441ff2493914502c/style/app.css" rel="stylesheet"/>
<script type="text/javascript">
  if (window.location.host === "app.netlify.com") { 
    !function(){var analytics=window.analytics=window.analytics||[];if(!analytics.initialize)if(analytics.invoked)window.console&&console.error&&console.error("Segment snippet included twice.");else{analytics.invoked=!0;analytics.methods=["trackSubmit","trackClick","trackLink","trackForm","pageview","identify","reset","group","track","ready","alias","page","once","off","on"];analytics.factory=function(t){return function(){var e=Array.prototype.slice.call(arguments);e.unshift(t);analytics.push(e);return analytics}};for(var t=0;t<analytics.methods.length;t++){var e=analytics.methods[t];analytics[e]=analytics.factory(e)}analytics.load=function(t){var e=document.createElement("script");e.type="text/javascript";e.async=!0;e.src=("https:"===document.location.protocol?"https://":"http://")+"cdn.segment.com/analytics.js/v1/"+t+"/analytics.min.js";var n=document.getElementsByTagName("script")[0];n.parentNode.insertBefore(e,n)};analytics.SNIPPET_VERSION="3.1.0";
    analytics.load("bHbADSxnRvrpFMYP6pMNP38JC4J7Av75");}}();
  }
</script></head>
<body data-loaded="false">
<svg aria-hidden="true" style="position:absolute;bottom:0;z-index:-1">
<defs>
<radialgradient cx="0%" cy="0%" fx="0%" fy="0%" id="logo-gradient" r="100%">
<stop offset="0%" stop-color="#20C6B7"></stop>
<stop offset="100%" stop-color="#4D9ABF"></stop>
</radialgradient>
<path d="M290 139l-1-1 8-50 38 38-39 17h-1l-5-4zm55-3l40 40c9 9 13 13 14 18l1 2-97-41-1-1 1-1 42-17zm53 73c-2 4-6 8-13 15l-45 45-59-12h-1l-1-1c0-5-3-9-7-12v-1l11-68v-1l1-1c5 0 9-3 12-7h2l100 43zm-69 71l-75 75 13-79 1-1 7-5 1-1 53 11zm-91 91l-8 8-94-135v-1l1-2 1-1h1l103 22h1v1c2 5 6 10 11 12v1l-16 95zm-17 17c-7 6-10 10-15 11h-12c-5-2-9-6-18-14l-94-94 25-38h1a25 25 0 0 0 18-1h1l94 136zM73 282l-21-21 42-19h1l1 1 1 2v1l-24 36zm-31-31l-27-27-10-11 83 17 1 1-1 1-46 19zM0 199l1-5c1-5 6-9 14-18l35-35a22695 22695 0 0 0 48 70l1 1a29 29 0 0 0-5 6h-1L0 199zm59-67l47-47 35 15a5977 5977 0 0 1 25 11l-1 5c0 5 2 10 6 14v2l-48 73v1h-1l-6-1-5 1h-1v-1l-51-73zm57-56l60-61c9-8 13-12 18-14h12c5 2 10 6 18 14l13 13-43 67v1h-1l-7-1c-5 0-10 1-13 4h-2l-55-23zm130-39l40 40-9 60h-1v1a19 19 0 0 0-6 3h-1l-61-26-1-1a23 23 0 0 0-3-9v-2l42-66zm-41 90l57 24 1 1v5l-1 1-127 54-1-1 1-1 47-72 1-1h3a21 21 0 0 0 18-10h1zm-65 96l128-55 1 1 1 1h1v1l-11 68v1c-6 0-12 4-15 9v1h-1l-102-22-2-5z" id="logomark"></path>
<symbol id="logo" viewbox="0 0 400 400">
<use fill="url(#logo-gradient)" xlink:href="#logomark"></use>
</symbol>
<symbol id="logo-mono" viewbox="0 0 400 400">
<use fill="#0E1E25" xlink:href="#logomark"></use>
</symbol>
</defs>
</svg>
<main class="splash-screen">
<div class="tw-z-overlay tw-fixed tw-inset-0 tw-items-center tw-flex tw-justify-center tw-m-0 tw-min-h-screen tw-bg-black">
<div class="container">
<svg aria-hidden="true" class="rotate-loop" height="50" width="50">
<use xlink:href="#logo"></use>
</svg>
<p class="visuallyhidden">Loading Netlify dashboard</p>
</div>
</div>
</main>
<div id="root" tabindex="-1"></div>
<script src="https://cdn.netlify.com/js/d97cbaeb503e01153a518b5ccf9b5564ecde8897/app.bundle.js"></script>
<noscript>
<div class="app">
<div class="tw-flex tw-z-overlay tw-inset-0 tw-fixed tw-items-center tw-justify-center tw-m-0 tw-text-center tw-w-full tw-min-h-screen tw-bg-white">
<div class="container">
<h1>The Netlify dashboard needs JavaScript :(</h1>
<p>
            You can enable JavaScript in
            <a class="highlight-link" href="https://enable-javascript.com/" target="new">your browser settings</a>.
          </p>
</div>
</div>
</div>
</noscript>
</body>
</html>
