<!DOCTYPE html>
<html>
<head>
<meta charset="utf-8"/>
<style type="text/css">
            html, body, #partner, iframe {
                height:100%;
                width:100%;
                margin:0;
                padding:0;
                border:0;
                outline:0;
                font-size:100%;
                vertical-align:baseline;
                background:transparent;
            }
            body {
                overflow:hidden;
            }
        </style>
<meta content="NOW" name="expires"/>
<meta content="index, follow, all" name="GOOGLEBOT"/>
<meta content="index, follow, all" name="robots"/>
<!-- Following Meta-Tag fixes scaling-issues on mobile devices -->
<meta content="width=device-width; initial-scale=1.0; maximum-scale=1.0; user-scalable=0;" name="viewport"/>
</head>
<body>
<div id="partner"></div>
<script type="text/javascript">
            document.write(
                    '<script type="text/javascript" language="JavaScript"'
                            + 'src="//sedoparking.com/frmpark/'
                            + window.location.host + '/'
                            + 'IONOSParkingDE'
                            + '/park.js">'
                    + '<\/script>'
            );
        </script>
</body>
</html>