<!DOCTYPE html>
<html>
<head>
<meta content="text/html; charset=utf-8" http-equiv="Content-Type"/>
<meta content="必要商城是一家C2M模式的电子商务平台，旨在通过用户直连制造商（Customer TO Manufactory），砍掉传统零售中的所有加价环节，使消费者以出厂成本价就能买到高品质的产品。" name="description"/>
<meta content="必要;必要商城;必要平台;必要电商;C2M商城;工业4.0;定制平台;定制商城;奢侈品定制;定制鞋;定制包;定制眼镜;定制饰品;定制运动服;定制运动鞋" name="Keywords"/>
<meta content="35713343766211176375747716" property="qc:admins"/>
<meta content="webkit" name="renderer"/>
<meta content="IE=Edge" http-equiv="X-UA-Compatible"/>
<title>必要商城_大牌品质 工厂价格</title>
<link href="http://static.biyao.com/pc/favicon.ico" rel="shortcut icon" type="image/x-icon"/>
<link href="http://static.biyao.com/pc/common/css/common.css?v=biyao_4f826c5" rel="stylesheet" type="text/css"/>
<link href="http://static1.biyao.com/pc/common/css/new.main.css?v=biyao_90d2b14" rel="stylesheet" type="text/css"/>
<link href="http://static2.biyao.com/pc/www/css/new.index.css?v=biyao_7c7b208" rel="stylesheet" type="text/css"/>
</head>
<body id="pagebody">
<div class="header header-index"></div>
<!-- 导航栏 -->
<div class="nav nav-index">
<div class="clearfix">
<a class="nav-logo" href="http://www.biyao.com/home/index.html"><img height="51" src="http://static4.biyao.com/pc/common/img/master/logo.png"/></a>
<div class="nav-category">
<p><span>全部分类</span><i></i></p>
<div>
<ul class="nav-list">
<li class="nav-main">
<p>
<a href="http://www.biyao.com/classify/category.html?categoryId=621">
										咖啡
									</a>
<span>/</span>
<a href="http://www.biyao.com/classify/category.html?categoryId=627">
										饮食
									</a>
<span>/</span>
<a href="http://www.biyao.com/classify/category.html?categoryId=691">
										正餐
									</a>
</p>
</li>
<li class="nav-main">
<p>
<a href="http://www.biyao.com/classify/category.html?categoryId=279">
										男装
									</a>
<span>/</span>
<a href="http://www.biyao.com/classify/category.html?categoryId=294">
										女装
									</a>
<span>/</span>
<a href="http://www.biyao.com/classify/category.html?categoryId=122">
										眼镜
									</a>
</p>
</li>
<li class="nav-main">
<p>
<a href="http://www.biyao.com/classify/category.html?categoryId=35">
										鞋靴
									</a>
<span>/</span>
<a href="http://www.biyao.com/classify/category.html?categoryId=339">
										内衣配饰
									</a>
<span>/</span>
<a href="http://www.biyao.com/classify/category.html?categoryId=724">
										个护
									</a>
</p>
</li>
<li class="nav-main">
<p>
<a href="http://www.biyao.com/classify/category.html?categoryId=119">
										美妆
									</a>
<span>/</span>
<a href="http://www.biyao.com/classify/category.html?categoryId=652">
										生鲜直供
									</a>
</p>
</li>
<li class="nav-main">
<p>
<a href="http://www.biyao.com/classify/category.html?categoryId=391">
										母婴
									</a>
<span>/</span>
<a href="http://www.biyao.com/classify/category.html?categoryId=51">
										餐厨
									</a>
<span>/</span>
<a href="http://www.biyao.com/classify/category.html?categoryId=39">
										运动
									</a>
</p>
</li>
<li class="nav-main">
<p>
<a href="http://www.biyao.com/classify/category.html?categoryId=355">
										家纺
									</a>
<span>/</span>
<a href="http://www.biyao.com/classify/category.html?categoryId=153">
										箱包
									</a>
<span>/</span>
<a href="http://www.biyao.com/classify/category.html?categoryId=10">
										家具
									</a>
</p>
</li>
<li class="nav-main">
<p>
<a href="http://www.biyao.com/classify/category.html?categoryId=334">
										电器
									</a>
<span>/</span>
<a href="http://www.biyao.com/classify/category.html?categoryId=223">
										数码
									</a>
<span>/</span>
<a href="http://www.biyao.com/classify/category.html?categoryId=369">
										家装
									</a>
</p>
</li>
<li class="nav-main">
<p>
<a href="http://www.biyao.com/classify/category.html?categoryId=433">
										定制
									</a>
<span>/</span>
<a href="http://www.biyao.com/classify/category.html?categoryId=429">
										汽配
									</a>
</p>
</li>
<li class="nav-main">
<p>
<a href="http://www.biyao.com/classify/category.html?categoryId=546">
										健康保健
									</a>
<span>/</span>
<a href="http://www.biyao.com/classify/category.html?categoryId=685">
										宠物
									</a>
<span>/</span>
<a href="http://www.biyao.com/classify/category.html?categoryId=753">
										新品
									</a>
</p>
</li>
</ul>
</div>
</div>
<div class="nav-search">
<p><input id="searchInput" type="text"/><span id="searchBtn"></span></p>
<ul></ul>
</div>
<div class="nav-tab">
<ul>
<li><a href="http://www.biyao.com/home/index.html">首页</a></li>
<li><a href="http://www.biyao.com/classify/newProduct.html">每日上新</a></li>
<li class="border-l"></li>
<li class="nav-tab-last">
<div class="hover_text">
						了解必要
						<div class="hover_code gzh">
<span>关注必要微信公众号<br/>了解你想了解的一切<br/>小必姐在此发福利哦</span>
</div>
</div>
</li>
<li class="nav-tab-last" id="appDownload">下载必要APP</li>
<li class="border-l"></li>
<li class="nav-tab-last">
<div class="hover_text">
						我的必要
						<div class="hover_code app">
<span>
							扫码下载必要app
							<br/>
							手机用户独享海量权益
							</span>
</div>
</div>
</li>
</ul>
</div>
</div>
</div>
<!-- 右边栏 -->
<ul class="rightBar">
<li class="toggle"></li>
<li class="rightBar-xcx-code toggle novice">
<div class="coupon_red">
<div class="tis">
					迎新福利<br/> 
					微信扫码即得
				</div>
<div class="rightBar-title">
					15元
				</div>
<div class="count-down" data-time="7200000" id="count-down"></div>
</div>
<div class="rightBar-ercode"></div>
</li>
<li class="rightBar-top"></li>
</ul>
<!-- 分享弹框 -->
<div class="shareCon">
<div>
<p>分享<b></b></p>
<div class="share-main">
<dl>
<dt><img class="share-code" src="http://static.biyao.com/pc/common/img/master/ewm.jpg"/></dt>
<dd>扫一扫，分享给好友！</dd>
</dl>
</div>
</div>
</div>
<script>
	var pvId = 'd8370afb-9b0f-465c-8097-272484995991';
</script>
<!-- 轮播图及下方图文说明部分 -->
<div class="banner">
<div class="banner-slider">
<img src="http://static.biyao.com/pc/www/img/new_master/banner1.png"/>
</div>
<ul class="nav-list">
<li class="nav-main">
<p>
<a href="http://www.biyao.com/classify/category.html?categoryId=621">
							咖啡
						</a>
<span>/</span>
<a href="http://www.biyao.com/classify/category.html?categoryId=627">
							饮食
						</a>
<span>/</span>
<a href="http://www.biyao.com/classify/category.html?categoryId=691">
							正餐
						</a>
</p>
</li>
<li class="nav-main">
<p>
<a href="http://www.biyao.com/classify/category.html?categoryId=279">
							男装
						</a>
<span>/</span>
<a href="http://www.biyao.com/classify/category.html?categoryId=294">
							女装
						</a>
<span>/</span>
<a href="http://www.biyao.com/classify/category.html?categoryId=122">
							眼镜
						</a>
</p>
</li>
<li class="nav-main">
<p>
<a href="http://www.biyao.com/classify/category.html?categoryId=35">
							鞋靴
						</a>
<span>/</span>
<a href="http://www.biyao.com/classify/category.html?categoryId=339">
							内衣配饰
						</a>
<span>/</span>
<a href="http://www.biyao.com/classify/category.html?categoryId=724">
							个护
						</a>
</p>
</li>
<li class="nav-main">
<p>
<a href="http://www.biyao.com/classify/category.html?categoryId=119">
							美妆
						</a>
<span>/</span>
<a href="http://www.biyao.com/classify/category.html?categoryId=652">
							生鲜直供
						</a>
</p>
</li>
<li class="nav-main">
<p>
<a href="http://www.biyao.com/classify/category.html?categoryId=391">
							母婴
						</a>
<span>/</span>
<a href="http://www.biyao.com/classify/category.html?categoryId=51">
							餐厨
						</a>
<span>/</span>
<a href="http://www.biyao.com/classify/category.html?categoryId=39">
							运动
						</a>
</p>
</li>
<li class="nav-main">
<p>
<a href="http://www.biyao.com/classify/category.html?categoryId=355">
							家纺
						</a>
<span>/</span>
<a href="http://www.biyao.com/classify/category.html?categoryId=153">
							箱包
						</a>
<span>/</span>
<a href="http://www.biyao.com/classify/category.html?categoryId=10">
							家具
						</a>
</p>
</li>
<li class="nav-main">
<p>
<a href="http://www.biyao.com/classify/category.html?categoryId=334">
							电器
						</a>
<span>/</span>
<a href="http://www.biyao.com/classify/category.html?categoryId=223">
							数码
						</a>
<span>/</span>
<a href="http://www.biyao.com/classify/category.html?categoryId=369">
							家装
						</a>
</p>
</li>
<li class="nav-main">
<p>
<a href="http://www.biyao.com/classify/category.html?categoryId=433">
							定制
						</a>
<span>/</span>
<a href="http://www.biyao.com/classify/category.html?categoryId=429">
							汽配
						</a>
</p>
</li>
<li class="nav-main">
<p>
<a href="http://www.biyao.com/classify/category.html?categoryId=546">
							健康保健
						</a>
<span>/</span>
<a href="http://www.biyao.com/classify/category.html?categoryId=685">
							宠物
						</a>
<span>/</span>
<a href="http://www.biyao.com/classify/category.html?categoryId=753">
							新品
						</a>
</p>
</li>
</ul>
</div>
<!-- 平台保证  -->
<div class="platfor">
<dl><dt></dt><dd>大牌品质</dd></dl>
<dl><dt></dt><dd>工厂价格</dd></dl>
<dl><dt></dt><dd>分期支付</dd></dl>
<dl><dt></dt><dd>顺丰包邮</dd></dl>
<dl><dt></dt><dd>无忧退款</dd></dl>
</div>
<!-- 热销排行 -->
<div class="hotsale">
<div class="title">
<h3>热销排行</h3>
</div>
<div class="rankings">
<div class="commodity">
<a href="http://www.biyao.com/products/1301085060130000001-0.html" target="_blank">
<dl>
<dt>
<img src="http://bfs.biyao.com/group1/M00/5B/7C/rBACW14_iQGAPDHzAAFphbs4KdM017.jpg"/>
</dt>
<dd>
<div class="priceBox">
<div class="price" price="79.00"></div>
<div class="mack">
<span style="color: #FFFFFF;background: #AB7FD1; border-color: #AB7FD1;">爆品</span>
<span style="color: #FB4C81;background: #FFFFFF; border-color: #FB4C81;">一起拼</span>
</div>
</div>
<div class="supplier">知名品牌制造商</div>
<div class="content">玻尿酸高保湿面膜10片/盒
								<span class="evaluate">16.4w+条好评</span>
</div>
</dd>
</dl>
</a>
</div>
<div class="commodity">
<a href="http://www.biyao.com/products/1302235011010100001-0.html" target="_blank">
<dl>
<dt>
<img src="http://bfs.biyao.com/group1/M00/6C/18/rBACYV1mJZOAYMEjAAI33pKo7RQ134.jpg"/>
</dt>
<dd>
<div class="priceBox">
<div class="price" price="59.00"></div>
<div class="mack">
<span style="color: #FFFFFF;background: #AB7FD1; border-color: #AB7FD1;">爆品</span>
<span style="color: #FB4C81;background: #FFFFFF; border-color: #FB4C81;">一起拼</span>
</div>
</div>
<div class="supplier">知名品牌制造商</div>
<div class="content">米酵素洁面乳
								<span class="evaluate">10.4w+条好评</span>
</div>
</dd>
</dl>
</a>
</div>
<div class="commodity">
<a href="http://www.biyao.com/products/1301085113001100001-0.html" target="_blank">
<dl>
<dt>
<img src="http://bfs.biyao.com/group1/M00/58/35/rBACYV45v3CAOkVKAABinPV4D_E761.jpg"/>
</dt>
<dd>
<div class="priceBox">
<div class="price" price="89.00"></div>
<div class="mack">
<span style="color: #FFFFFF;background: #AB7FD1; border-color: #AB7FD1;">爆品</span>
<span style="color: #FB4C81;background: #FFFFFF; border-color: #FB4C81;">一起拼</span>
</div>
</div>
<div class="supplier">知名品牌制造商</div>
<div class="content">玻尿酸淡纹变色（润唇膏）
								<span class="evaluate">12.4w+条好评</span>
</div>
</dd>
</dl>
</a>
</div>
<div class="commodity">
<a href="http://www.biyao.com/products/1301485128060100001-0.html" target="_blank">
<dl>
<dt>
<img src="http://bfs.biyao.com/group1/M01/5B/B6/rBACVF8jcQWAOwUtAAJLkosdGJ8018.jpg"/>
</dt>
<dd>
<div class="priceBox">
<div class="price" price="39.00"></div>
<div class="mack">
<span style="color: #FFFFFF;background: #AB7FD1; border-color: #AB7FD1;">爆品</span>
<span style="color: #FB4C81;background: #FFFFFF; border-color: #FB4C81;">一起拼</span>
</div>
</div>
<div class="supplier">五星级酒店纺织品制造商</div>
<div class="content">S.S.铂金缎毛巾2条装
								<span class="evaluate">5.8w+条好评</span>
</div>
</dd>
</dl>
</a>
</div>
<div class="commodity">
<a href="http://www.biyao.com/products/1303575000010000001-0.html" target="_blank">
<dl>
<dt>
<img src="http://bfs.biyao.com/group1/M01/F7/00/rBACVF7Qg7aAf2NJAACymzJqRIg448.jpg"/>
</dt>
<dd>
<div class="priceBox">
<div class="price" price="59.00"></div>
<div class="mack">
<span style="color: #FFFFFF;background: #AB7FD1; border-color: #AB7FD1;">爆品</span>
</div>
</div>
<div class="supplier">产地直供</div>
<div class="content">手冲定制咖啡6杯9.9元/杯
								<span class="evaluate">10.5w+条好评</span>
</div>
</dd>
</dl>
</a>
</div>
<div class="commodity">
<a href="http://www.biyao.com/products/1301085059000100001-0.html" target="_blank">
<dl>
<dt>
<img src="http://bfs.biyao.com/group1/M01/2C/ED/rBACW1-_P7eAd7VIAABsvRc_xo4262.jpg"/>
</dt>
<dd>
<div class="priceBox">
<div class="price" price="58.00"></div>
<div class="mack">
<span style="color: #FFFFFF;background: #AB7FD1; border-color: #AB7FD1;">爆品</span>
<span style="color: #FB4C81;background: #FFFFFF; border-color: #FB4C81;">一起拼</span>
</div>
</div>
<div class="supplier">知名品牌制造商</div>
<div class="content">炫色魅力唇膏
								<span class="evaluate">9.2w+条好评</span>
</div>
</dd>
</dl>
</a>
</div>
<div class="commodity">
<a href="http://www.biyao.com/products/1301405109010000001-0.html" target="_blank">
<dl>
<dt>
<img src="http://bfs.biyao.com/group1/M00/69/1A/rBACVFvk0U6ANHCdAAFzxKe2aW4117.jpg"/>
</dt>
<dd>
<div class="priceBox">
<div class="price" price="108.00"></div>
<div class="mack">
<span style="color: #FFFFFF;background: #AB7FD1; border-color: #AB7FD1;">爆品</span>
<span style="color: #FB4C81;background: #FFFFFF; border-color: #FB4C81;">一起拼</span>
</div>
</div>
<div class="supplier">知名品牌制造商</div>
<div class="content">24K黄金璀璨精华（100ml）
								<span class="evaluate">9.2w+条好评</span>
</div>
</dd>
</dl>
</a>
</div>
<div class="commodity">
<a href="http://www.biyao.com/products/1301085103130000001-0.html" target="_blank">
<dl>
<dt>
<img src="http://bfs.biyao.com/group1/M00/5D/8B/rBACVF5E5yyAV7YVAAGOLNdfqoA107.jpg"/>
</dt>
<dd>
<div class="priceBox">
<div class="price" price="58.00"></div>
<div class="mack">
<span style="color: #FFFFFF;background: #AB7FD1; border-color: #AB7FD1;">爆品</span>
<span style="color: #FB4C81;background: #FFFFFF; border-color: #FB4C81;">一起拼</span>
</div>
</div>
<div class="supplier">知名品牌制造商</div>
<div class="content">火山泥控油洁面膏
								<span class="evaluate">5.7w+条好评</span>
</div>
</dd>
</dl>
</a>
</div>
<div class="commodity">
<a href="http://www.biyao.com/products/1302235012010100001-0.html" target="_blank">
<dl>
<dt>
<img src="http://bfs.biyao.com/group1/M00/6A/76/rBACVF1l-KqAEcGzAAFuWmii1mY835.jpg"/>
</dt>
<dd>
<div class="priceBox">
<div class="price" price="78.00"></div>
<div class="mack">
<span style="color: #FFFFFF;background: #AB7FD1; border-color: #AB7FD1;">爆品</span>
<span style="color: #FB4C81;background: #FFFFFF; border-color: #FB4C81;">一起拼</span>
</div>
</div>
<div class="supplier">知名品牌制造商</div>
<div class="content">赋妍明眸眼霜
								<span class="evaluate">13.0w+条好评</span>
</div>
</dd>
</dl>
</a>
</div>
<div class="commodity">
<a href="http://www.biyao.com/products/1301185219010100001-0.html" target="_blank">
<dl>
<dt>
<img src="http://bfs.biyao.com/group1/M00/2A/EC/rBACW14GpziAYJfCAAIHdIMcfiQ262.jpg"/>
</dt>
<dd>
<div class="priceBox">
<div class="price" price="109.00"></div>
<div class="mack">
<span style="color: #FFFFFF;background: #AB7FD1; border-color: #AB7FD1;">爆品</span>
<span style="color: #FB4C81;background: #FFFFFF; border-color: #FB4C81;">一起拼</span>
</div>
</div>
<div class="supplier">知名品牌制造商</div>
<div class="content">清滢柔肤水大粉水爽肤水
								<span class="evaluate">4.2w+条好评</span>
</div>
</dd>
</dl>
</a>
</div>
<span id="moreModule"><!-- 下拉加载更多 --></span>
</div>
</div>
<!-- 底部栏 -->
<div class="footer">
<div class="footer-main clearfix">
<ul class="footer-detail clearfix">
<li>
<div class="gzh"></div>
<ul class="clearfix">
<li>扫码关注必要微信公众号</li>
<li>关注必要微信公众号</li>
<li>实时了解必要平台政策</li>
<li>人才招聘信息</li>
</ul>
</li>
<li>
<div class="app"></div>
<ul class="clearfix">
<li>扫码下载必要APP</li>
<li>随时随地掌握上新信息</li>
<li>浏览、购买更便捷</li>
<li>体验更多黑科技</li>
<li>与必要面对面沟通</li>
</ul>
</li>
</ul>
</div>
<div class="footer-info">
<p>
<a href="http://static4.biyao.com/pc/www/html/xieyi.html" target="_blank">《用户服务协议》</a>
<span>|</span>
<a href="http://static.biyao.com/pc/www/html/yinsi.html" target="_blank">《隐私政策》</a>
<span>|</span>
<a href="http://static1.biyao.com/pc/www/html/shipin.html" target="_blank">《食品交易管理制度》</a>
<span>|</span>
<a href="http://static2.biyao.com/pc/www/html/pingjia.html" target="_blank">《评价管理规范》</a>
<span>|</span>
<a href="http://static3.biyao.com/pc/www/html/zhishichanquan.html" target="_blank">知识产权</a>
</p>
<p>
<span id="year"></span>
<script>
	    		document.getElementById('year').innerHTML = 'Copyright © '+ new Date().getFullYear() +', BIYAO.COM';
	    	</script>
<span>珠海必要科技有限公司</span>
<span>
<a href="http://static4.biyao.com/pc/www/img/footer/ww.png" target="_blank"><img height="14" src="http://static.biyao.com/pc/www/img/footer/whjy.png?v=biyao_f5f3976" width="14"/></a>
	    		粤网文〔2018〕0969-419号
	        </span>
<span>
<img height="14" src="http://static1.biyao.com/pc/www/img/footer/ghs.png?v=biyao_d0289dc" width="14"/>
<a href="http://www.beian.gov.cn/portal/registerSystemInfo?recordcode=44049102496139" target="_blank">粤公网安备44049102496139号</a>
</span>
<span>
<a href="https://beian.miit.gov.cn/" target="_blank">粤ICP备13088531号 </a>
</span>
</p>
<p>
<span><a href="http://static2.biyao.com/pc/www/img/footer/by_licence.png" target="_blank">营业执照</a></span>
<span><a href="http://static3.biyao.com/pc/www/img/footer/by_license_new.jpg" target="_blank">增值电信业务经营许可证 粤B2-20170518</a></span>
<span><a href="http://static4.biyao.com/pc/www/img/footer/by_drugs.png" target="_blank">互联网药品信息服务资格证书</a></span>
<span><a href="http://static.biyao.com/pc/www/img/footer/ylqx.png" target="_blank">医疗器械网络交易服务第三方平台备案凭证</a></span>
<span><a href="http://static1.biyao.com/pc/www/img/footer/by_food.png" target="_blank">食品经营许可证</a></span>
</p>
<p>
<span><a href="javascript:;">（粤）网械平台备字（2018）第00007号</a></span>
<span><a href="http://static2.biyao.com/pc/www/img/footer/publish.png" target="_blank">出版物发行业务提供服务的网络交易平台备案</a></span>
<span><a href="http://static3.biyao.com/pc/www/img/footer/wlfood.png" target="_blank">网络食品交易第三方备案凭证 备案号GDWS10009</a></span>
</p>
<p><span>公司地址：珠海市唐家湾镇哈工大路1号1栋E301-15</span><span>公司电话：0756-3635580</span></p>
<p>必要商城提示您，产品“由某制造商出品”仅为陈述制造商既往生产经历，并不意味着相应产品与特定品牌产品相同或近似。</p>
</div>
</div>
<script type="text/javascript">
		window.ControllerSite ="http://www.biyao.com";
		window.ApiSite = "http://api.biyao.com";
		window.loginUserId = "0";
	</script>
<script src="http://static2.biyao.com/pc/common/js/jquery-1.8.3.js?v=biyao_d45b78f" type="text/javascript"></script>
<script src="http://static3.biyao.com/pc/common/js/jquery.cookie.js?v=biyao_d5528dd" type="text/javascript"></script>
<script src="http://static4.biyao.com/pc/common/js/md5.js?v=biyao_0b4d6e6" type="text/javascript"></script>
<script src="http://static.biyao.com/pc/common/js/master/masterCommon.js?v=biyao_daf6063" type="text/javascript"></script>
<script src="http://static1.biyao.com/pc/common/js/jquery.extention.js?v=biyao_92c4cec" type="text/javascript"></script>
<script src="http://static2.biyao.com/pc/common/js/common.js?v=biyao_5d61115" type="text/javascript"></script>
<script src="http://static3.biyao.com/pc/common/js/ui/dialog.js?v=biyao_8906cf2" type="text/javascript"></script>
<script src="http://static4.biyao.com/pc/www/js/master/index.js?v=biyao_a7102d5" type="text/javascript"></script>
<script src="http://static3.biyao.com/pc/common/js/bytrack.js?v=biyao_b274fad" type="text/javascript"></script>
</body>
</html>