<!DOCTYPE html>
<html>
<head>
<meta charset="utf-8"/>
<meta content="przetargi, przetarg, biznes, ogłoszenia, zamówienia, oferty" name="keywords"/>
<meta content="Wortal biznesowy biznes-polska.pl: codziennie nowe przetargi, inwestycje, oferty B2B, aktualne informacje gospodarcze, produkty finansowe, pomoc prawna, galeria biznesu." name="description"/>
<meta content="TdCRq6yP7_Kf-LRQI-MZqocE9c-mGLGr5doH1kIZbcA" name="google-site-verification"/>
<meta content="NHv9NYU1TevKxGdtPKaHeFK1AnX5xSxQ7QXsk5lrX7A" name="google-site-verification"/>
<meta content="width=device-width, initial-scale=1, minimum-scale=1, maximum-scale=1, user-scalable=no" name="viewport"/>
<title>Przetargi | Grupa Biznes Polska</title>
<link href="/css/jquery.qtip.min.css" rel="stylesheet" type="text/css"/>
<style>
      .gbp_ *,#tiptip_holder *{height:auto;}
    </style>
<link href="/css/default.css?v=6.1.194" rel="stylesheet" type="text/css"/>
<link href="/css/print.css?v=3" media="print" rel="stylesheet" type="text/css"/>
<link href="/js/fancybox/jquery.fancybox-1.3.4.css" rel="stylesheet" type="text/css"/>
<link href="/css/rwd.css?v=2.6.82" rel="stylesheet" type="text/css"/>
<!--[if lte IE 8]><script type="text/javascript" src="/js/html5.js"></script><![endif]-->
<!--[if lte IE 8]><link type="text/css" rel="stylesheet" href="/css/ie.css" /><![endif]-->
<link href="/favicon.ico" rel="shortcut icon"/>
<script>var GBP = {};</script>
<script src="/js/jquery-1.8.3.min.js"></script>
<script src="/js/cufon/cufon.js"></script>
<script src="/js/cufon/MetaBookCE.font.js"></script>
<script src="/js/cufon/MetaBoldCE.font.js"></script>
<script src="/js/jquery-ui-1.8.17.custom-modified.min.js"></script>
<script src="/js/fancybox/jquery.fancybox-1.3.4.pack.js"></script>
<script src="/js/jquery.livequery.js"></script>
<script src="/js/jquery.elastic.source.js"></script>
<script src="/js/autocomplete-values.js?v=1"></script>
<script src="/js/jquery.tipTip.js?v=1.4.fix"></script>
<script src="/js/modernizr.custom.49859.js"></script>
<script src="/js/jquery.maskedinput.min.js"></script>
<script src="/js/jquery.qtip.min.js"></script>
<script src="/js/plugins.js?v=1.7"></script>
<script src="/js/common.js?v=20150701"></script>
<script src="/js/rwd.js?v=1.2"></script>
<!--[if lte IE 8]><script type="text/javascript" src="/js/ie.js"></script><![endif]-->
<script type="text/javascript">
    $(document).ready(function() {
      $('#stats-box .popup').popup('#stats-box > .trigger');
      $('#main-box .tabs').tabs('#main-box .tabpanes > .tabpane');
      $('.box.alternate .tabs').tabs('.box.alternate .tabpanes > .tabpane');

      $('#selected-profile').change(function() {
        var blkProfileOffers = $('#profile-offers-block');

        var profileId = $(this).val();
        $.get('/najnowsze-ogloszenia/'+profileId+'/'+'', function(html) {
          blkProfileOffers.html(html);
        });
      });


      var BRANCHES_WIDTH = 1120;
      var pagesNumber = $('#day-offers ul').length,
      branchesFooter = $('<footer />').addClass('footer').
                                       appendTo($('#day-offers')),
      className;



      for (var i = 1; i <= pagesNumber; i += 1) {
        className = i === 1 ? 'page-link selected' : 'page-link';
        branchesFooter.append($('<a />').attr('href', '#').
                                         addClass(className).
                                         text(i));
      }

      $('#day-offers').addClass('paged');
      $('#day-offers.paged .inner').width(pagesNumber * BRANCHES_WIDTH);


      $('#day-offers.paged .page-link').click(function (event) {
        var page = $(this).text() - 1,
            margin = -(page * BRANCHES_WIDTH);
        event.preventDefault();
        $('#day-offers.paged .page-link').removeClass('selected');
        $(this).addClass('selected');
        $('#day-offers ul').css('visibility', 'visible');
        $('#day-offers .inner').animate({
          'margin-left': margin
        }, 100, function () {
          $('#day-offers ul').css('visibility', 'hidden');
          $($('#day-offers ul')[page]).css('visibility', 'visible');
        });
      });
    });
  </script>
<script type="text/javascript">
    var gwpClientId = "biznespolska", gwpPxInfo = {
		  action : "view"
        };
  </script>
<script type="text/javascript">
    var _gaq = _gaq || [];
    _gaq.push(['_setAccount', 'UA-12962180-1']);
    _gaq.push(['_trackPageview']);

    (function() {
      var ga = document.createElement('script'); ga.type = 'text/javascript'; ga.async = true;
      ga.src = ('https:' == document.location.protocol ? 'https://ssl' : 'http://www') + '.google-analytics.com/ga.js';
      var s = document.getElementsByTagName('script')[0]; s.parentNode.insertBefore(ga, s);
    })();
  </script>
<!-- Start of Smartsupp Live Chat script -->
<script type="text/javascript">
    var _smartsupp = _smartsupp || {};
    _smartsupp.key = '500e0cfc007deaff728978956df351b387c127a4';
    window.smartsupp||(function(d) {
        var s,c,o=smartsupp=function(){ o._.push(arguments)};o._=[];
        s=d.getElementsByTagName('script')[0];c=d.createElement('script');
        c.type='text/javascript';c.charset='utf-8';c.async=true;
        c.src='//www.smartsuppchat.com/loader.js?';s.parentNode.insertBefore(c,s);
    })(document);
  </script>
<script type="text/javascript">
    var gwpAction = (typeof gwpPxInfo != "undefined" && gwpPxInfo != null && typeof   gwpPxInfo.action != "undefined" && gwpPxInfo.action != null) ? gwpPxInfo.action: 'undefined',
      gwpReferer = escape(new String(window.location).substring(0,250)),
      tt = Math.round(Math.random()*1E10),
      requestParams = {
      gwpAction : gwpAction,
           gwpReferer : gwpReferer,
           tt : tt,
           gwpClientId : gwpClientId
      };

    (function (d, s, id, u, x) {
        var js, fjs = d.getElementsByTagName(s)[0];
        if (d.getElementById(id)) return;
        js = d.createElement(s);
        js.id = id;
        js.async = true;
        js.onload = js.onreadystatechange = function() {
           console.log('remove');
           js.parentNode && js.parentNode.removeChild(js)
        };

        x.tt = Math.round(Math.random() * 1E10);
        js.src = "//px.wp.pl//" + u + "?" + (function (o, p) {
                for (p in x)
                    if (typeof x[p] === "object")
                        o.push(p + '=' + escape(JSON.stringify(x[p])));
                    else
                        o.push(p + '=' + escape(x[p]));
                return o.join("&");
            }([]));

            fjs.parentNode.insertBefore(js, fjs);

        }(document, "script", "gwppx", "exdotdynamic/", requestParams));
  </script>
</head>
<body class=" rwd ">
<div class="gbp_"><a class="ajax suggest" href="/zglos-uwage/">Zgłoś sugestię</a></div>
<div class="gbp_"><div id="top"></div></div>
<div class="gbp_">
<header id="gbp_-header">
<div class="wrapper">
<div id="flash-messages-wrapper">
<div id="flash-messages">
</div>
</div>
<h1><a href="/">Przetargi</a></h1>
<span id="slogan">Od 18 lat wspieramy polskie firmy</span>
<div class="userarea" data-rwd-id="userarea">
<form action="https://www.biznes-polska.pl/logowanie/" method="post">
<label class="rememberme"><input name="rememberme" type="checkbox"/> Zapamiętaj mnie</label>
<label><input name="username" placeholder="Login użytkownika" type="text"/></label>
<label><input name="password" placeholder="Hasło" type="password"/></label>
<button class="image-button login nocufon" type="submit">Zaloguj</button>
<a class="image-button register nocufon" href="/rejestracja/">Zarejestruj się</a>
</form>
<p class="options"><a class="ajax" href="/przypomnienie-hasla/">Zapomniałem hasła</a></p>
</div>
<div class="toolbox">
<span class="info">
<span class="infolinia"><i class="rwd-info-t">Infolinia:</i> <strong data-rwd-tel="800140460">800 140 460</strong></span>
<span class="email"><i class="rwd-info-t">Email:</i> <a href="mailto:biuro@biznes-polska.pl">biuro@biznes-polska.pl</a></span>
</span>
<a class="prev-version rwd-only" data-enable-rwd="true" href="#">Wersja mobilna</a>
<a class="help" href="/pomoc/">Pomoc</a>
<div class="rwd-only rwd-info-right">
<a class="rwd-info-app" data-rwd-app="android" href="https://play.google.com/store/apps/details?id=pl.biznes_polska.mobile">Aplikacja mobilna</a>
<a class="rwd-info-app" data-rwd-app="ios" href="https://itunes.apple.com/us/app/przetargi-gbp/id871072260?l=pl&amp;ls=1&amp;mt=8">Aplikacja mobilna</a>
<a class="rwd-info-help" href="/pomoc/">Pomoc</a>
<a class="rwd-info-desktop" data-enable-rwd="false" href="#">Wersja desktop</a>
</div>
</div>
<nav id="rwd-global-nav">
<ul data-rwd-id="nav" id="mainmenu">
<li class="active"><a class="menu-home" href="/"><span>Strona główna</span></a></li>
<li><a class="menu-tenders" href="/przetargi/"><span>Przetargi</span></a></li>
<li><a class="menu-commission" href="/zlecenia/"><span>Zlecenia</span></a></li>
<li><a class="menu-investments" href="/inwestycje/"><span>Inwestycje</span></a></li>
<li><a class="menu-grants" href="/dotacje/"><span>Dotacje</span></a></li>
<li><a class="menu-purchase-offers" href="/kupno/"><span>Kupno</span></a></li>
<li><a class="menu-auctions" href="/sprzedaz/"><span>Sprzedaż</span></a></li>
<li><a class="menu-trading-offers" href="/oferty/"><span>Oferty</span></a></li>
<li><a class="menu-permit" href="/pozwolenia/"><span>Pozwolenia</span></a></li>
<li><a class="menu-tender-results" href="/wyniki-przetargow/"><span>Wyniki</span></a></li>
<li><a class="menu-analize" href="/analizator/"><span>Analizator</span></a></li>
</ul>
</nav>
<span class="rwd-toggle-button rwd-toggle-button-nav" data-rwd-toggle="nav" style="display:none;">Menu</span>
<div class="rwd-only rwd-header-right">
<a class="rwd-only rwd-login" href="/logowanie/">Zaloguj</a>
<a class="rwd-only rwd-search-link" href="/wyszukiwarka/">Szukaj</a>
</div>
</div>
</header>
</div>
<div class="gbp_">
<div id="gbp_-container">
<div class="lay-left_sidebar" id="gbp_-content">
<div id="search-box">
<form action="https://www.biznes-polska.pl/wyszukiwarka/" method="post">
<input name="search_type" type="hidden" value="1"/>
<label class="first"><span>Słowa kluczowe:</span> <input name="text" placeholder="np. gazownictwo" type="text" value=""/></label>
<label><span>Lokalizacja:</span> <input name="location" placeholder="miasto/powiat/województwo" type="text" value=""/></label>
<button class="button nocufon" type="submit">SZUKAJ</button>
<a class="more" href="https://www.biznes-polska.pl/wyszukiwarka/?st=1">wyszukiwanie zaawansowane</a>
</form>
</div>
<div id="extra-banner2">
<div class="col-left">
<div id="first-part">
<a href="/rejestracja/"> </a>
</div>
<div id="second-part">
<a href="/referencje/"> </a>
</div>
</div>
<div class="col-right">
<h2>Największa ogólnopolska baza przetargów i zleceń</h2>
<ul class="icon-list">
<li class="icon01">Codzienna<br/>aktualizacja</li>
<li class="icon02">Codzienne<br/>raporty</li>
<li class="icon03">Archiwum postępowań<br/>i rozstrzygnięć</li>
<li class="icon04">Analizator<br/>przetargowy</li>
<li class="icon05">Dostępność<br/>na desktop i mobile</li>
</ul>
<div id="extra-buttons">
<a href="/dodaj-ogloszenie/zlecenie/" id="add-ad"><span id="add-icon"></span>DODAJ OGŁOSZENIE <div id="description">(bezpłatnie)</div></a>
<a href="/oferta/" id="view-offer">ZOBACZ PEŁNĄ OFERTĘ</a>
<a href="/rejestracja/" id="free-account">DARMOWE KONTO</a>
</div>
<div class="stats rwd-only">
<h5>STATYSTYKI</h5>
<table>
<tr><td>Dziś dodane</td><td class="stats-value">3679</td></tr>
<tr><td>Aktualne ogłoszenia</td><td class="stats-value">54327</td></tr>
<tr><td>Wszystkich ogłoszeń</td><td class="stats-value">11898600</td></tr>
</table>
</div>
</div>
</div>
<div id="main">
<section class="box" id="main-box">
<div class="inner homepage">
<div class="positioner">
<a class="button-add-offer" href="/dodaj-ogloszenie/zlecenie/">Dodaj ogłoszenie</a>
</div>
<header>
<h4>Najnowsze ogłoszenia</h4>
<nav>
<ul class="tabs">
<li class="selected"><a href="">Wszystkie</a></li>
<li><a href="">Wyświetlaj wg profilu</a></li>
</ul>
</nav>
</header>
<div class="tabpanes">
<div class="tabpane selected">
<table class="std">
<col style="width: 560px"/>
<col style="width: 110px"/>
<col/>
<tr>
<th class="name">Przedmiot</th>
<th class="rwd-hidden-phone">Termin</th>
<th class="rwd-hidden-phone">Województwo</th>
</tr>
<tr>
<td class="name rwd-link">
<a class="show-more-title" href="/sprzedaz/sprzedaz-nieruchomosci,20550501/">Sprzedaż nieruchomości</a>
<br/>
<span class="rwd-offer-info rwd-only-phone">
            termin: 2021-02-03, 
            warmińsko-mazurskie
            </span>
<span class="timespan"><span title="2021-01-13 16:21">3 godzin temu</span></span></td>
<td class="nowrap rwd-hidden-phone submission-deadline ">
              2021-02-03
            </td>
<td class="rwd-hidden-phone">
              warmińsko-mazurskie
            </td>
</tr>
<tr>
<td class="name rwd-link">
<a class="show-more-title" href="/przetargi/wyceny-i-oceny-techniczne-pojazdow-oraz-lodzi-motorowych-i-pontonow-jak-rowniez,20550499/">Wyceny i oceny techniczne pojazdów oraz łodzi motorowych i pontonów, jak również realizacja przetargów ofertowych na zbycie wskazanych pojazdów</a>
<br/>
<span class="rwd-offer-info rwd-only-phone">
            termin: 2021-01-20, 
            śląskie
            </span>
<span class="timespan"><span title="2021-01-13 16:19">3 godzin temu</span></span></td>
<td class="nowrap rwd-hidden-phone submission-deadline ">
              2021-01-20
            </td>
<td class="rwd-hidden-phone">
              śląskie
            </td>
</tr>
<tr>
<td class="name rwd-link">
<a class="show-more-title" href="/przetargi/swiadczenia-medyczne,20550497/">Świadczenia medyczne</a>
<br/>
<span class="rwd-offer-info rwd-only-phone">
            termin: 2021-01-19, 
            warmińsko-mazurskie
            </span>
<span class="timespan"><span title="2021-01-13 16:19">3 godzin temu</span></span></td>
<td class="nowrap rwd-hidden-phone submission-deadline ">
              2021-01-19
            </td>
<td class="rwd-hidden-phone">
              warmińsko-mazurskie
            </td>
</tr>
<tr>
<td class="name rwd-link">
<a class="show-more-title" href="/przetargi/dostawa-szafy-gospodarczej-przeznaczonej-na-przechowywanie-srodkow-czystosci,20550496/">Dostawa szafy gospodarczej przeznaczonej na przechowywanie środków czystości</a>
<a class="only-with-us" href="/tylko-u-nas/">TYLKO U NAS</a>
<br/>
<span class="rwd-offer-info rwd-only-phone">
            termin: 2021-01-18, 
            warmińsko-mazurskie
            </span>
<span class="timespan"><span title="2021-01-13 16:17">3 godzin temu</span></span></td>
<td class="nowrap rwd-hidden-phone submission-deadline ending">
              2021-01-18
            </td>
<td class="rwd-hidden-phone">
              warmińsko-mazurskie
            </td>
</tr>
<tr>
<td class="name rwd-link">
<a class="show-more-title" href="/przetargi/naklejka-produktowa,20550491/">Naklejka produktowa</a>
<a class="only-with-us" href="/tylko-u-nas/">TYLKO U NAS</a>
<br/>
<span class="rwd-offer-info rwd-only-phone">
            termin: 2021-01-15, 
            podkarpackie
            </span>
<span class="timespan"><span title="2021-01-13 16:16">3 godzin temu</span></span></td>
<td class="nowrap rwd-hidden-phone submission-deadline ending">
              2021-01-15
            </td>
<td class="rwd-hidden-phone">
              podkarpackie
            </td>
</tr>
<tr>
<td class="name rwd-link">
<a class="show-more-title" href="/przetargi/transport-kontenerow-na-litwe,20550490/">Transport kontenerów na Litwę</a>
<br/>
<span class="rwd-offer-info rwd-only-phone">
            termin: 2021-01-19, 
            małopolskie
            </span>
<span class="timespan"><span title="2021-01-13 16:16">3 godzin temu</span></span></td>
<td class="nowrap rwd-hidden-phone submission-deadline ">
              2021-01-19
            </td>
<td class="rwd-hidden-phone">
              małopolskie
            </td>
</tr>
<tr>
<td class="name rwd-link">
<a class="show-more-title" href="/przetargi/aktualizacja-operatu-wodno-prawnego,20550486/">Aktualizacja operatu wodno-prawnego</a>
<br/>
<span class="rwd-offer-info rwd-only-phone">
            termin: 2021-01-27, 
            mazowieckie
            </span>
<span class="timespan"><span title="2021-01-13 16:15">3 godzin temu</span></span></td>
<td class="nowrap rwd-hidden-phone submission-deadline ">
              2021-01-27
            </td>
<td class="rwd-hidden-phone">
              mazowieckie
            </td>
</tr>
<tr>
<td class="name rwd-link">
<a class="show-more-title" href="/przetargi/organizacja-i-przeprowadzenie-kursu-na-uprawnienia-elektryczne,20550471/">Organizacja i przeprowadzenie kursu na uprawnienia elektryczne</a>
<br/>
<span class="rwd-offer-info rwd-only-phone">
            termin: 2021-01-21, 
            pomorskie
            </span>
<span class="timespan"><span title="2021-01-13 16:15">3 godzin temu</span></span></td>
<td class="nowrap rwd-hidden-phone submission-deadline ">
              2021-01-21
            </td>
<td class="rwd-hidden-phone">
              pomorskie
            </td>
</tr>
<tr>
<td class="name rwd-link">
<a class="show-more-title" href="/przetargi/listwa-iglasta,20550485/">Listwa iglasta</a>
<a class="only-with-us" href="/tylko-u-nas/">TYLKO U NAS</a>
<br/>
<span class="rwd-offer-info rwd-only-phone">
            termin: 2021-01-15, 
            podkarpackie
            </span>
<span class="timespan"><span title="2021-01-13 16:15">3 godzin temu</span></span></td>
<td class="nowrap rwd-hidden-phone submission-deadline ending">
              2021-01-15
            </td>
<td class="rwd-hidden-phone">
              podkarpackie
            </td>
</tr>
<tr>
<td class="name rwd-link">
<a class="show-more-title" href="/przetargi/zblocze-2-krazkowe-dolne-wg-076deb-hak-jednorozny-obrotowy-nr-10,20550484/">Zblocze 2-krążkowe dolne wg 076DEb hak jednorożny obrotowy nr 10</a>
<a class="only-with-us" href="/tylko-u-nas/">TYLKO U NAS</a>
<br/>
<span class="rwd-offer-info rwd-only-phone">
            termin: 2021-01-14, 
            podkarpackie
            </span>
<span class="timespan"><span title="2021-01-13 16:15">3 godzin temu</span></span></td>
<td class="nowrap rwd-hidden-phone submission-deadline ending">
              2021-01-14
            </td>
<td class="rwd-hidden-phone">
              podkarpackie
            </td>
</tr>
<tr>
<td class="name rwd-link">
<a class="show-more-title" href="/przetargi/tacka-petpe,20550482/">Tacka PET/PE</a>
<a class="only-with-us" href="/tylko-u-nas/">TYLKO U NAS</a>
<br/>
<span class="rwd-offer-info rwd-only-phone">
            termin: 2021-01-14, 
            warmińsko-mazurskie
            </span>
<span class="timespan"><span title="2021-01-13 16:14">3 godzin temu</span></span></td>
<td class="nowrap rwd-hidden-phone submission-deadline ending">
              2021-01-14
            </td>
<td class="rwd-hidden-phone">
              warmińsko-mazurskie
            </td>
</tr>
<tr>
<td class="name rwd-link">
<a class="show-more-title" href="/przetargi/materialy-utrzymania-ruchu,20550480/">Materiały utrzymania ruchu</a>
<a class="only-with-us" href="/tylko-u-nas/">TYLKO U NAS</a>
<br/>
<span class="rwd-offer-info rwd-only-phone">
            termin: 2021-01-14, 
            małopolskie
            </span>
<span class="timespan"><span title="2021-01-13 16:14">3 godzin temu</span></span></td>
<td class="nowrap rwd-hidden-phone submission-deadline ending">
              2021-01-14
            </td>
<td class="rwd-hidden-phone">
              małopolskie
            </td>
</tr>
</table>
<footer class="footer">
<a class="more" href="/wszystkie-ogloszenia/">Wszystkie ogłoszenia</a>
</footer>
</div>
<div class="tabpane">
<p class="login-required">Aby skorzystać z tej funkcjonalności musisz się <a href="/logowanie/">zalogować</a>.</p>
</div>
</div>
</div>
</section>
<section class="two-columns box following rwd-hidden" id="day-offers">
<div class="inner homepage">
<header><h4>Przetargi dnia <span class="full-access">Pełny dostęp!</span></h4></header>
<ul class="item-list">
<li class="first-row">
<a href="/przetargi/budowa-elektrowni-fotowoltaicznej,20550403/">Budowa elektrowni fotowoltaicznej</a>
</li>
<li class="first-row">
<a href="/przetargi/dostawa-srodkow-czystosci,20550413/">Dostawa środków czystości</a>
</li>
<li class="">
<a href="/przetargi/dostawa-komputerow-przenosnych,20549777/">Dostawa komputerów przenośnych</a>
</li>
<li class="">
<a href="/oferty/serwis-oraz-czyszczenie-plytowych-wymiennikow-ciepla-i-wirowek-dekantacyjnych--,20526596/">Serwis oraz czyszczenie płytowych wymienników ciepła i wirówek dekantacyjnych - Autoryzowane Centrum Serwisowe Alfa Laval</a>
</li>
<li class="">
<a href="/przetargi/zakup-oprogramowania,20544032/">Zakup oprogramowania</a>
</li>
<li class="">
<a href="/przetargi/budowa-elektrowni-fotowoltaicznej,20544010/">Budowa elektrowni fotowoltaicznej</a>
</li>
<li class="">
<a href="/sprzedaz/sprzedaz-firmy,20518430/">Sprzedaż firmy</a>
</li>
<li class="">
<a href="/przetargi/swiadczenie-uslug-pogrzebowych,20542648/">Świadczenie usług pogrzebowych</a>
</li>
<li class="">
<a href="/przetargi/dostawy-artykulow-laboratoryjnych,20536141/">Dostawy artykułów laboratoryjnych</a>
</li>
<li class="">
<a href="/przetargi/bankowa-obsluga-budzetu,20536116/">Bankowa obsługa budżetu</a>
</li>
</ul>
<ul>
<li class="first-row">
<a href="/przetargi/wykonanie-uslug-kominiarskich,20535776/">Wykonanie usług kominiarskich</a>
</li>
<li class="first-row">
<a href="/zlecenia/poszukuje-brygad-murarskich,20535222/">Poszukuję brygad murarskich</a>
</li>
<li class="">
<a href="/oferty/szukam-zlecen-budowlanych-w-polsce-i-za-granica,20301068/">Szukam zleceń budowlanych w Polsce i za granicą</a>
</li>
<li class="">
<a href="/przetargi/sukcesywna-dostawa-mrozonek,20530459/">Sukcesywna dostawa mrożonek</a>
</li>
<li class="">
<a href="/przetargi/swiadczenie-uslugi-telekomunikacyjnej,20530453/">Świadczenie usługi telekomunikacyjnej</a>
</li>
<li class="">
<a href="/przetargi/swiadczenie-uslug-ubezpieczenia-mienia,20530413/">Świadczenie usług ubezpieczenia mienia</a>
</li>
<li class="">
<a href="/przetargi/wykonanie-oraz-dostawa-wraz-z-montazem-tablic-zewnetrznych,20525018/">Wykonanie oraz dostawa wraz z montażem tablic zewnętrznych informacyjnych/pamiątkowych</a>
</li>
<li class="">
<a href="/przetargi/remont-elewacji,20525004/">Remont elewacji</a>
</li>
<li class="">
<a href="/zlecenia/zlecimy-roboty-murowe,20521619/">Zlecimy roboty murowe</a>
</li>
<li class="">
<a href="/zlecenia/zlece-wykonanie-elewacji-budynkow,20521589/">Zlecę wykonanie elewacji budynków</a>
</li>
</ul>
<ul>
<li class="first-row">
<a href="/zlecenia/poszukuje-firmy-do-wykonania-prac-tynkarskich,20521191/">Poszukuję firmy do wykonania prac tynkarskich</a>
</li>
<li class="first-row">
<a href="/przetargi/wykonanie-prac-budowlanych,20518727/">Wykonanie prac budowlanych</a>
</li>
<li class="">
<a href="/przetargi/konserwacja-sygnalizacji-swietlnej,20518737/">Konserwacja sygnalizacji świetlnej</a>
</li>
<li class="">
<a href="/przetargi/dostawa-trzech-sztuk-zarzadzalnych-switchy-przemyslowych,20518720/">Dostawa trzech sztuk zarządzalnych switchy przemysłowych</a>
</li>
<li class="">
<a href="/przetargi/badanie-wody-basenowej,20510877/">Badanie wody basenowej</a>
</li>
<li class="">
<a href="/przetargi/wykonanie-rocznych-przegladow-instalacji-gazowej,20510815/">Wykonanie rocznych przeglądów instalacji gazowej</a>
</li>
<li class="">
<a href="/przetargi/dostawa-odziezy-roboczej-i-obuwia-ochronnego,20510581/">Dostawa odzieży roboczej i obuwia ochronnego</a>
</li>
<li class="">
<a href="/zlecenia/poszukujemy-firmy-do-wykonania-konstrukcji-dachu,20509098/">Poszukujemy firmy do wykonania konstrukcji dachu</a>
</li>
<li class="">
<a href="/oferty/wykonamy-kazda-konstrukcje-stalowa--wiaty--zadaszenia--balustrady---wolne,20026832/">Wykonamy każdą konstrukcje stalową , wiaty , zadaszenia , BALUSTRADY - WOLNE MOCE PRZEROBOWE</a>
</li>
<li class="">
<a href="/przetargi/zakup-dostawa-i-montaz-klimatyzatorow-typu-split,20500743/">Zakup, dostawa i montaż klimatyzatorów typu split</a>
</li>
</ul>
<ul>
<li class="first-row">
<a href="/przetargi/dostawa-wyposazenia,20500738/">Dostawa wyposażenia</a>
</li>
<li class="first-row">
<a href="/przetargi/dostawa-sprzetu-komputerowego,20500726/">Dostawa sprzętu komputerowego</a>
</li>
<li class="">
<a href="/przetargi/dostawa-artykulow-i-srodkow-czystosci,20491680/">Dostawa artykułów i środków czystości</a>
</li>
<li class="">
<a href="/przetargi/wybor-wykonawcy-modernizacji-elektrocieplowni,20491663/">Wybór wykonawcy modernizacji elektrociepłowni</a>
</li>
<li class="">
<a href="/przetargi/dostawa-i-montaz-urzadzen-do-dekontaminacji-osob,20491582/">Dostawa i montaż urządzeń do dekontaminacji osób</a>
</li>
<li class="">
<a href="/przetargi/przeprowadzenie-poradnictwa-prozdrowotnego-dla-osob-objetych-wsparciem,20482359/">Przeprowadzenie poradnictwa prozdrowotnego dla osób objętych wsparciem</a>
</li>
<li class="">
<a href="/przetargi/zakup-dostawa-prasy-hydraulicznej-do-prasowania-na-goraco,20482328/">Zakup, dostawa prasy hydraulicznej do prasowania na gorąco</a>
</li>
<li class="">
<a href="/przetargi/badanie-wskaznikow-zageszczania-gruntu,20482423/">Badanie wskaźników zagęszczania gruntu</a>
</li>
<li class="">
<a href="/przetargi/przebudowa-sieci-wodnej-i-parowej,20475165/">Przebudowa sieci wodnej i parowej</a>
</li>
<li class="">
<a href="/przetargi/wykonanie-dokumentacji-projektowej-i-kosztorysowej-wraz-z-pelnieniem-nadzoru,20475170/">Wykonanie dokumentacji projektowej i kosztorysowej wraz z pełnieniem nadzoru autorskiego</a>
</li>
</ul>
<ul>
<li class="first-row">
<a href="/przetargi/wykonanie-uslugi-transportowej-osob,20475107/">Wykonanie usługi transportowej osób</a>
</li>
<li class="first-row">
<a href="/oferty/zestawy-prezentowe-swiateczne,20268514/">Zestawy prezentowe świąteczne</a>
</li>
<li class="">
<a href="/przetargi/dostawa-3000---7000-m2-rocznie-frontow-wykonanych-z-materialu-powierzonego---z,20237187/">Dostawa 3000 - 7000 m2 rocznie frontów wykonanych z materiału powierzonego - z płyt High Gloss i Mat, grubość 18,5 mm</a>
</li>
<li class="">
<a href="/sprzedaz/przylbice-ochronne,20186025/">Przyłbice ochronne</a>
</li>
<li class="">
<a href="/sprzedaz/sprzedaz-maseczek-ochronnych-jednorazowego-uzytku,20077336/">Sprzedaż maseczek ochronnych jednorazowego użytku</a>
</li>
<li class="">
<a href="/oferty/disc-top-bialy-20410-atrakcyjna-cena,20104927/">Disc-top biały 20/410 atrakcyjna cena</a>
</li>
<li class="">
<a href="/oferty/wykonujemy-prace-asfaltowe-brukarskie-drogowe-oraz-uslugi-transportowe,19698530/">Wykonujemy prace asfaltowe, brukarskie, drogowe oraz usługi transportowe samochodem dostawczym. Zapraszamy!</a>
</li>
<li class="">
<a href="/oferty/czyszczenie-rynien-odsniezanie-dachow-i-placow,20198978/">Czyszczenie rynien, odśnieżanie dachów i placów</a>
</li>
<li class="">
<a href="/oferty/frezowanie-cnc-3d-5d,20143075/">FREZOWANIE CNC 3D 5D</a>
</li>
<li class="">
<a href="/oferty/usluga-dezynfekcji-%28ozonowania%29-prewencyjnie-jak-i-po-kwarantannie-covid-19%3A,20083626/">Usługa dezynfekcji (ozonowania) prewencyjnie jak i po kwarantannie covid-19: budynków, pomieszczeń, środków komunikacji itd</a>
</li>
</ul>
<ul>
<li class="first-row">
<a href="/oferty/oferta-uslug-bhp-i-ppoz,20034033/">Oferta usług BHP i PPOŻ</a>
</li>
<li class="first-row">
<a href="/oferty/wysokonakladowe-ciecie-rur-fi-5-22-mm,19956003/">Wysokonakładowe cięcie rur fi 5-22 mm</a>
</li>
<li class="">
<a href="/sprzedaz/wapno-nawozowe-wapno-tlenkowe-kreda-granulowana-kreda-pastewna,19090806/">Wapno nawozowe, wapno tlenkowe, kreda granulowana, kreda pastewna</a>
</li>
<li class="">
<a href="/oferty/organizujemy-zabezpieczenie-techniczne-oraz-medyczne-zlotow-rajdow,19856905/">Organizujemy zabezpieczenie techniczne oraz medyczne zlotów, rajdów samochodowych na terenie całego kraju</a>
</li>
<li class="">
<a href="/oferty/zaprojektujemy-kazde-wnetrze-mieszkalne-kazde-biuro-i-inne-przestrzenie,19822692/">Zaprojektujemy każde wnętrze mieszkalne, każde biuro i inne przestrzenie użyteczności publicznej</a>
</li>
<li class="">
<a href="/oferty/projekt-i-wykonanie-posadzek%3A-bezspoinowe-betonowe-posadzki-przemyslowe,19327180/">Projekt i wykonanie posadzek: bezspoinowe betonowe posadzki przemysłowe, posadzki z dylatacjami nacinanymi, betonowe place manewrowe, rampy, podjazdy, drogi itp</a>
</li>
<li class="">
<a href="/oferty/nasza-firma-wykonuje-instalacje-chlodnicze-na-czynnikach-freonowych-co2,19327175/">Nasza firma wykonuje Instalacje chłodnicze na czynnikach freonowych, CO2, glikolowych, amoniakalnych. Instalacje w materiałach: stal nierdzewna, miedź, stal czarna, polietylen, polipropylen</a>
</li>
<li class="">
<a href="/oferty/firma-swiadczy-uslugi-doradztwa-w-zakresie-efektywnosci-energetycznej-i,19249791/">Firma świadczy usługi doradztwa w zakresie efektywności energetycznej i Odnawialnych źródeł energii oraz posykiwania funduszy zewnętrznych krajowych, UE, EOG</a>
</li>
<li class="">
<a href="/oferty/obsluga-przetargowa-firm,19011122/">OBSŁUGA PRZETARGOWA FIRM</a>
</li>
<li class="">
<a href="/oferty/oferta-wykonania-uslug-saperskich-z-zakresu-oczyszczania-terenow-z-przedmiotow,18900735/">Oferta wykonania usług saperskich z zakresu oczyszczania terenów z przedmiotów wybuchowych i niebezpiecznych</a>
</li>
</ul>
<ul>
<li class="first-row">
<a href="/oferty/wynajem-hali-usluga-pod-produkcyjna,18723344/">Wynajem hali ,usługa pod produkcyjna</a>
</li>
<li class="first-row">
<a href="/oferty/kursy-przygotowujace-do-egzaminu-udt-i-tdt,18858960/">KURSY PRZYGOTOWUJĄCE DO EGZAMINU UDT I TDT</a>
</li>
<li class="">
<a href="/oferty/realizacja-budowy-sieci-zewnetrznych-zwiazanych-z-wodociagami-kanalizacja,18863296/">Realizacja budowy sieci zewnętrznych związanych z wodociągami, kanalizacją, brukarstwem</a>
</li>
<li class="">
<a href="/przetargi/zakup-i-dostawa-miesa-i-wedlin,20466436/">Zakup i dostawa mięsa i wędlin</a>
</li>
<li class="">
<a href="/przetargi/odbior-odpadow,20466428/">Odbiór odpadów</a>
</li>
<li class="">
<a href="/przetargi/kanalizacja-sanitarna,20466401/">Kanalizacja sanitarna</a>
</li>
<li class="">
<a href="/przetargi/rozbudowa-systemu-balansowania-ruchu-w-sieci-ip,20462900/">Rozbudowa systemu balansowania ruchu w sieci IP</a>
</li>
<li class="">
<a href="/przetargi/przebudowa-stacji-uzdatniania-wody,20462243/">Przebudowa stacji uzdatniania wody</a>
</li>
<li class="">
<a href="/przetargi/dostawa-srodkow-chemicznych-do-uzdatniania-wody,20462225/">Dostawa środków chemicznych do uzdatniania wody</a>
</li>
<li class="">
<a href="/przetargi/wykonanie-przegladu-klap-ppoz-w-budynku,20447027/">Wykonanie przeglądu klap ppoż. w budynku</a>
</li>
</ul>
<ul>
<li class="first-row">
<a href="/przetargi/dostawa-zamrazarki-niskotemperaturowej-wraz-z-rozladunkiem-instalacja-i,20446115/">Dostawa zamrażarki niskotemperaturowej wraz z rozładunkiem, instalacją i wdrożeniem instrukcji stanowiskowej</a>
</li>
<li class="first-row">
<a href="/przetargi/swiadczenie-uslug-pocztowych-w-obrocie-krajowym-i-zagranicznym,20446009/">Świadczenie usług pocztowych w obrocie krajowym i zagranicznym</a>
</li>
<li class="">
<a href="/zlecenia/wykonanie-przylacza-wody-wraz-z-przeciskiem-pod-ulica-oraz-odtworzeniem,20441889/">Wykonanie przyłącza wody wraz z przeciskiem pod ulicą oraz odtworzeniem nawierzchni</a>
</li>
<li class="">
<a href="/przetargi/wykonanie-remontu-dachu,20437513/">Wykonanie remontu dachu</a>
</li>
<li class="">
<a href="/przetargi/usluga-sprzatania-i-utrzymania-czystosci-obiektow,20436843/">Usługa sprzątania i utrzymania czystości obiektów</a>
</li>
<li class="">
<a href="/przetargi/termomodernizacji-budynkow-mieszkalnych,20436773/">Termomodernizacji budynków mieszkalnych</a>
</li>
<li class="">
<a href="/przetargi/kompleksowa-usluga-redakcyjno---wydawnicza-i-drukarska-dotyczaca-publikacji,20427385/">Kompleksowa usługa redakcyjno - wydawnicza i drukarska, dotycząca publikacji monografii naukowych</a>
</li>
<li class="">
<a href="/przetargi/obsluga-miedzybrzegowej-przeprawy-promowej,20427334/">Obsługa międzybrzegowej przeprawy promowej</a>
</li>
<li class="">
<a href="/przetargi/odnowienie-i-pomalowanie-sufitu,20427288/">ODNOWIENIE I POMALOWANIE SUFITU</a>
</li>
<li class="">
<a href="/przetargi/remont-toalet-z-dostosowaniem-dla-osob-ze-specjalnymi-potrzebami,20418873/">Remont toalet z dostosowaniem dla osób ze specjalnymi potrzebami</a>
</li>
</ul>
<ul>
<li class="first-row">
<a href="/przetargi/uslugi-w-zakresie-ochrony-osob-i-mienia,20418921/">Usługi w zakresie ochrony osób i mienia</a>
</li>
<li class="first-row">
<a href="/przetargi/usluga-prania-wodnego-i-czyszczenia-chemicznego-przedmiotow-umundurowania-i,20418876/">Usługa prania wodnego i czyszczenia chemicznego przedmiotów umundurowania i wyekwipowania</a>
</li>
<li class="">
<a href="/zlecenia/zlece-wykonanie-drogi-dojazdowej-opaski-wokol-domow-tarasy-wraz-z-podbudowa,20210934/">Zlecę wykonanie drogi dojazdowej, opaski wokół domów, tarasy wraz z podbudowa</a>
</li>
<li class="">
<a href="/przetargi/zapewniene-wsparcia-w-procesie-implementacji-ppk,20400532/">Zapewniene wsparcia w procesie implementacji PPK</a>
</li>
<li class="">
<a href="/przetargi/zakup-oswietlenia,20400556/">Zakup oświetlenia</a>
</li>
<li class="">
<a href="/przetargi/zakup-laptopow,20400549/">Zakup laptopów</a>
</li>
<li class="">
<a href="/przetargi/usluga-odbioru-transportu-i-utylizacji-odpadow-komunalnych,20392111/">USŁUGA ODBIORU, TRANSPORTU I UTYLIZACJI ODPADÓW KOMUNALNYCH</a>
</li>
<li class="">
<a href="/przetargi/uslugi-informatyczne,20392054/">Usługi informatyczne</a>
</li>
<li class="">
<a href="/przetargi/obsluga-prawna,20392043/">Obsługa prawna</a>
</li>
<li class="">
<a href="/przetargi/usuwanie-pojazdow-z-drog,20381726/">Usuwanie pojazdów z dróg</a>
</li>
</ul>
<ul>
<li class="first-row">
<a href="/przetargi/dostawa-aparatow-telefonicznych,20381742/">Dostawa aparatów telefonicznych</a>
</li>
<li class="first-row">
<a href="/przetargi/dostawa-oleju-napedowego,20381732/">Dostawa oleju napędowego</a>
</li>
<li class="">
<a href="/sprzedaz/sprzedaz-nieruchomosci--pobierowo,20186586/">SPRZEDAŻ NIERUCHOMOŚCI- POBIEROWO</a>
</li>
<li class="">
<a href="/przetargi/dorazna-ochrona-fizyczna-obiektu,20373635/">Doraźna ochrona fizyczna obiektu</a>
</li>
<li class="">
<a href="/przetargi/sukcesywna-dostawa-oleju-napedowego-grzewczego-do-celow-grzewczych,20373661/">Sukcesywna dostawa oleju napędowego grzewczego do celów grzewczych</a>
</li>
<li class="">
<a href="/przetargi/opracowanie-projektu-miejscowego-planu-zagospodarowania-przestrzennego,20373660/">Opracowanie projektu miejscowego planu zagospodarowania przestrzennego</a>
</li>
<li class="">
<a href="/oferty/wynajme-dzialke-inwestycyjna-21-arow-gorzyce,20356897/">Wynajmę działkę inwestycyjną 21 arów, Gorzyce</a>
</li>
<li class="">
<a href="/przetargi/dostawa-bonow-towarowych,20364280/">Dostawa bonów towarowych</a>
</li>
</ul>
<div class="clear"></div>
</div>
</section>
<section class="box following" id="popular-branches">
<div class="inner homepage">
<header><h4>Popularne branże</h4></header>
<ul>
<li class=" first-row">
<a href="/branze/2530/">Transport przewozy <strong class="rwd-only">(7322)</strong></a>
<span class="count">7322</span>
</li>
<li class="last first-row">
<a href="/branze/2542/">Spedycja, przewozy towarów <strong class="rwd-only">(7123)</strong></a>
<span class="count">7123</span>
</li>
<li class=" ">
<a href="/branze/15566576/">Transport do 3,5t <strong class="rwd-only">(6388)</strong></a>
<span class="count">6388</span>
</li>
<li class="last ">
<a href="/branze/1858/">Elektryka energetyka osprzęt <strong class="rwd-only">(3606)</strong></a>
<span class="count">3606</span>
</li>
<li class=" ">
<a href="/branze/1756/">Budownictwo - obiekty wykończenia <strong class="rwd-only">(3310)</strong></a>
<span class="count">3310</span>
</li>
<li class="last ">
<a href="/branze/1744/">Budownictwo - drogi chodniki place <strong class="rwd-only">(2630)</strong></a>
<span class="count">2630</span>
</li>
<li class=" ">
<a href="/branze/1972/">Komputery informatyka internet <strong class="rwd-only">(2300)</strong></a>
<span class="count">2300</span>
</li>
<li class="last ">
<a href="/branze/1750/">Budowa, remonty - dróg, ulic, chodników <strong class="rwd-only">(2257)</strong></a>
<span class="count">2257</span>
</li>
<li class=" ">
<a href="/branze/1866/">Elektroinstalatorstwo <strong class="rwd-only">(2129)</strong></a>
<span class="count">2129</span>
</li>
<li class="last ">
<a href="/branze/1792/">Budownictwo - sanitarno-hydrauliczne <strong class="rwd-only">(2010)</strong></a>
<span class="count">2010</span>
</li>
</ul>
<div class="clear"></div>
<footer class="footer">
<a class="more" href="/statystyki/branze/">Więcej</a>
</footer>
</div>
</section>
</div>
<div id="sidebar">
<section class="box">
<header><h4>Statystyki</h4></header>
<dl class="data-sheet stats">
<dt>Dziś dodane</dt><dd class="first"><strong>3679</strong></dd>
<dt>Aktualne ogłoszenia</dt><dd><strong>54327</strong></dd>
<dt>Wszystkich ogłoszeń</dt><dd><strong>11898600</strong></dd>
</dl>
<footer class="footer">
<a class="more" href="/statystyki/">Więcej</a>
</footer>
</section>
<section class="box box-mobile-app">
<header><h4>Aplikacja mobilna</h4></header>
<div>
<a href="https://play.google.com/store/apps/details?id=pl.biznes_polska.mobile" rel="nofollow" style="display:inline-block;border:0">
<img alt="gbp-mobile" class="google_app" height="30" src="/images/google_play.png" width="110"/>
</a>
<a href="https://itunes.apple.com/us/app/przetargi-gbp/id871072260?l=pl&amp;;ls=1&amp;;mt=8" rel="nofollow" style="display:inline-block;border:0">
<img alt="gbp-mobile" class="google_app" height="30" src="/images/app_store.png" width="90"/>
</a>
</div>
</section>
<section class="box box-desktop-app">
<header><h4>Aplikacja desktop</h4></header>
<div>
<a href="/simpler/" rel="nofollow" style="display:inline-block;border:0">
<img alt="gbp-desktop" src="/images/app_desktop.png" width="50"/>
<span>Simpler</span>
</a>
</div>
</section>
<section class="box">
<header><h4>Skontaktuj się z nami</h4></header>
<dl class="data-sheet">
<dt>Telefon</dt><dd class="first"><strong>800 140 460</strong></dd>
<dt>E-mail</dt><dd><a class="more" href="mailto:biuro@biznes-polska.pl"><strong>biuro@biznes-polska.pl</strong></a></dd>
<dt>Adres</dt><dd><address><strong>Grupa BIZNES POLSKA<br/>Wnorowski i wspólnicy sp.j.</strong><br/>ul. Kościelna 44<br/>18-200 Wysokie Mazowieckie</address></dd>
</dl>
</section>
<section class="box">
<header><h4>Nowości</h4></header>
<ul class="item-list news">
<li><a class="ajax" href="/nowosci/18018006/">
Współpraca z Portal PZP Sp. z o.o.</a></li>
<li><a class="ajax" href="/nowosci/17881767/">
Współpraca z eB2B sp. z o.o.</a></li>
<li><a class="ajax" href="/nowosci/12652384/">
Simpler - aplikacja desktop</a></li>
</ul>
<footer class="footer">
<a class="more" href="/nowosci/">Więcej</a>
</footer>
</section>
<section class="box">
<header><h4>Poradniki</h4></header>
<ul class="item-list news">
<li><a href="http://przewodnik.biznes-polska.pl/wykonawca_w_nowej_ustawie_prawa_zamowien_publicznych.html" target="_blank">Wykonawca w nowej ustawie Prawa zamowień publicznych</a></li>
<li><a href="http://www.biznes-polska.pl/docs/jak_stosowac_ustawe_po_nowelizacji_z_dnia_22_06_2016.pdf" target="_blank">Jak stosować ustawę po nowelizacji z dnia 22 czerwca 2016r.</a></li>
<li><a href="http://przewodnik.biznes-polska.pl/na_co_zwrocic_uwage_wybierajac_serwis_monitorujacy_przetargi.html" target="_blank">Na co zwrócić uwagę wybierając serwis monitorujący przetargi</a></li>
</ul>
<footer class="footer">
<a class="more" href="http://przewodnik.biznes-polska.pl/" target="_blank">Więcej</a>
</footer>
</section>
<section class="box box-only-us">
<a href="/tylko-u-nas/"><img alt="" src="/gfx/only_us/baner-tylko-u-nas.png"/></a>
</section>
</div>
</div>
<div class="clear"></div>
</div>
</div>
<div class="gbp_">
<footer id="footer">
<div class="copy wrapper">
<div class="clients">
<img src="/gfx/clients/81.jpg"/>
<img src="/gfx/clients/77.jpg"/>
<img src="/gfx/clients/70.jpg"/>
<img src="/gfx/clients/71.jpg"/>
<img src="/gfx/clients/57.jpg"/>
<img src="/gfx/clients/34.jpg"/>
<img src="/gfx/clients/52.jpg"/>
<img src="/gfx/clients/53.jpg"/>
</div>
</div>
<div class="footmenu">
<div class="wrapper">
<section>
<h5>Biznes-Polska.pl</h5>
<ul>
<li><a href="/o-usludze/">O usłudze</a></li>
<li><a href="/oferta/">Oferta</a></li>
<li><a href="/zrodla-informacji/">Źródła informacji</a></li>
<li><a href="/mapa-serwisu/">Mapa serwisu</a></li>
<li><a href="/pomoc/">Pomoc</a></li>
<li><a href="/docs/regulamin.pdf">Regulamin</a></li>
<li><a href="http://www.gbp.pl/firma/polityka_prywatnosci/">Polityka cookies</a></li>
<li><a href="http://www.gbp.pl/firma/polityka_przetwarzania_danych/">Polityka przetwarzania danych</a></li>
</ul>
</section>
<section>
<h5>Nasze serwisy</h5>
<ul>
<li><a href="http://gbp.pl/" rel="nofollow">GBP.pl</a></li>
<li><a href="/">Przetargi</a></li>
<li><a href="http://gbpresearch.pl/" rel="nofollow">GBP Research</a></li>
<li><a href="http://startinvest.pl/" rel="nofollow">Startinvest.pl</a></li>
<li><a href="http://trends.pl/" rel="nofollow">Trends.pl</a></li>
<li><a href="http://blogzp.pl/" rel="nofollow">Blogzp.pl</a></li>
</ul>
</section>
<section>
<h5>O firmie</h5>
<ul>
<li><a href="/praca/">Praca</a></li>
<li><a href="/referencje/">Referencje</a></li>
<li><a href="/kontakt/">Kontakt</a></li>
<li><a href="https://www.linkedin.com/company/grupa-biznes-polska-sp.j." rel="nofollow"><img src="/images/linkedin.png"/></a></li>
<li><a href="https://www.facebook.com/gbiznespolska?fref=ts" rel="nofollow"><img src="/images/facebook.png"/></a></li>
</ul>
</section>
<section class="awards">
<h5>Referencje</h5>
<ul>
<li>
<p class="citation">"Niniejszy potwierdzamy wieloletnią współpracę z firmą Grupa Biznes Polska sp. j. w zakresie dostępu do Katalogu Ogłoszeń Biznesowych. Z przyjemnością możemy stwierdzić fakt ciągłego rozwoju współpracy pomiędzy usługodawcą , a wymagającym odbiorcą. Grupa Biznes Polska sp. j. wykazuje cechy nowoczesnego dostawcy, dążąc do zaspokojenia rosnących potrzeb klienta. Bezpośredni kontakt z profesjonalnie przygotowanymi merytorycznymi pracownikami Grupy Biznes Polska sp. j. przynosi zamierzone wymierne efekty."</p><p class="author">RWE Polska Spółka Akcyjna Mariusz Matuliński - Menedżer</p>
</li>
</ul>
</section>
</div>
<nav style="display: none;">
<ul>
<li><a href="/o-usludze/"><span>O usłudze</span></a></li>
<li><a href="/aktualnosci/">Aktualności</a></li>
<li><a href="/oferta/">Oferta</a></li>
<li><a href="/pomoc/">Pomoc</a></li>
<li><a href="/docs/regulamin.pdf">Regulamin</a></li>
<li><a href="/referencje/">Referencje</a></li>
<li><a href="/zrodla-informacji/"><span>Źródła informacji</span></a></li>
<li><a href="/kontakt/"><span>Kontakt</span></a></li>
</ul>
</nav>
<p id="gbp-copyright">
<a href="http://emarketingexperts.pl" id="gbp-created" rel="nofollow">Created by <span>Emarketing Experts</span></a>
          © 2021 Grupa BIZNES POLSKA - Wnorowski i wspólnicy sp.j.
        </p>
<div class="toggle-rwd">
<a class="disable-rwd" data-enable-rwd="false" href="#">Wersja desktop</a>
<a class="enable-rwd" data-enable-rwd="true" href="#">Wróć do wersji mobilnej</a>
</div>
</div>
</footer>
</div>
<script type="text/javascript">Cufon.now();</script>
<!-- Kod tagu remarketingowego Google -->
<script type="text/javascript">
  /* <![CDATA[ */
  var google_conversion_id = 1070324877;
  var google_custom_params = window.google_tag_params;
  var google_remarketing_only = true;
  /* ]]> */
  </script>
<script src="//www.googleadservices.com/pagead/conversion.js" type="text/javascript">
</script>
<noscript>
<div style="display:inline;">
<img alt="" height="1" src="//googleads.g.doubleclick.net/pagead/viewthroughconversion/1070324877/?value=0&amp;guid=ON&amp;script=0" style="border-style:none;" width="1"/>
</div>
</noscript>
<script id="leave-page-popup" type="text/x-template">
      <div class="popup-content">
        <div class="popup-form">
          <h3>Zapraszamy do testu</h3>
          <p class="l1">Warto przetestować nasz serwis przez 30 dni zupełnie <strong>za darmo</strong> bez zobowiązań!</p>
          <p class="l2">Rejestracja zajmie tylko 2 minuty</p>
          <a href="/rejestracja/?utm_campaign=time_popup&amp;utm_medium=badanie&amp;utm_source=biznes_polska" class="popup-register">Zarejestruj się</a>
          <p class="l2">lub zostaw swój numer telefonu -<br>oddzwonimy</p>
          <form method="post" class="popup-form" action="/zostaw-numer/">
            <input type="text" name="phone" placeholder="Twój numer telefonu">
            <button type="submit" class="popup-send">Wyślij</button>
          </form>
        </div>
        <div class="popup-thanks">
          <p class="l1">Dziękujemy!</p>
          <p class="l2">Skontaktujemy się z Tobą niezwłocznie, w godzinach pracy biura pn. - pt. 7:30 - 15:30</p>
        </div>
      </div>
    </script>
<script type="text/javascript">
      if (window.innerWidth>980)
        initializeTimedPopup();
    </script>
</body>
</html>
