<!DOCTYPE html>
<html>
<head>
<meta charset="utf-8"/>
<meta content="width=device-width, user-scalable=no, initial-scale=1.0, maximum-scale=1.0, minimum-scale=1.0" name="viewport"/>
<meta content="ie=edge,chrome=1" http-equiv="X-UA-Compatible"/>
<title>åæ±½æ°è½æºçµå¨æ±½è½¦å®ç½</title>
<meta content="zhpxHmCX3h" name="baidu-site-verification"/>
<meta content="åæ±½æ°è½æº,åæ±½æ°è½æºå®ç½,åæ±½çµå¨æ±½è½¦,åæ±½æ°è½æºæ±½è½¦" name="keywords"/>
<meta content="åæ±½æ°è½æºæ¯ä¸å®¶å½ææ§è¡é«ç§æä¸å¸å¬å¸ï¼æ¯å½åçº¯çµå¨ä¹ç¨è½¦äº§ä¸è§æ¨¡æå¤§ãäº§ä¸é¾æå®æ´ãå¸åºééæå¤§ãç¨æ·è¦çé¢æå¹¿ãåçå½±ååæå¤§çä¼ä¸ã2018å¹´æåç»éAè¡ï¼æä¸ºâä¸­å½æ°è½æºæ±½è½¦ç¬¬ä¸è¡âãè´åäºä¸ºç¨æ·åé çµå¨åãæºè½åãä¸ªæ§åçæè´é©¾ä¹ä½éªï¼æå»ºæ±½è½¦ä¸è½æºãäºèç½ãAIäººå·¥æºè½äº§ä¸èååå±çæ°çæãæ°æ ¼å±ã" name="description"/>
<link href="img/favicon.ico" rel="icon" type="image/x-icon"/>
<link href="img/favicon.ico" rel="icon" type="image/x-icon"/>
<link href="css/reset.css" rel="stylesheet" type="text/css"/>
<link href="css/iconfont.css" rel="stylesheet" type="text/css"/>
<link href="css/swiper-3.4.2.min.css" rel="stylesheet" type="text/css"/>
<link href="css/header_footer.css" rel="stylesheet"/>
<link href="css/base.css" rel="stylesheet" type="text/css"/>
<link href="css/index.css" rel="stylesheet"/>
<script>var cnzz_protocol = (("https:" == document.location.protocol) ? " https://" : " http://"); document.write(unescape("%3Cspan id='cnzz_stat_icon_1275561835'%3E%3C/span%3E%3Cscript src='" + cnzz_protocol + "s5.cnzz.com/z_stat.php%3Fid%3D1275561835%26show%3Dpic' type='text/javascript'%3E%3C/script%3E"));</script>
<!--	ç¨åçæµä»£ç éè-->
<!--		<script>-->
<!--			(function(para) {-->
<!--				var p = para.sdk_url, n = para.name, w = window, d = document, s = 'script',x = null,y = null;-->
<!--				if(typeof(w['sensorsDataAnalytic201505']) !== 'undefined') {-->
<!--					return false;-->
<!--				}-->
<!--				w['sensorsDataAnalytic201505'] = n;-->
<!--				w[n] = w[n] || function(a) {return function() {(w[n]._q = w[n]._q || []).push([a, arguments]);}};-->
<!--				var ifs = ['track','quick','register','registerPage','registerOnce','trackSignup', 'trackAbtest', 'setProfile','setOnceProfile','appendProfile', 'incrementProfile', 'deleteProfile', 'unsetProfile', 'identify','login','logout','trackLink','clearAllRegister','getAppStatus'];-->
<!--				for (var i = 0; i < ifs.length; i++) {-->
<!--					w[n][ifs[i]] = w[n].call(null, ifs[i]);-->
<!--				}-->
<!--				if (!w[n]._t) {-->
<!--					x = d.createElement(s), y = d.getElementsByTagName(s)[0];-->
<!--					x.async = 1;-->
<!--					x.src = p;-->
<!--					x.setAttribute('charset','UTF-8');-->
<!--					w[n].para = para;-->
<!--					y.parentNode.insertBefore(x, y);-->
<!--				}-->
<!--			})({-->
<!--				sdk_url: 'https://cdn.jsdelivr.net/npm/sa-sdk-javascript@1.14.14/sensorsdata.min.js',-->
<!--				heatmap_url: 'https://cdn.jsdelivr.net/npm/sa-sdk-javascript@1.14.14/heatmap.min.js',-->
<!--				name: 'sensors',-->
<!--				server_url: 'https://blacktree.datasink.sensorsdata.cn/sa?token=2e16e973078ac375&project=production',-->
<!--				heatmap:{}-->
<!--			});-->
<!--			sensors.quick('autoTrack');-->
<!--		</script>-->
<!--		<script type="text/javascript">-->
<!--			var _paq = _paq || [];-->
<!--			/* tracker methods like "setCustomDimension" should be called before "trackPageView" */-->
<!--			_paq.push(['trackPageView']);-->
<!--			_paq.push(['enableLinkTracking']);-->
<!--			(function() {-->
<!--				var u="//analytics.iblacktree.com/";-->
<!--				_paq.push(['setTrackerUrl', u+'heishu.php']);-->
<!--				_paq.push(['setSiteId', '41']);-->
<!--				var d=document, g=d.createElement('script'), s=d.getElementsByTagName('script')[0];-->
<!--				g.type='text/javascript'; g.async=true; g.defer=true; g.src=u+'heishu.js'; s.parentNode.insertBefore(g,s);-->
<!--			})();-->
<!--		</script>-->
<script id="xiaonengjs" src="https://visitorics.bjev.com.cn:1887/visitor/js/xiaoneng.js?siteid=kf_20180"></script>
</head>
<body>
<!-- é¡¶é¨å¯¼èª -->
<div id="header"></div>
<div id="app" v-cloak="">
<div class="banner index-banner" style="padding-bottom: 36.6%;">
<div class="swiper-container">
<div class="swiper-wrapper">
<div :style="{backgroundImage: 'url('+ item.imgUrl +')'}" class="swiper-slide" v-for="item in imgList"></div>
</div>
<div class="swiper-button-next swiper-button-next-sub"></div>
<div class="swiper-button-prev swiper-button-prev-sub"></div>
<div class="swiper-pagination"></div>
</div>
</div>
<!-- ææè½¦å -->
<div class="main-940">
<div class="title-box">
<h2 class="title">å¨é¨è½¦å</h2>
</div>
<div class="type-list">
<ul class="type-list_inf">
<li>
<div class="mian-a">
<div class="type-list_inf-content">
<p>EXç³»å</p>
<p class="series-title"><a href="http://ex3.beijingauto.com.cn/">EX3</a></p>
<p class="series-title"><a href="http://ex5.beijingauto.com.cn/">EX5</a></p>
<p class="series-title"><a href="html/ex360.html">EX360</a></p>
</div>
<!--<i>è·³è½¬</i>-->
</div>
</li>
<li class="EX">
<div class="mian-a">
<div class="type-list_inf-content">
<p>EUç³»å</p>
<p class="series-title"><a href="http://eu7.beijingauto.com.cn/">EU7</a></p>
<p class="series-title"><a href="http://eu5.beijingauto.com.cn/">EU5</a></p>
<p class="series-title"><a href="html/eu300.html">EUå¿«æ¢ç</a></p>
<p class="series-title"><a href="html/eu-coach.html">EUé©¾å¹ç</a></p>
</div>
<!--<i>è·³è½¬</i>-->
</div>
</li>
<li class="EC">
<div class="mian-a">
<div class="type-list_inf-content">
<p>ECç³»å</p>
<p class="series-title"><a href="html/ec3.html">EC3</a></p>
<p class="series-title"><a href="html/ec220.html">EC220</a></p>
<p class="series-title"><a href="html/ec5.html">EC5</a></p>
</div>
<!--<i>è·³è½¬</i>-->
</div>
</li>
<li class="LITE">
<div class="mian-a">
<div class="type-list_inf-content">
<p>LITE</p>
<p class="series-title"><a href="html/lite.html">LITE R300</a></p>
</div>
<!--<i>è·³è½¬</i>-->
</div>
</li>
</ul>
</div>
<!-- åç°æ´å¤ -->
<div class="type-list" style="padding-bottom: 100px;">
<div class="title-box">
<h2 class="title">åç°æ´å¤</h2>
</div>
<ul class="more-list_inf">
<li>
<a href="html/testdrive.html">
<div class="more-list_inf-title">
<p>è´­è½¦æå¡</p>
</div>
</a>
</li>
<li class="two">
<a href="html/butler.html">
<div class="more-list_inf-title">
<p>å®åæå¡</p>
</div>
</a>
</li>
<li class="three">
<a href="html/darwin-technology.html">
<div class="more-list_inf-title">
<p>ææ¯åæ°</p>
</div>
</a>
</li>
<li class="four">
<a href="html/query-dealer.html">
<div class="more-list_inf-title">
<p>ç½ç¹æ¥è¯¢</p>
</div>
</a>
</li>
<li class="five">
<a href="html/brand-dynamics.html">
<div class="more-list_inf-title">
<p>åçå¨æ</p>
</div>
</a>
</li>
</ul>
</div>
</div>
</div>
<!--åºé¨å¯¼èª-->
<div id="footer"></div>
<script src="js/jquery-1.8.3.min.js" type="text/javascript"></script>
<script src="js/layout.js"></script>
<script charset="utf-8" src="js/swiper3.js" type="text/javascript"></script>
<script charset="utf-8" src="js/ajax.js" type="text/javascript"></script>
<script src="js/vue.min.js"></script>
<script>
			var app = new Vue({
				el: '#app',
				data: {
					imgList: []
				},
				created: function() {
					this.getList();
				},
				mounted: function() {

				},
				updated: function() {
					this.$nextTick(function() {
						var galleryTop = new Swiper('.swiper-container', {
							nextButton: '.swiper-button-next',
							prevButton: '.swiper-button-prev',
							spaceBetween: 10,
							pagination: '.swiper-pagination',
							autoplay : 5000,
							// loop:true,
							autoplayDisableOnInteraction:false
						});
					})
				},
				methods: {
					getList: function() {
						var that = this;
						var url = HTTPRouter.serverpath + 'cmsbanner2c/getBannerList';
						var data = {
							"type": 1
						};
						HTTPWorker.getRequest(url, data, function(responseVo) {
							if(responseVo.success) {
								that.imgList = responseVo.result;
							} else {
								console.log(responseVo);
							}
						});
					},
					handleJump:function(item){
						if (!item.targetUrl) {
							return
						} else if (item.targetUrl.indexOf(location.hostname) < 0) {
							var a = $("<a href='" + item.targetUrl + "' target='_blank'>è·³è½¬å¤é¾</a>").get(0);
							var e = document.createEvent('MouseEvents');
							e.initEvent('click', true, true);
							a.dispatchEvent(e);
						} else {
							window.location.href = item.targetUrl
						}
					},
					jumpLite:function(){
						window.open("http://lite.com.cn/static/web/home/")
					}
				}
			});
		</script>
</body>
</html>
