<!DOCTYPE html>
<html lang="en">
<head>
<link href="https://res.cloudinary.com/jersey-watch/image/upload/c_scale,h_16,w_16/v1467123937/qxbf6hgoc1e1pm9jieob.png" rel="shortcut icon" type="image/png"/>
<meta content="minimum-scale=1, initial-scale=1, width=device-width, shrink-to-fit=no" name="viewport"/>
<meta content="The Black Swamp Soccer League was formed to provide a place for kids in Hancock County and surrounding areas to play the beautiful game of soccer. We are a recreational league, and provide a place for all youth, irrespective of skill levels and sex, the opportunity to play soccer; and encourage g..." name="description"/>
<link href="https://fonts.googleapis.com/css?family=Roboto:300,400,500|Anton" rel="stylesheet"/>
<link href="https://res.cloudinary.com/jersey-watch/image/upload/c_scale,h_180,w_180/v1467123937/qxbf6hgoc1e1pm9jieob.png" rel="apple-touch-icon"/>
<script src="//d2ytqrx2swf6ug.cloudfront.net/webpack/production/runtime.85a8774954dd6646da4e.js"></script>
<script src="//d2ytqrx2swf6ug.cloudfront.net/webpack/production/vendors.bbe8320aab215301a19d.js"></script>
<script src="//d2ytqrx2swf6ug.cloudfront.net/webpack/production/app.b319222808c093eb2a9e.js"></script>
<link href="//d2ytqrx2swf6ug.cloudfront.net/webpack/production/7.5100682248012abf1b1f.css" media="screen" rel="stylesheet"/>
<link href="//d2ytqrx2swf6ug.cloudfront.net/assets/spa_application-4bff148b34132c7975a5b7a91b3ed0eb4d21f307f81fa209083ad26f00ba92ee.css" media="screen" rel="stylesheet"/>
<meta content="authenticity_token" name="csrf-param"/>
<meta content="trjd591Y3ivI9VYxDtyEsevv4F2Z4mylousxiKJz6JA7yh0Sr5ARGdKCdM8+Tl2h11waJ7fu/leQDkHMGzGEIw==" name="csrf-token"/>
<!-- Global Site Tag (gtag.js) - Google Analytics -->
<script async="" src="https://www.googletagmanager.com/gtag/js?id=UA-30688076-2"></script>
<script>
    window.dataLayer = window.dataLayer || [];
    function gtag(){dataLayer.push(arguments);}
    gtag('js', new Date());

    gtag('config', 'UA-30688076-2');
    gtag('config', 'G-VTYB3MKQ82');


      gtag('config', 'AW-977819622');
  </script>
<title>Black Swamp Soccer League</title>
<link charset="UTF-8" href="https://cdnjs.cloudflare.com/ajax/libs/slick-carousel/1.6.0/slick.min.css" rel="stylesheet" type="text/css"/>
<link href="https://cdnjs.cloudflare.com/ajax/libs/slick-carousel/1.6.0/slick-theme.min.css" rel="stylesheet" type="text/css"/>
<script async="async" src="https://www.googletagservices.com/tag/js/gpt.js"></script>
<script>
  var googletag = googletag || {};
  googletag.cmd = googletag.cmd || [];
</script>
<script type="text/javascript">
  function visibleWidth(){
    return window.innerWidth||document.documentElement.clientWidth||document.body.clientWidth||0;
  }
  googletag.cmd.push(function() {
    if (visibleWidth() > 600) {
      googletag.defineSlot('/7085388/version2bottom_728x90', [728, 90], 'div-gpt-ad-1454446639968-0').addService(googletag.pubads());
      googletag.defineSlot('/7085388/version2top_728x90', [728, 90], 'div-gpt-ad-1454446639968-1').addService(googletag.pubads());
    }
    if (visibleWidth() <= 600) {
      googletag.defineSlot('/7085388/Mobile_bottom_320x50', [320, 50], 'div-gpt-ad-1484754161718-0').addService(googletag.pubads());
      googletag.defineSlot('/7085388/Mobile_top_320x50', [320, 50], 'div-gpt-ad-1484754005707-0').addService(googletag.pubads());
    }
    if (visibleWidth() > 992) {
      googletag.defineSlot('/7085388/Vertical_160x600', [160, 600], 'div-gpt-ad-1485888231731-0').addService(googletag.pubads());
      googletag.defineSlot('/7085388/Vertical_160x600_Right', [160, 600], 'div-gpt-ad-1485888412174-0').addService(googletag.pubads());
    }

    googletag.defineSlot('/7085388/RightColumn_300x250', [300, 250], 'div-gpt-ad-1484754462278-0')
      .setCollapseEmptyDiv(true)
      .addService(googletag.pubads())

    googletag.defineSlot('/7085388/horizontal_atf', [], 'div-gpt-ad-1498215674773-0')
      .defineSizeMapping(googletag.sizeMapping()
        .addSize([0, 0], [320, 50])
        .addSize([760, 0], [728, 90])
        .build())
      .setCollapseEmptyDiv(true)
      .addService(googletag.pubads());

    googletag.defineSlot('/7085388/horizontal_btf', [], 'div-gpt-ad-1498215792430-0')
      .defineSizeMapping(googletag.sizeMapping()
        .addSize([0, 0], [300, 250])
        .addSize([760, 0], [728, 90])
        .build())
      .setCollapseEmptyDiv(true)
      .addService(googletag.pubads());

    googletag.pubads().enableSingleRequest();
    googletag.pubads().setTargeting('city', "Toledo");
    googletag.enableServices();
  });
</script>
<script crossorigin="anonymous" integrity="sha384-lowBFC6YTkvMIWPORr7+TERnCkZdo5ab00oH5NkFLeQUAmBTLGwJpFjF6djuxJ/5" src="https://browser.sentry-cdn.com/5.17.0/bundle.min.js"></script>
</head>
<body>
<script>
      Sentry.init({
        dsn: 'https://1eb9f08a3cdc4a21aeaa8f6d93e41feb@sentry.io/219983',
        environment: 'production',
        whitelistUrls: [/https?:\/\/(d30hpja8t5akvs|d2ytqrx2swf6ug)\.cloudfront\.net/]
      });
    </script>
<script data-js-react-on-rails-store="appStore" type="application/json">{"$$organizationStore":{"$$navbarItems":[{"id":6474,"isActive":true,"children":null,"link":"/pages/6474/board-of-directors-staff","linkage_id":null,"linkage_type":null,"open_in_new_tab":null,"slug":"board-of-directors-staff","title":"Board of Directors","type":"StaffPage","password":null},{"id":15400,"isActive":true,"children":[{"id":6475,"isActive":true,"children":null,"link":"/pages/6475/ada-soccer","linkage_id":null,"linkage_type":null,"open_in_new_tab":null,"slug":"ada-soccer","title":"Ada","type":"CustomPage","password":null},{"id":6476,"isActive":true,"children":null,"link":"/pages/6476/arcadia","linkage_id":null,"linkage_type":null,"open_in_new_tab":null,"slug":"arcadia","title":"Arcadia","type":"CustomPage","password":null},{"id":6477,"isActive":true,"children":null,"link":"/pages/6477/arlington","linkage_id":null,"linkage_type":null,"open_in_new_tab":null,"slug":"arlington","title":"Arlington","type":"CustomPage","password":null},{"id":6478,"isActive":true,"children":null,"link":"/pages/6478/bluffton","linkage_id":null,"linkage_type":null,"open_in_new_tab":null,"slug":"bluffton","title":"Bluffton","type":"CustomPage","password":null},{"id":6479,"isActive":true,"children":null,"link":"/pages/6479/cory-rawson","linkage_id":null,"linkage_type":null,"open_in_new_tab":null,"slug":"cory-rawson","title":"Cory Rawson","type":"CustomPage","password":null},{"id":6480,"isActive":true,"children":null,"link":"/pages/6480/hancock","linkage_id":null,"linkage_type":null,"open_in_new_tab":null,"slug":"hancock","title":"Findlay/YMCA","type":"CustomPage","password":null},{"id":6481,"isActive":true,"children":null,"link":"/pages/6481/hardin-ymca-kenton","linkage_id":null,"linkage_type":null,"open_in_new_tab":null,"slug":"hardin-ymca-kenton","title":"Hardin YMCA (Kenton)","type":"CustomPage","password":null},{"id":6482,"isActive":true,"children":null,"link":"/pages/6482/liberty","linkage_id":null,"linkage_type":null,"open_in_new_tab":null,"slug":"liberty","title":"Liberty Benton","type":"CustomPage","password":null},{"id":6483,"isActive":true,"children":null,"link":"/pages/6483/mccomb","linkage_id":null,"linkage_type":null,"open_in_new_tab":null,"slug":"mccomb","title":"McComb","type":"CustomPage","password":null},{"id":6484,"isActive":true,"children":null,"link":"/pages/6484/riverdale","linkage_id":null,"linkage_type":null,"open_in_new_tab":null,"slug":"riverdale","title":"Riverdale","type":"CustomPage","password":null},{"id":6485,"isActive":true,"children":null,"link":"/pages/6485/upper-sandusky","linkage_id":null,"linkage_type":null,"open_in_new_tab":null,"slug":"upper-sandusky","title":"Upper Sandusky","type":"CustomPage","password":null},{"id":6486,"isActive":true,"children":null,"link":"/pages/6486/van-buren","linkage_id":null,"linkage_type":null,"open_in_new_tab":null,"slug":"van-buren","title":"Van Buren","type":"CustomPage","password":null}],"link":"/pages/15400","linkage_id":null,"linkage_type":null,"open_in_new_tab":null,"slug":null,"title":"Members and Maps","type":"FolderPage","password":null},{"id":15401,"isActive":true,"children":[{"id":23159,"isActive":true,"children":null,"link":"https://jerseywatch-files.s3.amazonaws.com/production/organizations/351/downloads/U8_Coed.pdf","linkage_id":null,"linkage_type":null,"open_in_new_tab":true,"slug":"u8-coed","title":"U8 Coed","type":"DirectLinkPage","password":null},{"id":23160,"isActive":true,"children":null,"link":"https://jerseywatch-files.s3.amazonaws.com/production/organizations/351/downloads/U8_Girls.pdf","linkage_id":null,"linkage_type":null,"open_in_new_tab":true,"slug":"u8-girls","title":"U8 Girls","type":"DirectLinkPage","password":null},{"id":23161,"isActive":true,"children":null,"link":"https://jerseywatch-files.s3.amazonaws.com/production/organizations/351/downloads/U10_Coed.pdf","linkage_id":null,"linkage_type":null,"open_in_new_tab":true,"slug":"u10-coed","title":"U10 Coed","type":"DirectLinkPage","password":null},{"id":23162,"isActive":true,"children":null,"link":"https://jerseywatch-files.s3.amazonaws.com/production/organizations/351/downloads/U10_Girls.pdf","linkage_id":null,"linkage_type":null,"open_in_new_tab":true,"slug":"u10-girls","title":"U10 Girls","type":"DirectLinkPage","password":null},{"id":23163,"isActive":true,"children":null,"link":"https://jerseywatch-files.s3.amazonaws.com/production/organizations/351/downloads/U12_Coed.pdf","linkage_id":null,"linkage_type":null,"open_in_new_tab":true,"slug":"u12-coed","title":"U12 Coed","type":"DirectLinkPage","password":null},{"id":23164,"isActive":true,"children":null,"link":"https://jerseywatch-files.s3.amazonaws.com/production/organizations/351/downloads/U12_Girls.pdf","linkage_id":null,"linkage_type":null,"open_in_new_tab":true,"slug":"u12-girls","title":"U12 Girls","type":"DirectLinkPage","password":null},{"id":23165,"isActive":true,"children":null,"link":"https://jerseywatch-files.s3.amazonaws.com/production/organizations/351/downloads/U15_Coed.pdf","linkage_id":null,"linkage_type":null,"open_in_new_tab":true,"slug":"u15-coed","title":"U15 Coed","type":"DirectLinkPage","password":null}],"link":"/pages/15401","linkage_id":null,"linkage_type":null,"open_in_new_tab":null,"slug":null,"title":"Schedules","type":"FolderPage","password":null},{"id":15402,"isActive":true,"children":[{"id":22482,"isActive":true,"children":null,"link":"http://www.ohionorthsoccer.org/events/2019_van_buren_fall_classic/?","linkage_id":null,"linkage_type":null,"open_in_new_tab":true,"slug":"vb-fall-classic","title":"VB Fall Classic","type":"DirectLinkPage","password":null},{"id":22483,"isActive":true,"children":null,"link":"http://www.ohionorthsoccer.org/events/2019_black_swamp_shootout/?","linkage_id":null,"linkage_type":null,"open_in_new_tab":true,"slug":"black-swamp-shootout","title":"Black Swamp Shootout","type":"DirectLinkPage","password":null}],"link":"/pages/15402","linkage_id":null,"linkage_type":null,"open_in_new_tab":null,"slug":null,"title":"Tournament Info","type":"FolderPage","password":null},{"id":6991,"isActive":true,"children":null,"link":"http://www.ohionorthsoccer.org/","linkage_id":null,"linkage_type":null,"open_in_new_tab":true,"slug":"soccer-link","title":"OYSAN","type":"DirectLinkPage","password":null},{"id":15403,"isActive":true,"children":[{"id":6494,"isActive":true,"children":null,"link":"https://jerseywatch-files.s3.amazonaws.com/production/organizations/351/downloads/laws_of_the_game.pdf","linkage_id":null,"linkage_type":null,"open_in_new_tab":true,"slug":"laws-of-the-game","title":"Laws of the Game","type":"DirectLinkPage","password":null},{"id":23336,"isActive":true,"children":null,"link":"https://jerseywatch-files.s3.amazonaws.com/production/organizations/351/downloads/U8_playing_guidelines.pdf","linkage_id":null,"linkage_type":null,"open_in_new_tab":true,"slug":"u8","title":"U8","type":"DirectLinkPage","password":null},{"id":23337,"isActive":true,"children":null,"link":"https://jerseywatch-files.s3.amazonaws.com/production/organizations/351/downloads/U10_playing_guidelines.pdf","linkage_id":null,"linkage_type":null,"open_in_new_tab":true,"slug":"u10","title":"U10","type":"DirectLinkPage","password":null},{"id":23338,"isActive":true,"children":null,"link":"https://jerseywatch-files.s3.amazonaws.com/production/organizations/351/downloads/U12_playing_guidelines.pdf","linkage_id":null,"linkage_type":null,"open_in_new_tab":true,"slug":"u12","title":"U12","type":"DirectLinkPage","password":null},{"id":23339,"isActive":true,"children":null,"link":"https://jerseywatch-files.s3.amazonaws.com/production/organizations/351/downloads/U15_playing_guidelines.pdf","linkage_id":null,"linkage_type":null,"open_in_new_tab":true,"slug":"u15","title":"U15","type":"DirectLinkPage","password":null}],"link":"/pages/15403","linkage_id":null,"linkage_type":null,"open_in_new_tab":null,"slug":null,"title":"Playing Guidelines","type":"FolderPage","password":null},{"id":15461,"isActive":true,"children":[{"id":6993,"isActive":true,"children":null,"link":"http://www.ohionorthsoccer.org/coaching_corner/","linkage_id":null,"linkage_type":null,"open_in_new_tab":true,"slug":"coaching-corner","title":"Coaching Corner","type":"DirectLinkPage","password":null},{"id":6994,"isActive":true,"children":null,"link":"/pages/6994/coaches","linkage_id":null,"linkage_type":null,"open_in_new_tab":null,"slug":"coaches","title":"Coaches","type":"CustomPage","password":null}],"link":"/pages/15461","linkage_id":null,"linkage_type":null,"open_in_new_tab":null,"slug":null,"title":"Coaching Corner","type":"FolderPage","password":null}]},"$$announcementStore":{"$$announcements":[{"id":1932,"title":"Defeating dehydration","announcement_thread_id":2426,"comments_hidden":true,"comments":null,"attachments":[],"comments_count":0,"content":null,"created_at":"2016-07-23T22:55:32.931Z","public":true,"published":true,"public_path":"/announcements/1932/defeating-dehydration"},{"id":1931,"title":"Beverage Bonanza: Making the right choice for your young athlete","announcement_thread_id":2425,"comments_hidden":true,"comments":null,"attachments":[],"comments_count":0,"content":null,"created_at":"2016-07-23T22:46:08.905Z","public":true,"published":true,"public_path":"/announcements/1931/beverage-bonanza-making-the-right-choice-for-your-young-athlete"},{"id":1930,"title":"Soccer receives A+ grade for health benefits for kids, study finds","announcement_thread_id":2423,"comments_hidden":true,"comments":null,"attachments":[],"comments_count":0,"content":null,"created_at":"2016-07-23T22:34:25.684Z","public":true,"published":true,"public_path":"/announcements/1930/soccer-receives-a-grade-for-health-benefits-for-kids-study-finds"}]},"$$contactInfoStore":{"additionalInfo":"\u003cp\u003e\u003cstrong\u003e\u003cspan style=\"font-size:14px;\"\u003eThe Black Swamp Soccer League was formed to provide a place for kids in Hancock County and surrounding areas to play the beautiful game of soccer.\u0026nbsp;We are a recreational league, and provide a place for all youth, irrespective of skill levels and sex, the opportunity to play soccer; and encourage good sportsmanship and fair play for all particiapants.\u003cbr /\u003e\r\n\u003cbr /\u003e\r\nTeam Info and Field Locations are located in the \u0026quot;Members\u0026quot; tab!\u003c/span\u003e\u003c/strong\u003e\u003c/p\u003e\r\n"},"$$documentStore":{"showWidget":true,"$$documents":[{"id":9981,"title":"Black Swamp Soccer League Bylaws v14","description":"Black Swamp Soccer League Bylaws v14","s3_attachment_url":"https://jerseywatch-files.s3.amazonaws.com/production/organizations/351/downloads/Black_Swamp_Soccer_League_By_Laws_Rev.14__1_.pdf","path":"/documents/66c4c767-0088-4962-9882-b12cbd0c4fa5"},{"id":2015,"title":"Constitution","description":"","s3_attachment_url":"https://jerseywatch-files.s3.amazonaws.com/production/organizations/351/downloads/BSSL_Constitution_March_2011.pdf","path":"/documents/7aa56cdd-e5eb-4be1-988c-cf8d7084986b"},{"id":2017,"title":"Roster Verification Card","description":"","s3_attachment_url":"https://jerseywatch-files.s3.amazonaws.com/production/organizations/351/downloads/roster_verification.pdf","path":"/documents/7f2a51fb-7661-4735-92ce-f96791305935"},{"id":2018,"title":"Concussion Form","description":"","s3_attachment_url":"https://jerseywatch-files.s3.amazonaws.com/production/organizations/351/downloads/bssl_concussion_form.pdf","path":"/documents/596affc1-6f83-4309-8347-fd22130e1a93"},{"id":2019,"title":"Ohio's Return-to-Play Law","description":"","s3_attachment_url":"https://jerseywatch-files.s3.amazonaws.com/production/organizations/351/downloads/Youth_Sports_Organization_Concussion_Form_-_ODH_Revised_3.pdf","path":"/documents/088ff560-51c9-456a-bf66-20ef3446d50b"},{"id":2020,"title":"Goal Safety Document","description":"","s3_attachment_url":"https://jerseywatch-files.s3.amazonaws.com/production/organizations/351/downloads/Goal_Safety.pdf","path":"/documents/7ddc298b-7ae0-4115-9d0f-070ba43dc1ca"},{"id":2021,"title":"Goal Safety Policy","description":"","s3_attachment_url":"https://jerseywatch-files.s3.amazonaws.com/production/organizations/351/downloads/Goal_Safety_Policy_to_OYSAN.pdf","path":"/documents/22702ee3-9a94-4b04-90af-d90d471b43e8"},{"id":2022,"title":"Oversized Roster Form","description":"","s3_attachment_url":"https://jerseywatch-files.s3.amazonaws.com/production/organizations/351/downloads/BSSL_Oversized_roster.pdf","path":"/documents/4700d6af-3658-4e99-bbc2-1acfb62d8f1a"},{"id":2025,"title":"Liability and Consent Form","description":"","s3_attachment_url":"https://jerseywatch-files.s3.amazonaws.com/production/organizations/351/downloads/BSSL_liability_and_consent_form.pdf","path":"/documents/3dace83e-f287-4174-8040-ba8b02c2d352"},{"id":2023,"title":"Coaches Registration Form","description":"","s3_attachment_url":"https://jerseywatch-files.s3.amazonaws.com/production/organizations/351/downloads/coachregistrationform-fall17-spring18-cWLp.pdf","path":"/documents/5dd8020d-273d-4964-9f40-a17a18ff9585"},{"id":2024,"title":"Clash of Coaching Philosophies","description":"Good Read!","s3_attachment_url":"https://jerseywatch-files.s3.amazonaws.com/production/organizations/351/downloads/Clash_of_Coaching_Philosophies.pdf","path":"/documents/e25b8dfb-d2b1-489a-9319-ab159f997e91"},{"id":2026,"title":"FIFA Laws of the Game","description":"","s3_attachment_url":"https://jerseywatch-files.s3.amazonaws.com/production/organizations/351/downloads/laws_of_the_game.pdf","path":"/documents/0116e766-a22c-4ee5-93b1-5b8c3f709587"},{"id":2033,"title":"Arcadia Map","description":"","s3_attachment_url":"https://jerseywatch-files.s3.amazonaws.com/production/organizations/351/downloads/Arcadia_Fields.pdf","path":"/documents/34a967ba-7107-425e-9abf-d7323561aa12"},{"id":2035,"title":"Arlington Map","description":"","s3_attachment_url":"https://jerseywatch-files.s3.amazonaws.com/production/organizations/351/downloads/Arlington.pdf","path":"/documents/c4f753c8-48c7-41aa-a8c2-bbc2c3d0b45b"},{"id":2036,"title":"Bluffton U8 Map","description":"","s3_attachment_url":"https://jerseywatch-files.s3.amazonaws.com/production/organizations/351/downloads/BlufftonU8.pdf","path":"/documents/9ab57ea9-9828-4313-af8d-b840637337fd"},{"id":2037,"title":"Bluffton U12 \u0026 U15 Map","description":"","s3_attachment_url":"https://jerseywatch-files.s3.amazonaws.com/production/organizations/351/downloads/BlufftonU12-U15.pdf","path":"/documents/4ce19b54-0846-4e23-ad67-f5cfcafeb84f"},{"id":2038,"title":"Cory Rawson U8-U10 Map","description":"","s3_attachment_url":"https://jerseywatch-files.s3.amazonaws.com/production/organizations/351/downloads/CoryRawsonU8-U10.pdf","path":"/documents/1b549fe9-7235-48a8-9394-94eabdd84b3d"},{"id":2039,"title":"Cory Rawson U15-19 Map","description":"","s3_attachment_url":"https://jerseywatch-files.s3.amazonaws.com/production/organizations/351/downloads/CoryRawsonU15-U19.pdf","path":"/documents/a5e21fdf-5c2f-4d57-995d-8e5196d34324"},{"id":2040,"title":"Hancock Map","description":"","s3_attachment_url":"https://jerseywatch-files.s3.amazonaws.com/production/organizations/351/downloads/FindlayEmoryAdams.pdf","path":"/documents/01d0cc74-3b42-405a-994a-9b97df4abc6b"},{"id":2041,"title":"Hardin County YMCA (Kenton) Map","description":"","s3_attachment_url":"https://jerseywatch-files.s3.amazonaws.com/production/organizations/351/downloads/Kenton.pdf","path":"/documents/1c488884-1fae-40d8-956d-014f50fb863f"},{"id":2042,"title":"Liberty Benton Map","description":"","s3_attachment_url":"https://jerseywatch-files.s3.amazonaws.com/production/organizations/351/downloads/LB-Soccer-Fields.pdf","path":"/documents/e5beb598-8095-4c33-9315-825ce4200a42"},{"id":2043,"title":"McComb Fields Map","description":"","s3_attachment_url":"https://jerseywatch-files.s3.amazonaws.com/production/organizations/351/downloads/McComb_Fields.pdf","path":"/documents/c4ed31cd-6945-4feb-bd8c-cc499564b9a3"},{"id":2044,"title":"McComb U8 Map (Village Park)","description":"","s3_attachment_url":"https://jerseywatch-files.s3.amazonaws.com/production/organizations/351/downloads/McCombU8-U10.pdf","path":"/documents/4e677e69-b2ba-4208-8cc2-e9730d6c6d30"},{"id":2045,"title":"Riverdale Map","description":"","s3_attachment_url":"https://jerseywatch-files.s3.amazonaws.com/production/organizations/351/downloads/Riverdale.pdf","path":"/documents/b7336cca-eb23-4c45-8b5c-a6bba1dfdd9b"},{"id":2046,"title":"Van Buren Map","description":"","s3_attachment_url":"https://jerseywatch-files.s3.amazonaws.com/production/organizations/351/downloads/VB_SOCCER_COMPLEX.pdf","path":"/documents/6324b2f5-0b32-414f-94f4-7c20efe518a0"},{"id":4258,"title":"CR U15 Field","description":"","s3_attachment_url":"https://jerseywatch-files.s3.amazonaws.com/production/organizations/351/downloads/U15_CR.pdf","path":"/documents/b98f3195-0863-4860-beb2-74e2c4e18099"},{"id":4259,"title":"Bluffton U10 Fields","description":"","s3_attachment_url":"https://jerseywatch-files.s3.amazonaws.com/production/organizations/351/downloads/Bluffton_U10_Fields__002_.pdf","path":"/documents/0ac54863-bdbc-4792-993c-6f3a6a908593"},{"id":4260,"title":"Upper Fields","description":"","s3_attachment_url":"https://jerseywatch-files.s3.amazonaws.com/production/organizations/351/downloads/USHS_Soccer_Fields.pdf","path":"/documents/7677b496-c61c-4f3c-8a70-fa6d4ab64a7f"},{"id":4261,"title":"CR U8-U10 Fields","description":"","s3_attachment_url":"https://jerseywatch-files.s3.amazonaws.com/production/organizations/351/downloads/coryrawsonu8-u10-pfWj.pdf","path":"/documents/856bc18d-af99-4ecb-9846-6c2ec5e33799"},{"id":4262,"title":"CR U12 Field","description":"","s3_attachment_url":"https://jerseywatch-files.s3.amazonaws.com/production/organizations/351/downloads/Mt_Cory.pdf","path":"/documents/f6ccb3a0-2a28-4ac3-85b5-fa9603c9b024"},{"id":4870,"title":"Coaches Form Fall 2017 - Spring 2018","description":"","s3_attachment_url":"https://jerseywatch-files.s3.amazonaws.com/production/organizations/351/downloads/CoachRegistrationForm-Fall17-Spring18.pdf","path":"/documents/ae8f2f85-4b9b-464e-95bb-9a7b8813cdf5"},{"id":6785,"title":"LB Fields 2018","description":"LB Fields 2018","s3_attachment_url":"https://jerseywatch-files.s3.amazonaws.com/production/organizations/351/downloads/BentonRidgeFields.jpg","path":"/documents/cef350e8-1346-4609-b7c8-819c21e98f46"},{"id":6787,"title":"ADA Fields","description":"","s3_attachment_url":"https://jerseywatch-files.s3.amazonaws.com/production/organizations/351/downloads/Ada_Soccer_Fields_Cropped.pdf","path":"/documents/0bf8ee69-b907-4c32-8fdc-69548945fd7c"},{"id":8813,"title":"BSSL U8 Playing Guidelines","description":"","s3_attachment_url":"https://jerseywatch-files.s3.amazonaws.com/production/organizations/351/downloads/U8_playing_guidelines.pdf","path":"/documents/8e684004-f2d2-49c4-83ba-a5ac4e9ee0e5"},{"id":8814,"title":"BSSL U10 Playing Guidelines","description":"","s3_attachment_url":"https://jerseywatch-files.s3.amazonaws.com/production/organizations/351/downloads/U10_playing_guidelines.pdf","path":"/documents/e2d1b811-d459-46d2-8894-0181e0ea00f5"},{"id":9982,"title":"BSSL U12 Playing Guidelines","description":"BSSL U12 Playing Guidelines","s3_attachment_url":"https://jerseywatch-files.s3.amazonaws.com/production/organizations/351/downloads/U12_playing_guidelines.pdf","path":"/documents/a952e2df-f00f-4afa-a2a3-f1614e355ad0"},{"id":8816,"title":"BSSL U15 Playing Guidelines","description":"","s3_attachment_url":"https://jerseywatch-files.s3.amazonaws.com/production/organizations/351/downloads/U15_playing_guidelines.pdf","path":"/documents/115c02ee-897a-4bef-ad13-7df1fd865802"},{"id":10067,"title":"U8 Coed","description":"","s3_attachment_url":"https://jerseywatch-files.s3.amazonaws.com/production/organizations/351/downloads/U8_Coed.pdf","path":"/documents/21c980e4-928e-49cf-b94c-aab0a82c1612"},{"id":10068,"title":"U8 Girls","description":"","s3_attachment_url":"https://jerseywatch-files.s3.amazonaws.com/production/organizations/351/downloads/U8_Girls.pdf","path":"/documents/47acfa32-228f-410a-97f5-2f3aa389c957"},{"id":10069,"title":"U10 Coed","description":"","s3_attachment_url":"https://jerseywatch-files.s3.amazonaws.com/production/organizations/351/downloads/U10_Coed.pdf","path":"/documents/42ba3d2a-4dd9-472c-af89-41fb02c05340"},{"id":10070,"title":"U10 Girls","description":"","s3_attachment_url":"https://jerseywatch-files.s3.amazonaws.com/production/organizations/351/downloads/U10_Girls.pdf","path":"/documents/9dd98e7b-3848-4a76-9fde-3ee61191a17f"},{"id":10071,"title":"U12 Coed","description":"","s3_attachment_url":"https://jerseywatch-files.s3.amazonaws.com/production/organizations/351/downloads/U12_Coed.pdf","path":"/documents/507fac27-0d2c-429d-a9e9-6d2dc54ea3fb"},{"id":10072,"title":"U12 Girls","description":"","s3_attachment_url":"https://jerseywatch-files.s3.amazonaws.com/production/organizations/351/downloads/U12_Girls.pdf","path":"/documents/301fd150-577d-48a4-bf37-0745407ffb40"},{"id":10073,"title":"U15 Coed","description":"","s3_attachment_url":"https://jerseywatch-files.s3.amazonaws.com/production/organizations/351/downloads/U15_Coed.pdf","path":"/documents/4ab47dd8-6587-476a-927d-926074f5cab9"}]},"$$albumStore":{"albumPhotos":[]},"appStore":{"homepage":{"accountManager":{"id":1,"name":"Tim Gusweiler","email":"help@jerseywatch.com","photo_url":"https://jerseywatch-assets.s3.amazonaws.com/global/tim-headshot-200x200.jpg"}}},"$$registrationStore":{"registrationActiveForPrograms":false,"registrationWidgetDisabled":false,"programCount":0},"$$scheduleStore":{"$$events":[]},"$$sponsorStore":{"$$sponsors":[]}}</script>
<script id="js-react-on-rails-context" type="application/json">{"railsEnv":"production","inMailer":false,"i18nLocale":"en","i18nDefaultLocale":"en","rorVersion":"11.2.2","rorPro":false,"href":"https://www.blackswampsoccer.org/","location":"/","scheme":"https","host":"www.blackswampsoccer.org","port":null,"pathname":"/","search":null,"httpAcceptLanguage":null,"ebEnv":"production","flash":[["came_from_homepage",true]],"organization":{"id":351,"ad_free":false,"can_edit_design":false,"custom_hostname":"www.blackswampsoccer.org","custom_hostname_enabled":true,"default_social_feed":"Facebook","display_contact_email":"blackswamp16@gmail.com","display_contact_phone":null,"enable_tables":false,"facebook_url":null,"force_remove_activate_message":false,"has_subscription":false,"header_filename":"v1467123938/p2ljnqk6alvynphm1ws8.png","instagram_url":null,"is_chat_enabled":false,"is_paying":null,"is_watching":false,"jw_hostname":"black-swamp-soccer-league.jerseywatch.com","logo_filename":"v1467123937/qxbf6hgoc1e1pm9jieob.png","meta":{"homepage_setup_complete":true,"initial_setup_picked_colors":true},"name":"Black Swamp Soccer League","pricing_version":"v2","primary_color":"#000000","s3_layout_url":"https://jerseywatch-files.s3.amazonaws.com/production/organizations/351/layout/Black-Swamp-Soccer-League-bg.jpg","secondary_color":"#b3b3b3","show_events_widget":true,"show_header":true,"show_layout":true,"show_logo":true,"show_public_subscribe":true,"sport":"Soccer","subheading":"Subheading...","text_color":"#ffffff","twitter_url":null},"referrer":null,"currentUser":null,"isPreviewingWebsite":true,"ckeditorPlugins":{"simage":"//d2ytqrx2swf6ug.cloudfront.net/assets/ckeditor/plugins/simage_nr/plugin-fd8627b95cb4bcfbedc577d0af744a7436c151bb47737a5f5f630af35bde2427.js"},"jsonapi":{"currentOrganization":{"data":{"id":"351","type":"organization","attributes":{"name":"Black Swamp Soccer League","has_subscription?":false,"primary_color":"#000000"},"relationships":{}}},"currentUser":null},"serverSide":false}</script>
<div id="RouterApp-react-component-26e0f34a-1bfd-46cc-8ae7-13588dbdafc7"></div>
<script class="js-react-on-rails-component" data-component-name="RouterApp" data-dom-id="RouterApp-react-component-26e0f34a-1bfd-46cc-8ae7-13588dbdafc7" type="application/json">{}</script>
<script type="text/javascript">!function(e,t,n){function a(){var e=t.getElementsByTagName("script")[0],n=t.createElement("script");n.type="text/javascript",n.async=!0,n.src="https://beacon-v2.helpscout.net",e.parentNode.insertBefore(n,e)}if(e.Beacon=n=function(t,n,a){e.Beacon.readyQueue.push({method:t,options:n,data:a})},n.readyQueue=[],"complete"===t.readyState)return a();e.attachEvent?e.attachEvent("onload",a):e.addEventListener("load",a,!1)}(window,document,window.Beacon||function(){});</script>
<script type="text/javascript">
  window.Beacon('config', {
    display: {
      style: 'manual',
      position: 'right',
      zIndex: '99999',
    },
  });
  window.Beacon('init', '6d627289-3cfa-4bfd-a7ed-4d95826a6d12')
  window.Beacon('navigate', '/ask/message/')
</script>
</body>
</html>
