<html><head>
<title>Access Denied</title>
</head><body>
<h1>Access Denied</h1>
 
You don't have permission to access "http://www.blinds.com/" on this server.<p>
Reference #18.bc302b17.1610598636.c5309ee5
</p></body>
</html>
