<!DOCTYPE html>
<html lang="en-US">
<head>
<meta charset="utf-8"/>
<title>The Tom Leykis Show</title>
<meta content="text/html; charset=utf-8" http-equiv="Content-Type"/>
<link href="https://cdn.blowmeuptom.com/wp-content/uploads/2013/04/TL_square_logo-320.png" rel="image_src"/>
<link href="//www.google.com" rel="dns-prefetch"/>
<link href="//maxcdn.bootstrapcdn.com" rel="dns-prefetch"/>
<link href="//s.w.org" rel="dns-prefetch"/>
<link href="https://blowmeuptom.com/feed/" rel="alternate" title="The Tom Leykis Show » Feed" type="application/rss+xml"/>
<link href="https://blowmeuptom.com/comments/feed/" rel="alternate" title="The Tom Leykis Show » Comments Feed" type="application/rss+xml"/>
<link href="https://blowmeuptom.com/home/feed/" rel="alternate" title="The Tom Leykis Show » Home Comments Feed" type="application/rss+xml"/>
<!-- This site uses the Google Analytics by ExactMetrics plugin v6.0.2 - Using Analytics tracking - https://www.exactmetrics.com/ -->
<script data-cfasync="false" type="text/javascript">
	var em_version         = '6.0.2';
	var em_track_user      = true;
	var em_no_track_reason = '';
	
	var disableStr = 'ga-disable-UA-5193223-18';

	/* Function to detect opted out users */
	function __gaTrackerIsOptedOut() {
		return document.cookie.indexOf(disableStr + '=true') > -1;
	}

	/* Disable tracking if the opt-out cookie exists. */
	if ( __gaTrackerIsOptedOut() ) {
		window[disableStr] = true;
	}

	/* Opt-out function */
	function __gaTrackerOptout() {
	  document.cookie = disableStr + '=true; expires=Thu, 31 Dec 2099 23:59:59 UTC; path=/';
	  window[disableStr] = true;
	}

	if ( 'undefined' === typeof gaOptout ) {
		function gaOptout() {
			__gaTrackerOptout();
		}
	}
	
	if ( em_track_user ) {
		(function(i,s,o,g,r,a,m){i['GoogleAnalyticsObject']=r;i[r]=i[r]||function(){
			(i[r].q=i[r].q||[]).push(arguments)},i[r].l=1*new Date();a=s.createElement(o),
			m=s.getElementsByTagName(o)[0];a.async=1;a.src=g;m.parentNode.insertBefore(a,m)
		})(window,document,'script','//www.google-analytics.com/analytics.js','__gaTracker');

window.ga = __gaTracker;		__gaTracker('create', 'UA-5193223-18', 'auto');
		__gaTracker('set', 'forceSSL', true);
		__gaTracker('send','pageview');
		__gaTracker( function() { window.ga = __gaTracker; } );
	} else {
		console.log( "" );
		(function() {
			/* https://developers.google.com/analytics/devguides/collection/analyticsjs/ */
			var noopfn = function() {
				return null;
			};
			var noopnullfn = function() {
				return null;
			};
			var Tracker = function() {
				return null;
			};
			var p = Tracker.prototype;
			p.get = noopfn;
			p.set = noopfn;
			p.send = noopfn;
			var __gaTracker = function() {
				var len = arguments.length;
				if ( len === 0 ) {
					return;
				}
				var f = arguments[len-1];
				if ( typeof f !== 'object' || f === null || typeof f.hitCallback !== 'function' ) {
					console.log( 'Not running function __gaTracker(' + arguments[0] + " ....) because you are not being tracked. " + em_no_track_reason );
					return;
				}
				try {
					f.hitCallback();
				} catch (ex) {

				}
			};
			__gaTracker.create = function() {
				return new Tracker();
			};
			__gaTracker.getByName = noopnullfn;
			__gaTracker.getAll = function() {
				return [];
			};
			__gaTracker.remove = noopfn;
			window['__gaTracker'] = __gaTracker;
			window.ga = __gaTracker;		})();
		}
</script>
<!-- / Google Analytics by ExactMetrics -->
<script type="text/javascript">
			window._wpemojiSettings = {"baseUrl":"https:\/\/s.w.org\/images\/core\/emoji\/12.0.0-1\/72x72\/","ext":".png","svgUrl":"https:\/\/s.w.org\/images\/core\/emoji\/12.0.0-1\/svg\/","svgExt":".svg","source":{"concatemoji":"https:\/\/blowmeuptom.com\/wp-includes\/js\/wp-emoji-release.min.js?ver=5.3.6"}};
			!function(e,a,t){var r,n,o,i,p=a.createElement("canvas"),s=p.getContext&&p.getContext("2d");function c(e,t){var a=String.fromCharCode;s.clearRect(0,0,p.width,p.height),s.fillText(a.apply(this,e),0,0);var r=p.toDataURL();return s.clearRect(0,0,p.width,p.height),s.fillText(a.apply(this,t),0,0),r===p.toDataURL()}function l(e){if(!s||!s.fillText)return!1;switch(s.textBaseline="top",s.font="600 32px Arial",e){case"flag":return!c([127987,65039,8205,9895,65039],[127987,65039,8203,9895,65039])&&(!c([55356,56826,55356,56819],[55356,56826,8203,55356,56819])&&!c([55356,57332,56128,56423,56128,56418,56128,56421,56128,56430,56128,56423,56128,56447],[55356,57332,8203,56128,56423,8203,56128,56418,8203,56128,56421,8203,56128,56430,8203,56128,56423,8203,56128,56447]));case"emoji":return!c([55357,56424,55356,57342,8205,55358,56605,8205,55357,56424,55356,57340],[55357,56424,55356,57342,8203,55358,56605,8203,55357,56424,55356,57340])}return!1}function d(e){var t=a.createElement("script");t.src=e,t.defer=t.type="text/javascript",a.getElementsByTagName("head")[0].appendChild(t)}for(i=Array("flag","emoji"),t.supports={everything:!0,everythingExceptFlag:!0},o=0;o<i.length;o++)t.supports[i[o]]=l(i[o]),t.supports.everything=t.supports.everything&&t.supports[i[o]],"flag"!==i[o]&&(t.supports.everythingExceptFlag=t.supports.everythingExceptFlag&&t.supports[i[o]]);t.supports.everythingExceptFlag=t.supports.everythingExceptFlag&&!t.supports.flag,t.DOMReady=!1,t.readyCallback=function(){t.DOMReady=!0},t.supports.everything||(n=function(){t.readyCallback()},a.addEventListener?(a.addEventListener("DOMContentLoaded",n,!1),e.addEventListener("load",n,!1)):(e.attachEvent("onload",n),a.attachEvent("onreadystatechange",function(){"complete"===a.readyState&&t.readyCallback()})),(r=t.source||{}).concatemoji?d(r.concatemoji):r.wpemoji&&r.twemoji&&(d(r.twemoji),d(r.wpemoji)))}(window,document,window._wpemojiSettings);
		</script>
<style type="text/css">
img.wp-smiley,
img.emoji {
	display: inline !important;
	border: none !important;
	box-shadow: none !important;
	height: 1em !important;
	width: 1em !important;
	margin: 0 .07em !important;
	vertical-align: -0.1em !important;
	background: none !important;
	padding: 0 !important;
}
</style>
<link href="https://cdn.blowmeuptom.com/wp-includes/css/dist/block-library/style.min.css?x43326" id="wp-block-library-css" media="all" rel="stylesheet" type="text/css"/>
<link href="https://cdn.blowmeuptom.com/wp-content/plugins/acurax-social-media-widget/css/style.css?x43326" id="acx_smw_widget_style-css" media="all" rel="stylesheet" type="text/css"/>
<link href="https://cdn.blowmeuptom.com/wp-content/plugins/contact-form-7/includes/css/styles.css?x43326" id="contact-form-7-css" media="all" rel="stylesheet" type="text/css"/>
<link href="https://cdn.blowmeuptom.com/wp-content/plugins/custom-facebook-feed/css/cff-style.css?x43326" id="cff-css" media="all" rel="stylesheet" type="text/css"/>
<link href="https://maxcdn.bootstrapcdn.com/font-awesome/4.7.0/css/font-awesome.min.css?ver=5.3.6" id="sb-font-awesome-css" media="all" rel="stylesheet" type="text/css"/>
<link href="https://cdn.blowmeuptom.com/wp-content/plugins/rotatingtweets/css/style.css?x43326" id="rotatingtweets-css" media="all" rel="stylesheet" type="text/css"/>
<link href="https://cdn.blowmeuptom.com/wp-content/plugins/ultimate-posts-widget/css/upw-theme-standard.min.css?x43326" id="upw_theme_standard-css" media="all" rel="stylesheet" type="text/css"/>
<link href="https://cdn.blowmeuptom.com/wp-content/plugins/amazon-link/Amazon.css?x43326" id="amazon-link-style-css" media="all" rel="stylesheet" type="text/css"/>
<link href="https://cdn.blowmeuptom.com/wp-content/themes/canvas/style.css?x43326" id="theme-stylesheet-css" media="all" rel="stylesheet" type="text/css"/>
<link href="https://cdn.blowmeuptom.com/wp-content/themes/canvas/css/layout.css?x43326" id="woo-layout-css" media="all" rel="stylesheet" type="text/css"/>
<link href="https://blowmeuptom.com/?woo-layout-css=load&amp;ver=5.3.6" id="woo-layout-dynamic-css" media="all" rel="stylesheet" type="text/css"/>
<link href="https://cdn.blowmeuptom.com/wp-content/plugins/tw-recent-posts-widget/tw-recent-posts-widget.css?x43326" id="tw-recent-posts-widget-css" media="screen" rel="stylesheet" type="text/css"/>
<script src="https://cdn.blowmeuptom.com/wp-includes/js/jquery/jquery.js?x43326" type="text/javascript"></script>
<script src="https://cdn.blowmeuptom.com/wp-includes/js/jquery/jquery-migrate.min.js?x43326" type="text/javascript"></script>
<script type="text/javascript">
/* <![CDATA[ */
var exactmetrics_frontend = {"js_events_tracking":"true","download_extensions":"zip,mp3,mpeg,pdf,docx,pptx,xlsx,rar","inbound_paths":"[{\"path\":\"\\\/go\\\/\",\"label\":\"affiliate\"},{\"path\":\"\\\/recommend\\\/\",\"label\":\"affiliate\"}]","home_url":"https:\/\/blowmeuptom.com","hash_tracking":"false"};
/* ]]> */
</script>
<script src="https://cdn.blowmeuptom.com/wp-content/plugins/google-analytics-dashboard-for-wp/assets/js/frontend.min.js?x43326" type="text/javascript"></script>
<script src="https://cdn.blowmeuptom.com/wp-content/plugins/constant-contact-api/lib/form-designer/js/cc-widget.js?x43326" type="text/javascript"></script>
<script src="https://cdn.blowmeuptom.com/wp-content/themes/canvas/includes/js/third-party.js?x43326" type="text/javascript"></script>
<script src="https://cdn.blowmeuptom.com/wp-content/themes/canvas/includes/js/jquery.flexslider.min.js?x43326" type="text/javascript"></script>
<script type="text/javascript">
/* <![CDATA[ */
var woo_localized_data = {"select_a_page":"Select a page:"};
/* ]]> */
</script>
<script src="https://cdn.blowmeuptom.com/wp-content/themes/canvas/includes/js/general.js?x43326" type="text/javascript"></script>
<link href="https://blowmeuptom.com/wp-json/" rel="https://api.w.org/"/>
<meta content="WordPress 5.3.6" name="generator"/>
<link href="https://blowmeuptom.com/" rel="canonical"/>
<link href="https://blowmeuptom.com/" rel="shortlink"/>
<link href="https://blowmeuptom.com/wp-json/oembed/1.0/embed?url=https%3A%2F%2Fblowmeuptom.com%2F" rel="alternate" type="application/json+oembed"/>
<link href="https://blowmeuptom.com/wp-json/oembed/1.0/embed?url=https%3A%2F%2Fblowmeuptom.com%2F&amp;format=xml" rel="alternate" type="text/xml+oembed"/>
<!-- Starting Styles For Social Media Icon From Acurax International www.acurax.com -->
<style type="text/css">
#acx_social_widget img 
{
width: 32px; 
}
#acx_social_widget 
{
min-width:0px; 
position: static; 
}
</style>
<!-- Ending Styles For Social Media Icon From Acurax International www.acurax.com -->
<!-- Theme version -->
<meta content="Canvas 5.1.6" name="generator"/>
<meta content="WooFramework 6.2.6" name="generator"/>
<!-- Custom CSS Styling -->
<style type="text/css">
body {background-color:#000000;background-image:url(https://cdn.blowmeuptom.com/wp-content/uploads/2018/12/bg_home_20181210.jpg?x43326);background-repeat:no-repeat;background-position:top center;background-attachment:scroll;border-top:0px solid #000000;}
a:link, a:visited {color:#e30000}
a:hover, .post-more a:hover, .post-meta a:hover, .post p.tags a:hover {color:#ff0000}
body #wrapper #content .button, body #wrapper #content .button:visited, body #wrapper #content .reply a, body #wrapper #content #respond .form-submit input#submit {border: none; background:#e30000}
body #wrapper #content .button:hover, body #wrapper #content .reply a:hover, body #wrapper #content #respond .form-submit input#submit:hover {border: none; background:#ff0000}
#header {background-repeat:no-repeat;background-position:top center;margin-top:0px;margin-bottom:5px;padding-top:0px;padding-bottom:0px;border:0px solid #ffffff;}
#logo .site-title a {font:bold 40px/1em "Helvetica Neue", Helvetica, sans-serif;color:#222222;}
#logo .site-description {font:300 13px/1em "Helvetica Neue", Helvetica, sans-serif;color:#999999;}
body, p { font:300 14px/1.5em 'PT Sans', arial, sans-serif;color:#ffffff; }
h1 { font:bold 28px/1.2em 'PT Sans', arial, sans-serif;color:#ffffff; }h2 { font:bold 24px/1.2em 'PT Sans', arial, sans-serif;color:#e6e6e6; }h3 { font:bold 20px/1.2em 'PT Sans', arial, sans-serif;color:#ffffff; }h4 { font:bold 16px/1.2em 'PT Sans', arial, sans-serif;color:#e6e6e6; }h5 { font:bold 14px/1.2em 'PT Sans', arial, sans-serif;color:#ffffff; }h6 { font:bold 12px/1.2em 'PT Sans', arial, sans-serif;color:#ffffff; }
.post .title, .page .title, .post .title a:link, .post .title a:visited, .page .title a:link, .page .title a:visited {font:bold 36px/1.1em 'PT Sans', arial, sans-serif;color:#ffffff;}
.post-meta { font:normal 12px/1.5em 'PT Sans', arial, sans-serif;color:#ffffff; }
.entry, .entry p{ font:normal 14px/1.5em 'PT Sans', arial, sans-serif;color:#ffffff; }
.post-more {font:normal 13px/1.5em PT Sans;color:#ffffff;border-top:0px solid #e6e6e6;border-bottom:0px solid #e6e6e6;}
#comments .comment.thread-even {background-color:#303030;}
#post-author, #connect {border-top:0px solid #e6e6e6;border-bottom:0px solid #e6e6e6;border-left:0px solid #e6e6e6;border-right:0px solid #e6e6e6;border-radius:6px;-moz-border-radius:6px;-webkit-border-radius:6px;background-color:#1d1d1d}
#comments .comment.thread-even {background-color:#303030;}
.nav-entries a, .woo-pagination { font:normal 13px/1em 'PT Sans', arial, sans-serif;color:#ffffff; }
.woo-pagination a, .woo-pagination a:hover {color:#ffffff!important}
.widget h3 {font:bold 14px/1.2em "Helvetica Neue", Helvetica, sans-serif;color:#e6e6e6;border-bottom:0px solid #e6e6e6;margin-bottom:0;}
.widget_recent_comments li, #twitter li { border-color: #e6e6e6;}
.widget p, .widget .textwidget { font:normal 13px/1.5em 'PT Sans', arial, sans-serif;color:#ffffff; }
.widget {font:normal 13px/1.5em PT Sans;color:#ffffff;border-radius:0px;-moz-border-radius:0px;-webkit-border-radius:0px;}
#tabs .inside li a, .widget_woodojo_tabs .tabbable .tab-pane li a { font:bold 12px/1.5em "Helvetica Neue", Helvetica, sans-serif;color:#555555; }
#tabs .inside li span.meta, .widget_woodojo_tabs .tabbable .tab-pane li span.meta { font:300 11px/1.5em "Helvetica Neue", Helvetica, sans-serif;color:#999999; }
#tabs ul.wooTabs li a, .widget_woodojo_tabs .tabbable .nav-tabs li a { font:300 11px/2em "Helvetica Neue", Helvetica, sans-serif;color:#999999; }
ul.nav li a, #navigation ul.rss a { font:bold 12px/1em 'PT Sans', arial, sans-serif;color:#fc9052; }
#navigation ul.nav > li a:hover, #navigation ul.nav > li:hover a, #navigation ul.nav li ul li a { color:#fc9052!important; }
#navigation ul.nav > li a:hover, #navigation ul.nav > li:hover, #navigation ul.nav li ul {background-color:#000000!important}
#navigation ul.nav li ul  { border: 0px solid #ffffff; }
#navigation ul.nav > li > ul  { left: 0; }
#navigation ul.nav > li  { border-right: 0px solid #dbdbdb; }#navigation ul.nav > li > ul  { left: 0; }
#navigation ul.nav li.current_page_item a, #navigation ul.nav li.current_page_parent a, #navigation ul.nav li.current-menu-ancestor a, #navigation ul.nav li.current-cat a, #navigation ul.nav li.current-menu-item a { background-color:#fc9052; }
#navigation ul.nav li.current_page_item a, #navigation ul.nav li.current_page_parent a, #navigation ul.nav li.current-menu-ancestor a, #navigation ul.nav li.current-cat a, #navigation ul.nav li.current-menu-item a { color:#fc9052; }
#navigation  { box-shadow: none; -moz-box-shadow: none; -webkit-box-shadow: none; }#navigation ul li:first-child, #navigation ul li:first-child a { border-radius:0px 0 0 0px; -moz-border-radius:0px 0 0 0px; -webkit-border-radius:0px 0 0 0px; }
#navigation {border-top:0px solid #ffffff;border-bottom:0px solid #dbdbdb;border-left:0px solid #dbdbdb;border-right:0px solid #dbdbdb;border-radius:0px; -moz-border-radius:0px; -webkit-border-radius:0px;}
#top ul.nav li a { font:300 12px/1.6em "Helvetica Neue", Helvetica, sans-serif;color:#ddd; }
#footer, #footer p { font:300 12px/1em 'Open Sans', arial, sans-serif;color:#ffffff; }
#footer {border-top:0px solid #dbdbdb;border-bottom:0px solid ;border-left:0px solid ;border-right:0px solid ;border-radius:0px; -moz-border-radius:0px; -webkit-border-radius:0px;}
.magazine #loopedSlider .content h2.title a { font:bold 24px/1em Arial, sans-serif;color:#ffffff; }
.magazine #loopedSlider .content .excerpt p { font:300 13px/1.5em Arial, sans-serif;color:#cccccc; }
.business #loopedSlider .content h2 { font:bold 24px/1em Arial, sans-serif;color:#ffffff; }
.business #loopedSlider .content h2.title a { font:bold 24px/1em Arial, sans-serif;color:#ffffff; }
#wrapper .business #loopedSlider .content p { font:300 13px/1.5em Arial, sans-serif;color:#cccccc; }
.archive_header h1 { font:bold 18px/1em 'PT Sans', arial, sans-serif;color:#e6e6e6; }
.archive_header {border-bottom:1px solid #e6e6e6;}
</style>
<!-- Google Webfonts -->
<link href="https://fonts.googleapis.com/css?family=PT+Sans%3Aregular%2C%3Aitalic%2C%3A700%2C%3A700italic%7COpen+Sans%3A300%2C%3A300italic%2C%3Aregular%2C%3Aitalic%2C%3A600%2C%3A600italic%2C%3A700%2C%3A700italic%2C%3A800%2C%3A800italic" rel="stylesheet" type="text/css"/>
<!-- Always force latest IE rendering engine (even in intranet) & Chrome Frame -->
<meta content="IE=edge,chrome=1" http-equiv="X-UA-Compatible"/>
<!--  Mobile viewport scale -->
<meta content="initial-scale=1.0; maximum-scale=1.0; user-scalable=yes" name="viewport"/>
<!-- Adjust the website width -->
<style type="text/css">
	.col-full, #wrapper { max-width: 1000px !important; }
</style>
<!--[if lt IE 9]>
<link href="https://cdn.blowmeuptom.com/wp-content/themes/canvas/css/non-responsive.css?x43326" rel="stylesheet" type="text/css" />
<style type="text/css">
.col-full, #wrapper { width: 1000px; max-width: 1000px; }
</style>
<![endif]-->
<!-- Facebook Pixel Code -->
<script type="text/javascript">
!function(f,b,e,v,n,t,s){if(f.fbq)return;n=f.fbq=function(){n.callMethod?
n.callMethod.apply(n,arguments):n.queue.push(arguments)};if(!f._fbq)f._fbq=n;
n.push=n;n.loaded=!0;n.version='2.0';n.queue=[];t=b.createElement(e);t.async=!0;
t.src=v;s=b.getElementsByTagName(e)[0];s.parentNode.insertBefore(t,s)}(window,
document,'script','https://connect.facebook.net/en_US/fbevents.js');
</script>
<!-- End Facebook Pixel Code -->
<script type="text/javascript">
  fbq('init', '2320181611444293', [], {
    "agent": "wordpress-5.3.6-2.0.1"
});
</script><script type="text/javascript">
  fbq('track', 'PageView', []);
</script>
<!-- Facebook Pixel Code -->
<noscript>
<img alt="fbpx" height="1" src="https://www.facebook.com/tr?id=2320181611444293&amp;ev=PageView&amp;noscript=1" style="display:none" width="1"/>
</noscript>
<!-- End Facebook Pixel Code -->
<link href="https://cdn.blowmeuptom.com/wp-content/plugins/fbf-facebook-page-feed-widget/fbf_facebook_page_feed.css?x43326" media="screen" rel="stylesheet" type="text/css"/>
<style id="wp-custom-css" type="text/css">
			/*
You can add your own CSS here.

Click the help icon above to learn more.
*/		</style>
<!-- Custom Favicon -->
<link href="https://cdn.blowmeuptom.com/wp-content/uploads/2013/02/tl_favicon.png" rel="shortcut icon"/>
<!-- Options Panel Custom CSS -->
<style type="text/css">
body.home.page-id-6 #content {
    background: url('https://cdn.blowmeuptom.com/wp-content/uploads/2018/12/bg_home_20181210.jpg?x43326') no-repeat !important;
}
</style>
<!-- Woo Shortcodes CSS -->
<link href="https://cdn.blowmeuptom.com/wp-content/themes/canvas/functions/css/shortcodes.css?x43326" rel="stylesheet" type="text/css"/>
<!-- Custom Stylesheet -->
<link href="https://cdn.blowmeuptom.com/wp-content/themes/canvas/custom.css?x43326" rel="stylesheet" type="text/css"/>
<script type="text/javascript">
(function(s,o,l,v,e,d){if(s[o]==null&&s[l+e]){s[o]="loading";s[l+e](d,l=function(){s[o]="complete";s[v+e](d,l,!1)},!1)}})(document,"readyState","add","remove","EventListener","DOMContentLoaded");
(function() {
var s = document.createElement("script"); s.type = "text/javascript"; s.async = true;
s.src = "https://cdn.engine.4dsply.com/Scripts/infinity.js.aspx";
s.id = "infinity"; s.setAttribute("data-guid", "d6951bfa-ed7d-4271-8b18-a95ad5dda6b8"); s.setAttribute("data-version", "async");
var e = document.getElementsByTagName('script')[0]; e.parentNode.insertBefore(s, e);
})();
</script>
</head>
<body class="home page-template page-template-template-biz page-template-template-biz-php page page-id-6 page-parent unknown alt-style-default two-col-left width-1000 two-col-left-1000">
<div id="wrapper">
<div class="col-full" id="header">
<div id="logo">
<a href="https://blowmeuptom.com/" title="Official site with live internet broadcast, news, photos, press and links."><img alt="The Tom Leykis Show" src="https://cdn.blowmeuptom.com/wp-content/uploads/2013/02/logo_red-orange.png"/></a>
<h1 class="site-title"><a href="https://blowmeuptom.com/">The Tom Leykis Show</a></h1>
<span class="site-description">Official site with live internet broadcast, news, photos, press and links.</span>
</div><!-- /#logo -->
<h3 class="nav-toggle icon"><a href="#navigation">Navigation</a></h3>
</div><!-- /#header -->
<div class="col-full" id="navigation">
<ul class="nav fl" id="main-nav"><li class="menu-item menu-item-type-post_type menu-item-object-page menu-item-home current-menu-item page_item page-item-6 current_page_item menu-item-549" id="menu-item-549"><a aria-current="page" href="https://blowmeuptom.com/">Home</a></li>
<li class="menu-item menu-item-type-post_type menu-item-object-page menu-item-2327" id="menu-item-2327"><a href="https://blowmeuptom.com/home/faq/">FAQ</a></li>
<li class="menu-item menu-item-type-custom menu-item-object-custom menu-item-608" id="menu-item-608"><a href="https://www.premiumtom.com/" rel="noopener noreferrer" target="_blank">Premium Tom</a></li>
<li class="menu-item menu-item-type-taxonomy menu-item-object-category menu-item-615" id="menu-item-615"><a href="https://blowmeuptom.com/category/toms-blog/">Tom’s Blog</a></li>
<li class="menu-item menu-item-type-post_type menu-item-object-page menu-item-has-children menu-item-619" id="menu-item-619"><a href="https://blowmeuptom.com/leykis101/">Leykis 101</a>
<ul class="sub-menu">
<li class="menu-item menu-item-type-taxonomy menu-item-object-category menu-item-1383" id="menu-item-1383"><a href="https://blowmeuptom.com/category/money/">Money</a></li>
</ul>
</li>
<li class="menu-item menu-item-type-custom menu-item-object-custom menu-item-612" id="menu-item-612"><a href="https://the-new-normal-store.myshopify.com/" rel="noopener noreferrer" target="_blank">Merch</a></li>
<li class="menu-item menu-item-type-custom menu-item-object-custom menu-item-has-children menu-item-646" id="menu-item-646"><a href="#">Sponsors</a>
<ul class="sub-menu">
<li class="menu-item menu-item-type-post_type menu-item-object-page menu-item-650" id="menu-item-650"><a href="https://blowmeuptom.com/asponsors-page/">Sponsors Page</a></li>
<li class="menu-item menu-item-type-post_type menu-item-object-page menu-item-613" id="menu-item-613"><a href="https://blowmeuptom.com/advertise/">Advertise</a></li>
</ul>
</li>
<li class="menu-item menu-item-type-custom menu-item-object-custom menu-item-has-children menu-item-609" id="menu-item-609"><a href="#">The New Normal</a>
<ul class="sub-menu">
<li class="menu-item menu-item-type-custom menu-item-object-custom menu-item-610" id="menu-item-610"><a href="https://newnormalnetwork.com/" rel="noopener noreferrer" target="_blank">New Normal Network</a></li>
<li class="menu-item menu-item-type-custom menu-item-object-custom menu-item-611" id="menu-item-611"><a href="https://tastingwithtom.com/" rel="noopener noreferrer" target="_blank">The Tasting Room</a></li>
</ul>
</li>
<li class="menu-item menu-item-type-post_type menu-item-object-page menu-item-617" id="menu-item-617"><a href="https://blowmeuptom.com/contact/">Contact</a></li>
</ul>
</div><!-- /#navigation -->
<a href="http://www.amazon.com//ref=as_sl_pc_tf_lc?&amp;tag=newnormus-20&amp;camp=15345&amp;creative=493273&amp;linkCode=ur1&amp;adid=0FFG9W1Y86ZX7GTZK2YD&amp;&amp;ref-refURL=https%3A%2F%2Fblowmeuptom.com%2F%3Fw3tc_note%3Dpgcache_purge_post" target="_blank"><img src="https://cdn.blowmeuptom.com/wp-content/uploads/2015/06/amazon_1000X100.jpg"/></a> <!-- #content Starts -->
<div class="col-full business" id="content">
<div id="main-sidebar-container">
<!-- #main Starts -->
<div id="main">
<div class="post-6 page type-page status-publish hentry">
<div class="entry">
<table style="width: 350px; height: 250px; border-color: #000000;">
<tbody>
<tr>
<td style="border-color: #000000; padding: 0px;"><a href="https://premiumtom.com"><img class="wp-image-382 aligncenter" src="https://cdn.blowmeuptom.com/wp-content/uploads/2018/12/bmutptbanner.jpg?x43326" style="margin-bottom: 0px;"/></a></td>
</tr>
</tbody>
</table>
<div class="rdioBtns">
<a href="https://premiumtom.com"><img alt="tune in" src="https://cdn.blowmeuptom.com/wp-content/uploads/2018/12/button.png?x43326" style="height: 66px; padding-left: 13px; width: 367px;"/></a>
</div>
<div class="socialFeeds">
<div class="twocol-one">
<div class="headerLink"><a href="https://twitter.com/tomleykis" rel="noopener" target="_blank">Tom On Twitter</a></div>
<p>
</p><div class="rotatingtweets rotatingtweets_format_0" data-cycle-auto-height="calc" data-cycle-easing="swing" data-cycle-fx="scrollUp" data-cycle-log="false" data-cycle-pause-on-hover="true" data-cycle-slides="div.rotatingtweet" data-cycle-speed="1000" data-cycle-timeout="10000" id="rotatingtweets_10000_scrollUp_1000_6000b33675ec7">
<div class="rotatingtweet">
<p class="rtw_main">ONE in THREE! Keep visiting those mothers-in-law and baby mamas, everyone!
<a class="rtw_url_link" href="https://t.co/p6w7JMAlNS" title="https://www.latimes.com/california/story/2021-01-14/one-in-three-la-county-residents-infected-coronavirus">latimes.com/california/sto…</a></p>
<p class="rtw_meta"><a href="https://twitter.com/twitterapi/status/1349785298813607936">About 3 hours ago</a> from <a href="https://twitter.com/intent/user?screen_name=tomleykis" title="Tony Quarantino">Tony Quarantino's Twitter</a> via <a href="https://mobile.twitter.com" rel="nofollow">Twitter Web App</a></p></div>
<div class="rotatingtweet" style="display:none">
<p class="rtw_main">ICYMI: <a class="rtw_hashtag_link" href="https://twitter.com/search?q=%23Trump&amp;src=hash" title="#Trump">#Trump</a> DOUBLEHEADER It's never happened before in history: a US president <a class="rtw_hashtag_link" href="https://twitter.com/search?q=%23ImpeachedTwice&amp;src=hash" title="#ImpeachedTwice">#ImpeachedTwice</a>. How do we isolate and dispose of the morons who still support him?
<a class="rtw_url_link" href="https://t.co/NWCwsyKHyS" title="https://www.premiumtom.com/library/in-the-news/2021-01-14">premiumtom.com/library/in-the…</a></p>
<p class="rtw_meta"><a href="https://twitter.com/twitterapi/status/1349781848302338049">About 3 hours ago</a> from <a href="https://twitter.com/intent/user?screen_name=tomleykis" title="Tony Quarantino">Tony Quarantino's Twitter</a> via <a href="https://mobile.twitter.com" rel="nofollow">Twitter Web App</a></p></div>
<div class="rotatingtweet" style="display:none">
<p class="rtw_main"><a href="https://twitter.com/intent/user?screen_name=AngelGE76" lang="en" title="Angel Gallardo">@AngelGE76</a> I feel your pain, but it's more important that we be here for more holidays &amp; special occasions in the future. The doctors know more about this than we do &amp; THEY say we need to STAY HOME without bringing in outsiders. It's hard to think of friends &amp; family that way, but we must.</p>
<p class="rtw_meta"><a href="https://twitter.com/twitterapi/status/1349753972601470977">About 5 hours ago</a> from <a href="https://twitter.com/intent/user?screen_name=tomleykis" title="Tony Quarantino">Tony Quarantino's Twitter</a> via <a href="http://twitter.com/download/android" rel="nofollow">Twitter for Android</a></p></div>
<div class="rotatingtweet" style="display:none">
<p class="rtw_main"><a href="https://twitter.com/intent/user?screen_name=jonathanchait" lang="en" title="Jonathan Chait">@jonathanchait</a> I'm so glad to see that <a href="https://twitter.com/intent/user?screen_name=CumulusMedia" lang="en" title="Cumulus Media">@CumulusMedia</a> is cracking down on that incendiary rhetoric. ATTENTION ADVERTISERS! <a class="rtw_url_link" href="https://t.co/HwinobVvMS" title="https://twitter.com/jonathanchait/status/1349712883266048002">twitter.com/jonathanchait/…</a></p>
<p class="rtw_meta"><a href="https://twitter.com/twitterapi/status/1349736795844476929">About 6 hours ago</a> from <a href="https://twitter.com/intent/user?screen_name=tomleykis" title="Tony Quarantino">Tony Quarantino's Twitter</a> via <a href="http://twitter.com/download/android" rel="nofollow">Twitter for Android</a></p></div>
<div class="rotatingtweet" style="display:none">
<p class="rtw_main"><a href="https://twitter.com/intent/user?screen_name=joropeza689" lang="en" title="My Info">@joropeza689</a> The former child star of the film, as if you didn't know.</p>
<p class="rtw_meta"><a href="https://twitter.com/twitterapi/status/1349724992846479362">About 7 hours ago</a> from <a href="https://twitter.com/intent/user?screen_name=tomleykis" title="Tony Quarantino">Tony Quarantino's Twitter</a> via <a href="http://twitter.com/download/android" rel="nofollow">Twitter for Android</a></p></div>
<div class="rotatingtweet" style="display:none">
<p class="rtw_main"><a href="https://twitter.com/intent/user?screen_name=joropeza689" lang="en" title="My Info">@joropeza689</a> Looks like we need to start arresting violators.</p>
<p class="rtw_meta"><a href="https://twitter.com/twitterapi/status/1349724812948606976">About 7 hours ago</a> from <a href="https://twitter.com/intent/user?screen_name=tomleykis" title="Tony Quarantino">Tony Quarantino's Twitter</a> via <a href="http://twitter.com/download/android" rel="nofollow">Twitter for Android</a></p></div>
<div class="rotatingtweet" style="display:none">
<p class="rtw_main"><a class="rtw_hashtag_link" href="https://twitter.com/search?q=%23TrumpImpeachment&amp;src=hash" title="#TrumpImpeachment">#TrumpImpeachment</a> <a class="rtw_hashtag_link" href="https://twitter.com/search?q=%23Trump&amp;src=hash" title="#Trump">#Trump</a> <a class="rtw_url_link" href="https://t.co/rLsAAYSyrh" title="https://twitter.com/jeffzeleny/status/1349723879565123585">twitter.com/jeffzeleny/sta…</a></p>
<p class="rtw_meta"><a href="https://twitter.com/twitterapi/status/1349724657553793028">About 7 hours ago</a> from <a href="https://twitter.com/intent/user?screen_name=tomleykis" title="Tony Quarantino">Tony Quarantino's Twitter</a> via <a href="http://twitter.com/download/android" rel="nofollow">Twitter for Android</a></p></div>
<div class="rotatingtweet" style="display:none">
<p class="rtw_main"><a href="https://twitter.com/intent/user?screen_name=foxandfriends" lang="en" title="FOX &amp; friends">@foxandfriends</a> And "they" were RIGHT. 

&lt;signed&gt; One of "them" <a class="rtw_url_link" href="https://t.co/vHAHHDYexm" title="https://twitter.com/RawStory/status/1349689686164447232">twitter.com/RawStory/statu…</a></p>
<p class="rtw_meta"><a href="https://twitter.com/twitterapi/status/1349724197702959107">About 7 hours ago</a> from <a href="https://twitter.com/intent/user?screen_name=tomleykis" title="Tony Quarantino">Tony Quarantino's Twitter</a> via <a href="http://twitter.com/download/android" rel="nofollow">Twitter for Android</a></p></div>
<div class="rotatingtweet" style="display:none">
<p class="rtw_main"><a href="https://twitter.com/intent/user?screen_name=joropeza689" lang="en" title="My Info">@joropeza689</a> They would if people would obey them.</p>
<p class="rtw_meta"><a href="https://twitter.com/twitterapi/status/1349723212750282757">About 7 hours ago</a> from <a href="https://twitter.com/intent/user?screen_name=tomleykis" title="Tony Quarantino">Tony Quarantino's Twitter</a> via <a href="http://twitter.com/download/android" rel="nofollow">Twitter for Android</a></p></div>
<div class="rotatingtweet" style="display:none">
<p class="rtw_main">Tee hee hee! <a class="rtw_hashtag_link" href="https://twitter.com/search?q=%23Trump&amp;src=hash" title="#Trump">#Trump</a> <a class="rtw_hashtag_link" href="https://twitter.com/search?q=%23TrumpImpeachment&amp;src=hash" title="#TrumpImpeachment">#TrumpImpeachment</a> <a class="rtw_url_link" href="https://t.co/7Cb69Ir0wz" title="https://twitter.com/THR/status/1349715894193319938">twitter.com/THR/status/134…</a></p>
<p class="rtw_meta"><a href="https://twitter.com/twitterapi/status/1349719902454640643">About 7 hours ago</a> from <a href="https://twitter.com/intent/user?screen_name=tomleykis" title="Tony Quarantino">Tony Quarantino's Twitter</a> via <a href="http://twitter.com/download/android" rel="nofollow">Twitter for Android</a></p></div>
</div></div><div class="twocol-one last">
<div class="headerLink"><a href="https://www.facebook.com/tomleykisshow" rel="noopener" target="_blank">Tom On Facebook</a></div>
<p></p><div class="cff-wrapper"><div class=" cff-default-styles" data-char="" id="cff" style="width:80%; "><div class="cff-error-msg"><p><b>This message is only visible to admins.</b><br/></p><p>Problem displaying Facebook posts. Backup cache in use.<br/><a href="javascript:void(0);" id="cff-show-error" onclick="cffShowError()">Click to show error</a><script type="text/javascript">function cffShowError() { document.getElementById("cff-error-reason").style.display = "block"; document.getElementById("cff-show-error").style.display = "none"; }</script></p><div id="cff-error-reason"><b>Error:</b> Error validating access token: The user has not authorized application 1332798716823516.<br/><b>Type:</b> OAuthException</div></div><div class="cff-item cff-link-item author-the-tom-leykis-show" id="cff_267517425894_10157524646185895"><p class="cff-post-text"><span class="cff-text" data-color="">THANKS TO CORONAVIRUS, TOM IS SUDDENLY LOOKING PRETTY GOOD  Tom recently tweeted this; "Amazing how so many gals who ever tried to friend zone me or who were ever constantly angry at me or who picked someone else have been in touch the last 4 weeks. Once these gals, now getting older, feel frightened that they'll go broke, I start looking pretty great, apparently!" Hear the dirty details. </span><span class="cff-expand">... <a href="#" style="color: #"><span class="cff-more">See More</span><span class="cff-less">See Less</span></a></span></p><div class="cff-shared-link"><div class="cff-text-link cff-no-image"><p class="cff-link-title"><a href="https://www.premiumtom.com/library/tom-talks/2020-04-20" rel="nofollow noopener noreferrer" style="color:#;" target="_blank">Apr 20th, 2020 | Tom Talks</a></p><p class="cff-link-caption">www.premiumtom.com</p><span class="cff-post-desc">Apr 20 2020 Tom Talks THANKS TO CORONAVIRUS, TOM IS SUDDENLY LOOKING PRETTY GOOD Tom recently tweeted this; "Amazing how so many gals who ever tried to friend zone me or who were ever constantly angry at me or who picked someone else have been in touch the last 4 weeks. Once these gals, now getting.... </span></div></div><p class="cff-date"> 9 months ago <span class="cff-date-dot"> ·  </span></p><div class="cff-post-links"><a class="cff-viewpost-facebook" href="https://www.facebook.com/267517425894_10157524646185895" rel="nofollow noopener" target="_blank" title="View on Facebook">View on Facebook</a><div class="cff-share-container"><span class="cff-dot">·</span><a class="cff-share-link" href="https://www.facebook.com/sharer/sharer.php?u=https%3A%2F%2Fwww.facebook.com%2F267517425894%2Fposts%2F10157524646185895" title="Share">Share</a><p class="cff-share-tooltip"><a class="cff-facebook-icon" href="https://www.facebook.com/sharer/sharer.php?u=https%3A%2F%2Fwww.facebook.com%2F267517425894%2Fposts%2F10157524646185895" target="_blank"><span aria-hidden="true" class="fa fab fa-facebook-square"></span><span class="cff-screenreader">Share on Facebook</span></a><a class="cff-twitter-icon" href="https://twitter.com/intent/tweet?text=https%3A%2F%2Fwww.facebook.com%2F267517425894%2Fposts%2F10157524646185895" target="_blank"><span aria-hidden="true" class="fa fab fa-twitter"></span><span class="cff-screenreader">Share on Twitter</span></a><a class="cff-linkedin-icon" href="https://www.linkedin.com/shareArticle?mini=true&amp;url=https%3A%2F%2Fwww.facebook.com%2F267517425894%2Fposts%2F10157524646185895&amp;title=THANKS%20TO%20CORONAVIRUS%2C%20TOM%20IS%20SUDDENLY%20LOOKING%20PRETTY%20GOOD%20%20Tom%20recently%20tweeted%20this%3B%20%26quot%3BAmazing%20how%20so%20many%20gals%20who%20ever%20tried%20to%20friend%20zone%20me%20or%20who%20were%20ever%20constantly%20angry%20at%20me%20or%20who%20picked%20someone%20else%20have%20been%20in%20touch%20the%20last%204%20weeks.%20Once%20these%20gals%2C%20now%20getting%20older%2C%20feel%20frightened%20that%20they%27ll%20go%20broke%2C%20I%20start%20looking%20pretty%20great%2C%20apparently%21%26quot%3B%20Hear%20the%20dirty%20details.%20...%20See%20MoreSee%20Less" target="_blank"><span aria-hidden="true" class="fa fab fa-linkedin"></span><span class="cff-screenreader">Share on Linked In</span></a><a class="cff-email-icon" href="mailto:?subject=Facebook&amp;body=https%3A%2F%2Fwww.facebook.com%2F267517425894%2Fposts%2F10157524646185895%20-%20THANKS%20TO%20CORONAVIRUS%2C%20TOM%20IS%20SUDDENLY%20LOOKING%20PRETTY%20GOOD%20%20Tom%20recently%20tweeted%20this%3B%20%26quot%3BAmazing%20how%20so%20many%20gals%20who%20ever%20tried%20to%20friend%20zone%20me%20or%20who%20were%20ever%20constantly%20angry%20at%20me%20or%20who%20picked%20someone%20else%20have%20been%20in%20touch%20the%20last%204%20weeks.%20Once%20these%20gals%2C%20now%20getting%20older%2C%20feel%20frightened%20that%20they%27ll%20go%20broke%2C%20I%20start%20looking%20pretty%20great%2C%20apparently%21%26quot%3B%20Hear%20the%20dirty%20details.%20...%20See%20MoreSee%20Less" target="_blank"><span aria-hidden="true" class="fa fa-envelope"></span><span class="cff-screenreader">Share by Email</span></a><span aria-hidden="true" class="fa fa-play fa-rotate-90"></span></p></div></div></div></div><div class="cff-clear"></div></div></div><div class="clear"></div>
</div>
<div class="fix"></div>
<p><!--[wooslider slide_page="Press" slider_type="slides" layout="text-right" overlay="full" thumbnails="false" limit="10" height="272px" width="620"]--></p>
<div class="homePostHeader">
<h1>From Tom’s Blog</h1>
</div>
<div class="homePosts"><!-- NOTE: If you need to make changes to this file, copy it to your current theme's main
	directory so your changes won't be overwritten when the plugin is upgraded. -->
<!-- Start of Post Wrap -->
<div class="post hentry ivycat-post">
<!-- This is the output of the post TITLE -->
<h2 class="entry-title"><a href="https://blowmeuptom.com/test/">Test</a></h2>
<!-- This is the output of the EXCERPT -->
<div class="entry-summary">
<p><a href="https://youtu.be/eKB51uQwhok">https://youtu.be/eKB51uQwhok</a></p>
</div>
<!-- This is the output of the META information -->
<div class="entry-utility">
<span class="cat-links">
<span class="entry-utility-prep entry-utility-prep-cat-links">Posted in</span> <a href="https://blowmeuptom.com/category/toms-blog/" rel="category tag">Tom's Blog</a> </span>
<span class="meta-sep">|</span>
<span class="comments-link"><a href="https://blowmeuptom.com/test/#comments">2 Comments</a></span>
</div>
</div>
<!-- // End of Post Wrap -->
<!-- NOTE: If you need to make changes to this file, copy it to your current theme's main
	directory so your changes won't be overwritten when the plugin is upgraded. -->
<!-- Start of Post Wrap -->
<div class="post hentry ivycat-post">
<!-- This is the output of the post TITLE -->
<h2 class="entry-title"><a href="https://blowmeuptom.com/5-3-2019-podcast-farrakhan-jones-and-yiannopoulos-banned/">5/3/2019 Podcast: FARRAKHAN, JONES, AND YIANNOPOULOS BANNED</a></h2>
<!-- This is the output of the EXCERPT -->
<div class="entry-summary">
<div class="" data-block="true" data-editor="9bu4l" data-offset-key="3h4e8-0-0">
<div class="_1mf _1mj" data-offset-key="3h4e8-0-0"><span data-offset-key="3h4e8-0-0">A number of people defined by Facebook and Instagram as “hate groups” have had their social media accounts closed. Has people’s free speech been taken away? Tom’s answer might surprise you!</span></div>
</div>
<div class="" data-block="true" data-editor="9bu4l" data-offset-key="eakc9-0-0">
<div class="_1mf _1mj" data-offset-key="eakc9-0-0"><a href="https://www.premiumtom.com/library/in-the-news/2019-05-03" rel="noopener noreferrer" target="_blank">Click here to listen now!</a></div>
</div>
</div>
<!-- This is the output of the META information -->
<div class="entry-utility">
<span class="cat-links">
<span class="entry-utility-prep entry-utility-prep-cat-links">Posted in</span> <a href="https://blowmeuptom.com/category/podcast/in-the-news/" rel="category tag">In the News</a>, <a href="https://blowmeuptom.com/category/podcast/" rel="category tag">Podcast</a>, <a href="https://blowmeuptom.com/category/toms-blog/" rel="category tag">Tom's Blog</a> </span>
<span class="meta-sep">|</span>
<span class="comments-link"><a href="https://blowmeuptom.com/5-3-2019-podcast-farrakhan-jones-and-yiannopoulos-banned/#comments">1 Comment</a></span>
</div>
</div>
<!-- // End of Post Wrap -->
<!-- NOTE: If you need to make changes to this file, copy it to your current theme's main
	directory so your changes won't be overwritten when the plugin is upgraded. -->
<!-- Start of Post Wrap -->
<div class="post hentry ivycat-post">
<!-- This is the output of the post TITLE -->
<h2 class="entry-title"><a href="https://blowmeuptom.com/april-23-2019-episode-a-single-mother-on-twitter-thinks-shes-smarter-than-the-professor/">April 23, 2019 podcast: A SINGLE MOTHER ON TWITTER THINKS SHE’S SMARTER THAN THE PROFESSOR! </a></h2>
<!-- This is the output of the EXCERPT -->
<div class="entry-summary">
<p>There’s always one! A chick who stumbles onto the teachings of Your Professor and thinks she can win an argument. Here’s a gal who calls Tom “an idiot” because he said, “Other guys’ kids shouldn’t be OUR problem. Single moms are raising tomorrow’s drunks, addicts, and carjackers.” <strong><a class="ext" href="https://twitter.com/lndmommy/status/1120397446151065600" rel="noopener noreferrer" target="_blank">Click here to see the entire exchange</a> or to join in the fun</strong>. Hear Tom explain why single mothers are bad news to date, worse to get involved with, and the worst when you move in and take on the little brats she created with whatever losers she used to love fucking in the past!</p>
<p><a href="https://www.premiumtom.com/library/leykis-101/2019-04-23" rel="noopener noreferrer" target="_blank"><strong>Hear the episode by clicking here</strong></a>.</p>
</div>
<!-- This is the output of the META information -->
<div class="entry-utility">
<span class="cat-links">
<span class="entry-utility-prep entry-utility-prep-cat-links">Posted in</span> <a href="https://blowmeuptom.com/category/leykis101/" rel="category tag">Leykis 101</a>, <a href="https://blowmeuptom.com/category/podcast/leykis-101/" rel="category tag">Leykis 101</a>, <a href="https://blowmeuptom.com/category/toms-blog/" rel="category tag">Tom's Blog</a> </span>
<span class="meta-sep">|</span>
<span class="comments-link"><a href="https://blowmeuptom.com/april-23-2019-episode-a-single-mother-on-twitter-thinks-shes-smarter-than-the-professor/#respond">Leave a comment</a></span>
</div>
</div>
<!-- // End of Post Wrap -->
<!-- NOTE: If you need to make changes to this file, copy it to your current theme's main
	directory so your changes won't be overwritten when the plugin is upgraded. -->
<!-- Start of Post Wrap -->
<div class="post hentry ivycat-post">
<!-- This is the output of the post TITLE -->
<h2 class="entry-title"><a href="https://blowmeuptom.com/wine-pasta-lover-looking-for-a-cheap-date-here-is-one-delicious-wine-i-love/">WINE: Pasta lover? Looking for a cheap date? Here is one delicious wine I love</a></h2>
<!-- This is the output of the EXCERPT -->
<div class="entry-summary">
<p>I’ve been particularly enjoying a Chianti that is not only delicious and a perfect accompaniment to pasta, pizza, and chicken parm, but it’s also incredibly affordable (unlike LA rents!).</p>
<p>It’s called San Felice Chianti Classico.<img alt="" class="aligncenter size-full wp-image-9002" height="378" src="https://cdn.blowmeuptom.com/wp-content/uploads/2019/04/san-felice-chianti-classico_1.jpg?x43326" width="252"/></p>
<p>Not only is it <a href="https://top100.winespectator.com/lists/" rel="noopener noreferrer" target="_blank">#19 on <em>Wine Spectator</em>‘s Top 100 of 2018</a>, a bottle lists for $17, and I have found it by doing a little searching online for as little as $14 including shipping. This makes this incredible quality wine cheaper than many “bargains” at places like Trader Joe’s and Cost Plus.</p>
<p>I have bought multiple cases of San Felice because I <em>do</em> love pasta and chicken parm. What a great way to keep a date at under $40!</p>
<p>This wine is not made for aging, in my view. It’s made for enjoying <em>right now</em>. So go get some and enjoy!</p>
</div>
<!-- This is the output of the META information -->
<div class="entry-utility">
<span class="cat-links">
<span class="entry-utility-prep entry-utility-prep-cat-links">Posted in</span> <a href="https://blowmeuptom.com/category/leykis101/" rel="category tag">Leykis 101</a>, <a href="https://blowmeuptom.com/category/money/" rel="category tag">Money</a>, <a href="https://blowmeuptom.com/category/toms-blog/" rel="category tag">Tom's Blog</a> </span>
<span class="meta-sep">|</span>
<span class="comments-link"><a href="https://blowmeuptom.com/wine-pasta-lover-looking-for-a-cheap-date-here-is-one-delicious-wine-i-love/#comments">2 Comments</a></span>
</div>
</div>
<!-- // End of Post Wrap -->
<!-- NOTE: If you need to make changes to this file, copy it to your current theme's main
	directory so your changes won't be overwritten when the plugin is upgraded. -->
<!-- Start of Post Wrap -->
<div class="post hentry ivycat-post">
<!-- This is the output of the post TITLE -->
<h2 class="entry-title"><a href="https://blowmeuptom.com/women-fighting-in-middle-of-route-128-outside-boston-caught-on-video/">Women Fighting In Middle Of Route 128 Outside Boston Caught On Video</a></h2>
<!-- This is the output of the EXCERPT -->
<div class="entry-summary">
<p>A pair of the usual homely New England shrews beat the shit out of each other. <a href="https://boston.cbslocal.com/2019/03/29/road-rage-video-women-fighting-route-128-danvers-massachusetts-state-police/" rel="noopener noreferrer" target="_blank"><strong>Click here to see the video and learn more</strong></a>!</p>
</div>
<!-- This is the output of the META information -->
<div class="entry-utility">
<span class="cat-links">
<span class="entry-utility-prep entry-utility-prep-cat-links">Posted in</span> <a href="https://blowmeuptom.com/category/news-for-guys/" rel="category tag">News For Guys</a>, <a href="https://blowmeuptom.com/category/toms-blog/" rel="category tag">Tom's Blog</a> </span>
<span class="meta-sep">|</span>
<span class="comments-link"><a href="https://blowmeuptom.com/women-fighting-in-middle-of-route-128-outside-boston-caught-on-video/#comments">2 Comments</a></span>
</div>
</div>
<!-- // End of Post Wrap -->
<!-- NOTE: If you need to make changes to this file, copy it to your current theme's main
	directory so your changes won't be overwritten when the plugin is upgraded. -->
<!-- Start of Post Wrap -->
<div class="post hentry ivycat-post">
<!-- This is the output of the post TITLE -->
<h2 class="entry-title"><a href="https://blowmeuptom.com/april-2-2019-podcast-what-if-you-found-out-youre-one-of-30-siblings/">April 2, 2019 Podcast: WHAT IF YOU FOUND OUT YOU’RE ONE OF 30 SIBLINGS?</a></h2>
<!-- This is the output of the EXCERPT -->
<div class="entry-summary">
<p><span style="color: #ff0000;"><strong>WHAT IF YOU FOUND OUT THAT YOU’RE ONE OF <em>30</em> SIBLINGS?</strong></span> That’s what happened to a woman in the Bay Area when she took a “harmless” DNA test to satisfy her curiosity. Ever think about what could happen if you took one of these tests? Tom has!</p>
<p><a href="https://www.premiumtom.com/library/in-the-news/2019-04-02" rel="noopener noreferrer" target="_blank"><strong>Click here to listen</strong></a>!</p>
</div>
<!-- This is the output of the META information -->
<div class="entry-utility">
<span class="cat-links">
<span class="entry-utility-prep entry-utility-prep-cat-links">Posted in</span> <a href="https://blowmeuptom.com/category/podcast/in-the-news/" rel="category tag">In the News</a>, <a href="https://blowmeuptom.com/category/news-for-guys/" rel="category tag">News For Guys</a>, <a href="https://blowmeuptom.com/category/podcast/" rel="category tag">Podcast</a>, <a href="https://blowmeuptom.com/category/toms-blog/" rel="category tag">Tom's Blog</a> </span>
<span class="meta-sep">|</span>
<span class="comments-link"><a href="https://blowmeuptom.com/april-2-2019-podcast-what-if-you-found-out-youre-one-of-30-siblings/#comments">1 Comment</a></span>
</div>
</div>
<!-- // End of Post Wrap -->
</div>
<div><a href="/advertise/"><img alt="ad_blogfooter" class="aligncenter size-full wp-image-204" height="200" src="https://cdn.blowmeuptom.com/wp-content/uploads/2013/02/ad_blogfooter1.jpg" width="587"/></a></div>
</div><!-- /.entry -->
<div class="fix"></div>
</div><!-- /.post -->
</div><!-- /#main -->
<div id="sidebar">
<div class="widget widget_text" id="text-115"><h3>OUR 2016 VINTAGE IS HERE! BEST ONE WE’VE MADE YET. CLICK HERE TO TASTE IT NOW AND SEE FOR YOURSELF.</h3> <div class="textwidget"><p><a href="https://the-new-normal-store.myshopify.com/products/2015-pedal-to-the-metal-santa-ynez-valley-syrah-750-ml?variant=39451654734" rel="noopener noreferrer" target="_blank"><img src="https://cdn.blowmeuptom.com/wp-content/uploads/2016/09/PEDALTOTHEMETAL-logo-coloronwhite-web.jpg.jpg"/></a></p>
</div>
</div><div class="widget widget_text" id="text-38"><h3>OUR NEWLY-REDESIGNED APP IS THE EASIEST WAY TO LISTEN TO OUR PODCAST! CLICK BELOW TO GET OUR APP NOW!</h3> <div class="textwidget"><a href="http://freeappcompany.com/tom-leykis/" rel="noopener noreferrer" target="_blank"><img src="https://cdn.blowmeuptom.com/wp-content/uploads/2018/10/logo-1.png?x43326"/></a></div>
</div><div class="widget widget_text" id="text-114"><h3>GET ON THE PEDAL TO THE METAL MAILING LIST!</h3> <div class="textwidget"><p><!-- BEGIN: Constant Contact Email List Form Button --></p>
<div align="center">
<p><a class="button" href="https://visitor.r20.constantcontact.com/d.jsp?llr=p64fyjlab&amp;p=oi&amp;m=1111650140079&amp;sit=yjtat7mhb&amp;f=cbf80992-bf63-4c51-b05b-303bb07a7331" style="border: 1px solid #5b5b5b; color: #ffffff; display: inline-block; padding: 8px 10px; text-shadow: none; background-color: #000000;">I want Pedal to the Metal</a><!-- BEGIN: Press this button and get on the list for the 2015 vintage. --></p>
<div align="center" id="ctct_button_footer" style="font-family: Arial,Helvetica,sans-serif; font-size: 10px; color: #999999; margin-top: 10px;">Press this button and get on the list.</div>
</div>
</div>
</div><div class="widget tw-recent-posts" id="tw-recent-posts-2"><h3>News For Guys</h3>
<div class="featured-posts textwidget">
<div class="featured-post">
<h4>
<a href="https://blowmeuptom.com/women-fighting-in-middle-of-route-128-outside-boston-caught-on-video/" rel="bookmark" title="Women Fighting In Middle Of Route 128 Outside Boston Caught On Video">
                Women Fighting In Middle Of Route 128 Outside Boston Caught On Video            </a>
</h4>
<div class="post-time">
			April 1, 2019		</div>
<div class="excerpt">
            A pair of the usual homely New England shrews beat the shit out of each other. Click here to see... <a class="read-more" href="https://blowmeuptom.com/women-fighting-in-middle-of-route-128-outside-boston-caught-on-video/">more»</a> </div>
<div class="clear"></div>
</div>
<div class="featured-post">
<h4>
<a href="https://blowmeuptom.com/april-2-2019-podcast-what-if-you-found-out-youre-one-of-30-siblings/" rel="bookmark" title="April 2, 2019 Podcast: WHAT IF YOU FOUND OUT YOU’RE ONE OF 30 SIBLINGS?">
                April 2, 2019 Podcast: WHAT IF YOU FOUND OUT YOU’RE ONE OF 30 SIBLINGS?            </a>
</h4>
<div class="post-time">
			April 1, 2019		</div>
<div class="excerpt">
            WHAT IF YOU FOUND OUT THAT YOU’RE ONE OF 30 SIBLINGS? That’s what happened to a woman... <a class="read-more" href="https://blowmeuptom.com/april-2-2019-podcast-what-if-you-found-out-youre-one-of-30-siblings/">more»</a> </div>
<div class="clear"></div>
</div>
<div class="featured-post">
<h4>
<a href="https://blowmeuptom.com/dont-mail-in-that-dna-kit-until-you-know-these-facts/" rel="bookmark" title="Don’t Mail In That DNA Kit Until You Know These Facts">
                Don’t Mail In That DNA Kit Until You Know These Facts            </a>
</h4>
<div class="post-time">
			April 1, 2019		</div>
<div class="excerpt">
            From Forbes’ Nicole Fisher: Your Professor says that you shouldn’t EVER mail in that... <a class="read-more" href="https://blowmeuptom.com/dont-mail-in-that-dna-kit-until-you-know-these-facts/">more»</a> </div>
<div class="clear"></div>
</div>
</div>
</div><div class="widget adspace-widget" id="adspace-widget-2"><a href="/category/news-for-guys/"><img alt="" src="https://cdn.blowmeuptom.com/wp-content/uploads/2013/03/ad_btn-newsforguys.png"/></a></div><div class="widget widget_text" id="text-26"><h3>The New Normal LLC is a participant in the Amazon Services LLC Associates Program, an affiliate advertising program designed to provide a means for sites to earn advertising fees by advertising and linking to amazon.com.</h3> <div class="textwidget"><div class="alignleft">
<script type="text/javascript">
       	amzn_assoc_ad_type = "banner";
	amzn_assoc_marketplace = "amazon";
	amzn_assoc_region = "US";
	amzn_assoc_placement = "assoc_banner_placement_default";
	amzn_assoc_campaigns = "textbooks";
	amzn_assoc_banner_type = "promotions";
	amzn_assoc_p = "12";
	amzn_assoc_banner_id = "1NWP9RHBJNE6K3EB85R2";
	amzn_assoc_width = "300";
	amzn_assoc_height = "250";
	amzn_assoc_tracking_id = "newnormus-20";
	amzn_assoc_linkid = "a0cbb11826e3327a7c4a5de03b815be2";
     </script><br/>
<script src="//z-na.amazon-adsystem.com/widgets/q?ServiceVersion=20070822&amp;Operation=GetScript&amp;ID=OneJS&amp;WS=1"></script>
</div>
</div>
</div></div><!-- /#sidebar -->
</div><!-- /#main-sidebar-container -->
</div><!-- /#content -->
<div class="col-full col-3" id="footer-widgets">
<div class="block footer-widget-1">
<div class="widget widget_recent_entries" id="recent-posts-3"> <h3>Recent Posts</h3> <ul>
<li>
<a href="https://blowmeuptom.com/test/">Test</a>
<span class="post-date">June 12, 2019</span>
</li>
<li>
<a href="https://blowmeuptom.com/5-3-2019-podcast-farrakhan-jones-and-yiannopoulos-banned/">5/3/2019 Podcast: FARRAKHAN, JONES, AND YIANNOPOULOS BANNED</a>
<span class="post-date">May 2, 2019</span>
</li>
<li>
<a href="https://blowmeuptom.com/april-23-2019-episode-a-single-mother-on-twitter-thinks-shes-smarter-than-the-professor/">April 23, 2019 podcast: A SINGLE MOTHER ON TWITTER THINKS SHE’S SMARTER THAN THE PROFESSOR! </a>
<span class="post-date">April 23, 2019</span>
</li>
<li>
<a href="https://blowmeuptom.com/wine-pasta-lover-looking-for-a-cheap-date-here-is-one-delicious-wine-i-love/">WINE: Pasta lover? Looking for a cheap date? Here is one delicious wine I love</a>
<span class="post-date">April 23, 2019</span>
</li>
<li>
<a href="https://blowmeuptom.com/women-fighting-in-middle-of-route-128-outside-boston-caught-on-video/">Women Fighting In Middle Of Route 128 Outside Boston Caught On Video</a>
<span class="post-date">April 1, 2019</span>
</li>
</ul>
</div>
</div>
<div class="block footer-widget-3">
<div class="widget widget_rss" id="rss-3"><h3><a class="rsswidget" href="https://www.premiumtom.com/podcasts.xml"><img alt="RSS" class="rss-widget-icon" height="14" src="https://cdn.blowmeuptom.com/wp-includes/images/rss.png?x43326" style="border:0" width="14"/></a> <a class="rsswidget" href="https://www.premiumtom.com/podcasts.xml">Previous Shows (PremiumTom)</a></h3><ul><li><a class="rsswidget" href="https://www.premiumtom.com/library/in-the-news/2021-01-14">Jan 14th, 2021 | In the News</a> <span class="rss-date">January 14, 2021</span><div class="rssSummary"></div></li><li><a class="rsswidget" href="https://www.premiumtom.com/library/tom-talks/2021-01-11">Jan 11th, 2021 | Tom Talks</a> <span class="rss-date">January 11, 2021</span><div class="rssSummary"></div></li><li><a class="rsswidget" href="https://www.premiumtom.com/library/guest-interviews/2021-01-09">Jan 9th, 2021 | Guest Interviews</a> <span class="rss-date">January 9, 2021</span><div class="rssSummary"></div></li><li><a class="rsswidget" href="https://www.premiumtom.com/library/in-the-news/2021-01-07">Jan 7th, 2021 | In the News</a> <span class="rss-date">January 6, 2021</span><div class="rssSummary"></div></li><li><a class="rsswidget" href="https://www.premiumtom.com/library/tom-talks/2021-01-04">Jan 4th, 2021 | Tom Talks</a> <span class="rss-date">January 4, 2021</span><div class="rssSummary"></div></li></ul></div>
</div>
<div class="fix"></div>
</div><!--/#footer-widgets-->
<div class="col-full" id="footer">
<div class="col-left" id="copyright">
<p></p><p>© 2017 New Normal Network. All Rights Reserved.  <a href="http://www.newnormalnetwork.com/terms-of-use" target="_blank">Terms Of Use</a>   <a href="http://www.newnormalnetwork.com/privacy" target="_blank">Privacy Statement</a></p> </div>
<div class="col-right" id="credit">
<p></p> </div>
</div><!-- /#footer  -->
</div><!-- /#wrapper -->
<div class="fix"></div><!--/.fix-->
<!-- Custom Facebook Feed JS -->
<script type="text/javascript">
var cfflinkhashtags = "true";
</script>
<link href="https://cdn.blowmeuptom.com/wp-content/uploads/so-css/so-css-canvas.css?x43326" id="so-css-canvas-css" media="all" rel="stylesheet" type="text/css"/>
<script src="https://cdn.blowmeuptom.com/wp-includes/js/comment-reply.min.js?x43326" type="text/javascript"></script>
<script type="text/javascript">
/* <![CDATA[ */
var wpcf7 = {"apiSettings":{"root":"https:\/\/blowmeuptom.com\/wp-json\/contact-form-7\/v1","namespace":"contact-form-7\/v1"},"cached":"1"};
/* ]]> */
</script>
<script src="https://cdn.blowmeuptom.com/wp-content/plugins/contact-form-7/includes/js/scripts.js?x43326" type="text/javascript"></script>
<script src="https://cdn.blowmeuptom.com/wp-content/plugins/custom-facebook-feed/js/cff-scripts.js?x43326" type="text/javascript"></script>
<script src="https://cdn.blowmeuptom.com/wp-content/plugins/better-wp-security/core/modules/wordpress-tweaks/js/blankshield/blankshield.min.js?x43326" type="text/javascript"></script>
<script src="https://cdn.blowmeuptom.com/wp-content/plugins/better-wp-security/core/modules/wordpress-tweaks/js/block-tabnapping.min.js?x43326" type="text/javascript"></script>
<script src="https://www.google.com/recaptcha/api.js?render=6LdZuJUUAAAAADnzg508SsTBigT4rHjNnZEx1pFI&amp;ver=3.0" type="text/javascript"></script>
<script src="https://cdn.blowmeuptom.com/wp-content/plugins/constant-contact-api/lib/form-designer/js/jquery.placeholder.min.js?x43326" type="text/javascript"></script>
<script type="text/javascript">
/* <![CDATA[ */
var wooFeedbackL10n = {"nextButton":"Next \u2192","prevButton":"\u2190 Previous"};
/* ]]> */
</script>
<script src="https://cdn.blowmeuptom.com/wp-content/themes/canvas/includes/js/feedback.js?x43326" type="text/javascript"></script>
<script src="https://cdn.blowmeuptom.com/wp-includes/js/wp-embed.min.js?x43326" type="text/javascript"></script>
<script src="https://cdn.blowmeuptom.com/wp-content/plugins/rotatingtweets/js/jquery.cycle.all.min.js?x43326" type="text/javascript"></script>
<script src="https://cdn.blowmeuptom.com/wp-content/plugins/rotatingtweets/js/rotating_tweet.js?x43326" type="text/javascript"></script>
<script type="text/javascript">
( function( grecaptcha, sitekey, actions ) {

	var wpcf7recaptcha = {

		execute: function( action ) {
			grecaptcha.execute(
				sitekey,
				{ action: action }
			).then( function( token ) {
				var forms = document.getElementsByTagName( 'form' );

				for ( var i = 0; i < forms.length; i++ ) {
					var fields = forms[ i ].getElementsByTagName( 'input' );

					for ( var j = 0; j < fields.length; j++ ) {
						var field = fields[ j ];

						if ( 'g-recaptcha-response' === field.getAttribute( 'name' ) ) {
							field.setAttribute( 'value', token );
							break;
						}
					}
				}
			} );
		},

		executeOnHomepage: function() {
			wpcf7recaptcha.execute( actions[ 'homepage' ] );
		},

		executeOnContactform: function() {
			wpcf7recaptcha.execute( actions[ 'contactform' ] );
		},

	};

	grecaptcha.ready(
		wpcf7recaptcha.executeOnHomepage
	);

	document.addEventListener( 'change',
		wpcf7recaptcha.executeOnContactform, false
	);

	document.addEventListener( 'wpcf7submit',
		wpcf7recaptcha.executeOnHomepage, false
	);

} )(
	grecaptcha,
	'6LdZuJUUAAAAADnzg508SsTBigT4rHjNnZEx1pFI',
	{"homepage":"homepage","contactform":"contactform"}
);
</script>
</body>
</html>
<!--
Performance optimized by W3 Total Cache. Learn more: https://www.boldgrid.com/w3-total-cache/

Object Caching 77/125 objects using redis
Page Caching using apc 
Content Delivery Network via Amazon Web Services: CloudFront: cdn.blowmeuptom.com
Database Caching 8/47 queries in 0.028 seconds using redis (Request-wide modification query)

Served from: blowmeuptom.com @ 2021-01-14 13:10:14 by W3 Total Cache
-->