<html><head>
<title>Access Denied</title>
</head><body>
<h1>Access Denied</h1>
 
You don't have permission to access "http://www.bls.gov/news.release/metro.nr0.htm" on this server.<p>
Reference #18.ad075a68.1610598947.c40bc88
</p></body>
</html>
