<html><head>
<title>Access Denied</title>
</head><body>
<h1>Access Denied</h1>
 
You don't have permission to access "http://www.bls.gov/oes/current/oes_38300.htm" on this server.<p>
Reference #18.ad075a68.1610598929.c409eab
</p></body>
</html>
