<!DOCTYPE html>
<html>
<head>
<title>Site is not available</title>
</head>
<body>
<style>
        @import url(//fonts.googleapis.com/css?family=Open+Sans:300);

        body {
            color: #000;
            font-family: 'Open Sans Regular', Helvetica, Arial, sans-serif;
            font-size: 16px;
            font-weight: 300;
            line-height: 1.2;
            margin: 50px 25px;
        }

        h1 {
            font-size: 72px;
            color: #44BCC8;
            font-weight: 300;
            margin: 0;
            padding: 0;
        }

        h2 {
            font-weight: 300;
            margin: 0;
            padding: 0;
        }

        hr {
            background: #DFDFDF;
            height: 1px;
            border: 0;
            margin: 20px 0 30px;
        }

        a {
            color: #44BCC8;
            text-decoration: none;

        }

        a:hover {
            text-decoration: underline;
        }

        p {
            margin-bottom: 1em;
        }

        .logo {
            font-size: 12px;
        }

        .logo img {
            border: 0;
            outline: none;
            position: relative;
            top: 7px;
            padding-left: 5px;
        }
    </style>
<h1>Site is not available</h1>
<hr/>
<p>
        The domain name in the URL is not associated with any active site on the WP Engine platform.
    </p>
<p>
        If this is your site, please visit your <a href="https://my.wpengine.com">User Portal</a> to ensure that your
        <a href="https://wpengine.com/support/add-domain-in-user-portal/">domain mapping</a> and DNS records are
        configured correctly.
    </p>
<p>
        Still have questions? <a href="https://my.wpengine.com/support">Contact Us</a>.
    </p>
<hr/>
<p class="logo">
        Hosted by <a href="https://www.wpengine.com"><img height="25px" src="logo.png"/></a>
</p>
</body>
</html>