<!DOCTYPE html PUBLIC "-//W3C//DTD XHTML 1.0 Transitional//EN" "http://www.w3.org/TR/xhtml1/DTD/xhtml1-transitional.dtd">
<html xmlns="http://www.w3.org/1999/xhtml">
<head>
<base target="_blank"/>
<meta content="text/html; charset=utf-8" http-equiv="Content-Type"/>
<title>ä¸­å½é¶è¡å¨çé¨æ·ç½ç«</title>
<meta content="ä¸­å½é¶è¡,ä¸­è¡,é¶è¡,éè,éèå¸åº,å¤æ±,çè´¢,è¯å¸,åºé,ä¿é©,æèµ,çµå­é¶è¡,ç½ä¸é¶è¡,ç½é¶,ææºé¶è¡,å¬å¸éè,è·¨å¢æ®å,ä¸ªäººéè,åºå½éè,ç§äººé¶è¡,é¶è¡å¡,ä¿¡ç¨å¡,é£æºç§èµ,æéé¶è¡,æ®æ éè,ç»¿è²éè,åå¥¥é¶è¡" name="keywords"/>
<meta content="ä¸­å½é¶è¡æ¯ä¸­å½å½éååå¤ååç¨åº¦æé«çé¶è¡ï¼å¨ä¸­å½åå°åäºåå¤ä¸ªå½å®¶åå°åºä¸ºå®¢æ·æä¾å¨é¢çéèæå¡ãä¸»è¦ç»è¥åä¸é¶è¡ä¸å¡ï¼å¬å¸éèãä¸ªäººéèåéèå¸åºä¸å¡ï¼å¹¶éè¿éå±æºæå¼å±æèµé¶è¡ãä¿é©ãç´æ¥æèµãæèµç®¡çãåºéç®¡çåé£æºç§èµä¸å¡ã" name="description"/>
<link href="./images/boc2013_reset.css" rel="stylesheet" type="text/css"/>
<link href="./images/boc2013_common.css" rel="stylesheet" type="text/css"/>
<link href="./images/boc2013_index.css" rel="stylesheet" type="text/css"/>
<!--[if lte IE 8]>
<link type="text/css" rel="stylesheet" href="./images/boc2013_iestyle.css">
<![endif]-->
<style type="text/css">
.ft_a{text-align:left;margin-top:18px;}
.ft_a a{color:#d28f1e;display:inline-block;text-align:left;background:url() no-repeat right -98px;padding-right:14px;margin-right:10px;}
.bb .bb_l{padding:0px 40px 40px 0px;border-right:1px solid #dadada;float:left;height:150px;width:279px;}
.bb_l .tabs{padding:20px;width:279px;}
.bb_l .tabs .tab_nav{position:absolute;left:0;top:19px;}
.bb_l .tabs .tab_nav li{background:none;border-width:0 1px 0 0;margin:0;padding:0;}
.bb_l .tabs .tab_nav li a{background:none;padding:0 15px;font-size:16px;}
.bb_l .tabs .tab_nav li.selected a{color:#000;}
.bb_l .tabs .tab_nav li.last{border:0;}
.bb_l .tabs .tab_content{border:0;padding-top:46px;height:130px;}
.bb .bb_l{*width:298px;*display:inline;}
.bb .bb_l .more{_bottom:36px;*padding-right:0;*right:-6px;}
.attend .zxkf{width:28px;height:26px;background-position:0 -653px;}
.index_lg {
	background: rgb(255, 255, 255); padding: 18px 20px 0px; border-radius: 3px; top: 0px; width: 182px; height: 175px; right: 26px; position: absolute;
}
.index_lg a {
	font: 13px/normal "å¾®è½¯éé»"; margin: 0px auto; width: 162px; height: 26px; color: rgb(0, 0, 0); padding-bottom: 8px; padding-left: 22px; display: block; font-size-adjust: none; font-stretch: normal;
}
</style>
</head>
<body id="home">
<div class="wrapper">
<!--top-->
<!--top-->
<script src="./images/boc2013_jquery-min.js" type="text/javascript"></script>
<div class="top clearfix">
<div class="top_links">
<a href="/index.html">ç®ä½ä¸­æ</a>
<a href="/big5/index.html">ç¹ä½ä¸­æ</a>
<a href="/en/index.html">English</a>
</div>
<div class="top_menu">
<p class="p_2013" style="background:none;">æ¬ç½ç«æ¯æIPv6</p>
<p class="p_2013" id="top_service">
<a href="./custserv/cs1/201312/t20131230_2805579.html">å¨çæå¡</a>
</p>
<p class="p_2013" id="top_network">
<a href="http://www.bankofchina.com/sourcedb/operations/">ç½ç¹</a>
			 /<a href="http://www.bankofchina.com/sourcedb/atmdist/">ATMåå¸</a></p>
</div>
</div>
<!--header-->
<div class="header">
<div class="header_area">
<h1 class="logo"><a href="https://www.bankofchina.com/" title="ä¸­å½é¶è¡"></a></h1>
<div class="header_info">
<p class="phone">æå¡ç­çº¿ï¼<span>95566</span>ä¿¡ç¨å¡ç­çº¿ï¼<span>40066 95566</span></p>
<form action="https://srh.bankofchina.com/search/sitesearch/index.jsp" id="trssearchform" method="post" name="trssearchform" target="_blank">
<input name="searchColumn" type="hidden" value="all"/>
<div class="search_bar">
<input class="search_ipt" id="sword" name="sword" onblur="if(this.value == '') this.value='è¯·è¾å¥æ£ç´¢å³é®è¯';" onfocus="if(this.value=='è¯·è¾å¥æ£ç´¢å³é®è¯') this.value='';" type="text" value="è¯·è¾å¥æ£ç´¢å³é®è¯"/>
<input class="search_btn" onclick="document.trssearchform.submit();" type="button"/>
</div>
</form>
</div>
</div>
<!--å¯¼èª-->
<div class="nav_2013">
<ul class="menu" id="BOC_NAVIGATOR_UL">
<li class="li_2013 current"><a class="current" href="/index.html">é¦é¡µ</a></li>
<li class="li_2013"><a href="./cbservice/" name="PL_MENU_NAME" onmouseout="showHideLayer('layer1','','hide')" onmouseover="showHideLayer('layer1','','show')">å¬å¸éè</a></li>
<li class="li_2013"><a href="./pbservice/" name="PL_MENU_NAME" onmouseout="showHideLayer('layer2','','hide')" onmouseover="showHideLayer('layer2','','show')">ä¸ªäººéè</a></li>
<li class="li_2013"><a href="./bcservice/" name="PL_MENU_NAME" onmouseout="showHideLayer('layer3','','hide')" onmouseover="showHideLayer('layer3','','show')">é¶è¡å¡</a></li>
<li class="li_2013"><a href="./fimarkets/" name="PL_MENU_NAME" onmouseout="showHideLayer('layer4','','hide')" onmouseover="showHideLayer('layer4','','show')">éèå¸åº</a></li>
<li class="li_2013"><a href="./ebanking/" name="PL_MENU_NAME" onmouseout="showHideLayer('layer5','','hide')" onmouseover="showHideLayer('layer5','','show')">çµå­é¶è¡</a></li>
<li class="li_2013"><a href="./investor/" name="PL_MENU_NAME" onmouseout="showHideLayer('layer6','','hide')" onmouseover="showHideLayer('layer6','','show')">æèµèå³ç³»</a></li>
<li class="li_2013"><a href="./aboutboc/" name="PL_MENU_NAME" onmouseout="showHideLayer('layer7','','hide')" onmouseover="showHideLayer('layer7','','show')">å³äºä¸­è¡</a></li>
</ul>
<!--å­èå-->
<div class="sub_menu" id="layer1" onmouseout="showHideLayer('layer1','','hide')" onmouseover="showHideLayer('layer1','','show')">
<i></i>
<div class="sub_area clearfix">
<!-- è·åå¬å¸éèä¸çånä¸ªå­æ ç®çåç§°ï¼æ°éç±numæ§å¶ start-->
<ul class="sub_nav list">
<!-- æ¾ç¤ºæ ¼å¼ä¸º5è¡ä¸å start-->
<li class="li_2013"><a href="./cbservice/cb2/">å¬å¸èèµæå¡</a></li>
<li class="li_2013"><a href="./cbservice/cb3/">è´¸æéèæå¡</a></li>
<li class="li_2013"><a href="./cbservice/cb4/">å¬å¸éèå¸åºæå¡</a></li>
<li class="li_2013"><a href="./cbservice/cncb6/">äººæ°å¸ç»ç®æå¡</a></li>
<!-- æ¾ç¤ºæ ¼å¼ä¸º5è¡ä¸å end-->
</ul>
<ul class="sub_nav list">
<!-- æ¾ç¤ºæ ¼å¼ä¸º5è¡ä¸å start-->
<li class="li_2013"><a href="./cbservice/csdp/">æºæç»ææ§å­æ¬¾</a></li>
<li class="li_2013"><a href="./cbservice/cb1/">å¬å¸å­æ¬¾æå¡</a></li>
<li class="li_2013"><a href="./cbservice/cb7/">å»èéæå¡</a></li>
<li class="li_2013"><a href="./cbservice/CIIEsrv/">æå¡ç¬¬ä¸å±è¿åä¼</a></li>
<!-- æ¾ç¤ºæ ¼å¼ä¸º5è¡ä¸å end-->
</ul>
<ul class="sub_nav list">
<!-- æ¾ç¤ºæ ¼å¼ä¸º5è¡ä¸å start-->
<li class="li_2013"><a href="./cbservice/cb14/">å¨çç°éç®¡ç</a></li>
<li class="li_2013"><a href="./cbservice/cb13/">å¨çå¬å¸éè</a></li>
<li class="li_2013"><a href="./cbservice/bi2/">å¬åä¿¡æ¯</a></li>
<li class="li_2013"><a href="./cbservice/bi3/">ä¼æ æ´»å¨</a></li>
<!-- æ¾ç¤ºæ ¼å¼ä¸º5è¡ä¸å end-->
</ul>
<!-- è·åå¬å¸éèä¸çånä¸ªå­æ ç®çåç§°ï¼æ°éç±numæ§å¶ end-->
<!-- åå¤´æ¡æ°é»çå2ç¯ææ¡£ï¼æ é¢+éä»¶ï¼ start-->
<ul class="sub_nav list sub_ad">
<li class="li_2013"><a alt="è·¨å¢äººæ°å¸" href="http://www.bankofchina.com/cbservice/cb11/" title="è·¨å¢äººæ°å¸"><img height="60/" src="./cbservice/201401/W020170410651796460774.jpg" width="190"/></a></li>
<li class="li_2013"><a alt="ä¸­å°ä¼ä¸" href="http://www.boc.cn/cbservice/cb8/" title="ä¸­å°ä¼ä¸"><img height="60/" src="./cbservice/201401/W020140617340653562515.jpg" width="190"/></a></li>
</ul>
<!-- åå¤´æ¡æ°é»çå2ç¯ææ¡£ï¼æ é¢+éä»¶ï¼ end-->
</div>
</div>
<div class="sub_menu" id="layer2" onmouseout="showHideLayer('layer2','','hide')" onmouseover="showHideLayer('layer2','','show')">
<i></i>
<div class="sub_area clearfix">
<!-- è·åä¸ªäººéèä¸çånä¸ªå­æ ç®çåç§°ï¼æ°éç±numæ§å¶ start-->
<ul class="sub_nav list">
<!-- æ¾ç¤ºæ ¼å¼ä¸º5è¡ä¸å start-->
<li class="li_2013"><a href="./pbservice/pb1/">å­æ¬¾ä¸è´¦æ·</a></li>
<li class="li_2013"><a href="./pbservice/pb2/">ä¸ªäººè´·æ¬¾</a></li>
<li class="li_2013"><a href="./pbservice/pb3/">ä¸ªäººçè´¢</a></li>
<li class="li_2013"><a href="./pbservice/pb4/">ä¸ªäººæ±å</a></li>
<!-- æ¾ç¤ºæ ¼å¼ä¸º5è¡ä¸å end-->
</ul>
<ul class="sub_nav list">
<!-- æ¾ç¤ºæ ¼å¼ä¸º5è¡ä¸å start-->
<li class="li_2013"><a href="./pbservice/pbsd/">ä¸ªäººç»ææ§å­æ¬¾</a></li>
<li class="li_2013"><a href="./pbservice/pb10/">ä¸ªäººäº¤æ</a></li>
<li class="li_2013"><a href="./pbservice/pb7/">åºå½éè</a></li>
<li class="li_2013"><a href="./pbservice/pb8/">æ æ°éè</a></li>
<!-- æ¾ç¤ºæ ¼å¼ä¸º5è¡ä¸å end-->
</ul>
<ul class="sub_nav list">
<!-- æ¾ç¤ºæ ¼å¼ä¸º5è¡ä¸å start-->
<li class="li_2013"><a href="./pbservice/pb6/">ç§äººé¶è¡</a></li>
<li class="li_2013"><a href="./pbservice/pb5/">ä¸ªäººé¶è¡</a></li>
<li class="li_2013"><a href="./pbservice/bi2/">å¬åä¿¡æ¯</a></li>
<li class="li_2013"><a href="./pbservice/bi3/">ä¼æ æ´»å¨</a></li>
<!-- æ¾ç¤ºæ ¼å¼ä¸º5è¡ä¸å end-->
</ul>
<!-- è·åä¸ªäººéèä¸ä¸çånä¸ªå­æ ç®çåç§°ï¼æ°éç±numæ§å¶ end-->
<!-- åå¤´æ¡æ°é»çå2ç¯ææ¡£ï¼æ é¢+éä»¶ï¼ start-->
<ul class="sub_nav list sub_ad">
<li class="li_2013"><a alt="ä¸ªäººå¤§é¢å­å" href="./pbservice/pb1/201506/t20150612_5159445.html" title="ä¸ªäººå¤§é¢å­å"><img height="60/" src="./pbservice/pb1/201506/W020150615547270841933.jpg" width="190"/></a></li>
<li class="li_2013"><a alt="ä¿ç®¡ç®±ç§èµæå¡" href="./pbservice/pb5/200807/t20080711_771.html" title="ä¿ç®¡ç®±ç§èµæå¡"><img height="60/" src="./pbservice/pb5/200807/W020151202408465813091.jpg" width="190"/></a></li>
</ul>
<!-- åå¤´æ¡æ°é»çå2ç¯ææ¡£ï¼æ é¢+éä»¶ï¼ end-->
</div>
</div>
<div class="sub_menu" id="layer3" onmouseout="showHideLayer('layer3','','hide')" onmouseover="showHideLayer('layer3','','show')">
<i></i>
<div class="sub_area clearfix">
<!-- è·åé¶è¡å¡ä¸çånä¸ªå­æ ç®çåç§°ï¼æ°éç±numæ§å¶ start-->
<ul class="sub_nav list">
<!-- æ¾ç¤ºæ ¼å¼ä¸º5è¡ä¸å start-->
<li class="li_2013"><a href="./bcservice/bc1/">ä¿¡ç¨å¡äº§å</a></li>
<li class="li_2013"><a href="./bcservice/bc2/">åè®°å¡äº§å</a></li>
<li class="li_2013"><a href="./bcservice/bc3/">æå¡æå</a></li>
<li class="li_2013"><a href="./bcservice/bi3/">ä¼æ æ´»å¨</a></li>
<!-- æ¾ç¤ºæ ¼å¼ä¸º5è¡ä¸å end-->
</ul>
<ul class="sub_nav list">
<!-- æ¾ç¤ºæ ¼å¼ä¸º5è¡ä¸å start-->
<li class="li_2013"><a href="./bcservice/bi2/">å¬åä¿¡æ¯</a></li>
<li class="li_2013"><a href="./bcservice/bc5/">ç¹è²æå¡</a></li>
<li class="li_2013"><a href="./bcservice/bi6/">ç²¾å½©æµ·æ·</a></li>
<!-- æ¾ç¤ºæ ¼å¼ä¸º5è¡ä¸å end-->
</ul>
<!-- è·åé¶è¡å¡ä¸çånä¸ªå­æ ç®çåç§°ï¼æ°éç±numæ§å¶ end-->
<!-- åå¤´æ¡æ°é»çå2ç¯ææ¡£ï¼æ é¢+éä»¶ï¼ start-->
<ul class="sub_nav list sub_ad">
<li class="li_2013"><a alt="ç²¾å½©æµ·æ·" href="http://www.bankofchina.com/bcservice/bi6/" title="ç²¾å½©æµ·æ·"><img height="60/" src="./pbservice/201407/W020150413655103624158.jpg" width="190"/></a></li>
<li class="li_2013"><a alt="âç¯çç²¾å½© ä¸å¡å°½äº«âå¢å¤æ¶è´¹è¿ç°5%" href="./bcservice/bi3/bi31/201503/t20150330_4811508.html" title="âç¯çç²¾å½© ä¸å¡å°½äº«âå¢å¤æ¶è´¹è¿ç°5%"><img height="60/" src="./bcservice/bi3/bi31/201503/W020150414541015854036.jpg" width="190"/></a></li>
</ul>
<!-- åå¤´æ¡æ°é»çå2ç¯ææ¡£ï¼æ é¢+éä»¶ï¼ end-->
</div>
</div>
<div class="sub_menu" id="layer4" onmouseout="showHideLayer('layer4','','hide')" onmouseover="showHideLayer('layer4','','show')">
<i></i>
<div class="sub_area clearfix">
<!-- è·åéèå¸åºä¸çånä¸ªå­æ ç®çåç§°ï¼æ°éç±numæ§å¶ start-->
<ul class="sub_nav list">
<!-- æ¾ç¤ºæ ¼å¼ä¸º5è¡ä¸å start-->
<li class="li_2013"><a href="./fimarkets/cs8/">èªè¥çè´¢äº§å</a></li>
<li class="li_2013"><a href="./fimarkets/bocwm/">å­å¬å¸çè´¢äº§å</a></li>
<li class="li_2013"><a href="./fimarkets/fp3/">æå°åºå¸äº§å</a></li>
<li class="li_2013"><a href="./fimarkets/fund/">æç®¡/ä»£éåºé</a></li>
<!-- æ¾ç¤ºæ ¼å¼ä¸º5è¡ä¸å end-->
</ul>
<ul class="sub_nav list">
<!-- æ¾ç¤ºæ ¼å¼ä¸º5è¡ä¸å start-->
<li class="li_2013"><a href="./fimarkets/foreignx/">å¤æ±å¸åºåæ</a></li>
<li class="li_2013"><a href="./fimarkets/boud/">åºå¸å¸åºåæ</a></li>
<li class="li_2013"><a href="./fimarkets/fm7/">é»éå¸åºåæ</a></li>
<li class="li_2013"><a href="./fimarkets/stock/">è¯å¸å¸åºåæ</a></li>
<!-- æ¾ç¤ºæ ¼å¼ä¸º5è¡ä¸å end-->
</ul>
<ul class="sub_nav list">
<!-- æ¾ç¤ºæ ¼å¼ä¸º5è¡ä¸å start-->
<li class="li_2013"><a href="./fimarkets/summarize/">å®è§ç»æµç ç©¶</a></li>
<li class="li_2013"><a href="./fimarkets/cfets_boc/">CFETS-BOCäº¤æååºå¸ææ°</a></li>
<li class="li_2013"><a href="./fimarkets/cri/">ä¸­å½é¶è¡äººæ°å¸å½éåææ°</a></li>
<li class="li_2013"><a href="./fimarkets/cifed/">å¢åå¤åºå¸æèèµæ¯è¾ææ°</a></li>
<!-- æ¾ç¤ºæ ¼å¼ä¸º5è¡ä¸å end-->
</ul>
<ul class="sub_nav list" style="background:none;">
<!-- æ¾ç¤ºæ ¼å¼ä¸º5è¡ä¸å start-->
<li class="li_2013"><a href="./fimarkets/fp5/">æç®¡çè´¢äº§å</a></li>
<li class="li_2013"><a href="./fimarkets/bi2/">å¬åä¿¡æ¯</a></li>
<li class="li_2013"><a href="./fimarkets/bi3/">ä¼æ æ´»å¨</a></li>
<li class="li_2013"><a href="./fimarkets/lilv/">å­/è´·æ¬¾å©ç</a></li>
<!-- æ¾ç¤ºæ ¼å¼ä¸º5è¡ä¸å end-->
</ul>
<!-- è·åéèå¸åºä¸çånä¸ªå­æ ç®çåç§°ï¼æ°éç±numæ§å¶ end-->
</div>
</div>
<div class="sub_menu" id="layer5" onmouseout="showHideLayer('layer5','','hide')" onmouseover="showHideLayer('layer5','','show')">
<i></i>
<div class="sub_area clearfix">
<!-- è·åçµå­é¶è¡ä¸çånä¸ªå­æ ç®çåç§°ï¼æ°éç±numæ§å¶ start-->
<ul class="sub_nav list">
<!-- æ¾ç¤ºæ ¼å¼ä¸º5è¡ä¸å start-->
<li class="li_2013"><a href="./ebanking/bocnet_pb/">ä¸ªäººç½ä¸é¶è¡</a></li>
<li class="li_2013"><a href="./ebanking/bocnet_cb/">ä¼ä¸ç½ä¸é¶è¡</a></li>
<li class="li_2013"><a href="./ebanking/bocmbs/">ææºé¶è¡</a></li>
<li class="li_2013"><a href="./ebanking/95566/">çµè¯é¶è¡</a></li>
<!-- æ¾ç¤ºæ ¼å¼ä¸º5è¡ä¸å end-->
</ul>
<ul class="sub_nav list">
<!-- æ¾ç¤ºæ ¼å¼ä¸º5è¡ä¸å start-->
<li class="li_2013"><a href="./ebanking/service/">æå¡èµæ</a></li>
<li class="li_2013"><a href="./ebanking/security/">å®å¨é²æ¤</a></li>
<li class="li_2013"><a href="./ebanking/bi3/">ä¼æ æ´»å¨</a></li>
<li class="li_2013"><a href="./ebanking/bi2/">å¬åä¿¡æ¯</a></li>
<!-- æ¾ç¤ºæ ¼å¼ä¸º5è¡ä¸å end-->
</ul>
<ul class="sub_nav list">
<!-- æ¾ç¤ºæ ¼å¼ä¸º5è¡ä¸å start-->
<li class="li_2013"><a href="./ebanking/online/">ä¾¿æ·æå¡</a></li>
<li class="li_2013"><a href="./ebanking/bocnet_login/">ç»å½ä¸­è¡ç½é¶</a></li>
<!-- æ¾ç¤ºæ ¼å¼ä¸º5è¡ä¸å end-->
</ul>
<!-- è·åçµå­é¶è¡ä¸çånä¸ªå­æ ç®çåç§°ï¼æ°éç±numæ§å¶ end-->
<!-- åå¤´æ¡æ°é»çå2ç¯ææ¡£ï¼æ é¢+éä»¶ï¼ start-->
<ul class="sub_nav list sub_ad">
<li class="li_2013"><a alt="æ°çææºé¶è¡" href="http://www.bankofchina.com/aboutboc/bi1/201906/t20190605_15418066.html" title="æ°çææºé¶è¡"><img height="60/" src="./ebanking/201401/W020140617348482165272.jpg" width="190"/></a></li>
<li class="li_2013"><a alt="å®å¨é²æ¤" href="http://www.boc.cn/ebanking/security/" title="å®å¨é²æ¤"><img height="60/" src="./ebanking/201401/W020140617360583006899.jpg" width="190"/></a></li>
</ul>
<!-- åå¤´æ¡æ°é»çå2ç¯ææ¡£ï¼æ é¢+éä»¶ï¼ end-->
</div>
</div>
<div class="sub_menu" id="layer6" onmouseout="showHideLayer('layer6','','hide')" onmouseover="showHideLayer('layer6','','show')">
<i></i>
<div class="sub_area clearfix">
<ul class="sub_nav list">
<li class="li_2013"><a href="./investor/ir1/">å¬å¸æç¥åæèµä»·å¼</a></li>
<!-- äº¤ææå¬å start-->
<li class="li_2013" style="color:#535353">äº¤ææå¬åï¼<a href="./investor/ir2/">Hè¡</a>ã<a href="./investor/ir5/">Aè¡</a>ï¼</li>
<!-- äº¤ææå¬å end-->
<li class="li_2013"><a href="./investor/ir3/">è´¢å¡æ¥å</a></li>
<li class="li_2013"><a href="./investor/ir9/">çç®¡èµæ¬</a></li>
</ul>
<!-- è·åæèµèå³ç³»ä¸çånä¸ªå­æ ç®çåç§°ï¼æ°éç±numæ§å¶ start-->
<ul class="sub_nav list">
<!-- æ¾ç¤ºæ ¼å¼ä¸º5è¡ä¸å start-->
<li class="li_2013"><a href="./investor/ir6/">å¬å¸æ²»ç</a></li>
<li class="li_2013"><a href="./investor/ir4/">å¬å¸èµæ</a></li>
<li class="li_2013"><a href="./investor/ir8/">èµæ¬å¸åºè£èª</a></li>
<li class="li_2013"><a href="./investor/cnir7/">æèµèæå¡</a></li>
<!-- æ¾ç¤ºæ ¼å¼ä¸º5è¡ä¸å end-->
</ul>
<ul class="sub_nav list">
<!-- æ¾ç¤ºæ ¼å¼ä¸º5è¡ä¸å start-->
<li class="li_2013"><a href="./investor/ir10/">å¯æç»­åå±ç±»åºå¸</a></li>
<!-- æ¾ç¤ºæ ¼å¼ä¸º5è¡ä¸å end-->
</ul>
<!-- è·åæèµèå³ç³»ä¸çånä¸ªå­æ ç®çåç§°ï¼æ°éç±numæ§å¶ end-->
<!-- åå¤´æ¡æ°é»çå2ç¯ææ¡£ï¼æ é¢+éä»¶ï¼ start-->
<ul class="sub_nav list sub_ad">
</ul>
<!-- åå¤´æ¡æ°é»çå2ç¯ææ¡£ï¼æ é¢+éä»¶ï¼ end-->
</div>
</div>
<div class="sub_menu" id="layer7" onmouseout="showHideLayer('layer7','','hide')" onmouseover="showHideLayer('layer7','','show')">
<i></i>
<div class="sub_area clearfix">
<!-- è·åå³äºä¸­è¡ä¸çånä¸ªå­æ ç®çåç§°ï¼æ°éç±numæ§å¶ start-->
<ul class="sub_nav list">
<!-- æ¾ç¤ºæ ¼å¼ä¸º5è¡ä¸å start-->
<li class="li_2013"><a href="./aboutboc/bi1/">ä¸­è¡å¨æ</a></li>
<li class="li_2013"><a href="./aboutboc/ab8/">åªä½çä¸­è¡</a></li>
<li class="li_2013"><a href="./aboutboc/ab2/">ä¸­è¡è£èª</a></li>
<li class="li_2013"><a href="./aboutboc/boccsr/">ä¼ä¸ç¤¾ä¼è´£ä»»</a></li>
<!-- æ¾ç¤ºæ ¼å¼ä¸º5è¡ä¸å end-->
</ul>
<ul class="sub_nav list">
<!-- æ¾ç¤ºæ ¼å¼ä¸º5è¡ä¸å start-->
<li class="li_2013"><a href="./aboutboc/ab1/">ä¸­è¡æ¦åµ</a></li>
<li class="li_2013"><a href="./aboutboc/ab6/">ä¸­è¡æºæ</a></li>
<li class="li_2013"><a href="./aboutboc/ab7/">ä¸­è¡åç¨</a></li>
<li class="li_2013"><a href="./aboutboc/BCP/">æ¶è´¹èæçä¿æ¤</a></li>
<!-- æ¾ç¤ºæ ¼å¼ä¸º5è¡ä¸å end-->
</ul>
<ul class="sub_nav list">
<!-- æ¾ç¤ºæ ¼å¼ä¸º5è¡ä¸å start-->
<li class="li_2013"><a href="./aboutboc/bi4/">æèå¬å</a></li>
<li class="li_2013"><a href="./aboutboc/bi6/">éè´­å¬å</a></li>
<!-- æ¾ç¤ºæ ¼å¼ä¸º5è¡ä¸å end-->
</ul>
<!-- è·åå³äºä¸­è¡ä¸çånä¸ªå­æ ç®çåç§°ï¼æ°éç±numæ§å¶ end-->
<!-- åå¤´æ¡æ°é»çå2ç¯ææ¡£ï¼æ é¢+éä»¶ï¼ start-->
<ul class="sub_nav list sub_ad">
</ul>
<!-- åå¤´æ¡æ°é»çå2ç¯ææ¡£ï¼æ é¢+éä»¶ï¼ end-->
</div>
</div>
<!--å­èåend-->
</div><!--å¯¼èª-end-->
</div>
<!--header-end-->
<!--banner-->
<div class="banner com_box">
<!--é¦é¡µå¾çè½®æ¢åå¾çéä»¶begin-->
<div class="bn_img">
<!--<a href="#" target="_self">  -->
<a href="https://www.bankofchina.com/aboutboc/bi1/202101/t20210101_18853336.html" title="2021æ°å¹´å¿«ä¹ Happy New Year">
<img alt="2021æ°å¹´è´ºè¯978x288.jpg" height="288px" src="https://pic.bankofchina.com/bocappd/ad/cnad1/202101/W020210101110090968570.jpg" width="978px"/>
</a>
<a href="https://www.bankofchina.com/cbservice/CIIEsrv/" title="ä¸­å½é¶è¡æ¯æç¬¬ä¸å±ä¸­å½å½éè¿å£åè§ä¼">
<img alt="ä¸­å½é¶è¡æ¯æç¬¬ä¸å±ä¸­å½å½éè¿å£åè§ä¼978.jpg" class='\"hidden\"' height="288px" src="https://pic.bankofchina.com/bocappd/ad/cnad1/202011/W020201103020569203345.jpg" width="978px"/>
</a> <a href="https://www.bankofchina.com/aboutboc/boccsr/202010/t20201029_18575992.html" title="é©¬æ çè¹æï¼çº¢äºï¼">
<img alt="é©¬æ çè¹æï¼çº¢äºï¼978x288.jpg" class='\"hidden\"' height="288px" src="https://pic.bankofchina.com/bocappd/ad/cnad1/202010/W020201109273418218768.jpg" width="978px"/>
</a> <a href="https://www.bankofchina.com/aboutboc/BCP/202006/t20200615_18039229.html" title="2020å¹´æ®åéèç¥è¯ï¼å®ä½âé±è¢å­âï¼å­æ¬¾ä¿é© ä¿æ¤æ¨çè´µçå­æ¬¾">
<img alt="2020å¹´æ®åéèç¥è¯ï¼å®ä½âé±è¢å­âï¼å­æ¬¾ä¿é©.jpg" class='\"hidden\"' height="288px" src="https://pic.bankofchina.com/bocappd/ad/cnad1/202006/W020200619863788747818.jpg" width="978px"/>
</a>
</div>
<!--é¦é¡µå¾çè½®æ¢åå¾çéä»¶end-->
<div class="banner_nav">
<!--é¦é¡µå¾çè½®æ¢åææ¡£æ é¢begin-->
<span class="trigger imgSelected">
        2021æ°å¹´å¿«ä¹<br/>Happy New Year
        <i></i> </span>
<span class="trigger" href="javascript:void(0)">
        æºç¾å¹´å å¿<br/>è§ä¸ç©è³å
        <i></i> </span> <span class="trigger" href="javascript:void(0)">
        é©¬æ çè¹æ<br/>çº¢äºï¼
        <i></i> </span> <span class="trigger" href="javascript:void(0)">
        å­æ¬¾ä¿é©ä¿æ¤<br/>æ¨çè´µçå­æ¬¾
        <i></i> </span>
<!--é¦é¡µå¾çè½®æ¢åææ¡£æ é¢end-->
<div class="fl" style="padding-top: 0;">
<!--åå³æ³¨æä»¬æ ç®8ã9ç¯ææ¡£å¼å§-->
<!--<p class="attend">å³æ³¨æä»¬ï¼
           <a href="./custserv/cs1/201209/t20120921_1989080.html" class="sina" title="æ°æµª"></a> 
           <a href="./custserv/cs1/201301/t20130115_2126343.html" class="wx" title="å¾®ä¿¡"></a> 
          <a href="https://95566.boc.cn/mccmmg-bocweb/" class="zxkf" title="å¨çº¿å®¢æ"></a>
        </p>-->
<!--åå³æ³¨æä»¬æ ç®8ã9ç¯ææ¡£ç»æ-->
<!--<p><span>www.bankofchina.com</span>&nbsp;&nbsp;&nbsp;<span>www.boc.cn</span></p>-->
<div style="margin: 4px auto 0;width: 122px; ">
<a href="./custserv/dilogo/202011/t20201127_18693492.html" title="å­æ¬¾ä¿é©">
<img alt="å­æ¬¾ä¿é©" height="82" src="./custserv/dilogo/images/P020201127536628334583.gif" width="122"/>
</a>
</div>
</div>
</div>
<!--login-->
<div class="index_lg">
<!--2013-åµ-ä¸ªäººå®¢æ·ç½é¶ç»ébegin-->
<a href="/ebanking/bocnet_login/" title="è¯·ä»www.boc.cn, www.bankofchina.comè¿å¥">ä¸ªäººå®¢æ·ç½é¶ç»å½</a>
<!--2013-åµ-ä¸ªäººå®¢æ·ç½é¶ç»éend-->
<!--2013-åµ-ä¸ªäººè´µå®¾ç½é¶ç»ébegin-->
<a href="/ebanking/bocnet_login/index1.html" title="è¯·ä»www.boc.cn, www.bankofchina.comè¿å¥">ä¸ªäººè´µå®¾ç½é¶ç»å½</a>
<!--2013-åµ-ä¸ªäººè´µå®¾ç½é¶ç»éend-->
<!--2013-åµ-ä¼ä¸å®¢æ·ç½é¶ç»ébegin-->
<a href="/ebanking/bocnet_login/index2.html" title="è¯·ä»www.boc.cn, www.bankofchina.comè¿å¥">ä¼ä¸å®¢æ·ç½é¶ç»å½</a>
<!--2013-åµ-ä¼ä¸å®¢æ·ç½é¶ç»éend-->
<!--2020-åµ-iGTBä¼ä¸ç½é¶ç»å½begin-->
<a href="/ebanking/bocnet_login/index_1750.html" title="è¯·ä»www.boc.cn, www.bankofchina.comè¿å¥">iGTBä¼ä¸ç½é¶ç»å½</a>
<!--2020-åµ-iGTBä¼ä¸ç½é¶ç»å½end-->
<!--2013-åµ-ä¸­å½é¶è¡æµ·å¤ç½é¶ç»ébegin-->
<a href="./ebanking/bocnet_login/201312/t20131222_2816321.html">ä¸­è¡æµ·å¤ç½é¶ç»å½</a>
<!--2013-åµ-ä¸­å½é¶è¡æµ·å¤ç½é¶ç»éend-->
</div>
<!--login-->
</div>
<!--banner-end-->
<!--main-start-->
<div class="main">
<!--com_box-->
<div class="com_box clearfix">
<!--å®ç¨ä¿¡æ¯å­æ ç®ï¼éè¦å¬åbegin-->
<div class="msg1">
<div class="tabs" id="tab3">
<ul class="tab_nav clearfix">
<li class="selected" onclick="tabs('#tab3',0);"><a href="javascript:void(0)" target="_self">éè¦å¬å</a></li>
<li class="last" onclick="tabs('#tab3',1);"><a href="javascript:void(0)" target="_self">ä¸­è¡å¨æ</a></li>
</ul>
<div class="tab_content clearfix" style="display:block;">
<ul class="list">
<li><a href="./pbservice/bi2/202101/t20210106_18866803.html" title="å³äºåå®2021å¹´ç¬¬ä¸æä¸ªäººå¤§é¢å­åçå¬å">
                  å³äºåå®2021å¹´ç¬¬ä¸æä¸ªäººå¤§é¢å­åçå¬å
                  </a></li>
<li><a href="./pbservice/bi2/202012/t20201214_18767722.html" title="å³äºè°æ´é¨åä¸ªäººå­æ¬¾äº§åæå¡åå®¹çæ¸©é¦¨æç¤º">
                  å³äºè°æ´é¨åä¸ªäººå­æ¬¾äº§åæå¡åå®¹çæ¸©...
                  </a></li>
<li><a href="./fimarkets/cs8/201109/t20110922_1532694.html" title="å¨å®çè´¢äº§ååè¡¨(2021å¹´1æ13æ¥æ´æ°)">
                  å¨å®çè´¢äº§ååè¡¨(2021å¹´1æ13æ¥æ´æ°)
                  </a></li>
</ul>
<p class="more"><a href="./custserv/bi2/">æ´å¤&gt;</a></p>
</div>
<div class="tab_content clearfix">
<ul class="list">
<li><a href="./aboutboc/boccsr/202101/t20210112_18901106.html" title="ä¸­å½é¶è¡ä¸ºæå»ç«ææç­éèâåâç¾">
                  ä¸­å½é¶è¡ä¸ºæå»ç«ææç­éèâåâç¾
                  </a></li>
<li><a href="./aboutboc/boccsr/202101/t20210111_18894192.html" title="â2021å¹´ä¸­å½é¶è¡å¨å½éå°å¹´å°éªå¬ä»¤è¥âé¦ç«å¼è¥">
                  â2021å¹´ä¸­å½é¶è¡å¨å½éå°å¹´å°éªå¬ä»¤è¥...
                  </a></li>
<li><a href="./aboutboc/bi1/202101/t20210108_18886963.html" title="ä¸­è¡ä¸å¨å½èé¾åç­¾ç½²ãæ¯æé¶åç»æµåå±åä½åè®®ã">
                  ä¸­è¡ä¸å¨å½èé¾åç­¾ç½²ãæ¯æé¶åç»æµå...
                  </a></li>
</ul>
<p class="more"><a href="./aboutboc/bi1/">æ´å¤&gt;</a></p>
</div>
</div>
<!--tab-->
</div>
<!--å®ç¨ä¿¡æ¯å­æ ç®ï¼éè¦å¬åend-->
<!--å¨çº¿ä¾¿æ·æå¡begin-->
<div class="msg2">
<h2 class="title">
<a href="./ebanking/online/">ä¾¿æ·æå¡</a>
</h2>
<!--scroll-->
<div class="scroller">
<!--123-->
<div class="es-carousel-wrapper" id="carousel">
<div class="es-carousel_o">
<div class="es-carousel">
<ul>
<li><a href="http://www.bankofchina.com/ebanking/service/cs1/201009/t20100921_1151946.html"><img alt="ææºé¶è¡&lt;br /&gt;å®¢æ·ç«¯" src="./ebanking/online/201401/W020140111725822929454.gif"/><span>
                      ææºé¶è¡<br/>å®¢æ·ç«¯
                      </span></a></li>
<li><a href="http://www.bankofchina.com/custserv/fd5/"><img alt="æå¡ä»·ç®" src="./ebanking/online/201401/W020140111727054404925.gif"/><span>
                      æå¡ä»·ç®
                      </span></a></li>
<li><a href="./ebanking/online/201405/t20140504_3276761.html"><img alt="ä¸­å°ä¼ä¸å¨çº¿èèµ" src="./ebanking/online/201405/W020140513551266053294.gif"/><span>
                      ä¸­å°ä¼ä¸å¨çº¿èèµ
                      </span></a></li>
<li><a href="./ebanking/online/201807/t20180716_12929216.html"><img alt="å¯¹å¬å¨çº¿é¢çº¦å¼æ·" src="./ebanking/online/201807/W020180716814013662451.gif"/><span>
                      å¯¹å¬å¨çº¿é¢çº¦å¼æ·
                      </span></a></li>
<li><a href="./ebanking/online/201310/t20131027_2574351.html"><img alt="åè®®é¡»ç¥" src="./ebanking/online/201310/W020140111729687070615.gif"/><span>
                      åè®®é¡»ç¥
                      </span></a></li>
<li><a href="./ebanking/online/201310/t20131024_2567778.html"><img alt="å¨çº¿ç³è¯·ä¿¡ç¨å¡" src="./ebanking/online/201310/W020140111810711646011.gif"/><span>
                      å¨çº¿ç³è¯·ä¿¡ç¨å¡
                      </span></a></li>
<li><a href="./ebanking/online/201712/t20171226_10995715.html"><img alt="æç®¡æå¡å¹³å°" src="./ebanking/online/201712/W020171229687598235427.gif"/><span>
                      æç®¡æå¡å¹³å°
                      </span></a></li>
<li><a href="http://as.boc.cn/index.jsp"><img alt="ä¼ä¸å¹´é" src="./ebanking/online/201312/W020140111808305172664.gif"/><span>
                      ä¼ä¸å¹´é
                      </span></a></li>
<li><a href="./ebanking/online/201310/t20131024_2567731.html"><img alt="ååéªè¯" src="./ebanking/online/201310/W020140111739730885386.gif"/><span>
                      ååéªè¯
                      </span></a></li>
<li><a href="http://btos.bankofchina.com/"><img alt="ç½ä¸è¾¹è´¸" src="./ebanking/online/201312/W020140111808315313022.gif"/><span>
                      ç½ä¸è¾¹è´¸
                      </span></a></li>
<li><a href="http://www.bankofchina.com/bcservice/bi2/201907/t20190704_16081638.html"><img alt="é¿åå½éå¡" src="./ebanking/online/201401/W020140120822811684101.gif"/><span>
                      é¿åå½éå¡
                      </span></a></li>
<li><a href="./ebanking/online/201605/t20160529_6979981.html"><img alt="ä¸å¡éªè¯" src="./ebanking/online/201605/W020160529256619089221.gif"/><span>
                      ä¸å¡éªè¯
                      </span></a></li>
<li><a href="./ebanking/online/201312/t20131219_2816289.html"><img alt="ç½è´­åæ" src="./ebanking/online/201312/W020140111808295346487.gif"/><span>
                      ç½è´­åæ
                      </span></a></li>
<li></li>
<li></li>
<li></li>
</ul>
</div>
</div>
</div>
<!--123-->
</div>
<!--scroll-end-->
</div>
<!--å¨çº¿ä¾¿æ·æå¡end-->
</div>
<!--com_box-end-->
<!--com_box-->
<div class="com_box serves">
<h3 class="title title2">ä¸ªäººå®¢æ·æå¡</h3>
<!--ä¸ªäººå®¢æ·æå¡-->
<div class="con_area clearfix">
<!--å¨ä¸ªäººéèå2ç¯ææ¡£begin-->
<div class="fl ca_fw">
<div class="picBox clearfix"> <img alt="ä¸ªäººå¤§é¢å­å" height="124" src="./pbservice/pb1/201506/W020150615556016941165.jpg" title="ä¸ªäººå¤§é¢å­å" width="131"/>
<h3><a href="./pbservice/pb1/201506/t20150612_5159445.html" title="ä¸ªäººå¤§é¢å­å">
                ä¸ªäººå¤§é¢å­å
                </a></h3>
<p>
                æ¶ççé« æµå¨æ§å¥½ å®å¨æ§å¼º åè½ä¸°å¯
              </p>
<p class="more"><a href="./pbservice/pb1/201506/t20150612_5159445.html">äºè§£è¯¦æ</a></p>
</div>
<div class="picBox clearfix"> <img alt="ä¸­é¶Eè´·ï¼ä¸ªäººç½ç»æ¶è´¹è´·æ¬¾ï¼" height="124" src="./pbservice/pb2/201602/W020190606388189008671.jpg" title="ä¸­é¶Eè´·ï¼ä¸ªäººç½ç»æ¶è´¹è´·æ¬¾ï¼" width="131"/>
<h3><a href="./pbservice/pb2/201602/t20160229_6465863.html" title="ä¸­é¶Eè´·ï¼ä¸ªäººç½ç»æ¶è´¹è´·æ¬¾ï¼">
                ä¸­é¶Eè´·ï¼ä¸ªäººç½ç»æ¶è´¹è´·æ¬¾ï¼
                </a></h3>
<p>
</p>
<p class="more"><a href="./pbservice/pb2/201602/t20160229_6465863.html">äºè§£è¯¦æ</a></p>
</div>
</div>
<!--å¨ä¸ªäººéèå2ç¯ææ¡£end-->
<!--left-->
<div class="fr">
<div class="index_tab" id="tab1">
<ul class="tab_nav clearfix">
<li class="selected" onclick="tabs('#tab1',0);"> <a href="javascript:void(0)" target="_self"> é¶è¡å¡ </a> <i></i></li>
<li onclick="tabs('#tab1',1);"> <a href="javascript:void(0)" target="_self"> æèµçè´¢ </a> <i></i></li>
<li onclick="tabs('#tab1',2);"> <a href="javascript:void(0)" target="_self"> åºé </a> <i></i></li>
<li onclick="tabs('#tab1',3);"> <a href="javascript:void(0)" target="_self"> ä¸ªäººéè </a> <i></i></li>
</ul>
<!--åé¶è¡å¡æ ç®åå®¹begin-->
<div class="tab_content clearfix" style="display:block;">
<div class="fl">
<!--scroll-->
<div class="scroller">
<div class="es-carousel-wrapper2" id="carousel2">
<div class="es-carousel2">
<ul>
<li> <a href="./bcservice/bc2/202001/t20200116_17413209.html" title="é¿åçèåè®°å¡ï¼2020é¼ å¹´çï¼"><img alt="é¿åçèåè®°å¡ï¼2020é¼ å¹´çï¼" height="96px" src="./bcservice/bc2/202001/W020200124650284962431.jpg" width="151px"/><span>
                            é¿åé¼ å¹´çèå¡
                            </span></a>
<p class="PL_CARD_CLASS">
</p><p><em>åºå­é¼ å¹´ç</em>
<em>é¿åçèå¡</em></p>
<p><em>éç¦åéè´¢</em>
<em>ååºä¼´ç¥¥å</em></p>
</li>
<li> <a href="./bcservice/bc1/201902/t20190222_14821064.html" title="ä¸­å½é¶è¡Visaåäº¬å¬å¥¥ä¸»é¢ä¿¡ç¨å¡"><img alt="ä¸­å½é¶è¡Visaåäº¬å¬å¥¥ä¸»é¢ä¿¡ç¨å¡" height="96px" src="./bcservice/bc1/201902/W020190222412993489820.jpg" width="151px"/><span>
                            ä¸­å½é¶è¡Visaåäº¬å¬å¥¥å¡
                            </span></a>
<p class="PL_CARD_CLASS">
</p><p><em>åäº¬å¬å¥¥ä¸»é¢</em>
<em>Visaæ éç½é</em></p>
<p><em>å­å¤§ä¸äº«æç</em>
<em>å·æ°æ¢¦æ³å·å³°</em></p>
</li>
<li> <a href="./bcservice/bc2/201803/t20180327_11822133.html" title="é¿åå°éªåè®°å¡"><img alt="é¿åå°éªåè®°å¡" height="96px" src="./bcservice/bc2/201803/W020180327327314021599.gif" width="151px"/><span>
                            é¿åå°éªåè®°å¡
                            </span></a>
<p class="PL_CARD_CLASS">
</p><p><em>å°éªä¸»é¢</em>
<em>æ»éªä¼æ </em></p>
<p><em>è¿å¨å¥èº«</em>
<em>è£å¤å¤æ ·</em></p>
</li>
<li> <a href="./bcservice/bc1/201712/t20171229_11221403.html" title="ç¾å¥½çæ´»å®¶åº­ä¿¡ç¨å¡"><img alt="ç¾å¥½çæ´»å®¶åº­ä¿¡ç¨å¡" height="96px" src="./bcservice/bc1/201712/W020180122571439006812.jpg" width="151px"/><span>
                            ç¾å¥½çæ´»å®¶åº­ä¿¡ç¨å¡
                            </span></a>
<p class="PL_CARD_CLASS">
</p><p><em>å®¶åº­æè²</em>
<em>å¨±ä¹æè¡</em></p>
<p><em>ç²¾å¿æé </em>
<em>ç¾å¥½çæ´»</em></p>
</li>
<li> <a href="./bcservice/bc1/201712/t20171208_11270995.html" title="å¯åä¼è´è¶ä¿¡ç¨å¡"><img alt="å¯åä¼è´è¶ä¿¡ç¨å¡" height="96px" src="./bcservice/bc1/201712/W020180126396683978024.jpg" width="151px"/><span>
                            å¯åä¼è´è¶ä¿¡ç¨å¡
                            </span></a>
<p class="PL_CARD_CLASS">
</p><p><em>âLove Yourselfâ</em>
<em>ä¸»é¢</em></p>
<p><em>æ³¨éåè´¨</em>
<em>è¿½æ±æ¶å°</em></p>
</li>
<li> <a href="./bcservice/bc1/201709/t20170929_10858860.html" title="é¿åé»ç³ä¿¡ç¨å¡åé¿åä¸çä¹æä¿¡ç¨å¡"><img alt="é¿åé»ç³ä¿¡ç¨å¡åé¿åä¸çä¹æä¿¡ç¨å¡" height="96px" src="./bcservice/bc1/201709/W020171214357448358939.jpg" width="151px"/><span>
                            é¿åé»ç³&amp;ä¸çä¹æä¿¡ç¨å¡
                            </span></a>
<p class="PL_CARD_CLASS">
</p><p><em>éå¡å¥¢å</em>
<em>ååä½³ä½</em></p>
<p><em>æè´å°è£</em>
<em>æè´ç¤¼é</em></p>
</li>
<li> <a href="./bcservice/bc2/201704/t20170426_9329829.html" title="é¿åè·¨å¢éå½éåè®°å¡"><img alt="é¿åè·¨å¢éå½éåè®°å¡" height="96px" src="./bcservice/bc2/201704/W020170503604225914786.jpg" width="151px"/><span>
                            é¿åè·¨å¢éå½éåè®°å¡
                            </span></a>
<p class="PL_CARD_CLASS">
</p><p><em>EMVè¯ç</em>
<em>å¤å¸æ¯ä»</em></p>
<p><em>ç³é¢ä¾¿æ·</em>
<em>å¨çéç¨</em></p>
</li>
<li> <a href="./bcservice/bc1/201702/t20170228_9126807.html" title="ä¸­å½é¶è¡é¿åä¸çä¿¡ç¨å¡"><img alt="ä¸­å½é¶è¡é¿åä¸çä¿¡ç¨å¡" height="96px" src="./bcservice/bc1/201702/W020150310400060139781.jpg" width="151px"/><span>
                            ä¸­å½é¶è¡é¿åä¸çä¿¡ç¨å¡
                            </span></a>
<p class="PL_CARD_CLASS">
</p><p><em>ä¸çåè´¨</em>
<em>å½°æ¾å°è´µ</em></p>
<p><em>å¨åå¹´è´¹</em>
<em>å¤éæç</em></p>
</li>
<li> <a href="./bcservice/bc1/201410/t20141028_4061743.html" title="é¿åç¯çéèªç±è¡ä¿¡ç¨å¡"><img alt="é¿åç¯çéèªç±è¡ä¿¡ç¨å¡" height="96px" src="./bcservice/bc1/201410/W020151117722454358356.jpg" width="151px"/><span>
                            é¿åç¯çéèªç±è¡ä¿¡ç¨å¡
                            </span></a>
<p class="PL_CARD_CLASS">
</p><p><em>æ¶è´¹è¿ç°</em>
<em>è´­ç©ææ£</em></p>
<p><em>ç¾é£ä¼æ </em>
<em>æè¡é¦é</em></p>
</li>
<li> <a href="./bcservice/bc1/201306/t20130609_2307142.html" title="å¨å¸ç§å½éè¯çå¡"><img alt="å¨å¸ç§å½éè¯çå¡" height="96px" src="./bcservice/bc1/201306/W020200408621596403098.jpg" width="151px"/><span>
                            å¨å¸ç§å½éè¯çå¡
                            </span></a>
<p class="PL_CARD_CLASS">
</p><p><em>çæ¸¸ä¸ç</em>
<em>ä¸å¡æ å¿§</em></p>
<p><em>ç½éåè´¨</em>
<em>å½°æ¾å°è´µ</em></p>
</li>
<li> <a href="./bcservice/bc2/201509/t20150908_5588392.html" title="é¿åçå­¦åè®°å¡"><img alt="é¿åçå­¦åè®°å¡" height="96px" src="./bcservice/bc2/201509/W020150909499528395836.jpg" width="151px"/><span>
                            é¿åçå­¦åè®°å¡
                            </span></a>
<p class="PL_CARD_CLASS">
</p><p><em>çå­¦æå¡</em>
<em>ä¸å¡å°½äº«</em></p>
<p><em>æ¾ç¼ä¸ç</em>
<em>æ¢¦æ³èµ·èª</em></p>
</li>
<li> <a href="./bcservice/bc1/201506/t20150601_5100495.html" title="ä¸­é¶é½å¸ç¼¤çº·å¡"><img alt="ä¸­é¶é½å¸ç¼¤çº·å¡" height="96px" src="./bcservice/bc1/201506/W020160314670533695200.gif" width="151px"/><span>
                            ä¸­é¶é½å¸ç¼¤çº·å¡
                            </span></a>
<p class="PL_CARD_CLASS">
</p><p><em>ä¼æ åæ</em>
<em>ååç§¯å</em></p>
<p><em>å¹´è½»æ¶å°</em>
<em>é¿ç¸ç¹æ </em></p>
</li>
<li> <a href="./bcservice/bc1/201705/t20170531_9823348.html" title="ä¸­å½é¶è¡é¿åç¯çéç¾å½è¿éä¿¡ç¨å¡"><img alt="ä¸­å½é¶è¡é¿åç¯çéç¾å½è¿éä¿¡ç¨å¡" height="96px" src="./bcservice/bc1/201705/W020170720631028239694.jpg" width="151px"/><span>
                            é¿åç¯çéç¾å½è¿éå¡
                            </span></a>
<p class="PL_CARD_CLASS">
</p><p><em>å¨çé«ç«¯</em>
<em>åæå®¢æ·</em></p>
<p><em>æ è¡å¨ç</em>
<em>ä¼äº«ä¸å¡</em></p>
</li>
<li> <a href="./bcservice/bc1/201708/t20170815_10004669.html" title="ç¥å·å¥¶ç¸ç³»åä¿¡ç¨å¡"><img alt="ç¥å·å¥¶ç¸ç³»åä¿¡ç¨å¡" height="96px" src="./bcservice/bc1/201708/W020180115571969597556.jpg" width="151px"/><span>
                            ç¥å·å¥¶ç¸ç³»åä¿¡ç¨å¡
                            </span></a>
<p class="PL_CARD_CLASS">
</p><p><em>å¤æ¬¾éæ©</em>
<em>ééå¡é¢</em></p>
<p><em>èå¡ä¸å±</em>
<em>ç²¾ç¾èµ ç¤¼</em></p>
</li>
<li> <a href="./bcservice/bc1/201109/t20110906_1516521.html" title="ä¸­å½é¶è¡ç½éä¿¡ç¨å¡"><img alt="ä¸­å½é¶è¡ç½éä¿¡ç¨å¡" height="96px" src="./bcservice/bc1/201109/W020120730519896516453.jpg" width="151px"/><span>
                            ä¸­å½é¶è¡ç½éä¿¡ç¨å¡
                            </span></a>
<p class="PL_CARD_CLASS">
</p><p><em>ç§¯åç¤¼é</em>
<em>è´´å¿å¨å°</em></p>
<p><em>äºéä¿é</em>
<em>å®å¨æ å¿§</em></p>
</li>
<li> <a href="./bcservice/bc1/201404/t20140403_3136411.html" title="åé½çå­¦ä¿¡ç¨å¡"><img alt="åé½çå­¦ä¿¡ç¨å¡" height="96px" src="./bcservice/bc1/201404/W0202008032195393510000.jpg" width="151px"/><span>
                            åé½çå­¦ä¿¡ç¨å¡
                            </span></a>
<p class="PL_CARD_CLASS">
</p><p><em>åç°æ å¿§</em>
<em>æ¶è´¹è¿ç°</em></p>
<p><em>å®å¿çå­¦</em>
<em>å¿«ä¹çæ´»</em></p>
</li>
<li> <a href="./bcservice/bc1/200810/t20081014_7298.html" title="ä¸­é¶ç½éä¿¡ç¨å¡"><img alt="ä¸­é¶ç½éä¿¡ç¨å¡" height="96px" src="./bcservice/bc1/200810/W020081211720354866419.jpg" width="151px"/><span>
                            ä¸­é¶ç½éä¿¡ç¨å¡
                            </span></a>
<p class="PL_CARD_CLASS">
</p><p><em>æç»­ä¾¿æ·</em>
<em>å¾ªç¯ä¿¡ç¨</em></p>
<p><em>å°äº«æå¡</em>
<em>äº¤ææ å¿§</em></p>
</li>
</ul>
</div>
</div>
</div>
<!--scroll-end-->
<div class="ft_a">
<!--åé¶è¡å¡âä¼æ æ´»å¨æ ç®åç§°-->
<a href="./bcservice/bi3/bi31/202009/t20200930_18813653.html">çµæ´»/è´¦å/ç°éåæè´¹çäº«ä¼æ (10-12æ)</a>
<a href="./bcservice/bi3/">æ´å¤&gt;</a>
<!--åé¶è¡å¡âä¼æ æ´»å¨æ ç®ä¸ç¬¬3ç¯ææ¡£
                  <a href="./bcservice/bi3/bi32/">å°åºä¼æ æ´»å¨</a> --></div>
</div>
<!--left-->
<div class="tb_r">
<!--ååå¡ç¨å¡æåå3ç¯ææ¡£begin-->
<ul class="area_r1 clearfix">
<li> <a href="./bcservice/bc5/bc51/201706/t20170616_9611965.html"> <img alt="æè¦åå¡" src="./bcservice/bc5/bc51/201706/W020170731527692416096.gif"/> <em>
                      æè¦åå¡
                      </em> </a> </li>
<li> <a href="./bcservice/bc5/bc51/201706/t20170616_9611964.html"> <img alt="æ¨èåå¡" src="./bcservice/bc5/bc51/201706/W020170731529041828905.gif"/> <em>
                      æ¨èåå¡
                      </em> </a> </li>
<li class="last"> <a href="./bcservice/bc3/bc31/201106/t20110607_1414164.html"> <img alt="æè¦å¼å¡" src="./bcservice/bc3/bc31/201106/W020170804835302434839.gif"/> <em>
                      æè¦å¼å¡
                      </em> </a> </li>
</ul>
<!--ååå¡ç¨å¡æåå3ç¯ææ¡£end-->
<!--ååç¹è²æå¡ä¸æ ç®çå3ç¯ææ¡£begin-->
<ul class="area_r2 clearfix">
<li> <a href="http://www.boc.cn/sdbapp/rwmerchant"> <img alt="ä¸­é¶ä¼æ åæ·" height="63" src="./bcservice/bc5/201107/W020140112269240103747.png" width="74"/> <em>
                      ä¼æ åæ·
                      </em> </a> </li>
<li> <a href="https://jf365.boc.cn/"> <img alt="ä¸­é¶ç§¯å365" height="63" src="./bcservice/bc5/201107/W020140112296613444745.png" width="74"/> <em>
                      ç§¯ååæ¢
                      </em> </a> </li>
<li class="last"> <a href="https://jf365.boc.cn/BOCCMALL/index.do">
<img height="63/" src="./bcservice/bc5/201107/W020140111861222588388.png" width="74"/>
<em>
                      èªæè´­
                      </em> </a> </li>
</ul>
<!--ååæä»æ¬¾ä¸æ ç®çæ ç®end-->
</div>
<!--right-->
</div>
<!--åçè´¢äº§åæ ç®åå®¹start-->
<div class="tab_content clearfix">
<div class="area_l">
<h3 class="tt tt_x">éç¹æ¨è</h3>
<h3><a href="./ebanking/bocmbs/mbs1/201804/t20180423_12061379.html" id="BOC_FENXIANG1" title="ä¸­é¶æ§æ">
                    ä¸­é¶æ§æ
                    </a></h3>
<p>
                    ä¸­é¶æ§ææ¯æºè½æèµé¡¾é®æå¡ï¼æ ¹æ®æèµèçé£é©æ¿åè½åãé¢ææèµæéç­è¦æ±ï¼è¿ç¨ä¸ç³»åæºè½ç®æ³ãæèµç»åä¼åæ¨¡åç­ï¼æä¾æºè½ååèªå¨åçèµäº§éç½®å»ºè®®
                  </p>
<div class="function"> <a class="share" href="#"><span>åäº«</span></a>
<ul class="share_pop hd bdsharebuttonbox" data-tag="share_1">
<li><a class="sina" onclick="share_boc('BOC_FENXIANG1','sina','https://www.bankofchina.com/ebanking/bocmbs/mbs1/201804/t20180423_12061379.html')" style="cursor:pointer;" title="åäº«å°æ°æµªå¾®å"></a></li>
<li><a class="wb" onclick="share_boc('BOC_FENXIANG1','qqwb','https://www.bankofchina.com/ebanking/bocmbs/mbs1/201804/t20180423_12061379.html')" style="cursor:pointer;" title="åäº«å°è¾è®¯å¾®å"></a></li>
<li><a class="wx" onclick="share_boc('BOC_FENXIANG1','rrw','https://www.bankofchina.com/ebanking/bocmbs/mbs1/201804/t20180423_12061379.html')" style="cursor:pointer;" title="åäº«å°äººäººç½"></a></li>
<li><a class="qzone" onclick="share_boc('BOC_FENXIANG1','qqzone','https://www.bankofchina.com/ebanking/bocmbs/mbs1/201804/t20180423_12061379.html')" style="cursor:pointer;" title="åäº«å°QQç©ºé´"></a></li>
</ul>
</div>
<!--åäº«-->
</div>
<!--left-->
<div class="area_r">
<ul class="list">
<li> <a href="./fimarkets/cs8/bi5/202101/t20210111_18894206.html" title="âä¸­é¶å¹³ç¨³çè´¢è®¡åï¼æºèâç³»åäº§åå°æå¬å(2021å¹´1æ11æ¥æ´æ°)">
                      âä¸­é¶å¹³ç¨³çè´¢è®¡åï¼æºèâç³»åäº§åå°æå¬å(2021å¹´1æ11æ¥æ´æ°)
                      </a> </li>
<li> <a href="./fimarkets/cs8/bi5/202101/t20210111_18894204.html" title="âä¸­é¶å¹³ç¨³çè´¢è®¡åï¼æºèâç³»åäº§ååè¡å¬å(2021å¹´1æ11æ¥æ´æ°)">
                      âä¸­é¶å¹³ç¨³çè´¢è®¡åï¼æºèâç³»åäº§ååè¡å¬å(2021å¹´1æ11æ¥æ´æ°)
                      </a> </li>
<li> <a href="./fimarkets/cs8/bi5/202101/t20210111_18894203.html" title="âä¸­é¶æ±å¢ï¼Aè®¡åâç³»åäº§ååè¡å¬å(2021å¹´1æ11æ¥æ´æ°)">
                      âä¸­é¶æ±å¢ï¼Aè®¡åâç³»åäº§ååè¡å¬å(2021å¹´1æ11æ¥æ´æ°)
                      </a> </li>
<li> <a href="./fimarkets/cs8/bi5/202101/t20210111_18894202.html" title="âä¸­é¶çè´¢è®¡åï¼æå¼ç¿éâç³»åäº§ååè¡å¬å(2021å¹´1æ11æ¥æ´æ°)">
                      âä¸­é¶çè´¢è®¡åï¼æå¼ç¿éâç³»åäº§ååè¡å¬å(2021å¹´1æ11æ¥æ´æ°)
                      </a> </li>
<li> <a href="./fimarkets/cs8/bi5/202101/t20210107_18879996.html" title="âä¸­é¶å¹³ç¨³çè´¢è®¡åï¼æºèâç³»åäº§åå°æå¬å(2021å¹´1æ7æ¥æ´æ°)">
                      âä¸­é¶å¹³ç¨³çè´¢è®¡åï¼æºèâç³»åäº§åå°æå¬å(2021å¹´1æ7æ¥æ´æ°)
                      </a> </li>
</ul>
</div>
<!--right-->
</div>
<!-- åºé -->
<div class="tab_content clearfix">
<div class="area_l">
<h3 class="tt tt_x">éç¹æ¨è</h3>
<h3><a href="./fimarkets/fund/201603/t20160322_6581374.html" id="BOC_FENXIANG2" title="åºéå®æ">
                    åºéå®æ
                    </a></h3>
<p>
                    ä¾æä¸­å½é¶è¡ä¸ä¸éèå®åï¼ä¼éå¼ºå¿åºéï¼åä½ ä¸èµ·ä¸ºäººçä¸­çæ¯ä¸ä¸ªéè¦é¶æ®µåå¥½åå¤ï¼ç¨ç¹æ»´ç§¯ç´¯ï¼æå°±ç¾å¥½æªæ¥ï¼
                  </p>
<div class="function"> <a class="share" href="#"><span>åäº«</span></a>
<ul class="share_pop hd bdsharebuttonbox" data-tag="share_1">
<li><a class="sina" onclick="share_boc('BOC_FENXIANG2','sina','https://www.bankofchina.com/fimarkets/fund/201603/t20160322_6581374.html')" style="cursor:pointer;" title="åäº«å°æ°æµªå¾®å"></a></li>
<li><a class="wb" onclick="share_boc('BOC_FENXIANG2','qqwb','https://www.bankofchina.com/fimarkets/fund/201603/t20160322_6581374.html')" style="cursor:pointer;" title="åäº«å°è¾è®¯å¾®å"></a></li>
<li><a class="wx" onclick="share_boc('BOC_FENXIANG2','rrw','https://www.bankofchina.com/fimarkets/fund/201603/t20160322_6581374.html')" style="cursor:pointer;" title="åäº«å°äººäººç½"></a></li>
<li><a class="qzone" onclick="share_boc('BOC_FENXIANG2','qqzone','https://www.bankofchina.com/fimarkets/fund/201603/t20160322_6581374.html')" style="cursor:pointer;" title="åäº«å°QQç©ºé´"></a></li>
</ul>
</div>
<!--åäº«-->
</div>
<!--left-->
<div class="area_r">
<ul class="list list_t">
<li> <a href="./fimarkets/fund/fm42/201803/t20180320_11767821.html" title="åºééå®ç½ç¹ååºéä»ä¸äººåèµè´¨ä¿¡æ¯ä¸ç½å¬ç¤º">
                      åºééå®ç½ç¹ååºéä»ä¸äººåèµè´¨ä¿¡æ¯ä¸ç½å¬ç¤º
                      </a> </li>
<li> <a href="./fimarkets/fund/fm42/201611/t20161114_8041353.html" title="ä¸­é¶è¯å¸ç°éç®¡å®¶è´§å¸åè¯å¸æèµåºéä¸­è¡åå®">
                      ä¸­é¶è¯å¸ç°éç®¡å®¶è´§å¸åè¯å¸æèµåºéä¸­è¡åå®
                      </a> </li>
<li> <a href="./fimarkets/fund/fm42/201607/t20160722_7366774.html" title="ä¸­é¶è¯å¸å¥åº·äº§ä¸çµæ´»éç½®æ··ååè¯å¸æèµåºéä¸­è¡åå®">
                      ä¸­é¶è¯å¸å¥åº·äº§ä¸çµæ´»éç½®æ··ååè¯å¸æèµ...
                      </a> </li>
<li> <a href="./fimarkets/fund/fm42/201605/t20160503_6827294.html" title="å½æ³°èä¸°å®å¢çµæ´»éç½®æ··ååè¯å¸æèµåºéä¸­è¡åå®">
                      å½æ³°èä¸°å®å¢çµæ´»éç½®æ··ååè¯å¸æèµåºé...
                      </a> </li>
</ul>
<ul class="list">
<li> <a href="./fimarkets/fund/cs2/202101/t20210111_18894398.html" title="åæ³°æçè´¨éé¢åæ··ååè¯å¸æèµåºéæç®¡åè®®">
                      åæ³°æçè´¨éé¢åæ··ååè¯å¸æèµåºéæç®¡åè®®
                      </a> </li>
<li> <a href="./fimarkets/fund/cs2/202101/t20210111_18894397.html" title="åæ³°æçè´¨éé¢åæ··ååè¯å¸æèµåºéåºéåå">
                      åæ³°æçè´¨éé¢åæ··ååè¯å¸æèµåºéåºéåå
                      </a> </li>
<li> <a href="./fimarkets/fund/cs2/202101/t20210111_18894396.html" title="ååçéåæ¥æ··ååè¯å¸æèµåºéæç®¡åè®®">
                      ååçéåæ¥æ··ååè¯å¸æèµåºéæç®¡åè®®
                      </a> </li>
<li> <a href="./fimarkets/fund/cs2/202101/t20210111_18894395.html" title="ååçéåæ¥æ··ååè¯å¸æèµåºéåºéåå">
                      ååçéåæ¥æ··ååè¯å¸æèµåºéåºéåå
                      </a> </li>
</ul>
</div>
<!--right-->
</div>
<!-- ä¸ªäººéè -->
<div class="tab_content clearfix">
<div class="area_l">
<h3 class="tt tt_x">éç¹æ¨è</h3>
<h3><a href="http://www.bankofchina.com/aboutboc/bi1/201906/t20190605_15418066.html" id="BOC_FENXIANG3" title="æ°çææºé¶è¡">
                    æ°çææºé¶è¡
                    </a></h3>
<p>
</p>
<div class="function"> <a class="share" href="#"><span>åäº«</span></a>
<ul class="share_pop hd bdsharebuttonbox" data-tag="share_1">
<li><a class="sina" onclick="share_boc('BOC_FENXIANG3','sina','http://www.bankofchina.com/aboutboc/bi1/201906/t20190605_15418066.html')" style="cursor:pointer;" title="åäº«å°æ°æµªå¾®å"></a></li>
<li><a class="wb" onclick="share_boc('BOC_FENXIANG3','qqwb','http://www.bankofchina.com/aboutboc/bi1/201906/t20190605_15418066.html')" style="cursor:pointer;" title="åäº«å°è¾è®¯å¾®å"></a></li>
<li><a class="wx" onclick="share_boc('BOC_FENXIANG3','rrw','http://www.bankofchina.com/aboutboc/bi1/201906/t20190605_15418066.html')" style="cursor:pointer;" title="åäº«å°äººäººç½"></a></li>
<li><a class="qzone" onclick="share_boc('BOC_FENXIANG3','qqzone','http://www.bankofchina.com/aboutboc/bi1/201906/t20190605_15418066.html')" style="cursor:pointer;" title="åäº«å°QQç©ºé´"></a></li>
</ul>
</div>
<!--åäº«-->
</div>
<!--left-->
<div class="area_r">
<ul class="list">
<li> <a href="./pbservice/pb7/201703/t20170327_9272004.html" title="éç¨é">
                      éç¨é
                      </a> </li>
<li> <a href="./pbservice/pb2/200907/t20090723_784900.html" title="çæ³ä¹å®¶â¢ä¸ªäººçå­¦è´·æ¬¾">
                      çæ³ä¹å®¶â¢ä¸ªäººçå­¦è´·æ¬¾
                      </a> </li>
<li> <a href="./pbservice/pb1/201604/t20160401_6638927.html" title="ä¸­é¶Eè´¢è´¦æ·ãEæ·è´¦æ·">
                      ä¸­é¶Eè´¢è´¦æ·ãEæ·è´¦æ·
                      </a> </li>
<li> <a href="./pbservice/bi3/201509/t20150930_6005603.html" title="å®å¿ä¹äº« ä¸­é¶ä¿ç®¡ç®±å®æ¤æ¨æå®æ¤">
                      å®å¿ä¹äº« ä¸­é¶ä¿ç®¡ç®±å®æ¤æ¨æå®æ¤
                      </a> </li>
<li> <a href="./pbservice/pb2/201409/t20140922_3916485.html" title="ä¸ªäººç½ç»å¾ªç¯è´·æ¬¾">
                      ä¸ªäººç½ç»å¾ªç¯è´·æ¬¾
                      </a> </li>
<li> <a href="./pbservice/pb8/201310/t20131008_2521829.html" title="ä¸­å½é¶è¡Â·å»è¾¾é">
                      ä¸­å½é¶è¡Â·å»è¾¾é
                      </a> </li>
<li> <a href="http://www.bankofchina.com/pbservice/pb9/" title="ä¸­é¶æ²ªæ¸¯é">
                      ä¸­é¶æ²ªæ¸¯é
                      </a> </li>
<li> <a href="http://www.bankofchina.com/pbservice/pb8/" title="æ æ°éè">
                      æ æ°éè
                      </a> </li>
<li> <a href="./pbservice/pb4/201407/t20140731_3696824.html" title="èµ´æ¥æ¬ä»£çå¼æ·è§è¯æå¡">
                      èµ´æ¥æ¬ä»£çå¼æ·è§è¯æå¡
                      </a> </li>
</ul>
</div>
<!--right-->
</div>
</div>
<!--tab-->
</div>
<!--right-->
</div>
</div>
<!--com_box-end-->
<!--com_box-->
<div class="com_box serves">
<h3 class="title title2">ä¼ä¸å®¢æ·æå¡</h3>
<!-- ä¼ä¸å®¢æ·æå¡-->
<div class="con_area clearfix">
<!-- åå¬å¸éèä¸2ç¯ææ¡£begin-->
<div class="fl ca_fw">
<div class="picBox clearfix"> <img alt="è·¨å¢äººæ°å¸" height="124" src="./cbservice/201401/W020170410651796624177.jpg" title="è·¨å¢äººæ°å¸" width="131"/>
<h3><a href="http://www.bankofchina.com/cbservice/cb11/" title="è·¨å¢äººæ°å¸">
                è·¨å¢äººæ°å¸
                </a></h3>
<p>
                äººæ°å¸ï¼å¨çè´¸æåæèµæ°éæ©
              </p>
<p class="more"><a href="http://www.bankofchina.com/cbservice/cb11/">äºè§£è¯¦æ</a></p>
</div>
<div class="picBox clearfix"> <img alt="ä¸­å°ä¼ä¸" height="124" src="./cbservice/201401/W020140111759561269740.jpg" title="ä¸­å°ä¼ä¸" width="131"/>
<h3><a href="http://www.boc.cn/cbservice/cb8/" title="ä¸­å°ä¼ä¸">
                ä¸­å°ä¼ä¸
                </a></h3>
<p>
                ä¸­å°ä¼ä¸å¨é¢éèæå¡
              </p>
<p class="more"><a href="http://www.boc.cn/cbservice/cb8/">äºè§£è¯¦æ</a></p>
</div>
</div>
<!-- åå¬å¸éèä¸2ç¯ææ¡£end-->
<!--left-->
<div class="fr">
<!-- åå¨çå¬å¸éèä¸çç¬¬ä¸ç¯ææ¡£çå¯æ é¢ -->
<h2><a href="./cbservice/cb13/200905/t20090520_2816499.html" title="ä¸­å½é¶è¡å¨çå¬å¸éè">
              ä¸ºä¼ä¸æä¾å¨çæ´åéèæå¡
              </a></h2>
<div class="newList clearfix">
<!-- åå¨çå¬å¸éèä¸ææ¡£begin-->
<dl>
<dt><a href="./cbservice/cb13/">å¨çå¬å¸éè</a></dt>
<dd> <a href="http://www.bankofchina.com/cbservice/cb13/200905/t20090520_2816499.html?toid=1" title="âè¿å£è´¸æåâä¼ä¸å¨æµç¨éèæå¡">
                  âè¿å£è´¸æåâä¼ä¸å¨æµç¨éèæå¡
                  </a> </dd>
<dd> <a href="http://www.bankofchina.com/cbservice/cb13/200905/t20090520_2816499.html?toid=2" title="âåºå£è´¸æåâä¼ä¸å¨æµç¨éèæå¡">
                  âåºå£è´¸æåâä¼ä¸å¨æµç¨éèæå¡
                  </a> </dd>
<dd> <a href="http://www.bankofchina.com/cbservice/cb13/200905/t20090520_2816499.html?toid=3" title="âå¢å¤æèµåâä¼ä¸å¨æµç¨éèæå¡">
                  âå¢å¤æèµåâä¼ä¸å¨æµç¨éèæå¡
                  </a> </dd>
<dd> <a href="http://www.bankofchina.com/cbservice/cb13/200905/t20090520_2816499.html?toid=4" title="âå¯¹å¤å·¥ç¨æ»æ¿åä¸å³å¡åä½åâä¼ä¸ä¸å¡æµç¨åéèæå¡éæ±">
                  âå¯¹å¤å·¥ç¨æ»æ¿åä¸å³å¡åä½åâä¼ä¸ä¸...
                  </a> </dd>
</dl>
<!-- åå¨çå¬å¸éèä¸ææ¡£end-->
<!--left-->
<div class="area_r">
<div class="new_gyl">
<a href="http://www.bankofchina.com/cbservice/cb3/cb32/" title="ä¾åºé¾éè"><img src="./cbservice/200905/W020140918622039345998.jpg"/></a>
</div>
<ul class="list clearfix">
<li> <a href="http://www.boc.cn/cbservice/cb3/cb33/" title="å½éç»ç®ç±»äº§å">
                    å½éç»ç®ç±»äº§å
                    </a> </li>
<li> <a href="http://www.boc.cn/cbservice/cb3/cb35/" title="è´¸æèèµç±»äº§å">
                    è´¸æèèµç±»äº§å
                    </a> </li>
<li> <a href="http://www.boc.cn/cbservice/cb7/" title="å»èéæå¡">
                    å»èéæå¡
                    </a> </li>
<li> <a href="http://www.boc.cn/cbservice/cb3/cb31/" title="ä¿å½ç±»äº§å">
                    ä¿å½ç±»äº§å
                    </a> </li>
<li> <a href="http://www.boc.cn/cbservice/cb2/cb22/" title="ç¹è²è´·æ¬¾äº§å">
                    ç¹è²è´·æ¬¾äº§å
                    </a> </li>
</ul>
</div>
<!--right-->
</div>
<div class="newList_ft">
<!--åå¬å¸éèä¸3--6ç¯ææ¡£-->
<a href="./ebanking/online/201310/t20131024_2567777.html" title="å¬å¸å®¢æ·ç»¼åå¼æ·"><span>å¨çº¿ç³è¯·ï¼
              å¬å¸å®¢æ·ç»¼åå¼æ·
              </span></a>
<a href="./ebanking/bocnet_cb/201009/t20100921_1151772.html" title="æ¥è¯¢å¯¹è´¦çæå¡"><span>
              æ¥è¯¢å¯¹è´¦çæå¡
              </span></a> <a href="./ebanking/bocmbs/201208/t20120809_1929991.html" title="ä¼ä¸ææºé¶è¡"><span>
              ä¼ä¸ææºé¶è¡
              </span></a> <a href="http://www.bankofchina.com/cbservice/cb14/" title="å¨çç°éç®¡ç"><span>
              å¨çç°éç®¡ç
              </span></a>
</div>
</div>
<!--right-->
</div>
<!-- ä¼ä¸å®¢æ·æå¡-->
</div>
<!--com_box-end-->
<!--com_box-->
<div class="com_box serves1 clearfix">
<div class="con_l clearfix">
<h3 class="title">éèå¸åºåæ</h3>
<p class="con_l_li">
<a href="./fimarkets/summarize/202012/t20201230_18853064.html" title="ä¸­å½é¶è¡ç ç©¶é¢ãéèæ¶æ¥ç¤¾èåè¯åº2020å¹´å½ééèåå¤§æ°é»">
            ä¸­å½é¶è¡ç ç©¶é¢ãéèæ¶æ¥ç¤¾èåè¯åº2020å¹´å½ééèåå¤§æ°é»
            </a>
</p>
<p> <a class="con_l_nobg" href="./fimarkets/foreignx/"><span>
          å¤æ±å¸åºåæ
          </span></a>
<a href="./fimarkets/foreignx/202101/t20210113_18901145.html" title="æ±å¸è§æ½®2021å¹´1æ13æ¥">
            æ±å¸è§æ½®2021å¹´1æ13æ¥
            </a> <a href="./fimarkets/foreignx/202101/t20210112_18901089.html" title="æ±å¸æ¥è¯2021å¹´1æ12æ¥">
            æ±å¸æ¥è¯2021å¹´1æ12æ¥
            </a> <a href="./fimarkets/foreignx/202101/t20210112_18894541.html" title="æ±å¸è§æ½®2021å¹´1æ12æ¥">
            æ±å¸è§æ½®2021å¹´1æ12æ¥
            </a> <a href="./fimarkets/foreignx/202101/t20210111_18894401.html" title="æ±å¸æ¥è¯2021å¹´1æ11æ¥">
            æ±å¸æ¥è¯2021å¹´1æ11æ¥
            </a>
</p>
<p> <a class="con_l_nobg" href="./fimarkets/fm7/"><span>
          é»éå¸åºåæ
          </span></a>
<a href="./fimarkets/fm7/202101/t20210113_18901146.html" title="20210113âå¤ç©ºé¢ä¸´ææ© é»éç»§ç»­å°å¹è°æ´">
            20210113âå¤ç©ºé¢ä¸´ææ© é»éç»§ç»­å°å¹è°æ´
            </a> <a href="./fimarkets/fm7/202101/t20210112_18894542.html" title="20210112âç¾è¡é«ä½åè½ é»éè·åæ¯æºä¼">
            20210112âç¾è¡é«ä½åè½ é»éè·åæ¯æºä¼
            </a> <a href="./fimarkets/fm7/202101/t20210111_18886996.html" title="20210111âç¾å½éåä¸ä½³ é»éåç°æ´è·è¡æ">
            20210111âç¾å½éåä¸ä½³ é»éåç°æ´è·è¡æ
            </a> <a href="./fimarkets/fm7/202101/t20210108_18879951.html" title="20210108âç¾å½éåæ°æ®å é»éæå¹³äº1920ä¹ä¸">
            20210108âç¾å½éåæ°æ®å é»éæå¹³äº19...
            </a>
</p>
<p class="last"> <a class="con_l_nobg" href="./fimarkets/boud/"><span>
          åºå¸å¸åºåæ
          </span></a>
<a href="./fimarkets/boud/202101/t20210113_18901149.html" title="åºå®æ¶çæ¥æ¥2021å¹´1æ13æ¥">
            åºå®æ¶çæ¥æ¥2021å¹´1æ13æ¥
            </a> <a href="./fimarkets/boud/202101/t20210112_18894545.html" title="åºå®æ¶çæ¥æ¥2021å¹´1æ12æ¥">
            åºå®æ¶çæ¥æ¥2021å¹´1æ12æ¥
            </a>
</p>
<p class="last"> <a class="con_l_nobg" href="./fimarkets/stock/"><span>
          è¯å¸å¸åºåæ
          </span></a>
<a href="./fimarkets/stock/202101/t20210113_18901150.html" title="æ¸¯è¡éæ¯æ¥æ¥å20210113">
            æ¸¯è¡éæ¯æ¥æ¥å20210113
            </a> <a href="./fimarkets/stock/202101/t20210112_18894546.html" title="æ¸¯è¡éæ¯æ¥æ¥å20210112">
            æ¸¯è¡éæ¯æ¥æ¥å20210112
            </a>
</p>
</div>
<!--left-->
<div class="con_r">
<h3 class="title"> éèæ°æ® </h3>
<h4>
<a href="http://www.boc.cn/sourcedb/whpj/" style="cursor:pointer" title="ä¸­å½é¶è¡å¤æ±çä»·"><span>
            ä¸­å½é¶è¡å¤æ±çä»·
            </span></a>
</h4>
<ul class="list">
<!--åcnéèæ°æ®æ ç®ä¸ææ¡£begin-->
<li> <a href="./fimarkets/201401/t20140112_2816516.html">
              ä¸­å½é¶è¡æµ·å¤åè¡å¤æ±çä»·
              </a> </li>
<li> <a href="http://www.bankofchina.com/sourcedb/ffx/">
              ä¸­å½é¶è¡è¿æå¤æ±çä»·
              </a> </li>
<li> <a href="http://www.bankofchina.com/fimarkets/lilv/">
              å­/è´·æ¬¾å©ç
              </a> </li>
<li> <a href="http://www.bankofchina.com/sourcedb/cfets_boc/">
              CFETS-BOCäº¤æååºå¸ææ°
              </a> </li>
<li style="float:left;width:110px; "> <a href="http://www.bankofchina.com/sourcedb/nv_fund/">
              ä»£éåºéåå¼
              </a> </li>
<li style="float:left;width:125px; background:none;"> <a href="http://www.bankofchina.com/sourcedb/nv_broker/">
              å¸åäº§ååå¼
              </a> </li>
<li style="float:left;width:110px;"> <a href="/fimarkets/cs8/lcjz/">
              èªè¥çè´¢äº§ååå¼
              </a> </li>
<li style="float:left;width:125px; background:none;"> <a href="/fimarkets/bocwm/fp82/">
              å­å¬å¸çè´¢äº§ååå¼
              </a> </li>
<li style="float:left;"> <a href="http://www.bankofchina.com/fimarkets/cri/">
              ä¸­å½é¶è¡äººæ°å¸å½éåææ°
              </a> </li>
<li style="float:left;"> <a href="http://www.bankofchina.com/fimarkets/cifed/">
              å¢åå¤åºå¸æèèµæ¯è¾ææ°
              </a> </li>
<!--åcnéèæ°æ®æ ç®ä¸ææ¡£end-->
</ul>
</div>
<!--right-->
</div>
<!--com-box-end-->
<!--com-box-->
<div class="com_box serves2">
<div class="con_l">
<!--åä¼ä¸ç¤¾ä¼è´£ä»»æ ç®ä¸ææ¡£begin-->
<h3 class="title"><a href="./aboutboc/ab8/">åªä½çä¸­è¡</a> </h3>
<ul class="list">
<li> <a href="./aboutboc/ab8/202011/t20201126_18686941.html" title="ç¬¬ä¸å±ä¸­è±ç»è´¸è®ºåæ¨ã2020è±å½ä¸­èµä¼ä¸åå±æ¥åãåå¸ä¼å¨è±ä¸¾è¡ãä¸­å½æ¥æ¥ç½ã">
              ç¬¬ä¸å±ä¸­è±ç»è´¸è®ºåæ¨ã2020è±å½ä¸­èµä¼ä¸...
              </a> </li>
<li> <a href="./aboutboc/ab8/202011/t20201113_18647066.html" title="éèåéç²¾åæ»´çï¼ä¸­å½é¶è¡å©åå¤è´¸ç¨³ä¸­æè´¨ãä¸­å½è¯å¸æ¥ã">
              éèåéç²¾åæ»´çï¼ä¸­å½é¶è¡å©åå¤è´¸ç¨³ä¸­...
              </a> </li>
<li> <a href="./aboutboc/ab8/202011/t20201113_18647065.html" title="ä¸­é¶é¦æ¸¯ï¼ä»å¹´æ¥ææºäº¤æåè¿ä¸¤åãé¦æ¸¯ææ±æ¥ã">
              ä¸­é¶é¦æ¸¯ï¼ä»å¹´æ¥ææºäº¤æåè¿ä¸¤åãé¦æ¸¯...
              </a> </li>
<li> <a href="./aboutboc/ab8/202011/t20201108_18614731.html" title="ä¸­å½é¶è¡å¨åæå¡ç¬¬ä¸å±ä¸­å½å½éè¿å£åè§ä¼ãäººæ°æ¥æ¥ã">
              ä¸­å½é¶è¡å¨åæå¡ç¬¬ä¸å±ä¸­å½å½éè¿å£åè§...
              </a> </li>
<li> <a href="./aboutboc/ab8/202011/t20201107_18614716.html" title="ä¸­å½é¶è¡ä¸é«æ°´å¹³å¯¹å¤å¼æ¾çä¸­å½(ä¸)ãä¸­å½éèç½ã">
              ä¸­å½é¶è¡ä¸é«æ°´å¹³å¯¹å¤å¼æ¾çä¸­å½(ä¸)ãä¸­...
              </a> </li>
<li> <a href="./aboutboc/ab8/202011/t20201106_18614737.html" title="åè¿âè¿åæ¶å»âï¼ä¸­å½é¶è¡ä»¥éèä¹å¼¦å¥åæå¡è¿åé¿éµä¹å£°ãéèæ¶æ¥ã">
              åè¿âè¿åæ¶å»âï¼ä¸­å½é¶è¡ä»¥éèä¹å¼¦å¥...
              </a> </li>
</ul>
<p class="more"><a href="./aboutboc/ab8/">æ´å¤&gt;</a></p>
<!--åä¼ä¸ç¤¾ä¼è´£ä»»æ ç®ä¸ææ¡£end-->
<div class="serves2_ft"> <a href="./aboutboc/ab7/" title="ä¸­è¡åç¨"> <img src="./aboutboc/ab7/images/P020140112019562554601.gif"/> <span>
          ä¸­è¡åç¨
          </span> </a> <a href="./aboutboc/ab2/" title="ä¸­è¡è£èª"> <img src="./aboutboc/ab2/images/P020081204783283203029.gif"/> <span>
          ä¸­è¡è£èª
          </span> </a> <a href="./aboutboc/ab4/" title="ä¸­è¡çº¸å¸"> <img src="./aboutboc/ab4/images/P020140112019717152829.gif"/> <span>
          ä¸­è¡çº¸å¸
          </span> </a> <a class="last" href="./aboutboc/ab5/" title="ä¸­è¡å¡è"> <img src="./aboutboc/ab5/images/P020140112019859429751.gif"/> <span>
          ä¸­è¡å¡è
          </span> </a> </div>
</div>
<!--left-->
<div class="con_r">
<!--åæèµèå³ç³»æ ç®ä¸ææ¡£begin-->
<div class="cc">
<h3 class="title"><a href="./investor/">æèµèå³ç³»</a> </h3>
<ul class="list clearfix">
<li> <a href="./investor/ir2/202101/t20210112_18901077.html" title="å¬å-åæ´æ¬è¡2021å¹´ç¬¬ä¸æ¬¡ä¸´æ¶è¡ä¸å¤§ä¼ç°åºä¼è®®æ¶é´">
                å¬å-åæ´æ¬è¡2021å¹´ç¬¬ä¸æ¬¡ä¸´æ¶è¡ä¸å¤§ä¼ç°åº...
                </a> </li>
<li> <a href="./investor/ir5/202101/t20210112_18901076.html" title="ä¸­å½é¶è¡è¡ä»½æéå¬å¸å³äº2021å¹´ç¬¬ä¸æ¬¡ä¸´æ¶è¡ä¸å¤§ä¼ç°åºä¼è®®æ¶é´åæ´çå¬å">
                ä¸­å½é¶è¡è¡ä»½æéå¬å¸å³äº2021å¹´ç¬¬ä¸æ¬¡ä¸´æ¶...
                </a> </li>
<li> <a href="./investor/ir2/202101/t20210104_18853563.html" title="æªè³äºé¶äºé¶å¹´åäºæä¸åä¸æ¥æ­¢ä¹è¡ä»½åè¡äººçè¯å¸åå¨ææ¥è¡¨">
                æªè³äºé¶äºé¶å¹´åäºæä¸åä¸æ¥æ­¢ä¹è¡ä»½åè¡...
                </a> </li>
<li> <a href="./investor/ir5/202012/t20201231_18853272.html" title="ä¸­å½é¶è¡è¡ä»½æéå¬å¸è£äºä¼å³è®®å¬å">
                ä¸­å½é¶è¡è¡ä»½æéå¬å¸è£äºä¼å³è®®å¬å
                </a> </li>
<li> <a href="./investor/ir2/202012/t20201231_18853271.html" title="æµ·å¤çç®¡å¬å-ä¸­å½é¶è¡è¡ä»½æéå¬å¸è£äºä¼å³è®®å¬å">
                æµ·å¤çç®¡å¬å-ä¸­å½é¶è¡è¡ä»½æéå¬å¸è£äºä¼å³...
                </a> </li>
<li> <a href="./investor/cnir7/200812/t20081215_491892.html" title="å¬å¸æ¥å¿">
                å¬å¸æ¥å¿
                </a> </li>
<li> <a href="./investor/ir2/202012/t20201223_18820098.html" title="å¬å-æ¬è¡å¯è¡é¿ä¹è¾ä»»">
                å¬å-æ¬è¡å¯è¡é¿ä¹è¾ä»»
                </a> </li>
<li> <a href="./investor/ir5/202012/t20201223_18820099.html" title="ä¸­å½é¶è¡è¡ä»½æéå¬å¸å³äºå¯è¡é¿è¾ä»»çå¬å">
                ä¸­å½é¶è¡è¡ä»½æéå¬å¸å³äºå¯è¡é¿è¾ä»»çå¬å
                </a> </li>
</ul>
<p class="more"><a href="./investor/">æ´å¤&gt;</a></p>
</div>
<!--åæèµèå³ç³»æ ç®ä¸ææ¡£end-->
<div class="bb clearfix">
<!--åç¤¾ä¼è´£ä»»æ ç®ä¸ææ¡£begin-->
<div class="bb_l">
<div class="tabs" id="tab4">
<ul class="tab_nav clearfix">
<li class="selected" onclick="tabs('#tab4',0);"> <a href="javascript:void(0)" target="_self">ä¼ä¸ç¤¾ä¼è´£ä»» </a> </li>
<li class="last" onclick="tabs('#tab4',1);"> <a href="javascript:void(0)" target="_self">æ¶è´¹èæçä¿æ¤ </a> </li>
</ul>
<div class="tab_content clearfix" style="display:block;">
<ul class="list">
<li> <a href="./aboutboc/boccsr/202101/t20210112_18901106.html" title="ä¸­å½é¶è¡ä¸ºæå»ç«ææç­éèâåâç¾">
                      ä¸­å½é¶è¡ä¸ºæå»ç«ææç­éèâåâç¾
                      </a> </li>
<li> <a href="./aboutboc/boccsr/202101/t20210111_18894192.html" title="â2021å¹´ä¸­å½é¶è¡å¨å½éå°å¹´å°éªå¬ä»¤è¥âé¦ç«å¼è¥">
                      â2021å¹´ä¸­å½é¶è¡å¨å½éå°å¹´å°éªå¬ä»¤è¥...
                      </a> </li>
<li> <a href="./aboutboc/boccsr/202101/t20210101_18853345.html" title="ä½ å¥½ï¼2021ââå¨çä¸­è¡åå·¥å¯è¯­2021">
                      ä½ å¥½ï¼2021ââå¨çä¸­è¡åå·¥å¯è¯­2021
                      </a> </li>
</ul>
<p class="more"><a href="./aboutboc/boccsr/">æ´å¤&gt;</a></p>
</div>
<div class="tab_content clearfix">
<ul class="list">
<li> <a href="./aboutboc/BCP/202009/t20200911_18398304.html" title="2020å¹´âéèç¥è¯æ®åæ éèç¥è¯è¿ä¸å®¶ äºåçæ§æèµè äºåéèå¥½ç½æ°âæ´»å¨å¯å¨">
                      2020å¹´âéèç¥è¯æ®åæ éèç¥è¯è¿ä¸å®¶...
                      </a> </li>
<li> <a href="./aboutboc/BCP/202006/t20200615_18039229.html" title="2020å¹´æ®åéèç¥è¯ï¼å®ä½âé±è¢å­âæ´»å¨ä¸ï¼å­æ¬¾ä¿é© ä¿æ¤æ¨çè´µçå­æ¬¾">
                      2020å¹´æ®åéèç¥è¯ï¼å®ä½âé±è¢å­âæ´»...
                      </a> </li>
<li> <a href="./aboutboc/BCP/202006/t20200608_18056940.html" title="2020å¹´é¶è¡ä¸æ®åéèç¥è¯ä¸éè¡æ´»å¨ä¸ï¼é²èçµä¿¡ç½ç»è¯éª">
                      2020å¹´é¶è¡ä¸æ®åéèç¥è¯ä¸éè¡æ´»å¨ä¸...
                      </a> </li>
</ul>
<p class="more"><a href="./aboutboc/BCP/">æ´å¤&gt;</a></p>
</div>
</div>
</div>
<!--åç¤¾ä¼è´£ä»»æ ç®ä¸ææ¡£end-->
<!--åæèå¬ååéè´­å¬åæ ç®åç§°ä¸ææ¡£åè¡¨begin-->
<div class="bb_r">
<div class="tabs" id="tab2">
<ul class="tab_nav clearfix">
<li class="selected" onclick="tabs('#tab2',0);"> <a href="javascript:void(0)" target="_self">æèå¬å </a> </li>
<li class="last" onclick="tabs('#tab2',1);"> <a href="javascript:void(0)" target="_self">éè´­å¬å </a> </li>
</ul>
<div class="tab_content clearfix" style="display:block;">
<ul class="list">
<li> <a href="./aboutboc/bi4/202012/t20201202_18713031.html" title="ä¸­é¶éèç§ææéå¬å¸2020-2021å¹´ç¤¾ä¼æèå¬å">
                      ä¸­é¶éèç§ææéå¬å¸2020-2021å¹´ç¤¾ä¼æ...
                      </a> </li>
<li> <a href="./aboutboc/bi4/202012/t20201221_18806961.html" title="ä¸­å½é¶è¡è¡ä»½æéå¬å¸2021å¹´åº¦ææ¥æ¶å¢åé¢æ ¡åºå±æ¯ä¸çæåµå¬ç¤º(ç¬¬ä¸æ¹)">
                      ä¸­å½é¶è¡è¡ä»½æéå¬å¸2021å¹´åº¦ææ¥æ¶å¢...
                      </a> </li>
<li> <a href="./aboutboc/bi4/202012/t20201208_18745946.html" title="ä¸­é¶éèç§èµæéå¬å¸2020å¹´ç¤¾ä¼æèå¬å">
                      ä¸­é¶éèç§èµæéå¬å¸2020å¹´ç¤¾ä¼æèå¬å
                      </a> </li>
</ul>
<p class="more"><a href="./aboutboc/bi4/">æ´å¤&gt;</a></p>
</div>
<div class="tab_content clearfix">
<ul class="list">
<li> <a href="./aboutboc/bi6/202101/t20210112_18901075.html" title="ä¸­å½é¶è¡è¡ä»½æéå¬å¸è·¨å¢åºæ¯éè´­åºçç¤¾åºççå­¦å¾ä¹¦é¡¹ç®ææ å¬å">
                      ä¸­å½é¶è¡è¡ä»½æéå¬å¸è·¨å¢åºæ¯éè´­åº...
                      </a> </li>
<li> <a href="./aboutboc/bi6/202101/t20210112_18901074.html" title="ä¸­å½é¶è¡è¡ä»½æéå¬å¸âå¢åèæåç¯å¢é²çæ¯è½¯ä»¶æ©å®¹ç­é¡¹ç®âæ°è´­é²çæ¯è½¯ä»¶ååææ ç»æå¬ç¤º">
                      ä¸­å½é¶è¡è¡ä»½æéå¬å¸âå¢åèæåç¯...
                      </a> </li>
<li> <a href="./aboutboc/bi6/202101/t20210111_18894400.html" title="ä¸­å½é¶è¡è¡ä»½æéå¬å¸ä¿¡æ¯ç§æè¿è¥ä¸­å¿å®å¨å®¡è®¡æåå·¥å·-éæ³å¤èçæµç³»ç»é¡¹ç®ææ å¬å">
                      ä¸­å½é¶è¡è¡ä»½æéå¬å¸ä¿¡æ¯ç§æè¿è¥ä¸­...
                      </a> </li>
</ul>
<p class="more"><a href="./aboutboc/bi6/">æ´å¤&gt;</a></p>
</div>
</div>
<!--tab-->
</div>
<!--åæèå¬ååéè´­å¬åæ ç®åç§°ä¸ææ¡£åè¡¨end-->
</div>
</div>
<!--right-->
</div>
<!--com-box-end-->
<!--com-box-->
<div class="com_box clearfix map"> <img src="./images/map.gif"/>
<div class="map_area">
<h3 class="title">
<a href="./custserv/cs1/201312/t20131230_2805579.html">å¨çæå¡</a>
</h3>
<div class="zz1">
<ul>
<li><a href="https://www.bankofchina.com/mo/">æ¾³é¨å°åº</a></li>
<li><a href="https://www.bankofchina.com/tw/">å°æ¹¾å°åº</a></li>
<li><a href="https://www.bankofchina.com/sg/">æ°å å¡</a></li>
<li><a href="https://www.bankofchina.com/th/">æ³°å½</a></li>
<li><a href="https://www.bankofchina.com/jp/">æ¥æ¬</a></li>
<li><a href="https://www.bankofchina.com/vn/">è¶å</a></li>
<li><a href="https://www.bankofchina.com/my/">é©¬æ¥è¥¿äº</a></li>
<li><a href="https://www.bankofchina.com/id/">å°åº¦å°¼è¥¿äº</a></li>
<li><a href="https://www.bankofchina.com/kh/">æ¬åå¯¨</a></li>
<li><a href="https://www.bankofchina.com/ru/">ä¿ç½æ¯</a></li>
<li><a href="https://www.bankofchina.com/uk/">è±å½</a></li>
<li><a href="https://www.bankofchina.com/fr/">æ³å½</a></li>
<li><a href="https://www.bankofchina.com/lu/">å¢æ£®å ¡</a></li>
<li><a href="https://www.bankofchina.com/be/">æ¯å©æ¶</a></li>
<li><a href="https://www.bankofchina.com/nl/">è·å°</a></li>
<li><a href="https://www.bankofchina.com/pl/">æ³¢å°</a></li>
<li><a href="https://www.bankofchina.com/se/">çå¸</a></li>
<li><a href="https://www.bankofchina.com/de/">å¾·å½</a></li>
<li><a href="https://www.bankofchina.com/it/">æå¤§å©</a></li>
<li><a href="https://www.bankofchina.com/hu/">åçå©</a></li>
<li><a href="https://www.bankofchina.com/zm/">èµæ¯äº</a></li>
<li><a href="https://www.bankofchina.com/us/">ç¾å½</a></li>
<li><a href="https://www.bankofchina.com/ca/">å æ¿å¤§</a></li>
<li><a href="https://www.bankofchina.com/pa/">å·´æ¿é©¬</a></li>
<li><a href="https://www.bankofchina.com/br/">å·´è¥¿</a></li>
<li><a href="https://www.bankofchina.com/nz/">æ°è¥¿å°</a></li>
<li><a href="https://www.bankofchina.com/au/">æ¾³å¤§å©äº</a></li>
<li><a href="https://www.bankofchina.com/kr/">é©å½</a></li>
<li><a href="https://www.bankofchina.com/rs/">å¡å°ç»´äº</a></li>
<li><a href="https://www.bankofchina.com/mu/">æ¯éæ±æ¯</a></li>
<li><a href="https://www.bankofchina.com/tr/">åè³å¶</a></li>
<li><a href="https://www.bankofchina.com/mx/">å¢¨è¥¿å¥</a></li>
<li><a href="https://www.bankofchina.com/at/">å¥¥å°å©</a></li>
<li><a href="https://www.bankofchina.com/pt/">è¡èç</a></li>
<li><a href="https://www.bankofchina.com/za/">åé</a></li>
<li><a href="https://www.bankofchina.com/cz/">æ·å</a></li>
<li><a href="https://www.bankofchina.com/cl/">æºå©</a></li>
<li><a href="https://www.bankofchina.com/la/">èæ</a></li>
<li><a href="https://www.bankofchina.com/ao/">å®å¥æ</a></li>
<li><a href="https://www.bankofchina.com/qa/">å¡å¡å°</a></li>
<li><a href="https://www.bankofchina.com/lk/">æ¯éå°å¡</a></li>
<li><a href="https://www.bankofchina.com/pk/">å·´åºæ¯å¦</a></li>
<li><a href="https://www.bankofchina.com/in/">å°åº¦</a></li>
<li><a href="https://www.bankofchina.com/pe/">ç§é²</a></li>
<li class="last"><a href="https://www.bankofchina.com/gr/">å¸è</a></li>
</ul>
</div>
</div>
<div class="zz2"> <a class="bts2" href="javascript:void(0)">ç»¼åç»è¥å¬å¸ç½ç«</a>
<div class="hover_menu hd">
<ul>
<li><a href="http://www.bochk.com/web/home/home.xml?lang=cn">ä¸­å½é¶è¡ï¼é¦æ¸¯ï¼æéå¬å¸</a></li>
<li><a href="http://www.bocigroup.com/pub/sc/">ä¸­é¶å½éæ§è¡æéå¬å¸</a></li>
<li><a href="http://www.bocichina.com/">ä¸­é¶å½éè¯å¸è¡ä»½æéå¬å¸</a></li>
<li><a href="http://bocg-ins.bocgroup.com/">ä¸­é¶éå¢ä¿é©æéå¬å¸</a></li>
<li><a href="http://www.bocgi.com/">ä¸­é¶éå¢æèµæéå¬å¸</a></li>
<li><a href="http://www.bocgroup.com/bocg-life/sc/">ä¸­é¶éå¢äººå¯¿ä¿é©æéå¬å¸</a></li>
<li><a href="https://www.bankofchina.com/bocins/">ä¸­é¶ä¿é©æéå¬å¸</a></li>
<li><a href="http://www.bocaviation.com/">ä¸­é¶èªç©ºç§èµæéå¬å¸</a></li>
<li><a href="http://www.bocim.com/">ä¸­é¶åºéç®¡çæéå¬å¸</a></li>
<li><a href="http://www.boccfc.cn/">ä¸­é¶æ¶è´¹éèæéå¬å¸</a></li>
<li class="last"><a href="#">ä¸­é¶éèåå¡æéå¬å¸</a></li>
</ul>
</div>
</div>
</div>
<!--com-box-end-->
</div>
<!--main-end-->
<!--2013-åµ-åºé¨åµå¥begin-->
<div class="footer_2013">
<div class="footer_phone">
<p style="width: 865px;margin: 0 auto;"><em>å®¢æ·æå¡ä¸æè¯ç­çº¿ï¼</em><span>95566</span>(ä¸­å½å¢å)ï¼<span>+86(åºå·)95566</span>(ä¸­å½å¢å¤) <em class="footer_sp">ä¿¡ç¨å¡å®¢æä¸æè¯ç­çº¿ï¼</em><span>40066-95566</span>(ä¸­å½å¢å)ï¼ <span>+86-10-66085566</span>(ä¸­å½å¢å¤)</p>
</div>
<div class="footer_copy">
<div class="footer_area">
<p>
<!--åæç¤ºä¿¡æ¯æ ç®ååç¯ææ¡£-->
<a href="./custserv/cs1/200812/t20081209_135605.html">
						ç½ç«å°å¾
					</a><i>|</i>
<a href="./custserv/cs1/200812/t20081209_135606.html">
						çæå£°æ
					</a><i>|</i>
<a href="./custserv/cs1/200812/t20081209_135607.html">
						ä½¿ç¨æ¡æ¬¾
					</a><i>|</i>
<a href="./custserv/cs1/200812/t20081212_257687.html">
						èç³»æä»¬
					</a><i>|</i>
				
            	
                äº¬ICPå¤10052455å· äº¬å¬ç½å®å¤110102002036å· 
            </p>
<p>Copyright© BANK OF CHINA(BOC) All Rights Reserved. </p>
</div>
</div>
</div><!--footer-end-->
<script>
//æ§å¶å¯¼èªéä¸­
$(document).ready(function(){
	var curlocation = 'ä¸­å½é¶è¡';
	var array = curlocation.split(",");
	if(array.length < 2)
		return false;
	var curchannelname = array[1];
	//éä¸ªæ ç®è¿è¡åæï¼ä¿®æ¹æ ç®æ ·å¼
	$("#BOC_NAVIGATOR_UL li").each(function(){
		var curtext = $(this).find("a").eq(0).text();
		if(curchannelname == curtext){
			$("#BOC_NAVIGATOR_UL li").removeClass("current");
			$(this).addClass("current");
			return false;
		}
	});
});
</script>
<script type="text/javascript">
var pl_search_domain = "https://srh.bankofchina.com/search/";
/**
* @see å¨ç«æ£ç´¢
* @param obj:å¯¹è±¡
*/
function search_for_site(){
	//è®¾ç½®å½åæ£ç´¢ç action
	$("#trssearchform").attr("action",pl_search_domain+"sitesearch/index.jsp");
	$("#trssearchform").submit();
}
</script>
<!--2013-åµ-åºé¨åµå¥end-->
</div>
<!--wrapper-->
<script src="./images/boc2013_bxCarousel.js" type="text/javascript"></script>
<script src="./images/boc2013_share.js" type="text/javascript"></script>
<script type="text/javascript">
 $(document).ready(function(){
	/*é¦é¡µbannerå¾åæ¢*/
	(function(){
		var curr = 0;
		$(".banner_nav .trigger").each(function(i){
			$(this).click(function(){
				curr = i;
				$(".bn_img a").eq(i).fadeIn("slow").siblings("a").hide();
				$(this).siblings(".trigger").removeClass("imgSelected").end().addClass("imgSelected");
				return false;
			});
		});
		
		var pg = function(flag){
			//flag:trueè¡¨ç¤ºåç¿»ï¼ falseè¡¨ç¤ºåç¿»
			if (flag) {
				if (curr == 0) {

					todo = 2;
				} else {
					todo = (curr - 1) % 4;
				}
			} else {
				todo = (curr + 1) % 4;
			}
			$(".banner_nav .trigger").eq(todo).click();
		};
		//èªå¨ç¿»
		var timer = setInterval(function(){
			todo = (curr + 1) % 4;
			$(".banner_nav .trigger").eq(todo).click();
		},5000);
		
		//é¼ æ æ¬åå¨è§¦åå¨ä¸æ¶åæ­¢èªå¨ç¿»
		$(".banner_nav span").hover(function(){
				clearInterval(timer);
			},
			function(){
				timer = setInterval(function(){
					todo = (curr + 1) % 4;
					$(".banner_nav .trigger").eq(todo).click();
				},5000);			
			}
		);
	})();
	//æ°å jq ä¾¿æ·æå¡++++++++++++++++++++++

			 $('#carousel').elastislide({
			imageW 	: 71,
			minItems :1,	
			margin : 0,	
			border : 0	
		});
	//æ°å jq åæ¢  é¶è¡å¡++++++++++++++++++++++
		$('#carousel2').elastislide({
    	imageW 	: 250,
    	minItems :1,
		margin : 0,	
		border : 0	
		});
		
		//åäº«
	var share_c = $('.share_pop').hide();
	var share_bt = $('.share');
	share_bt.click(function(){
		share_c.fadeToggle(400);
		return false;
	});
	$("body").click(function(){
		share_c.hide();
		})

	//å¨çæå¡
	var h_logbtn1 = $('.bts1');
	var h_menu1 = $('.zz1 .hover_menu').hide();
	h_logbtn1.click(function(){
		h_menu1.fadeToggle('fast');
		return false;
	})
	$("body").click(function(){
		h_menu1.hide();
		})
	
	var h_logbtn2 = $('.bts2');
	var h_menu2 = $('.zz2 .hover_menu').hide();
	h_logbtn2.click(function(){
		h_menu2.fadeToggle('fast');
		return false;
	})
	$("body").click(function(){
		h_menu2.hide();
		})
	
});
/*å¯¼èª*/
var s_bMoveLeft = true;
var s_oTimer = null;
var s_oTimerOut = null;
var s_iSpeed = 3;
function MM_findObj(n, d) { 
	var p,i,x;
	if(!d) 
		d=document; 
	for(i=0;!x&&d.layers&&i<d.layers.length;i++) 
		x=MM_findObj(n,d.layers[i].document);
	if(!x && d.getElementById) 
		x=d.getElementById(n); 
		return x;
}

function showHideLayer() { 
	var i,p,v,obj,args=showHideLayer.arguments;
	for (i=0; i<(args.length-2); i+=3) 
	if ((obj=MM_findObj(args[i]))!=null) 
	{
		v=args[i+2];
		if (obj.style) 
		{ 
			obj=obj.style;
			v=(v=='show')?'visible':(v=='hide')?'hidden':v; 
		}
    	obj.visibility=v; 
	}
}
//éé¡¹å¡åæ¢
function tabs(tabId, tabNum){
	$(tabId+' .tab_nav li').removeClass('selected');
	$(tabId+' .tab_nav li').eq(tabNum).addClass('selected');
	$(tabId+' .tab_content').hide();
	$(tabId+' .tab_content').eq(tabNum).show();
}


//2014touchäºä»¶====å¼¹åºèå
var bo = document.getElementsByTagName("body")[0];
var isIE = (document.all && window.ActiveXObject && !window.opera) ? true : false;
function tch_event(name){
	function touchStart(event) {
    name.style.display="none"
	}
	if(isIE){
		bo.attachEvent("touchstart", touchStart, false);
		bo.attachEvent("touchmove", touchStart, false);
		bo.attachEvent("touchend", touchStart, false);
	}else{
		bo.addEventListener("touchstart", touchStart, false);
		bo.addEventListener("touchmove", touchStart, false);
		bo.addEventListener("touchend", touchStart, false);
	}
	

	function touchbb(event) {
    name.style.display="block"
	event.stopPropagation();
	}
	if(isIE){
		name.attachEvent("touchmove", touchbb, false);
		name.attachEvent("touchstart", touchbb, false);
		name.attachEvent("touchend", touchbb, false);
	}else{
		name.addEventListener("touchmove", touchbb, false);
		name.addEventListener("touchstart", touchbb, false);
		name.addEventListener("touchend", touchbb, false);
	}
}
//touchäºä»¶ end

//2014touchäºä»¶====å¯¼èªèå
function tch_eventM(name){
	
	function touchStart2(event) {
    name.style.visibility="hidden";
	}
	if(isIE){
		bo.attachEvent("touchstart", touchStart2, false);
		bo.attachEvent("touchmove", touchStart2, false);
		bo.attachEvent("touchend", touchStart2, false);
	}
	else{
		bo.addEventListener("touchstart", touchStart2, false);
		bo.addEventListener("touchmove", touchStart2, false);
		bo.addEventListener("touchend", touchStart2, false);
	}
	function touchbb2(event) {
    name.style.visibility="visible";
	event.stopPropagation();
	}
	if(isIE){
		name.attachEvent("touchmove", touchbb2, false);
		name.attachEvent("touchstart", touchbb2, false);
		name.attachEvent("touchend", touchbb2, false);
	}else{
		name.addEventListener("touchmove", touchbb2, false);
		name.addEventListener("touchstart", touchbb2, false);
		name.addEventListener("touchend", touchbb2, false);
	}
}

//touchäºä»¶ end
//2014è·ååç´ 
function getElementsByClassName(n){
	var classElements = [],allElements = document.getElementsByTagName('*');
	for(var i = 0;i<allElements.length;i++){
		if(allElements[i].className == n){
			classElements[classElements.length]=allElements[i];	
		}	
	}
	return classElements;
}
if(typeof document.getElementsByClassName !='function'){  
         document.getElementsByClassName=getElementsByClassName;  
    }  
var className = document.getElementsByClassName('hd');
var subNav = document.getElementsByClassName('sub_menu');
for(var i = 0;i<className.length;i++){
	tch_event(className[i]);	
}
for(var i =0;i<subNav.length;i++){
	tch_eventM(subNav[i]);
}
</script>
</body>
</html>