<!DOCTYPE HTML>
<html lang="en-US">
<head>
<meta charset="utf-8"/>
<!-- meta http-equiv="refresh" content="1; url=https://www.bocadolobo.com/en/"> -->
<!-- <script type="text/javascript">
            window.location.href = "https://www.bocadolobo.com/en/"
        </script> -->
<!--  <title>Page Redirection</title> -->
<script>
          (function(i,s,o,g,r,a,m){i['GoogleAnalyticsObject']=r;i[r]=i[r]||function(){
          (i[r].q=i[r].q||[]).push(arguments)},i[r].l=1*new Date();a=s.createElement(o),
          m=s.getElementsByTagName(o)[0];a.async=1;a.src=g;m.parentNode.insertBefore(a,m)
          })(window,document,'script','https://www.google-analytics.com/analytics.js','ga');

          ga('create', 'UA-6739503-2', 'auto');
          ga('send', 'pageview');

        </script>
<script language="javascript">
              var javaScriptVarPais = "China";
              if (javaScriptVarPais === 'France') {
                 window.location.href = "https://www.bocadolobo.com/fr/";
              } else {
                window.location.href = "https://www.bocadolobo.com/en/";
              }
          </script>
</head>
<body>
</body>
</html>