<!-- ################################################################################################################################################################################################################################################################################################################################################################################################################################################################################################################################################################################################################################################################################################################################################################################################################################################################################################################################################################################################################################################################ --><html>
<head>
<title>æéä¸­éä¿¡ç¨å¡(åé)æéå¬å¸ç¶²ç«å°åæ´æ¹çéç¥</title>
<meta content="text/html; charset=utf-8" http-equiv="Content-Type"/>
<script type="text/javascript">

		// Set the number we're counting down to
		var countdownnumber = 15;
		var countdownid, x;

		var param = location.search.split('destination=')[1]
		var url;

		if (param === 'undefined' || !param) {
			url = "http://www.bochk.com/creditcard/chi/index.html";
		} else {
			url = param;
		}

		function initial(){
			var lang = url.split("/")[4];
			var content = document.getElementById("content");
			var closer = document.getElementById("closer");
			var skip = document.getElementById("skip");
			var contentDetail, closerDetail, skipDetail;

			if (lang == 'smp') {
				closerDetail = document.getElementById("f_smp");
				contentDetail = document.getElementById("c_smp");
				skipDetail = document.getElementById("s_smp");
			} else if (lang == 'eng') {
				closerDetail = document.getElementById("f_eng");
				contentDetail = document.getElementById("c_eng");
				skipDetail = document.getElementById("s_eng");
			} else {
				closerDetail = document.getElementById("f_chi");
				contentDetail = document.getElementById("c_chi");
				skipDetail = document.getElementById("s_chi");
			}

			closer.appendChild(closerDetail);
			content.appendChild(contentDetail);
			skip.appendChild(skipDetail);

			x = document.getElementById("counter");
			x.innerHTML = countdownnumber;
			countdownnumber--;
			countdownid = window.setInterval(countdownfunc, 1000);
		}

		function countdownfunc() {
			x.innerHTML = countdownnumber;
			if (countdownnumber == 0) {
				window.location = url;
				clearIntervalcountdownid();
			}
			countdownnumber--;
		}

	</script>
<style type="text/css">
#f_chi,#c_chi,#f_smp,#c_smp{
	font-family:DFKai-sb;
	}
</style>
</head>
<body onload="initial();">
<table border="0" cellpadding="0" cellspacing="0" width="600">
<tr>
<td align="right" id="closer"></td>
</tr>
<tr>
<td> </td>
</tr>
<tr>
<td id="header">
<img height="70" src="/creditcard/chi/popup/image/banner.gif" width="600"/>
</td>
</tr>
<tr>
<td> </td>
</tr>
<tr>
<td> </td>
</tr>
<tr>
<td> </td>
</tr>
<tr>
<td id="content"></td>
</tr>
<tr>
<td> </td>
</tr>
<tr>
<td align="right" id="skip"></td>
</tr>
</table>
<div style="display: none;">
<div id="f_chi">
<!--span style="padding:3px; border-width:thin; border-style:solid;"--><span>åæ¸éé<span id="counter"></span>ç§</span>
</div>
<div id="c_chi">
<p align="center">
<strong><font color="#990000" size="4">æéä¸­éä¿¡ç¨å¡(åé)æéå¬å¸ç¶²ç«å°åæ´æ¹çéç¥</font></strong>
<br/>
</p>
<p align="justify">
<font size="3">     ä¸­éä¿¡ç¨å¡(åé)æéå¬å¸ï¼ãæ¬å¬å¸ãï¼çºæåå®¢æ¶æåï¼ç±å³æ¥èµ·ï¼æ¬å¬å¸åç¶²å<u>www.boci.com.hk</u>å°æ´æ¹çº<u>www.bochk.com/creditcard</u>ï¼ç¶²é å§å®¹ç¶­æä¸è®ãçºæ¹ä¾¿å®¢æ¶çè¦½æ¬å¬å¸è³è¨ï¼ä¸è¿°å©åç¶²åæåæä¸¦è¡ç´è³å¦è¡éç¥çºæ­¢ã</font>
</p>
<p align="justify">
<font size="3">    è©³æè«çè¦½æ¬å¬å¸ç¶²å&gt;ææ°è³è¨ã</font>
</p>
<p align="right">
<font size="3">ä¸­éä¿¡ç¨å¡ (åé )æéå¬å¸ è¬¹å
				<br/>
				äºâä¸å«å¹´åæäºåäºæ¥ 
				</font>
</p>
</div>
</div>
<div style="display: none;">
<div id="f_smp">
<!--span style="padding:3px; border-width:thin; border-style:solid;"-->
<span>åæ°å³é­<span id="counter"></span>ç§</span>
</div>
<div id="c_smp">
<p align="center">
<strong><font color="#990000" size="4">æå³ä¸­é¶ä¿¡ç¨å¡(å½é)æéå¬å¸ç½ç«å°åæ´æ¹çéç¥</font></strong>
<br/>
</p>
<br/>
<p align="justify">
<font size="3">    ä¸­é¶ä¿¡ç¨å¡(å½é)æéå¬å¸ï¼ãæ¬å¬å¸ãï¼ä¸ºæåå®¢æ·æå¡ï¼ç±å³æ¥èµ·ï¼æ¬å¬å¸åç½åwww.boci.com.hkå°æ´æ¹ä¸ºwww.bochk.com/creditcardï¼ç½é¡µåå®¹ç»´æä¸åãä¸ºæ¹ä¾¿å®¢æ·æµè§æ¬å¬å¸ä¿¡æ¯ï¼ä¸è¿°ä¸¤ä¸ªç½åä¼åæ¶å¹¶è¡ç´è³å¦è¡éç¥ä¸ºæ­¢ã</font>
</p>
<p align="justify">
<font size="3">    è¯¦æè¯·æµè§æ¬å¬å¸ç½å&gt;ææ°ä¿¡æ¯ã</font>
</p>
<p align="right">
<font size="3">ä¸­é¶ä¿¡ç¨å¡ (å½é )æéå¬å¸ è°¨å¯
				<br/>
				äºâä¸å«å¹´åæäºåäºæ¥ 
				</font>
</p>
</div>
</div>
<div style="display: none;">
<div id="f_eng">
<!--span style=" padding:3px; border-width:thin; border-style:solid;"-->
<span>Closing in <span id="counter"></span> sec</span>
</div>
<div id="c_eng">
<p align="center">
<strong><font color="#990000" size="4">Notice of Website Address Change<br/>BOC Credit Card (International) Ltd.</font></strong>
<br/>
<br/>
<br/>
</p>
<p align="justify">
<font size="3"> With immediate effect, BOC Credit Card (International) Ltd. (âBOCCCâ) website address www.boci.com.hk will be replaced by www.bochk.com/creditcard with all its contents remaining unchanged. For customer convenience, the former website address will remain active until further notice.</font>
</p>
<p align="justify">
<font size="3">For details, please visit âWhatâs Newâ in our website.</font>
</p>
<p align="right">
<font size="3">BOC Credit Card (International) Ltd.
				<br/>
				22nd Arpil, 2018.
				</font>
</p>
</div>
<div id="s_chi">
<!--span style=" padding:3px; border-width:thin; border-style:solid;"-->
<span><a href="http://www.bochk.com/creditcard/chi/index.html" style="text-decoration:none; color:black">ç¥é<img border="0" src="/creditcard/images/cross.jpg"/></a></span>
</div>
<div id="s_smp">
<!--span style=" padding:3px; border-width:thin; border-style:solid;"-->
<span><a href="http://www.bochk.com/creditcard/smp/index.html" style="text-decoration:none; color:black">ç¥è¿<img border="0" src="/creditcard/images/cross.jpg"/></a><span id="counter"></span>
</span>
</div>
<div id="s_eng">
<!--span style=" padding:3px; border-width:thin; border-style:solid;"-->
<span><a href="http://www.bochk.com/creditcard/eng/index.html" style="text-decoration:none; color:black">Skip<img border="0" src="/creditcard/images/cross.jpg"/></a><span id="counter"></span>
</span>
</div>
</div>
</body>
</html>