<!DOCTYPE html>
<html lang="en">
<head>
<meta charset="utf-8"/>
<meta content="width=device-width, initial-scale=1, maximum-scale=1" name="viewport"/>
<meta content="" name="description"/>
<meta content="" name="author"/>
<meta content="651276841549-bvsh72ukes8p9b9vllsfmjb18arncscn.apps.googleusercontent.com" name="google-signin-client_id"/>
<title>Book My Yoga Retreats</title>
<!-- Bootstrap core CSS -->
<link href="assets/bootstrap/css/bootstrap.min.css" rel="stylesheet"/>
<link href="assets/bootstrap/css/datepicker.min.css" rel="stylesheet"/>
<!-- Custom fonts for this template -->
<link href="https://fonts.googleapis.com/css?family=Open+Sans|Poppins" rel="stylesheet"/>
<!-- Custom styles for this template -->
<link href="assets/css/style.css" rel="stylesheet"/>
<link crossorigin="anonymous" href="https://use.fontawesome.com/releases/v5.2.0/css/all.css" integrity="sha384-hWVjflwFxL6sNzntih27bfxkr27PmbbK/iSvJ+a4+0owXq79v+lsFkW54bOGbiDQ" rel="stylesheet"/>
<script async="" defer="" src="https://apis.google.com/js/platform.js"></script>
<style type="text/css">
 	.success-icon{
    position: absolute;
    top: -50px;
    left: 40%;
    border-radius: 50%;
    border: 3px solid #28a745;
 	}
 	.danger-icon{
     position: absolute;
    top: -50px;
    left: 40%;
    border-radius: 50%;
    border: 3px solid #dc3545;
 	}
 	.success-modal-content{
 	top: 50px !important;
    position: relative;
 	}
 </style>
<script src="assets/js/Jquery/jquery.min.js"></script>
<script type="text/javascript">
// function onSignIn(googleUser) {
//   var profile = googleUser.getBasicProfile();
//   console.log('ID: ' + profile.getId()); // Do not send to your backend! Use an ID token instead.
//   console.log('Name: ' + profile.getName());
//   console.log('Image URL: ' + profile.getImageUrl());
//   console.log('Email: ' + profile.getEmail()); // This is null if the 'email' scope is not present.
// }
</script>
</head>
<body>
<div id="fb-root"></div>
<script>
  signupWithFacebook = function() {
  FB.login(function(response) {
    if (response.authResponse) {
      // Now you can redirect the user or do an AJAX request to
      // a PHP script that grabs the signed request from the cookie.
      signupAPI();
    } else {
            $("#error-modal").modal("show");
    }
  });
  return false;
};

logInWithFacebook = function() {
FB.login(function(response) {
  if (response.authResponse) {
    // Now you can redirect the user or do an AJAX request to
    // a PHP script that grabs the signed request from the cookie.
    loginAPI();
  } else {
      $("#error-modal").modal("show");
  }
  // window.location.reload();
});
return false;
};
window.fbAsyncInit = function() {
  FB.init({
    appId: '284728532344306',
    cookie: true, // This is important, it's not enabled by default
    version: 'v2.2'
  });
};

(function(d, s, id){
  var js, fjs = d.getElementsByTagName(s)[0];
  if (d.getElementById(id)) {return;}
  js = d.createElement(s); js.id = id;
  js.src = "https://connect.facebook.net/en_US/sdk.js";
  fjs.parentNode.insertBefore(js, fjs);
}(document, 'script', 'facebook-jssdk'));

function loginAPI(){
  FB.api('/me?fields=id,name,first_name,last_name,email,location,birthday,gender', function(response){
    if(response && !response.error){
        //console.log(response);
        $.ajax({
          type: 'POST',
          url: 'ajax/ajax.php',
          data: {
            'response': response,
            'Request': 'FacebookLogin'
          },
          success: function(result)
          {
            console.log(result);
            if (result) {
              window.location.reload();
            }
         }
        });
      }
    });
}

function signupAPI(){
  FB.api('/me?fields=id,name,first_name,last_name,email,location,gender', function(response){
    if(response && !response.error){
        //console.log(response);
        $.ajax({
          type: 'POST',
          url: 'ajax/ajax.php',
          data: {
            'response': response,
            'Request': 'FacebookSignup'
          },
          success: function(result)
          {
            console.log(result);
            $('.modal').modal('hide');
            if (result) {
              $("#success-modal").modal("toggle");
              setTimeout(window.location.reload(), 3000);
            }
            if (!result) {
              $("#error-modal").modal("toggle");
              window.location.reload();
            }
         }
        });
      }
    });
}
</script>
<!-- Navigation -->
<nav class="navbar navbar-expand-lg book-my-yoga-navbar-custom">
<div class="container">
<a class="navbar-brand mobile-hide desktop-show" href="https://bookmyyogaretreats.com"><img src="https://dummyimage.com/250x40/ffffff/000000&amp;text=Book+My+Yoga+Retreats"/></a>
<a class="navbar-brand mobile-show desktop-hide" href="https://bookmyyogaretreats.com"><img src="https://dummyimage.com/200x40/ffffff/000000&amp;text=Book+My+Yoga+Retreats"/></a>
<button aria-controls="yoga-navbar-toggler-reference-id" aria-expanded="false" aria-label="Toggle navigation" class="navbar-toggler" data-target="#yoga-navbar-toggler-reference-id" data-toggle="collapse" id="yoga-header-navbar-toggler" type="button">
<span class="navbar-toggler-icon navbar-toggle"><i class="fas fa-bars text-white pt-1"></i></span>
</button>
<div class="collapse navbar-collapse" id="yoga-navbar-toggler-reference-id">
<ul class="navbar-nav ml-auto">
<li class="nav-item dropdown nav-dropdown-tab mr-3">
<a aria-expanded="false" aria-haspopup="true" class="nav-link dropdown-toggle" data-toggle="dropdown" href="#" id="navbarDropdown" role="button">
            En
          </a>
<div aria-labelledby="navbarDropdown" class="dropdown-menu yoga-home-language-dropdown-menu-show">
<div class="row">
<div class="col">
<label class="radio dropdown-item" href="#">English
                  <input checked="checked" name="is_company" type="radio"/>
<span class="checkround"></span><hr/>
</label>
<label class="radio dropdown-item" href="#">Hindi
                  <input name="is_company" type="radio"/>
<span class="checkround"></span><hr/>
</label>
<label class="radio dropdown-item" href="#">Sanskrit
                  <input name="is_company" type="radio"/>
<span class="checkround"></span><hr/>
</label>
</div>
</div>
</div>
</li>
<li class="nav-item dropdown nav-dropdown-tab mr-3">
<a aria-expanded="false" aria-haspopup="true" class="nav-link dropdown-toggle" data-toggle="dropdown" href="#" id="navbarDropdown" role="button">
            Rs
          </a>
<div aria-labelledby="navbarDropdown" class="dropdown-menu yoga-home-rupees-dropdown-menu-show">
<div class="row">
<div class="col p-3">
<label class="radio dropdown-item" href="#">INR ₹- Indian National Rupees
                  <input checked="checked" name="is_company" type="radio"/>
<span class="checkround"></span><hr/>
</label>
<label class="radio dropdown-item" href="#">RÂ£ - British Pound
                <input checked="checked" name="is_company" type="radio"/>
<span class="checkround"></span><hr/>
</label>
<label class="radio dropdown-item" href="#">R$ - Brazilian Real
                <input name="is_company" type="radio"/>
<span class="checkround"></span><hr/>
</label>
<label class="radio dropdown-item" href="#">CHF - Swiss Franc
                <input name="is_company" type="radio"/>
<span class="checkround"></span><hr/>
</label>
<label class="radio dropdown-item" href="#">CNY - Chinese Renminbi Yuan
               <input checked="checked" name="is_company" type="radio"/>
<span class="checkround"></span><hr/>
</label>
<label class="radio dropdown-item" href="#">CZK - Czech Koruna
                <input checked="checked" name="is_company" type="radio"/> <span class="checkround"></span><hr/>
</label>
<label class="radio dropdown-item" href="#">DKK - Danish Krone
                <input checked="checked" name="is_company" type="radio"/>
<span class="checkround"></span><hr/>
</label>
<label class="radio dropdown-item" href="#">âª - Israeli New Sheqel
               <input checked="checked" name="is_company" type="radio"/>
<span class="checkround"></span><hr/> </label>
</div>
<div class="col p-3">
<label class="radio dropdown-item" href="#">AUD - Australian Dollar
               <input checked="checked" name="is_company" type="radio"/>
<span class="checkround"></span><hr/>
</label>
<label class="radio dropdown-item" href="#">CAD - Canadian Dollar
                <input name="is_company" type="radio"/>
<span class="checkround"></span><hr/>
</label>
<label class="radio dropdown-item" href="#">â¬ - Euro
                <input name="is_company" type="radio"/>
<span class="checkround"></span><hr/>
</label>
<label class="radio dropdown-item" href="#">US$ - United States Dollar
                <input name="is_company" type="radio"/>
<span class="checkround"></span><hr/>
</label>
<label class="radio dropdown-item" href="#">R$ - Brazilian Real
                <input name="is_company" type="radio"/>
<span class="checkround"></span><hr/>
</label>
<label class="radio dropdown-item" href="#">ZAR - South Africa, Rand
                <input name="is_company" type="radio"/>
<span class="checkround"></span><hr/>
</label>
<label class="radio dropdown-item" href="#">TRY - Turkish Lira
                <input name="is_company" type="radio"/>
<span class="checkround"></span><hr/>
</label>
<label class="radio dropdown-item" href="#">Other
                <input name="is_company" type="radio"/>
<span class="checkround"></span><hr/>
+              </label>
<label class="radio dropdown-item" href="#">US $ - United States Dollar
                  <input name="is_company" type="radio"/>
<span class="checkround"></span><hr/>
</label>
</div>
</div>
</div>
</li>
<li class="nav-item mr-3">
<a class="nav-link" href="partners-area/signup.php">Partner</a>
</li>
<li class="nav-item mr-3">
<a class="nav-link" href="contact.php">Contact</a>
</li>
<!-- Navbar Signup -->
<li class="nav-item mr-3 desktop-show">
<!-- Yoga Navbar Signup -->
<button class="btn book-my-yoga-theme-button yoga-navbar-item-signup" data-target="#yoga-signup-reference-id" data-toggle="modal" type="button">Signup</button>
<!--  Navbar Sign Up Model -->
<div aria-hidden="true" aria-labelledby="exampleModalLabel" class="modal fade" id="yoga-signup-reference-id" role="dialog" tabindex="-1">
<div class="modal-dialog" role="document">
<div class="modal-content">
<div class="modal-header">
<button aria-label="Close" class="close" data-dismiss="modal" type="button">
<span aria-hidden="true">×</span>
</button>
</div>
<div class="modal-body">
<div class="row">
<div class="col">
<a class="btn-customer-model" id="defaultOpen" onclick="openYogaSignupForm(event, 'yoga-customer-reference-id')">Customer</a>
</div>
<div class="col">
<a class="btn-partners-model" onclick="openYogaSignupForm(event, 'yoga-partner-reference-id')">Partners</a>
</div>
</div>
<div class="yogaSignupModel" id="yoga-customer-reference-id">
<div class="container">
<div class="row">
<div class="col-md-12">
<div class="col">
<!-- Message -->
</div>
<div class="row">
<div class="col text-center">
<!-- <h4> Customer Signup</h4> -->
<!-- form card login -->
<div class="card">
<div class="card-body1 ">
<form action="https://bookmyyogaretreats.com" method="post">
<div class="card rounded-0">
<div class="card-body p-3">
<!--Body-->
<div class="form-group">
<div class="input-group input-group-lg mb-2">
<div class="input-group-prepend">
<div class="input-group-text"><i class="fa fa-user yoga-text-color"></i></div>
</div>
<input class="form-control form-hover" id="first_name" name="first_name" placeholder="First Name" required="" type="text"/>
</div>
</div>
<div class="form-group">
<div class="input-group input-group-lg mb-2">
<div class="input-group-prepend">
<div class="input-group-text"><i class="fa fa-user yoga-text-color"></i></div>
</div>
<input class="form-control form-hover" id="last_name" name="last_name" placeholder="Last Name" required="" type="text"/>
</div>
</div>
<div class="form-group">
<div class="input-group input-group-lg mb-2">
<div class="input-group-prepend">
<div class="input-group-text"><i class="fa fa-envelope yoga-text-color"></i></div>
</div>
<input class="form-control form-hover" id="email" name="email" placeholder="Email Address" required="" type="email"/>
</div>
</div>
<div class="form-group">
<div class="input-group input-group-lg mb-2">
<div class="input-group-prepend">
<div class="input-group-text"><i class="fas fa-phone yoga-text-color"></i></div>
</div>
<input class="form-control form-hover" id="contact_no" maxlength="15" name="contact_no" placeholder="Contact Number" required="" type="text"/>
</div>
</div>
<div class="form-group">
<div class="input-group input-group-lg mb-2">
<div class="input-group-prepend">
<div class="input-group-text"><i class="fa fa-key yoga-text-color"></i></div>
</div>
<input autocomplete="" class="form-control form-hover" id="password" name="password" placeholder="Password" required="" type="password"/>
</div>
</div>
<div class="text-center mt-3 mb-4">
<input class="btn book-my-yoga-theme-button btn-block rounded-0 py-2" name="customer-homepage-login" type="submit" value="Signup"/>
</div>
<h4 class="text-center"> ~ OR ~ </h4>
<div class="row justify-content-center modal-social-buttons">
<button class="btn fb btn" onclick="signupWithFacebook()" type="button"><i class="fab fa-facebook"></i>  Continue with<b> Facebook</b></button>
<button class="btn bg-white g-signin2" data-height="30" data-longtitle="true" data-onsuccess="onSignIn" data-width="150" type="button"><i class="fab fa-google"></i>  Continue with<b> Google</b></button>
</div>
</div>
</div>
</form>
</div>
<!--/card-block-->
</div>
<!-- /form card login -->
</div>
</div>
<!--/row-->
</div>
<!--/col-->
</div>
<!--/row-->
</div>
<!--/container-->
</div>
<div class="yogaSignupModel" id="yoga-partner-reference-id">
<div class="container text-center">
<a href="partners-area/signup.php"> <input class="btn book-my-yoga-theme-button btn-block rounded-0 py-2" type="submit" value="Partners Signup"/></a>
</div>
<div class="row justify-content-center mt-3 ml-2 mr-2 text-center">
<p>Attract travellers from around the world. Ensure success for your yoga retreats. Learn how.</p>
</div>
</div>
</div>
</div>
</div>
</div>
<!-- .Sign Up Model -->
</li>
<!--  .Yoga Navbar Sign Up -->
<!-- Yoga Navbar Login -->
<li class="nav-item desktop-show">
<div aria-label="Basic example" class="btn-group ml-3" role="group">
<button class="btn book-my-yoga-theme-button yoga-navbar-item-login" data-target="#yoga-login-reference-id" data-toggle="modal" type="button">Login</button>
<!--modal-->
<div aria-labelledby="exampleModalLabel" class="modal fade" id="yoga-login-reference-id" role="dialog" tabindex="-1">
<div class="modal-dialog" role="document">
<div class="modal-content">
<div class="modal-header">
<!-- <div class="tab">
                        <button class="tablinks btn book-my-yoga-theme-button" onclick="openLogin(event,'customerlogin')" id="Open">Customer Login</button>
                        <button class="tablinks btn book-my-yoga-theme-button" onclick="openLogin(event,'partnerlogin')">Partners Login</button>
                      </div> -->
<button aria-label="Close" class="close" data-dismiss="modal" type="button">
<span aria-hidden="true">×</span>
</button>
</div>
<div class="modal-body">
<!-- Message -->
</div>
<div class="row">
<div class="col">
<a class="btn-customer-model" id="Open" onclick="openYogaLogin(event, 'yogaCustomerLogin')">Customer</a>
</div>
<div class="col">
<a class="btn-partners-model" onclick="openYogaLogin(event, 'yogaPartnerLogin')">Partners</a>
</div>
</div>
<div class="yogaLoginModel" id="yogaCustomerLogin">
<div class="container">
<div class="row">
<div class="col-md-12">
<div class="row">
<div class="col text-center">
<!-- form card login -->
<div class="card">
<div class="card-body1 ">
<form action="https://bookmyyogaretreats.com" method="post">
<div class="card rounded-0">
<div class="card-body p-3">
<!--Body-->
<div class="form-group">
<div class="input-group input-group-lg mb-2">
<div class="input-group-prepend">
<div class="input-group-text"><i class="fa fa-user yoga-text-color"></i></div>
</div>
<input class="form-control form-hover" id="c-username" name="username" placeholder="Your Email Address / Mobile Number" required="" type="text"/>
</div>
</div>
<div class="form-group">
<div class="input-group input-group-lg mb-2">
<div class="input-group-prepend">
<div class="input-group-text"><i class="fas fa-key yoga-text-color"></i></div>
</div>
<input autocomplete="" class="form-control form-hover" id="c-password" name="password" placeholder="Your BMYRetreats Password" required="" type="password"/>
</div>
</div>
<div class="form-check">
<label class="form-check-label" for="check1">
<input checked="" class="form-check-input custom-control-description small yoga-text-color" id="check1" name="option1" type="checkbox" value="something"/><span>Terms and conditions apply</span>
</label>
</div>
<div class="text-center mt-3 mb-4">
<input class="btn book-my-yoga-theme-button btn-block rounded-0 py-2" name="yoga-customer-login-submit" type="submit" value="Login"/>
</div>
<a class="btn btn-link yoga-text-color" href="forget-password.php">Forget password?</a>
<h4 class="text-center"> or login via</h4>
<div class="row justify-content-center modal-social-buttons">
<button class="btn fb btn" onclick="logInWithFacebook()" type="button"><i class="fab fa-facebook"></i>  Continue with<b> Facebook</b></button>
<button class="btn bg-white g-signin2" data-height="50" data-longtitle="true" data-onsuccess="onSignIn" data-width="220" type="button"><i class="fab fa-google"></i>  Continue with<b> Google</b></button>
</div>
</div>
</div>
</form>
</div>
<!--/card-block-->
</div>
<!-- /form card login -->
</div>
</div>
<!--/row-->
</div>
<!--/col-->
</div>
<!--/row-->
</div>
<!--/container-->
</div>
<div class="yogaLoginModel" id="yogaPartnerLogin" style="display: none;">
<div class="container text-center">
<a class="btn book-my-yoga-theme-button btn-block rounded-0 py-2" href="partners-area/login.php">
                        Partners Login
                       </a>
</div>
<div class="row justify-content-center mt-3 ml-2 mr-2 text-center">
<p>Attract travellers from around the world. Ensure success for your yoga retreats. Learn how.</p>
</div>
</div>
</div>
</div>
</div>
</div>
</li>
<li class="nav-item dropdown nav-dropdown-tab mr-3 d-none">
<a aria-expanded="false" aria-haspopup="true" class="nav-link dropdown-toggle text-dark" data-toggle="dropdown" href="#" id="navbarDropdown" role="button">
<i class="fas fa-user-circle yoga-text-color"></i> </a>
<div aria-labelledby="navbarDropdown" class="dropdown-menu">
<a class="dropdown-item" href="customer-area/dashboard.php">My Dashboard<hr class="my-0"/></a>
<a class="dropdown-item" href="wishtrip.php">Wishtrip<hr class="my-0"/></a>
<a class="dropdown-item" href="https://bookmyyogaretreats.com/customer-area/logout.php">Logout</a>
</div>
</li>
</ul>
</div>
</div>
</nav>
<!-- .Navbar Login Sign Up -->
<div class="modal fade down" id="success-modal">
<div class="modal-dialog modal-sm">
<div class="modal-content success-modal-content">
<div class="modal-body">
<div class="row">
<div class=" col-sm-12 text-center">
<div class="icon-div">
<i class="fas fa-check-circle bg-success fa-4x text-white success-icon"></i>
</div>
</div>
<div class="col-sm-12 text-center">
<br/><br/>
<h5 class="text-secondary text-center"></h5>
<br/>
<button class="btn btn-success px-5" data-dismiss="modal" type="button">   Ok    </button>
</div>
</div>
</div>
</div>
</div>
</div>
<div class="modal fade down" id="error-modal">
<div class="modal-dialog modal-sm">
<div class="modal-content success-modal-content">
<div class="modal-body">
<div class="row">
<div class=" col-sm-12 text-center">
<div class="icon-div">
<i class="fas fa-times-circle bg-danger fa-4x text-white danger-icon"></i>
</div>
</div>
<div class="col-sm-12 text-center">
<br/><br/>
<h5 class="text-secondary text-center"></h5>
<br/>
<button class="btn btn-danger px-5" data-dismiss="modal" type="button">Try Again</button>
</div>
</div>
</div>
</div>
</div>
</div>
<header class="yoga-header-section text-center text-white mobile-show desktop-hide" style="background-image:url('https://bookmyyogaretreats.com/admin/uploads/slider_img/1324841412745311325746911034411584901689821ojpgdf36591e30a4fd43f9a1c2b29e5bd081jpg7172c4f7a70156f6040fec9f49b3d549.jpg');">
<center>
<div class="jumbotron yoga-jumbotron-header">
<h3 class="text-white mb-3">BOOK MY YOGA RETREATS</h3>
<h6 class="yoga-section-subheading text-white">
        A group of physical, mental, and spiritual practices.
      </h6>
<form class="header-section-form mt-5 text-center">
<div class="col py-1">
<form class="form-inline bg-light">
<input aria-label="Search" class="form-control mr-sm-2 w-100" placeholder="Search" type="search"/>
</form>
</div>
<div class="col py-1">
<button class="btn w-100 form-control text-left" data-target="#durationModal" data-toggle="modal" type="button">
          Any Duration &amp; Arrival Date</button>
<div aria-hidden="true" aria-labelledby="durationModalTitle" class="modal fade" id="durationModal" role="dialog" tabindex="-1">
<div class="modal-dialog" role="document">
<div class="modal-content">
<div class="modal-header">
<h6 class="modal-title" id="durationModalTitle">Any Duration &amp; Arrival Date</h6>
<button aria-label="Close" class="close yoga-text-color" data-dismiss="modal" type="button">
<span aria-hidden="true">×</span>
</button>
</div>
<div class="modal-body">
<div class="row bg-white px-4" id="yogamobileAccordion">
<button class="btn yoga-searchbar-home-duration-btn mt-3 mb-2 text-left" data-target="#durationMobile" data-toggle="collapse" type="button">Exact Date <i class="fa fa-caret-down ml-1 float-right yoga-text-color"></i></button>
<div class="collapse text-left" data-parent="#yogamobileAccordion" id="durationMobile">
<a href="#">1 day before after</a><br/>
<a href="#">2 day before after</a><br/>
<a href="#">3 day before after</a><br/>
</div>
<button class="btn yoga-searchbar-home-duration-btn mt-3 mb-2 text-left" data-target="#dateMobile" data-toggle="collapse" type="button">Exact Date <i class="fa fa-caret-down ml-1 float-right yoga-text-color"></i></button>
<div class="collapse text-left" data-parent="#yogamobileAccordion" id="dateMobile">
<a href="#">1 day before after</a><br/>
<a href="#">2 day before after</a><br/>
<a href="#">3 day before after</a><br/>
</div>
<button class="btn yoga-searchbar-home-duration-btn mt-3 mb-2 text-left" data-target="#arrivalMobile" data-toggle="collapse" type="button">Exact Date <i class="fa fa-caret-down ml-1 float-right yoga-text-color"></i></button>
<div class="collapse text-left" data-parent="#yogamobileAccordion" id="arrivalMobile">
<a href="#">1 day before after</a><br/>
<a href="#">2 day before after</a><br/>
<a href="#">3 day before after</a><br/>
</div>
</div>
<hr/>
<div class="p-2">
<h6 aria-controls="collapseDuration" aria-expanded="false" class="text-left" data-target="#collapseDuration" data-toggle="collapse">Duration<i class="fa fa-caret-down ml-1 float-right yoga-text-color"></i></h6>
<div class="collapse" id="collapseDuration">
<div class="card card-body border-0 text-left p-0">
<a href="#">2 Days</a>
<a href="#">From 3 to 7 Days</a>
<a href="#">From 1 to 2 Weeks</a>
<a href="#">More then 2 Weeks</a>
</div>
</div>
<hr/>
<h6 aria-controls="collapseDuration1" aria-expanded="false" class="text-left" data-target="#collapseDuration1" data-toggle="collapse">Arrival Month<i class="fa fa-caret-down ml-1 float-right yoga-text-color"></i></h6>
<div class="collapse" id="collapseDuration1">
<div class="card card-body border-0 text-left p-0">
<a href="#">2018 September</a>
<a href="#">2018 October</a>
<a href="#">2018 November</a>
<a href="#">2018 december</a>
</div>
</div>
</div>
</div>
</div>
</div>
</div>
</div>
<div class="col py-1" id="area2">
<input class="w-100 form-control" id="FromDate data-header-desktop" placeholder="dd/mm/yy"/>
</div>
<div class="col py-1">
<button class="btn book-my-yoga-theme-button my-2 my-sm-0 w-100" type="submit"><i class="fa fa-search"></i>  Search</button>
</div>
</form>
</div>
</center>
</header>
<!--header section for mobile view-->
<!-- Header section -->
<header class="yoga-header-section text-center text-white desktop-show mobile-hide" style="background-image:url('https://bookmyyogaretreats.com/admin/uploads/slider_img/1324841412745311325746911034411584901689821ojpgdf36591e30a4fd43f9a1c2b29e5bd081jpg7172c4f7a70156f6040fec9f49b3d549.jpg');">
<center>
<div class="jumbotron yoga-jumbotron-header">
<h1 class="display-4 text-white mb-1">BOOK MY YOGA RETREATS</h1>
<h5 class="text-white">
        A group of physical, mental, and spiritual practices.
      </h5>
<form class="header-section-form mt-5 text-center">
<div class="row">
<div class="col-1"></div>
<div class="col-3">
<input aria-label="Search" class="header-form-control mr-sm-2 yoga-search-places" placeholder="Try 'India' or 'Canada'" type="search"/>
</div>
<div class="col-3">
<button aria-controls="collapseDurationdesktop" aria-expanded="false" class="btn w-100 yoga-duration-searchbar-home text-left" data-target="#collapseDurationdesktop" data-toggle="collapse" type="button">   Arrival Duration </button>
<div class="collapse" id="collapseDurationdesktop">
<div class="container">
<div class="row p-1" style="height:252px;">
<div class="col-6 border bg-white" id="yogaarrivalAccordion">
<button class="btn yoga-searchbar-home-duration-btn mt-3 mb-2 text-left" data-target="#duration" data-toggle="collapse" type="button">Exact Date <i class="fa fa-caret-down ml-1 float-right yoga-text-color"></i></button>
<div class="collapse text-left" data-parent="#yogaarrivalAccordion" id="duration">
<a href="#">1 day before after</a><br/>
<a href="#">2 day before after</a><br/>
<a href="#">3 day before after</a><br/>
</div>
<button class="btn yoga-searchbar-home-duration-btn mt-3 mb-2 text-left" data-target="#date" data-toggle="collapse" type="button">Exact Date <i class="fa fa-caret-down ml-1 float-right yoga-text-color"></i></button>
<div class="collapse text-left" data-parent="#yogaarrivalAccordion" id="date">
<a href="#">1 day before after</a><br/>
<a href="#">2 day before after</a><br/>
<a href="#">3 day before after</a><br/>
</div>
<button class="btn yoga-searchbar-home-duration-btn mt-3 mb-2 text-left" data-target="#arrival" data-toggle="collapse" type="button">Exact Date <i class="fa fa-caret-down ml-1 float-right yoga-text-color"></i></button>
<div class="collapse text-left" data-parent="#yogaarrivalAccordion" id="arrival">
<a href="#">1 day before after</a><br/>
<a href="#">2 day before after</a><br/>
<a href="#">3 day before after</a><br/>
</div>
</div>
<div class="col-6 accordion yoga-sidebar-home-section" id="yogaAccordionsearchbar">
<div class="text-left">
<a aria-controls="collapseDestination2" aria-expanded="true" aria-labelledby="collapseDestination2" class="show-more-link" data-toggle="collapse" href="#collapseDestination2" role="button">Duration    <i class=" fa fa-chevron-down float-right yoga-text-color "></i></a>
</div>
<div class="collapse text-left" data-parent="#yogaAccordionsearchbar" id="collapseDestination2">
<a href="#">2 Days</a><br/>
<a href="#">From 3 to 7 Days</a><br/>
<a href="#">From 1 to 2 Weeks</a><br/>
<a href="#">More then 2 Weeks</a><br/>
</div>
<hr/>
<div class="text-left">
<a aria-controls="collapseDestination1" aria-expanded="true" aria-labelledby="collapseDestination1" class="show-more-link" data-toggle="collapse" href="#collapseDestination1" role="button">Arrival Month    <i class=" fa fa-chevron-down float-right yoga-text-color"></i></a>
</div>
<div class="collapse text-left" data-parent="#yogaAccordionsearchbar" id="collapseDestination1">
<a href="#">2018 September</a>
<a href="#">2018 October</a>
<a href="#">2018 November</a>
<a href="#">2018 december</a>
</div>
</div>
</div>
</div>
</div>
</div>
<div class="col-3" id="area1">
<input aria-expanded="true" aria-label="datepicker" autocomplete="off" class="header-form-control mr-sm-2 yoga-search-calender w-100" data-toggle="dropdown" id="FromDate" placeholder="Any duration &amp; arrival date" type="text"/>
</div>
<div class="col-1">
<button class="btn my-2 my-sm-0 header-slider-search-button" type="submit"><i class="fa fa-search"></i> Search</button>
</div>
<div class="col-1">
</div>
</div>
</form>
</div>
</center>
</header>
<!--.header section for mobile view-->
<section class="yoga-listing-background">
<div class="container yoga-listing-sidebar py-2">
<div class="row">
<div class="col-3 mobile-hide">
<div class="col accordion yoga-sidebar-home-section" id="yogaAccordionSidebar">
<h6>Destination</h6><hr/>
<div class="custom-control custom-checkbox my-1 mr-sm-2 mb-2">
<input class="custom-control-input" id="customControlInline" type="checkbox"/>
<label class="custom-control-label" for="customControlInline">Haridwar</label>
<i class="float-right">12</i>
</div>
<div class="custom-control custom-checkbox my-1 mr-sm-2 mb-2">
<input class="custom-control-input" id="customControlInline2" type="checkbox"/>
<label class="custom-control-label" for="customControlInline2">Rishikesh</label>
<i class=" float-right">2</i>
</div>
<div class="custom-control custom-checkbox my-1 mr-sm-2 mb-2">
<input class="custom-control-input" id="customControlInline3" type="checkbox"/>
<label class="custom-control-label" for="customControlInline3">Goa</label>
<i class=" float-right">21</i>
</div>
<div class="collapse" data-parent="#yogaAccordionSidebar" id="collapseDestination">
<div class="custom-control custom-checkbox my-1 mr-sm-2 mb-2">
<input class="custom-control-input" id="customControlInline4" type="checkbox"/>
<label class="custom-control-label" for="customControlInline4">Haridwar</label>
<i class="float-right">12</i>
</div>
<div class="custom-control custom-checkbox my-1 mr-sm-2 mb-2">
<input class="custom-control-input" id="customControlInline5" type="checkbox"/>
<label class="custom-control-label" for="customControlInline5">Rishikesh</label>
<i class=" float-right">2</i>
</div>
<div class="custom-control custom-checkbox my-1 mr-sm-2 mb-2">
<input class="custom-control-input" id="customControlInline6" type="checkbox"/>
<label class="custom-control-label" for="customControlInline6">Goa</label>
<i class=" float-right">21</i>
</div>
</div>
<div class="mt-3">
<a aria-controls="collapseDestination" aria-expanded="true" aria-labelledby="collapseDestination" class="show-more-link" data-toggle="collapse" href="#collapseDestination" role="button">Show more                                 <i class=" fa fa-chevron-down float-right yoga-text-color "></i></a>
</div>
</div>
<div class="col mt-2 yoga-sidebar-home-section" id="yogaAccordionSidebar">
<h6>Duration</h6><hr/>
<div class="custom-control custom-checkbox my-1 mr-sm-2 mb-2">
<input class="custom-control-input" id="customControlInline-7" type="checkbox"/>
<label class="custom-control-label" for="customControlInline-7">1- 5 Aug</label>
<i class="float-right">216</i>
</div>
<div class="custom-control custom-checkbox my-1 mr-sm-2 mb-2">
<input class="custom-control-input" id="customControlInline8" type="checkbox"/>
<label class="custom-control-label" for="customControlInline8">5- 12 Aug</label>
<i class=" float-right">56</i>
</div>
<div class="custom-control custom-checkbox my-1 mr-sm-2 mb-2">
<input class="custom-control-input" id="customControlInline9" type="checkbox"/>
<label class="custom-control-label" for="customControlInline9">14- 30 Aug</label>
<i class=" float-right">58</i>
</div>
<div class="collapse" data-parent="#yogaAccordionSidebar" id="yogaDuration">
<div class="custom-control custom-checkbox my-1 mr-sm-2 mb-2">
<input class="custom-control-input" id="customControlInline10" type="checkbox"/>
<label class="custom-control-label" for="customControlInline10">1- 5 Aug</label>
<i class="float-right">216</i>
</div>
<div class="custom-control custom-checkbox my-1 mr-sm-2 mb-2">
<input class="custom-control-input" id="customControlInline11" type="checkbox"/>
<label class="custom-control-label" for="customControlInline11">5- 12 Aug</label>
<i class=" float-right">56</i>
</div>
<div class="custom-control custom-checkbox my-1 mr-sm-2 mb-2">
<input class="custom-control-input" id="customControlInline12" type="checkbox"/>
<label class="custom-control-label" for="customControlInline12">14- 30 Aug</label>
<i class=" float-right">58</i>
</div>
</div>
<div class="mt-3">
<a aria-controls="collapseDestination" aria-expanded="true" aria-labelledby="yogaDuration" class="show-more-link" data-toggle="collapse" href="#yogaDuration" role="button">Show more                                 <i class=" fa fa-chevron-down float-right yoga-text-color"></i></a>
</div>
</div>
<div class="col mt-2 yoga-sidebar-home-section">
<h6>Food Type</h6><hr/>
<div class="custom-control custom-checkbox my-1 mr-sm-2 mb-2">
<input class="custom-control-input" id="customControlInline13" type="checkbox"/>
<label class="custom-control-label" for="customControlInline13">Vegitarian</label>
<i class=" float-right">45</i>
</div>
<div class="custom-control custom-checkbox my-1 mr-sm-2 mb-2">
<input class="custom-control-input" id="customControlInline14" type="checkbox"/>
<label class="custom-control-label" for="customControlInline14">Non - Vegitarian</label>
<i class=" float-right">66</i>
</div>
<div class="custom-control custom-checkbox my-1 mr-sm-2 mb-2">
<input class="custom-control-input" id="customControlInline15" type="checkbox"/>
<label class="custom-control-label" for="customControlInline15">Mix</label>
<i class=" float-right">25</i>
</div>
<div class="collapse" data-parent="#yogaAccordionSidebar" id="yogaFoodType">
<div class="custom-control custom-checkbox my-1 mr-sm-2 mb-2">
<input class="custom-control-input" id="customControlInline13" type="checkbox"/>
<label class="custom-control-label" for="customControlInline13">Vegitarian</label>
<i class=" float-right">45</i>
</div>
<div class="custom-control custom-checkbox my-1 mr-sm-2 mb-2">
<input class="custom-control-input" id="customControlInline14" type="checkbox"/>
<label class="custom-control-label" for="customControlInline14">Non - Vegitarian</label>
<i class=" float-right">66</i>
</div>
<div class="custom-control custom-checkbox my-1 mr-sm-2 mb-2">
<input class="custom-control-input" id="customControlInline15" type="checkbox"/>
<label class="custom-control-label" for="customControlInline15">Mix</label>
<i class=" float-right">25</i>
</div>
</div>
<div class="mt-3">
<a aria-controls="yogaDuration" aria-expanded="true" aria-labelledby="yogaFoodType" class="show-more-link" data-toggle="collapse" href="#yogaFoodType" role="button">Show more                                 <i class=" fa fa-chevron-down float-right yoga-text-color"></i></a>
</div>
</div>
<div class="col mt-2 yoga-sidebar-home-section">
<h6>Categories</h6><hr/>
<div class="custom-control custom-checkbox my-1 mr-sm-2 mb-2">
<input class="custom-control-input" id="customControlInline16" type="checkbox"/>
<label class="custom-control-label" for="customControlInline16">Trainer</label>
<i class="float-right">25</i>
</div>
<div class="custom-control custom-checkbox my-1 mr-sm-2 mb-2">
<input class="custom-control-input" id="customControlInline17" type="checkbox"/>
<label class="custom-control-label" for="customControlInline17">Luxury</label>
<i class=" float-right">11</i>
</div>
<div class="custom-control custom-checkbox my-1 mr-sm-2 mb-2">
<input class="custom-control-input" id="customControlInline18" type="checkbox"/>
<label class="custom-control-label" for="customControlInline18">Summer Training</label>
<i class=" float-right">48</i>
</div>
<div class="mt-3">
<a class="show-more-link" href="#">Show more<i class=" fa fa-chevron-down float-right yoga-text-color"></i></a>
</div>
</div>
<div class="col mt-2 yoga-sidebar-home-section">
<h6>Month Wise</h6><hr/>
<div class="custom-control custom-checkbox my-1 mr-sm-2 mb-2">
<input class="custom-control-input" id="customControlInline19" type="checkbox"/>
<label class="custom-control-label" for="customControlInline19">August</label>
<i class="float-right">6</i>
</div>
<div class="custom-control custom-checkbox my-1 mr-sm-2 mb-2">
<input class="custom-control-input" id="customControlInline20" type="checkbox"/>
<label class="custom-control-label" for="customControlInline20">September</label>
<i class=" float-right">12</i>
</div>
<div class="custom-control custom-checkbox my-1 mr-sm-2 mb-2">
<input class="custom-control-input" id="customControlInline21" type="checkbox"/>
<label class="custom-control-label" for="customControlInline21">October</label>
<i class=" float-right">35</i>
</div>
<div class="mt-3">
<a class="show-more-link" href="#">Show more </a><i class=" fa fa-chevron-down float-right yoga-text-color"></i>
</div>
</div>
<div class="col mt-2 yoga-sidebar-home-section" id="yogaAccordionSidebar">
<h6>Package Type</h6><hr/>
<div class="custom-control custom-checkbox my-1 mr-sm-2 mt-2 mb-2">
<input class="custom-control-input" id="customControlInline-6" type="checkbox"/>
<label class="custom-control-label" for="customControlInline-6">Monthly</label>
<i class="float-right">41</i>
</div>
<div class="custom-control custom-checkbox my-1 mr-sm-2 mb-2">
<input class="custom-control-input" id="customControlInline-6-2" type="checkbox"/>
<label class="custom-control-label" for="customControlInline-6-2">Yearly</label>
<i class=" float-right">74</i>
</div>
<div class="custom-control custom-checkbox my-1 mr-sm-2 mb-2">
<input class="custom-control-input" id="customControlInline-6-3" type="checkbox"/>
<label class="custom-control-label" for="customControlInline-6-3">Short Term</label>
<i class=" float-right">85</i>
</div>
<div class="mt-3">
<a class="show-more-link" href="#">Show more </a><i class="fa fa-chevron-down float-right yoga-text-color"></i>
</div>
</div>
</div>
<div class="col-lg-9 col-sm-auto">
<!-- Programs Container -->
<div class="container">
<div class="row bg-white">
<div class="col-6 p-3">
<select class="" name="">
<option value="">Sort By</option>
<option value="">Recommended</option>
<option value="">Popular</option>
<option value="">Price low to high</option>
<option value="">Price high to low</option>
<option value="">Price per day low to high</option>
<option value="">Price per day high to low</option>
</select>
</div>
<div class="col-6 mobile-hide text-right p-3">
<small aria-controls="collapseMorelisting" aria-expanded="false" data-toggle="collapse" href="#collapseMorelisting" id="dropdownMenu2" role="button">MORE  :<i class="fa fa-caret-down ml-1"></i></small>
</div>
<div class="collapse multi-collapse" id="collapseMorelisting">
<span class="badge badge-pill badge-tag">
            Anusara Yoga
            <!-- <i class="fa fa-times ml-3"></i> -->
</span>
<span class="badge badge-pill badge-tag">
            Ashtanga Yoga
            <!-- <i class="fa fa-times ml-3"></i> -->
</span>
<span class="badge badge-pill badge-tag">
            Ayurveda Yoga
            <!-- <i class="fa fa-times ml-3"></i> -->
</span>
<span class="badge badge-pill badge-tag">
            Bikram / Hot Yoga
            <!-- <i class="fa fa-times ml-3"></i> -->
</span>
<span class="badge badge-pill badge-tag">
            Hatha Yoga
            <!-- <i class="fa fa-times ml-3"></i> -->
</span>
<span class="badge badge-pill badge-tag">
            Iyengar Yoga
            <!-- <i class="fa fa-times ml-3"></i> -->
</span>
<span class="badge badge-pill badge-tag">
            Kundalini Yoga
            <!-- <i class="fa fa-times ml-3"></i> -->
</span>
<span class="badge badge-pill badge-tag">
            Tantra Yoga
            <!-- <i class="fa fa-times ml-3"></i> -->
</span>
</div>
</div>
</div>
<div class="container col-12 pb-3 mb-5">
<!-- Row -->
<div class="row program-row-yoga">
<!-- Content Goes Here -->
<div class="col-sm-4 col-12 program-image-yoga justify-content-center">
<div class="carousel slide" data-interval="false" data-ride="carousel" id="program-carousel">
<div class="carousel-inner ml-auto mr-auto"><div class="carousel-item active">
<img height="230" src="https://bookmyyogaretreats.com/partners-area/dashboard-2/uploads/programs/Hydrangeasjpgd92d75ad19219baddaf3c118c3422f91.jpg" width="300"/>
</div><div class="carousel-item">
<img height="230" src="https://bookmyyogaretreats.com/partners-area/dashboard-2/uploads/programs/Jellyfishjpgd92d75ad19219baddaf3c118c3422f91.jpg" width="300"/>
</div><div class="carousel-item">
<img height="230" src="https://bookmyyogaretreats.com/partners-area/dashboard-2/uploads/programs/Lighthousejpgd92d75ad19219baddaf3c118c3422f91.jpg" width="300"/>
</div></div>
<a class="carousel-control-prev" data-slide="prev" href="#program-carousel">
<span class="carousel-control-prev-icon"></span>
</a>
<a class="carousel-control-next" data-slide="next" href="#program-carousel">
<span class="carousel-control-next-icon"></span>
</a>
</div>
</div>
<div class="col-sm-4 col-6">
<h4 class="yoga-text-color">Yoga Teacher Training</h4>
<p> Available from Aug till Oct</p>
<!--new-->
<div class="custom-control text-primary-color mobile-hide">
</div>
<div class="text-primary-color align-bottom align-bottom">
<p>Yoga Teacher Training</p>
</div>
</div>
<div class="col-sm-4 col-6 float-right">
<h6 class="text-primary-color ">Excellent 10/10</h6>
<span><button class="btn program-wish-btn align-bottom" title="Add To Favourite" type="button"><i class="fas fa-heart yoga-text-color"></i></button></span>
<div class="text-primary-color">
<h6>163 Reviews</h6>
</div>
<div class="text-primary-color mt-4">
<span>From</span>
<h3>Rs 1200</h3>
<small>Price for</small><br/>
<i class="far fa-user yoga-text-color"></i> 1 Person<br/>
<i class="far fa-calendar-alt yoga-text-color"></i> 27 days/28 nights
						<a class="btn book-my-yoga-theme-button btn-block mt-1 mobile-detail-btn" href="single-program-page.php?Yoga+Teacher+Training">See Details</a>
</div>
</div>
<!-- .Content -->
</div>
<!-- .Row --><!-- Row -->
<div class="row program-row-yoga">
<!-- Content Goes Here -->
<div class="col-sm-4 col-12 program-image-yoga justify-content-center">
<div class="carousel slide" data-interval="false" data-ride="carousel" id="program-carousel">
<div class="carousel-inner ml-auto mr-auto"><div class="carousel-item active">
<img height="230" src="https://bookmyyogaretreats.com/partners-area/dashboard-2/uploads/programs/Hydrangeasjpgd92d75ad19219baddaf3c118c3422f91.jpg" width="300"/>
</div><div class="carousel-item">
<img height="230" src="https://bookmyyogaretreats.com/partners-area/dashboard-2/uploads/programs/Jellyfishjpgd92d75ad19219baddaf3c118c3422f91.jpg" width="300"/>
</div><div class="carousel-item">
<img height="230" src="https://bookmyyogaretreats.com/partners-area/dashboard-2/uploads/programs/Lighthousejpgd92d75ad19219baddaf3c118c3422f91.jpg" width="300"/>
</div></div>
<a class="carousel-control-prev" data-slide="prev" href="#program-carousel">
<span class="carousel-control-prev-icon"></span>
</a>
<a class="carousel-control-next" data-slide="next" href="#program-carousel">
<span class="carousel-control-next-icon"></span>
</a>
</div>
</div>
<div class="col-sm-4 col-6">
<h4 class="yoga-text-color">Yoga Teacher Training</h4>
<p> Available from Aug till Oct</p>
<!--new-->
<div class="custom-control text-primary-color mobile-hide">
</div>
<div class="text-primary-color align-bottom align-bottom">
<p>Additional information about program.</p>
</div>
</div>
<div class="col-sm-4 col-6 float-right">
<h6 class="text-primary-color ">Excellent 10/10</h6>
<span><button class="btn program-wish-btn align-bottom" title="Add To Favourite" type="button"><i class="fas fa-heart yoga-text-color"></i></button></span>
<div class="text-primary-color">
<h6>163 Reviews</h6>
</div>
<div class="text-primary-color mt-4">
<span>From</span>
<h3>Rs 1200</h3>
<small>Price for</small><br/>
<i class="far fa-user yoga-text-color"></i> 1 Person<br/>
<i class="far fa-calendar-alt yoga-text-color"></i> /
						<a class="btn book-my-yoga-theme-button btn-block mt-1 mobile-detail-btn" href="single-program-page.php?Yoga+Teacher+Training">See Details</a>
</div>
</div>
<!-- .Content -->
</div>
<!-- .Row --><!-- Row -->
<div class="row program-row-yoga">
<!-- Content Goes Here -->
<div class="col-sm-4 col-12 program-image-yoga justify-content-center">
<div class="carousel slide" data-interval="false" data-ride="carousel" id="program-carousel">
<div class="carousel-inner ml-auto mr-auto"><div class="carousel-item active">
<img height="230" src="https://bookmyyogaretreats.com/partners-area/dashboard-2/uploads/programs/Hydrangeasjpgd92d75ad19219baddaf3c118c3422f91.jpg" width="300"/>
</div><div class="carousel-item">
<img height="230" src="https://bookmyyogaretreats.com/partners-area/dashboard-2/uploads/programs/Jellyfishjpgd92d75ad19219baddaf3c118c3422f91.jpg" width="300"/>
</div><div class="carousel-item">
<img height="230" src="https://bookmyyogaretreats.com/partners-area/dashboard-2/uploads/programs/Lighthousejpgd92d75ad19219baddaf3c118c3422f91.jpg" width="300"/>
</div><div class="carousel-item active">
<img height="230" src="https://bookmyyogaretreats.com/partners-area/dashboard-2/uploads/programs/DSC05625JPGd26eec9e3b1ff70d67bd7de94c1561c8.JPG" width="300"/>
</div></div>
<a class="carousel-control-prev" data-slide="prev" href="#program-carousel">
<span class="carousel-control-prev-icon"></span>
</a>
<a class="carousel-control-next" data-slide="next" href="#program-carousel">
<span class="carousel-control-next-icon"></span>
</a>
</div>
</div>
<div class="col-sm-4 col-6">
<h4 class="yoga-text-color">200 Hours Yoga Teacher Training In Rishikesh India</h4>
<p> Available from Aug till Oct</p>
<!--new-->
<div class="custom-control text-primary-color mobile-hide">
</div>
<div class="text-primary-color align-bottom align-bottom">
<p>dsadasdasdasasasdasdassd</p>
</div>
</div>
<div class="col-sm-4 col-6 float-right">
<h6 class="text-primary-color ">Excellent 10/10</h6>
<span><button class="btn program-wish-btn align-bottom" title="Add To Favourite" type="button"><i class="fas fa-heart yoga-text-color"></i></button></span>
<div class="text-primary-color">
<h6>163 Reviews</h6>
</div>
<div class="text-primary-color mt-4">
<span>From</span>
<h3>Rs 1200</h3>
<small>Price for</small><br/>
<i class="far fa-user yoga-text-color"></i> 1 Person<br/>
<i class="far fa-calendar-alt yoga-text-color"></i> 28 Days/27 Nights
						<a class="btn book-my-yoga-theme-button btn-block mt-1 mobile-detail-btn" href="single-program-page.php?200+Hours+Yoga+Teacher+Training+In+Rishikesh+India">See Details</a>
</div>
</div>
<!-- .Content -->
</div>
<!-- .Row --> <!--pagination-->
<div class="container mt-5 d-none">
<ul class="pagination justify-content-md-center">
<li class="page-item"><a class="page-link" href="#">Previous</a></li>
<li class="page-item"><a class="page-link" href="#">1</a></li>
<li class="page-item active"><a class="page-link" href="#">2</a></li>
<li class="page-item"><a class="page-link" href="#">3</a></li>
<li class="page-item"><a class="page-link" href="#">Next</a></li>
</ul>
</div>
<!--.pagination-->
<!-- .Row -->
</div>
<!-- .Program -->
</div>
</div>
</div>
</section>
<!--new carousel for reviews-->
<section class="container">
<div class="row mt-5">
<div class="col text-center yoga-retreats-heading">
<h2>REVIEWS FROM <b>TRUSTPILOT</b></h2>
<img class="yoga-section-hr-png p-3" src="assets/img/hr.png"/>
<h6 class="text-center text-primary-color yoga-section-subheading">Rated 9 out of 10 (Excellent) in 268 reviews</h6>
</div>
</div>
<div class="row">
<div class="col yoga-home-review-background">
<div class="card yoga-home-review-container">
<div class="carousel slide" data-ride="carousel" id="carouselExampleIndicators">
<ol class="carousel-indicators">
<li data-slide-to="0" data-target="#carouselExampleIndicators">
<img alt="" class="rounded-circle" src="https://amirgroupinc.com/wp-content/uploads/2015/07/icon4.png"/>
</li>
<li class="active" data-slide-to="1" data-target="#carouselExampleIndicators">
<img alt="" class="rounded-circle" src="https://amirgroupinc.com/wp-content/uploads/2015/07/icon4.png"/>
</li>
<li data-slide-to="2" data-target="#carouselExampleIndicators">
<img alt="" class="rounded-circle" src="https://amirgroupinc.com/wp-content/uploads/2015/07/icon4.png"/>
</li>
</ol>
<div class="w-100 carousel-inner" role="listbox">
<div class="carousel-item">
<div class="carousel-caption yoga-reviews-sections">
<div class="row">
<div class="col col-sm-12">
<small class="text-primary-color">1Cras justo odio, dapibus ac facilisis in, egestas eget quam. Donec id elit non mi porta gravida at eget metus. Nullam id dolor id nibh ultricies vehicula ut id elit.egestas eget dine. </small>
<div class="yoga-text-color mt-4">
<h4 class="text-info">Yayo Dudemous</h4>
<h6 class="text-primary-color">Pune, India</h6>
</div>
</div>
</div>
</div>
</div>
<div class="carousel-item active">
<div class="carousel-caption yoga-reviews-sections">
<div class="row">
<div class="col">
<small class="text-primary-color">2Cras justo odio, dapibus ac facilisis in, egestas eget quam. Donec id elit non mi porta gravida at eget metus. Nullam id dolor id nibh ultricies vehicula ut id elit.egestas eget quam. Donec id elit non mi porta gravida at eget metus.Physical tiger-team network decay sign dome narrative. </small>
<div class="yoga-text-color mt-4">
<h4 class="text-info">Yayo Dudemous</h4>
<h6 class="text-primary-color">Pune, India</h6>
</div>
</div>
</div>
</div>
</div>
<div class="carousel-item">
<div class="carousel-caption yoga-reviews-sections">
<div class="row">
<div class="col">
<small class="text-primary-color">3Cras justo odio, dapibus ac facilisis in, egestas eget quam. Donec id elit non mi porta gravida at eget metus. Nullam id dolor id nibh ultricies vehicula ut id elit.egestas eget quam. Donec id elit non mi porta gravida at eget metus.Lights semiotics numinous corporation motion footage boy.</small>
<div class="yoga-text-color mt-4">
<h4 class="text-info">Yayo Dudemous</h4>
<h6 class="text-primary-color">Pune, India</h6>
</div>
</div>
</div>
</div>
</div>
<a class="carousel-control-prev" data-slide="prev" href="#carouselExampleIndicators" role="button">
<span aria-hidden="true" class="fa fa-angle-left yoga-text-color h1 mb-5"></span>
<span class="sr-only">Previous</span>
</a>
<a class="carousel-control-next" data-slide="next" href="#carouselExampleIndicators" role="button">
<span aria-hidden="true" class="fa fa-angle-right yoga-text-color h1 mb-5"></span>
<span class="sr-only">Next</span>
</a>
</div>
</div>
</div>
</div>
</div>
</section>
<!--.new carousel for reviews-->
<!--newsletter-->
<section class="yoga-newsletter-background">
<div class="container">
<div class="row p-5">
<div class="col text-center">
<h2 class="mb-3 mt-3"><strong>Subscribe to our mailing list</strong></h2>
<h6 class="text-primary-color yoga-section-subheading">Be the first to get latest news and offers!</h6>
<h6 class="text-primary-color yoga-section-subheading">15,000+ Subscribers</h6>
<div>
<form class="form-group yoga-newsletter-form mt-5">
<input aria-describedby="basic-addon2" aria-label="Recipient's username" class="yoga-newsletter-email-input" placeholder="Username@domain.com" type="text"/>
<button class="yoga-newsletter-subscribe-button" type="button">Subscribe</button>
</form>
</div>
</div>
</div>
</div>
</section>
<!--ends here-->
<!--our blogs section-->
<section class="container blog-section py-5">
<div class="row">
<div class="col text-center yoga-retreats-heading">
<h2>OUR <b>BLOGS</b></h2>
<img class="yoga-section-hr-png p-3" src="assets/img/hr.png"/>
<h6 class="text-center text-primary-color yoga-section-subheading">We work with a dynamic team of hosts, organizers, and instructors. Get to know them, get to know us.</h6>
</div>
</div>
<div class="row mt-5">
<div class="col blog-cards my-3">
<div class="card yoga-blogs-card-shadow" style="width: 100%">
<img alt="Card image cap" class="card-img-top" src="https://dummyimage.com/350x250/000/fff" width="227"/>
<div class="card-body">
<div class="row text-secondary">
<div class="col-6">
<span class="float-left">16 July,2018</span>
</div>
<div class="col text-right">
<i class="far fa-comments yoga-icon-font-size"> 3  </i>
<i class="far fa-heart yoga-icon-font-size"> 5</i>
</div>
</div>
<div class="text-primary-color mt-4">
<h5 class="yoga-text-color">Tips for taking a long term trip with kids</h5>
<span>Travelling and motorbikes have always been my passion. I would like to share some of my experience to provide you a vacation...</span><br/>
<h6 class="yoga-text-color mt-4">Read more..</h6>
</div>
</div>
</div>
</div>
<div class="col blog-cards my-3">
<div class="card yoga-blogs-card-shadow" style="width: 100%;">
<img alt="Card image cap" class="card-img-top" src="https://dummyimage.com/350x250/000/fff" width="227"/>
<div class="card-body">
<div class="row text-secondary">
<div class="col-6">
<span class="float-left">16 July,2018</span>
</div>
<div class="col text-right">
<i class="far fa-comments yoga-icon-font-size"> 3  </i>
<i class="far fa-heart yoga-icon-font-size"> 5</i>
</div>
</div>
<div class="text-primary-color mt-4">
<h5 class="yoga-text-color">Tips for taking a long term trip with kids</h5>
<span>Travelling and motorbikes have always been my passion. I would like to share some of my experience to provide you a vacation...</span><br/>
<h6 class="yoga-text-color mt-4">Read more..</h6>
</div>
</div>
</div>
</div>
<div class="col blog-cards my-3">
<div class="card yoga-blogs-card-shadow" style="width:100%">
<img alt="Card image cap" class="card-img-top" src="https://dummyimage.com/350x250/000/fff" width="227"/>
<div class="card-body">
<div class="row text-secondary">
<div class="col-6">
<span class="float-left">16 July,2018</span>
</div>
<div class="col text-right">
<i class="far fa-comments yoga-icon-font-size"> 3  </i>
<i class="far fa-heart yoga-icon-font-size"> 5</i>
</div>
</div>
<div class="text-primary-color mt-4">
<h5 class="yoga-text-color">Tips for taking a long term trip with kids</h5>
<span>Travelling and motorbikes have always been my passion. I would like to share some of my experience to provide you a vacation...</span><br/>
<h6 class="yoga-text-color mt-4">Read more..</h6>
</div>
</div>
</div>
</div>
</div>
<!--after header section-->
</section>
<!--.blogs section-->
<!--bottom contact section-->
<section class="container-fluid px-5 yoga-bottom-contact-section text-white" style="padding-top: 35px;">
<div class="container pt-3">
<div class="row justify-content-md-center">
<div class="yoga-address-details-col">
<div class="col col-md-auto mt-5">
<h3 class="mt-0 text-center">OFFICE</h3>
<div class="container text-center">
<h4 class="mt-5">Address</h4>
<span>Singel 542, 1017 AZ Amsterdam, The Netherlands</span>
</div>
<div class="container text-center">
<h4 class="mt-4">Phone No.</h4>
<span>987654321 | 8978987652 </span>
</div>
<div class="container text-center">
<h4 class="mt-4">Email</h4>
<span>info.bookmyyogaretreats@gmail.com</span><br/>
<span>info.bookmyyogaretreats@gmail.com</span>
</div>
</div>
</div>
<div class="yoga-bottom-contact-form-col mobile-hide">
<div class="col col-md-auto mt-5">
<h3 class="mt-0 text-center">CONTACT US</h3>
<form action="index.php" class="mt-5" id="yoga_contact_form" method="POST">
<div style="width:100%;">
<p>FULL NAME</p>
<input name="name"/>
</div>
<div style="width:47%;">
<p>EMAIL</p>
<input name="email"/>
</div>
<div style="width:47%;margin-left:6%">
<p>PHONE</p>
<input name="phone"/>
</div>
<div style="width:100%;">
<p>QUERY OR COMMENT</p>
<textarea name="comment"></textarea>
<input name="contact-form-submit" type="hidden"/>
</div>
<p>
<a class="text-white" false="" href="contact-msg.php" return="">SEND QUERY</a>
</p>
</form>
</div>
</div>
</div>
</div>
</section>
<!-- Footer -->
<div style="color: #b9b9b9; background-color: #0f292f;">
<footer class="container py-5">
<div class="row py-5 mobile-hide">
<div class="col">
<div class="row">
<div class="col">
<img src="https://dummyimage.com/250x200/333/fff"/>
</div>
<div class="col">
<img src="https://dummyimage.com/250x200/3aa/fff"/>
</div>
</div>
</div>
<div class="col ">
<h5 class="footer-heading">Most Popular Programs</h5>
<span class="badge badge-secondary footer-blog-badge"><a class="text-white" href="single-program-page.php?Yoga+Teacher+Training">Yoga Teacher Training</a></span><span class="badge badge-secondary footer-blog-badge"><a class="text-white" href="single-program-page.php?test">test</a></span><span class="badge badge-secondary footer-blog-badge"><a class="text-white" href="single-program-page.php?Yoga+Teacher+Training">Yoga Teacher Training</a></span><span class="badge badge-secondary footer-blog-badge"><a class="text-white" href="single-program-page.php?200+Hours+Yoga+Teacher+Training+In+Rishikesh+India">200 Hours Yoga Teacher Training In Rishikesh India</a></span> </div>
</div>
<div class="row">
<div class="col-12 col-md mobile-hide">
<div class="col-6 col-md">
<h5 class="footer-heading">Popular</h5>
<ul class="list-unstyled text-small">
<li><a class="text-muted" href="#">Yoga Institute In India</a></li>
<li><a class="text-muted" href="#">Yoga Institute Worldwide</a></li>
<li><a class="text-muted" href="#">Yoga Institute Worldwide Includes Major Country</a></li>
</ul>
</div>
</div>
<div class="col-6 col-md">
<h5 class="footer-heading">Social Links</h5>
<ul class="list-unstyled text-small">
<li><a class="text-muted" href=""><i class="fab fa-facebook tetext-muted"></i> Facebook</a></li>
<li><a class="text-muted" href=""><i class="fab fa-youtube text-muted"></i> Youtube</a></li>
<li><a class="text-muted" href=""><i class="fab fa-instagram text-muted"></i> Instagram</a></li>
<li><a class="text-muted" href=""><i class="fab fa-linkedin-in tetext-muted"></i> Linked In</a></li>
<li><a class="text-muted" href=""><i class="fab fa-pinterest text-whitetext-muted"></i> Pinterest</a></li>
</ul>
</div>
<div class="col-6 col-md">
<h5 class="footer-heading">Quick Links</h5>
<ul class="list-unstyled text-small">
<li><a class="text-muted" href="#">Site Map</a></li>
<li><a class="text-muted" href="#">Recent Blog</a></li>
<li><a class="text-muted" href="#">Another resource</a></li>
<li><a class="text-muted" href="#">Final resource</a></li>
</ul>
</div>
<div class="col-6 col-md">
<h5 class="footer-heading">Partners</h5>
<ul class="list-unstyled text-small">
<li><a class="text-muted" href="#">Become An Affiliate</a></li>
<li><a class="text-muted" data-target="#yoga-partner-dashboard-2-login-reference-id" data-toggle="modal" href="#">Partner Area</a></li>
<li><a class="text-muted" href="#">Add / Manage Your Business</a></li>
</ul>
</div>
<div class="col-6 col-md">
<h5 class="footer-heading">Book My Yoga Retreats</h5>
<ul class="list-unstyled text-small">
<li><a class="text-muted" href="about.php">About us</a></li>
<li><a class="text-muted" href="contact.php">Contact</a></li>
<li><a class="text-muted" href="blogs.php">Blogs</a></li>
<li><a class="text-muted" data-target="#yogaNewsletter" data-toggle="modal" href="#">Newsletter Sign Up</a></li>
<li><a class="text-muted" href="about.php">Write For Us</a></li>
<li><a class="text-muted" href="terms-and-conditions.php">Terms and Privacy</a></li>
</ul>
<!-- Modal for newsletter-->
<div aria-hidden="true" aria-labelledby="exampleModalCenterTitle" class="modal fade" id="yogaNewsletter" role="dialog" tabindex="-1">
<div class="modal-dialog modal-dialog-centered" role="document">
<div class="modal-content">
<div class="modal-header">
<button aria-label="Close" class="close" data-dismiss="modal" type="button">
<span aria-hidden="true">×</span>
</button>
</div>
<div class="modal-body">
<div class="row">
<div class="col-md-12 col-12 text-center heading">
<i aria-hidden="true" class="fa fa-envelope"></i>
<h2 class="mb-3 mt-3"><strong>NEWSLETTER</strong></h2>
<h5 class="mb-4 mt-4">Subscribe our newsletter to receive the latest news and exclusive offers every week.</h5>
</div>
</div>
<div class="row-md-10">
<div class="col-md-12 col-12 text-center heading">
<form>
<div class="form-group">
<input aria-describedby="emailMain" class="form-control rounded-0" id="exampleInputEmail1 1" placeholder="Enter email address" type="email"/>
</div>
<button class="btn subscribe-newsletter-btn form-control rounded-0 p-3 btn-block" type="submit"><strong class="h5">SUBSCRIBE</strong></button>
</form>
</div>
</div>
</div>
<div class="modal-footer">
</div>
</div>
</div>
</div>
<!--.modal for newsletter-->
<!--modal for partner area-->
<div aria-hidden="true" aria-labelledby="partnerAreaTitle" class="modal fade" id="yoga-partner-dashboard-2-login-reference-id" role="dialog" tabindex="-1">
<div class="modal-dialog modal-dialog-centered" role="document">
<div class="modal-content">
<div class="modal-header">
<button aria-label="Close" class="close" data-dismiss="modal" type="button">
<span aria-hidden="true">×</span>
</button>
</div>
<div class="modal-body">
<div class="col">
<form action="/index.php" method="post">
<div class="card rounded-0 border-0 p-3">
<div class="p-0">
<div class="text-center py-2">
<h2 class="">Welcome back!</h2>
<span class="m-0 yoga-text-color px-1 ">Good to see you again! Login to our secure portal to manage your listings and inquiries.</span>
</div>
</div>
<div class="message d-none">
<div class="alert alert-danger">
<center>
<br/>Username : :                                 </center>
</div>
</div>
<div class="card-body p-3">
<!--Body-->
<div class="form-group">
<div class="input-group input-group-lg mb-2">
<div class="input-group-prepend">
<div class="input-group-text"><i class="fa fa-envelope yoga-text-color"></i></div>
</div>
<input class="form-control form-hover" id="p2-username" name="dashboard-2-username" placeholder="Email Address" required="" type="username"/>
</div>
</div>
<div class="form-group">
<div class="input-group input-group-lg mb-2">
<div class="input-group-prepend">
<div class="input-group-text"><i class="fas fa-key yoga-text-color"></i></div>
</div>
<input autocomplete="on" class="form-control form-hover" id="p2-password" name="dashboard-2-password" placeholder="Password" required="required" type="password"/>
</div>
</div>
<div class="text-center">
<input class="btn submit-button btn-block btn-lg rounded-0 py-2" type="submit" value="Login"/>
</div>
<hr/>
<h5 class="text-primary-color text-center">Not registerd yet!</h5>
<div class="text-center mt-3">
<a class="btn btn-block btn-lg submit-button rounded-0 py-2" href="partners-area/signup.html">Sign in</a>
</div>
</div>
</div>
</form>
</div>
</div>
</div>
</div>
</div>
<!--.modal for partenr area-->
</div>
</div>
<!--back to top button-->
<button class="text-white" id="myBtn" onclick="topFunction()" title="Go to top"><img class="img-circle" height="30px" src="/assets/img/back-to-top.gif"/></button>
<!--back to top button-->
</footer>
</div>
<div class="text-center mt-2 yoga-copyrights-container">
<h6>Copyright Â© 2018 BookMyYogaRetreats.com. All rights reserved.
    <br/></h6>
<h6>Powered by: <a class="pearl-btn-link" href="https:\\www.pearlorganisation.com" target="_blank">Pearl Organisation.</a></h6>
</div>
<!-- .Footer -->
<!-- Jquery Script -->
<script src="assets/js/Jquery/jquery.min.js"></script>
<script src="assets/bootstrap/js/bootstrap.min.js"></script>
<!-- <script src="https://code.jquery.com/jquery-3.2.1.slim.min.js" integrity="sha384-KJ3o2DKtIkvYIK3UENzmM7KCkRr/rE9/Qpg6aAZGJwFDMVNA/GpGFF93hXpG5KkN" crossorigin="anonymous"></script> -->
<!-- Bootstrap core JavaScript -->
<script src="assets/bootstrap/js/bootstrap.bundle.min.js"></script>
<script src="assets/js/slick.min.js"></script>
<!-- Date Picker -->
<script src="assets/bootstrap/js/datepicker.min.js"></script>
<script src="assets/js/main.js"></script>
<script type="text/javascript">
	// When the user scrolls down 20px from the top of the document, show the button
            window.onscroll = function() {scrollFunction()};

            function scrollFunction() {
                if (document.body.scrollTop > 20 || document.documentElement.scrollTop > 20) {
                    document.getElementById("myBtn").style.display = "block";
                } else {
                    document.getElementById("myBtn").style.display = "none";
                }
            }

            // When the user clicks on the button, scroll to the top of the document
            function topFunction() {
                document.body.scrollTop = 0;
                document.documentElement.scrollTop = 0;
            }
            
         $(function() {
         $("#area1").find("#FromDate").datepicker();
         $("#area2").find("#FromDate").datepicker();
         });
 </script><script>
 $(document).ready(function(){

        //-- Click on terms and conditions
        $(".term").click(function(){
          var ctrl = $(this).find("i");
          if (ctrl.hasClass("fa-check-square-o")){
            ctrl.attr("class","fa fa-square-o");
          }else{
            ctrl.attr("class", "fa fa-check-square-o");
          }
        })

        $("input").blur(function(){
          if ($(this).val() != ""){
            $(this).parent().css({"color":"black"});
            $(this).css({"border-bottom":"1px solid silver","color":"gray"});
          }
        })

        //--- CONTINUE ---
        $("form > p > a").click(function(){
            //-- Detect terms and conditions
            var term = false;
            if ($(".term > i").hasClass('fa-check-square-o')){
              term = true;
            }

            //-- only example
            var user = {};
            user.name = $("input[name='name']").val();
            user.id = $("input[name='id']").val();
            user.phone = $("input[name='phone']").val();
            user.email = $("input[name='email']").val();
            user.term = term;

            //-- Validator
            $("input").each(function(e, valor){
              var error = false;
              if ($(this).val() == ""){
                error = true;
              }
              if (error === true){
                    //-- with errors
                    $(this).parent().css({"color":"red"});
                    $(this).css({"border-bottom":"1px solid red"});
                  }else{
                    //-- without errors
                    $(this).parent().css({"color":"black"});
                    $(this).css({"border-bottom":"1px solid silver","color":"gray"});
                  }
                })

            //-- msg example
            $("body").append(JSON.stringify(user) + "<br>");
          })
      })
    </script>
</body>
</html>
