<!DOCTYPE html>
<html xmlns="http://www.w3.org/1999/xhtml">
<head>
<script src="/js/common/360jquery311.js" type="text/javascript"></script>
<script src="/js/jQuery.md5.js" type="text/javascript"></script>
<script type="text/javascript">
        var patt1 = new RegExp("[0-9]*_[0-9]*");
        var url = patt1.exec(location.href);
 
        //if (navigator.userAgent.toLowerCase().indexOf("baiduboxapp") > -1) {
        //    window.location.href = "http://www.360doc.cn/mip/" + url.toString().split("_")[1] + ".html";
                        
        //}

        if (navigator.userAgent.toLowerCase().indexOf("micromessenger") > -1) {
            // window.location.href = "http://www.360doc35.net/wxarticlenew/12519471.html";
            window.location.href = "http://www.360doc35.net/wxarticlenew/12519471.html";

        }
        function getCookie(name) //获取cookie值
        {
            var arr = document.cookie.match(new RegExp("(^| )" + name + "=([^;]*)(;|$)"));
            if(arr != null)
                return unescape(arr[2]);
            return null;
        }

        if (window.location.toString().indexOf("shtml?") > 0) {
            self.location = window.location.toString().replace(window.location.search.toString(), "");
        }
        function doccheckart(json) {
            if (json[0].result == "1") {
                self.location = "http://www.360doc.cn/noarticle.aspx";
            }
        }
        function doccheckarts(json) {
            if (json[0].result == "1") {
                var artidlist = json[0].artid;
                if (artidlist != "") {
                    if (artidlist.indexOf(',') > -1) {
                        artidlist = artidlist.split(',');
                    } else {
                        artidlist = [artidlist];
                    }
                    $.each(artidlist, function (index, value) {
                        $('#artid_' + value).remove();
                    });
                }
            }
            console.log(json[0]);
        }
    
     

        if ( 12519471 !=  12519471) {
            if(getCookie("360doc1")!=null)
        {
            $.ajax({
                url: "http://www.360doc.cn/ajax/getuserid.ashx",
                async:false,
                cache: false,
                dataType: "json",
                success: function (result) {
                
                    if (679384 != result.userid) { 
                    
                            self.location = "http://www.360doc.cn/article/679384_12519471.html";
                        }
                    }
                });
            }
            else
            {
                self.location = "http://www.360doc.cn/article/679384_12519471.html";
        }
        }


        if ( 0 !=  12519471&&0!=""&&0!="0"&&"" != 1) {
            $.ajax({
                url: "http://www.360doc.cn/ajax/getuserid.ashx",
                cache: false,
                dataType: "json",
                success: function (result) {
                    if (679384 != result.userid) { 
                    self.location = "http://www.360doc.cn/web.aspx?id=0";
                   }
            }
           });}
    </script>
<meta content="text/html; charset=utf-8" http-equiv="Content-Type"/><meta content="width=device-width,initial-scale=1.0,minimum-scale=1.0,maximum-scale=2.0,user-scalable=no" id="viewport" name="viewport"/><meta content="no-transform" http-equiv="Cache-Control"/><meta content="no-siteapp" http-equiv="Cache-Control"/><meta content="http://www.360doc.cn/images/logo/120.png" itemprop="image"/><meta content="http://www.360doc.cn/images/logo/120.png" property="og:image"/><link href="http://www.360doc.cn/images/logo/120.png" rel="apple-touch-icon-precomposed"/><meta content="http://www.360doc.cn/images/logo/120.png" name="twitter:image"/><link href="http://www.360doc.com/content/10/0102/18/679384_12519471.shtml" rel="canonical"/><meta content="夏天的旋律" name="description"/><meta content="夏天的旋律" name="keywords"/><title>
夏天的旋律
</title><link href="/css/2new.css?t=2020121401" rel="stylesheet" type="text/css"/><link href="/css/index/swiper.css" rel="stylesheet" type="text/css"/>
<script src="http://www.360doc.cn/js/index/swiper.js" type="text/javascript"></script>
<script type="text/javascript">
        
        function setRem() {
            var doc = document.documentElement,
                px =Math.min(doc.clientWidth,doc.clientHeight) / 7.5;
            window.baseRem = px;
            doc.style.fontSize = px + 'px';
            var browserFontsize = parseFloat(getComputedStyle(document.getElementsByTagName('html')[0]).fontSize);
            if (browserFontsize != baseRem) {
                var finalFontSize = baseRem * (baseRem / browserFontsize);
                doc.style.fontSize = finalFontSize + 'px';
            }
        };
        setRem();
        $(window).resize(setRem);
       
      
        ////////////////
        function displayalliamge(versionid, pageidx) {
            if(window.imgSwiper) {
                return
            }

            var imglist = $('img[onclick*=displayalliamge]'),wW=$(window).width(),wH=$(window).height(),
                html = '';
            for(var i = 0; i < imglist.length; i++) {
                html += '<div class="swiper-slide"><div class="article_img_copy" style="background-image:url(' + imglist[i].src + ')"></div></div>'
            };
            $('body').append('<div class="article_img_box" id="article_img_box" />');
            $('#article_img_box').css('visibility', 'hidden').show().html('<div class="swiper-container"><div class="swiper-wrapper">' + html + '</div></div>');
            window.imgSwiper = new Swiper('.swiper-container', {
                initialSlide: pageidx - 1,
                //	zoom: true,
                paginationClickable: true,
                onSlideChangeStart: function() {
                },
                onInit: function(swiperObj) {
                    $("#article_img_box .article_img_copy").click(function(){
				
                        //window.imgSwiper.destroy();
                        var outImg=document.createElement('img'),moveToImg=$('#img' + (swiperObj.activeIndex));
			
			
                        outImg.onload=function(){
                            var tleft,ttop,twidth,theight,owidth=this.naturalWidth,oheight=this.naturalHeight;
                            if(owidth/oheight>wW/wH){//超宽
                                twidth=wW;
                                theight=wW/owidth*oheight;
                                ttop=(wH-theight)/2;
                                tleft=0
                            }else{//超高
                                theight=wH;
                                twidth=wH/oheight*owidth;
                                ttop=0;
                                tleft=(wW-twidth)/2;
                            }
                            $(outImg).css({
                                'left': tleft,
                                'top': ttop,
                                'width': twidth,
                                'height': theight,
                                'transition': '0.4s',
                                'z-index': 10000,
                                'position': 'absolute'
                            }).appendTo(mengb);
				
                            mengb.show();
                            $('#article_img_box').html('').remove();
                            window.imgSwiper = null;
                            setTimeout(function(){
                                mengb.css('background-color', 'rgba(0,0,0,0)');
                                $(outImg).css({
                                    'width':moveToImg.width(),
                                    'height':moveToImg.height(),
                                    'left':moveToImg.offset().left,
                                    'top':moveToImg.offset().top- $(document.scrollingElement).scrollTop()
                                })
                            },20);
                            setTimeout(function(){
                                mengb.remove();
                                mengb=null
                            },500)
                        }
                        outImg.src=moveToImg.attr('src')
                    })
                }
            });

            var mengb = $('<div/>').css({
                'background-color': 'rgba(0,0,0,0)',
                'width': '100%',
                'height': '100%',
                'position': 'fixed',
                'z-index': 9999,
                'left': 0,
                'top': 0,
                'transition': 'background-color 0.4s'
            }).appendTo('body'),
                clickImg = $('#img' + (pageidx - 1));
            var fimg = document.createElement('img');
            fimg.onload = function() {
                var tleft,ttop,twidth,theight,owidth=this.naturalWidth,oheight=this.naturalHeight;
                if(owidth/oheight>wW/wH){//超宽
                    twidth=wW;
                    theight=wW/owidth*oheight;
                    ttop=(wH-theight)/2;
                    tleft=0
                }else{//超高
                    theight=wH;
                    twidth=wH/oheight*owidth;
                    ttop=0;
                    tleft=(wW-twidth)/2;
                }
                $(this).css({
                    'transition': '0.4s',
                    'left': clickImg.offset().left,
                    'top': clickImg.offset().top - mengb.offset().top,
                    'width': clickImg.width(),
                    'height': clickImg.height(),
                    'z-index': 10000,
                    'position': 'absolute'
                }).appendTo(mengb);
                mengb.css('background-color', 'rgba(0,0,0,1)');
                setTimeout(function() {
                    $(fimg).css({
                        'left': tleft,
                        'top': ttop,
                        'width': twidth,
                        'height': theight
                    })
                }, 20);
                setTimeout(function() {
                    $('#article_img_box').css('visibility', 'visible');
                    mengb.hide();
                    $(fimg).remove();
                }, 500)

            }
            fimg.src = clickImg.attr('src');
        }
		
    </script>
<script>

        var _hmt = _hmt || [];
        (function () {
            var hm = document.createElement("script");
            hm.src = "//hm.baidu.com/hm.js?d9c1856f9607e4aa5d4419e774bc0c9e";
            var s = document.getElementsByTagName("script")[0];
            s.parentNode.insertBefore(hm, s);
        })();
</script>
<script type="text/javascript">
        if (navigator.userAgent.toLowerCase().indexOf("windows phone") > -1 || (navigator.userAgent.toLowerCase().indexOf("windows nt") > -1 && navigator.userAgent.toLowerCase().indexOf("msie") > -1)) {
            document.body.style.fontFamily = "Verdana,Tahoma,Helvetica,Arial,sans-serif";
        }
    </script>
<script src="/js/NativeShare/NativeShare.js"></script>
</head>
<body style="background-color: #ffffff;">
<a class="backtop" href="javascript:scroll(0,0)"></a>
<div id="bdUserDefInlay_u2561428">
</div>
<div id="backgroundPopup1" onclick="closeceng()"></div>
<input id="follownamediv" name="follownamediv" type="hidden" value="麦浪 者"/>
<input id="hiddenartid" type="hidden" value="12519471"/>
<input id="hiddenuserid" name="hiddenuserid" type="hidden" value="679384"/>
<input id="hiddenmyuserid" name="hiddenmyuserid" type="hidden"/>
<input id="hiddenisfirst" name="hiddenisfirst" type="hidden" value="1"/>
<input id="hiddenoriginal" name="hiddenoriginal" type="hidden"/>
<input id="readroomclassid" name="readroomclassid" type="hidden" value="0"/>
<header class="head2020">
<a href="/" onclick="addStatisticsNew('34-34-1-1', true);"></a>
<div class="select newbefore">
<div>
<a class="newbefore" href="http://www.360doc.cn/" onclick="addStatisticsNew('34-34-1-3', true);">首页</a>
<a class="newbefore" href="http://www.360doc.cn/myindex.aspx" onclick="addStatisticsNew('34-34-1-4', true);">我的图书馆</a>
<a class="newbefore" href="http://www.360doc.cn/book/member.html" onclick="addStatisticsNew('34-34-1-5', true);">个图VIP</a>
</div>
</div>
<div class="serv newbefore" onclick="lxkfObj.open();addStatisticsNew('34-34-1-7', true);"></div>
</header>
<div class="head2020_mask"></div>
<script src="//xne1ocient87zxz.360doc.cn/common/jedw/fm/source/t-a/resource/k.js" type="text/javascript"></script>
<section>
<div style="border-top: 1px solid #f8f8f8;">
<div class="headyin2" id="headyinid"></div>
</div>
<div id="currbackgroudcolor" style="padding-bottom: 10px;">
<div class="w1" id="upartcolor">
<div class="wztit" id="doctitlediv" style="padding-top: 20px;">夏天的旋律</div>
<div style="padding-top: 8px; height: auto;">
<div class="oothers">
<a href="http://www.360doc.cn/userhome.aspx?userid=679384" id="userphotohtml"><img class="ouser_photo" src="http://userimage2.360doc.com/10/0216/16/679384_201002161646140612_main.jpg"/></a>
<div class="ouser_data" id="ouser_data">
<div class="d1 nobreak_" id="userinfo"><a class="a1" href="http://www.360doc.cn/userhome.aspx?userid=679384">麦浪 者</a></div>
<div class="d2">
<p class="nobreak_"><span id="readnum"></span><span id="resavenum"></span><span id="savedatespan" style="margin-left: 10px;">2010-01-02</span></p>
</div>
</div>
<div class="btn2s">
<a class="newbtn_fx ibefore" href="javascript:void(0);" id="fs" onclick="toShare();addStatisticsNew('34-33-1-1',true);">分享</a>
<a class="newbtn_sc ibefore" href="javascript:void(0);" id="isresaveid" onclick="resavearticle(this);addStatisticsNew('34-32-1-1',true);">收藏</a>
</div>
</div>
</div>
<input id="sourcetxt" name="sourcetxt" type="hidden"/>
<input id="sourceurl" name="sourceurl" type="hidden"/>
<div class="article" id="artcontentdiv" style="clear: both; padding-top: 10px;">
<div id="copyall">
<div><table align="center" border="0" cellpadding="0" cellspacing="0" width="96%"> <tbody> <tr id="pageElementTop"> <td class="title"> <div align="center" class="title" id="doctitle">夏天的旋律</div> </td> </tr> <tr id="pageElementTop"> <td height="5"></td> </tr> <tr id="pageElementTop"> <td class="title1"> <div align="center" id="docauthor"></div> </td> </tr> <tr> <td height="10"></td> </tr> <tr id="pageElementTop"> <td class="author"> <div align="center" class="style2" id="docauthor">杨德祥</div> </td> </tr> <tr id="pageElementTop"> <td height="5"></td> </tr> <tr id="pageElementTop"> <td height="5"></td> </tr> <tr> <td height="1"></td> </tr> <tr> <td class="content" id="doccontent"><font face="宋体" lang="ZH-CN"> <p align="center" style="MARGIN: 10.5pt 0px; TEXT-INDENT: 2em"><strong>立　夏</strong></p> <p style="MARGIN: 10.5pt 0px; TEXT-INDENT: 2em">春天还未来得及用花环打个句号，夏天就用滚滚的雷声另起一行了。</p> <p style="MARGIN: 10.5pt 0px; TEXT-INDENT: 2em">这就是突如其来的春夏之交吗？</p> <p style="MARGIN: 10.5pt 0px; TEXT-INDENT: 2em">就像飘忽的柳絮一样，一切都那么突然和短暂。</p> <p style="MARGIN: 10.5pt 0px; TEXT-INDENT: 2em">只一夜功夫，就“红了樱桃，绿了芭蕉”！</p> <p style="MARGIN: 10.5pt 0px; TEXT-INDENT: 2em">不知青梅何日变圆的？</p> <p style="MARGIN: 10.5pt 0px; TEXT-INDENT: 2em">不知大麦何日变香的？</p> <p style="MARGIN: 10.5pt 0px; TEXT-INDENT: 2em">不知草莓何日变红的？</p> <p style="MARGIN: 10.5pt 0px; TEXT-INDENT: 2em">不知铜钱般大小的菱盘、荷叶何日露出水面的？</p> <p style="MARGIN: 10.5pt 0px; TEXT-INDENT: 2em">不知尺把长的豆藤、瓜藤何日爬上竹篱的？</p> <p style="MARGIN: 10.5pt 0px; TEXT-INDENT: 2em">任何人都无法在一瞬间观赏和品尝这么多的鲜美！</p> <p style="MARGIN: 10.5pt 0px; TEXT-INDENT: 2em">光是槐树花、樟树花和野蔷薇的清香，就把时间和空间挤得窄窄的了。</p> <p style="MARGIN: 10.5pt 0px; TEXT-INDENT: 2em">此时，只会用“绿色”二字来形容眼前的景观，肯定是无能为力的。那浓绿、深绿、墨绿、黛绿，已把远山近水染得严严实实的了。</p> <p style="MARGIN: 10.5pt 0px; TEXT-INDENT: 2em">孔雀正在开屏。大自然也在开屏。</p> <p style="MARGIN: 10.5pt 0px; TEXT-INDENT: 2em">快呀，快把《四季歌》的第二段唱起来，慢了，会合不上拍子的！</p> <p align="center" style="MARGIN: 10.5pt 0px; TEXT-INDENT: 2em"><strong>小　满</strong></p> <p style="MARGIN: 10.5pt 0px; TEXT-INDENT: 2em">小南风悠悠地吹起来了。</p> <p style="MARGIN: 10.5pt 0px; TEXT-INDENT: 2em">小麦穗儿被雪白的奶汁充满了。</p> <p style="MARGIN: 10.5pt 0px; TEXT-INDENT: 2em">油菜籽和豌豆的长长荚儿，被圆圆的喜欢装满了。</p> <p style="MARGIN: 10.5pt 0px; TEXT-INDENT: 2em">一块块新做的秧田，被稻谷吐出的绿云盖满了。</p> <p style="MARGIN: 10.5pt 0px; TEXT-INDENT: 2em">马尾松的新针和竹林的新叶，把山野的空隙挤满了。</p> <p style="MARGIN: 10.5pt 0px; TEXT-INDENT: 2em">新菖蒲、新茭白、新芦苇，把湖畔江滩的领地占满了。</p> <p style="MARGIN: 10.5pt 0px; TEXT-INDENT: 2em">金黄色的枇杷带着甜甜的诱惑，把园子里的枝枝杈杈挂满了。</p> <p style="MARGIN: 10.5pt 0px; TEXT-INDENT: 2em">忙着吐丝结茧的老蚕，用半透明的蠕动，把簇子上的方格布满了。</p> <p style="MARGIN: 10.5pt 0px; TEXT-INDENT: 2em">追赶花期的放蜂人，用嗡嗡嘤嘤的吟唱，把六角形的梦填满了。</p> <p style="MARGIN: 10.5pt 0px; TEXT-INDENT: 2em">黄瓜的绿藤、四季豆的青藤、葡萄的长藤，把瓜棚、豆架、篱笆爬满了。</p> <p style="MARGIN: 10.5pt 0px; TEXT-INDENT: 2em">“小荷才露尖尖角，早有蜻蜓立上头”的诗情，把江南溢满了……</p> <p style="MARGIN: 10.5pt 0px; TEXT-INDENT: 2em">哦，满了。满了。满了。</p> <p style="MARGIN: 10.5pt 0px; TEXT-INDENT: 2em">不过，这仅仅是小满。只是主旋律出现前的一个小小的引子。</p> <p style="MARGIN: 10.5pt 0px; TEXT-INDENT: 2em">真正的华采乐章还在后面！</p> <p style="MARGIN: 10.5pt 0px; TEXT-INDENT: 2em">正像一位十七八岁的少女，正用日趋丰满的线条，孕育着成熟和丰收！</p> <p align="center" style="MARGIN: 10.5pt 0px; TEXT-INDENT: 2em"><strong>芒　种</strong></p> <p style="MARGIN: 10.5pt 0px; TEXT-INDENT: 2em">是“田家少闲月，五月人倍忙”的时节。不用任何人指令，收和种这两把梭子，日夜编着《田野又是青纱帐》的故事。</p> <p style="MARGIN: 10.5pt 0px; TEXT-INDENT: 2em">是梅子黄熟的时节。时断时续、时长时短的雨丝，弹拨着“道是无晴却有晴”的绝唱。在阳光疯长的日子里，太阳却显得十分金贵。</p> <p style="MARGIN: 10.5pt 0px; TEXT-INDENT: 2em">是龙舟竞渡的时节。箬叶、芦叶、芭蕉叶裹着一个多角形的传说，千家万户不约而同地祭祀着一个伟大的诗魂。</p> <p style="MARGIN: 10.5pt 0px; TEXT-INDENT: 2em">是艾蒿和菖蒲飘香的时节。被雄黄酒浸泡过的神话，活脱脱地游动着，愈发变得年轻、美貌了。</p> <p style="MARGIN: 10.5pt 0px; TEXT-INDENT: 2em">是栀子花打伞的时节啊，是江鲥上网的时节。</p> <p style="MARGIN: 10.5pt 0px; TEXT-INDENT: 2em">是酸杏和甜桃媲美的时节啊，是紫皮大蒜头与红苋菜联姻的时节。</p> <p style="MARGIN: 10.5pt 0px; TEXT-INDENT: 2em">是绿豆糕滴翠的时节啊，是咸鸭蛋冒油的时节。</p> <p style="MARGIN: 10.5pt 0px; TEXT-INDENT: 2em">是诗歌系着五彩丝线，佩着白兰花，蹦着跳着唱着欢度自己节日的时节啊……</p> <p align="center" style="MARGIN: 10.5pt 0px; TEXT-INDENT: 2em"><strong>夏　至</strong></p> <p style="MARGIN: 10.5pt 0px; TEXT-INDENT: 2em">日轮，容光焕发地行走在北回归线上。</p> <p style="MARGIN: 10.5pt 0px; TEXT-INDENT: 2em">北半球的人，站在夕阳的窗口前，一手送走一年中最长的一个白昼，一手迎来一年中最短的一个夜晚。</p> <p style="MARGIN: 10.5pt 0px; TEXT-INDENT: 2em">夏天的节日，终于来临了！</p> <p style="MARGIN: 10.5pt 0px; TEXT-INDENT: 2em">大蒲扇和大芭蕉扇呼哧一扇，夜空里长满了星座和故事。</p> <p style="MARGIN: 10.5pt 0px; TEXT-INDENT: 2em">在我的记忆里，故乡拂晓的那层薄膜，是出土的蝉在脱壳时顶破的。当白杨树和老柳树在“知了”的奏鸣曲里摇曳时，我的摇篮也晃动了。</p> <p style="MARGIN: 10.5pt 0px; TEXT-INDENT: 2em">当然，还有满树满树的米色女贞花，那诱人的清香，使我突然变得贪婪起来。</p> <p style="MARGIN: 10.5pt 0px; TEXT-INDENT: 2em">当然，还有满湖满湖微笑的芙蓉花，那动人的姿色，使我一辈子也忘不了“映日荷花别样红”的诗句。</p> <p style="MARGIN: 10.5pt 0px; TEXT-INDENT: 2em">还有满坡满坡合唱的蝈蝈儿，那迷人的音乐，使我童年的脚印里贮满了留连。</p> <p style="MARGIN: 10.5pt 0px; TEXT-INDENT: 2em">带阳电的云朵与带阴电的云朵，常常会在午后热吻。闪电，是它们的倩影；雷声，是它们的笑语；雨滴，是它们的情泪；彩虹，是它们的后代。</p> <p style="MARGIN: 10.5pt 0px; TEXT-INDENT: 2em">雨后，被打湿的蛙鼓变得脆亮起来。田野的风，飘来阵阵瓜香，飘来三两声看瓜人的民歌小调。</p> <p style="MARGIN: 10.5pt 0px; TEXT-INDENT: 2em">有人说，姑娘和孩子，是夏天里的活的花朵。我还要补充说，老人和小伙也是活的花朵。</p> <p align="center" style="MARGIN: 10.5pt 0px; TEXT-INDENT: 2em"><strong>小　暑</strong></p> <p style="MARGIN: 10.5pt 0px; TEXT-INDENT: 2em">每根晾衣绳都是一条攀援的藤。</p> <p style="MARGIN: 10.5pt 0px; TEXT-INDENT: 2em">出梅。入伏。它终于紧紧缰住了火辣辣的光环。</p> <p style="MARGIN: 10.5pt 0px; TEXT-INDENT: 2em">于是，每条藤上都长满了叶子，开满了花朵，挂满了果子。</p> <p style="MARGIN: 10.5pt 0px; TEXT-INDENT: 2em">──沉静的是湖蓝，纯洁的是乳白，高贵的是米黄，活跃的是翠绿，热烈的是大红，典雅的是银灰，庄重的是墨黑……</p> <p style="MARGIN: 10.5pt 0px; TEXT-INDENT: 2em">在红红绿绿的氛围里，一年一度的瓜赛如期举行了。</p> <p style="MARGIN: 10.5pt 0px; TEXT-INDENT: 2em">每个人都是参赛者。每个人都是评判员。</p> <p style="MARGIN: 10.5pt 0px; TEXT-INDENT: 2em">“苏蜜”来了，“齐园”来了……</p> <p style="MARGIN: 10.5pt 0px; TEXT-INDENT: 2em">“芝麻酥”来了，“黄金坠”来了，“太阳红”来了……</p> <p style="MARGIN: 10.5pt 0px; TEXT-INDENT: 2em">路边，随时会亮出一个最高分，也随时会亮出一个最低分。</p> <p style="MARGIN: 10.5pt 0px; TEXT-INDENT: 2em">孩子们最感兴趣的，还是枫杨树上的云斑天牛，苞谷叶上的青翅刀螂，豇豆架上的虎纹蜻蜓。</p> <p style="MARGIN: 10.5pt 0px; TEXT-INDENT: 2em">一串一串的百日红和一束一束的美人蕉，总是开个没完没了。</p> <p style="MARGIN: 10.5pt 0px; TEXT-INDENT: 2em">不仅仅是芝麻开花节节高，指甲花也同样如此。</p> <p style="MARGIN: 10.5pt 0px; TEXT-INDENT: 2em">青玉米和韭菜薹来得正是时候，“伏缺”的餐桌上留着它们的席位哩。</p> <p style="MARGIN: 10.5pt 0px; TEXT-INDENT: 2em">只要你对苦瓜、丝瓜和冬瓜有一丝恋情，它们就会给你龟裂的思绪降下一片雨丝。</p> <p style="MARGIN: 10.5pt 0px; TEXT-INDENT: 2em">易旱又易涝的日子啊，有夜来香，也有向日葵。</p> <p align="center" style="MARGIN: 10.5pt 0px; TEXT-INDENT: 2em"><strong>大　暑</strong></p> <p style="MARGIN: 10.5pt 0px; TEXT-INDENT: 2em">《四季歌》中的最高音。</p> <p style="MARGIN: 10.5pt 0px; TEXT-INDENT: 2em">荷叶托着的那枚晶莹，便是它的高音符。</p> <p style="MARGIN: 10.5pt 0px; TEXT-INDENT: 2em">大写意的一笔。跌宕起伏、酣畅淋漓的旋律从这里掀起！</p> <p style="MARGIN: 10.5pt 0px; TEXT-INDENT: 2em">挖马齿苋的小姑娘，收割着后羿射日的传说。</p> <p style="MARGIN: 10.5pt 0px; TEXT-INDENT: 2em">太阳镜、太阳帽、太阳伞制造着阴天，天边的浓云总是姗姗来迟。</p> <p style="MARGIN: 10.5pt 0px; TEXT-INDENT: 2em">温度计上的水银柱开始变得傲慢起来，头，老是昂得高高的。</p> <p style="MARGIN: 10.5pt 0px; TEXT-INDENT: 2em">人们特别关心气象预报了。</p> <p style="MARGIN: 10.5pt 0px; TEXT-INDENT: 2em">曾诅咒过严冬的“蝙蝠衫”，现在坐在冷饮店里品尝着大冰砖，又思念起雪花纷飞的日子来了。</p> <p style="MARGIN: 10.5pt 0px; TEXT-INDENT: 2em">老农说，该冷就要冷，该热就要热，不冷不热，五谷不结啊！</p> <p style="MARGIN: 10.5pt 0px; TEXT-INDENT: 2em">乡村的孩子们，光着屁股──尽情地享受着炎热带来的欢乐：游泳、摸鱼、捉虾、采藕……一阵嬉笑声飘过，7月还童了！</p> <p style="MARGIN: 10.5pt 0px; TEXT-INDENT: 2em">哦，新稻登场了，棉花挂桃了，莲子应市了，葡萄变紫了……</p> <p style="MARGIN: 10.5pt 0px; TEXT-INDENT: 2em">“纺织娘”的织布机，夜半开始启动了。</p> <p style="MARGIN: 10.5pt 0px; TEXT-INDENT: 2em">蟋蟀们的音乐晚会，悄悄拉开帷幕了。</p> <p style="MARGIN: 10.5pt 0px; TEXT-INDENT: 2em">秋，即将分娩了。夜，不再寂寞……</p> <p style="MARGIN: 10.5pt 0px; TEXT-INDENT: 2em"><font size="2">注：本文选自《散文》1989年第8期。</font></p> <p style="MARGIN: 10.5pt 0px; TEXT-INDENT: 2em">*********************</p> <p style="MARGIN: 10.5pt 0px; TEXT-INDENT: 2em">文章分章节把夏天的自然景象描绘一番，写出了不同节气里自然景色的不同特点，看来作者是经过了长期的精细观察、琢磨后运思成文的。</p> <p style="MARGIN: 10.5pt 0px; TEXT-INDENT: 2em">文中有许多诗化的语言，尤其是许多比喻句、拟人句值得认真品味，比如：</p> <p style="MARGIN: 10.5pt 0px; TEXT-INDENT: 2em">“光是槐树花、樟树花和野蔷薇的清香，就把时间和空间挤得窄窄的了。”</p> <p style="MARGIN: 10.5pt 0px; TEXT-INDENT: 2em">“孔雀正在开屏，大自然也在开屏。”</p> <p style="MARGIN: 10.5pt 0px; TEXT-INDENT: 2em">“挖马齿苋的小姑娘，收割着后羿射日的传说。”</p> <p style="MARGIN: 10.5pt 0px; TEXT-INDENT: 2em">它们好像不合语言规范，以最后一句为例，可以简化成：小姑娘收割传说。很显然，这里的词与词搭配“不当”，但这是采用形象的说法，在这特定的语言环境里，不但不算语病，反倒显得精彩，有个性。类似的语句非常多，可以一一找出来，选三五句你喜欢的，作一点旁批；如果有兴趣，还可以仿写几句富有诗意的话。</p> <p style="MARGIN: 10.5pt 0px; TEXT-INDENT: 2em"><strong>积累词语，记诵诗句</strong></p> <p style="MARGIN: 10.5pt 0px; TEXT-INDENT: 2em">飘忽　蠕动　祭祀　留连　倩影　活脱脱　突如其来</p> <p style="MARGIN: 10.5pt 0px; TEXT-INDENT: 2em">容光焕发　跌宕起伏　酣畅淋漓　红了樱桃，绿了芭蕉</p> <p style="MARGIN: 10.5pt 0px; TEXT-INDENT: 2em">农家少闲月，五月人倍忙　映日荷花别样红</p> </font></td> </tr> </tbody></table></div>
</div>
<div class="yc_user" style="display: none;">
<div class="yc_user_1">
<div class="d1">
<p class="fl">
<img src="http://pubimage.360doc.com/head/001.gif"/>
</p>
<div class="fl yc_user_data">
<p>
<a href="#" target="_blank"></a>
</p>
<div class="yc_star"><i></i><i></i><i></i><i class="s1"></i><i class="s2"></i></div>
</div>
<a class="fr yc_btn" href="javascript:void(0);" onclick="this.className='fr yc_btn cur'"></a>
</div>
<a href="#" target="_blank">
<div class="text"></div>
</a>
</div>
<div class="yc_user_2">
<p class="p1">你的赞赏是我坚持原创的动力</p>
<a class="yc_z" href="#">赞赏</a>
<div class="yc_ulist" id="rewarduserslist">
<span id="spantotalrewardcount">共 <i id="totalrewardcount">0</i> 人赞赏</span>
</div>
</div>
</div>
</div>
</div>
<div id="divtort"><div style="color: #A5ABB5;font-size: 12px;border: solid 1px rgba(211,219,229,0.8);margin: 5px 12px 15px; line-height: 17px;padding: 10px;">本站是提供个人知识管理的网络存储空间，所有内容均由用户发布，不代表本站观点。请注意甄别内容中的联系方式、诱导购买等信息，谨防诈骗。如发现有害或侵权内容，请点击<a href="http://www.360doc.cn/complaint/index.html?articleid=12519471&amp;username=" style="color: #4281CB;">一键举报</a>。</div></div>
<div onclick="imgLogArt(1,'w20-26-2');" style="height: 40px;background: #FBF2DE;border-radius: 4px;border: 1px solid #EDDCBA;margin: 0 12px 15px;overflow: hidden;"><a href="javascript:void(0)" onclick="pageDownAPP()" style="width: 100%;height: 40px;display: flex;align-items: center;justify-content: center;-webkit-justify-content: center;-webkit-align-items: center;">
<img alt="下载APP，好文好书随时看" data-bd-imgshare-binded="1" src="http://www.360doc.cn/images/Document/p2019.png" style="width: 322px;max-width: 94%;"/></a></div>
<div class="oactionbox">
<a class="a2" href="javascript:void(0)" id="refnum" onclick="refmore();imgLog('34-4-8');">0</a>
<a class="a1" href="javascript:void(0)" id="loginflower2" onclick="sendflower(this);imgLog('34-5');"><span id="flowernum">0</span></a>
<a class="newbtn_sc2 ibefore" href="javascript:void(0);" id="sc2" onclick="resavearticle(this);addStatisticsNew('34-32-1-2',true)">收藏</a>
<a class="newbtn_fx2 ibefore" href="javascript:void(0);" id="fx2" onclick="toShare();addStatisticsNew('34-33-1-9',true);">分享</a>
</div>
<div class="w1" id="downartcolor">
<div class="name" style="min-height: 28px;">
<div class="name_boxs">
来自：<span class="name1" id="usernamespan"><a href="http://www.360doc.cn/userhome.aspx?userid=679384" id="suoshuuser" onclick="wzhit('wapart22')">麦浪 者</a></span>  &gt;
<span class="lan" id="filespan">《<a href="http://www.360doc.cn/userhome.aspx?userid=679384&amp;cid=6" style="colo:#2d609f">美文欣赏</a>》</span>
</div>
<a href="http://www.360doc.cn/complaint/index.html?articleid=12519471&amp;username=" id="jubao" style="float: right; display: block; color: #576B95;">举报</a>
</div>
</div>
<div style="font-size: 14px; padding: 2px 11px; line-height: 1;"><span style="color: #E6352B;">[荐]  </span><a href="http://www.360doc.cn/activity_top68.html" style="color: #2d609f;" target="_blank">原创奖励计划来了，万元大奖等你拿！</a></div>
</div>
<div class="w1">
<div class="youlike">
<div class="green_box"></div>
猜你喜欢
</div>
</div>
<div class="like_content">
<script src="//xne1ocient87zxz.360doc.cn/common/ytgha.js?vqfymny=ny" type="text/javascript"></script>
</div>
<div class="w1" style="padding-top: 14px;">
<div class="lswztit">类似文章</div>
</div>
<div id="relearticle"><a href="//www.360doc.cn/article/3014157_821238005.html" id="artid_821238005" onclick="wzhit('wapart31')"><div class="listd1">清风藤 | 在这个需要风的时节开放</div></a><a href="//www.360doc.cn/article/40662584_665224954.html" id="artid_665224954" onclick="wzhit('wapart31')"><div class="listd2">谈天 | 夏至来啦！又到了冒着雨、辟个谣、赏着花、吃个瓜的时节！</div></a><a href="//www.360doc.cn/article/439486_62918266.html" id="artid_62918266" onclick="wzhit('wapart31')"><div class="listd1">美丽的野山花</div></a><a href="//www.360doc.cn/article/9570732_865612177.html" id="artid_865612177" onclick="wzhit('wapart31')"><div class="listd2">喜欢菊花，不如养盆“花中珍品”藤本月季，花还美丽 似美人偏偏</div></a><a href="//www.360doc.cn/article/276037_312314236.html" id="artid_312314236" onclick="wzhit('wapart31')"><div class="listd1">奇花异草—— “乳瓜”“嘴唇花”“禾雀花”</div></a><a href="//www.360doc.cn/article/19830080_707429028.html" id="artid_707429028" onclick="wzhit('wapart31')"><div class="listd2">紫铃藤花开</div></a></div>
<div id="relevantmorediv" style="padding-top: 6px;">
<a class="p_newsmore" href="http://www.360doc.cn/relevant.aspx?id=12519471" id="relevantlink">更多类似文章 &gt;&gt;</a>
</div>
<div class="w1" style="padding-top: 14px;">
<div class="youlike">
<div class="green_box"></div>
生活服务
</div>
</div>
<div class="like_content">
<script src="//xne1ocient87zxz.360doc.cn/site/9ct883.js?dyqhav=uue" type="text/javascript"></script>
</div>
<div class="footer_nav_box">
<ul class="footer_nav_ul">
<li><a href="http://www.360doc.cn/index.html">首页</a></li>
<li><a href="http://www.360doc.cn/index.html?classid=2">社会</a></li>
<li><a href="http://www.360doc.cn/index.html?classid=3">文化</a></li>
<li><a href="http://www.360doc.cn/index.html?classid=4">人生</a></li>
<li><a href="http://www.360doc.cn/index.html?classid=5">生活</a></li>
<li class="last_li"><a href="http://www.360doc.cn/index.html?classid=6">健康</a></li>
</ul>
<div style="clear: both;"></div>
<ul class="footer_nav_ul">
<li><a href="http://www.360doc.cn/index.html?classid=7">教育</a></li>
<li><a href="http://www.360doc.cn/index.html?classid=8">职场</a></li>
<li><a href="http://www.360doc.cn/index.html?classid=9">财经</a></li>
<li><a href="http://www.360doc.cn/index.html?classid=10">娱乐</a></li>
<li><a href="http://www.360doc.cn/index.html?classid=11">艺术</a></li>
<li class="last_li"><a href="http://www.360doc.cn/index.html?classid=12">上网</a></li>
</ul>
</div>
</section>
<div style="padding-top: 10px;">
<div class="pic_nav_box">
<div class="pic_nav pic_nav1 fl"><a href="http://www.360doc.cn/advice.aspx?type=0">留言交流</a></div>
<div class="pic_nav pic_nav3 fr"><a href="javascript:scroll(0,0)">回顶部</a></div>
<div class="pic_nav pic_nav2"><a href="http://www.360doc.cn/lianxiwomen.aspx">联系我们</a></div>
</div>
</div>
<footer data-sudaclick="footer">
<div class="p_footer" style="-webkit-box-shadow: none; padding: 9px 0 1rem;">
<p class="p_foot_v">
<a class="active" href="/index.html">触屏版</a>|
<a href="http://www.360doc.com/mobile">电脑版</a>|
<a href="/kehuduan.aspx">客户端</a>
</p>
<p class="p_foot_t">©360doc( 京ICP证090625号)</p>
</div>
</footer>
<div id="tipiphonediv" style="display: none;"></div>
<script src="http://www.360doc.cn/js/common/docgjio.js?t=2018073001" type="text/javascript"></script>
<script src="http://www.360doc.cn/js/Statistics/sha1.js?t=2017091801"></script>
<script src="http://www.360doc.cn/js/Statistics/addStatistics.js?t=2020102602"></script>
<script src="/js/articlegb.js?t=2020122302" type="text/javascript"></script>
<script async="" charset="utf-8" src="//blockart.360doc.com/ajax/getstatusv2.ashx?aid=12519471" type="text/javascript"></script>
<script async="" charset="utf-8" src="http://blockart.360doc.com/ajax/getartstatus.ashx?aid=821238005,665224954,62918266,865612177,312314236,707429028&amp;callbackparam=doccheckarts" type="text/javascript"></script>
<script type="text/javascript">
        function setOuserDataWidth() {
            var btnw = $('.btn2s').width(), oother = $('#ouser_data').parent().width(), upw = $('#userphotohtml img').outerWidth(true);
            $('#ouser_data').width(oother - upw - btnw - 10)
        }
        $('#arttopfloat').width($(window).width() < 320 ? 320 : $(window).width());
        setOuserDataWidth();
        $(window).resize(function () {
            $('#arttopfloat').width($(window).width() < 320 ? 320 : $(window).width());
            setOuserDataWidth();
        });
        function closecurrentwindow(t) {
            if (t.href != null && t.href.toString().indexOf("history.go") == -1) {
                return;
            }
            if (history.length <= 1) {
                try {
                    window.close();
                } catch (err) {
                }
            }
        }
        $(document).ready(function () {
            $(window).scroll(function () {
                var str = $(document).scrollTop();
                if (str > $(window).height()) {
                    $('.backtop').show()
                } else {
                    $('.backtop').hide()
                }
            })
            /*去除文字中编辑属性*/
            $("section[contenteditable]").removeAttr("contenteditable");
            $("p[contenteditable]").removeAttr("contenteditable"); 
        });
	
      </script>
<script type="application/ld+json">
        {
            "@context": "https://ziyuan.baidu.com/contexts/cambrian.jsonld",
            "@id": "http://www.360doc.cn/article/679384_12519471.html",
            "appid": "1549328666522086",
            "title": "夏天的旋律",
            "images": [
                ],
            "pubDate": "2010-01-02T18:54:44"
        } 
    </script>
<div class="pay__" style="display: none;">
<div class="pay__prompt pay__p1" id="pay__prompt"></div>
<div class="d1">
<a class="pay__closer" href="javascript:void(0);"></a>
<p class="pay__title">赞赏原创作者</p>
<div id="pay__step1">
<div class="pay__num" id="pay__num">
<span>¥2.00</span>
<p class="pay_input"><i class="fl">¥</i><input class="fl" id="pay__m" placeholder="(金额只能为1-200元)" type="number"/></p>
</div>
<div class="pay__money">
<a data-m="¥1.00" href="javascript:void(0);">1元</a>
<a class="cur" data-m="¥2.00" href="javascript:void(0);">2元</a>
<a data-m="¥5.00" href="javascript:void(0);">5元</a>
<a href="javascript:void(0);">自定义</a>
</div>
<a class="pay__type wx__" href="javascript:void(0);" id="pay__type_change">
<i class="var__"></i>
</a>
<div style="padding: 15px 0;">
<a class="pay__btn1" href="javascript:void(0);" id="pay__go">赏了</a>
</div>
</div>
<div class="pay__step2" id="pay__step2" style="display: none;">
<a class="pay__type wx__" href="javascript:void(0);"><i class="var__"></i></a>
<a class="pay__type zfb__" href="javascript:void(0);"><i class="var__"></i></a>
</div>
<div class="pay__step3" id="pay__step3" style="display: none;">
<div class="d1">
<p class="p1">请在第三方支付中完成支付，如果你已经支付成功，请点击<span>已完成支付</span>按钮</p>
<p class="p1" style="margin-top: 15px;">如果未完成支付，请点击取消按钮，取消本次支付</p>
</div>
<a class="pay__btn1" href="javascript:void(0);" id="pay__verification">已完成支付</a>
<div style="padding: 10px 0;">
<a class="pay__btn2" href="javascript:void(0);">取消支付</a>
</div>
</div>
</div>
</div>
<div class="out_p2019" style="display: none;">
<a class="closer" onclick="$('.out_p2019').hide();">×</a>
<p class="p1"></p>
<p class="p2">复制成功</p>
<a class="d1" href="javascript:void(0);" onclick="pageDownAPP(1);">
<i></i>
<p>想永久保存该文吗？<br/>
<span>下载个人图书馆APP吧</span></p>
</a>
</div>
<div class="fixedtoolbar old" id="copytoolbar" style="display: none;">
<a class="a1" href="javascript:void(0);" id="isresaveidBottom" onclick="resavearticle(this);">收藏</a>
<a class="a2" href="javascript:void(0);" onclick="toShare();addStatisticsNew('34-33-1-2',true);">分享</a>
<a class="a3" href="javascript:void(0);" onclick="SendWordToEmailObj.check()">转为Word并邮件发送</a>
<a class="a4" href="javascript:void(0);" onclick="CopyMainContentObj.check()">复制全文</a>
</div>
<div class="logandpay" id="logandpay" style="display: none;">
</div>
<div class="sharediv" id="sharediv" style="display: none;">
<div class="btns bdsharebuttonbox" data-tag="share_1">
<a class="newbefore a1" onclick="call('wechatFriend');addStatisticsNew('34-33-1-3',true);"><span>微信</span></a>
<a class="newbefore a6" onclick="call('wechatTimeline');addStatisticsNew('34-33-1-8',true);"><span>朋友圈</span></a>
<a class="newbefore a3" data-cmd="tsina" onclick="call('weibo');addStatisticsNew('34-33-1-4',true);"><span>新浪微博</span></a>
<a class="newbefore a2" data-cmd="qzone" onclick="call('qZone');addStatisticsNew('34-33-1-5',true);"><span>QQ空间</span></a>
<a class="newbefore a4" onclick="call('qqFriend');addStatisticsNew('34-33-1-6',true);"><span>QQ</span></a>
<a class="newbefore a5" id="email2" onclick="addStatisticsNew('34-33-1-7',true);"><span>邮件推送</span></a>
</div>
<a href="javascript:void(0)" onclick="$('#sharediv').hide();">取消</a>
</div>
<div class="viphelper" id="viphelper" onclick="TipLayerOuter.clickVipHelper()">
<div class="d1">绑定账号成功<br/>后续可登录账号畅享VIP特权！</div>
<div class="d2">如果VIP功能使用有故障，<br/>可点击这里联系客服！<i class="newico"></i><div class="serv newbefore" style="position: fixed;top: 0;right: 0.7rem;"></div></div>
</div>
<script type="text/javascript">
        function clearSelections () {
            if (window.getSelection) {
                // 获取选中
                var selection = window.getSelection();
                // 清除选中
                selection.removeAllRanges();
            }  
        }
        $(document.body).bind("copy", function () {

            if (CopyMainContentObj.isCopyMainContent||isCopyLink||isCopyQQ_Number) {
                CopyMainContentObj.isCopyMainContent = false;
                isCopyLink=false;
                isCopyQQ_Number=false;
                return true;
            }
            $(".out_p2019").show();
            setTimeout(function(){
                clearSelections();
            },10);
            //imgLogArt(1,'w20-26-3');
            addStatisticsNew('30-11-10', true);
        });
        $(".out_p2019").on("touchend", function(e) {
            e.stopPropagation();  
        });

        $(document.body).on("touchend", function(e) {
            $(".out_p2019").hide();
        });
        if ($("#hiddenoriginal").val() == "1") {
            imgLogArt(1, 'w20-25-8');
        }
        $('.head2020 .select').click(function (e) {
            e.stopPropagation();
            $('.head2020').toggleClass('open');
            addStatisticsNew('34-34-1-2', true);
        });
        $('body').click(function () {
            $('.head2020').removeClass('open');
        });
        $('#sharediv').click(function(e){if(e.target==this){$(this).hide()}});
    </script>
</body>
</html>
