<!DOCTYPE html>
<html>
<head>
<title>La page demandée n'existe pas (404)</title>
<meta content="width=device-width,initial-scale=1" name="viewport"/>
<style>
  .rails-default-error-page {
    background-color: #EFEFEF;
    color: #2E2F30;
    text-align: center;
    font-family: arial, sans-serif;
    margin: 0;
  }

  .rails-default-error-page div.dialog {
    width: 95%;
    max-width: 33em;
    margin: 4em auto 0;
  }

  .rails-default-error-page div.dialog > div {
    border: 1px solid #CCC;
    border-right-color: #999;
    border-left-color: #999;
    border-bottom-color: #BBB;
    border-top: #B00100 solid 4px;
    border-top-left-radius: 9px;
    border-top-right-radius: 9px;
    background-color: white;
    padding: 7px 12% 0;
    box-shadow: 0 3px 8px rgba(50, 50, 50, 0.17);
  }

  .rails-default-error-page h1 {
    font-size: 100%;
    color: #730E15;
    line-height: 1.5em;
  }

  .rails-default-error-page div.dialog > p {
    margin: 0 0 1em;
    padding: 1em;
    background-color: #F7F7F7;
    border: 1px solid #CCC;
    border-right-color: #999;
    border-left-color: #999;
    border-bottom-color: #999;
    border-bottom-left-radius: 4px;
    border-bottom-right-radius: 4px;
    border-top-color: #DADADA;
    color: #666;
    box-shadow: 0 3px 8px rgba(50, 50, 50, 0.17);
  }
  </style>
</head>
<body class="rails-default-error-page">
<!-- This file lives in public/404.html -->
<div class="dialog">
<div>
<h1>La page demandée n'existe pas.</h1>
<p>Soit vous avez mal entré l'adresse, soit la page a été déplacée. L'équipe est tenue au courant de cette erreur, et fait de son mieux pour corriger l'éventuel problème.</p>
</div>
</div>
</body>
</html>
