<!DOCTYPE html>
<html>
<head>
<meta charset="utf-8"/>
<meta content="width=device-width,maximum-scale=1,minimum-scale=1,user-scalable=no" name="viewport"/>
<title>åéç½ç»ä¼ åª ï¼ åä¸­å½æä¸ä¸çæ¸¸æè¥éå¹³å°</title>
<link href="/themes/2020/css/swiper.min.css" rel="stylesheet"/>
<link href="/themes/2020/font/iconfont.css" rel="stylesheet"/>
<script>
        var userAgent = window.navigator.userAgent.toLowerCase();
        var ieVersion=/msie (\d+)/.exec(userAgent);
        if(ieVersion&&ieVersion[1]<10){
            alert("æ¨èä½¿ç¨è°·æ­æµè§å¨ï¼å¦æä½¿ç¨IEè¯·ä½¿ç¨IE9ä»¥ä¸çæ¬")
        }
    </script>
<link href="/themes/2020/css/vendors~entry.min.css?68dac50fdac058c35d16" rel="stylesheet"/><link href="/themes/2020/css/entry.min.css?68dac50fdac058c35d16" rel="stylesheet"/></head>
<body class="page hide">
<header class="page-header">
<div class="bl-inner"><a class="logo" href="/"><img src="/themes/2020/imgs/logo.png"/></a>
<ul class="menu-link">
<li><a href="/" target="blank">é¦é¡µ</a></li>
<li><a href="/bulletin.html" target="blank">èçå¬å</a></li>
<li><a href="/advert.html" target="blank">å¹¿åæ¨¡å¼</a></li>
<li><a href="/faq.html" target="blank">å¸¸è§é®é¢</a></li>
</ul>
<div class="login-info">
<p class="user-info"><span id="login-name" style="cursor:auto;"></span><a href="/user.html" style="color:#fff;margin-left:10px;">ä¸ªäººä¸­å¿</a><span class="logout" data-type="logout" title="ç¹å»éåº">éåº</span></p><span data-type="login">ç»å½/æ³¨å</span>
</div>
</div>
</header>
<div class="page-body">
<div class="page-body-bl">
<div class="swiper-container">
<div class="swiper-wrapper">
<div class="swiper-slide"><img src="/themes/2020/imgs/banners/1.jpg"/></div>
<div class="swiper-slide"><img src="/themes/2020/imgs/banners/2.jpg"/></div>
<div class="swiper-slide"><img src="/themes/2020/imgs/banners/3.jpg"/></div>
<div class="swiper-slide"><img src="/themes/2020/imgs/banners/4.jpg"/></div>
</div>
<!-- å¦æéè¦åé¡µå¨-->
<div class="swiper-pagination"></div>
</div>
</div>
<div class="page-body-bl bg-gray bl-notice">
<div class="bl-inner">
<div class="web_notice_content vote" id="web_notice_content">
<div id="scroll_ul_top">
<ul>
<li><a href="./html/bulletin-view-620.html">æªè³2020å¹´12æ20æ¥çä½£éå·²æ¯ä»ï¼</a></li>
<li><a href="./html/bulletin-view-619.html">æªè³2020å¹´12æ13æ¥çä½£éå·²æ¯ä»ï¼</a></li>
<li><a href="./html/bulletin-view-618.html">æªè³2020å¹´12æ6æ¥çä½£éå·²æ¯ä»ï¼</a></li>
<li><a href="./html/bulletin-view-617.html">æªè³2020å¹´11æ29æ¥çä½£éå·²æ¯ä»ï¼</a></li>
<li><a href="./html/bulletin-view-616.html">æªè³2020å¹´11æ22æ¥çä½£éå·²æ¯ä»ï¼</a></li>
</ul>
</div>
<div id="scroll_ul_bottom"></div>
</div>
</div>
</div>
<div class="page-body-bl bl-lg">
<div class="bl-inner">
<div class="bl-title">å¹¿åç±»å</div>
<div class="bl-desc">ééæµéä¸»å¤éåºæ¯ï¼è½»éå¯¹æ¥å¿«éä¸çº¿ï¼æ·±åº¦å¯¹æ¥é¿çº¿è¿è¥</div>
<ul class="ad-list">
<li class="ad-item">
<div class="ad-img" style="background-image:url(/themes/2020/imgs/ad_type/1.png)"></div>
<p class="ad-title">CPMå¼¹çªå¹¿å</p>
<p class="ad-desc">å¹¿åå¤ï¼æ­£è§æ­£çï¼æ¶çå¥½ï¼åä»·é«</p>
</li>
<li class="ad-item">
<div class="ad-img" style="background-image:url(/themes/2020/imgs/ad_type/2.png)"></div>
<p class="ad-title">æµ®çªå¹¿å</p>
<p class="ad-desc">å³ä¸è§å¯åªä½ï¼å¤è½®è®¡è´¹</p>
</li>
<li class="ad-item">
<div class="ad-img" style="background-image:url(/themes/2020/imgs/ad_type/3.png)"></div>
<p class="ad-title">CPA,CPC,CPSå¹¿å</p>
<p class="ad-desc">æç¨æ·æ³¨åï¼ç¹å»ï¼åå¼åæè®¡è´¹ï¼å¤ç§å¹¿åéæ©</p>
</li>
<li class="ad-item">
<div class="ad-img" style="background-image:url(/themes/2020/imgs/ad_type/4.png)"></div>
<p class="ad-title">å®è£å¹¿å</p>
<p class="ad-desc">è½¯ä»¶æç»å®è£ï¼å¤äº§åéæ©ï¼å¤æ¶ç</p>
</li>
</ul>
</div>
</div>
<div class="page-body-bl bg-gray bl-lg">
<div class="bl-inner">
<div class="bl-title">æ¨èæ¸¸æ</div>
<div class="bl-desc">ä¼è´¨æ¸¸æèµæºï¼æ¶çæ´æä¿é</div>
<div class="games-wrap">
<div class="games">
<p class="gt-mobile game-type">ç§»å¨ç«¯</p>
<ul class="game-list">
<li class="game-list-item">
<div class="game-img" style="background-image:url(/themes/img/37cs_product_wstl.png)"></div>
<p class="game-title">æ­¦å£å± é¾</p>
<p class="game-desc">ä¸å¤«å½å³ æè³ç»ç« </p>
</li>
<li class="game-list-item">
<div class="game-img" style="background-image:url(/themes/img/37cs_product_rydts.png)"></div>
<p class="game-title">è£èå¤§å¤©ä½¿</p>
<p class="game-desc">è£èåå½ï¼åæåèå¤§é</p>
</li>
<li class="game-list-item">
<div class="game-img" style="background-image:url(/themes/img/37cs_product_jzxjz.png)"></div>
<p class="game-title">ä¹å·ä»åä¼ </p>
<p class="game-desc">æ°çä»£å½é£ä»ä¾ ææ¸¸</p>
</li>
</ul>
</div>
<div class="games">
<p class="gt-pc game-type">PCç«¯</p>
<ul class="game-list">
<li class="game-list-item">
<div class="game-img" style="background-image:url(/themes/img/37cs_product_zsjx.png)"></div>
<p class="game-title">æç¥è§é</p>
<p class="game-desc">ä¸æå¤§æï¼è·¨æäºé¸</p>
</li>
<li class="game-list-item">
<div class="game-img" style="background-image:url(/themes/img/37cs_product_cjzg.png)"></div>
<p class="game-title">è£å³ææ­</p>
<p class="game-desc">æªç¥ççæä¸çï¼æ­åä¸ä¸ªæ°çé¸ä¸»çå°æ¥</p>
</li>
<li class="game-list-item">
<div class="game-img" style="background-image:url(/themes/img/37cs_product_mhj2.png)"></div>
<p class="game-title">è®èè®°2</p>
<p class="game-desc">æ··æ²ä¸çãç»æè§é</p>
</li>
</ul>
</div>
<div class="more">
<p class="more-text">æ´å¤æ¨èæ¸¸æå¯å¨è¯¢å®¢æ</p>
<p class="more-tag"></p>
</div>
</div>
</div>
</div>
</div>
<footer class="page-footer">
<div class="footer-link"><a class="footer-link-item">å¹¿åèµè®¯</a><a class="footer-link-item">æèä¿¡æ¯</a><a class="footer-link-item">å³äºèç</a><a class="footer-link-item">æè¯å»ºè®®</a>
</div>
<p class="website-tips">çæææï¼åéä¼ åªç½ç» <a href="https://beian.miit.gov.cn" style="color: #ffffff;margin-left: 10px" target="_blank">ç²¤ICPå¤14078772å·</a></p>
</footer>
<div class="log-reg-wrapper" id="log-reg-wrapper">
<div class="login-box dialog" v-show="status===1">
<div class="dialog-title">ç»å½</div>
<login ref="loginDialog"></login>
<div class="dialog-footer">è¿æ²¡æå¸å·ï¼<a class="clr-link">åå»ºæ°å¸å·</a></div>
</div>
<div class="regist-box dialog" v-show="status===2">
<div class="dialog-title">æ³¨å</div>
<regist></regist>
<div class="dialog-footer">
<p>å·²æå¸å·ï¼<a class="clr-link">é©¬ä¸ç»å½</a></p>
</div>
</div>
</div>
<div class="aside"><a href="/contact.html" target="_blank">
<div class="aside-wchat aside-item"><img src="/themes/2020/imgs/wchat.png"/>
<p>èç³»å®¢æ</p>
</div>
</a>
<div class="aside-regist aside-item" data-type="regist"><img src="/themes/2020/imgs/regist.png"/>
<p>ç«å³æ³¨å</p>
</div>
</div>
<script src="/themes/2020/js/jquery.min.js"></script>
<script src="/themes/2020/js/swiper.min.js"></script>
<script>
    window.onload = function () {
        var mySwiper = new Swiper('.swiper-container', {
            direction: 'horizontal',
            loop: true,
            autoplay: 3000,
            // å¦æéè¦åé¡µå¨
            pagination: '.swiper-pagination',
        })
    }
</script>
<script src="/themes/2020/js/scroll.js"></script>
<script src="/themes/2020/js/vendor.min.js?68dac50fdac058c35d19" type="text/javascript"></script>
<script src="/themes/2020/js/vendors~entry.min.js?68dac50fdac058c35d19" type="text/javascript"></script>
<script src="/themes/2020/js/entry.min.js?68dac50fdac058c35d19" type="text/javascript"></script></body>
</html>