<!DOCTYPE html>
<html lang="en">
<head><title>BỆNH VIỆN ĐA KHOA THĂNG HOA</title>
<!-- Mobile Specific Metas
    ================================================== -->
<meta content="width=device-width, initial-scale=1" name="viewport"/>
<!-- Favicon -->
<link href="images/benhvienthanghoa.gif" rel="shortcut icon"/>
<meta content="”https://www.bvthanghoa.com.vn/”" property="”og:url”"/>
<meta content="https://www.bvthanghoa.com.vn/hinhmenu/tintucbanner.gif" property="og:image"/>
<meta content="”{tagValue}”/" property="”og:{tagName}”"/>
<meta content="”Hinh" ctsp="" property="”og:site_name”"/>
<meta content="”web”" css="=================================================" property="”og:type”"/>
<!-- Bootstrap css file-->
<link href="sitetrangchu/css/bootstrap.min.css" rel="stylesheet"/>
<!-- Font awesome css file-->
<link href="sitetrangchu/css/font-awesome.min.css" rel="stylesheet"/>
<!-- Default Theme css file -->
<link href="sitetrangchu/css/themes/default-theme.css" id="switcher" rel="stylesheet"/>
<!-- Slick slider css file -->
<link href="sitetrangchu/css/slick.css" rel="stylesheet"/>
<!-- Photo Swipe Image Gallery -->
<link href="sitetrangchu/css/photoswipe.css" rel="stylesheet prefetch"/>
<link href="sitetrangchu/css/default-skin.css" rel="stylesheet prefetch"/>
<!-- Main structure css file -->
<link href="sitetrangchu/style.css" rel="stylesheet"/>
<!-- Google fonts -->
<!-- HTML5 shim and Respond.js for IE8 support of HTML5 elements and media queries -->
<!-- WARNING: Respond.js doesn't work if you view the page via file:// -->
<!--[if lt IE 9]>
      <script src="https://oss.maxcdn.com/html5shiv/3.7.2/html5shiv.min.js"></script>
      <script src="https://oss.maxcdn.com/respond/1.4.2/respond.min.js"></script>
    <![endif]-->
<script src="https://ajax.googleapis.com/ajax/libs/jquery/1.6.1/jquery.min.js"></script>
<script>
$(window).load(function(){
 

});
$(document).bind("contextmenu",function(e){
  e.preventDefault();
});
$(document).keydown(function(ev) {
   // capture the event for a variety of browsers
   ev = ev || window.event;
   // catpure the keyCode for a variety of browsers
   kc = ev.keyCode || ev.which;
   // check to see that either ctrl or command are being pressed along w/any other keys
   if((ev.ctrlKey || ev.metaKey) && kc) {
       // these are the naughty keys in question. 'x', 'c', and 'c'
       // (some browsers return a key code, some return an ASCII value)
       if(kc == 99 || kc == 67 || kc == 88) {
              return false;
       }
   }
});
</script>
<!--<script src="js/phaohoa.js"></script>
<script type="text/javascript">
var bgBegin = 22;
var bgEnd = 31;
var bgTetId = 31;
var bgTetUrl = '/banner/';
document.body.style.backgroundImage = 'url(' + bgTetUrl + bgTetId + '.jpg)';
document.body.style.backgroundAttachment = 'fixed';
document.body.style.backgroundSize = 'cover';
setInterval(function(){
 if (bgTetId == bgEnd) bgTetId = bgBegin;
 document.body.style.backgroundImage = 'url(' + bgTetUrl + bgTetId + '.jpg)';
 document.body.style.backgroundAttachment = 'fixed';
 document.body.style.backgroundSize = 'cover';
 bgTetId++;
}, 15000);
</script>
<script type="text/javascript">
$(document).ready(function() {	

		var id = '#dialog';
	
		//Get the screen height and width
		var maskHeight = $(document).height();
		var maskWidth = $(window).width();
	
		//Set heigth and width to mask to fill up the whole screen
		$('#mask').css({'width':maskWidth,'height':maskHeight});
		
		//transition effect		
		$('#mask').fadeIn(1349);	
		$('#mask').fadeTo("slow",0.8);	
	
		//Get the window height and width
		var winH = $(window).height();
		var winW = $(window).width();
              
		//Set the popup window to center
		$(id).css('top',  winH/2-$(id).height()/2);
		$(id).css('left', winW/2-$(id).width()/2);
	
		//transition effect
		$(id).fadeIn(2000); 	
	
	//if close button is clicked
	$('.window .close').click(function (e) {
		//Cancel the link behavior
		e.preventDefault();
		
		$('#mask').hide();
		$('.window').hide();
	});		
	
	//if mask is clicked
	$('#mask').click(function () {
		$(this).hide();
		$('.window').hide();
	});		
	
});

</script>

<style type="text/css">

#mask {
  position:absolute;
  left:0;
  top:0;
  z-index:9000;
  background-color:#000;
  display:none;
}  
#boxes .window {
  position:absolute;
  left:0;
  top:0;
  width:60%;
  height:100%;
  display:none;
  z-index:9999;
  padding:20px;
}
#boxes #dialog {
  width:60%;
  height:540px;
  padding:10px;
  background:#FFFFFF;
}

@media screen and (max-width: 480px) 
{
   #boxes .window {
  position:absolute;
  left:0;
  top:0;
  width:90%;
  height:100%;
  display:none;
  z-index:9999;
  padding:20px;
}
#boxes #dialog {
  width:90%;
  height:200px;
  padding:10px;
  background:#FFFFFF;
} 
    }
</style>
</head><body>

<div id="boxes">
<div style="top: 100px; left: 200; display: none;" id="dialog" class="window">
<img src="hinhmenu/atvmedia.jpg" style="width: 100%; height: auto;" />
<a href="#" class="close">Close it</a>

</div>
<!-- Mask to cover the whole screen -->
<!--<div style="width: 100%; height: 602px; display: none; opacity: 0.8;" id="mask"></div>
</div>-->
</head>
<body>
<!-- BEGAIN PRELOADER -->
<div id="preloader">
<div id="status"> </div>
</div>
<!-- END PRELOADER -->
<!-- SCROLL TOP BUTTON -->
<a class="scrollToTop" href="#"><i class="fa fa-heartbeat"></i></a>
<!-- END SCROLL TOP BUTTON -->
<!--=========== BEGIN HEADER SECTION ================-->
<header id="header">
<!-- BEGIN MENU -->
<div class="menu_area">
<nav class="navbar navbar-default navbar-fixed-top" role="navigation">
<div class="container">
<div class="navbar-header">
<!-- FOR MOBILE VIEW COLLAPSED BUTTON -->
<button aria-controls="navbar" aria-expanded="false" class="navbar-toggle collapsed" data-target="#navbar" data-toggle="collapse" type="button">
<span class="sr-only">Toggle navigation</span>
<span class="icon-bar"></span>
<span class="icon-bar"></span>
<span class="icon-bar"></span>
</button>
<!-- LOGO -->
<!-- TEXT BASED LOGO -->
<a class="navbar-brand" href="trang-chu"> <img alt="" src="sitetrangchu/images/logobv.png"/></a>
<!-- IMG BASED LOGO  -->
<!--  <a class="navbar-brand" href="index.html"><img src="images/logo.png" alt="logo"></a>   -->
</div>
<div class="navbar-collapse collapse" id="navbar">
<ul class="nav navbar-nav navbar-right main-nav" id="top-menu">
<!--<li class="active"><a href="index.html">Trang chủ</a></li>-->
<li class="dropdown">
<a aria-expanded="false" class="dropdown-toggle" data-toggle="dropdown" href="gioi-thieu" role="button">Giới thiệu <span class="fa fa-angle-down"></span></a>
<ul class="dropdown-menu" role="menu">
<li><a href="gioi-thieu-Benh-vien-Da-khoa-Thang-Hoa-16">Giới thiệu chung</a></li>
<li><a href="gioi-thieu-Benh-vien-Da-khoa-Thang-Hoa-17">Mục tiêu và trang bị thiết bị</a></li>
<li><a href="gioi-thieu--19">Vì sao chọn chúng tôi</a></li>
<li><a href="dichvu-timbacsi">Tìm bác sĩ chúng tôi</a></li>
</ul>
</li>
<li class="dropdown">
<a aria-expanded="false" class="dropdown-toggle" data-toggle="dropdown" href="dichvu-ykhoa" role="button">Dịch vụ <span class="fa fa-angle-down"></span></a>
<ul class="dropdown-menu" role="menu">
<li><a href="thongtin-dichvuykhoa-Khoa-Ngoai-59">Khoa ngoại TQ</a></li>
<li><a href="#">Khoa nội TQ</a></li>
<li><a href="thongtin-dichvuykhoa-Khoa-Hoi-Suc-Cap-Cuu-61">Khoa cấp cứu</a></li>
<li><a href="thongtin-dichvuykhoa-Khoa-Duoc-66">Khoa dược</a></li>
<li><a href="thongtin-dichvuykhoa-Khoa-Phu-San-65">Khoa phụ sản</a></li>
<li><a href="thongtin-dichvuykhoa-Khoa-Kham-Benh-64">Khoa khám bệnh</a></li>
<li><a href="#">Khoa răng hàm mặt</a></li>
<li><a href="#">Đơn vị xét nghiệm</a></li>
<li><a href="thongtin-dichvuykhoa-Khoa-Dong-Y-67">Khoa đông y</a></li>
<li><a href="thongtin-dichvuykhoa-Don-Vi-PTTM-69">Đơn vị phẩu thuật thẩm mĩ</a></li>
</ul>
</li>
<li class="dropdown">
<a aria-expanded="false" class="dropdown-toggle" data-toggle="dropdown" href="dichvu-ykhoa" role="button">Dịch vụ hỗ trợ <span class="fa fa-angle-down"></span></a>
<ul class="dropdown-menu" role="menu">
<li><a href="thongtin-dichvuhotro-CAC-GOI-KHAM-SUC-KHOE-26">Gói khám sức khoẻ</a></li>
<li><a href="thongtin-dichvuhotro-Dich-vu-Bao-Hiem-27">Chính sách bảo hiểm</a></li>
<li><a href="#">Dịch vụ ưu đãi</a></li>
</ul>
</li>
<li><a href="hoi-dap">Hỏi đáp</a></li>
<li><a href="tuyen-dung">Tuyển dụng</a></li>
<li><a href="tin-tuc">Tin tức</a></li>
<li><a href="https://www.facebook.com/benhviendakhoathanghoaquangnam/">Liên hệ</a></li>
</ul>
</div><!--/.nav-collapse -->
</div>
</nav>
</div>
<!-- END MENU -->
</header>
<!--=========== END HEADER SECTION ================-->
<!--=========== BEGIN SLIDER SECTION ================-->
<section id="sliderArea">
<!-- Start slider wrapper -->
<div class="top-slider">
<!-- Start First slide -->
<div class="top-slide-inner">
<div class="slider-img">
<img alt="" src="sitetrangchu/images/14.jpg"/>
</div>
<!--<div class="slider-text">
            <h2>An <strong>Excellent Theme</strong> for your Health Related Project</h2>
            <p><strong>ATVMEDIA</strong> Theme suitable for any health and medical related projets or business</p>
            <div class="readmore_area">
              <a data-hover="Read More" href="#"><span>Read More</span></a>                
            </div>
          </div>-->
</div>
<!-- End First slide -->
<!-- Start 2nd slide -->
<div class="top-slide-inner">
<div class="slider-img">
<img alt="" src="sitetrangchu/images/15.jpg"/>
</div>
<!--<div class="slider-text">
            <h2><strong>Best Template</strong> For your Medical Website</h2>
            <p><strong>WpF Medinova</strong> Theme suitable for any health and medical related projets or business</p>
            <div class="readmore_area">
              <a data-hover="Read More" href="#"><span>Read More</span></a>                
            </div>
          </div>-->
</div>
<!-- End 2nd slide -->
<!-- Start Third slide -->
<div class="top-slide-inner">
<div class="slider-img">
<img alt="" src="sitetrangchu/images/7.jpg"/>
</div>
<!--<div class="slider-text">
            <h2>An <strong>Excellent Theme</strong> for your Health Related Project</h2>
            <p><strong>WpF Medinova</strong> Theme suitable for any health and medical related projets or business</p>
            <div class="readmore_area">
              <a data-hover="Read More" href="#"><span>Read More</span></a>                
            </div>
          </div>-->
</div>
<!-- End Third slide -->
<!-- Start Fourth slide -->
<div class="top-slide-inner">
<div class="slider-img">
<img alt="" src="sitetrangchu/images/12.jpg"/>
</div>
<!--<div class="slider-text">
            <h2><strong>Best Template</strong> For your Medical Website</h2>
            <p><strong>WpF Medinova</strong> Theme suitable for any health and medical related projets or business</p>
            <div class="readmore_area">
              <a data-hover="Read More" href="#"><span>Read More</span></a>                
            </div>
          </div>-->
</div>
<!-- End Fourth slide -->
<!-- Start Fifth slide -->
<!--<div class="slider-text">
            <h2>An <strong>Excellent Theme</strong> for your Health Related Project</h2>
            <p><strong>WpF Medinova</strong> Theme suitable for any health and medical related projets or business</p>
            <div class="readmore_area">
              <a data-hover="Read More" href="#"><span>Read More</span></a>                
            </div>
          </div>-->
</div>
<!-- End Fifth slide -->
<!-- /top-slider -->
</section>
<!--=========== END SLIDER SECTION ================-->
<!--=========== BEGIN Top Feature SECTION ================-->
<section id="topFeature">
<div class="row">
<!-- Start Single Top Feature -->
<div class="col-lg-4 col-md-4">
<div class="row">
<div class="single-top-feature">
<span class="fa fa-flask"></span>
<h3>Các Gói Khám Sức Khoẻ</h3>
<p>Chúng tôi thiết lập các gói khám sức khỏe định kỳ khác nhau phân theo từng nhóm tuổi. Chương trình giúp bạn tiết kiệm thời gian và chi phí....</p>
<div class="readmore_area">
<a data-hover="Chi tiết" href="thongtin-dichvuhotro-CAC-GOI-KHAM-SUC-KHOE-26"><span style="font-family: tahoma;">Chi tiết</span></a>
</div>
</div>
</div>
</div>
<!-- End Single Top Feature -->
<!-- Start Single Top Feature -->
<div class="col-lg-4 col-md-4">
<div class="row">
<div class="single-top-feature opening-hours">
<span class="fa fa-clock-o"></span>
<h3 style="font-family: tahoma;">Giờ Mở Cửa</h3>
<p style="font-family: tahoma;    font-size: 15px;">Mở cửa các ngày trong tuần từ Thứ 2 đến Chủ Nhật.</p>
<p style="font-family: tahoma; font-size: 15px; font-weight: bold; color: #f00;">LỊCH KHÁM BỆNH</p>
<ul class="opening-table">
<li>
<span>Buổi Sáng</span>
<div class="value">7:00 đến 11:30</div>
</li>
<li>
<span>Buổi Chiều</span>
<div class="value">13h30 đến 17h00</div>
</li>
<li>
<span>Cấp Cứu</span>
<div class="value">24/24</div>
</li>
</ul>
</div>
</div>
</div>
<!-- End Single Top Feature -->
<!-- Start Single Top Feature -->
<div class="col-lg-4 col-md-4">
<div class="row">
<div class="single-top-feature">
<span class="fa fa-hospital-o"></span>
<h3>Đặt Lịch Khám Bệnh </h3>
<p>Hệ thống đặt lịch khám trực tuyến tại Bệnh Viện Thăng Hoa chúng tôi sẽ tiếp nhận lịch đặt khám, hoặc liên hệ trực tiếp qua Điện thoại:  0235.3 678 116  .</p>
<div class="readmore_area">
<a data-hover="Đặt lịch" data-target="#myModal" data-toggle="modal" href="#"><span>Đặt lịch</span></a>
</div>
<!-- start modal window -->
<div aria-hidden="true" aria-labelledby="myModalLabel" class="modal fade" id="myModal" role="dialog" tabindex="-1">
<div class="modal-dialog">
<div class="modal-content">
<div class="modal-header">
<button aria-hidden="true" class="close" data-dismiss="modal" type="button">×</button>
<h4 class="modal-title" id="myModalLabel">Đặt lịch</h4>
</div>
<div class="modal-body">
<div class="appointment-area">
<form class="appointment-form">
<div class="row">
<div class="col-md-6 col-sm-6">
<label class="control-label">Tên Người Bệnh <span class="required">*</span>
</label>
<input class="wp-form-control wpcf7-text" placeholder="Tên Người Bệnh" type="text"/>
</div>
<div class="col-md-6 col-sm-6">
<label class="control-label">Địa Chỉ Email <span class="required">*</span>
</label>
<input class="wp-form-control wpcf7-email" placeholder="Địa Chỉ Email" type="mail"/>
</div>
</div>
<div class="row">
<div class="col-md-6 col-sm-6">
<label class="control-label">Ngày Sinh <span class="required">*</span>
</label>
<input class="wp-form-control wpcf7-text" placeholder="dd/mm/yy" type="text"/>
</div>
<div class="col-md-6 col-sm-6">
<label class="control-label">Số Điện Thoại <span class="required">*</span>
</label>
<input class="wp-form-control wpcf7-text" placeholder="Số Điện Thoại" type="text"/>
</div>
</div>
<div class="row">
<div class="col-md-6 col-sm-6">
<label class="control-label">Ngày Khám<span class="required">*</span>
</label>
<input class="wp-form-control wpcf7-text" placeholder="dd/mm/yy" type="text"/>
</div>
<div class="col-md-6 col-sm-6">
<label class="control-label">Độ Tuổi <span class="required">*</span>
</label>
<select class="wp-form-control wpcf7-select">
<!--<option val="1">Dental</option>
                                <option val="2">cardiology</option>
                                <option val="3">neurology</option>
                      
                                <option val="10">immunizations</option><option val="11">pulmonary</option>-->
</select>
</div>
</div>
<input class="wp-form-control wpcf7-text" placeholder="Tiêu đề khám" type="text"/>
<textarea class="wp-form-control wpcf7-textarea" cols="30" placeholder="Nội Dung Cần Khá" rows="10"></textarea>
<button class="wpcf7-submit button--itzel" type="submit"><i class="button__icon fa fa-share"></i><span>GỬI THÔNG TIN</span></button>
</form>
</div>
</div>
</div><!-- /.modal-content -->
</div><!-- /.modal-dialog -->
</div><!-- /.modal -->
</div>
</div>
</div>
<!-- End Single Top Feature -->
</div>
</section>
<!--=========== END Top Feature SECTION ================-->
<!--=========== BEGAIN Home Blog SECTION ================-->
<section id="homeBLog">
<div class="container">
<div class="row">
<div class="col-lg-12 col-md-12">
<div class="homBlog-area">
<!-- Start Service Title -->
<div class="section-heading">
<h2>Tin Tức Nổi Bật</h2>
<div class="line"></div>
</div>
<!-- Start Home Blog Content -->
<div class="homeBlog-content">
<div class="row">
<!-- Start Single Blog -->
<div class="col-lg-4 col-md-4 col-sm-4">
<div class="single-Blog">
<div class="single-blog-left">
<ul class="blog-comments-box">
<li>19 <h2>9</h2>2014</li>
<li><span class="fa fa-eye"></span>2016</li>
<li><a href="#"><span class="fa fa-comments"></span>8</a></li>
</ul>
</div>
<div class="single-blog-right">
<div class="blog-img">
<figure class="blog-figure">
<a href="#"><img alt="img" src="sitetrangchu/images/choose-us-img3.jpg"/></a>
<span class="image-effect"></span>
</figure>
</div>
<div class="blog-author">
<ul>
<li>By <a href="#">Nguồn tin. Bệnh Viện</a></li>
</ul>
</div>
<div class="blog-content">
<h2><a href="#">Bệnh viện tư nhân đầu tiên ở huyện Thăng Bình đi vào hoạt động</a></h2>
<p>Chiều 19-9, Bệnh viện Đa khoa Thăng Hoa, huyện Thăng Bình (Quảng Nam) đã tổ chức lễ khánh thành và chính thức đưa vào hoạt động..</p>
<div class="readmore_area">
<a data-hover="Chi tiết" href="#"><span>Chi tiết</span></a>
</div>
</div>
</div>
</div>
</div>
<!-- Start Single Blog -->
<div class="col-lg-4 col-md-4 col-sm-4">
<div class="single-Blog">
<div class="single-blog-left">
<ul class="blog-comments-box">
<li>16 <h2>12</h2>2015</li>
<li><a href="#"><span class="fa fa-comments"></span>15</a></li>
</ul>
</div>
<div class="single-blog-right">
<div class="blog-img">
<figure class="blog-figure">
<a href="#"><img alt="img" src="sitetrangchu/images/choose-us-img2.jpg"/></a>
<span class="image-effect"></span>
</figure>
</div>
<div class="blog-author">
<ul>
<li><a href="#">Nguồn tin. Bệnh Viện</a></li>
</ul>
</div>
<div class="blog-content">
<h2><a href="#"> Trung tâm khám chữa bệnh chất lượng cao </a></h2>
<p>Xây dựng Bệnh viện Thăng Hoa trở thành trung tâm khám chữa bệnh chất lượng cao, đáng tin cậy để đáp ứng nhu cầu chăm sóc sức khỏe ngày càng cao của người, góp phần giảm tình trạng quá tải của các cơ sở y tế... </p>
<div class="readmore_area">
<a data-hover="Chi tiết" href="#"><span>Chi tiết</span></a>
</div>
</div>
</div>
</div>
</div>
<!-- Start Single Blog -->
<div class="col-lg-4 col-md-4 col-sm-4">
<div class="single-Blog">
<div class="single-blog-left">
<ul class="blog-comments-box">
<li>22<h2>10</h2>2015</li>
<li><span class="fa fa-eye"></span>2020</li>
<li><a href="#"><span class="fa fa-comments"></span>34</a></li>
</ul>
</div>
<div class="single-blog-right">
<div class="blog-img">
<figure class="blog-figure">
<a href="#"><img alt="img" src="sitetrangchu/images/choose-us-img1.jpg"/></a>
<span class="image-effect"></span>
</figure>
</div>
<div class="blog-author">
<ul>
<li><a href="#">Nguồn tin. Bệnh Viện</a></li>
</ul>
</div>
<div class="blog-content">
<h2><a href="#">Kỳ vọng và niềm tin </a></h2>
<p>Bệnh viện Đa khoa Thăng Hoa đã hoàn chỉnh lắp ráp toàn bộ máy móc, trang thiết bị và đã được đoàn công tác của Bộ Y tế kiểm tra, thẩm định. Nhiều người dân trong vùng bày tỏ vui mừng vì không còn phải lặn lội vào Bệnh viện Đa khoa Quảng Nam hoặc ra tận TP.Đà Nẵng.</p>
<div class="readmore_area">
<a data-hover="Chi tiết" href="#"><span>Chi tiết</span></a>
</div>
</div>
</div>
</div>
</div>
</div>
</div>
</div>
</div>
</div>
</div>
</section>
<!--=========== BEGIN Service SECTION ================-->
<section id="service">
<div class="container">
<div class="row">
<div class="col-lg-12 col-md-12">
<div class="service-area">
<!-- Start Service Title -->
<div class="section-heading">
<h2 style="font-family: tahoma;">DỊCH VỤ Y KHOA</h2>
<div class="line"></div>
</div>
<!-- Start Service Content -->
<div class="service-content">
<div class="row">
<!-- Start Single Service -->
<div class="col-lg-4 col-md-4">
<div class="single-service">
<div class="service-icon">
<span class="fa fa-stethoscope service-icon-effect"></span>
</div>
<h3><a href="thongtin-dichvuykhoa-Khoa-Kham-Benh-64">Khoa Khám Bệnh</a></h3>
<p>Khoa khám Bệnh tại BVĐK Thăng Hoa là nơi bạn có thể tin cậy sử dụng dịch vụ với chất lượng cao, tiện lợi cho mọi đối tượng khách hàng.</p>
</div>
</div>
<!-- Start Single Service -->
<div class="col-lg-4 col-md-4">
<div class="single-service">
<div class="service-icon">
<span class="fa fa-ambulance service-icon-effect"></span>
</div>
<h3><a href="thongtin-dichvuykhoa-Khoa-Hoi-Suc-Cap-Cuu-61">Khoa Cấp Cứu</a></h3>
<p>Phòng cấp cứu của Bệnh viện Đa khoa Thăng Hoa hoạt động 24/24 giờ mỗi ngày (kể cả ngày lễ và Chủ nhật)</p>
</div>
</div>
<!-- Start Single Service -->
<div class="col-lg-4 col-md-4">
<div class="single-service">
<div class="service-icon">
<span class="fa fa-h-square service-icon-effect"></span>
</div>
<h3><a href="thongtin-dichvuykhoa-Khoa-Ngoai-59">Khoa Ngoại</a></h3>
<p>Khoa Ngoại Tổng hợp, Bệnh viện Đa khoa Thăng Hoa điều trị tất cả các tổn thương và bệnh lý ngoại khoa bằng phẫu thuật... </p>
</div>
</div>
<!-- Start Single Service -->
<div class="col-lg-4 col-md-4">
<div class="single-service">
<div class="service-icon">
<span class="fa fa-medkit service-icon-effect"></span>
</div>
<h3><a href="thongtin-dichvuykhoa-Khoa-Duoc-66">Khoa Dược</a></h3>
<p>Khoa Dược là khoa chuyên môn chịu sự lãnh đạo trực tiếp của Giám đốc bệnh viện. Khoa Dược có chức năng quản lý và tham mưu cho Giám đốc </p>
</div>
</div>
<!-- Start Single Service -->
<div class="col-lg-4 col-md-4">
<div class="single-service">
<div class="service-icon">
<span class="fa fa-user-md service-icon-effect"></span>
</div>
<h3><a href="#">Khoa Nội</a></h3>
<p>Khoa Nội Tổng Quát của Bệnh Viện Đa Khoa Thăng Hoa nhận điều trị các bệnh lý nội khoa tổng quát như:</p>
</div>
</div>
<!-- Start Single Service -->
<div class="col-lg-4 col-md-4">
<div class="single-service">
<div class="service-icon">
<span class="fa fa-heartbeat service-icon-effect"></span>
</div>
<h3><a href="thongtin-dichvuykhoa-Khoa-Phu-San-65">Khoa Phụ Sản</a></h3>
<p>Chúng tôi thực hiện tất cả các thủ thuật, phẫu thuật về Sản Phụ khoa như: sinh không đau, sinh mổ, mổ cắt Tử cung - buồng trứng, mổ sa sinh dục, mổ nội soi ngay tại Bệnh viện.
</p>
</div>
</div>
</div>
</div>
</div>
</div>
</div>
</div>
</section>
<!--=========== End Service SECTION ================-->
<!--=========== BEGAIN Why Choose Us SECTION ================-->
<section id="whychooseSection">
<div class="container">
<div class="row">
<div class="col-lg-12 col-md-12">
<div class="service-area">
<!-- Start Service Title -->
<div class="section-heading">
<h2>DỊCH VỤ HỖ TRỢ</h2>
<div class="line"></div>
</div>
</div>
</div>
<div class="col-lg-12 col-md-12">
<div class="row">
<div class="col-lg-5 col-md-6 col-sm-6 col-xs-12">
<div class="whyChoose-left">
<div class="whychoose-slider">
<div class="whychoose-singleslide">
<img alt="img" src="sitetrangchu/images/choose-us-img1.jpg"/>
</div>
<div class="whychoose-singleslide">
<img alt="img" src="sitetrangchu/images/choose-us-img2.jpg"/>
</div>
<div class="whychoose-singleslide">
<img alt="img" src="sitetrangchu/images/choose-us-img3.jpg"/>
</div>
</div>
</div>
</div>
<div class="col-lg-7 col-md-6 col-sm-6 col-xs-12">
<div class="whyChoose-right">
<div class="media">
<div class="media-left">
<a class="media-icon" href="gioi-thieu-Benh-vien-Da-khoa-Thang-Hoa-17">
<span class="fa fa-hospital-o"></span>
</a>
</div>
<div class="media-body">
<h4 class="media-heading"><a href="thongtin-dichvuhotro-CAC-GOI-KHAM-SUC-KHOE-26">Các Gói Khám Sức Khỏe</a></h4>
<p>Xây dựng Bệnh viện Thăng Hoa trở thành trung tâm khám chữa bệnh chất lượng cao, đáng tin cậy để đáp ứng nhu cầu chăm sóc sức khỏe ngày càng cao của người, góp phần giảm tình trạng quá tải của các cơ sở y tê công trên địa bàn huyện Thăng Bình cũng như tỉnh Quảng Nam.
.</p>
</div>
</div>
<div class="media">
<div class="media-left">
<a class="media-icon" href="#">
<span class="fa fa-user-md"></span>
</a>
</div>
<div class="media-body">
<h4 class="media-heading"><a href="thongtin-dichvuhotro-Bao-Hiem-Y-Te-28">Bảo Hiểm Y Tế Bệnh Viện </a></h4>
<p>BHYT  tại Bệnh viện Đa Khoa Thăng Hoa (không cần giấy chuyển tuyến, chuyển viện) và được hưởng chính sách thanh toán BHYT như tại nơi đăng ký ban đầu)
.</p>
</div>
</div>
<div class="media">
<div class="media-left">
<a class="media-icon" href="#">
<span class="fa fa-ambulance"></span>
</a>
</div>
<div class="media-body">
<h4 class="media-heading"><a href="thongtin-dichvuykhoa-Khoa-Hoi-Suc-Cap-Cuu-61">Dịch Vụ Cấp Cứu 24/24 (<font style="color: #f00;">0235.3 678 115</font>)</a></h4>
<p>Dịch vụ cấp cứu Bệnh viện Đa khoa thăng hoa với hệ thống xe cấp cứu, trang thiết bị và nhân sự luôn sẵn sàng túc trực 24/24, đảm bảo an toàn cao nhất trong việc xử lý tại chỗ cũng như đưa bệnh nhân về nhập viện..</p>
</div>
</div>
</div>
</div>
</div>
</div>
</div>
</div>
</section>
<!--=========== END Why Choose Us SECTION ================-->
<!--=========== BEGAIN Counter SECTION ================-->
<section id="counterSection">
<div class="container">
<div class="row">
<div class="col-lg-12 col-md-12">
<div class="counter-area">
<div class="col-lg-3 col-md-3 col-sm-6">
<div class="counter-box">
<div class="counter-no counter">
                    20
                  </div>
<div class="counter-label">BÁC SĨ</div>
</div>
</div>
<div class="col-lg-3 col-md-3 col-sm-6">
<div class="counter-box">
<div class="counter-no counter">
                    240
                  </div>
<div class="counter-label">GƯỜNG BỆNH</div>
</div>
</div>
<div class="col-lg-3 col-md-3 col-sm-6">
<div class="counter-box">
<div class="counter-no counter">
                    350
                  </div>
<div class="counter-label">BỆNH NHÂN</div>
</div>
</div>
<div class="col-lg-3 col-md-3 col-sm-6">
<div class="counter-box">
<div class="counter-no counter">
                    350
                  </div>
<div class="counter-label">BỆNH NHÂN HẠNH PHÚC</div>
</div>
</div>
</div>
</div>
</div>
</div>
</section>
<!--=========== End Counter SECTION ================-->
<!--=========== BEGAIN Doctors SECTION ================-->
<section id="meetDoctors">
<div class="container">
<div class="row">
<div class="col-lg-12 col-md-12">
<div class="meetDoctors-area">
<!-- Start Service Title -->
<div class="section-heading">
<h2>Gặp Bác Sĩ Của Chúng Tôi</h2>
<div class="line"></div>
</div>
<div class="doctors-area">
<ul class="doctors-nav">
<li>
<div class="single-doctor">
<a class="tdoctor" data-path-hover="m 180,34.57627 -180,0 L 0,0 180,0 z" href="dichvu-timbacsi">
<figure>
<img src="sitetrangchu/images/doctor-1.jpg"/>
<svg preserveaspectratio="none" viewbox="0 0 180 320"><path d="M 180,160 0,218 0,0 180,0 z"></path></svg>
<figcaption>
<h2> Giám đốc BV. Th.S BS.NGUYỄN THANH PHƯỚC</h2>
<p>Chẩn Đoán &amp; Điều Trị Ngoại Khoa</p>
</figcaption>
</figure>
</a>
<div class="single-doctor-social">
<a href="#"><span class="fa fa-facebook"></span></a>
<a href="#"><span class="fa fa-twitter"></span></a>
<a href="#"><span class="fa fa-google-plus"></span></a>
<a href="#"><span class="fa fa-linkedin"></span></a>
</div>
</div>
</li>
<li>
<div class="single-doctor">
<div class="single-doctor">
<a class="tdoctor" data-path-hover="m 180,34.57627 -180,0 L 0,0 180,0 z" href="dichvu-timbacsi">
<figure>
<img src="sitetrangchu/images/doctor-2.jpg"/>
<svg preserveaspectratio="none" viewbox="0 0 180 320"><path d="M 180,160 0,218 0,0 180,0 z"></path></svg>
<figcaption>
<h2>PGĐ BS: LÊ TẤN SƠN</h2>
<p>Chuyên Khoa Mắt</p>
</figcaption>
</figure>
</a>
<div class="single-doctor-social">
<a href="#"><span class="fa fa-facebook"></span></a>
<a href="#"><span class="fa fa-twitter"></span></a>
<a href="#"><span class="fa fa-google-plus"></span></a>
<a href="#"><span class="fa fa-linkedin"></span></a>
</div>
</div>
</div>
</li>
<li>
<div class="single-doctor">
<div class="single-doctor">
<a class="tdoctor" data-path-hover="m 180,34.57627 -180,0 L 0,0 180,0 z" href="dichvu-timbacsi">
<figure>
<img src="sitetrangchu/images/doctor-9.jpg"/>
<svg preserveaspectratio="none" viewbox="0 0 180 320"><path d="M 180,160 0,218 0,0 180,0 z"></path></svg>
<figcaption>
<h2>PGĐ Th.S BS. NGUYỄN NGỌC TUÂN</h2>
<p>Chẩn Đoán Điều Trị Nội Khoa</p>
</figcaption>
</figure>
</a>
<div class="single-doctor-social">
<a href="#"><span class="fa fa-facebook"></span></a>
<a href="#"><span class="fa fa-twitter"></span></a>
<a href="#"><span class="fa fa-google-plus"></span></a>
<a href="#"><span class="fa fa-linkedin"></span></a>
</div>
</div>
</div>
</li>
<li>
<div class="single-doctor">
<div class="single-doctor">
<a class="tdoctor" data-path-hover="m 180,34.57627 -180,0 L 0,0 180,0 z" href="dichvu-timbacsi">
<figure>
<img src="sitetrangchu/images/doctor-3.jpg"/>
<svg preserveaspectratio="none" viewbox="0 0 180 320"><path d="M 180,160 0,218 0,0 180,0 z"></path></svg>
<figcaption>
<h2>TH.S BS: PHẠM ĐÌNH HÙNG</h2>
<p>Chuyên Ngoại Khoa</p>
</figcaption>
</figure>
</a>
<div class="single-doctor-social">
<a href="#"><span class="fa fa-facebook"></span></a>
<a href="#"><span class="fa fa-twitter"></span></a>
<a href="#"><span class="fa fa-google-plus"></span></a>
<a href="#"><span class="fa fa-linkedin"></span></a>
</div>
</div>
</div>
</li>
<!-- <li>
                   <div class="single-doctor">
                      <div class="single-doctor">
                      <a class="tdoctor" href="#" data-path-hover="m 180,34.57627 -180,0 L 0,0 180,0 z">
                        <figure>
                          <img src="sitetrangchu/images/doctor-5.jpg" />
                          <svg viewBox="0 0 180 320" preserveAspectRatio="none"><path d="M 180,160 0,218 0,0 180,0 z"/></svg>
                          <figcaption>
                            <h2>Bác Sĩ: NGUYỄN VĂN LONG</h2>
                            <p>Trưởng Khoa Nội</p>
                                        
                          </figcaption>
                        </figure>
                      </a>
                      <div class="single-doctor-social">
                        <a href="#"><span class="fa fa-facebook"></span></a>
                        <a href="#"><span class="fa fa-twitter"></span></a>
                        <a href="#"><span class="fa fa-google-plus"></span></a>
                        <a href="#"><span class="fa fa-linkedin"></span></a>
                      </div>
                    </div>
                    </div>
                  </li>-->
<li>
<div class="single-doctor">
<div class="single-doctor">
<a class="tdoctor" data-path-hover="m 180,34.57627 -180,0 L 0,0 180,0 z" href="dichvu-timbacsi">
<figure>
<img src="sitetrangchu/images/doctor-14.jpg"/>
<svg preserveaspectratio="none" viewbox="0 0 180 320"><path d="M 180,160 0,218 0,0 180,0 z"></path></svg>
<figcaption>
<h2>BS: NGUYỄN VĂN KIỂM</h2>
<p>Chuyên Khoa I Hồi Sức Cấp Cứu</p>
</figcaption>
</figure>
</a>
<div class="single-doctor-social">
<a href="#"><span class="fa fa-facebook"></span></a>
<a href="#"><span class="fa fa-twitter"></span></a>
<a href="#"><span class="fa fa-google-plus"></span></a>
<a href="#"><span class="fa fa-linkedin"></span></a>
</div>
</div>
</div>
</li>
<li>
<div class="single-doctor">
<div class="single-doctor">
<a class="tdoctor" data-path-hover="m 180,34.57627 -180,0 L 0,0 180,0 z" href="dichvu-timbacsi">
<figure>
<img src="sitetrangchu/images/doctor-7.jpg"/>
<svg preserveaspectratio="none" viewbox="0 0 180 320"><path d="M 180,160 0,218 0,0 180,0 z"></path></svg>
<figcaption>
<h2>BS. DƯƠNG VĂN SƠN</h2>
<p>Chẩn Đoán Điều Trị Nội Khoa</p>
</figcaption>
</figure>
</a>
<div class="single-doctor-social">
<a href="#"><span class="fa fa-facebook"></span></a>
<a href="#"><span class="fa fa-twitter"></span></a>
<a href="#"><span class="fa fa-google-plus"></span></a>
<a href="#"><span class="fa fa-linkedin"></span></a>
</div>
</div>
</div>
</li>
<li>
<div class="single-doctor">
<div class="single-doctor">
<a class="tdoctor" data-path-hover="m 180,34.57627 -180,0 L 0,0 180,0 z" href="dichvu-timbacsi">
<figure>
<img src="sitetrangchu/images/doctor-8.jpg"/>
<svg preserveaspectratio="none" viewbox="0 0 180 320"><path d="M 180,160 0,218 0,0 180,0 z"></path></svg>
<figcaption>
<h2>BS. HOÀNG HỮU BIÊN</h2>
<p>Chuyên Khoa Tai Mũi Họng</p>
<!--<button>View</button> -->
</figcaption>
</figure>
</a>
<div class="single-doctor-social">
<a href="#"><span class="fa fa-facebook"></span></a>
<a href="#"><span class="fa fa-twitter"></span></a>
<a href="#"><span class="fa fa-google-plus"></span></a>
<a href="#"><span class="fa fa-linkedin"></span></a>
</div>
</div>
</div>
</li>
<li>
<div class="single-doctor">
<div class="single-doctor">
<a class="tdoctor" data-path-hover="m 180,34.57627 -180,0 L 0,0 180,0 z" href="dichvu-timbacsi">
<figure>
<img src="sitetrangchu/images/doctor-17.jpg"/>
<svg preserveaspectratio="none" viewbox="0 0 180 320"><path d="M 180,160 0,218 0,0 180,0 z"></path></svg>
<figcaption>
<h2>BS: TRẦN PHƯỚC LỘC </h2>
<p>Chuyên Khoa I Sản Phụ Khoa</p>
</figcaption>
</figure>
</a>
<div class="single-doctor-social">
<a href="#"><span class="fa fa-facebook"></span></a>
<a href="#"><span class="fa fa-twitter"></span></a>
<a href="#"><span class="fa fa-google-plus"></span></a>
<a href="#"><span class="fa fa-linkedin"></span></a>
</div>
</div>
</div>
</li>
<li>
<div class="single-doctor">
<div class="single-doctor">
<a class="tdoctor" data-path-hover="m 180,34.57627 -180,0 L 0,0 180,0 z" href="dichvu-timbacsi">
<figure>
<img src="sitetrangchu/images/doctor-6.jpg"/>
<svg preserveaspectratio="none" viewbox="0 0 180 320"><path d="M 180,160 0,218 0,0 180,0 z"></path></svg>
<figcaption>
<h2>ThS. ĐINH VĂN TỬU</h2>
<p>Trưởng Khoa ngoại</p>
</figcaption>
</figure>
</a>
<div class="single-doctor-social">
<a href="#"><span class="fa fa-facebook"></span></a>
<a href="#"><span class="fa fa-twitter"></span></a>
<a href="#"><span class="fa fa-google-plus"></span></a>
<a href="#"><span class="fa fa-linkedin"></span></a>
</div>
</div>
</div>
</li>
<li>
<div class="single-doctor">
<div class="single-doctor">
<a class="tdoctor" data-path-hover="m 180,34.57627 -180,0 L 0,0 180,0 z" href="dichvu-timbacsi">
<figure>
<img src="sitetrangchu/images/doctor-10.jpg"/>
<svg preserveaspectratio="none" viewbox="0 0 180 320"><path d="M 180,160 0,218 0,0 180,0 z"></path></svg>
<figcaption>
<h2>BS : NGUYỄN TIẾN MẠNH</h2>
<p>Chuyên Khoa Đông Y</p>
</figcaption>
</figure>
</a>
<div class="single-doctor-social">
<a href="#"><span class="fa fa-facebook"></span></a>
<a href="#"><span class="fa fa-twitter"></span></a>
<a href="#"><span class="fa fa-google-plus"></span></a>
<a href="#"><span class="fa fa-linkedin"></span></a>
</div>
</div>
</div>
</li>
<li>
<div class="single-doctor">
<div class="single-doctor">
<a class="tdoctor" data-path-hover="m 180,34.57627 -180,0 L 0,0 180,0 z" href="dichvu-timbacsi">
<figure>
<img src="sitetrangchu/images/doctor-11.jpg"/>
<svg preserveaspectratio="none" viewbox="0 0 180 320"><path d="M 180,160 0,218 0,0 180,0 z"></path></svg>
<figcaption>
<h2>BS : NGUYỄN TUẤN DŨNG</h2>
<p>Chuyên Khoa I Ngoại Khoa</p>
</figcaption>
</figure>
</a>
<div class="single-doctor-social">
<a href="#"><span class="fa fa-facebook"></span></a>
<a href="#"><span class="fa fa-twitter"></span></a>
<a href="#"><span class="fa fa-google-plus"></span></a>
<a href="#"><span class="fa fa-linkedin"></span></a>
</div>
</div>
</div>
</li>
<!--<li>
                    <div class="single-doctor">
                      <div class="single-doctor">
                      <a class="tdoctor" href="dichvu-timbacsi" data-path-hover="m 180,34.57627 -180,0 L 0,0 180,0 z">
                        <figure>
                          <img src="sitetrangchu/images/doctor-12.jpg" />
                          <svg viewBox="0 0 180 320" preserveAspectRatio="none"><path d="M 180,160 0,218 0,0 180,0 z"/></svg>
                          <figcaption>
                            <h2>BS: NGUYỄN VĂN CHIẾN</h2>
                            <p>Thạc Sĩ Nội Khoa</p>
                                       
                          </figcaption>
                        </figure>
                      </a>
                      <div class="single-doctor-social">
                        <a href="#"><span class="fa fa-facebook"></span></a>
                        <a href="#"><span class="fa fa-twitter"></span></a>
                        <a href="#"><span class="fa fa-google-plus"></span></a>
                        <a href="#"><span class="fa fa-linkedin"></span></a>
                      </div>
                    </div>
                    </div>
                  </li>-->
<li>
<div class="single-doctor">
<div class="single-doctor">
<a class="tdoctor" data-path-hover="m 180,34.57627 -180,0 L 0,0 180,0 z" href="dichvu-timbacsi">
<figure>
<img src="sitetrangchu/images/doctor-13.jpg"/>
<svg preserveaspectratio="none" viewbox="0 0 180 320"><path d="M 180,160 0,218 0,0 180,0 z"></path></svg>
<figcaption>
<h2>BS. NGUYỄN VĂN KHẢI</h2>
<p>Chuyên Khoa I Nội Khoa</p>
</figcaption>
</figure>
</a>
<div class="single-doctor-social">
<a href="#"><span class="fa fa-facebook"></span></a>
<a href="#"><span class="fa fa-twitter"></span></a>
<a href="#"><span class="fa fa-google-plus"></span></a>
<a href="#"><span class="fa fa-linkedin"></span></a>
</div>
</div>
</div>
</li>
<li>
<div class="single-doctor">
<div class="single-doctor">
<a class="tdoctor" data-path-hover="m 180,34.57627 -180,0 L 0,0 180,0 z" href="dichvu-timbacsi">
<figure>
<img src="sitetrangchu/images/doctor-16.jpg"/>
<svg preserveaspectratio="none" viewbox="0 0 180 320"><path d="M 180,160 0,218 0,0 180,0 z"></path></svg>
<figcaption>
<h2>BS: NGUYỄN ĐA UY</h2>
<p>Chuyên Siêu Âm Nội Soi</p>
</figcaption>
</figure>
</a>
<div class="single-doctor-social">
<a href="#"><span class="fa fa-facebook"></span></a>
<a href="#"><span class="fa fa-twitter"></span></a>
<a href="#"><span class="fa fa-google-plus"></span></a>
<a href="#"><span class="fa fa-linkedin"></span></a>
</div>
</div>
</div>
</li>
<li>
<div class="single-doctor">
<div class="single-doctor">
<a class="tdoctor" data-path-hover="m 180,34.57627 -180,0 L 0,0 180,0 z" href="dichvu-timbacsi">
<figure>
<img src="sitetrangchu/images/doctor-18.jpg"/>
<svg preserveaspectratio="none" viewbox="0 0 180 320"><path d="M 180,160 0,218 0,0 180,0 z"></path></svg>
<figcaption>
<h2>BS: TRẦN THỊ HOÀI GIANG</h2>
<p>Chuyên Điều Trị Da Liễu</p>
</figcaption>
</figure>
</a>
<div class="single-doctor-social">
<a href="#"><span class="fa fa-facebook"></span></a>
<a href="#"><span class="fa fa-twitter"></span></a>
<a href="#"><span class="fa fa-google-plus"></span></a>
<a href="#"><span class="fa fa-linkedin"></span></a>
</div>
</div>
</div>
</li>
<li>
<div class="single-doctor">
<div class="single-doctor">
<a class="tdoctor" data-path-hover="m 180,34.57627 -180,0 L 0,0 180,0 z" href="dichvu-timbacsi">
<figure>
<img src="sitetrangchu/images/doctor-23.jpg"/>
<svg preserveaspectratio="none" viewbox="0 0 180 320"><path d="M 180,160 0,218 0,0 180,0 z"></path></svg>
<figcaption>
<h2>TH.S BS: NGUYỄN VĂN HÙNG</h2>
<p>Chuyên Khoa Lẻ</p>
</figcaption>
</figure>
</a>
<div class="single-doctor-social">
<a href="#"><span class="fa fa-facebook"></span></a>
<a href="#"><span class="fa fa-twitter"></span></a>
<a href="#"><span class="fa fa-google-plus"></span></a>
<a href="#"><span class="fa fa-linkedin"></span></a>
</div>
</div>
</div>
</li>
<li>
<div class="single-doctor">
<div class="single-doctor">
<a class="tdoctor" data-path-hover="m 180,34.57627 -180,0 L 0,0 180,0 z" href="dichvu-timbacsi">
<figure>
<img src="sitetrangchu/images/doctor-24.jpg"/>
<svg preserveaspectratio="none" viewbox="0 0 180 320"><path d="M 180,160 0,218 0,0 180,0 z"></path></svg>
<figcaption>
<h2>BS: NGUYỄN VĂN TRỰC</h2>
<p>Chuyên Khoa Nội</p>
</figcaption>
</figure>
</a>
<div class="single-doctor-social">
<a href="#"><span class="fa fa-facebook"></span></a>
<a href="#"><span class="fa fa-twitter"></span></a>
<a href="#"><span class="fa fa-google-plus"></span></a>
<a href="#"><span class="fa fa-linkedin"></span></a>
</div>
</div>
</div>
</li>
<li>
<div class="single-doctor">
<div class="single-doctor">
<a class="tdoctor" data-path-hover="m 180,34.57627 -180,0 L 0,0 180,0 z" href="dichvu-timbacsi">
<figure>
<img src="sitetrangchu/images/doctor-22.jpg"/>
<svg preserveaspectratio="none" viewbox="0 0 180 320"><path d="M 180,160 0,218 0,0 180,0 z"></path></svg>
<figcaption>
<h2>BS: TRƯƠNG VĂN ĐỨC</h2>
<p>Chuyên Khoa Đông Y</p>
</figcaption>
</figure>
</a>
<div class="single-doctor-social">
<a href="#"><span class="fa fa-facebook"></span></a>
<a href="#"><span class="fa fa-twitter"></span></a>
<a href="#"><span class="fa fa-google-plus"></span></a>
<a href="#"><span class="fa fa-linkedin"></span></a>
</div>
</div>
</div>
</li>
<li>
<div class="single-doctor">
<div class="single-doctor">
<a class="tdoctor" data-path-hover="m 180,34.57627 -180,0 L 0,0 180,0 z" href="dichvu-timbacsi">
<figure>
<img src="sitetrangchu/images/doctor-21.jpg"/>
<svg preserveaspectratio="none" viewbox="0 0 180 320"><path d="M 180,160 0,218 0,0 180,0 z"></path></svg>
<figcaption>
<h2>BS: NGUYỄN ĐINH ĐẮC Ý</h2>
<p>Chuyên Khoa Lẻ</p>
</figcaption>
</figure>
</a>
<div class="single-doctor-social">
<a href="#"><span class="fa fa-facebook"></span></a>
<a href="#"><span class="fa fa-twitter"></span></a>
<a href="#"><span class="fa fa-google-plus"></span></a>
<a href="#"><span class="fa fa-linkedin"></span></a>
</div>
</div>
</div>
</li>
</ul>
</div>
</div>
</div>
</div>
</div>
</section>
<!--=========== End Doctors SECTION ================-->
<!--=========== BEGAIN Testimonial SECTION ================-->
<section id="testimonial">
<div class="container">
<div class="row">
<div class="col-lg-12 col-md-12">
<div class="testimonial-area">
<!-- Start Service Title -->
<div class="section-heading">
<h2>Trách Nhiệm Của Bệnh Viện</h2>
<div class="line"></div>
</div>
<div class="testimonial-area">
<ul class="testimonial-nav">
<li>
<div class="single-testimonial">
<div class="testimonial-img">
<img alt="img" src="sitetrangchu/images/patients-3.jpg"/>
</div>
<div class="testimonial-cotent">
<p class="testimonial-parg">Chất lượng khám chữa bệnh luôn là tiêu chí được chú trọng hàng đầu tại Bệnh viện. Bên cạnh việc đầu tư vào cơ sở vật chất, thiết bị y tế phục vụ cho quá trình khám chữa bệnh, Bệnh viện Thăng Hoa còn quy tụ đội ngũ các bác sĩ giỏi...</p>
</div>
</div>
</li>
<li>
<div class="single-testimonial">
<div class="testimonial-img">
<img alt="img" src="sitetrangchu/images/patients-1.jpg"/>
</div>
<div class="testimonial-cotent">
<p class="testimonial-parg">Bệnh viện Thăng Hoa còn hướng tới phát triển dịch vụ khách hàng, mang đến cho khách hàng khám chữa bệnh trải nghiệm phong cách phục vụ thân thiện, hoàn hảo, chu đáo, tận tình...</p>
</div>
</div>
</li>
<li>
<div class="single-testimonial">
<div class="testimonial-img">
<img alt="img" src="sitetrangchu/images/patients-2.jpg"/>
</div>
<div class="testimonial-cotent">
<p class="testimonial-parg">Ngoài chuyên môn, mỗi thành viên tại Bệnh viện Đa khoa Thăng Hoa liên tục được trau dồi về văn hóa dịch vụ, tự bản thân cảm nhận và giữ gìn môi trường y tế văn minh, thấu hiểu và tôn trọng từng nhu cầu, mong muốn của người bệnh..</p>
</div>
</div>
</li>
</ul>
</div>
</div>
</div>
</div>
</div>
</section>
<!--=========== End Testimonial SECTION ================-->
<!--=========== End Home Blog SECTION ================-->
<!--=========== Start Footer SECTION ================-->
<footer id="footer">
<!-- Start Footer Top -->
<div class="footer-top">
<div class="container">
<div class="row">
<div class="col-lg-3 col-md-3 col-sm-3">
<div class="single-footer-widget">
<div class="section-heading">
<h2>Giới thiệu</h2>
<div class="line"></div>
</div>
<p style="text-align: justify;">Bệnh viện Đa Khoa Thăng Hoa được xây dựng để đáp ứng nhu cầu sức khỏe của cộng đồng. Bệnh viện chính thức đi vào hoạt động vào ngày 19 tháng 9 năm 2014. Bệnh viện đa khoa Thăng Hoa có diện tích  20.025 m2 nằm trên Quốc lộ 1A thuộc thôn Liễu Trì, xã Bình Nguyên, huyện Thăng Bình là cửa ngõ phía Bắc trung tâm huyện có vị trí giao thông trí thuận lợi...</p>
</div>
</div>
<div class="col-lg-3 col-md-3 col-sm-3">
<div class="single-footer-widget">
<div class="section-heading">
<h2>Dịch vụ</h2>
<div class="line"></div>
</div>
<ul class="footer-service">
<li><a href="#"><span class="fa fa-check"></span>Dịch vụ y khoa</a></li>
<li><a href="#"><span class="fa fa-check"></span>Dịch vụ chăm sóc sức khoẻ</a></li>
<li><a href="#"><span class="fa fa-check"></span>Dịch vụ thẩm mỹ</a></li>
<li><a href="#"><span class="fa fa-check"></span>Dịch vụ khám chữa bệnh</a></li>
<li><a href="#"><span class="fa fa-check"></span>Dịch vụ đưa đón tận nhà</a></li>
<li><a href="#"><span class="fa fa-check"></span>Dịch vụ bác sĩ gia đình</a></li>
</ul>
</div>
</div>
<div class="col-lg-3 col-md-3 col-sm-3">
<div class="single-footer-widget">
<div class="section-heading">
<h2>Facebook</h2>
<div class="line"></div>
</div>
<!--  BÕ FACEBOOK-->
<div class="fb-page" data-adapt-container-width="true" data-height="250" data-hide-cover="false" data-href="https://www.facebook.com/benhviendakhoathanghoaquangnam" data-show-facepile="true" data-small-header="false" data-tabs="timeline"><blockquote cite="https://www.facebook.com/benhviendakhoathanghoa" class="fb-xfbml-parse-ignore"><a href="https://www.facebook.com/benhviendakhoathanghoa">Bệnh Viện Đa Khoa Thăng Hoa</a></blockquote> style="margin-left:20px; margin-top:-15px; background:#fff; "&gt;</div>
<script>
            (function(d, s, id) {
                var js, fjs = d.getElementsByTagName(s)[0];
                if (d.getElementById(id))
                    return;
                js = d.createElement(s);
                js.id = id;
                js.src = "//connect.facebook.net/vi_VN/all.js#xfbml=1";
                fjs.parentNode.insertBefore(js, fjs);
            }(document, 'script', 'facebook-jssdk'));
        </script>
</div>
</div>
<div class="col-lg-3 col-md-3 col-sm-3">
<div class="single-footer-widget">
<div class="section-heading">
<h2>Liên hệ</h2>
<div class="line"></div>
</div>
<address class="contact-info">
<p><span class="fa fa-home"></span>Quốc Lộ 1A, Thôn Liễu trì, Bình Nguyên, Thăng Bình, Quảng Nam</p>
<p><span class="fa fa-phone"></span>Gọi Cấp cứu (24/24): 0235.3.678.115</p>
<p><span class="fa fa-phone"></span>Chăm sóc Khách Hàng: 0235.3.678.119</p>
<p><span class="fa fa-phone"></span>Liên Hệ Khám Chữa Bệnh: 0235.3.678.116</p>
<p><span class="fa fa-envelope"></span>thanghoahospital@gmail.com</p>
<p><span class="fa fa-home"></span><a href="https://www.facebook.com/benhviendakhoathanghoaquangnam/">https://www.facebook.com/benhviendakhoathanghoaquangnam</a></p>
</address>
</div>
</div>
</div>
</div>
</div>
<!-- Start Footer Middle -->
<div class="footer-middle">
<div class="container">
<div class="row">
<div class="col-lg-6 col-md-6 col-sm-6 col-xs-12">
<div class="footer-copyright">
<p>© Copyright 2015 <a href="index.html">BV THANG HOA</a></p>
</div>
</div>
<div class="col-lg-6 col-md-6 col-sm-6 col-xs-12">
<div class="footer-social">
<a href="#"><span class="fa fa-facebook"></span></a>
<a href="#"><span class="fa fa-twitter"></span></a>
<a href="#"><span class="fa fa-google-plus"></span></a>
<a href="#"><span class="fa fa-linkedin"></span></a>
</div>
</div>
</div>
</div>
</div>
<!-- Start Footer Bottom -->
<div class="footer-bottom">
<div class="container">
<div class="row">
<div class="col-md-12">
<p>Design &amp; Developed By <a href="http://www.atvmedia.net" rel="nofollow">ATVMEDIA</a></p>
</div>
</div>
</div>
</div>
</footer>
<!--=========== End Footer SECTION ================-->
<style>
	.suntory-alo-phone {
		background-color: transparent;
		cursor: pointer;
		height: 120px;
		position: fixed;
		transition: visibility 0.5s ease 0s;
		width: 120px;
		z-index: 200000 !important;
	}
	.suntory-alo-ph-circle {
		animation: 1.2s ease-in-out 0s normal none infinite running suntory-alo-circle-anim;
		background-color: transaparent;
		border: 2px solid rgba(30, 30, 30, 0.4);
		border-radius: 100%;
		height: 100px;
		left: 0px;
		opacity: 0.1;
		position: absolute;
		top: 0px;
		transform-origin: 50% 50% 0;
		transition: all 0.5s ease 0s;
		width: 100px;
	}
	.suntory-alo-ph-circle-fill {
		animation: 2.3s ease-in-out 0s normal none infinite running suntory-alo-circle-fill-anim;
		border: 2px solid transparent;
		border-radius: 100%;
		height: 70px;
		left: 15px;
		position: absolute;
		top: 15px;
		transform-origin: 50% 50% 0;
		transition: all 0.5s ease 0s;
		width: 70px;
	}
	.suntory-alo-ph-img-circle {
		/* animation: 1s ease-in-out 0s normal none infinite running suntory-alo-circle-img-anim; */
		border: 2px solid transparent;
		border-radius: 100%;
		height: 50px;
		left: 25px;
		opacity: 0.7;
		position: absolute;
		top: 25px;
		transform-origin: 50% 50% 0;
		width: 50px;
	}
	.suntory-alo-phone.suntory-alo-hover, .suntory-alo-phone:hover {
		opacity: 1;
	}
	.suntory-alo-phone.suntory-alo-active .suntory-alo-ph-circle {
		animation: 1.1s ease-in-out 0s normal none infinite running suntory-alo-circle-anim !important;
	}
	.suntory-alo-phone.suntory-alo-static .suntory-alo-ph-circle {
		animation: 2.2s ease-in-out 0s normal none infinite running suntory-alo-circle-anim !important;
	}
	.suntory-alo-phone.suntory-alo-hover .suntory-alo-ph-circle, .suntory-alo-phone:hover .suntory-alo-ph-circle {
		border-color: #00aff2;
		opacity: 0.5;
	}
	.suntory-alo-phone.suntory-alo-green.suntory-alo-hover .suntory-alo-ph-circle, .suntory-alo-phone.suntory-alo-green:hover .suntory-alo-ph-circle {
		border-color: #EB278D;
		opacity: 1;
	}
	.suntory-alo-phone.suntory-alo-green .suntory-alo-ph-circle {
		border-color: #bfebfc;
		opacity: 1;
	}
	.suntory-alo-phone.suntory-alo-hover .suntory-alo-ph-circle-fill, .suntory-alo-phone:hover .suntory-alo-ph-circle-fill {
		background-color: rgba(0, 175, 242, 0.9);
	}
	.suntory-alo-phone.suntory-alo-green.suntory-alo-hover .suntory-alo-ph-circle-fill, .suntory-alo-phone.suntory-alo-green:hover .suntory-alo-ph-circle-fill {
		background-color: #EB278D;
	}
	.suntory-alo-phone.suntory-alo-green .suntory-alo-ph-circle-fill {
		background-color: rgba(0, 175, 242, 0.9);
	}

	.suntory-alo-phone.suntory-alo-hover .suntory-alo-ph-img-circle, .suntory-alo-phone:hover .suntory-alo-ph-img-circle {
		background-color: #00aff2;
	}
	.suntory-alo-phone.suntory-alo-green.suntory-alo-hover .suntory-alo-ph-img-circle, .suntory-alo-phone.suntory-alo-green:hover .suntory-alo-ph-img-circle {
		background-color: #EB278D;
	}
	.suntory-alo-phone.suntory-alo-green .suntory-alo-ph-img-circle {
		background-color: #00aff2;
	}
	@keyframes suntory-alo-circle-anim {
		0% {
			opacity: 0.1;
			transform: rotate(0deg) scale(0.5) skew(1deg);
		}
		30% {
			opacity: 0.5;
			transform: rotate(0deg) scale(0.7) skew(1deg);
		}
		100% {
			opacity: 0.6;
			transform: rotate(0deg) scale(1) skew(1deg);
		}
	}

	@keyframes suntory-alo-circle-img-anim {
		0% {
			transform: rotate(0deg) scale(1) skew(1deg);
		}
		10% {
			transform: rotate(-25deg) scale(1) skew(1deg);
		}
		20% {
			transform: rotate(25deg) scale(1) skew(1deg);
		}
		30% {
			transform: rotate(-25deg) scale(1) skew(1deg);
		}
		40% {
			transform: rotate(25deg) scale(1) skew(1deg);
		}
		50% {
			transform: rotate(0deg) scale(1) skew(1deg);
		}
		100% {
			transform: rotate(0deg) scale(1) skew(1deg);
		}
	}
	@keyframes suntory-alo-circle-fill-anim {
		0% {
			opacity: 0.2;
			transform: rotate(0deg) scale(0.7) skew(1deg);
		}
		50% {
			opacity: 0.2;
			transform: rotate(0deg) scale(1) skew(1deg);
		}
		100% {
			opacity: 0.2;
			transform: rotate(0deg) scale(0.7) skew(1deg);
		}
	}
	.suntory-alo-ph-img-circle i {
		animation: 1s ease-in-out 0s normal none infinite running suntory-alo-circle-img-anim;
		font-size: 30px;
		line-height: 50px;
		padding-left: 10px;
		color: #fff;
	}

	/*=================== End phone ring ===============*/
	@keyframes suntory-alo-ring-ring {
		0% {
			transform: rotate(0deg) scale(1) skew(1deg);
		}
		10% {
			transform: rotate(-25deg) scale(1) skew(1deg);
		}
		20% {
			transform: rotate(25deg) scale(1) skew(1deg);
		}
		30% {
			transform: rotate(-25deg) scale(1) skew(1deg);
		}
		40% {
			transform: rotate(25deg) scale(1) skew(1deg);
		}
		50% {
			transform: rotate(0deg) scale(1) skew(1deg);
		}
		100% {
			transform: rotate(0deg) scale(1) skew(1deg);
		}
	}
</style>
<a class="suntory-alo-phone suntory-alo-green" href="tel:02353678119" id="suntory-alo-phoneIcon" style="left: 0px; bottom: 0px;">
<div class="suntory-alo-ph-circle"></div>
<div class="suntory-alo-ph-circle-fill"></div>
<div class="suntory-alo-ph-img-circle"><i class="fa fa-phone"></i></div>
</a>
<!-- jQuery Library  -->
<script src="sitetrangchu/js/jquery.js"></script>
<!-- Bootstrap default js -->
<script src="sitetrangchu/js/bootstrap.min.js"></script>
<!-- slick slider -->
<script src="sitetrangchu/js/slick.min.js"></script>
<script src="sitetrangchu/js/modernizr.custom.79639.js" type="text/javascript"></script>
<!-- counter -->
<script src="sitetrangchu/js/waypoints.min.js"></script>
<script src="sitetrangchu/js/jquery.counterup.min.js"></script>
<!-- Doctors hover effect -->
<script src="sitetrangchu/js/snap.svg-min.js"></script>
<script src="sitetrangchu/js/hovers.js"></script>
<!-- Photo Swipe Gallery Slider -->
<script src="sitetrangchu/js/photoswipe.min.js"></script>
<script src="sitetrangchu/js/photoswipe-ui-default.min.js"></script>
<script src="sitetrangchu/js/photoswipe-gallery.js"></script>
<!-- Custom JS -->
<script src="sitetrangchu/js/custom.js"></script>
</body>
</html>