<!DOCTYPE html>
<html class="no-js">
<head>
<!-- Basic page needs ================================================== -->
<meta charset="utf-8"/>
<meta content="IE=edge,chrome=1" http-equiv="X-UA-Compatible"/>
<!-- Title and description ================================================== -->
<title>
  404 Nicht gefunden – Your Great Store
  </title>
<!-- SWF meta ================================================== -->
<!-- Social meta ================================================== -->
<!-- SWF meta ================================================== -->
<!-- Helpers ================================================== -->
<link href="" rel="canonical"/>
<meta content="width=device-width,initial-scale=1" name="viewport"/>
<meta content="#d77e6a" name="theme-color"/>
<!-- CSS ================================================== -->
<link href="//cdn.shopifycdn.net/s/files/1/0052/5290/7082/t/56/assets/timber.scss.css?v=739624709348939721" media="all" rel="stylesheet" type="text/css"/>
<link href="//cdn.shopifycdn.net/s/files/1/0052/5290/7082/t/56/assets/theme.scss.css?v=5802610984894647025" media="all" rel="stylesheet" type="text/css"/>
<script>
    window.theme = window.theme || {};

    var theme = {
      strings: {
        addToCart: "In den Warenkorb legen",
        soldOut: "Ausverkauft",
        unavailable: "Nicht verfügbar",
        zoomClose: "Schließen (Esc)",
        zoomPrev: "Vorige (Linke Pfeiltaste)",
        zoomNext: "Nächste (Rechte Pfeiltaste)",
        addressError: "Kann die Adresse nicht finden",
        addressNoResults: "Keine Ergebnisse für diese Adresse",
        addressQueryLimit: "Du hast die Nutzungsgrenze der Google-API überschritten. Du solltest über ein Upgrade auf einen \u003ca href=\"https:\/\/developers.google.com\/maps\/premium\/usage-limits\"\u003ePremium-Plan\u003c\/a\u003e nachdenken.",
        authError: "Es gab ein Problem bei Google Maps API Konto zu authentifizieren."
      },
      settings: {
        // Adding some settings to allow the editor to update correctly when they are changed
        enableWideLayout: false,
        typeAccentTransform: true,
        typeAccentSpacing: true,
        baseFontSize: '16px',
        headerBaseFontSize: '30px',
        accentFontSize: '14px'
      },
      variables: {
        mediaQueryMedium: 'screen and (max-width: 768px)',
        bpSmall: false
      },
      moneyFormat: "${{amount}}"
    }

    document.documentElement.className = document.documentElement.className.replace('no-js', 'supports-js');
  </script>
<!-- Header hook for plugins ================================================== -->
<script>window.performance && window.performance.mark && window.performance.mark('shopify.content_for_header.start');</script><meta content="/5252907082/digital_wallets/dialog" id="shopify-digital-wallet" name="shopify-digital-wallet"/>
<meta content="025a3b0d3a2c0d292bf30d8a1666b8c5" name="shopify-checkout-api-token"/>
<meta data-currency="CAD" data-environment="production" data-locale="de_DE" data-paypal-v4="true" data-shop-id="5252907082" data-venmo-supported="false" id="in-context-paypal-metadata"/>
<link href="https://monorail-edge.shopifysvc.com" rel="dns-prefetch"/>
<script id="apple-pay-shop-capabilities" type="application/json">{"shopId":5252907082,"countryCode":"CA","currencyCode":"CAD","merchantCapabilities":["supports3DS"],"merchantId":"gid:\/\/shopify\/Shop\/5252907082","merchantName":"Your Great Store","requiredBillingContactFields":["postalAddress","email"],"requiredShippingContactFields":["postalAddress","email"],"shippingType":"shipping","supportedNetworks":["visa","masterCard","amex","interac"],"total":{"type":"pending","label":"Your Great Store","amount":"1.00"}}</script>
<script id="shopify-features" type="application/json">{"accessToken":"025a3b0d3a2c0d292bf30d8a1666b8c5","betas":["rich-media-storefront-analytics"],"domain":"canvashub.com","predictiveSearch":true,"shopId":5252907082,"smart_payment_buttons_url":"https:\/\/cdn.shopifycdn.net\/shopifycloud\/payment-sheet\/assets\/latest\/spb.de.js","dynamic_checkout_cart_url":"https:\/\/cdn.shopifycdn.net\/shopifycloud\/payment-sheet\/assets\/latest\/dynamic-checkout-cart.de.js","locale":"de"}</script>
<script>var Shopify = Shopify || {};
Shopify.shop = "thecanvashub.myshopify.com";
Shopify.locale = "de";
Shopify.currency = {"active":"CAD","rate":"1.0"};
Shopify.theme = {"name":"Minimal","id":83162759242,"theme_store_id":380,"role":"main"};
Shopify.theme.handle = "null";
Shopify.theme.style = {"id":null,"handle":null};
Shopify.cdnHost = "cdn.shopifycdn.net";</script>
<script type="module">!function(o){(o.Shopify=o.Shopify||{}).modules=!0}(window);</script>
<script>!function(o){function n(){var o=[];function n(){o.push(Array.prototype.slice.apply(arguments))}return n.q=o,n}var t=o.Shopify=o.Shopify||{};t.loadFeatures=n(),t.autoloadFeatures=n()}(window);</script>
<script>window.ShopifyPay = window.ShopifyPay || {};
window.ShopifyPay.apiHost = "pay.shopify.com";</script>
<script>(function() {
  function asyncLoad() {
    var urls = ["https:\/\/pipqee.com\/livechat\/assets\/js\/check.js?shop=thecanvashub.myshopify.com"];
    for (var i = 0; i < urls.length; i++) {
      var s = document.createElement('script');
      s.type = 'text/javascript';
      s.async = true;
      s.src = urls[i];
      var x = document.getElementsByTagName('script')[0];
      x.parentNode.insertBefore(s, x);
    }
  };
  if(window.attachEvent) {
    window.attachEvent('onload', asyncLoad);
  } else {
    window.addEventListener('load', asyncLoad, false);
  }
})();</script>
<script id="__st">var __st={"a":5252907082,"offset":-18000,"reqid":"b077f318-f698-42d7-8478-66cdfd177cf9","pageurl":"canvashub.com\/404","u":"2c5d7087db0f"};</script>
<script>window.ShopifyPaypalV4VisibilityTracking = true;</script>
<script>window.ShopifyAnalytics = window.ShopifyAnalytics || {};
window.ShopifyAnalytics.meta = window.ShopifyAnalytics.meta || {};
window.ShopifyAnalytics.meta.currency = 'CAD';
var meta = {"page":{}};
for (var attr in meta) {
  window.ShopifyAnalytics.meta[attr] = meta[attr];
}</script>
<script>window.ShopifyAnalytics.merchantGoogleAnalytics = function() {
  
};
</script>
<script class="analytics">(function () {
  var customDocumentWrite = function(content) {
    var jquery = null;

    if (window.jQuery) {
      jquery = window.jQuery;
    } else if (window.Checkout && window.Checkout.$) {
      jquery = window.Checkout.$;
    }

    if (jquery) {
      jquery('body').append(content);
    }
  };

  var hasLoggedConversion = function(token) {
    if (document.cookie.indexOf('loggedConversion=' + window.location.pathname) !== -1) {
      return true;
    }
    if (token) {
      return document.cookie.indexOf('loggedConversion=' + token) !== -1;
    }
    return false;
  }

  var setCookieIfConversion = function(token) {
    if (token) {
      var twoMonthsFromNow = new Date(Date.now());
      twoMonthsFromNow.setMonth(twoMonthsFromNow.getMonth() + 2);

      document.cookie = 'loggedConversion=' + token + '; expires=' + twoMonthsFromNow;
    }
  }

  var trekkie = window.ShopifyAnalytics.lib = window.trekkie = window.trekkie || [];
  if (trekkie.integrations) {
    return;
  }
  trekkie.methods = [
    'identify',
    'page',
    'ready',
    'track',
    'trackForm',
    'trackLink'
  ];
  trekkie.factory = function(method) {
    return function() {
      var args = Array.prototype.slice.call(arguments);
      args.unshift(method);
      trekkie.push(args);
      return trekkie;
    };
  };
  for (var i = 0; i < trekkie.methods.length; i++) {
    var key = trekkie.methods[i];
    trekkie[key] = trekkie.factory(key);
  }
  trekkie.load = function(config) {
    trekkie.config = config;
    var first = document.getElementsByTagName('script')[0];
    var script = document.createElement('script');
    script.type = 'text/javascript';
    script.onerror = function(e) {
      var scriptFallback = document.createElement('script');
      scriptFallback.type = 'text/javascript';
      scriptFallback.onerror = function(error) {
              var Monorail = {
      produce: function produce(monorailDomain, schemaId, payload) {
        var currentMs = new Date().getTime();
        var event = {
          schema_id: schemaId,
          payload: payload,
          metadata: {
            event_created_at_ms: currentMs,
            event_sent_at_ms: currentMs
          }
        };
        return Monorail.sendRequest("https://" + monorailDomain + "/v1/produce", JSON.stringify(event));
      },
      sendRequest: function sendRequest(endpointUrl, payload) {
        // Try the sendBeacon API
        if (window && window.navigator && typeof window.navigator.sendBeacon === 'function' && typeof window.Blob === 'function' && !Monorail.isIos12()) {
          var blobData = new window.Blob([payload], {
            type: 'text/plain'
          });
    
          if (window.navigator.sendBeacon(endpointUrl, blobData)) {
            return true;
          } // sendBeacon was not successful
    
        } // XHR beacon   
    
        var xhr = new XMLHttpRequest();
    
        try {
          xhr.open('POST', endpointUrl);
          xhr.setRequestHeader('Content-Type', 'text/plain');
          xhr.send(payload);
        } catch (e) {
          console.log(e);
        }
    
        return false;
      },
      isIos12: function isIos12() {
        return window.navigator.userAgent.lastIndexOf('iPhone; CPU iPhone OS 12_') !== -1 || window.navigator.userAgent.lastIndexOf('iPad; CPU OS 12_') !== -1;
      }
    };
    Monorail.produce('monorail-edge.shopifysvc.com',
      'trekkie_storefront_load_errors/1.1',
      {shop_id: 5252907082,
      theme_id: 83162759242,
      app_name: "storefront",
      context_url: window.location.href,
      source_url: "https://cdn.shopifycdn.net/s/trekkie.storefront.5f7bf96405492b9c1557a597e8c96d3d65752676.min.js"});

      };
      scriptFallback.async = true;
      scriptFallback.src = 'https://cdn.shopifycdn.net/s/trekkie.storefront.5f7bf96405492b9c1557a597e8c96d3d65752676.min.js';
      first.parentNode.insertBefore(scriptFallback, first);
    };
    script.async = true;
    script.src = 'https://cdn.shopifycdn.net/s/trekkie.storefront.5f7bf96405492b9c1557a597e8c96d3d65752676.min.js';
    first.parentNode.insertBefore(script, first);
  };
  trekkie.load(
    {"Trekkie":{"appName":"storefront","development":false,"defaultAttributes":{"shopId":5252907082,"isMerchantRequest":null,"themeId":83162759242,"themeCityHash":"15145442412572628383","contentLanguage":"de","currency":"CAD"},"isServerSideCookieWritingEnabled":true,"isPixelGateEnabled":true},"Performance":{"navigationTimingApiMeasurementsEnabled":true,"navigationTimingApiMeasurementsSampleRate":1},"Session Attribution":{}}
  );

  var loaded = false;
  trekkie.ready(function() {
    if (loaded) return;
    loaded = true;

    window.ShopifyAnalytics.lib = window.trekkie;
    

    var originalDocumentWrite = document.write;
    document.write = customDocumentWrite;
    try { window.ShopifyAnalytics.merchantGoogleAnalytics.call(this); } catch(error) {};
    document.write = originalDocumentWrite;
      (function () {
        if (window.BOOMR && (window.BOOMR.version || window.BOOMR.snippetExecuted)) {
          return;
        }
        window.BOOMR = window.BOOMR || {};
        window.BOOMR.snippetStart = new Date().getTime();
        window.BOOMR.snippetExecuted = true;
        window.BOOMR.snippetVersion = 12;
        window.BOOMR.application = "core";
        window.BOOMR.shopId = 5252907082;
        window.BOOMR.themeId = 83162759242;
        window.BOOMR.themeName = "Minimal";
        window.BOOMR.themeVersion = "12.0.2";
        window.BOOMR.url =
          "https://cdn.shopifycdn.net/shopifycloud/boomerang/shopify-boomerang-1.0.0.min.js";
        var where = document.currentScript || document.getElementsByTagName("script")[0];
        var parentNode = where.parentNode;
        var promoted = false;
        var LOADER_TIMEOUT = 3000;
        function promote() {
          if (promoted) {
            return;
          }
          var script = document.createElement("script");
          script.id = "boomr-scr-as";
          script.src = window.BOOMR.url;
          script.async = true;
          parentNode.appendChild(script);
          promoted = true;
        }
        function iframeLoader(wasFallback) {
          promoted = true;
          var dom, bootstrap, iframe, iframeStyle;
          var doc = document;
          var win = window;
          window.BOOMR.snippetMethod = wasFallback ? "if" : "i";
          bootstrap = function(parent, scriptId) {
            var script = doc.createElement("script");
            script.id = scriptId || "boomr-if-as";
            script.src = window.BOOMR.url;
            BOOMR_lstart = new Date().getTime();
            parent = parent || doc.body;
            parent.appendChild(script);
          };
          if (!window.addEventListener && window.attachEvent && navigator.userAgent.match(/MSIE [67]./)) {
            window.BOOMR.snippetMethod = "s";
            bootstrap(parentNode, "boomr-async");
            return;
          }
          iframe = document.createElement("IFRAME");
          iframe.src = "about:blank";
          iframe.title = "";
          iframe.role = "presentation";
          iframe.loading = "eager";
          iframeStyle = (iframe.frameElement || iframe).style;
          iframeStyle.width = 0;
          iframeStyle.height = 0;
          iframeStyle.border = 0;
          iframeStyle.display = "none";
          parentNode.appendChild(iframe);
          try {
            win = iframe.contentWindow;
            doc = win.document.open();
          } catch (e) {
            dom = document.domain;
            iframe.src = "javascript:var d=document.open();d.domain='" + dom + "';void(0);";
            win = iframe.contentWindow;
            doc = win.document.open();
          }
          if (dom) {
            doc._boomrl = function() {
              this.domain = dom;
              bootstrap();
            };
            doc.write("<body onload='document._boomrl();'>");
          } else {
            win._boomrl = function() {
              bootstrap();
            };
            if (win.addEventListener) {
              win.addEventListener("load", win._boomrl, false);
            } else if (win.attachEvent) {
              win.attachEvent("onload", win._boomrl);
            }
          }
          doc.close();
        }
        var link = document.createElement("link");
        if (link.relList &&
          typeof link.relList.supports === "function" &&
          link.relList.supports("preload") &&
          ("as" in link)) {
          window.BOOMR.snippetMethod = "p";
          link.href = window.BOOMR.url;
          link.rel = "preload";
          link.as = "script";
          link.addEventListener("load", promote);
          link.addEventListener("error", function() {
            iframeLoader(true);
          });
          setTimeout(function() {
            if (!promoted) {
              iframeLoader(true);
            }
          }, LOADER_TIMEOUT);
          BOOMR_lstart = new Date().getTime();
          parentNode.appendChild(link);
        } else {
          iframeLoader(false);
        }
        function boomerangSaveLoadTime(e) {
          window.BOOMR_onload = (e && e.timeStamp) || new Date().getTime();
        }
        if (window.addEventListener) {
          window.addEventListener("load", boomerangSaveLoadTime, false);
        } else if (window.attachEvent) {
          window.attachEvent("onload", boomerangSaveLoadTime);
        }
        if (document.addEventListener) {
          document.addEventListener("onBoomerangLoaded", function(e) {
            e.detail.BOOMR.init({
              producer_url: "https://monorail-edge.shopifysvc.com/v1/produce",
              ResourceTiming: {
                enabled: true,
                trackedResourceTypes: ["script", "img", "css"]
              },
            });
            e.detail.BOOMR.t_end = new Date().getTime();
          });
        } else if (document.attachEvent) {
          document.attachEvent("onpropertychange", function(e) {
            if (!e) e=event;
            if (e.propertyName === "onBoomerangLoaded") {
              e.detail.BOOMR.init({
                producer_url: "https://monorail-edge.shopifysvc.com/v1/produce",
                ResourceTiming: {
                  enabled: true,
                  trackedResourceTypes: ["script", "img", "css"]
                },
              });
              e.detail.BOOMR.t_end = new Date().getTime();
            }
          });
        }
      })();
    

    
        window.ShopifyAnalytics.lib.page(
          null,
          {}
        );
      

    var match = window.location.pathname.match(/checkouts\/(.+)\/(thank_you|post_purchase)/)
    var token = match? match[1]: undefined;
    if (!hasLoggedConversion(token)) {
      setCookieIfConversion(token);
      
    }
  });

  
      var eventsListenerScript = document.createElement('script');
      eventsListenerScript.async = true;
      eventsListenerScript.src = "//cdn.shopifycdn.net/shopifycloud/shopify/assets/shop_events_listener-68ba3f1321f00bf07cb78a03841621079812265e950cdccade3463749ea2705e.js";
      document.getElementsByTagName('head')[0].appendChild(eventsListenerScript);
    
})();</script>
<script>!function(e){e.addEventListener("DOMContentLoaded",function(){var t;null!==e.querySelector('form[action^="/contact"] input[name="form_type"][value="contact"]')&&(window.Shopify=window.Shopify||{},window.Shopify.recaptchaV3=window.Shopify.recaptchaV3||{siteKey:"6LcCR2cUAAAAANS1Gpq_mDIJ2pQuJphsSQaUEuc9"},(t=e.createElement("script")).setAttribute("src","https://cdn.shopifycdn.net/shopifycloud/storefront-recaptcha-v3/v0.1/index.js"),e.body.appendChild(t))})}(document);</script>
<script crossorigin="anonymous" data-source-attribution="shopify.loadfeatures" defer="defer" integrity="sha256-JP8SIsmqE7shdlPA0+ooxAp5aigObaKa1CHuwqYHXIY=" src="//cdn.shopifycdn.net/shopifycloud/shopify/assets/storefront/load_feature-24ff1222c9aa13bb217653c0d3ea28c40a796a280e6da29ad421eec2a6075c86.js"></script>
<script crossorigin="anonymous" defer="defer" src="//cdn.shopifycdn.net/shopifycloud/shopify/assets/shopify_pay/storefront-21b5dddfc8b64c1ad68cee3ba7448d1ffa15c24e969ebc1fbccf1a3784b659ad.js?v=20190107"></script>
<script crossorigin="anonymous" data-source-attribution="shopify.dynamic-checkout" defer="defer" integrity="sha256-h+g5mYiIAULyxidxudjy/2wpCz/3Rd1CbrDf4NudHa4=" src="//cdn.shopifycdn.net/shopifycloud/shopify/assets/storefront/features-87e8399988880142f2c62771b9d8f2ff6c290b3ff745dd426eb0dfe0db9d1dae.js"></script>
<style id="shopify-dynamic-checkout-cart">@media screen and (min-width: 750px) {
  #dynamic-checkout-cart {
    min-height: 50px;
  }
}

@media screen and (max-width: 750px) {
  #dynamic-checkout-cart {
    min-height: 180px;
  }
}
</style><script>window.performance && window.performance.mark && window.performance.mark('shopify.content_for_header.end');</script>
<script src="//cdn.shopifycdn.net/s/files/1/0052/5290/7082/t/56/assets/jquery-2.2.3.min.js?v=5821186314690718683" type="text/javascript"></script>
<script async="async" src="//cdn.shopifycdn.net/s/files/1/0052/5290/7082/t/56/assets/lazysizes.min.js?v=15522312340271661705"></script>
<meta content="https://cdn.shopifycdn.net/s/files/1/0052/5290/7082/files/Shopping_with_friends5_copy_61b7248f-ca64-4d4b-8d47-c5458e7c1b87.png?v=1604352679" property="og:image"/>
<meta content="https://cdn.shopifycdn.net/s/files/1/0052/5290/7082/files/Shopping_with_friends5_copy_61b7248f-ca64-4d4b-8d47-c5458e7c1b87.png?v=1604352679" property="og:image:secure_url"/>
<meta content="1200" property="og:image:width"/>
<meta content="630" property="og:image:height"/>
</head>
<body class="template-404" id="404-nicht-gefunden">
<div class="shopify-section" id="shopify-section-header"><style>
  .logo__image-wrapper {
    max-width: 200px;
  }
  /*================= If logo is above navigation ================== */
  

  /*============ If logo is on the same line as navigation ============ */
  
    .site-header .grid--full {
      border-bottom: 1px solid #faf9f7;
      padding-bottom: 30px;
    }
  


  
    @media screen and (min-width: 769px) {
      .site-nav {
        text-align: right!important;
      }
    }
  
</style>
<div data-section-id="header" data-section-type="header-section">
<div class="header-bar">
<div class="wrapper medium-down--hide">
<div class="post-large--display-table">
<div class="header-bar__left post-large--display-table-cell">
<div class="header-bar__module header-bar__message">
                
                  Hier etwas ankündigen
                
              </div>
</div>
<div class="header-bar__right post-large--display-table-cell">
<ul class="header-bar__module header-bar__module--list">
<li>
<a href="/account/login" id="customer_login_link">Einloggen</a>
</li>
<li>oder</li>
<li>
<a href="/account/register" id="customer_register_link">Konto erstellen</a>
</li>
</ul>
<div class="header-bar__module">
<span aria-hidden="true" class="header-bar__sep"></span>
<a class="cart-page-link" href="/cart">
<span aria-hidden="true" class="icon icon-cart header-bar__cart-icon"></span>
</a>
</div>
<div class="header-bar__module">
<a class="cart-page-link" href="/cart">
              Warenkorb
              <span class="cart-count header-bar__cart-count hidden-count">0</span>
</a>
</div>
<div class="header-bar__module header-bar__search">
<form action="/search" class="header-bar__search-form clearfix" method="get" role="search">
<button class="btn btn--search icon-fallback-text header-bar__search-submit" type="submit">
<span aria-hidden="true" class="icon icon-search"></span>
<span class="fallback-text">Suchen</span>
</button>
<input aria-label="Durchsuche unseren Shop" class="header-bar__search-input" name="q" placeholder="Durchsuche unseren Shop" type="search" value=""/>
</form>
</div>
</div>
</div>
</div>
<div class="wrapper post-large--hide announcement-bar--mobile">
<span>Hier etwas ankündigen</span>
</div>
<div class="wrapper post-large--hide">
<button aria-controls="MobileNav" aria-expanded="false" class="mobile-nav-trigger" id="MobileNavTrigger" type="button">
<span aria-hidden="true" class="icon icon-hamburger"></span>
          Menü
        </button>
<a class="cart-page-link mobile-cart-page-link" href="/cart">
<span aria-hidden="true" class="icon icon-cart header-bar__cart-icon"></span>
        Warenkorb <span class="cart-count hidden-count">0</span>
</a>
</div>
<nav role="navigation">
<ul class="mobile-nav post-large--hide" id="MobileNav">
<li class="mobile-nav__link">
<a class="mobile-nav" href="/">
            Home
          </a>
</li>
<li class="mobile-nav__link">
<a class="mobile-nav" href="/collections/all">
            Catalog
          </a>
</li>
<li class="mobile-nav__link">
<a class="mobile-nav" href="/pages/wishlist">
            Wishlist
          </a>
</li>
<li class="mobile-nav__link">
<a href="/account/login" id="customer_login_link">Einloggen</a>
</li>
<li class="mobile-nav__link">
<a href="/account/register" id="customer_register_link">Konto erstellen</a>
</li>
<li class="mobile-nav__link">
<div class="header-bar__module header-bar__search">
<form action="/search" class="header-bar__search-form clearfix" method="get" role="search">
<button class="btn btn--search icon-fallback-text header-bar__search-submit" type="submit">
<span aria-hidden="true" class="icon icon-search"></span>
<span class="fallback-text">Suchen</span>
</button>
<input aria-label="Durchsuche unseren Shop" class="header-bar__search-input" name="q" placeholder="Durchsuche unseren Shop" type="search" value=""/>
</form>
</div>
</li>
</ul>
</nav>
</div>
<header class="site-header" role="banner">
<div class="wrapper">
<div class="grid--full post-large--display-table">
<div class="grid__item post-large--one-third post-large--display-table-cell">
<div class="h1 site-header__logo" itemscope="" itemtype="http://schema.org/Organization">
<noscript>
<div class="logo__image-wrapper">
<img alt="Your Great Store" src="//cdn.shopifycdn.net/s/files/1/0052/5290/7082/files/The_Canvas_Hub_Logo_200x.jpg?v=1558469935"/>
</div>
</noscript>
<div class="logo__image-wrapper supports-js">
<a href="/" itemprop="url" style="padding-top:55.95432300163132%;">
<img alt="Your Great Store" class="logo__image lazyload" data-aspectratio="1.7871720116618075" data-sizes="auto" data-src="//cdn.shopifycdn.net/s/files/1/0052/5290/7082/files/The_Canvas_Hub_Logo_{width}x.jpg?v=1558469935" data-widths="[120, 180, 360, 540, 720, 900, 1080, 1296, 1512, 1728, 1944, 2048]" itemprop="logo" src="//cdn.shopifycdn.net/s/files/1/0052/5290/7082/files/The_Canvas_Hub_Logo_300x300.jpg?v=1558469935"/>
</a>
</div>
</div>
</div>
<div class="grid__item post-large--two-thirds post-large--display-table-cell medium-down--hide">
<nav>
<ul class="site-nav" id="AccessibleNav">
<li>
<a class="site-nav__link" data-meganav-type="child" href="/">
              Home
          </a>
</li>
<li>
<a class="site-nav__link" data-meganav-type="child" href="/collections/all">
              Catalog
          </a>
</li>
<li>
<a class="site-nav__link" data-meganav-type="child" href="/pages/wishlist">
              Wishlist
          </a>
</li>
</ul>
</nav>
</div>
</div>
</div>
</header>
</div>
</div>
<main class="wrapper main-content" role="main">
<div class="grid">
<div class="grid__item">
<h1>404 Seite nicht gefunden</h1>
<p>Die von dir angeforderte Seite existiert nicht. Klicke <a href="/collections/all">hier</a>, um den Einkauf fortzusetzen.</p>
</div>
</div>
</main>
<div class="shopify-section" id="shopify-section-footer"><footer class="site-footer small--text-center" role="contentinfo">
<div class="wrapper">
<div class="grid-uniform">
<div class="grid__item post-large--one-quarter medium--one-half">
<h3 class="h4">Links</h3>
<ul class="site-footer__links">
<li><a href="/search">Search</a></li>
<li><a href="/pages/contact-us">Contact Us</a></li>
</ul>
</div>
<div class="grid__item post-large--one-quarter medium--one-half site-footer__links">
<h3 class="h4"><a href="/blogs/news">Neueste Nachrichten</a></h3>
<p class="h5"><a href="/blogs/news/testblogtitle" title="">testblogtitle</a></p>
<style>
  

  #ArticleImage-footer--31626821706 {
    max-width: 410px;
    max-height: 273.546875px;
  }
  #ArticleImageWrapper-footer--31626821706 {
    max-width: 410px;
  }
</style>
<p>
</p><div class="article__image-wrapper supports-js" id="ArticleImageWrapper-footer--31626821706">
<div style="padding-top:66.71874999999999%;">
<img alt="testblogtitle" class="article__image lazyload" data-aspectratio="1.4988290398126465" data-sizes="auto" data-src="//cdn.shopifycdn.net/s/files/1/0052/5290/7082/articles/photo-of-two-teal-and-pink-leather-crossbody-bags-1038000_{width}x.jpg?v=1581778298" data-widths="[90, 120, 150, 180, 360, 480, 600, 750, 940, 1080, 1296]" id="ArticleImage-footer--31626821706" src="//cdn.shopifycdn.net/s/files/1/0052/5290/7082/articles/photo-of-two-teal-and-pink-leather-crossbody-bags-1038000_300x300.jpg?v=1581778298"/>
</div>
</div>
<noscript>
<p><a href="/blogs/news/testblogtitle" title=""><img alt="testblogtitle" class="article__image" src="//cdn.shopifycdn.net/s/files/1/0052/5290/7082/articles/photo-of-two-teal-and-pink-leather-crossbody-bags-1038000_large.jpg?v=1581778298"/></a></p>
</noscript>
<p>abc</p>
</div>
<div class="grid__item post-large--one-quarter medium--one-half">
<h3 class="h4">Bleibe auf dem Laufenden</h3>
<ul class="inline-list social-icons"></ul>
</div>
<div class="grid__item post-large--one-quarter medium--one-half">
<h3 class="h4">Newsletter</h3>
<p>Melde dich für die neuesten Nachrichten, Angebote und Stile an</p>
<div class="form-vertical small--hide">
<form accept-charset="UTF-8" action="/contact#contact_form" class="contact-form" id="contact_form" method="post"><input name="form_type" type="hidden" value="customer"/><input name="utf8" type="hidden" value="✓"/>
<input name="contact[tags]" type="hidden" value="newsletter"/>
<input aria-label="ihre-email@beispiel.com" autocapitalize="off" autocorrect="off" class="input-group-field" id="Email" name="contact[email]" placeholder="ihre-email@beispiel.com" type="email" value=""/>
<input class="btn" id="subscribe" name="subscribe" type="submit" value="Abonnieren"/>
</form>
</div>
<div class="form-vertical post-large--hide large--hide medium--hide">
<form accept-charset="UTF-8" action="/contact#contact_form" class="contact-form" id="contact_form" method="post"><input name="form_type" type="hidden" value="customer"/><input name="utf8" type="hidden" value="✓"/>
<input name="contact[tags]" type="hidden" value="newsletter"/>
<div class="input-group">
<input aria-label="ihre-email@beispiel.com" autocapitalize="off" autocorrect="off" class="input-group-field" id="Email" name="contact[email]" placeholder="ihre-email@beispiel.com" type="email" value=""/>
<span class="input-group-btn">
<button class="btn" id="subscribe" name="commit" type="submit">Abonnieren</button>
</span>
</div>
</form>
</div>
</div>
</div>
<hr class="hr--small hr--clear"/>
<div class="grid">
<div class="grid__item text-center">
<p class="site-footer__links">Urheberrecht © 2021, <a href="/" title="">Your Great Store</a>. Powered by Shopify</p>
</div>
</div>
<div class="grid">
<div class="grid__item text-center">
<span class="visually-hidden">Zahlungsarten</span>
<ul class="inline-list payment-icons">
<li>
<svg aria-labelledby="pi-american_express" class="icon" height="24" role="img" viewbox="0 0 38 24" width="38" xmlns="http://www.w3.org/2000/svg"><title id="pi-american_express">American Express</title><g fill="none"><path d="M35,0 L3,0 C1.3,0 0,1.3 0,3 L0,21 C0,22.7 1.4,24 3,24 L35,24 C36.7,24 38,22.7 38,21 L38,3 C38,1.3 36.6,0 35,0 Z" fill="#000" opacity=".07"></path><path d="M35,1 C36.1,1 37,1.9 37,3 L37,21 C37,22.1 36.1,23 35,23 L3,23 C1.9,23 1,22.1 1,21 L1,3 C1,1.9 1.9,1 3,1 L35,1" fill="#006FCF"></path><path d="M8.971,10.268 L9.745,12.144 L8.203,12.144 L8.971,10.268 Z M25.046,10.346 L22.069,10.346 L22.069,11.173 L24.998,11.173 L24.998,12.412 L22.075,12.412 L22.075,13.334 L25.052,13.334 L25.052,14.073 L27.129,11.828 L25.052,9.488 L25.046,10.346 L25.046,10.346 Z M10.983,8.006 L14.978,8.006 L15.865,9.941 L16.687,8 L27.057,8 L28.135,9.19 L29.25,8 L34.013,8 L30.494,11.852 L33.977,15.68 L29.143,15.68 L28.065,14.49 L26.94,15.68 L10.03,15.68 L9.536,14.49 L8.406,14.49 L7.911,15.68 L4,15.68 L7.286,8 L10.716,8 L10.983,8.006 Z M19.646,9.084 L17.407,9.084 L15.907,12.62 L14.282,9.084 L12.06,9.084 L12.06,13.894 L10,9.084 L8.007,9.084 L5.625,14.596 L7.18,14.596 L7.674,13.406 L10.27,13.406 L10.764,14.596 L13.484,14.596 L13.484,10.661 L15.235,14.602 L16.425,14.602 L18.165,10.673 L18.165,14.603 L19.623,14.603 L19.647,9.083 L19.646,9.084 Z M28.986,11.852 L31.517,9.084 L29.695,9.084 L28.094,10.81 L26.546,9.084 L20.652,9.084 L20.652,14.602 L26.462,14.602 L28.076,12.864 L29.624,14.602 L31.499,14.602 L28.987,11.852 L28.986,11.852 Z" fill="#FFF"></path></g></svg>
</li>
<li>
<svg aria-labelledby="pi-apple_pay" class="icon" height="24" role="img" version="1.1" viewbox="0 0 165.521 105.965" width="38" x="0" xml:space="preserve" xmlns="http://www.w3.org/2000/svg" y="0"><title id="pi-apple_pay">Apple Pay</title><path d="M150.698 0H14.823c-.566 0-1.133 0-1.698.003-.477.004-.953.009-1.43.022-1.039.028-2.087.09-3.113.274a10.51 10.51 0 0 0-2.958.975 9.932 9.932 0 0 0-4.35 4.35 10.463 10.463 0 0 0-.975 2.96C.113 9.611.052 10.658.024 11.696a70.22 70.22 0 0 0-.022 1.43C0 13.69 0 14.256 0 14.823v76.318c0 .567 0 1.132.002 1.699.003.476.009.953.022 1.43.028 1.036.09 2.084.275 3.11a10.46 10.46 0 0 0 .974 2.96 9.897 9.897 0 0 0 1.83 2.52 9.874 9.874 0 0 0 2.52 1.83c.947.483 1.917.79 2.96.977 1.025.183 2.073.245 3.112.273.477.011.953.017 1.43.02.565.004 1.132.004 1.698.004h135.875c.565 0 1.132 0 1.697-.004.476-.002.952-.009 1.431-.02 1.037-.028 2.085-.09 3.113-.273a10.478 10.478 0 0 0 2.958-.977 9.955 9.955 0 0 0 4.35-4.35c.483-.947.789-1.917.974-2.96.186-1.026.246-2.074.274-3.11.013-.477.02-.954.022-1.43.004-.567.004-1.132.004-1.699V14.824c0-.567 0-1.133-.004-1.699a63.067 63.067 0 0 0-.022-1.429c-.028-1.038-.088-2.085-.274-3.112a10.4 10.4 0 0 0-.974-2.96 9.94 9.94 0 0 0-4.35-4.35A10.52 10.52 0 0 0 156.939.3c-1.028-.185-2.076-.246-3.113-.274a71.417 71.417 0 0 0-1.431-.022C151.83 0 151.263 0 150.698 0z" fill="#000"></path><path d="M150.698 3.532l1.672.003c.452.003.905.008 1.36.02.793.022 1.719.065 2.583.22.75.135 1.38.34 1.984.648a6.392 6.392 0 0 1 2.804 2.807c.306.6.51 1.226.645 1.983.154.854.197 1.783.218 2.58.013.45.019.9.02 1.36.005.557.005 1.113.005 1.671v76.318c0 .558 0 1.114-.004 1.682-.002.45-.008.9-.02 1.35-.022.796-.065 1.725-.221 2.589a6.855 6.855 0 0 1-.645 1.975 6.397 6.397 0 0 1-2.808 2.807c-.6.306-1.228.511-1.971.645-.881.157-1.847.2-2.574.22-.457.01-.912.017-1.379.019-.555.004-1.113.004-1.669.004H14.801c-.55 0-1.1 0-1.66-.004a74.993 74.993 0 0 1-1.35-.018c-.744-.02-1.71-.064-2.584-.22a6.938 6.938 0 0 1-1.986-.65 6.337 6.337 0 0 1-1.622-1.18 6.355 6.355 0 0 1-1.178-1.623 6.935 6.935 0 0 1-.646-1.985c-.156-.863-.2-1.788-.22-2.578a66.088 66.088 0 0 1-.02-1.355l-.003-1.327V14.474l.002-1.325a66.7 66.7 0 0 1 .02-1.357c.022-.792.065-1.717.222-2.587a6.924 6.924 0 0 1 .646-1.981c.304-.598.7-1.144 1.18-1.623a6.386 6.386 0 0 1 1.624-1.18 6.96 6.96 0 0 1 1.98-.646c.865-.155 1.792-.198 2.586-.22.452-.012.905-.017 1.354-.02l1.677-.003h135.875" fill="#FFF"></path><g><g><path d="M43.508 35.77c1.404-1.755 2.356-4.112 2.105-6.52-2.054.102-4.56 1.355-6.012 3.112-1.303 1.504-2.456 3.959-2.156 6.266 2.306.2 4.61-1.152 6.063-2.858" fill="#000"></path><path d="M45.587 39.079c-3.35-.2-6.196 1.9-7.795 1.9-1.6 0-4.049-1.8-6.698-1.751-3.447.05-6.645 2-8.395 5.1-3.598 6.2-.95 15.4 2.55 20.45 1.699 2.5 3.747 5.25 6.445 5.151 2.55-.1 3.549-1.65 6.647-1.65 3.097 0 3.997 1.65 6.696 1.6 2.798-.05 4.548-2.5 6.247-5 1.95-2.85 2.747-5.6 2.797-5.75-.05-.05-5.396-2.101-5.446-8.251-.05-5.15 4.198-7.6 4.398-7.751-2.399-3.548-6.147-3.948-7.447-4.048" fill="#000"></path></g><g><path d="M78.973 32.11c7.278 0 12.347 5.017 12.347 12.321 0 7.33-5.173 12.373-12.529 12.373h-8.058V69.62h-5.822V32.11h14.062zm-8.24 19.807h6.68c5.07 0 7.954-2.729 7.954-7.46 0-4.73-2.885-7.434-7.928-7.434h-6.706v14.894z" fill="#000"></path><path d="M92.764 61.847c0-4.809 3.665-7.564 10.423-7.98l7.252-.442v-2.08c0-3.04-2.001-4.704-5.562-4.704-2.938 0-5.07 1.507-5.51 3.82h-5.252c.157-4.86 4.731-8.395 10.918-8.395 6.654 0 10.995 3.483 10.995 8.89v18.663h-5.38v-4.497h-.13c-1.534 2.937-4.914 4.782-8.579 4.782-5.406 0-9.175-3.222-9.175-8.057zm17.675-2.417v-2.106l-6.472.416c-3.64.234-5.536 1.585-5.536 3.95 0 2.288 1.975 3.77 5.068 3.77 3.95 0 6.94-2.522 6.94-6.03z" fill="#000"></path><path d="M120.975 79.652v-4.496c.364.051 1.247.103 1.715.103 2.573 0 4.029-1.09 4.913-3.899l.52-1.663-9.852-27.293h6.082l6.863 22.146h.13l6.862-22.146h5.927l-10.216 28.67c-2.34 6.577-5.017 8.735-10.683 8.735-.442 0-1.872-.052-2.261-.157z" fill="#000"></path></g></g></svg>
</li>
<li>
<svg aria-labelledby="pi-google_pay" class="icon" height="24" role="img" viewbox="0 0 38 24" width="38" xmlns="http://www.w3.org/2000/svg"><title id="pi-google_pay">Google Pay</title><path d="M35 0H3C1.3 0 0 1.3 0 3v18c0 1.7 1.4 3 3 3h32c1.7 0 3-1.3 3-3V3c0-1.7-1.4-3-3-3z" fill="#000" opacity=".07"></path><path d="M35 1c1.1 0 2 .9 2 2v18c0 1.1-.9 2-2 2H3c-1.1 0-2-.9-2-2V3c0-1.1.9-2 2-2h32" fill="#FFF"></path><path d="M18.093 11.976v3.2h-1.018v-7.9h2.691a2.447 2.447 0 0 1 1.747.692 2.28 2.28 0 0 1 .11 3.224l-.11.116c-.47.447-1.098.69-1.747.674l-1.673-.006zm0-3.732v2.788h1.698c.377.012.741-.135 1.005-.404a1.391 1.391 0 0 0-1.005-2.354l-1.698-.03zm6.484 1.348c.65-.03 1.286.188 1.778.613.445.43.682 1.03.65 1.649v3.334h-.969v-.766h-.049a1.93 1.93 0 0 1-1.673.931 2.17 2.17 0 0 1-1.496-.533 1.667 1.667 0 0 1-.613-1.324 1.606 1.606 0 0 1 .613-1.336 2.746 2.746 0 0 1 1.698-.515c.517-.02 1.03.093 1.49.331v-.208a1.134 1.134 0 0 0-.417-.901 1.416 1.416 0 0 0-.98-.368 1.545 1.545 0 0 0-1.319.717l-.895-.564a2.488 2.488 0 0 1 2.182-1.06zM23.29 13.52a.79.79 0 0 0 .337.662c.223.176.5.269.785.263.429-.001.84-.17 1.146-.472.305-.286.478-.685.478-1.103a2.047 2.047 0 0 0-1.324-.374 1.716 1.716 0 0 0-1.03.294.883.883 0 0 0-.392.73zm9.286-3.75l-3.39 7.79h-1.048l1.281-2.728-2.224-5.062h1.103l1.612 3.885 1.569-3.885h1.097z" fill="#5F6368"></path><path d="M13.986 11.284c0-.308-.024-.616-.073-.92h-4.29v1.747h2.451a2.096 2.096 0 0 1-.9 1.373v1.134h1.464a4.433 4.433 0 0 0 1.348-3.334z" fill="#4285F4"></path><path d="M9.629 15.721a4.352 4.352 0 0 0 3.01-1.097l-1.466-1.14a2.752 2.752 0 0 1-4.094-1.44H5.577v1.17a4.53 4.53 0 0 0 4.052 2.507z" fill="#34A853"></path><path d="M7.079 12.05a2.709 2.709 0 0 1 0-1.735v-1.17H5.577a4.505 4.505 0 0 0 0 4.075l1.502-1.17z" fill="#FBBC04"></path><path d="M9.629 8.44a2.452 2.452 0 0 1 1.74.68l1.3-1.293a4.37 4.37 0 0 0-3.065-1.183 4.53 4.53 0 0 0-4.027 2.5l1.502 1.171a2.715 2.715 0 0 1 2.55-1.875z" fill="#EA4335"></path></svg>
</li>
<li>
<svg aria-labelledby="pi-master" class="icon" height="24" role="img" viewbox="0 0 38 24" width="38" xmlns="http://www.w3.org/2000/svg"><title id="pi-master">Mastercard</title><path d="M35 0H3C1.3 0 0 1.3 0 3v18c0 1.7 1.4 3 3 3h32c1.7 0 3-1.3 3-3V3c0-1.7-1.4-3-3-3z" opacity=".07"></path><path d="M35 1c1.1 0 2 .9 2 2v18c0 1.1-.9 2-2 2H3c-1.1 0-2-.9-2-2V3c0-1.1.9-2 2-2h32" fill="#fff"></path><circle cx="15" cy="12" fill="#EB001B" r="7"></circle><circle cx="23" cy="12" fill="#F79E1B" r="7"></circle><path d="M22 12c0-2.4-1.2-4.5-3-5.7-1.8 1.3-3 3.4-3 5.7s1.2 4.5 3 5.7c1.8-1.2 3-3.3 3-5.7z" fill="#FF5F00"></path></svg>
</li>
<li>
<svg aria-labelledby="pi-paypal" class="icon" height="24" role="img" viewbox="0 0 38 24" width="38" xmlns="http://www.w3.org/2000/svg"><title id="pi-paypal">PayPal</title><path d="M35 0H3C1.3 0 0 1.3 0 3v18c0 1.7 1.4 3 3 3h32c1.7 0 3-1.3 3-3V3c0-1.7-1.4-3-3-3z" opacity=".07"></path><path d="M35 1c1.1 0 2 .9 2 2v18c0 1.1-.9 2-2 2H3c-1.1 0-2-.9-2-2V3c0-1.1.9-2 2-2h32" fill="#fff"></path><path d="M23.9 8.3c.2-1 0-1.7-.6-2.3-.6-.7-1.7-1-3.1-1h-4.1c-.3 0-.5.2-.6.5L14 15.6c0 .2.1.4.3.4H17l.4-3.4 1.8-2.2 4.7-2.1z" fill="#003087"></path><path d="M23.9 8.3l-.2.2c-.5 2.8-2.2 3.8-4.6 3.8H18c-.3 0-.5.2-.6.5l-.6 3.9-.2 1c0 .2.1.4.3.4H19c.3 0 .5-.2.5-.4v-.1l.4-2.4v-.1c0-.2.3-.4.5-.4h.3c2.1 0 3.7-.8 4.1-3.2.2-1 .1-1.8-.4-2.4-.1-.5-.3-.7-.5-.8z" fill="#3086C8"></path><path d="M23.3 8.1c-.1-.1-.2-.1-.3-.1-.1 0-.2 0-.3-.1-.3-.1-.7-.1-1.1-.1h-3c-.1 0-.2 0-.2.1-.2.1-.3.2-.3.4l-.7 4.4v.1c0-.3.3-.5.6-.5h1.3c2.5 0 4.1-1 4.6-3.8v-.2c-.1-.1-.3-.2-.5-.2h-.1z" fill="#012169"></path></svg>
</li>
<li>
<svg aria-labelledby="pi-shopify_pay" class="icon" height="24" role="img" viewbox="0 0 38 24" width="38" xmlns="http://www.w3.org/2000/svg"><title id="pi-shopify_pay">Shop Pay</title><path d="M35 0H3C1.3 0 0 1.3 0 3v18c0 1.7 1.4 3 3 3h32c1.7 0 3-1.3 3-3V3c0-1.7-1.4-3-3-3z" fill="#000" opacity=".07"></path><path d="M35 1c1.1 0 2 .9 2 2v18c0 1.1-.9 2-2 2H3c-1.1 0-2-.9-2-2V3c0-1.1.9-2 2-2h32z" fill="#5A31F4"></path><path d="M21.382 9.713c0 1.668-1.177 2.858-2.821 2.858h-1.549a.133.133 0 00-.12.08.127.127 0 00-.01.049v2.192a.129.129 0 01-.13.129h-1.084a.13.13 0 01-.13-.13V6.986a.127.127 0 01.08-.12.129.129 0 01.05-.01h2.9c1.637 0 2.814 1.19 2.814 2.858v-.001zm-1.352 0c0-.958-.658-1.658-1.55-1.658h-1.468a.13.13 0 00-.13.13v3.05a.127.127 0 00.038.092.129.129 0 00.092.038h1.468c.892.005 1.55-.695 1.55-1.652zm1.674 3.791a1.527 1.527 0 01.647-1.317c.423-.316 1.084-.48 2.055-.514l1.033-.036v-.303c0-.607-.41-.863-1.068-.863-.658 0-1.075.231-1.17.61a.127.127 0 01-.125.09h-1.022a.13.13 0 01-.126-.092.125.125 0 01-.004-.055c.152-.898.904-1.58 2.494-1.58 1.692 0 2.303.783 2.303 2.276v3.172a.13.13 0 01-.132.129h-1.03a.13.13 0 01-.13-.13v-.236a.096.096 0 00-.061-.091.1.1 0 00-.107.022c-.31.334-.808.575-1.607.575-1.175 0-1.95-.607-1.95-1.657zm3.735-.687v-.246l-1.339.07c-.705.036-1.115.326-1.115.816 0 .444.376.69 1.034.69.893 0 1.42-.48 1.42-1.33zm2.316 4.6v-.919a.13.13 0 01.049-.1.132.132 0 01.108-.027c.158.029.318.044.479.044a1.229 1.229 0 001.245-.876l.067-.211a.133.133 0 000-.088l-2.145-5.471a.13.13 0 01.06-.165.13.13 0 01.062-.015h1.04a.132.132 0 01.123.085l1.456 3.859a.131.131 0 00.125.088.133.133 0 00.125-.088l1.265-3.848a.13.13 0 01.126-.09h1.076a.134.134 0 01.132.116.134.134 0 01-.008.063l-2.295 6.076c-.528 1.413-1.433 1.773-2.43 1.773a1.959 1.959 0 01-.561-.066.132.132 0 01-.1-.14h.001zM8.57 6.4a5.363 5.363 0 00-3.683 1.427.231.231 0 00-.029.31l.618.839a.236.236 0 00.362.028 3.823 3.823 0 012.738-1.11c2.12 0 3.227 1.584 3.227 3.15 0 1.7-1.163 2.898-2.835 2.921-1.292 0-2.266-.85-2.266-1.974a1.908 1.908 0 01.713-1.48.231.231 0 00.033-.324l-.65-.815a.236.236 0 00-.339-.034 3.43 3.43 0 00-.942 1.183 3.39 3.39 0 00-.337 1.47c0 1.935 1.655 3.452 3.775 3.464h.03c2.517-.032 4.337-1.884 4.337-4.415 0-2.247-1.667-4.64-4.752-4.64z" fill="#fff"></path></svg>
</li>
<li>
<svg aria-labelledby="pi-visa" class="icon" height="24" role="img" viewbox="0 0 38 24" width="38" xmlns="http://www.w3.org/2000/svg"><title id="pi-visa">Visa</title><path d="M35 0H3C1.3 0 0 1.3 0 3v18c0 1.7 1.4 3 3 3h32c1.7 0 3-1.3 3-3V3c0-1.7-1.4-3-3-3z" opacity=".07"></path><path d="M35 1c1.1 0 2 .9 2 2v18c0 1.1-.9 2-2 2H3c-1.1 0-2-.9-2-2V3c0-1.1.9-2 2-2h32" fill="#fff"></path><path d="M28.3 10.1H28c-.4 1-.7 1.5-1 3h1.9c-.3-1.5-.3-2.2-.6-3zm2.9 5.9h-1.7c-.1 0-.1 0-.2-.1l-.2-.9-.1-.2h-2.4c-.1 0-.2 0-.2.2l-.3.9c0 .1-.1.1-.1.1h-2.1l.2-.5L27 8.7c0-.5.3-.7.8-.7h1.5c.1 0 .2 0 .2.2l1.4 6.5c.1.4.2.7.2 1.1.1.1.1.1.1.2zm-13.4-.3l.4-1.8c.1 0 .2.1.2.1.7.3 1.4.5 2.1.4.2 0 .5-.1.7-.2.5-.2.5-.7.1-1.1-.2-.2-.5-.3-.8-.5-.4-.2-.8-.4-1.1-.7-1.2-1-.8-2.4-.1-3.1.6-.4.9-.8 1.7-.8 1.2 0 2.5 0 3.1.2h.1c-.1.6-.2 1.1-.4 1.7-.5-.2-1-.4-1.5-.4-.3 0-.6 0-.9.1-.2 0-.3.1-.4.2-.2.2-.2.5 0 .7l.5.4c.4.2.8.4 1.1.6.5.3 1 .8 1.1 1.4.2.9-.1 1.7-.9 2.3-.5.4-.7.6-1.4.6-1.4 0-2.5.1-3.4-.2-.1.2-.1.2-.2.1zm-3.5.3c.1-.7.1-.7.2-1 .5-2.2 1-4.5 1.4-6.7.1-.2.1-.3.3-.3H18c-.2 1.2-.4 2.1-.7 3.2-.3 1.5-.6 3-1 4.5 0 .2-.1.2-.3.2M5 8.2c0-.1.2-.2.3-.2h3.4c.5 0 .9.3 1 .8l.9 4.4c0 .1 0 .1.1.2 0-.1.1-.1.1-.1l2.1-5.1c-.1-.1 0-.2.1-.2h2.1c0 .1 0 .1-.1.2l-3.1 7.3c-.1.2-.1.3-.2.4-.1.1-.3 0-.5 0H9.7c-.1 0-.2 0-.2-.2L7.9 9.5c-.2-.2-.5-.5-.9-.6-.6-.3-1.7-.5-1.9-.5L5 8.2z" fill="#142688"></path></svg>
</li>
</ul>
</div>
</div>
</div>
</footer>
</div>
<ul hidden="">
<li id="a11y-refresh-page-message">Wenn du eine Auswahl auswählst, wird eine vollständige Seite aktualisiert</li>
<li id="a11y-external-message">Öffnet ein neues Fenster.</li>
<li id="a11y-new-window-external-message">Öffnet externe Website in einem neuen Fenster.</li>
</ul>
<script src="//cdn.shopifycdn.net/s/files/1/0052/5290/7082/t/56/assets/theme.js?v=11152162681971085242" type="text/javascript"></script>
<div id="swf_ws_c_h" style="display: none;">24,2,2,CUSTOM,#2f6cb9</div>
<script src="https://pipqee.com/livechat/assets/js/wishlist/shopifythemes/min/minimal.min.js" type="text/javascript"></script>
<link href="https://pipqee.com/livechat/assets/css/wishlist/min/heart-animation.min.css" media="all" rel="stylesheet" type="text/css"/>
<script src="https://pipqee.com/livechat/assets/js/wishlist/min/collection-heart-icon.min.js" type="text/javascript"></script>
<script src="https://pipqee.com/livechat/assets/js/initscript.js" type="text/javascript"></script>
<div class="swf_customer_info_enabled" style="display: none;"></div>
<div class="swf_currency_info" style="display: none">$0.00 CAD</div>
<div class="swf_store_logo" style="display: none;" url="https://shoptell.s3-us-west-2.amazonaws.com/public/noimg.png"><a href="/account/login" id="customer_login_link"></a></div> </body>
</html>
