<!DOCTYPE >
<html xmlns="http://www.w3.org/1999/xhtml">
<head>
<title>Domena 4eco.com.pl jest utrzymywana na serwerach nazwa.pl</title>
<meta content="text/html; charset=utf-8" http-equiv="content-type"/>
<link href="//newkf.nazwa.pl/templates/blackdown-template-kf-28.09.2020/css/style.css" rel="stylesheet" type="text/css"/>
<link href="favicon.ico" rel="shortcut icon"/>
<script type="text/javascript">
                var Links = {
          url: 'https://www.nazwa.pl/blog/nazwapl-najlepsza-firma-hostingowa-w-polsce?utm_source=blackdown&utm_medium=redirect&utm_campaign=najlepszafirmahostingowa',
          redirect: function() {
            try {
              //window.location = Links.url;
              parent.location.href = Links.url;
            } catch (e) {}
            return false;
          },
          refresh: function() {
            window.setTimeout('Links.redirect()', 8000);
          },
          load: function() {
            var obj = this;
            window.onload = function() {
              obj.refresh();
            };
          },
        };
        Links.load();
                function policyButtonClicked() {
          var data = new Date();
          data.setTime(data.getTime() + (100 * 365 * 24 * 60 * 60 * 1000));
          document.cookie = 'polityka=true; expires=' + data.toGMTString() + '; path=/';
          var policy_box = document.getElementById('policy-box');
          policy_box.style.display = 'none';
        }
    </script>
</head>
<body>
<!-- content -->
<div id="content">
<section class="blackDown">
<div class="blackDown__wrapper">
<div class="blackDown__logo">
<a href="https://www.nazwa.pl">
<img alt="nazwa.pl" class="blackDown__logo-img" src="//newkf.nazwa.pl/templates/blackdown-template-kf-28.09.2020/images/logo.png"/>
</a>
</div>
<a class="blackDown__img-wrapper" href="https://www.nazwa.pl/blog/nazwapl-najlepsza-firma-hostingowa-w-polsce?utm_source=blackdown&amp;utm_medium=redirect&amp;utm_campaign=najlepszafirmahostingowa" target="_blank">
<img alt="nazwa.pl" class="blackDown__img" src="//newkf.nazwa.pl/templates/blackdown-template-kf-28.09.2020/images/baner.jpg"/>
</a>
<p class="blackDown__text">
<strong class="blackDown__domainName">
                    4eco.com.pl                </strong>
                utrzymywana jest na serwerach nazwa.pl
                <img alt="shadow" class="blackDown__shadow" src="//newkf.nazwa.pl/templates/blackdown-template-kf-28.09.2020/images/cien.png"/>
</p>
</div>
</section>
<div class="policy-box" id="policy-box" style="left:0; bottom: 0; position: fixed; width: 100%; background: #E7E7E7; z-index: 1000; opacity: 0.9; font-family: Verdana, Tahoma, Arial, sans-serif; font-size:12px">
<div style="margin: 0px auto; width: 900px; padding: 25px 0;">
<div style="width: 690px; display: inline-block">
                    Na naszych stronach internetowych stosujemy pliki cookies. KorzystajÄc z naszych serwisÃ³w
                    internetowych bez
                    zmiany ustawieÅ przeglÄdarki wyraÅ¼asz zgodÄ na stosowanie plikÃ³w cookies zgodnie z
                    <a href="//nazwa.pl/pomoc/konfiguracja/polityka-prywatnosci/" style="color: #000; text-decoration: underline; opacity: 0.9;">PolitykÄ PrywatnoÅci</a>.
                </div>
<a class="policy-accept" href="javascript:void(0)" style="border: 1px solid #D65C00; display: inline-block; height: 27px; padding: 0; text-decoration: none;">
<span style="padding: 1px; text-shadow: 0 1px 1px #BA5405; color: #FFFFFF; line-height: 25px; display: block;
            background-image: linear-gradient(bottom, rgb(240,131,47) 36%, rgb(255,196,0) 68%); background-image: -o-linear-gradient(bottom, rgb(240,131,47) 36%, rgb(255,196,0) 68%);
            background-image: -moz-linear-gradient(bottom, rgb(240,131,47) 36%, rgb(255,196,0) 68%);
            background-image: -webkit-linear-gradient(bottom, rgb(240,131,47) 36%, rgb(255,196,0) 68%);
            background-image: -ms-linear-gradient(bottom, rgb(240,131,47) 36%, rgb(255,196,0) 68%);">
<span onclick="policyButtonClicked()" style="background: #F16903; padding: 1px; font-size: 12px; padding: 0 13px; display: block; font-family: arial;">AkceptujÄ, nie pokazuj wiÄcej</span>
</span>
</a>
</div>
</div>
<script type="text/javascript">
      var gaJsHost = (('https:' == document.location.protocol) ? 'https://ssl.' : 'http://www.');
      document.write(unescape(
          '%3Cscript src=\'' + gaJsHost + 'google-analytics.com/ga.js\' type=\'text/javascript\'%3E%3C/script%3E'));
    </script>
<script type="text/javascript">
      try {
        var pageTracker = _gat._getTracker('UA-11186383-2');
        pageTracker._setDomainName('none');
        pageTracker._setAllowLinker(true);
        pageTracker._setAllowHash(false);
        pageTracker._trackPageview();
      } catch (err) {}</script>
</div></body>
</html>
