<!DOCTYPE html>
<html lang="ja">
<head>
<meta charset="utf-8"/>
<meta content="width=device-width,initial-scale=1.0,minimum-scale=1.0" name="viewport"/>
<title>digital4est/ãã¸ã¿ã«ãã©ã¬ã¹ã</title>
<meta content="ã·ã¹ãã éçº,ããã¯ã¤ã¼ã,å°è¦æ¨¡ã·ã¹ãã ,ãã¶ã¤ã³å¶ä½,éå¶ã¢ããã¤ã¹,ã³ã³ãµã«ã¿ã³ãæ¥­å" name="keywords"/>
<meta content="EC ãããã·ã§ãããä¸­å¿ã«ã·ã¹ãã ã®éçºãWEBãµã¤ãã®å¶ä½ããã¦ããã¾ããå£²ä¸ãä¸ããçºã«å¿è¦ãªä»çµã¿ãæä¾" name="description"/>
<link href="/common/css/style-y1.0.css" rel="stylesheet" type="text/css"/>
<link href="/common/css/style-mp.css" media="screen and (max-width: 680px)" rel="stylesheet" type="text/css"/>
<script src="https://ajax.googleapis.com/ajax/libs/jquery/1.10.1/jquery.min.js"></script>
<script src="/common/js/jquery.parallax.min.js"></script>
<!--[if lt IE 9]>
  <script src="http://html5shiv.googlecode.com/svn/trunk/html5.js"></script>
<![endif]-->
</head>
<body>
<header>
<h1><a href="#d4">digital4est system and design</a></h1>
</header>
<nav id="menu"> <a href="" id="panel-btn"><span id="panel-btn-icon"></span></a>
<ul>
<li><a href="#d4"><span class="n1">00</span>
<h2>digital4est</h2>
</a></li>
<li><a href="#introduction"><span class="n1">01</span>
<h2>introduction</h2>
</a></li>
<li><a href="#system"><span class="n1">02</span>
<h2>system</h2>
</a></li>
<li><a href="#created"><span class="n1">03</span>
<h2>created package</h2>
</a></li>
<li><a href="#design"><span class="n1">04</span>
<h2>design</h2>
</a></li>
<li><a href="#contact"><span class="n1">05</span>
<h2>contact</h2>
</a></li>
<li><a href="#about"><span class="n1">06</span>
<h2>about</h2>
</a></li>
</ul>
</nav>
<div class="current" id="content">
<section id="d4"> <a href="#introduction" id="scroll"><span></span></a> </section>
<section id="introduction">
<div class="inner">
<h2 class="outerShadow fixed">ãã®ä»äºããã£ã¨ç°¡åã«ãã¾ãããã</h2>
<p>100åã®ã³ãã¼ï¼ãã¼ã¹ããããè¿ãããããã¿ã³ã1åæ¼ãæ¹ãããã &gt;&gt; ä½ãªãåæã«åãããã«ãã¾ãããã<br/>
        æ¯æ¥ãã§ãã¯ããé ç®ã¯åããªã®ã«ã©ããã¦ãè¦è½ã¨ãã¦ãã¾ãã &gt;&gt; æ±ºã¾ã£ãå®å½¢å¦çã¯ã·ã¹ãã å´ã«ä»»ãã¦ãã¾ãã¾ãããã<br/>
        æ¥å¸¸æ¥­åã¯ããäºããã£ã±ãããã®æ¥­çã¯å¿ããã®ãå½ããåã &gt;&gt; ä»çµã¿åãå¹çåãå³ããæ¥­åãæ²¢å±±é ãã¦ãã¾ãã</p>
<p>èº«ã®åãã«ãããããããæ¥­åãè¦ç´ããè§£æ¶ãæ¹åãããäºãå¾æã¨ãã¦ããã¾ãã</p>
<p>ããã¯ããªãã®ä»äºãå¹çåãããããã ãã§ã¯ãªã çºæ³ãè»¢æãããè£ç½®</p>
<p>ä»ã¾ã§ãã£ã¦ããããããåã®ä»äºãããã¦æ°ããä»äºã®æéã<br/>
        ãæ¬å½ã«å¿è¦ãªäºã«éä¸­ã§ããããå¤§åã«ããã·ã¹ãã  / ãã¶ã¤ã³ãææ¡ãã¾ãã</p>
</div>
</section>
<div id="sys">
<section class="outerShadow bgImage" id="system">
<div class="inner">
<h2>ã·ã¹ãã ã®éçº / ææ¡</h2>
<p>æ¥å¸¸ã®ç´°ããæ©ã¿ããECã·ã§ããã®å£²ä¸ãã¢ããã®çºã®æ½ç­ããã­ã³ãã¨ã³ãã®ä»çµã¿ãèªç¤¾ã­ã¸ãå«ãå¤§è¦æ¨¡ãªåæ³¨ç®¡çãçºæ³¨ç®¡çç­ã®ããã¯ã¤ã¼ãã®æ§ç¯ã¾ã§ãæ¯æ¥å¤ç¨®å¤æ§ãªç¸è«ãä¾é ¼ãåãããã®æ¥­åæ¹åã¨ãªãä»çµã¿ã®éçº / ææ¡ããã¦ããã¾ãã</p>
<p>2004å¹´ã«ç¬ç«ãã¦ãã17å¹´ãæ§ããªæ¥­æã®ãå®¢æ§ã®ãã¼ããã¼ã¨ãã¦ç®¡çéå¶ã®ãæä¼ããã¦ãã¾ããããä¾ãã°æéåºè·ä»¶æ°1ä¸ä»¶ä»¥ä¸ãåæ±ãåæç¹æ°ç´50ä¸ã¢ã¤ãã ã¨ãã£ãä¸­å ãããã·ã§ããæ§ã§å©ç¨é ãã¦ããã·ã¹ãã æä¾ã®å®ç¸¾ããããã¾ãã<br/>
        ããã¾ã§ã«éçºãã¦ããã·ã¹ãã ã¯ä¸åº¦éçºããã¦ç´åããããã¨ãããã®ã°ããã§ã¯ãªããä»ç¾å¨ãç¾å ´ã¹ã¿ããã®å£°ãèãã¢ã¤ãã¢ã®åæ ããå¸¸ã«é²åãã¦ããã·ã¹ãã ãå¤ãããã¾ããã¾ããã®ãã¦ãã¦ãçãè¾¼ãã ä»çµã¿ãæä¾ããã¦é ãäºãå¯è½ã§ãã</p>
<p>å°ãã§ãä½ãã£ã¦ããå°ã£ã¦ããäºãããã°ãç¸è«ä¸ããã</p>
</div>
</section>
<section id="created">
<div class="inner">
<div id="creatTxt">
<h2>éçºããã·ã¹ãã ä¾</h2>
<p>ç´°ããæ©è½ã¯è¨è¿°ããããªãç¨ããã¾ãã®ã§ããããä»£è¡¨çãªæ©è½ã®ã¿è¨è¼ãã¦ããã¾ãã<br/>å°å¥ãæ¤è¨ããã¦ããæ¹ãè©³ããç¥ãããæ¹ã¯ãåãåããä¸ããã</p>
</div>
<div id="packageImage">
<div class="pi"> <img alt="åæ³¨ç®¡çã·ã¹ãã  BACK Manager" src="/common/img/bm.png"/>
<p><span>BACK Manager åæ³¨ç®¡çã·ã¹ãã </span>æ¥½å¤© / YahooShopping / amazon / ãã®ä»ã¢ã¼ã«ã«ç¬èªãã¡ã¤ã³ã·ã§ãã ä¸åç®¡çã§åæ³¨ããçºæ³¨ãåºè·æç¤ºã¾ã§å¤åºèã¾ã¨ãã¦ä¸æ¬ã§å¦çã§ãã¾ãã<br/>å¤æ§ãªãã³ãã¬ã¼ããç¨æããäºã§ãå®¢æ§ã®æ¯æãæ¹æ³å¥ã«èªåçã«ã¡ã¼ã«æãåæ¿ããããã­ã£ã³ãã¼ã³ã®ç®¡çãã»ããååã®ç®¡çãªã©ã¢ã¼ã«ã ãã§ã¯ä¸å¯è½ãªäºãå¯è½ã¨ããã·ã¹ãã ã§ãã</p>
</div>
<div class="pi"> <img alt="ååç®¡çã·ã¹ãã  HEAD Manager" src="/common/img/hm.png"/>
<p><span>HEAD Manager ååç®¡çã·ã¹ãã </span>åºèãã¨ã«ä¾¡æ ¼ãã­ã¼ã¯ã¼ããå«ãååãå¤ããããè²©å£²åã«ç²å©ã®è¨ç®ããããã¨åºæ¬çãªååç®¡çã®æ©è½ã«ãã©ã¹Î±ãã¤ã¾ã£ãååç®¡çã§ãã<br/>
            ç¾å¨ã­ã¼ã«ã«ã ãã§ãªããµã¼ãã¼ä¸ã§ç®¡çã§ãããããªWEBçãéçºä¸­ã§ãã</p>
</div>
<div class="pi"> <img alt="å¨åº«ç®¡çã·ã¹ãã  STOCK Manager" src="/common/img/sm.png"/>
<p><span>STOCK Manager å¨åº«ä¸æ¬ç®¡çã·ã¹ãã </span>å¤åºèéã§å¨åº«ãä¸åç®¡çè´ãã¾ããååºèã«ããããå¨åº«è¨­å®ãããäºãã§ãç´°ããèª¿æ´ãå¯è½ã§ãã<br/>
              å¨åº«æ°ãå¤å®ãç¿æ¥ééï¼ããæ¥½ãããã¤ããamazonPrimeçºéï¼ã®è§£é¤ãå®æ½ãç´æã®åæ¿ããªã©äººéã®æã§ã¯ã§ããªãã£ãç´°ãããªåä½ãã·ã¹ãã ãèªåã§è¡ãã¾ãã</p>
</div>
<div class="pi"> <img alt="å¥åºè·ç®¡çã­ã¸ ã·ã¹ãã  logistics system" src="/common/img/logi.png"/>
<p><span>Logi å¥åºè·ã­ã¸ã·ã¹ãã </span>å¤§æã­ã¸ã·ã¹ãã ãä½¿ã£ã¦ããä»çµã¿ããã¦ãã¦ãæ¡ç¨ããç¾å ´ã§ãããããã¹ãç°¡åã«è¦ã¤ãããããªå·¥å¤«ããã¯ããã¦åºè·æ¤åã«æºããäººã§ãåããããããã¹ããªããããªæ©è½ãè©°ãè¾¼ã¾ãã¦ãã¾ãã<br/></p>
<p>ä¸»ãªæ©è½</p>
<ul>
<li>å¥è·ãåºè·ã®æµããå¨ã¦ãã¼ã³ã¼ãç®¡çãèª¤åºè·ãå¥è·ãã¹ãæå°éã«æ¸ããã¾ãã</li>
<li>å¥è·âåºè·ã¾ã§ã®åä½ãæå°éã«ã§ããããããã®å ´ã§å½æ¥åºè·æ°ãè¡¨ç¤ºããæ©è½</li>
<li>ã»ããååã®æ¤åæ©è½ãæªåºè·ãã§ãã¯ã®æ©è½</li>
<li>å°åå¥ã§ã®çºéä¸å¯ååã®ãã§ãã¯ç­</li>
</ul>
</div>
</div>
</div>
</section>
</div>
<section class="clr" id="design">
<div class="slant_box slant_R">
<div class="inner cf">
<div id="designTxt">
<h2>ãã¶ã¤ã³ã®å¶ä½</h2>
<p>webãµã¤ãã®éãé£¾ããã¼ããã¼ã«ãããã¼ã¤ã¡ã¼ã¸ã®ä½æãããµã¤ãå¨ä½ã®ãã¶ã¤ã³ãã³ã¼ãã£ã³ã°ããã¡ã¤ã³ã®åå¾ã«ãµã¤ãéå¶ä»£è¡ã¾ã§ã<br/>
            ãå®¢æ§ã®ç®çã«å¿ãã¦ã©ã®ãããªä¾é ¼ã§ãå¯¾å¿ãã¾ãã</p>
<p>ç§éã«ã¨ã£ã¦ãå®¢æ§ã¨ã¯ãä¾é ¼é ãæ¹ã§ããããã®ãµã¤ããå©ç¨ããã¨ã³ãã¦ã¼ã¶ã¼ã ã¨å¸¸ã«èãã¦ããã¾ãã<br/>
            ãã ç®ãæ¹ãã ãã§ãªãæ¥è¨ªèã«ã¨ã£ã¦ä½¿ãããããµã¤ãã®å¶ä½ãããç´æçã«ä½¿ãããã¶ã¤ã³ã®ææ¡ãå¿ããä½æãã¦ããã¾ãã</p>
<p>ãã¶ã¤ã³äºåæãè¦æã¨ãã¦ããSEOã®å¯¾ç­ãèæ®ããã³ã¼ãã£ã³ã°ã®æ½ç­ãSEOè¦ç´ããç¸è«ã®ä¾é ¼ããåããã¦ããã¾ãã<br/>
            ããã¾ã§ãä¸è¬åç§°ã§1ãã¼ã¸ç®ã«è¡¨ç¤ºãããç­ã®å®ç¸¾ãããã¤ããããã¾ãã</p>
<p>æ¨ä»ã³ã³ãã³ãSEOã¨è¨ããã¦ãã¾ãããåãåå®¹ã§ãããªãäººã«ã¨ã£ã¦ãæ¤ç´¢ã¨ã³ã¸ã³ã£ã¨ã£ã¦ãèª­ã¿ãããã³ã¼ãã§ãããããµã¤ãã®æ¹ãããè©ä¾¡ãé«ããªãã¾ãã<br/>
            ã·ã¹ãã éçºããã¦ããããããã§ããããã¯ã¤ã¼ãç­ããããã·ã¹ãã ã¨ã·ã¼ã ã¬ã¹ã«ç¹ãããã¿ã°ã®ï¼ã¤ï¼ã¤ã«æ°ãéã£ãwebãã¶ã¤ã³æä¾ãã¾ãã</p>
</div>
</div>
</div>
</section>
<section id="contact">
<div class="inner cf">
<div id="contactTxt">
<h2>ãåãåãã</h2>
<p>ã·ã¹ãã ã®éçº / ãã¼ã¸ãã¶ã¤ã³ / ãããã·ã§ããã®éå¶ãªã©ãååãä¸ããã</p>
</div>
<div id="contactForm">
<form action="https://4est.jp/contact/" enctype="multipart/form-data" method="post">
<dl>
<label><dt>ãåå</dt>
<dd><span class="error"></span><input name="name" type="text" value=""/><span class="required">*</span></dd></label>
<label><dt>ä¼ç¤¾å</dt>
<dd><input name="company" type="text" value=""/>
</dd></label>
<label><dt>ã¡ã¼ã«ã¢ãã¬ã¹</dt>
<dd><span class="error"></span><input name="email" type="text" value=""/><span class="required">*</span>
</dd></label>
<label><dt>é»è©±çªå·</dt>
<dd><span class="error"></span><input name="tel" type="text" value=""/><span class="required">*</span>
</dd></label>
<label><dt>ãåãåããã®ç¨®é¡</dt>
<dd><span class="error"></span>
<select name="subject" size="1"></select>
<option value="">ãåãåããã®åå®¹ããé¸ã³ä¸ãã</option>
<option value="ã·ã¹ãã æ§ç¯ã®ä¾é ¼">ã·ã¹ãã æ§ç¯ã®ä¾é ¼</option>
<option value="åæ³¨ç®¡çã·ã¹ãã ã«ã¤ãã¦">åæ³¨ç®¡çã·ã¹ãã ã«ã¤ãã¦</option>
<option value="ååç®¡çã·ã¹ãã ã«ã¤ãã¦">ååç®¡çã·ã¹ãã ã«ã¤ãã¦</option>
<option value="å¨åº«ç®¡çã·ã¹ãã ã«ã¤ãã¦">å¨åº«ç®¡çã·ã¹ãã ã«ã¤ãã¦</option>
<option value="å¥åºè·ã­ã¸ã·ã¹ãã ã«ã¤ãã¦">å¥åºè·ã­ã¸ã·ã¹ãã ã«ã¤ãã¦</option>
<option value="ãã¶ã¤ã³å¶ä½ã®ãç¸è«">ãã¶ã¤ã³å¶ä½ã®ãç¸è«</option>
<option value="ãã®ä»">ãã®ä»</option>
<span class="required">*</span>
</dd></label>
<label><dt>ãåãåããåå®¹<span class="error"></span></dt>
<dd><textarea name="comment"></textarea><span class="required">*</span>
</dd></label>
</dl>
<div class="txtRight">
<input id="subBtm" type="submit" value="ç¢ºèªç»é¢ã¸"/>
</div>
</form> </div>
</div>
</section>
<div id="insertBg"></div>
<section id="about">
<div class="inner">
<div id="aboutTxt">
<h2>æ¥­åæ¡å</h2>
<dl>
<dt>å±å·</dt>
<dd>ãã¸ã¿ã«ãã©ã¬ã¹ã</dd>
<dt>ä½æ</dt>
<dd>ã578-0966<br/>
            å¤§éªåºæ±å¤§éªå¸ä¸å³¶2-1-63</dd>
<dt>ä»£è¡¨è</dt>
<dd>é³¥å± å¹¸å¤ª</dd>
<dt>ä¸»ãªæ¥­ååå®¹</dt>
<dd>ã·ã¹ãã :éçº ææ¡ ã·ã¹ãã ãµã¼ãã¹ã®æä¾</dd>
<dd>webãµã¤ã:ä¼ç» æ§æ ãã¶ã¤ã³ å¶ä½ ç®¡ç éå¶</dd>
<dd>ã¤ã³ã¿ã¼ãããã·ã§ãããä¸­å¿ã¨ããéå¶ã¢ããã¤ã¹ãªã©</dd>
</dl>
</div>
<div id="map1"></div>
</div>
</section>
<footer>
<p id="copy">© 2016 digital4est.</p>
</footer>
</div>
<!-- particles.js container -->
<div id="particles-js"></div>
<script src="https://maps.google.com/maps/api/js?key=AIzaSyCJQ90OTuT3MQfKt2flHxtZOJ6moYoKIoM"></script>
<script src="https://cdn.jsdelivr.net/particles.js/2.0.0/particles.min.js"></script>
<script src="/common/js/pz-y1.0.js"></script>
<script>
  (function(i,s,o,g,r,a,m){i['GoogleAnalyticsObject']=r;i[r]=i[r]||function(){
  (i[r].q=i[r].q||[]).push(arguments)},i[r].l=1*new Date();a=s.createElement(o),
  m=s.getElementsByTagName(o)[0];a.async=1;a.src=g;m.parentNode.insertBefore(a,m)
  })(window,document,'script','https://www.google-analytics.com/analytics.js','ga');

  ga('create', 'UA-492616-3', 'auto');
  ga('send', 'pageview');

</script>
</body>
</html>
