<!DOCTYPE html PUBLIC "-//W3C//DTD XHTML 1.0 Transitional//EN" "http://www.w3.org/TR/xhtml1/DTD/xhtml1-transitional.dtd">
<html xmlns="http://www.w3.org/1999/xhtml">
<head>
<meta content="text/html; charset=utf-8" http-equiv="Content-Type"/>
<title>åå·ææ¸¸ç½</title>
<meta content="ä¹å¯¨æ²|ç¨»å|åå§å¨å±±|åå·ææ¸¸å¨çº¿|æé½å¨çº¿|æé½å¨æç´¢|æé½é|æºç¥¨é¢å®|å¤§çç«|å®¾é¦éåº|è¥¿è|é½æ±å °|é¦é|æç« èå |æ­¦ä¾¯ç¥ " name="keywords"/>
<meta content="åå·ææ¸¸çé»éææ¸¸æ¯ç¹åææ¸¸çº¿è·¯ï¼åå·ææ¸¸å¨çº¿|æé½å¨çº¿|æé½å¨æç´¢|æé½é|ä¹å¯¨æ²é»é¾|å³¨çå±±ä¹å±±|è¯­|é¿æ±ä¸å³¡|ç¨»å|åå§å¨å±±|æµ·èºæ²|æ³¸æ²½æ¹|å§é¾å¤§çç«|é½æ±å °éåå±±|èéä¸æå |æç«èå æ­¦ä¾¯ç¥ |åå·ç¾æ¯å°½æ¶ç¼åº|å¨é¢æä¾åå·ææ¸¸çº¿è·¯|å®¾é¦éåº|æºç¥¨è¹ç¥¨çå¨çº¿é¢å®æå¡ãåå·æéçé»éæéæ¯é»åæéç·è·¯ï¼ä¹å¯¨æºé»é¾|å³¨çå±±æ¨å±±|é·æ±ä¸å³½|ç¨»å|åå§å¨å±±|æµ·èºæº|çæ²½æ¹|è¥é¾å¤§çè²|é½æ±å °éåå±±|èéä¸æå |æç«èå æ­¦ä¾¯ç¥ |åå·ç¾æ¯ç¡æ¶ç¼åº|å¨é¢æä¾åå·æéç·è·¯|è³é¤¨éåº|æ©ç¥¨è¹ç¥¨çå¨ç·é å®æå|Everything you wanted to know about sichuan| sichuan tour| sichuan travel| sichuan panda and giant panda." name="description"/>
<link href="https://www.517sc.com/n/Public/Css/Index/style.css" rel="stylesheet" type="text/css"/>
<link href="https://www.517sc.com/n/Public/Css/Index/stylesheet_tm.css" rel="stylesheet" type="text/css"/>
<script src="https://www.517sc.com/n/Public/Js/Index/jscript_jquery-1.4.2.min.js" type="text/javascript"></script>
<script src="https://www.517sc.com/n/Public/Js/Index/jscript_jquery.faded.js" type="text/javascript"></script>
<script src="https://www.517sc.com/n/Public/Js/print.js" type="text/javascript"></script>
<script src="https://www.517sc.com/n/Public/My97DatePicker/WdatePicker.js" type="text/javascript"></script>
<script type="text/javascript">
$(function(){
   $("#faded").faded();
   $(".nav td").removeClass("x1");
});

function td_lt(id){
    if(id==1){
        $("#luntan").show();
        
        $(".td_lt").css("background","#ffffff");
        $(".td_lt").css('border-top','2px solid #FFA63C');
        $(".td_lt a").css("color","#000000");
    }else{
        $("#luntan").hide();
        $(".td_lt").css("background","#1994cb");
        $(".td_lt").css('border-top','0px');
        $(".td_lt a").css("color","#ffffff");
    }
    
}
function keywork(type){
    if(type==1){
        $("#keyword").show();
    }else{
        $("#keyword").hide();
    } 
}

</script>
</head>
<body>
<!-- é¡¶æ  -->
<div class="topbar">
<table border="0" cellpadding="0" cellspacing="0" height="36" width="1200">
<tr>
<td width="22"><a href="#"><img src="https://www.517sc.com/n/Public/Images/Index/top_icon.jpg"/></a></td>
<td width="853">
        æ¶èæ¬ç«<span class="topicon">|</span>
<script charset="utf-8" language="JavaScript" src="https://www.517sc.com/n/Public/Js/Index/head.js"></script>
</td>
<td align="right" width="325">
<a href="https://www.517sc.com/bbs/home.php" target="_blank">å®¶å­</a><span class="topicon">|</span>
<a href="https://www.517sc.com/bbs" target="_blank">è®ºå</a><span class="topicon"></span>
</td>
</tr>
</table>
</div>
<!-- logo search è¡  -->
<table border="0" cellpadding="0" cellspacing="0" class="logoline" width="1200">
<tr>
<td width="571">
<a href="https://www.517sc.com">
<img src="https://a.517sc.com/uploads/20180710/de819d24b49cc1556d4236c38bfc9938.png"/>
</a>
</td>
<td align="right" width="629"> </td>
</tr>
</table>
<!-- å¯¼èªèå  -->
<div class="navigation">
<table border="0" cellpadding="0" cellspacing="0" width="1200">
<tr class="nav">
<td class="x1" id="head_0" width="100"><a href="https://www.517sc.com">é¦é¡µ</a></td>
<td id="head_9" width="150"><a href="https://www.517sc.com/zhuanti/zhuanfang.html">ææäººç©å¯¹è¯</a></td>
<td id="head_6" width="110"><a href="https://www.517sc.com/bbs/forum.php?mod=forumdisplay&amp;fid=1" target="_blank">ç»ä¼´åæ¸¸</a></td>
<td id="head_6" width="110"><a href="https://www.517sc.com/bbs/forum.php?mod=forumdisplay&amp;fid=14" target="_blank">è¡èµ°å°è®°</a></td>
<td id="head_6" width="110"><a href="https://www.517sc.com/bbs/forum.php?mod=forumdisplay&amp;fid=29" target="_blank">æè¡å¤©ä¸</a></td>
<td id="head_6" width="110"><a href="https://www.517sc.com/bbs/forum.php?mod=forumdisplay&amp;fid=38" target="_blank">å¼å½é£æ</a></td>
<td id="head_6" width="110"><a href="https://www.517sc.com/bbs/forum.php?mod=forumdisplay&amp;fid=44" target="_blank">å®æ¹æ´»å¨</a></td>
<td id="head_7" width="80"><a href="https://www.517sc.com/n/index.php?m=scenic&amp;a=index">æ¯åº</a></td>
<!-- <td width="80" id="head_8"><a href="https://www.517sc.com/n/index.php?m=news&a=index&typeId=2" >æ»ç¥</a></td> -->
<td id="head_9" width="80"><a href="https://www.517sc.com/zhuanti">ä¸é¢</a></td>
<td id="head_10" width="110"><a href="http://www.517bx.com" target="_blank">ææ¸¸ä¿é©</a></td>
<!-- <td width="110" class="dhlink"></td> -->
<td class="td_lt" onmouseout="td_lt(0)" onmouseover="td_lt(1)" width="100"><a href="https://www.517sc.com/bbs" target="_blank">è®ºå</a></td>
</tr>
</table>
</div>
<div class="bbscover" id="luntan">
<div class="bbsblank" onmouseout="td_lt(0)" onmouseover="td_lt(1)">
<table border="0" cellpadding="0" cellspacing="0" class="bbsblanka">
<tr>
<td class="bbsblankb">ç¹å«ä¸»é¢</td>
</tr>
<tr>
<td class="bbsblankc"><a href="https://www.517sc.com/bbs/forum.php?mod=forumdisplay&amp;fid=70" target="_blank">è£å¤äº¤æ</a><a href="https://www.517sc.com/bbs/forum.php?mod=forumdisplay&amp;fid=74" target="_blank">ææ¸¸åæ</a></td>
</tr>
<tr>
<td class="bbsblankb">äººå¨æé</td>
</tr>
<tr>
<td class="bbsblankc"><a href="https://www.517sc.com/bbs/forum.php?mod=forumdisplay&amp;fid=73" target="_blank">æºå­åè¡</a><a href="https://www.517sc.com/bbs/forum.php?mod=forumdisplay&amp;fid=38" target="_blank">å¼å½é£æ</a><a href="https://www.517sc.com/bbs/forum.php?mod=forumdisplay&amp;fid=62" target="_blank">èªé©¾ä¹æ</a><a href="https://www.517sc.com/bbs/forum.php?mod=forumdisplay&amp;fid=34" target="_blank">éªå£«é¨è½</a><a href="https://www.517sc.com/bbs/forum.php?mod=forumdisplay&amp;fid=29" target="_blank">æè¡å¤©ä¸</a><a href="https://www.517sc.com/bbs/forum.php?mod=forumdisplay&amp;fid=22" target="_blank">æ·å¤æ²é¾</a><a href="https://www.517sc.com/bbs/forum.php?mod=forumdisplay&amp;fid=1" target="_blank">ç»ä¼´åæ¸¸</a><a href="https://www.517sc.com/bbs/forum.php?mod=forumdisplay&amp;fid=14" target="_blank">è¡èµ°å°è®°</a><a href="https://www.517sc.com/bbs/forum.php?mod=forumdisplay&amp;fid=77" target="_blank">æé½é©¬å¸®</a><a href="https://www.517sc.com/bbs/forum.php?mod=forumdisplay&amp;fid=2" target="_blank">å¯¼æ¸¸å®¶å­</a><a href="https://www.517sc.com/bbs/forum.php?mod=forumdisplay&amp;fid=55" target="_blank">é«æ ¡æ·å¤</a><a href="https://www.517sc.com/bbs/forum.php?mod=forumdisplay&amp;fid=39" target="_blank">ææ¸¸ç»´æ</a><a href="https://www.517sc.com/bbs/forum.php?mod=forumdisplay&amp;fid=44" target="_blank">517å®æ¹</a></td>
</tr>
<tr>
<td class="bbsblankb">é½å¸çæ´»</td>
</tr>
<tr>
<td class="bbsblankc"><a href="https://www.517sc.com/bbs/forum.php?mod=forumdisplay&amp;fid=31" target="_blank">é½å¸é²æ</a><a href="https://www.517sc.com/bbs/forum.php?mod=forumdisplay&amp;fid=57" target="_blank">è¿å¨æ¶ç©º</a><a href="https://www.517sc.com/bbs/forum.php?mod=forumdisplay&amp;fid=48" target="_blank">å½±é³ä¸ç</a><a href="https://www.517sc.com/bbs/forum.php?mod=forumdisplay&amp;fid=18" target="_blank">ç¾é£å¤©å°</a><a href="https://www.517sc.com/bbs/forum.php?mod=forumdisplay&amp;fid=32" target="_blank">æ å¿è¶é¦</a><a href="https://www.517sc.com/bbs/forum.php?mod=forumdisplay&amp;fid=20" target="_blank">çæ´»èµè®¯</a><a href="https://www.517sc.com/bbs/forum.php?mod=forumdisplay&amp;fid=78" target="_blank">ææ¸¸æ¶è</a></td>
</tr>
<tr>
<td class="bbsblankb">å¤©åºåå¸</td>
</tr>
<tr>
<td class="bbsblankc"><a href="https://www.517sc.com/bbs/forum.php?mod=forumdisplay&amp;fid=75" target="_blank">517å®å®¾</a><a href="https://www.517sc.com/bbs/forum.php?mod=forumdisplay&amp;fid=46" target="_blank">517å¾·é³</a><a href="https://www.517sc.com/bbs/forum.php?mod=forumdisplay&amp;fid=51" target="_blank">517éå®</a><a href="https://www.517sc.com/bbs/forum.php?mod=forumdisplay&amp;fid=49" target="_blank">517é¿å</a><a href="https://www.517sc.com/bbs/forum.php?mod=forumdisplay&amp;fid=50" target="_blank">517è¾¾å·</a><a href="https://www.517sc.com/bbs/forum.php?mod=forumdisplay&amp;fid=45" target="_blank">517å¹¿å</a><a href="https://www.517sc.com/bbs/forum.php?mod=forumdisplay&amp;fid=52" target="_blank">517å¹¿å®</a><a href="https://www.517sc.com/bbs/forum.php?mod=forumdisplay&amp;fid=53" target="_blank">517èµé³</a><a href="https://www.517sc.com/bbs/forum.php?mod=forumdisplay&amp;fid=54" target="_blank">517ç»µé³</a><a href="https://www.517sc.com/bbs/forum.php?mod=forumdisplay&amp;fid=58" target="_blank">517ææè±</a><a href="https://www.517sc.com/bbs/forum.php?mod=forumdisplay&amp;fid=59" target="_blank">517åå±±</a><a href="https://www.517sc.com/bbs/forum.php?mod=forumdisplay&amp;fid=37" target="_blank">517ä¹å±±</a><a href="https://www.517sc.com/bbs/forum.php?mod=forumdisplay&amp;fid=72" target="_blank">517åæ±</a><a href="https://www.517sc.com/bbs/forum.php?mod=forumdisplay&amp;fid=61" target="_blank">åå·å¤§å°é</a></td>
</tr>
<tr>
<td class="bbsblankb">ä¸­åå¤§å°</td>
</tr>
<tr>
<td class="bbsblankc"><a href="https://www.517sc.com/bbs/forum.php?mod=forumdisplay&amp;fid=64" target="_blank">517åäº¬</a><a href="https://www.517sc.com/bbs/forum.php?mod=forumdisplay&amp;fid=65" target="_blank">517æ±æµæ²ª</a><a href="https://www.517sc.com/bbs/forum.php?mod=forumdisplay&amp;fid=66" target="_blank">517å¹¿ä¸</a><a href="https://www.517sc.com/bbs/forum.php?mod=forumdisplay&amp;fid=69" target="_blank">517æµ·å</a><a href="https://www.517sc.com/bbs/forum.php?mod=forumdisplay&amp;fid=68" target="_blank">517æ°ç</a><a href="https://www.517sc.com/bbs/forum.php?mod=forumdisplay&amp;fid=42" target="_blank">517äºå</a><a href="https://www.517sc.com/bbs/forum.php?mod=forumdisplay&amp;fid=40" target="_blank">517éåº</a></td>
</tr>
</table>
</div>
</div>
<script type="text/javascript">
$(function(){
   $("#head_0").addClass("x1");
});

</script>
<style type="text/css">
.absolute1{
        width: 730px;
    height: 60px;
    background:rgba(0,0,0,0.4);
}
</style>
<link href="https://www.517sc.com/n/Public/Css/Index/stylesheet_tms.css" rel="stylesheet" type="text/css"/>
<table border="0" cellpadding="0" cellspacing="0" class="symain" width="100%">
<tr>
<td colspan="2"><!-- å¹¿å  -->
<table border="0" cellpadding="0" cellspacing="0" style=" margin-bottom:15px; " width="1200">
<tr>
<td class="syad" colspan="2"><a href="https://a.517sc.com/index/index/app/id/1576028785-25.html" target="_blank" title="è¾¾å¤è§è§ä¸­å½"><img src="https://a.517sc.com/uploads/20201104/5fedd7d83f93270363a4de25ce84c652.gif"/></a></td>
</tr>
<tr>
<td style="padding-top:10px;" width="50%"><a href="https://www.517bx.com/index.php?m=product&amp;a=details&amp;productId=139" target="_blank" title="è½¦æ¸¸å¤©ä¸ é«é¢èªé©¾ä¿é©"><img src="https://www.517sc.com/n/Public/Images/Index/qmbx.jpg"/></a></td>
<td align="right" style="padding-top:10px;" width="50%"> <a href="https://www.517bx.com/index.php?m=product&amp;a=details&amp;productId=77
" target="_blank" title="åºå¢ä¿é©"><img src="https://www.517sc.com/n/Public/Images/Index/95272.jpg"/></a> <!-- <a href="https://a.517sc.com/index/news/details/id/6561" title="å±çææ­å»æè¡ å¨æ¨æ ¼æªå¯»æ¾19âçå¤å­£" target="_blank"><img src="https://www.517sc.com/n/Public/Images/Index/mugecuo.gif" style="border: 1px solid #c2c2c2"></a> --></td>
</tr>
</table></td>
</tr>
<tr>
<td height="360"><!-- å¹»ç¯  -->
<div class="wsfade" id="faded">
<ul>
<li><a href="#" target="_blank" title=""><img alt="" height="360" src="https://www.517sc.com/n/Public/Images/Index/xcxgd2.jpg" title="517ææ¸¸ï¼å¾®ä¿¡å°ç¨åºä¸çº¿å¦ï¼" width="865"/></a></li>
<li><a href="https://a.517sc.com/index/index/app/id/1576028891-27.html" target="_blank"><img alt="æç©ºä¸çç³æ¸ " height="360" src="https://a.517sc.com/uploads/20200420/523b0c58db34212df37eb8f6b541c7f6.JPG" title="æç©ºä¸çç³æ¸ " width="865"/></a></li>
<li><a href="https://a.517sc.com/index/index/app/id/1576028910-26.html" target="_blank"><img alt="æ¾³é¨èªç©º" height="360" src="https://a.517sc.com/uploads/20201124/c669f8fecbcab4abc72d3cf913bc83e2.JPG" title="æ¾³é¨èªç©º" width="865"/></a></li>
<li><a href="https://a.517sc.com/index/index/app/id/1576028924-28.html" target="_blank"><img alt="é©¬å°åº·" height="360" src="https://a.517sc.com/uploads/20200923/a8ed8e888ff73d4d120e1a356d65d0fb.jpg" title="é©¬å°åº·" width="865"/></a></li>
</ul>
</div></td>
<td align="right"><!-- ææ¸¸èµè®¯  -->
<table border="0" cellpadding="0" cellspacing="0" class="synews" width="100%">
<tr>
<td align="left" class="syh1" height="45" width="275">ææ¸¸èµè®¯</td>
<td align="right" class="syh2" width="43"><a href="https://a.517sc.com/index/news" target="_blank">æ´å¤ <span class="more">&gt;&gt;</span></a></td>
</tr>
<tr>
<td colspan="2" height="5"></td>
</tr>
<tr>
<td class="syh3"><a href="https://a.517sc.com/index/news/details/id/7459" target="_blank" title="å°é¾åç¨³æå¹´è½»å®¢ç¾¤å¿ è¯åº¦ 2.0é¨åºå¼ºååçè¾¨è¯åº¦">å°é¾åç¨³æå¹´è½»å®¢ç¾¤å¿ è¯åº¦ 2.0é¨åºå¼º</a></td>
<td class="syh4">[01-08]</td>
</tr>
<tr>
<td class="syh3"><a href="https://a.517sc.com/index/news/details/id/7458" target="_blank" title="èåº¦çè¡¨ ï¼åæçå®¶æå®å®¶æé½æµ·ææå°æµ·æ´å¬å­">èåº¦çè¡¨ ï¼åæçå®¶æå®å®¶æé½æµ·ææå°</a></td>
<td class="syh4">[01-07]</td>
</tr>
<tr>
<td class="syh3"><a href="https://a.517sc.com/index/news/details/id/7457" target="_blank" title="è¥¿æ±éªæ¯, å¬æ¥éçå°ç¡®å¹¸">è¥¿æ±éªæ¯, å¬æ¥éçå°ç¡®å¹¸</a></td>
<td class="syh4">[01-06]</td>
</tr>
<tr>
<td class="syh3"><a href="https://a.517sc.com/index/news/details/id/7456" target="_blank" title="å£æ´éªæ¯ãèå¤©äºæµ·ï¼è¾¾å¤å°å·æç»­çæ´å¥½å¤©æ°ååæ¬¢è¿ï¼">å£æ´éªæ¯ãèå¤©äºæµ·ï¼è¾¾å¤å°å·æç»­çæ´å¥½</a></td>
<td class="syh4">[01-02]</td>
</tr>
<tr>
<td class="syh3"><a href="https://a.517sc.com/index/news/details/id/7455" target="_blank" title="ä¸ºå»ºåä¸ç¾å¨å¹´ç®ç¤¼ï¼åè¿2021å¹´ç¬¬ä¸ç¼çº¢è²æåï¼">ä¸ºå»ºåä¸ç¾å¨å¹´ç®ç¤¼ï¼åè¿2021å¹´ç¬¬ä¸</a></td>
<td class="syh4">[01-01]</td>
</tr>
<tr>
<td class="syh3"><a href="https://a.517sc.com/index/news/details/id/7454" target="_blank" title="å¥½ç©ï¼å¥½å¬ï¼å¥½çï¼2021å¹´âé¶åº¦âé³ä¹ä¼æ¨æ°å¹´ç¥ç¦æ´»å¨å¼å§å¦ï¼">å¥½ç©ï¼å¥½å¬ï¼å¥½çï¼2021å¹´âé¶åº¦âé³</a></td>
<td class="syh4">[01-01]</td>
</tr>
<tr>
<td class="syh3"><a href="https://a.517sc.com/index/news/details/id/7453" target="_blank" title="è¯è¿è¥æé´åè´¹éè¡ï¼ æé½âä¸ç»âè²æ±è³é½æ±å °é«é31æ¥24æ¶éè½¦">è¯è¿è¥æé´åè´¹éè¡ï¼ æé½âä¸ç»âè²æ±</a></td>
<td class="syh4">[12-31]</td>
</tr>
<tr>
<td class="syh3"><a href="https://a.517sc.com/index/news/details/id/7452" target="_blank" title="çå­å·ç§¯æèå¥âå½æ°å¬è·¯G318âæåæ¨å¹¿ æé å½éèªé©¾æ¸¸ç®çå°">çå­å·ç§¯æèå¥âå½æ°å¬è·¯G318âæå</a></td>
<td class="syh4">[12-30]</td>
</tr>
<tr>
<td class="syh3"><a href="https://a.517sc.com/index/news/details/id/7451" target="_blank" title="é©¬å°åº·éªè±çº·é£ åæ¦åºè¡èµå¬æ¯">é©¬å°åº·éªè±çº·é£ åæ¦åºè¡èµå¬æ¯</a></td>
<td class="syh4">[12-28]</td>
</tr>
</table></td>
</tr>
<tr>
<td colspan="2"><!-- çº¿è·¯ -->
<table border="0" cellpadding="0" cellspacing="0" class="syxl" width="1200">
<tr>
<td class="xyxla" height="50" width="730">æçæ´»å¨</td>
<td width="29"></td>
<td class="xyxla" height="50" width="439">æè¦æå</td>
</tr>
<tr>
<td class="huodong1" style="background: url(https://a.517sc.com/uploads/20200227/8d8ce670255c73c3a7a7865283331845.jpg);  display: flex;width: 730px;height: 440px;margin-top:20px;flex-direction: column;justify-content: flex-end;">
<a href="https://a.517sc.com/index/index/app/id/1576028950-21.html" target="_blank" title="ãå®æ¹æ´»å¨ãå±±æ²³æ æ âæâæåå·ï¼å®¶éè¹²æå¥å¾æï¼"><div style="height: 400px"></div></a>
<div class="absolute1">
<a href="https://a.517sc.com/index/index/app/id/1576028950-21.html" target="_blank" title="ãå®æ¹æ´»å¨ãå±±æ²³æ æ âæâæåå·ï¼å®¶éè¹²æå¥å¾æï¼"><p style="font-size: 17px;font-family: 'å¾®è½¯éé»';color: #fff;padding: 11px 0 0 11px;">ãå®æ¹æ´»å¨ãå±±æ²³æ æ âæâæåå·ï¼å®¶éè¹²æå¥å¾æï¼</p>
<p style="font-size: 12px;font-family: 'å¾®è½¯éé»';color: #fff;padding:5px 0 0 11px;"></p></a>
</div>
</td>
<td width="29"></td>
<td class="baoguang" height="352">
<div class="yitiao" style="height: 140px;margin-top:20px;">
<div style="display: flex;">
<img src="https://www.517sc.com/n/Public/Images/Index/yuan_07.png" style="width: 19px;height: 19px;padding:2px 0 2px 39px;" width="39"/>
<a href="https://a.517sc.com/index/index/app/id/1511932129-24.html" target="_blank" title="å¤ªå­å²­æ»éªåºçªç¶åçµï¼28åæ¸¸å®¢è¢«å°ç¼è½¦3å°æ¶ï¼"><p style="font-size: 18px;font-family: 'å¾®è½¯éé»';color: #000;padding: 0px 0 0px 19px;white-space:nowrap;overflow: hidden;width: 360px;">å¤ªå­å²­æ»éªåºçªç¶åçµï¼28åæ¸¸å®¢è¢«å°ç¼è½¦3å°æ¶ï¼</p></a>
</div>
<a href="https://a.517sc.com/index/index/app/id/1511932129-24.html" target="_blank" title="å¤ªå­å²­æ»éªåºçªç¶åçµï¼28åæ¸¸å®¢è¢«å°ç¼è½¦3å°æ¶ï¼"><p style="font-size: 12px;font-family: 'å¾®è½¯éé»';color: #9a9a9a;padding:22px 0 0 77px;white-space:nowrap;overflow: hidden;width: 360px;">è¢«å°3ä¸ªå¤å°æ¶ï¼ææ¸¸å®¢å½å¥½éè¨</p></a>
<a href="https://www.517sc.com/bbs" target="_blank" title="ææ¸¸ç»´æ"><div style="width: 64px;height: 25px;border-radius: 25px;background: #ffa800;float: right;margin-top:18px;font-size: 12px;color: #fff;line-height: 25px;text-align: center;">æè¦æå</div></a>
<div style="width: 391px;height: 1px;background: #ffa800;margin-top:18px;float:right"></div>
</div>
<div class="yitiao" style="height: 140px;margin-top:20px;">
<div style="display: flex;">
<img src="https://www.517sc.com/n/Public/Images/Index/yuan_07.png" style="width: 19px;height: 19px;padding:2px 0 2px 39px;" width="39"/>
<a href="https://a.517sc.com/index/index/app/id/1511931835-23.html" target="_blank" title="ä¸æºå«å°å±±æ¯åºåºç¡è®¾æ½å·® å·¥ä½äººåå·¥ä½æåº¦æ¶å£"><p style="font-size: 18px;font-family: 'å¾®è½¯éé»';color: #000;padding: 0px 0 0px 19px;white-space:nowrap;overflow: hidden;width: 360px;">ä¸æºå«å°å±±æ¯åºåºç¡è®¾æ½å·® å·¥ä½äººåå·¥ä½æåº¦æ¶å£</p></a>
</div>
<a href="https://a.517sc.com/index/index/app/id/1511931835-23.html" target="_blank" title="ä¸æºå«å°å±±æ¯åºåºç¡è®¾æ½å·® å·¥ä½äººåå·¥ä½æåº¦æ¶å£"><p style="font-size: 12px;font-family: 'å¾®è½¯éé»';color: #9a9a9a;padding:22px 0 0 77px;white-space:nowrap;overflow: hidden;width: 360px;">4Açº§æ¯åºå°±æ¯è¿æ ·çæå¡ï¼ï¼</p></a>
<a href="https://www.517sc.com/bbs" target="_blank" title="ææ¸¸ç»´æ"><div style="width: 64px;height: 25px;border-radius: 25px;background: #ffa800;float: right;margin-top:18px;font-size: 12px;color: #fff;line-height: 25px;text-align: center;">æè¦æå</div></a>
<div style="width: 391px;height: 1px;background: #ffa800;margin-top:18px;float:right"></div>
</div>
<div class="yitiao" style="height: 140px;margin-top:20px;">
<div style="display: flex;">
<img src="https://www.517sc.com/n/Public/Images/Index/yuan_07.png" style="width: 19px;height: 19px;padding:2px 0 2px 39px;" width="39"/>
<a href="https://a.517sc.com/index/index/app/id/1511931707-22.html" target="_blank" title="ææ¸¸éä¸­è¢«å¨èï¼è¯¥æ¾åªä¸ªé¨é¨ç»´æï¼"><p style="font-size: 18px;font-family: 'å¾®è½¯éé»';color: #000;padding: 0px 0 0px 19px;white-space:nowrap;overflow: hidden;width: 360px;">ææ¸¸éä¸­è¢«å¨èï¼è¯¥æ¾åªä¸ªé¨é¨ç»´æï¼</p></a>
</div>
<a href="https://a.517sc.com/index/index/app/id/1511931707-22.html" target="_blank" title="ææ¸¸éä¸­è¢«å¨èï¼è¯¥æ¾åªä¸ªé¨é¨ç»´æï¼"><p style="font-size: 12px;font-family: 'å¾®è½¯éé»';color: #9a9a9a;padding:22px 0 0 77px;white-space:nowrap;overflow: hidden;width: 360px;">è¢«ç§è½¦å¬å¸å¿½æ ï¼ç»§èå¨èï¼ææ¸¸è¿è½æ¾å¿åï¼</p></a>
<a href="https://www.517sc.com/bbs" target="_blank" title="ææ¸¸ç»´æ"><div style="width: 64px;height: 25px;border-radius: 25px;background: #ffa800;float: right;margin-top:18px;font-size: 12px;color: #fff;line-height: 25px;text-align: center;">æè¦æå</div></a>
<div style="width: 391px;height: 1px;background: #ffa800;margin-top:18px;float:right"></div>
</div>
</td>
</tr>
</table></td>
</tr>
<tr>
<td colspan="2"><!-- è®ºå -->
<table border="0" cellpadding="0" cellspacing="0" class="sybbss" width="1200">
<tr>
<td class="xybbsa" height="50" width="320">è®ºåäºå¨</td>
<td class="xybbsb" width="771"><a href="https://www.517sc.com/bbs/forum.php?mod=forumdisplay&amp;fid=14" target="_blank">è¡èµ°å°è®°</a><a href="https://www.517sc.com/bbs/forum.php?mod=forumdisplay&amp;fid=38" target="_blank">å¼å½é£æ</a><a href="https://www.517sc.com/bbs/forum.php?mod=forumdisplay&amp;fid=62" target="_blank">èªé©¾ä¹æ</a><a href="https://www.517sc.com/bbs/forum.php?mod=forumdisplay&amp;fid=34" target="_blank">éªå£«é¨è½</a><a href="https://www.517sc.com/bbs/forum.php?mod=forumdisplay&amp;fid=29" target="_blank">æè¡å¤©ä¸</a><a href="https://www.517sc.com/bbs/forum.php?mod=forumdisplay&amp;fid=1" target="_blank">ç»ä¼´åæ¸¸</a><a href="https://www.517sc.com/bbs/forum.php?mod=forumdisplay&amp;fid=22" target="_blank">æ·å¤æ²é¾</a><a href="https://www.517sc.com/bbs/forum.php?mod=forumdisplay&amp;fid=2" target="_blank">å¯¼æ¸¸å®¶å­</a><a href="https://www.517sc.com/bbs/forum.php?mod=forumdisplay&amp;fid=2" target="_blank">ç¾é£å¤©å°</a><a href="https://www.517sc.com/bbs/forum.php?mod=forumdisplay&amp;fid=73" target="_blank">æºå­åè¡</a></td>
<td align="right" class="xybbsc syh2" width="109"><a href="https://www.517sc.com/bbs/forum.php" target="_blank">å¨é¨çå <span class="more">&gt;&gt;</span></a></td>
</tr>
<tr>
<td colspan="3" valign="top"><table border="0" cellpadding="0" cellspacing="0" class="xybbs_jx" width="310">
<tr>
<td><a href="https://a.517sc.com/index/index/app/id/1414993594-8.html" target="_blank" title="æé½åºåä¸¤å°æ¶çå¬æ¸¸ä¹å­"> <img height="170" src="https://a.517sc.com/uploads/20191216/0ac3c96f1f9a6d2e613a85138a6a7cdc.jpeg" width="310"/> </a></td>
</tr>
<tr>
<td class="xybbs_nr"><ul>
<li>â <a href="https://a.517sc.com/index/index/app/id/1415086601-16.html" target="_blank" title="é»é¾æºªæ¬¢ä¹ç°å­ å®ç¾é²è¥åä½éª">é»é¾æºªæ¬¢ä¹ç°å­ å®ç¾é²è¥åä½éª</a></li>
<li>â <a href="https://a.517sc.com/index/index/app/id/1415086581-15.html" target="_blank" title="è¿½éæ¥æ¬çæåä¸çæ¨±è±ââäº¬é½å¤§éª8æ¥æ¸¸">è¿½éæ¥æ¬çæåä¸çæ¨±è±ââäº¬é½å¤§éª8æ¥æ¸¸</a></li>
<li>â <a href="https://a.517sc.com/index/index/app/id/1415086560-14.html" target="_blank" title="åé£ç¬è¡ï¼èµ°è¿åå»çå°å±±æï¼å»ééæ¬£èµå±±æç¾æ¯ã">åé£ç¬è¡ï¼èµ°è¿åå»çå°å±±æï¼å»ééæ¬£èµå±±æ</a></li>
<li>â <a href="https://a.517sc.com/index/index/app/id/1415086517-13.html" target="_blank" title="ãåºæ¸¸å®å¸ï¼é²è¸©åãé»éå¨åå·æ»ä¸¤è·¯æ¢è¥ç¨»åäºä¸">ãåºæ¸¸å®å¸ï¼é²è¸©åãé»éå¨åå·æ»ä¸¤è·¯æ¢è¥ç¨»</a></li>
<li>â <a href="https://a.517sc.com/index/index/app/id/1415086479-12.html" target="_blank" title="è¡èµ°ä¸å¯å¯ãG318ãæ°èçº¿ãç¬åºå¬è·¯ï¼æåå¤§ç¾è¥¿èãæ°çé£å">è¡èµ°ä¸å¯å¯ãG318ãæ°èçº¿ãç¬åºå¬è·¯ï¼æ</a></li>
<li>â <a href="https://a.517sc.com/index/index/app/id/1415086450-11.html" target="_blank" title="2019ä¸­ç§èåº·å®æåæµ·åç°ä¹ç¾">2019ä¸­ç§èåº·å®æåæµ·åç°ä¹ç¾</a></li>
<li>â <a href="https://a.517sc.com/index/index/app/id/1415086426-10.html" target="_blank" title="æé½åºåå°æ°ç17å¤©å°ç¯çº¿èªé©¾æ¸¸">æé½åºåå°æ°ç17å¤©å°ç¯çº¿èªé©¾æ¸¸</a></li>
<li>â <a href="https://a.517sc.com/index/index/app/id/1415086398-9.html" target="_blank" title="å®å¤6æ¥æ¸¸ï¼ä¸ç¾¤éæ¯éå¹´å¨æ²æ¼ éè§£æ¾å¤©æ§">å®å¤6æ¥æ¸¸ï¼ä¸ç¾¤éæ¯éå¹´å¨æ²æ¼ éè§£æ¾å¤©æ§</a></li>
</ul></td>
</tr>
</table>
<div class="xybbs_ad">
<table border="0" cellpadding="0" cellspacing="0" class="xybbs_tb" width="100%">
<tr>
<td align="center" rowspan="2" width="235"><a href="https://a.517sc.com/index/index/app/id/1414992713-6.html" target="_blank" title="äººå100åæå¡12åºï¼èµ°è¿ä¹å±±åªé24å°æ¶"><img height="100" src="https://a.517sc.com/uploads/20180911/b80636005a3fdce3375495ff69162fef.jpg" width="220"/></a></td>
<td class="xybbs_tba" height="38" width="205"><a href="https://a.517sc.com/index/index/app/id/1414992713-6.html" target="_blank" title="äººå100åæå¡12åºï¼èµ°è¿ä¹å±±åªé24å°æ¶">ãäººå100åæå¡12åºã</a></td>
</tr>
<tr>
<td class="xybbs_tbb" valign="top">è¯´ä¹å±±æ¯æé½ç¾é£åè±å­ä¸ç¹ä¹ä¸è¿åï¼åç§ä¼å¤çç¾é£éå¸èåè¡å··ï¼æ¯ä¸ç§å³éé½å¨ä¸æ¹å¸äºä¹ä¸æ¾å°äºæå¥½</td>
</tr>
</table>
<table border="0" cellpadding="0" cellspacing="0" class="xybbs_tb" width="100%">
<tr>
<td class="xybbs_tba" height="38" width="205"><a href="https://a.517sc.com/index/index/app/id/1414992681-5.html" target="_blank" title="ä½ æ¿ææ¯æ¿æµï¼è¿æ¯å°å·ï¼|å°å²è®°äº ">ãä½ æ¿ææ¯æ¿æµï¼è¿æ¯å°å·ã</a></td>
<td class="xybbs_tba" rowspan="2" width="205"><a href="https://a.517sc.com/index/index/app/id/1414992681-5.html" target="_blank" title="ä½ æ¿ææ¯æ¿æµï¼è¿æ¯å°å·ï¼|å°å²è®°äº "><img height="100" src="https://a.517sc.com/uploads/20190130/b75fe0d75099f4f67e58705cc3f74d54.jpg" width="220"/></a></td>
</tr>
<tr>
<td class="xybbs_tbb" valign="top">å°å°æ¹é¢ä¸ï¼çç­ç¿»è¾çï¼å¦åè¿å¾æ æ°æ¢¦å¢ä¸­ä¸æ ·ã</td>
</tr>
</table>
<table border="0" cellpadding="0" cellspacing="0" class="xybbs_tb" width="100%">
<tr>
<td align="center" rowspan="2" width="235"><a href="https://a.517sc.com/index/index/app/id/1414992202-2.html" target="_blank" title="éæ¥ä¸æ£åºï¼é£äºå¹´æä»¬ä¸èµ·èµ°è¿çæ¡æ~"><img height="100" src="https://a.517sc.com/uploads/20181019/ba4e23f4274a34741632dc760f8a7221.jpg" width="220"/></a></td>
<td class="xybbs_tba" height="38" width="205"><a href="https://a.517sc.com/index/index/app/id/1414992202-2.html" target="_blank" title="éæ¥ä¸æ£åºï¼é£äºå¹´æä»¬ä¸èµ·èµ°è¿çæ¡æ~">ãéæ¥ä¸æ£åºï¼é£äºå¹´æä»¬ã</a></td>
</tr>
<tr>
<td class="xybbs_tbb" valign="top">âæ¡æå±±æ°´ç²å¤©ä¸âï¼æ¡æçå±±ï¼æå°èèµ·ï¼åå§¿ç¾æï¼æ¼æ±çæ°´ï¼æ¸æ¾è§åºï¼è®©äººå¿æ·ç¥æ¡ã</td>
</tr>
</table>
</div>
<table border="0" cellpadding="0" cellspacing="0" class="xybbs_dr" width="100%">
<tr>
<td class="xybbs_dra" height="45">517è®ºåè¾¾äºº</td>
</tr>
<tr>
<td><script src="https://www.517sc.com/bbs/api.php?mod=js&amp;bid=6" type="text/javascript"></script></td>
</tr>
</table></td>
</tr>
</table></td>
</tr>
<tr>
<td colspan="2"><!-- æ¯åºéåº -->
<table border="0" cellpadding="0" cellspacing="0" class="syview" width="1200">
<tr>
<td class="syviewa" height="50" width="219">æ¯åº Â· éåº</td>
<td class="syviewb" width="810"> </td>
<td align="right" class="syviewc syh2" width="171">æ´å¤ <a href="https://www.517sc.com/n/index.php?m=scenic&amp;a=index" target="_blank">æ¯åº+</a></td>
</tr>
<tr>
<td colspan="3" valign="top"><table border="0" cellpadding="0" cellspacing="0" class="syview_hot" width="100%">
<tr>
<td class="syview_h1" colspan="2">ç­é¨æ¯åº</td>
</tr>
<tr>
<td colspan="2" height="107"><a href="https://www.517sc.com/n/index.php?m=scenic&amp;a=index" target="_blank"><img src="https://www.517sc.com/n/Public/Images/Index/jx.jpg"/></a></td>
</tr>
<tr>
<td class="svw1" width="50%"><a href="https://a.517sc.com/index/index/app/id/1576029719-41.html" target="_blank">é½æ±å °</a></td>
<td class="svw2"><a href="https://a.517sc.com/index/index/app/id/1576029866-42.html" target="_blank">çå°¼æ²</a></td>
</tr>
<tr>
<td class="svw3"><a href="https://a.517sc.com/index/index/app/id/1576029880-43.html" target="_blank">å¤èºææ¸¸</a></td>
<td class="svw4"><a href="https://a.517sc.com/index/index/app/id/1576029890-44.html" target="_blank">è¥¿å²­éªå±±</a><!-- <a href="https://www.517sc.com/zhuanti/kdqgmgc/" target="_blank">æ¨æ ¼æª</a> --></td>
</tr>
<tr>
<td class="svw5"><a href="https://a.517sc.com/index/index/app/id/1576029902-45.html" target="_blank">æ­¦èææ¸¸</a></td>
<td class="svw6"><a href="https://a.517sc.com/index/index/app/id/1576029911-46.html" target="_blank">èµ¤æ°´ææ¸¸</a></td>
</tr>
<tr>
<td class="svw7"><a href="https://a.517sc.com/index/index/app/id/1576029924-47.html" target="_blank">éåºæ­¦é</a></td>
<td class="svw8"><a href="https://a.517sc.com/index/index/app/id/1576029936-48.html" target="_blank">ä¸éåª</a></td>
</tr>
</table>
<div class="syview_jd">
<a href="https://a.517sc.com/index/index/app/id/1576030254-49.html" target="_blank"><img src="https://a.517sc.com/uploads/20191211/3aec2388474a86647a6e48181c705d42.jpg"/></a>
<a href="https://a.517sc.com/index/index/app/id/1576030284-50.html" target="_blank"><img src="https://a.517sc.com/uploads/20191211/d2c4788b419de7b62aa53a590fbfbea0.jpg"/></a>
<a href="https://a.517sc.com/index/index/app/id/1576030338-51.html" target="_blank"><img src="https://a.517sc.com/uploads/20200118/9099da4c813ef01ef93936befc21b27b.jpg"/></a>
</div>
<div class="syview_htl">
<table border="0" cellpadding="0" cellspacing="0" width="100%">
<tr>
<td><a href="https://a.517sc.com/index/index/app/id/1576031809-52.html" target="_blank"><img src="https://a.517sc.com/uploads/20191211/1e0b524d8e9860d4e0e419708aef18bf.jpg"/></a></td>
</tr>
<tr>
<td align="center" height="38"><a href="https://a.517sc.com/index/index/app/id/1576031809-52.html" target="_blank"><span class="syxlada">åº·å®ææ­ï¼æ¨æ ¼æªï¼</span></a></td>
</tr>
<tr>
<td><a href="https://a.517sc.com/index/index/app/id/1576031883-53.html" target="_blank"><img src="https://a.517sc.com/uploads/20191211/5325a35c96e2ae771c52225cf3c5f235.jpg"/></a></td>
</tr>
<tr>
<td align="center" height="38"><a href="https://a.517sc.com/index/index/app/id/1576031883-53.html" target="_blank"><span class="syxlada">ç¾ä¸½é½æ±å ° é­åææ¸¸å</span></a></td>
</tr>
</table>
</div></td>
</tr>
</table></td>
</tr>
<tr>
<td colspan="2" height="110"><a href="https://517bx.com/" target="_blank"><img src="https://a.517sc.com/static/index/img/am3.jpg"/></a></td>
</tr>
<tr>
<td colspan="2"><table border="0" cellpadding="0" cellspacing="0" class="sylink" width="100%">
<tr>
<td class="sylink_a">
<a href="https://www.shuzigonggao.com" target="_blank">æ°å</a>| 
                      <a href="http://www.esky86.com/" target="_blank">åå¤©ç§æ</a>| 
                      <a href="http://www.esky86.com" target="_blank">ä¿é©ç³»ç»å¼å</a>| 
                      <a href="http://www.517dengbao.com/" target="_blank">ç»æ¥é</a>| 
                      <a href="http://www.517dengbao.com/html/guangdong/shenzhen/" target="_blank">æ·±å³ç»æ¥</a>| 
                      <a href="http://www.517dengbao.com/html/fujian/xiamen/" target="_blank">å¦é¨ç»æ¥</a>| 
                      <a href="https://www.517dengbao.com/html/guangdong/guangzhou/" target="_blank">å¹¿å·ç»æ¥</a>| 
                      <a href="https://www.517dengbao.com/html/beijing/" target="_blank">åäº¬ç»æ¥</a>| 
                      <a href="https://www.517dengbao.com/html/sichuan/chengdu/" target="_blank">æé½ç»æ¥</a>| 
                      <a href="https://www.517dengbao.com/html/shanghai/" target="_blank">ä¸æµ·ç»æ¥</a>| 
                      <a href="https://www.517dengbao.com/html/shaanxi/xian/" target="_blank">è¥¿å®ç»æ¥</a>| 
                      <a href="https://www.517dengbao.com/html/hunan/changsha/" target="_blank">é¿æ²ç»æ¥</a>| 
                      <a href="https://www.517dengbao.com/html/chongqing/" target="_blank">éåºç»æ¥</a>| 
                      <a href="https://www.517dengbao.com/html/tianjin/" target="_blank">å¤©æ´¥ç»æ¥</a>| 
                      <a href="https://www.517dengbao.com/html/fujian/fuzhou/" target="_blank">ç¦å·ç»æ¥</a>| 
                      <a href="http://www.517sc.com/zhuanti/lyx/" target="_blank">ææé©å¹³å°</a>| 
                      <a href="http://www.5iucn.com/" target="_blank">å¾ç±ææ¸¸ç½</a>| 
                      <a href="http://517bx.com/" target="_blank">ææ¸¸ä¿é©</a>| 
                      <a href="http://517bx.com/" target="_blank">æ·å¤ä¿é©</a>| 
                      </td>
</tr>
<tr>
<td class="sylink_b" height="70">
<a href="http://www.scbirds.org.cn/" target="_blank" title="è§é¸ä¼"><img src="https://a.517sc.com/uploads/20180710/6f57f577b5d4d3044f7713915ac6ba5c.jpg" style="max-width:90px;max-height:30px;"/></a>
<a href="http://www.517sichuan.com/index_517.asp" target="_blank" title="åå·ææ¸¸ç½è®ºå"><img src="https://a.517sc.com/uploads/20180710/aeb75597b1eda830717437ed3146ea25.gif" style="max-width:90px;max-height:30px;"/></a>
<a href="http://www.517sc.com/" target="_blank" title="åå·ææ¸¸ç½"><img src="https://a.517sc.com/uploads/20180710/1fd0b105162df6e6c9aae85169efcf88.gif" style="max-width:90px;max-height:30px;"/></a>
<a href="http://517bx.com/" target="_blank" title="ææ¸¸ä¿é©ç½"><img src="https://a.517sc.com/uploads/20180710/9d226b9eb8425e9772cbb714fe732e42.jpg" style="max-width:90px;max-height:30px;"/></a>
<a href="http://www.kangdingqingge.cn/" target="_blank" title="åº·å®ææ­"><img src="https://a.517sc.com/uploads/20180911/5bb040c32130a89fb0cc6fba999555ed.gif" style="max-width:90px;max-height:30px;"/></a>
</td>
</tr>
</table></td>
</tr>
</table>
<div class="footbar">
<table border="0" cellpadding="0" cellspacing="0" width="1200">
<tr>
<td class="foottitle" height="50" width="143">äº§å</td>
<td class="foottitle" width="135">èç³»æä»¬</td>
<td class="foottitle" width="135">å³äºæä»¬</td>
<td class="foottitle" width="135">åä½ä¼ä¼´</td>
<td class="foottitle" width="135">517è®ºå</td>
<td class="foottitle" width="38"> </td>
<td align="right" class="foottitle" width="479"></td>
</tr>
<tr>
<td valign="top"><a href="http://www.517bx.com/" target="_blank"><img src="https://www.517sc.com/n/Public/Images/Index/bx.jpg"/></a>
</td>
<td valign="top">
<ul><li><a href="http://www.517sc.com/about/contact.html" target="_blank">èç³»æä»¬</a>
</li></ul>
</td>
<td valign="top">
<ul><li><a href="http://www.517sc.com/about/about.html" target="_blank">å³äºæä»¬</a>
</li></ul>
</td>
<td valign="top">
<ul><li><a href="http://www.517sc.com/about/cooperation.html" target="_blank">åä½ä¼ä¼´</a>
</li></ul>
</td>
<td valign="top">
<ul><li><a href="http://www.517sc.com/bbs" target="_blank">517è®ºå</a>
</li></ul>
</td>
<td> </td>
<td align="right" valign="top"><div style=" width:418px;"><a href="http://weibo.com/u/1952853052" target="_blank"><img src="https://www.517sc.com/n/Public/Images/Index/sina.jpg"/></a><a href="https://www.517sc.com/zhuanti/lapp/" target="_blank"><img src="https://www.517sc.com/n/Public/Images/Index/app.jpg"/></a><br/>
</div></td>
</tr>
</table>
</div>
<div class="foot"><span style=" float:left">Copyright Â© 2000-2021å¹´Â· æé½åå¤©ç§ææéè´£ä»»å¬å¸</span> <span style=" float:right"><a href="https://beian.miit.gov.cn/" target="_blank">èICPå¤09043293å·-1</a> Â· åå·ææ¸¸ç½Â·çæææ <script charset="gb2312" language="JavaScript" src="https://s80.cnzz.com/stat.php?id=1560066&amp;web_id=1560066&amp;show=pic1"></script></span></div>
<include file="Public:print"></include>
<script src="https://www.517sc.com/n/Public/Js/Index/backtop.js" type="text/javascript"></script>
<img height="0" src="https://www.517sc.com/n/Public/Images/Index/pic300.jpg" width="0"/>
<div><img src="/n/Public/Images/Index/xuanfu.png" style="position: fixed;right:10px;top:400px;width: 150px;height: 320px;"/> </div>
</body>
<script>
window.onload=function(){
$.ajax({
    url:"https://a.517sc.com/index/index/dostats",
    async:false
});
}
</script>
</html>
