<!DOCTYPE html>
<html lang="zh-CN">
<head>
<meta content="text/html; charset=utf-8" http-equiv="Content-Type"/>
<meta content="IE=edge,Chrome=1" http-equiv="X-UA-Compatible"/>
<meta content="51åç¥¨,51åç¥¨,èªå¤©ä¿¡æ¯,çµå­åç¥¨,ææºå¼ç¥¨,åç¥¨å©æ,åç¥¨çä¼ªæ¥è¯¢,åç¥¨çä¼ªæ¥è¯¢å¹³å°,åç¥¨çä¼ªæ¥è¯¢ç½ç«,åç¥¨æ¥éª,åç¥¨æ¥è¯¢,åç¥¨çä¼ªæ¥è¯¢,åç¥¨çä¼ªæ¥éª,çµå­åç¥¨å¼å·,å¼å·çµå­åç¥¨,çµå­åç¥¨å½é,çµå­åç¥¨å­å¨,å¾®ä¿¡å¼ç¥¨" name="keywords"/>
<meta content="å¨å½é¢åççµå­åç¥¨æå¡äºå¹³å°ï¼51åç¥¨ä»è§£å³æ¹æ¡ãäº§åä»ç»ãå¸åæ¡ä¾ãæ¿ç­èµè®¯ç­å¤ä¸ªç»´åº¦å±ç¤ºäºèªå¤©ä¿¡æ¯å¨çµå­åç¥¨é¢åçå¼ºå¤§å®åï¼å¹¶ä¸ºç¨æ·æä¾äºä¾¿æ·ççµå­åç¥¨æ¥è¯¢ãä¸è½½ç­æå¡ã" name="description"/>
<title>51åç¥¨-çµå­åç¥¨æå¡å¹³å°</title>
<link href="img/favicon.ico" rel="shortcut icon" type="image/x-icon"/>
<link href="css/bootstrap.min.css" rel="stylesheet" type="text/css"/>
<link href="css/normalize.css" rel="stylesheet" type="text/css"/>
<link href="css/bootstrap-datetimepicker.min.css" rel="stylesheet" type="text/css"/>
<link href="css/common.css" rel="stylesheet" type="text/css"/>
<link href="css/51index.css" rel="stylesheet" type="text/css"/>
</head>
<body>
<!--51logoå°åãç»å½ãæ³¨å-->
<div class="container-fluid topBarContain">
<div class="container">
<div class="topBarLeft pull-left">
<span class="logo">
<img alt="" src="img/logo.png"/>
</span>
<!--<span class="topText">
	                    <span class="areaSelectCon">   
	                    <span id="cityname" class="showArea">
		                     
		                                      
	                    		åäº¬
	                    	  
	                    </span><span class="arrowDown"></span>
	                                                    
	                    <ul class="slectArea clickHide" style="display: none;">
	                        <li><a onclick="changeCityLoaction(&#39;beijing&#39;)">åäº¬</a></li>
	                        <li><a onclick="changeCityLoaction(&#39;shanghai&#39;)">ä¸æµ·</a></li>
	                        <li><a onclick="changeCityLoaction(&#39;chengdu&#39;)">æé½</a></li>
	                        <li><a onclick="changeCityLoaction(&#39;wuhan&#39;)">æ­¦æ±</a></li>
	                        <li><a onclick="changeCityLoaction(&#39;guangzhou&#39;)">å¹¿å·</a></li>
	                        <li><a onclick="changeCityLoaction(&#39;jilin&#39;)">åæ</a></li>
	                    </ul>
	                    </span>
	                <span id="citytelephone" class="telCon leftBorder">æå¡ä¸çº¿ï¼4008106116</span>
	                </span>-->
</div>
<div class="topBarRight pull-right">
<a class="" href="login.html">ç»å½</a>
<a class="leftBorder" href="register.html">æ³¨å</a>
<div id="loginMenu">
<img src="img/login/userAccountIcon.png"/>
<span id="loginAccount"></span>
<span class="arrowDown" id="accountArrow"></span>
<ul id="accountManage" style="display: none;">
<span class="arrowUp" id="menuArrow"></span>
<li onclick="window.open('account/updatepwd.html','_self')">
<img src="img/login/changePwd.png"/>
<img src="img/login/changePwdOn.png"/>
	                				  ä¿®æ¹å¯ç 
	                			</li>
<li onclick="logout()">
<img src="img/login/logOut.png"/>
<img src="img/login/logOutOn.png"/>
	                				  éåºç»å½
	                			</li>
</ul>
</div>
<!--<a href="http://fws.51fapiao.cn/enterprise/index.html" class="leftBorder" target="_self">ä¼ä¸æå¡è®¢é</a>-->
<!--<ul class="accountList">
	                    <li><a href="#" style="display: none;">è´¦æ·ä¸­å¿</a></li>
	                    <li><a href="#">éåºè´¦æ·</a></li>
	                </ul>-->
</div>
</div>
</div>
<!--51logoç»æ-->
<!--
			æ¶é´ï¼2017-04-17
			æè¿°ï¼å¯¼èªæ 
		-->
<div class="" style="height: 52px;background-color: #2a3f6f;">
<div class="container-fluid menu-bar">
<div class="navbar navbar-black">
<div class="container">
<div class="collapse navbar-collapse" id="bs-example-navbar-collapse-1">
<ul class="nav navbar-nav">
<li class="active"><a href="index.html">é¦ é¡µ</a></li>
<li class="dropdown" style="position: relative;">
<a class="dropdown-toggle" href="fpcx/query.html"><img height="23px" src="img/newicon.png" style="position: absolute;top: 12px;left: 20px;" width="24px"/>åç¥¨æå¡</a>
<ul class="dropdown-menu">
<!--<li style="position: relative;"><a href="fpkj/fpkj.html"><img src="img/hot.png" width="6px" height="6px" style="position: absolute;left: 35px;top: 13px;">åç¥¨å¼å·</a></li>-->
<li><a href="fpcx/query.html">åç¥¨æ¥è¯¢</a></li>
<li><a href="https://inv-veri.chinatax.gov.cn/" target="_blank">åç¥¨æ¥éª</a></li>
<li><a href="fpcx/query.html">åç¥¨ä¸è½½</a></li>
<li style="position: relative;"><a href="fpcx/smartCode.html"><img height="6px" src="img/hot.png" style="position: absolute;left: 35px;top: 13px;" width="6px"/>æºè½ç¼ç </a></li>
</ul>
</li>
<li class="dropdown">
<a class="dropdown-toggle" href="access/access.html">ä¼ä¸æ¥å¥</a>
<ul class="dropdown-menu">
<li><a href="access/access.html?access=1">APIåè¡¨</a></li>
<!--<li><a href="access/access.html?access=2">ä¼ä¸æ¥å¥æµç¨</a></li>-->
</ul>
</li>
<li class="dropdown">
<a class="dropdown-toggle" href="production/product.html">äº§åä»ç»</a>
<ul class="dropdown-menu">
<!--<li><a href="production/product.html?prod=1">äº¤æå³å¼ç¥¨</a></li>-->
<!--<li><a href="production/product.html?prod=2">äºå¼ç¥¨</a></li>-->
<li><a href="production/product.html?prod=3">åæºå¼ç¥¨</a></li>
<li><a href="production/product.html?prod=4">æç®¡å¼ç¥¨</a></li>
<li><a href="production/product.html?prod=5">æ«ç å¼ç¥¨</a></li>
<li><a href="production/product.html?prod=6">æ«ç é¢ç¥¨</a></li>
</ul>
</li>
<li class="dropdown">
<a class="dropdown-toggle" href="solution/solution.html">è§£å³æ¹æ¡</a>
<ul class="dropdown-menu">
<li><a href="solution/solution.html?sol=1">çµåè¡ä¸</a></li>
<li><a href="solution/solution.html?sol=2">åè¶</a></li>
<li><a href="solution/solution.html?sol=3">åè½¦åº</a></li>
<li><a href="solution/solution.html?sol=4">å¿«éç©æµ</a></li>
<li><a href="solution/solution.html?sol=5">çè</a></li>
<li><a href="solution/solution.html?sol=6">å¬å±äºä¸</a></li>
</ul>
</li>
<li class="dropdown">
<a class="dropdown-toggle" href="typical/typical.html">å¸åæ¡ä¾</a>
<ul class="dropdown-menu">
<li><a href="typical/typical.html?typ=1">ä¸­ç³å</a></li>
<li><a href="typical/typical.html?typ=2">å½ç¾</a></li>
<li><a href="typical/typical.html?typ=3">éº¦å½å³</a></li>
<li><a href="typical/typical.html?typ=4">ä¸­å½ç§»å¨</a></li>
<li><a href="typical/typical.html?typ=5">DHL</a></li>
<li><a href="typical/typical.html?typ=6">èå®</a></li>
<li><a href="typical/typical.html?typ=7">äº¬ä¸</a></li>
<li><a href="typical/typical.html?typ=8">åèçµå</a></li>
</ul>
</li>
<li class="dropdown">
<a class="dropdown-toggle" href="policyInformation/policyInformation.html">æ¿ç­èµè®¯</a>
<ul class="dropdown-menu">
<li><a href="policyInformation/policyInformation.html?policy=1">ææ°èµè®¯</a></li>
<li><a href="policyInformation/policyInformation.html?policy=2">æ¿ç­æ³è§</a></li>
</ul>
</li>
<li class="dropdown">
<a class="dropdown-toggle" href="about/introduce.html">å³äºæä»¬</a>
<ul class="dropdown-menu">
<li><a href="about/introduce.html">51åç¥¨å¹³å°ä»ç»</a></li>
<li><a href="about/servicenet.html">æå¡ç½ç»</a></li>
</ul>
</li>
<!--<li class=""><a href="aboutUs.html">å³äºæä»¬</a></li>-->
</ul>
<!--<form class="navbar-form navbar-right search_form" role="search" style="display:none;">
		                    <div class="form-group">
		                        <input type="text" class="form-control" placeholder="å¨ç«æç´¢">
		                    </div>
		                    <button type="submit" class="search_submit_pic"></button>
		                </form>-->
</div>
</div>
</div>
</div>
</div>
<!--å¯¼èªæ ç»æ-->
<!--
        	æ¶é´ï¼2017-04-19
        	æè¿°ï¼è½®æ­å¾ æ°
        -->
<div class="container-fluid">
<div class="carouselContainer">
<div class="bigPicContainer">
<div class="img_item onShow">
<img src="img/banner5.png"/>
</div>
<div class="img_item">
<img src="img/banner7.png"/>
</div>
<div class="img_item">
<img src="img/banner8.png"/>
</div>
<div class="img_item">
<img src="img/banner9.png"/>
</div>
<div class="img_item">
<img src="img/banner3.jpg"/>
</div>
<div class="img_item">
<img src="img/banner1.png"/>
</div>
<!--éæä¸æ¾ç¤ºï¼åªæ¿ä»£ä»¥ä¸absoluteå®ä½ï¼æå¼é«åº¦-->
<div class="" style="opacity: 0;">
<img src="img/banner1.png" width="100%"/>
</div>
</div>
<div class="bigPicSelects">
<div class="selectDot onSelect">
<img src="img/dot1_u24.png"/>
<img src="img/dot1_u24_selected.png"/>
</div>
<div class="selectDot">
<img src="img/dot1_u24.png"/>
<img src="img/dot1_u24_selected.png"/>
</div>
<div class="selectDot">
<img src="img/dot1_u24.png"/>
<img src="img/dot1_u24_selected.png"/>
</div>
<div class="selectDot">
<img src="img/dot1_u24.png"/>
<img src="img/dot1_u24_selected.png"/>
</div>
<div class="selectDot">
<img src="img/dot1_u24.png"/>
<img src="img/dot1_u24_selected.png"/>
</div>
<div class="selectDot">
<img src="img/dot1_u24.png"/>
<img src="img/dot1_u24_selected.png"/>
</div>
</div>
</div>
</div>
<!--è½®æ­å¾ æ° ç»æ-->
<!--
    	æ¶é´ï¼2017-04-07
    	æè¿°ï¼åç¥¨æ¥è¯¢
    -->
<div class="container-fluid" style="background-image: url(img/beijingtu.png);height: 703px;">
<div class="container" style="">
<div class="row" style="height: 155px;position: relative;">
<div style="width: 1152px;margin:0;position: absolute;left: 24px;top: 38px;">
<div class="" style="width: 1152px;margin:0;position: absolute;top: 12px;left:0;z-index: 0;">
<img height="5px" src="img/query/xian2.png" width="1152px"/>
</div>
<div class="queryTitle" style="margin-left: 118px;">
<div style="height: 46px;width: 46px;">
<img height="46px" src="img/query/fapiaokaiju.png" width="46px"/>
</div>
<div style="margin-top: 7px;">
<p style="font-size: 15px;color: #4E4E4E;">åç¥¨å¼å·</p>
</div>
</div>
<div class="queryTitle" style="">
<div style="height: 46px;width: 46px;">
<img height="46px" src="img/query/fapiaochaxun.png" width="46px"/>
</div>
<div style="margin-top: 7px;">
<p style="font-size: 15px;color: #4E4E4E;">åç¥¨æ¥è¯¢</p>
</div>
</div>
<div class="queryTitle" style="">
<div style="height: 46px;width: 46px;">
<img height="46px" src="img/query/fapiaoguiji.png" width="46px"/>
</div>
<div style="margin-top: 7px;">
<p style="font-size: 15px;color: #4E4E4E;">åç¥¨ä¸è½½</p>
<p style="font-size: 14px;color: #019DDD;">ç¨æ·ç»å½ï¼å³æ¶ä¸è½½</p>
</div>
</div>
<div class="queryTitle" style="">
<div style="height: 46px;width: 46px;">
<img height="46px" src="img/query/fapiaoxiazai.png" width="46px"/>
</div>
<div style="margin-top: 7px;">
<p style="font-size: 15px;color: #4E4E4E;">åç¥¨å½é</p>
<p style="font-size: 14px;color: #019DDD;">æ«ç é¢ç¥¨ï¼ç´è¾¾å¡å</p>
</div>
</div>
<div class="queryTitle" style="margin-right: 0;">
<div style="height: 46px;width: 46px;">
<img height="46px" src="img/query/fapiaobaoxiao.png" width="46px"/>
</div>
<div style="margin-top: 7px;">
<p style="font-size: 15px;color: #4E4E4E;">åç¥¨æ¥é</p>
</div>
</div>
</div>
<div class="queryCheckSwitch">
<div class="switchBtn querySwitchBtn onSelect" id="switchQuery"><p>çµå­åç¥¨<br/>æ¥ããè¯¢</p></div>
<div class="switchBtn checkSwitchBtn" id="switchCheck" onclick="window.open('https://inv-veri.chinatax.gov.cn/','_blank');return false;"><p>å¨  ç¥¨  ç§<br/>æ¥ããéª</p></div>
<div class="switchBtn querySpbmSwitchBtn" id="switchQuerySpbm"><img height="56px" src="img/new.gif" width="60px"/><p>æºè½ç¼ç <br/>æ¥ããè¯¢</p></div>
</div>
</div>
<div class="row" style="position: relative;height:550px;">
<!--å·¦èæ¯å¾-->
<div class="leftpic" id="leftPicId"></div>
<!--æ¥è¯¢çªå£-->
<div class="queryWinOuter" style="">
<div style="padding:10px 10px 1px;background-color: white;">
<!--åç¥¨æ¥è¯¢-->
<div class="queryWinInner" id="queryFp">
<form action="#" class="form-horizontal" id="indexQueryForm" method="post">
<div class="querySwitch">
<div class="querySw_btn btn_on">
<p><span>éé¢æ¥è¯¢</span></p>
<img height="9px" src="img/query/sanjiaoxing.png" width="24px"/>
</div>
<div class="querySw_btn">
<p><span>æ ¡éªç æ¥è¯¢</span></p>
<img height="9px" src="img/query/sanjiaoxing.png" width="24px"/>
</div>
</div>
<div class="form-container">
<div class="form-group inputFirst">
<label class="col-xs-2 control-label" for="search_fpdm_id">åç¥¨ä»£ç </label>
<div class="col-xs-10 input_wrap">
<input class="form-control" id="search_fpdm_id" maxlength="12" name="search_fpdm" placeholder="è¯·è¾å¥åç¥¨ä»£ç " type="text" value=""/>
<div class="inputStatusIcon"></div>
</div>
</div>
<div class="form-group">
<label class="col-xs-2 control-label" for="search_fphm_id">åç¥¨å·ç </label>
<div class="col-xs-10 input_wrap">
<input class="form-control" id="search_fphm_id" maxlength="8" name="search_fphm" placeholder="è¯·è¾å¥åç¥¨å·ç " type="text" value=""/>
<div class="inputStatusIcon"></div>
</div>
</div>
<div class="form-group">
<label class="col-xs-2 control-label">å¼ç¥¨æ¥æ</label>
<div class="col-xs-10 input-group date input_wrap" id="datetimepicker">
<input class="form-control" id="search_kprq_id" name="search_kprq" placeholder="è¯·éæ©å¼ç¥¨æ¥æ" type="text" value=""/>
<span class="input-group-addon">
<span class="glyphicon glyphicon-calendar"></span>
<!--<img src="img/query/rili.png"/>-->
</span>
</div>
</div>
<div class="form-group" id="jinejiaoyanmaform">
<label class="col-xs-2 control-label" for="search_kphjje_id">åç¥¨éé¢</label>
<div class="col-xs-6 input_wrap" id="kpje_input">
<input class="form-control" id="search_kphjje_id" maxlength="30" name="search_kphjje" placeholder="è¯·è¾å¥åç¥¨éé¢" type="text" value=""/>
<div class="inputStatusIcon"></div>
</div>
<div class="col-xs-4" id="jelx">
<div class="kpje_select_btn" id="jshj_select" style="margin-left: 4px;">
<img height="14px" src="img/identity_checked.png" width="14px"/>
												ä»·ç¨åè®¡
											</div>
<div class="kpje_select_btn" id="sqje_select" style="margin-left: 8px;">
<img height="14px" src="img/identity.png" width="14px"/>
												ç¨åéé¢
											</div>
</div>
</div>
<div class="form-group">
<label class="col-xs-2 control-label letterSpacing1" for="search_yzm_id">éª è¯ ç </label>
<div class="col-xs-6 input_wrap">
<input class="form-control" id="search_yzm_id" maxlength="4" name="search_yzm" placeholder="è¯·è¾å¥éªè¯ç " type="text" value=""/>
<div class="inputStatusIcon"></div>
</div>
<div class="col-xs-4">
<img border="0" height="32px" id="getValidCode" src="img/code.png" style="cursor:pointer; right:0;top:0;position: absolute;border-radius: 5px;" title="çä¸æ¸æ¥ï¼ç¹å»å·æ°" width="145px"/>
</div>
</div>
<input id="search_jeflag" name="search_jeflag" type="hidden" value="1"/>
<input id="search_skip" name="search_skip" type="hidden" value="0"/>
<input id="search_flag" name="search_flag" type="hidden" value="1"/>
<div class="query_btn" id="query">
<span>æ¥  è¯¢</span>
</div>
</div>
</form>
</div>
<!--æ¥éªçªå£-->
<div class="queryWinInner" id="checkFp" style="display: none;">
<form action="#" class="form-horizontal" id="checkForm" method="post">
<div class="querySwitch">
<div class="checkTitle">
<p><span>åç¥¨æ¥éª</span></p>
</div>
</div>
<div class="form-container">
<div class="form-group inputFirst">
<label class="col-xs-2 control-label" for="fpdm_id">åç¥¨ä»£ç </label>
<div class="col-xs-10 input_wrap">
<input class="form-control" id="fpdm_id" maxlength="12" name="search_fpdm" placeholder="è¯·è¾å¥åç¥¨ä»£ç " type="text" value=""/>
<div class="inputStatusIcon"></div>
</div>
</div>
<div class="form-group">
<label class="col-xs-2 control-label" for="fphm_id">åç¥¨å·ç </label>
<div class="col-xs-10 input_wrap">
<input class="form-control" id="fphm_id" maxlength="8" name="search_fphm" placeholder="è¯·è¾å¥åç¥¨å·ç " type="text" value=""/>
<div class="inputStatusIcon"></div>
</div>
</div>
<div class="form-group">
<label class="col-xs-2 control-label">å¼ç¥¨æ¥æ</label>
<div class="col-xs-10 input-group date input_wrap" id="datetimepicker_check">
<input class="form-control" id="kprq_id" name="search_kprq" placeholder="è¯·éæ©å¼ç¥¨æ¥æ" type="text" value=""/>
<span class="input-group-addon">
<span class="glyphicon glyphicon-calendar"></span>
<!--<img src="img/query/rili.png"/>-->
</span>
</div>
<div class="inputTip">
<span id="check_tip_kprq"></span>
</div>
</div>
<div class="form-group" id="bhsjejymform">
<label class="col-xs-2 control-label" for="bhsje_id">ä¸å«ç¨ä»·</label>
<div class="col-xs-10 input_wrap">
<input class="form-control" id="bhsje_id" maxlength="30" name="search_bhsje" placeholder="è¯·è¾å¥ä¸å«ç¨éé¢" type="text" value=""/>
<div class="inputStatusIcon"></div>
</div>
</div>
<div class="form-group">
<label class="col-xs-2 control-label letterSpacing1" for="yzm_id">éª è¯ ç </label>
<div class="col-xs-6 input_wrap">
<input class="form-control" id="yzm_id" maxlength="4" name="search_yzm" placeholder="è¯·è¾å¥éªè¯ç " type="text" value=""/>
<div class="inputStatusIcon"></div>
</div>
<div class="col-xs-4">
<img border="0" height="32px" id="getCheckValidCode" src="img/code.png" style="cursor:pointer; right:0;top:0;position: absolute;border-radius: 5px;" title="çä¸æ¸æ¥ï¼ç¹å»å·æ°" width="145px"/>
</div>
</div>
<input id="check_skip" type="hidden" value="0"/>
<div class="query_btn" id="check">
<span>æ¥  éª</span>
</div>
</div>
</form>
</div>
<!--æºè½ç¼ç -->
<div class="queryWinInner" id="queryGoodsCode" style="display: none;">
<form action="#" class="form-horizontal" id="indexQueryGoodsCodeForm" method="post">
<div class="queryGoodsCodeSwitch">
<div class="querySw_btn btn_on">
<p><span>åååç§°æ¥è¯¢</span></p>
<img height="9px" src="img/query/sanjiaoxing.png" width="24px"/>
</div>
<div class="querySw_btn">
<p><span>ç¼ç æ¥è¯¢</span></p>
<img height="9px" src="img/query/sanjiaoxing.png" width="24px"/>
</div>
</div>
<div class="form-container" id="spmcForm" style="display: block;">
<div class="form-group inputFirst" style="margin-top: 75px;">
<label class="col-xs-2 control-label" for="spmc_id" style="position: relative;">åååç§°<span style="color: red;margin-left: 5px;position: absolute;">*</span></label>
<div class="col-xs-10 input_wrap">
<input class="form-control" id="spmc_id" name="search_spmc" placeholder="è¯·è¾å¥åååç§°" type="text" value=""/>
<div class="inputStatusIcon"></div>
</div>
</div>
<div class="form-group" style="margin-top: 24px;">
<label class="col-xs-2 control-label" for="spdw_id">åååä½</label>
<div class="col-xs-10 input_wrap">
<input class="form-control" id="spdw_id" name="search_spdw" placeholder="è¯·è¾å¥åååä½" type="text" value=""/>
<div class="inputStatusIcon"></div>
</div>
</div>
<div class="form-group" style="margin-top: 24px;">
<label class="col-xs-2 control-label" for="ggxh_id">è§æ ¼åå·</label>
<div class="col-xs-10 input_wrap">
<input class="form-control" id="ggxh_id" name="search_ggxh" placeholder="è¯·è¾å¥è§æ ¼åå·" type="text" value=""/>
<div class="inputStatusIcon"></div>
</div>
</div>
<div class="form-group" style="margin-top: 24px;">
<label class="col-xs-2 control-label letterSpacing1" for="queryGoods_yzm_id" style="position: relative;">éª è¯ ç <span style="color: red;margin-left: 5px;position: absolute;">*</span></label>
<div class="col-xs-6 input_wrap">
<input class="form-control" id="queryGoods_yzm_id" maxlength="4" name="search_yzm" placeholder="è¯·è¾å¥éªè¯ç " type="text" value=""/>
<div class="inputStatusIcon"></div>
</div>
<div class="col-xs-4">
<img border="0" height="32px" id="getValidCodeId" src="img/code.png" style="cursor:pointer; right:0;top:0;position: absolute;border-radius: 5px;" title="çä¸æ¸æ¥ï¼ç¹å»å·æ°" width="145px"/>
</div>
</div>
<input id="queryGoodsCodeIndexFlag" type="hidden" value="1"/>
<div class="query_btn" id="queryGoodsCodeBtn" style="margin-top: 52px;">
<span>æ¥  è¯¢</span>
</div>
</div>
<div class="form-container" id="spbmForm" style="display: none;">
<div class="form-group inputFirst" style="margin-top: 100px;">
<label class="col-xs-2 control-label" for="spbm_id" style="position: relative;">ååç¼ç <span style="color: red;margin-left: 5px;position: absolute;">*</span></label>
<div class="col-xs-10 input_wrap">
<input class="form-control" id="spbm_id" maxlength="19" name="search_spbm" placeholder="è¯·è¾å¥19ä½ååç¼ç " type="text" value=""/>
<div class="inputStatusIcon"></div>
</div>
</div>
<div class="form-group" style="margin-top: 50px;">
<label class="col-xs-2 control-label letterSpacing1" for="validCode_id" style="position: relative;">éª è¯ ç <span style="color: red;margin-left: 5px;position: absolute;">*</span></label>
<div class="col-xs-6 input_wrap">
<input class="form-control" id="validCode_id" maxlength="4" placeholder="è¯·è¾å¥éªè¯ç " type="text" value=""/>
<div class="inputStatusIcon"></div>
</div>
<div class="col-xs-4">
<img border="0" height="32px" id="getYzm" src="img/code.png" style="cursor:pointer; right:0;top:0;position: absolute;border-radius: 5px;" title="çä¸æ¸æ¥ï¼ç¹å»å·æ°" width="145px"/>
</div>
</div>
<div class="query_btn" id="queryGoodsNameBtn" style="margin-top: 117px;">
<span>æ¥  è¯¢</span>
</div>
</div>
</form>
</div>
</div>
</div>
</div>
</div>
</div>
<!--åç¥¨æ¥è¯¢ç»æ-->
<!--
    	æ¶é´ï¼2017-04-07
    	æè¿°ï¼è§£å³æ¹æ¡
    -->
<div class="container-fluid" style="background-image: url(img/solbackground.png);height: 500px;">
<div class="container" style="">
<div class="row" style="margin-top: 20px;">
<div style="margin: 0 auto;text-align: center;width: 200px;">
<p class="partTitle1">
<span>è§£å³æ¹æ¡</span>
</p>
<div class="partLine1"></div>
</div>
</div>
<div class="row" style="margin-top: 35px;margin-left: 82px;width: 1017px;height: 166px;">
<div class="col-xs-6 solPart" style="width: 502px;background-color: white;">
<div class="col-xs-4 solImg">
<img class="sol_mg1" src="img/dianshang-normal.png"/>
<img class="sol_mg2" src="img/dianshang_mouseOn.png"/>
</div>
<div class="col-xs-8">
<div class="row" style="height: 47px;width: 330px;position: relative;">
<div style="margin-top: 13px;margin-left: 5px;">
<p style="font-size: 24px; color: #136F89;">çµå</p>
</div>
<div class="solMore" onclick="window.open('solution/solution.html?sol=1','_self')" style="">
<p style="">è¯¦æäºè§£</p>
<img src="img/liaojiexiangqing.png" style=""/>
</div>
</div>
<row style="height:2px ; width: 320px;margin-top: 9px;">
<div style="height: 2px;width: 320px;background-color:#4783b6;margin-left: -7px;"></div>
</row>
<div class="row" style="margin-top:10px ;padding-left:24px ;">
<p style="font-size: 16px; color: #136F89;margin-right: 35px;margin-left:-14px ;">èçåç¥¨ææ¬ï¼æé«åç¥¨å¤çæçï¼å¢å¼ºç¨æ·ä½éª</p>
</div>
</div>
</div>
<div class="col-xs-6 solPart" style="width: 502px;background-color: white;margin-left: 13px;">
<div class="col-xs-4 solImg">
<img class="sol_mg1" src="img/shangchao-normal.png"/>
<img class="sol_mg2" src="img/shangchang_mouseOn.png"/>
</div>
<div class="col-xs-8">
<div class="row" style="height: 47px;width: 330px;position: relative;">
<div style="margin-top: 13px;margin-left: 5px;">
<p style="font-size: 24px; color: #16765a;">åè¶</p>
</div>
<div class="solMore" onclick="window.open('solution/solution.html?sol=2','_self')" style="">
<p style="">è¯¦æäºè§£</p>
<img src="img/liaojiexiangqing.png" style=""/>
</div>
</div>
<row style="height:2px ; width: 320px;margin-top: 9px;">
<div style="height: 2px;width: 320px;background-color:#16765a;margin-left: -7px;"></div>
</row>
<div class="row" style="margin-top:10px ;padding-left:24px ;">
<p style="font-size: 16px; color: #16765a;margin-right: 35px;margin-left:-14px;text-align: justify;">å¨äº¤æç¨æ§ééï¼å¢å¼ç¨åç¥¨çº¸çµä¸ä½åï¼å®ç°çµå­åç¥¨å¼å·ï¼çº¿ä¸ãçº¿ä¸ï¼ï¼çµå­åç¥¨äº¤ä»ãå½éæ¥éªãæ¥éç­é­ç¯ä¸å¡æµç¨ã</p>
</div>
</div>
</div>
</div>
<div class="row" style="margin-top: 13px;margin-left: 82px;width: 1017px;height: 166px;">
<div class="col-xs-6 solPart" style="width: 502px;background-color: white;">
<div class="col-xs-4 solImg">
<img class="sol_mg1" src="img/wuliu-normal.png"/>
<img class="sol_mg2" src="img/wuliu_mouseOn.png"/>
</div>
<div class="col-xs-8">
<div class="row" style="height: 47px;width: 330px;position: relative;">
<div style="margin-top: 13px;margin-left: 5px;">
<p style="font-size: 24px; color: #658022;">ç©æµå¿«é</p>
</div>
<div class="solMore" onclick="window.open('solution/solution.html?sol=4','_self')" style="">
<p style="">è¯¦æäºè§£</p>
<img src="img/liaojiexiangqing.png" style=""/>
</div>
</div>
<row style="height:2px ; width: 320px;margin-top: 9px;">
<div style="height: 2px;width: 320px;background-color:#658022;margin-left: -7px;"></div>
</row>
<div class="row" style="margin-top:10px ;padding-left:24px ;">
<p style="font-size: 16px; color: #658022;margin-right: 35px;margin-left:-14px;text-align: justify;">çµå­åç¥¨éå¯¹åè®®å®¢æ·ï¼æ¯æå®æéä¸­å¼ç¥¨ï¼ä»¥é®ä»¶å½¢å¼æ¨éï¼å®ææåº¦ç»ç®ï¼éå¯¹æ£æ·ï¼å®ç°å³æ¶å¼å·ï¼å³æ¶é¢åçµå­åç¥¨ï¼çæ¶çååçå¿ã</p>
</div>
</div>
</div>
<div class="col-xs-6 solPart" style="width: 502px;background-color: white;margin-left: 13px;">
<div class="col-xs-4 solImg">
<img class="sol_mg1" src="img/tingche-normal.png"/>
<img class="sol_mg2" src="img/tingche-mouseOn.png"/>
</div>
<div class="col-xs-8">
<div class="row" style="height: 47px;width: 330px;position: relative;">
<div style="margin-top: 13px;margin-left: 5px;">
<p style="font-size: 24px; color: #3F9738;">åè½¦åº</p>
</div>
<div class="solMore" onclick="window.open('solution/solution.html?sol=3','_self')" style="">
<p style="">è¯¦æäºè§£</p>
<img src="img/liaojiexiangqing.png" style=""/>
</div>
</div>
<row style="height:2px ; width: 320px;margin-top: 9px;">
<div style="height: 2px;width: 320px;background-color:#3F9738;margin-left: -7px;"></div>
</row>
<div class="row" style="margin-top:10px ;padding-left:24px ;">
<p style="font-size: 16px; color: #3F9738;margin-right: 35px;margin-left:-14px;text-align: justify;">éç¨çµå­æ¶è´¹ç®¡çç³»ç»å®ç°çµå­ç¼´è´¹ï¼ç¨æ§è®¾å¤éä¸­é¨ç½²å®ç°çµå­åç¥¨æ¶éãç³é¢ãå¼å·ãè·åæ´ä¾¿æ·ã</p>
</div>
</div>
</div>
</div>
</div>
</div>
<!--è§£å³æ¹æ¡ç»æ-->
<!--
  	ä½èï¼offline
  	æ¶é´ï¼2017-04-17
  	æè¿°ï¼äº§åæ¹æ¡
  -->
<div class="container-fluid" style="height:497px;background-image: url(img/beijingtu.png);">
<div class="container" style="width: 1200px; ">
<div class="row" style="margin-top: 20px;">
<div style="margin: 0 auto;text-align: center;width: 200px;">
<p class="partTitle2">
<span>äº§åæ¹æ¡</span>
</p>
<div class="partLine2"></div>
</div>
</div>
<div class="row" style="height: 348px;padding-left: 36px;padding-right: 41px;padding-top:30px">
<!--<div style="width: 360px;height: 240px;margin-left: 0px;">
	  		   		<div class="cp_Img" onclick="window.open('production/product.html?prod=2','_self')">
	  		   			<img class="cp_Img1" src="img/fang_an/yunkaipiao-normal.png" />
	  		   		</div>
	  		   	</div>
	  		   	<div >
	  		   		<div style="margin-top: 30px;">
	  		   			<p style="font-size: 18px;color: #4e4e4e;margin-left: 135px;">ãäºå¼ç¥¨ã</p>
	  		   		</div>
	  		   		<div style="margin-top: 18px; margin-left: auto;margin-right: auto;padding-left: 10px;padding-right: 10px;">
	  		   			<p style="font-size: 16px;color: #4e4e4e;">ææºç«¯å¼å·æ¥è¯¢çµå­åç¥¨ï¼å°½æ¾æéå¼ç¥¨ä½éªã</p>
	  		   		</div>
	  		   	</div>-->
<div style="width: 360px;height: 240px;margin-left: 60px;">
<div class="cp_Img" onclick="window.open('production/product.html?prod=3','_self')">
<img class="cp_Img1" src="img/fang_an/daijikaipiao-normal.png"/>
</div>
</div>
<div>
<div style="margin-top: 30px;">
<p style="font-size: 18px;color: #4e4e4e;margin-left: 187px;">ãåæºå¼ç¥¨ã</p>
</div>
<div style="margin-top: 18px; margin-left: 80px;margin-right: auto;padding-left: 10px;padding-right: 10px;">
<p style="font-size: 16px;color: #4e4e4e;">å¢å¼ç¨åç¥¨å¼å·ä¸å®¶ï¼ä¸­å°ä¼ä¸çå¼ç¥¨å©å¨ã</p>
</div>
</div>
<!--<div style="width: 360px;height: 240px;margin-left: 381px;margin-top: -335px;" >
	  		   		<div class="cp_Img" onclick="window.open('production/product.html?prod=3','_self')">
	  		   			<img class="cp_Img1" src="img/fang_an/daijikaipiao-normal.png" />
	  		   		</div>
	  		   	</div>
	  		   		<div>
	  		   			<div style="margin-top: 30px; margin-left: 510px;">
	  		   			<p style="font-size: 18px;color: #4e4e4e;">ãåæºå¼ç¥¨ã</p>
	  		   			</div>
	  		   			<div style="margin-top: 18px; margin-left: 380px;padding-left: 25px;padding-right: 10px;">
	  		   			<p style="font-size: 16px;color: #4e4e4e;">å¢å¼ç¨åç¥¨å¼å·ä¸å®¶ï¼ä¸­å°ä¼ä¸çå¼ç¥¨å©å¨ã</p>
	  		   			</div>
	  		   		</div>-->
<div style="width: 360px;height: 240px;margin-left: 700px;margin-top: -335px;">
<div class="cp_Img" onclick="window.open('production/product.html?prod=4','_self')">
<img class="cp_Img1" src="img/fang_an/tuoguankaipiao-normal.png"/>
</div>
</div>
<div>
<div style="margin-top: 30px; margin-left: 830px;">
<p style="font-size: 18px;color: #4e4e4e;">ãæç®¡å¼ç¥¨ã</p>
</div>
<div style="margin-top: 18px; margin-left: 725px;padding-left: 25px;padding-right: 10px;">
<p style="font-size: 16px;color: #4e4e4e;">çº¿ä¸å¼ç¥¨ï¼ç¬¬ä¸æ¶é´äº¤ä»å¢å¼ç¨åç¥¨ã</p>
</div>
</div>
<!--<div style="width: 360px;height: 240px; margin-left:762px ;margin-top: -335px" >
	  		   		<div class="cp_Img" onclick="window.open('production/product.html?prod=4','_self')">
	  		   			<img class="cp_Img1" src="img/fang_an/tuoguankaipiao-normal.png" />
	  		   		</div>
	  		   	</div>
	  		   	<div>
	  		   		<div style="margin-top: 30px;margin-left: 890px;">
	  		   			<p style="font-size: 18px;color: #4e4e4e;">ãæç®¡å¼ç¥¨ã</p>
	  		   		</div>
	  		   		<div style="margin-top: 18px; margin-left: 760px;padding-left: 50px;">
	  		   			<p style="font-size: 16px;color: #4e4e4e;">çº¿ä¸å¼ç¥¨ï¼ç¬¬ä¸æ¶é´äº¤ä»å¢å¼ç¨åç¥¨ã</p>
	  		   		</div>
	  		   	</div>-->
</div>
<div class="row" style="margin-top: 40px;">
<div class="partMore" onclick="window.open('production/product.html?prod=1','_self')">
<p>
<span style="">æ¥çæ´å¤</span>
<img height="18px" src="img/chakangengduo.png" style="margin-left: 8px;margin-top: -3px;" width="18px"/>
</p>
</div>
</div>
</div>
</div>
<!--äº§åæ¹æ¡ç»æ-->
<!--
        	æ¶é´ï¼2017-04-17
        	æè¿°ï¼å¸åæ¹æ¡
        -->
<div class="container-fluid" style="background-image: url(img/tyProj/beijingceng.png);height: 541px;position: relative;">
<div class="" style="position: absolute;bottom: 0px;left: 0px;width:25%;max-width: 444px;max-height: 356px;">
<img height="100%" src="img/tyProj/beijinghuawen.png" width="100%"/>
</div>
<div class="container">
<div class="row" style="margin-top: 20px;">
<div style="margin: 0 auto;text-align: center;width: 200px;">
<p class="partTitle1">
<span>å¸åæ¹æ¡</span>
</p>
<div class="partLine1"></div>
</div>
</div>
<div class="row">
<div class="col-xs-3">
<div class="typroj">
<div class="typrojTitle">
<p><span>ä¸­ç³å</span></p>
</div>
<div class="typrojTitleImg">
<img height="35px" src="img/tyProj/zhongshihua-kuang.png" width="100px"/>
</div>
</div>
<div class="typrojContent">
<div class="typrojImg" style="margin-top: 30px;">
<img height="198px" src="img/tyProj/zhongshihuatu.png" width="258px"/>
</div>
<div class="typrojConTitle">
<p><span>ä¸­ç³åå¢å¼ç¨åç¥¨ç®¡çé¡¹ç®</span></p>
</div>
<div class="typrojConCon">
<p>éç¨é«éç¨æ§å¼ç¥¨æå¡å¨åç½ç»çéç¨çæå¡å¨æ»¡è¶³çº¿ä¸è¥ä¸åä¸å¡å¼ç¥¨éæ±ï¼çº¿ä¸å æ²¹ç«çå¢å¼ç¨å¤ç¥¨ç§ï¼åç±»çº¸è´¨åç¥¨åçµå­åç¥¨ï¼åç¦»çº¿åç¥¨å¼å·çéæ±ã</p>
</div>
<div class="typrojKnowMore" onclick="window.open('typical/typical.html?typ=1','_self')">
<p>
<span>è¯¦æäºè§£</span>
<img class="typrojImg1" height="12px" src="img/tyProj/xiangqingliaojie.png" style="margin-top:-3px;" width="12px"/>
<img class="typrojImg2" height="12px" src="img/liaojiexiangqing.png" style="margin-top:-3px;" width="12px"/>
</p>
</div>
</div>
</div>
<div class="col-xs-3">
<div class="typroj">
<div class="typrojTitle">
<p><span>ä¸­å½ç§»å¨</span></p>
</div>
<div class="typrojTitleImg">
<img height="35px" src="img/tyProj/zhongyidong-kuang.png" width="100px"/>
</div>
</div>
<div class="typrojContent">
<div class="typrojImg" style="margin-top: 30px;">
<img height="198px" src="img/tyProj/zhongyidongtu.png" width="258px"/>
</div>
<div class="typrojConTitle">
<p><span>ä¸­ç§»å¨çµå­åç¥¨ç³»ç»é¡¹ç®</span></p>
</div>
<div class="typrojConCon">
<p>éç¨é«æ§è½ç¨æ§å¼ç¥¨è®¾å¤ï¼åæ¨¡åæ¯ç§100å¼ æ°æ®éï¼å¯ä»¥å¤çPBçº§ï¼èªä¿¡å¨å½ç¨åè¶å°ç¥¨æ°æ®å¤ç2000äº¿/å¹´ï¼æ¡æ°æ®æ°æ®æºï¼ç»æåãåç»æååéç»æåæ°æ®ï¼åè¶å°ç¥¨æ°æ®ï¼è½å¤æ»¡è¶³ç§»å¨æ¯å¹´å¼å·20äº¿å¼ åç¥¨çéæ±ã</p>
</div>
<div class="typrojKnowMore" onclick="window.open('typical/typical.html?typ=4','_self')">
<p>
<span>è¯¦æäºè§£</span>
<img class="typrojImg1" height="12px" src="img/tyProj/xiangqingliaojie.png" style="margin-top:-3px;" width="12px"/>
<img class="typrojImg2" height="12px" src="img/liaojiexiangqing.png" style="margin-top:-3px;" width="12px"/>
</p>
</div>
</div>
</div>
<div class="col-xs-3">
<div class="typroj">
<div class="typrojTitle">
<p><span>äº¬ä¸</span></p>
</div>
<div class="typrojTitleImg">
<img height="35px" src="img/tyProj/jingdong-kuang.png" width="100px"/>
</div>
</div>
<div class="typrojContent">
<div class="typrojImg" style="margin-top: 30px;">
<img height="198px" src="img/tyProj/jingdongtu.png" width="258px"/>
</div>
<div class="typrojConTitle">
<p><span>äº¬ä¸å¢å¼ç¨çµå­åç¥¨ç®¡çé¡¹ç®</span></p>
</div>
<div class="typrojConCon">
<p>éç¨å¤§æ°æ®ç³»ç»ï¼å­å¨æµ·éåç¥¨æ°æ®åçå¼æä»¶ï¼æ»¡è¶³æ¥å¼ç¥¨å³°å¼400ä¸å¼ å¤çï¼æä¾ç§çº§æ¥è¯¢ååç¥¨æ¨éæå¡ã</p>
</div>
<div class="typrojKnowMore" onclick="window.open('typical/typical.html?typ=7','_self')">
<p>
<span>è¯¦æäºè§£</span>
<img class="typrojImg1" height="12px" src="img/tyProj/xiangqingliaojie.png" style="margin-top:-3px;" width="12px"/>
<img class="typrojImg2" height="12px" src="img/liaojiexiangqing.png" style="margin-top:-3px;" width="12px"/>
</p>
</div>
</div>
</div>
<div class="col-xs-3">
<div class="typroj">
<div class="typrojTitle">
<p><span>éº¦å½å³/ç¾è</span></p>
</div>
<div class="typrojTitleImg">
<img height="35px" src="img/tyProj/maidanglao-kuang.png" width="100px"/>
</div>
</div>
<div class="typrojContent">
<div class="typrojImg" style="margin-top: 30px;">
<img height="198px" src="img/tyProj/maidanglaotu.png" width="258px"/>
</div>
<div class="typrojConTitle">
<p><span>éº¦å½å³/ç¾èå¢å¼ç¨çµå­åç¥¨ç³»ç»é¡¹ç®</span></p>
</div>
<div class="typrojConCon">
<p>éç¨äº¤æå°ç¥¨æå°äºç»´ç ï¼å¼ç¥¨æ«ç ï¼å®¢æ·ä¿¡æ¯èªå¨ä¿å­ï¼åå°éå¤å½å¥ï¼ä¸ºç¨æ§è®¾å¤éä¸­é¨ç½²çåç¥¨ç³»ç»ç®¡çé¡¹ç®ã</p>
</div>
<div class="typrojKnowMore" onclick="window.open('typical/typical.html?typ=3','_self')">
<p>
<span>è¯¦æäºè§£</span>
<img class="typrojImg1" height="12px" src="img/tyProj/xiangqingliaojie.png" style="margin-top:-3px;" width="12px"/>
<img class="typrojImg2" height="12px" src="img/liaojiexiangqing.png" style="margin-top:-3px;" width="12px"/>
</p>
</div>
</div>
</div>
</div>
</div>
</div>
<!--å¸åæ¹æ¡ç»æ-->
<!--
    	æ¶é´ï¼2017-04-06
    	æè¿°ï¼å¸åå®¢æ·
    -->
<div class="container-fluid" style="background-image: url(img/beijingtu.png);">
<div class="container">
<div class="row" style="margin-top: 20px;">
<div style="margin: 0 auto;text-align: center;width: 200px;">
<p class="partTitle2">
<span>å¸åå®¢æ·</span>
</p>
<div class="partLine2"></div>
</div>
</div>
<div class="row" style="position: relative;">
<div class="cliContainer" style="">
<div class="" id="cli" style="width: 3870px;">
<img height="400px" src="img/cli1.png" width="964px"/>
<img height="400px" src="img/cli2.png" width="964px"/>
<img height="400px" src="img/cli3.png" width="964px"/>
<img height="400px" src="img/cli4.png" width="964px"/>
</div>
</div>
<div class="cliLeft" id="cliLeftCtr">
</div>
<div class="cliRight" id="cliRightCtr">
</div>
</div>
<!--<div class="row" style="margin-top: 20px;">
				<div class="partMore">
					<p>
						<span style="">æ¥çæ´å¤</span>
						<img src="img/chakangengduo.png" width="18px" height="18px" style="margin-left: 10px;" />
					</p>
				</div>
			</div>-->
</div>
</div>
<!--å¸åæ¡ä¾ç»æ-->
<!--
        	æ¶é´ï¼2017-04-05
        	æè¿°ï¼ç½é¡µåºé¨
        -->
<div class="container-fluid" style="background-color: #DADADA;">
<!--åºé¨å¯¼èª-->
<!--<div style="background-color: #f2f2f2;">-->
<div class="container">
<div class="row" style="height: 295px;">
<div class="footerNavLeft" style="">
<div class="footerItem" style="text-align: center;">
<p><span class="footerTitle">è§£å³æ¹æ¡</span></p>
<p><span class="footerContent" onclick="window.open('solution/solution.html?sol=1','_self')">çµå</span></p>
<p><span class="footerContent" onclick="window.open('solution/solution.html?sol=2','_self')">åè¶</span></p>
<p><span class="footerContent" onclick="window.open('solution/solution.html?sol=4','_self')">ç©æµå¿«é</span></p>
<p><span class="footerContent" onclick="window.open('solution/solution.html?sol=3','_self')">åè½¦åº</span></p>
<p><span class="footerContent" onclick="window.open('solution/solution.html?sol=5','_self')">çè</span></p>
<p><span class="footerContent" onclick="window.open('solution/solution.html?sol=6','_self')">å¬å±äºä¸</span></p>
</div>
<div class="footerItem" style="text-align: center;">
<p><span class="footerTitle">å¸åæ¡ä¾</span></p>
<p><span class="footerContent" onclick="window.open('typical/typical.html?typ=1','_self')">ä¸­ç³å</span></p>
<p><span class="footerContent" onclick="window.open('typical/typical.html?typ=2','_self')">å½ç¾</span></p>
<p><span class="footerContent" onclick="window.open('typical/typical.html?typ=3','_self')">éº¦å½å³</span></p>
<p><span class="footerContent" onclick="window.open('typical/typical.html?typ=4','_self')">ä¸­å½ç§»å¨</span></p>
<p><span class="footerContent" onclick="window.open('typical/typical.html?typ=5','_self')">DHL</span></p>
<p><span class="footerContent" onclick="window.open('typical/typical.html?typ=6','_self')">èå®</span></p>
<p><span class="footerContent" onclick="window.open('typical/typical.html?typ=7','_self')">äº¬ä¸</span></p>
<p><span class="footerContent" onclick="window.open('typical/typical.html?typ=8','_self')">åèçµå</span></p>
</div>
<div class="footerItem" style="text-align: center;">
<p><span class="footerTitle">äº§åä»ç»</span></p>
<!--<p><span class="footerContent" onclick="window.open('production/product.html?prod=1','_self')">äº¤æå³å¼ç¥¨</span></p>-->
<!--<p><span class="footerContent" onclick="window.open('production/product.html?prod=2','_self')">äºå¼ç¥¨</span></p>-->
<p><span class="footerContent" onclick="window.open('production/product.html?prod=3','_self')">åæºå¼ç¥¨</span></p>
<p><span class="footerContent" onclick="window.open('production/product.html?prod=4','_self')">æç®¡å¼ç¥¨</span></p>
<p><span class="footerContent" onclick="window.open('production/product.html?prod=5','_self')">æ«ç å¼ç¥¨</span></p>
<p><span class="footerContent" onclick="window.open('production/product.html?prod=6','_self')">æ«ç é¢ç¥¨</span></p>
</div>
<div class="footerItem" style="text-align: center;">
<p><span class="footerTitle">ä¼ä¸æ¥å¥</span></p>
<p><span class="footerContent" onclick="window.open('access/access.html?access=1','_self')">APIåè¡¨</span></p>
<!--<p><span class="footerContent" onclick="window.open('access/access.html?access=2','_self')">ä¼ä¸æ¥å¥æµç¨</span></p>-->
</div>
<div class="footerItem" style="text-align: center;">
<p><span class="footerTitle">æ¿ç­èµè®¯</span></p>
<p><span class="footerContent" onclick="window.open('policyInformation/policyInformation.html?policy=1','_self')">ææ°èµè®¯</span></p>
<p><span class="footerContent" onclick="window.open('policyInformation/policyInformation.html?policy=2','_self')">æ¿ç­æ³è§</span></p>
</div>
<div class="footerItem" style="text-align: center;margin-right: 0;">
<p><span class="footerTitle">åæé¾æ¥</span></p>
<p><span class="footerContent" onclick="window.open('http://www.aisino.com','_blank')">èªå¤©ä¿¡æ¯è¡ä»½æéå¬å¸</span></p>
<p><span class="footerContent" onclick="window.open('http://www.cnnsr.com.cn','_blank')">çº³ç¨æå¡ç½</span></p>
</div>
</div>
<div class="footerNavRight" style="margin-bottom: 10px;border-left: solid #d1d1d1 2px;">
<div style="margin-left:65px">
<p><span class="footerTitle">èç³»æä»¬</span></p>
<p style="margin-top: 15px;">
<img height="14px" src="img/dianhua.png" width="14px"/>
<span class="footerContent">   å¨å½ç­çº¿çµè¯  95113</span></p>
<p style="margin-top: 8px;">
<img height="14px" src="img/chuanzhen.png" width="14px"/>
<span class="footerContent">   ï¼86 10 88896888</span></p>
<p style="margin-top: 8px;">
<img height="14px" src="img/dizhi.png" width="14px"/>
<span class="footerContent">   åäº¬å¸æµ·æ·åºæç³å£è·¯èªå¤©ä¿¡æ¯å­</span></p>
<!--<p style="margin-top: 8px;line-height: 40px;">
								<div class="xinlangIcon"></div>
								 &nbsp;&nbsp;&nbsp;&nbsp;&nbsp;
								 &nbsp;&nbsp;&nbsp;&nbsp;&nbsp;
								<div class="qqIcon"></div>
								<img src="img/xinlang.png" width="29px" height="29px" />
								<img src="img/QQ.png" width="29px" height="29px" />
								<img src="img/weixin.png" width="29px" height="29px" />
							</p>-->
<div style="margin-top: 15px;position:relative">
<!--<img src="img/ewm.jpg" width="63px" height="64px" /> &nbsp;&nbsp;&nbsp;&nbsp;&nbsp;-->
<img height="64px" src="img/ewm.jpg" width="63px"/>
<div class="weixinIcon"></div>
</div>
</div>
</div>
</div>
</div>
<!--</div>-->
<!--åºé¨æå­-->
<div style="height: 60px;background-color: #4e4e4e;text-align: center;color: #FFFFFF;">
<p style="line-height: 60px;font-size: 12px;font-family: 'Arial Normal', 'Arial';font-weight: 400;font-style: normal;">äº¬ICPè¯040008å·   äº¬ICPå¤11015116å·   äº¬å¬ç½å®å¤11040102100148å·     Â©çæææï¼èªå¤©ä¿¡æ¯è¡ä»½æéå¬å¸</p>
</div>
</div>
<!--ç½é¡µåºé¨ç»æ-->
<script charset="utf-8" src="js/jquery.min.js" type="text/javascript"></script>
<script charset="utf-8" src="js/bootstrap.min.js" type="text/javascript"></script>
<script charset="utf-8" src="js/layer/layer.js" type="text/javascript"></script>
<!--åé¡µé¢éç¨js-->
<script charset="utf-8" src="js/common.js" type="text/javascript"></script>
<!--é¦é¡µjsåè¿é-->
<script charset="utf-8" src="js/51index.js" type="text/javascript"></script>
<script charset="UTF-8" src="js/bootstrap-datetimepicker.js" type="text/javascript"></script>
<script charset="UTF-8" src="js/bootstrap-datetimepicker.zh-CN.js" type="text/javascript"></script>
<script charset="UTF-8" src="js/fpcx/smartCode.js" type="text/javascript"></script>
<!-- HTML5 Shim and Respond.js IE8 support of HTML5 elements and media queries -->
<!--[if lt IE 9]>
		  <script src="http://apps.bdimg.com/libs/html5shiv/3.7/html5shiv.min.js"></script>
		  <script src="http://apps.bdimg.com/libs/respond.js/1.4.2/respond.min.js"></script>
		<![endif]-->
<script id="eleInvFree" type="text/html">
			<style type="text/css">
				.eleInvFreeContent{
					width: 550px;
					margin: 0 auto;
					margin-top: 12px;
				}
				.eleInvFreeContent p{
				    text-indent: 30px;
				    line-height: 28px;
				    font-size: 16px;
				}
				.eleInvFreeContent .alignRight{
					text-align: right;
				}
			</style>
			<div class="eleInvFreeContent">
				<p>ä¸ºè´¯å½»å½å®¶âæ·±åå¢å¼ç¨æ¹é©âè¦æ±ï¼æ»¡è¶³çº³ç¨äººä½¿ç¨å¢å¼ç¨çµå­æ®éåç¥¨çéæ±ï¼è½å®ãå³äºè¿ä¸æ­¥åå¥½å¢å¼ç¨çµå­æ®éåç¥¨æ¨è¡å·¥ä½çæå¯¼æè§ãï¼ç¨æ»åã2017ã31å·ï¼çæä»¶ç²¾ç¥ï¼è¿ä¸æ­¥éä½çº³ç¨äººç»è¥ææ¬ï¼èªå¤©ä¿¡æ¯è¡ä»½æéå¬å¸ééå£°æï¼</p>
				<p>51åç¥¨å¹³å°å°æ ¹æ®ç»ä¸çç®¡çå¶åº¦ï¼ä¸ºç¨æ·åè´¹æä¾çµå­åç¥¨çå¼æä»¶ççæ(å«çµå­ç­¾ç« )ãæå°ãæ¥è¯¢åäº¤ä»ç­åºç¡æå¡ï¼å¹¶ä¸¥æ ¼è¦æ±æå¡åä¸å¾ä»¥ä»»ä½åä¹æ¶åä¸è¿°åºç¡æå¡è´¹ç¨ã</p>
				<p>51åç¥¨å¹³å°æ¯å¨å½ææ©ä»äºçµå­åç¥¨æå¡çç¬¬ä¸æ¹æå¡å¹³å°ä¹ä¸ï¼ä¹æ¯å®å¨ä½¿ç¨èªæç¥è¯äº§æççµå­åç¥¨æå¡å¹³å°ï¼å¹¶éè¿ä¿¡æ¯å®å¨ç­çº§ä¿æ¤ä¸çº§å¤æ¡ã51åç¥¨å¹³å°å®ç°çµå­åç¥¨ä»å¼å·ãæµè½¬å°æ¥éå¥è´¦çå¨çå½å¨æç®¡çï¼é¢åç¨æ·æä¾ä¾¿æ·é«æçåºæ¯åçµå­åç¥¨æå¡ã</p>
				<p>æè°¢å¹¿å¤§ç¨æ·å¯¹51åç¥¨å¹³å°åèªå¤©ä¿¡æ¯çæ¯æï¼</p>
				<br />
				<p>å¨å½ç»ä¸æå¡ç­çº¿ï¼95113</p>
				<br />
				<p class="alignRight">èªå¤©ä¿¡æ¯è¡ä»½æéå¬å¸</p>
				<p class="alignRight">2019å¹´5æ8æ¥</p>
			</div>
			<div class="layui-layer-btn" style="margin-top: 8px;">
				<a class="layui-layer-btn1" onclick="localStorage.setItem('eleInvFree','noTip');">ä¸åæç¤º</a>
				<a class="layui-layer-btn0">ç¡®å®</a>
			</div>
		</script>
</body>
</html>
