<html><body><p>ï»¿ <!DOCTYPE html PUBLIC "-//W3C//DTD XHTML 1.0 Transitional//EN" "http://www.w3.org/TR/xhtml1/DTD/xhtml1-transitional.dtd">

</p>
<title>ç¾å½ä¹é³-VOAå¬åä¸è½½,æ¢éè±è¯­,å¸¸éè±è¯­,VOAè§é¢</title>
<meta content="text/html; charset=utf-8" http-equiv="Content-Type"/>
<meta content="all" name="robots"/>
<meta content="VOA,ç¾å½ä¹é³,æ¢éè±è¯­,å¸¸éè±è¯­,VOAè§é¢" name="keywords"/>
<meta content="VOA,ç¾å½ä¹é³,å¬åä¸è½½." name="description"/>
<meta content="no-siteapp" http-equiv="Cache-Control"/>
<meta content="format=html5;url=http://m.51voa.com/" name="mobile-agent"/>
<link href="/common/2013.css" rel="stylesheet" type="text/css"/>
<link href="/voa.xml" rel="alternate" title="RSS 2.0" type="application/rss+xml"/>
<link href="/images/favorite.ico" rel="shortcut icon" type="image/x-icon"/>
<script src="/js/uaredirect.js" type="text/javascript"></script><script type="text/javascript">uaredirect("https://m.51voa.com","https://www.51voa.com");</script>
<div id="logo"><a href="/"><img alt="VOAç¾å½ä¹é³" height="34" src="/images/voa.gif" width="172"/></a></div>
<div id="nav"><a href="/" title="VOA"><b>VOAç¾å½ä¹é³å¬åä¸è½½</b></a>ï¼ç¾å¼è±è¯­å­¦ä¹ ç½ç«</div> <div id="notice"></div>
<div id="main_box">
<div id="left_nav">
<div class="left_nav_title"><a href="/VOA_Standard_English/">VOAå¸¸éè±è¯­</a></div>
<ul>
<li><a href="/VOA_Standard_1.html">VOAå¸¸éè±è¯­ææ°(2015-2021)  <img border="0" height="9" src="/images/new.gif" width="19"/></a></li>
<li><a href="/VOA_Standard_1_archiver.html">VOAå¸¸éè±è¯­å­æ¡£(2008-2014)</a></li>
</ul>
<div class="left_nav_title"><a href="/VOA_Special_English/">VOAæ¢éè±è¯­</a></div>
<ul>
<li><a href="/Technology_Report_1.html">Technology Report ç§ææ¥é</a></li>
<li><a href="/This_is_America_1.html">This is America ä»æ¥ç¾å½</a></li>
<li><a href="/Science_in_the_News_1.html">Science in the News ç§å­¦æ¥é</a></li>
<li><a href="/Health_Report_1.html">Health Report å¥åº·æ¥é</a></li>
<li><a href="/Education_Report_1.html">Education Report æè²æ¥é</a></li>
<li><a href="/Economics_Report_1.html">Economics Report ç»æµæ¥é</a></li>
<li><a href="/American_Mosaic_1.html">Arts &amp; Culture æåèºæ¯</a></li>
<li><a href="/In_the_News_1.html">In the News æ¶äºæ°é»</a></li>
<li><a href="/American_Stories_1.html">American Stories ç¾å½æäº</a></li>
<li><a href="/Words_And_Their_Stories_1.html">Words And Their Stories è¯æ±ææ</a></li>
<li><a href="/Trending_Today_1.html">Trending Today ä»æ¥è¶å¿</a></li>
<li><a href="/as_it_is_1.html">AS IT IS æ¢éæ°é»æå¿</a></li>
<li><a href="/Everyday_Grammar_1.html">Everyday Grammar æ¥å¸¸è¯­æ³</a></li>
<li><a href="/ask_a_teacher_1.html">Ask a Teacher åå¸ç­ç</a></li>
<li><a href="/The_Making_of_a_Nation_1.html">U.S. History ç¾å½åå²</a></li>
<li><a href="/National_Parks_1.html">America's National Parks å½å®¶å¬å­</a></li>
<li><a href="/Americas_Presidents_1.html">America's Presidents ç¾å½æ»ç»</a></li>
<li><a href="/Agriculture_Report_1.html">Agriculture Report åä¸æ¥é</a></li>
<li><a href="/Explorations_1.html">Explorations èªç¶æ¢ç´¢</a></li>
<li><a href="/People_in_America_1.html">People in America ç¾å½äººç©å¿</a></li>
</ul>
<div class="left_nav_title"><a href="/VOA_Videos/">VOAè§é¢</a></div>
<ul>
<li><a href="/Learning_English_Videos_1.html">Learning English Videos æ¢éè§é¢ </a></li>
<li><a href="/English_in_a_Minute_Videos_1.html">English in a Minute ä¸åéè±è¯­è§é¢</a></li>
<li><a href="/English_at_the_Movies_1.html">English @ the Movies å½±è§è±è¯­</a></li>
<li><a href="/News_Words_1.html">News Words æ°é»è¯æ±</a></li>
<li><a href="/Everyday_Grammar_TV_1.html">Everyday Grammar æ¥å¸¸è¯­æ³è§é¢</a></li>
</ul>
<div class="left_nav_title"><a href="/VOA_English_Learning/">VOAè±è¯­æå­¦</a></div>
<ul>
<li><a href="/Bilingual_News_1.html">Bilingual News åè¯­æ°é»</a></li>
<li><a href="/Learn_A_Word_1.html">Learn A Word å­¦ä¸ªè¯</a></li>
<li><a href="/Words_And_Idioms_1.html">Words And Idioms ç¾å½ä¹ æ¯ç¨è¯­</a></li>
<li><a href="/English_in_a_Minute_1.html">English in a Minute ä¸åéè±è¯­é³é¢</a></li>
<li><a href="/How_American_English_1.html">How to Say it ç¾è¯­æä¹è¯´</a></li>
<li><a href="/Business_Etiquette_1.html">Business Etiquette åå¡ç¤¼èç¾è¯­</a></li>
<li><a href="/American_English_Mosaic_1.html">American English Mosaic ç¾è¯­è®­ç»ç­</a></li>
<li><a href="/Popular_American_1.html">Popular American æµè¡ç¾è¯­</a></li>
<li><a href="/Sports_English_1.html">Sports English ä½è²ç¾è¯­</a></li>
<li><a href="/Go_English_1.html">Go English ç¾è¯­ä¸çº§è·³</a></li>
<li><a href="/Word_Master_1.html">Wordmaster è¯æ±å¤§å¸</a></li>
<li><a href="/American_Cafe_1.html">American Cafe ç¾è¯­åå¡å±</a></li>
<li><a href="/Intermediate_American_English_1.html">Intermediate American English ä¸­çº§ç¾å½è±è¯­</a></li>
<li><a href="/President_Address_1.html">President's Address ç¾å½æ»ç»æ¼è¯´</a></li>
</ul>
<div class="left_nav_title"><a href="/Intro/">VOAèç®ä»ç»</a></div>
<ul>
<li><a href="/Intro/help.html"></a>51VOAå¬åä¸è½½ä¸å¨çº¿æ­æ¾è¯´æ</li>
<li><a href="/intro/Standard.html" target="_blank">VOAç¾å½ä¹é³å¸¸éè±è¯­èç®ä»ç»</a></li>
<li><a href="/intro/Special.html" target="_blank">VOAç¾å½ä¹é³æ¢éè±è¯­èç®ä»ç»</a></li>
<li><a href="/intro/Learning.html" target="_blank">VOAç¾å½ä¹é³è±è¯­æå­¦èç®ä»ç»</a></li>
<li><a href="/intro/wordbook.html" target="_blank">VOAæ¢éè±è¯­ç¾é³çè¯æ±æå</a></li>
</ul>
</div>
<div id="right_box">
<div id="title">VOAç¾å½ä¹é³å¬åæè¿æ´æ°ï¼æ´æ°æ¶é´ï¼2021-1-14ï¼</div>
<div id="list">
<ul><li><a href="/as_it_is_1.html" target="_blank"><font color="#E43026">[ AS IT IS ]</font></a> <a href="/lrc/202101/us-to-require-arriving-passengers-to-show-proof-of-covid-test.lrc" target="_blank"><img border="0" height="15" src="/images/lrc.gif" width="27"/></a> <a href="/VOA_Special_English/us-to-require-arriving-passengers-to-show-proof-of-covid-test-86109_1.html" target="_blank"><img border="0" height="15" src="/images/yi.gif" width="27"/></a> <a href="/VOA_Special_English/us-to-require-arriving-passengers-to-show-proof-of-covid-test-86109.html" target="_blank">US to Require Arriving Passengers to Show Proof of COVID Test  (2021/1/14)</a></li><li><a href="/Technology_Report_1.html" target="_blank"><font color="#E43026">[ Technology Report ]</font></a> <a href="/lrc/202101/animal-astronauts.lrc" target="_blank"><img border="0" height="15" src="/images/lrc.gif" width="27"/></a> <a href="/VOA_Special_English/animal-astronauts-86107.html" target="_blank">Animal Astronauts  (2021/1/14)</a></li><div id="indexright">
<script async="" src="https://pagead2.googlesyndication.com/pagead/js/adsbygoogle.js"></script>
<!-- 51_IndexPage -->
<ins class="adsbygoogle" data-ad-client="ca-pub-3585518775245612" data-ad-slot="7338344328" style="display:inline-block;width:336px;height:280px"></ins>
<script>
     (adsbygoogle = window.adsbygoogle || []).push({});
</script>
</div><li><a href="/as_it_is_1.html" target="_blank"><font color="#E43026">[ AS IT IS ]</font></a> <a href="/lrc/202101/during-the-pandemic-cuba-seeks-foreign-visitors.lrc" target="_blank"><img border="0" height="15" src="/images/lrc.gif" width="27"/></a> <a href="/VOA_Special_English/during-the-pandemic-cuba-seeks-foreign-visitors-86108.html" target="_blank">During the Pandemic, Cuba Seeks Foreign Visitors  (2021/1/14)</a></li><li><a href="/Learning_English_Videos_1.html" target="_blank"><font color="#B8860B">[ Learning English Videos ]</font></a> <a href="/VOA_Videos/january-13-2021-86111.html" target="_blank">VOA60: January 13, 2021 (2021/1/14)</a></li><li><a href="/Learning_English_Videos_1.html" target="_blank"><font color="#B8860B">[ Learning English Videos ]</font></a> <a href="/VOA_Videos/what-are-stops-86110.html" target="_blank">How to Pronounce: What Are Stops? (2021/1/14)</a></li><li><a href="/as_it_is_1.html" target="_blank"><font color="#E43026">[ AS IT IS ]</font></a> <a href="/lrc/202101/fbi-warns-of-armed-protests-across-us-ahead-of-inauguration.lrc" target="_blank"><img border="0" height="15" src="/images/lrc.gif" width="27"/></a> <a href="/VOA_Special_English/fbi-warns-of-armed-protests-across-us-ahead-of-inauguration-86105_1.html" target="_blank"><img border="0" height="15" src="/images/yi.gif" width="27"/></a> <a href="/VOA_Special_English/fbi-warns-of-armed-protests-across-us-ahead-of-inauguration-86105.html" target="_blank">FBI Warns of Armed Protests Across US Ahead of Inauguration  (2021/1/13)</a></li><li><a href="/American_Mosaic_1.html" target="_blank"><font color="#E43026">[ Arts &amp; Culture ]</font></a> <a href="/lrc/202101/pandemic-mardi-gras-no-crowds-lots-of-cake.lrc" target="_blank"><img border="0" height="15" src="/images/lrc.gif" width="27"/></a> <a href="/VOA_Special_English/pandemic-mardi-gras-no-crowds-lots-of-cake-86103.html" target="_blank">Pandemic Mardi Gras: No Crowds, Lots of Cake  (2021/1/13)</a></li><li><a href="/as_it_is_1.html" target="_blank"><font color="#E43026">[ AS IT IS ]</font></a> <a href="/lrc/202101/malaysian-researchers-make-drones-made-with-pineapple-leaves.lrc" target="_blank"><img border="0" height="15" src="/images/lrc.gif" width="27"/></a> <a href="/VOA_Special_English/malaysian-researchers-make-drones-made-with-pineapple-leaves-86102.html" target="_blank">Malaysian Researchers Make Drones From Pineapple Leaves  (2021/1/13)</a></li><li><a href="/Education_Report_1.html" target="_blank"><font color="#E43026">[ Education Report ]</font></a> <a href="/VOA_Special_English/teachers-help-students-understand-violence-at-us-capitol-86104.html" target="_blank">Teachers Help Students Understand Violence at US Capitol  (2021/1/13)</a></li><li><a href="/Learning_English_Videos_1.html" target="_blank"><font color="#B8860B">[ Learning English Videos ]</font></a> <a href="/VOA_Videos/january-12-2021-86106.html" target="_blank">VOA60: January 12, 2021 (2021/1/13)</a></li><li><a href="/Health_Report_1.html" target="_blank"><font color="#E43026">[ Health Report ]</font></a> <a href="/lrc/202101/study-pfizer-vaccine-appears-effective-against-covid-19-variants.lrc" target="_blank"><img border="0" height="15" src="/images/lrc.gif" width="27"/></a> <a href="/VOA_Special_English/study-pfizer-vaccine-appears-effective-against-covid--variants-86097_1.html" target="_blank"><img border="0" height="15" src="/images/yi.gif" width="27"/></a> <a href="/VOA_Special_English/study-pfizer-vaccine-appears-effective-against-covid--variants-86097.html" target="_blank">Study: Pfizer Vaccine Appears Effective Against COVID-19 Variants  (2021/1/12)</a></li><li><a href="/This_is_America_1.html" target="_blank"><font color="#E43026">[ This is America ]</font></a> <a href="/lrc/202101/the-capitol-attack-more-troubling-than-it-first-appeared.lrc" target="_blank"><img border="0" height="15" src="/images/lrc.gif" width="27"/></a> <a href="/VOA_Special_English/the-capitol-attack-more-troubling-than-it-first-appeared-86098.html" target="_blank">The US Capitol Attack: More Troubling than It First Appeared  (2021/1/12)</a></li><li><a href="/as_it_is_1.html" target="_blank"><font color="#E43026">[ AS IT IS ]</font></a> <a href="/lrc/202101/lawmakers-call-for-trump-s-removal.lrc" target="_blank"><img border="0" height="15" src="/images/lrc.gif" width="27"/></a> <a href="/VOA_Special_English/lawmakers-call-for-trump-s-removal-86101.html" target="_blank">US Lawmakers Call for Trump's Removal  (2021/1/12)</a></li><li><a href="/Health_Report_1.html" target="_blank"><font color="#E43026">[ Health Report ]</font></a> <a href="/VOA_Special_English/pandemic-closes-restaurants-owner-flies-to-save-dogs-86096.html" target="_blank">Pandemic Closes Restaurants, Owner Flies to Save Dogs  (2021/1/12)</a></li><li><a href="/as_it_is_1.html" target="_blank"><font color="#E43026">[ AS IT IS ]</font></a> <a href="/VOA_Special_English/pope-says-women-can-read-at-mass-but-still-cannot-be-priests-86099.html" target="_blank">Pope Says Women Can Read at Mass But Still Cannot Be Priests  (2021/1/12)</a></li><li><a href="/Learning_English_Videos_1.html" target="_blank"><font color="#B8860B">[ Learning English Videos ]</font></a> <a href="/VOA_Videos/january-11-2021-86100.html" target="_blank">VOA60: January 11, 2021 (2021/1/12)</a></li><li><a href="/Health_Report_1.html" target="_blank"><font color="#E43026">[ Health Report ]</font></a> <a href="/lrc/202101/cosmetic-surgeries-rise-in-south-korea-during-pandemic.lrc" target="_blank"><img border="0" height="15" src="/images/lrc.gif" width="27"/></a> <a href="/VOA_Special_English/cosmetic-surgeries-rise-in-south-korea-during-pandemic-86090_1.html" target="_blank"><img border="0" height="15" src="/images/yi.gif" width="27"/></a> <a href="/VOA_Special_English/cosmetic-surgeries-rise-in-south-korea-during-pandemic-86090.html" target="_blank">Cosmetic Surgeries Rise in South Korea During Pandemic  (2021/1/11)</a></li><li><a href="/Technology_Report_1.html" target="_blank"><font color="#E43026">[ Technology Report ]</font></a> <a href="/lrc/202101/japan-aims-to-launch-world-s-first-wooden-satellite.lrc" target="_blank"><img border="0" height="15" src="/images/lrc.gif" width="27"/></a> <a href="/VOA_Special_English/japan-aims-to-launch-world-s-first-wooden-satellite-86094.html" target="_blank">Japan Aims to Launch Worldâs First Wooden Satellite  (2021/1/11)</a></li><li><a href="/This_is_America_1.html" target="_blank"><font color="#E43026">[ This is America ]</font></a> <a href="/lrc/202101/you-might-be-surprised-about-the-riskiest-places-to-live-in-the-us.lrc" target="_blank"><img border="0" height="15" src="/images/lrc.gif" width="27"/></a> <a href="/VOA_Special_English/you-might-be-surprised-about-the-riskiest-places-to-live-in-the-us-86093.html" target="_blank">You Might Be Surprised about the Riskiest Places to Live in the US  (2021/1/11)</a></li><li><a href="/as_it_is_1.html" target="_blank"><font color="#E43026">[ AS IT IS ]</font></a> <a href="/VOA_Special_English/zimbabwean-girl-uses-martial-arts-to-warn-against-child-marriage-86092.html" target="_blank">Zimbabwean Girl Uses Martial Arts to Warn Against Child Marriage  (2021/1/11)</a></li><li><a href="/as_it_is_1.html" target="_blank"><font color="#E43026">[ AS IT IS ]</font></a> <a href="/VOA_Special_English/mindfulness-expert-helps-show-teaching-children-to-reduce-tension-86091.html" target="_blank">âMindfulnessâ Expert Helps Show Teaching Children to Reduce Tension  (2021/1/11)</a></li><li><a href="/Everyday_Grammar_TV_1.html" target="_blank"><font color="#B8860B">[ Everyday Grammar TV ]</font></a> <a href="/VOA_Videos/grammar-for-the-new-year-86095.html" target="_blank">Grammar for the New Year (2021/1/11)</a></li><li><a href="/Education_Report_1.html" target="_blank"><font color="#E43026">[ Education Report ]</font></a> <a href="/lrc/202101/who-is-miguel-cardona-biden-s-choice-for-education-chief.lrc" target="_blank"><img border="0" height="15" src="/images/lrc.gif" width="27"/></a> <a href="/VOA_Special_English/who-is-miguel-cardona-biden-s-choice-for-education-chief-86086_1.html" target="_blank"><img border="0" height="15" src="/images/yi.gif" width="27"/></a> <a href="/VOA_Special_English/who-is-miguel-cardona-biden-s-choice-for-education-chief-86086.html" target="_blank">Who Is Miguel Cardona, Bidenâs Choice for Education Chief?  (2021/1/10)</a></li><li><a href="/Education_Report_1.html" target="_blank"><font color="#E43026">[ Education Report ]</font></a> <a href="/lrc/202101/the-influence-of-a-non-traditional-high-school-chief.lrc" target="_blank"><img border="0" height="15" src="/images/lrc.gif" width="27"/></a> <a href="/VOA_Special_English/the-influence-of-a-non-traditional-high-school-chief-86087.html" target="_blank">The Influence of a Non-Traditional High School Chief  (2021/1/10)</a></li><li><a href="/Words_And_Their_Stories_1.html" target="_blank"><font color="#E43026">[ Words And Their Stories ]</font></a> <a href="/lrc/202101/some-say-there-s-no-smoke-without-fire.lrc" target="_blank"><img border="0" height="15" src="/images/lrc.gif" width="27"/></a> <a href="/VOA_Special_English/some-say-there-s-no-smoke-without-fire-86088.html" target="_blank">Some Say 'There's No Smoke Without Fire'  (2021/1/10)</a></li><li><a href="/as_it_is_1.html" target="_blank"><font color="#E43026">[ AS IT IS ]</font></a> <a href="/VOA_Special_English/pandemic-feeds-demand-for-backyard-chickens-86085.html" target="_blank">Pandemic Feeds Demand for Backyard Chickens  (2021/1/10)</a></li><li><a href="/English_in_a_Minute_Videos_1.html" target="_blank"><font color="#B8860B">[ English in a Minute ]</font></a> <a href="/VOA_Videos/tone-deaf-86089.html" target="_blank">Tone Deaf (2021/1/10)</a></li><li><a href="/American_Mosaic_1.html" target="_blank"><font color="#E43026">[ Arts &amp; Culture ]</font></a> <a href="/lrc/202101/dave-chappelle-to-turn-firehouse-into-comedy-space.lrc" target="_blank"><img border="0" height="15" src="/images/lrc.gif" width="27"/></a> <a href="/VOA_Special_English/dave-chappelle-to-turn-firehouse-into-comedy-space-86080_1.html" target="_blank"><img border="0" height="15" src="/images/yi.gif" width="27"/></a> <a href="/VOA_Special_English/dave-chappelle-to-turn-firehouse-into-comedy-space-86080.html" target="_blank">Dave Chappelle to Turn Firehouse into Comedy Space  (2021/1/9)</a></li><li><a href="/as_it_is_1.html" target="_blank"><font color="#E43026">[ AS IT IS ]</font></a> <a href="/lrc/202101/biewer-terrier-becomes-newest-kind-of-dog.lrc" target="_blank"><img border="0" height="15" src="/images/lrc.gif" width="27"/></a> <a href="/VOA_Special_English/biewer-terrier-becomes-newest-kind-of-dog-86081.html" target="_blank">Biewer Terrier Becomes Newest Kind of Dog  (2021/1/9)</a></li><li><a href="/ask_a_teacher_1.html" target="_blank"><font color="#E43026">[ Ask a Teacher ]</font></a> <a href="/lrc/202101/can-a-sentence-begin-with-and-or-but.lrc" target="_blank"><img border="0" height="15" src="/images/lrc.gif" width="27"/></a> <a href="/VOA_Special_English/can-a-sentence-begin-with-and-or-but-86082.html" target="_blank">Can a Sentence Begin with 'And' or 'But'?  (2021/1/9)</a></li><li><a href="/American_Stories_1.html" target="_blank"><font color="#E43026">[ American Stories ]</font></a> <a href="/VOA_Special_English/the-purloined-letter-edgar-allan-poe-86079.html" target="_blank">The Purloined Letter by Edgar Allan Poe  (2021/1/9)</a></li><li><a href="/Learning_English_Videos_1.html" target="_blank"><font color="#B8860B">[ Learning English Videos ]</font></a> <a href="/VOA_Videos/january-8-2021-86084.html" target="_blank">VOA60: January 8, 2021 (2021/1/9)</a></li><li><a href="/English_at_the_Movies_1.html" target="_blank"><font color="#B8860B">[ English @ the Movies ]</font></a> <a href="/VOA_Videos/singin-in-the-rain-86083.html" target="_blank">Singin' in the Rain (2021/1/9)</a></li><li><a href="/This_is_America_1.html" target="_blank"><font color="#E43026">[ This is America ]</font></a> <a href="/lrc/202101/congress-confirms-biden-s-win-calls-for-trump-removal.lrc" target="_blank"><img border="0" height="15" src="/images/lrc.gif" width="27"/></a> <a href="/VOA_Special_English/congress-confirms-biden-s-win-calls-for-trump-removal-86078_1.html" target="_blank"><img border="0" height="15" src="/images/yi.gif" width="27"/></a> <a href="/VOA_Special_English/congress-confirms-biden-s-win-calls-for-trump-removal-86078.html" target="_blank">Congress Confirms Bidenâs Win, Calls for Trump Removal  (2021/1/8)</a></li><li><a href="/This_is_America_1.html" target="_blank"><font color="#E43026">[ This is America ]</font></a> <a href="/lrc/202101/lawmakers-to-investigate-capitol-police-after-mob-breach.lrc" target="_blank"><img border="0" height="15" src="/images/lrc.gif" width="27"/></a> <a href="/VOA_Special_English/lawmakers-to-investigate-capitol-police-after-mob-breach-86076.html" target="_blank">Lawmakers to Investigate Capitol Police after Mob Breach  (2021/1/8)</a></li><li><a href="/as_it_is_1.html" target="_blank"><font color="#E43026">[ AS IT IS ]</font></a> <a href="/lrc/202101/world-reacts-to-mob-at-us-capitol.lrc" target="_blank"><img border="0" height="15" src="/images/lrc.gif" width="27"/></a> <a href="/VOA_Special_English/world-reacts-to-mob-at-us-capitol-86077.html" target="_blank">World Reacts to Mob at US Capitol  (2021/1/8)</a></li><li><a href="/as_it_is_1.html" target="_blank"><font color="#E43026">[ AS IT IS ]</font></a> <a href="/VOA_Special_English/why-indonesia-is-vaccinating-its-working-population-first-86074.html" target="_blank">Why Indonesia Is Vaccinating Its Working Population First  (2021/1/8)</a></li><li><a href="/Everyday_Grammar_1.html" target="_blank"><font color="#E43026">[ Everyday Grammar ]</font></a> <a href="/VOA_Special_English/the-verbs-advise-suggest-and-recommend-86075.html" target="_blank">The Verbs Advise, Suggest and Recommend  (2021/1/8)</a></li><li><a href="/Learning_English_Videos_1.html" target="_blank"><font color="#B8860B">[ Learning English Videos ]</font></a> <a href="/VOA_Videos/january-7-2021-86073.html" target="_blank">VOA60: January 7, 2021 (2021/1/8)</a></li><li><a href="/News_Words_1.html" target="_blank"><font color="#B8860B">[ News Words ]</font></a> <a href="/VOA_Videos/lucrative-86072.html" target="_blank">Lucrative (2021/1/8)</a></li><li><a href="/Technology_Report_1.html" target="_blank"><font color="#E43026">[ Technology Report ]</font></a> <a href="/lrc/202101/vaccine-delays-lead-to-false-offers-online.lrc" target="_blank"><img border="0" height="15" src="/images/lrc.gif" width="27"/></a> <a href="/VOA_Special_English/vaccine-delays-lead-to-false-offers-online-86068_1.html" target="_blank"><img border="0" height="15" src="/images/yi.gif" width="27"/></a> <a href="/VOA_Special_English/vaccine-delays-lead-to-false-offers-online-86068.html" target="_blank">Vaccine Delays Lead to False Offers Online  (2021/1/7)</a></li><li><a href="/as_it_is_1.html" target="_blank"><font color="#E43026">[ AS IT IS ]</font></a> <a href="/lrc/202101/vietnam-sentences-journalist-to-15-years.lrc" target="_blank"><img border="0" height="15" src="/images/lrc.gif" width="27"/></a> <a href="/VOA_Special_English/vietnam-sentences-journalist-to--years-86069.html" target="_blank">Vietnam Sentences Journalist to 15 Years  (2021/1/7)</a></li><li><a href="/as_it_is_1.html" target="_blank"><font color="#E43026">[ AS IT IS ]</font></a> <a href="/lrc/202101/young-afghans-fear-taliban-return-will-undo-kandahar-s-progress.lrc" target="_blank"><img border="0" height="15" src="/images/lrc.gif" width="27"/></a> <a href="/VOA_Special_English/young-afghans-fear-taliban-return-will-undo-kandahar-s-progress-86067.html" target="_blank">Young Afghans Fear Taliban Return Will Undo Kandaharâs Progress  (2021/1/7)</a></li><li><a href="/Learning_English_Videos_1.html" target="_blank"><font color="#B8860B">[ Learning English Videos ]</font></a> <a href="/VOA_Videos/january-6-2021-86071.html" target="_blank">VOA60: January 6, 2021 (2021/1/7)</a></li><li><a href="/Learning_English_Videos_1.html" target="_blank"><font color="#B8860B">[ Learning English Videos ]</font></a> <a href="/VOA_Videos/replacing-the--sound-86070.html" target="_blank">How to Pronounce: Replacing the /ŋ/ sound (2021/1/7)</a></li><li><a href="/as_it_is_1.html" target="_blank"><font color="#E43026">[ AS IT IS ]</font></a> <a href="/lrc/202101/iran-denies-holding-crew-of-seized-south-korean-ship-as-hostages.lrc" target="_blank"><img border="0" height="15" src="/images/lrc.gif" width="27"/></a> <a href="/VOA_Special_English/iran-denies-holding-crew-of-seized-south-korean-ship-as-hostages-86065_1.html" target="_blank"><img border="0" height="15" src="/images/yi.gif" width="27"/></a> <a href="/VOA_Special_English/iran-denies-holding-crew-of-seized-south-korean-ship-as-hostages-86065.html" target="_blank">Iran Denies Holding Crew of Seized South Korean Ship as Hostages  (2021/1/6)</a></li><li><a href="/Health_Report_1.html" target="_blank"><font color="#E43026">[ Health Report ]</font></a> <a href="/lrc/202101/pharmacist-arrested-for-trying-to-ruin-hundreds-of-covid-19-shots.lrc" target="_blank"><img border="0" height="15" src="/images/lrc.gif" width="27"/></a> <a href="/VOA_Special_English/pharmacist-arrested-for-trying-to-ruin-hundreds-of-covid--shots-86064.html" target="_blank">Pharmacist Arrested for Trying to Ruin Hundreds of COVID-19 Shots  (2021/1/6)</a></li><li><a href="/Education_Report_1.html" target="_blank"><font color="#E43026">[ Education Report ]</font></a> <a href="/lrc/202101/outdoor-education-continues-in-the-cold.lrc" target="_blank"><img border="0" height="15" src="/images/lrc.gif" width="27"/></a> <a href="/VOA_Special_English/outdoor-education-continues-in-the-cold-86062.html" target="_blank">Outdoor Education Continues in the Cold  (2021/1/6)</a></li><li><a href="/Technology_Report_1.html" target="_blank"><font color="#E43026">[ Technology Report ]</font></a> <a href="/VOA_Special_English/longleaf-pines-return-to-southern-grasslands-86063.html" target="_blank">Longleaf Pines Return to Southern Grasslands  (2021/1/6)</a></li><li><a href="/Learning_English_Videos_1.html" target="_blank"><font color="#B8860B">[ Learning English Videos ]</font></a> <a href="/VOA_Videos/january-5-2021-86066.html" target="_blank">VOA60: January 5, 2021 (2021/1/6)</a></li><li><a href="/Health_Report_1.html" target="_blank"><font color="#E43026">[ Health Report ]</font></a> <a href="/lrc/202101/us-considers-vaccinating-more-people-using-half-doses.lrc" target="_blank"><img border="0" height="15" src="/images/lrc.gif" width="27"/></a> <a href="/VOA_Special_English/us-considers-vaccinating-more-people-using-half-doses-86059_1.html" target="_blank"><img border="0" height="15" src="/images/yi.gif" width="27"/></a> <a href="/VOA_Special_English/us-considers-vaccinating-more-people-using-half-doses-86059.html" target="_blank">US Considers Vaccinating More People Using Half Doses  (2021/1/5)</a></li><li><a href="/This_is_America_1.html" target="_blank"><font color="#E43026">[ This is America ]</font></a> <a href="/lrc/202101/trump-s-phone-call-makes-senate-votes-difficult.lrc" target="_blank"><img border="0" height="15" src="/images/lrc.gif" width="27"/></a> <a href="/VOA_Special_English/trump-s-phone-call-makes-senate-votes-difficult-86060.html" target="_blank">Trumpâs Phone Call Makes Senate Votes Difficult  (2021/1/5)</a></li><li><a href="/Health_Report_1.html" target="_blank"><font color="#E43026">[ Health Report ]</font></a> <a href="/lrc/202101/health-officials-watch-for-side-effects-from-covid-19-vaccine.lrc" target="_blank"><img border="0" height="15" src="/images/lrc.gif" width="27"/></a> <a href="/VOA_Special_English/health-officials-watch-for-side-effects-from-covid--vaccine-86057.html" target="_blank">Health Officials Watch for Side Effects from COVID-19 Vaccine  (2021/1/5)</a></li><li><a href="/as_it_is_1.html" target="_blank"><font color="#E43026">[ AS IT IS ]</font></a> <a href="/VOA_Special_English/journalism-collective-finds-safety-in-collaboration-86058.html" target="_blank">Journalism Collective Finds Safety in Collaboration  (2021/1/5)</a></li><li><a href="/Learning_English_Videos_1.html" target="_blank"><font color="#B8860B">[ Learning English Videos ]</font></a> <a href="/VOA_Videos/january-4-2021-86061.html" target="_blank">VOA60: January 4, 2021 (2021/1/5)</a></li><li><a href="/as_it_is_1.html" target="_blank"><font color="#E43026">[ AS IT IS ]</font></a> <a href="/lrc/202101/jordanian-officials-face-decision-on-saving-ancient-baths-in-amman.lrc" target="_blank"><img border="0" height="15" src="/images/lrc.gif" width="27"/></a> <a href="/VOA_Special_English/jordanian-officials-face-decision-on-saving-ancient-baths-in-amman-86056_1.html" target="_blank"><img border="0" height="15" src="/images/yi.gif" width="27"/></a> <a href="/VOA_Special_English/jordanian-officials-face-decision-on-saving-ancient-baths-in-amman-86056.html" target="_blank">Jordanian Officials Face Decision on Saving Ancient Baths in Amman  (2021/1/4)</a></li><li><a href="/Technology_Report_1.html" target="_blank"><font color="#E43026">[ Technology Report ]</font></a> <a href="/lrc/202101/report-google-sought-greater-control-over-research-writings.lrc" target="_blank"><img border="0" height="15" src="/images/lrc.gif" width="27"/></a> <a href="/VOA_Special_English/report-google-sought-greater-control-over-research-writings-86052.html" target="_blank">Report: Google Sought Greater Control over Research Writings  (2021/1/4)</a></li><li><a href="/Agriculture_Report_1.html" target="_blank"><font color="#E43026">[ Agriculture Report ]</font></a> <a href="/lrc/202101/pacific-islanders-start-gardening-during-the-pandemic.lrc" target="_blank"><img border="0" height="15" src="/images/lrc.gif" width="27"/></a> <a href="/VOA_Special_English/pacific-islanders-start-gardening-during-the-pandemic-86053.html" target="_blank">Pacific Islanders Start Gardening during the Pandemic  (2021/1/4)</a></li><li><a href="/Technology_Report_1.html" target="_blank"><font color="#E43026">[ Technology Report ]</font></a> <a href="/VOA_Special_English/new-scientific-discoveries-made-in--86054.html" target="_blank">New Scientific Discoveries Made in 2020  (2021/1/4)</a></li><li><a href="/as_it_is_1.html" target="_blank"><font color="#E43026">[ AS IT IS ]</font></a> <a href="/VOA_Special_English/experts-pandemic-shows-importance-of-believable-news-86055.html" target="_blank">Experts: Pandemic Shows Importance of Believable News  (2021/1/4)</a></li></ul>
</div>
</div>
<div class="clearing"></div></div>
<div class="clearing"></div>
<div id="footer">
<div id="copyright"><a href="/"><img alt="VOAç¾å½ä¹é³" height="14" src="/images/copyright.gif" width="272"/></a></div> <div id="mii"><a href="/intro/help.html">Contact Us</a></div></div>
<div id="common"><script language="javascript" src="/common/main.js"></script></div>
<script async="" data-ad-client="ca-pub-3585518775245612" src="https://pagead2.googlesyndication.com/pagead/js/adsbygoogle.js"></script>
</body></html>