<!DOCTYPE HTML>
<html>
<head>
<title>502 Bad Gateway nginx openresty 2001:250:3c02:749:8d2b:d30c:bf6f:658f</title>
<script>
var _hmt = _hmt || [];
(function() {
  var hm = document.createElement("script");
  hm.src = "https://hm.baidu.com/hm.js?c48d2e96769d5e2380d5c2cd61cd89df";
  var s = document.getElementsByTagName("script")[0]; 
  s.parentNode.insertBefore(hm, s);
})();
</script>
</head>
<body bgcolor="white">
<center><h1>502 Bad Gateway</h1></center>
<hr/><center>nginx</center>
</body>
</html>