<!DOCTYPE html>
<html lang="fr-FR">
<head>
<meta charset="utf-8"/>
<meta content="width=device-width, initial-scale=1" name="viewport"/>
<link href="https://gmpg.org/xfn/11" rel="profile"/>
<title>Club d'Entreprises de Haute Mayenne – Notre force, un réseau d'entreprises sur son territoire</title>
<link href="//s.w.org" rel="dns-prefetch"/>
<link href="https://www.cehm53.org/feed/" rel="alternate" title="Club d'Entreprises de Haute Mayenne » Flux" type="application/rss+xml"/>
<link href="https://www.cehm53.org/comments/feed/" rel="alternate" title="Club d'Entreprises de Haute Mayenne » Flux des commentaires" type="application/rss+xml"/>
<!-- This site uses the Google Analytics by ExactMetrics plugin v6.4.0 - Using Analytics tracking - https://www.exactmetrics.com/ -->
<script data-cfasync="false" type="text/javascript">
    (window.gaDevIds=window.gaDevIds||[]).push("dNDMyYj");
	var em_version         = '6.4.0';
	var em_track_user      = true;
	var em_no_track_reason = '';
	
	var disableStr = 'ga-disable-UA-156185484-1';

	/* Function to detect opted out users */
	function __gaTrackerIsOptedOut() {
		return document.cookie.indexOf(disableStr + '=true') > -1;
	}

	/* Disable tracking if the opt-out cookie exists. */
	if ( __gaTrackerIsOptedOut() ) {
		window[disableStr] = true;
	}

	/* Opt-out function */
	function __gaTrackerOptout() {
	  document.cookie = disableStr + '=true; expires=Thu, 31 Dec 2099 23:59:59 UTC; path=/';
	  window[disableStr] = true;
	}

	if ( 'undefined' === typeof gaOptout ) {
		function gaOptout() {
			__gaTrackerOptout();
		}
	}
	
	if ( em_track_user ) {
		(function(i,s,o,g,r,a,m){i['GoogleAnalyticsObject']=r;i[r]=i[r]||function(){
			(i[r].q=i[r].q||[]).push(arguments)},i[r].l=1*new Date();a=s.createElement(o),
			m=s.getElementsByTagName(o)[0];a.async=1;a.src=g;m.parentNode.insertBefore(a,m)
		})(window,document,'script','//www.google-analytics.com/analytics.js','__gaTracker');

window.ga = __gaTracker;		__gaTracker('create', 'UA-156185484-1', 'auto');
		__gaTracker('set', 'forceSSL', true);
		__gaTracker('send','pageview');
		__gaTracker( function() { window.ga = __gaTracker; } );
	} else {
		console.log( "" );
		(function() {
			/* https://developers.google.com/analytics/devguides/collection/analyticsjs/ */
			var noopfn = function() {
				return null;
			};
			var noopnullfn = function() {
				return null;
			};
			var Tracker = function() {
				return null;
			};
			var p = Tracker.prototype;
			p.get = noopfn;
			p.set = noopfn;
			p.send = noopfn;
			var __gaTracker = function() {
				var len = arguments.length;
				if ( len === 0 ) {
					return;
				}
				var f = arguments[len-1];
				if ( typeof f !== 'object' || f === null || typeof f.hitCallback !== 'function' ) {
					console.log( 'Non exécution de la fonction en cours __gaTracker(' + arguments[0] + " ....) parce que vous n’êtes pas suivi. " + em_no_track_reason );
					return;
				}
				try {
					f.hitCallback();
				} catch (ex) {

				}
			};
			__gaTracker.create = function() {
				return new Tracker();
			};
			__gaTracker.getByName = noopnullfn;
			__gaTracker.getAll = function() {
				return [];
			};
			__gaTracker.remove = noopfn;
			window['__gaTracker'] = __gaTracker;
			window.ga = __gaTracker;		})();
		}
</script>
<!-- / Google Analytics by ExactMetrics -->
<script>
			window._wpemojiSettings = {"baseUrl":"https:\/\/s.w.org\/images\/core\/emoji\/13.0.1\/72x72\/","ext":".png","svgUrl":"https:\/\/s.w.org\/images\/core\/emoji\/13.0.1\/svg\/","svgExt":".svg","source":{"concatemoji":"https:\/\/www.cehm53.org\/wp-includes\/js\/wp-emoji-release.min.js"}};
			!function(e,a,t){var r,n,o,i,p=a.createElement("canvas"),s=p.getContext&&p.getContext("2d");function c(e,t){var a=String.fromCharCode;s.clearRect(0,0,p.width,p.height),s.fillText(a.apply(this,e),0,0);var r=p.toDataURL();return s.clearRect(0,0,p.width,p.height),s.fillText(a.apply(this,t),0,0),r===p.toDataURL()}function l(e){if(!s||!s.fillText)return!1;switch(s.textBaseline="top",s.font="600 32px Arial",e){case"flag":return!c([127987,65039,8205,9895,65039],[127987,65039,8203,9895,65039])&&(!c([55356,56826,55356,56819],[55356,56826,8203,55356,56819])&&!c([55356,57332,56128,56423,56128,56418,56128,56421,56128,56430,56128,56423,56128,56447],[55356,57332,8203,56128,56423,8203,56128,56418,8203,56128,56421,8203,56128,56430,8203,56128,56423,8203,56128,56447]));case"emoji":return!c([55357,56424,8205,55356,57212],[55357,56424,8203,55356,57212])}return!1}function d(e){var t=a.createElement("script");t.src=e,t.defer=t.type="text/javascript",a.getElementsByTagName("head")[0].appendChild(t)}for(i=Array("flag","emoji"),t.supports={everything:!0,everythingExceptFlag:!0},o=0;o<i.length;o++)t.supports[i[o]]=l(i[o]),t.supports.everything=t.supports.everything&&t.supports[i[o]],"flag"!==i[o]&&(t.supports.everythingExceptFlag=t.supports.everythingExceptFlag&&t.supports[i[o]]);t.supports.everythingExceptFlag=t.supports.everythingExceptFlag&&!t.supports.flag,t.DOMReady=!1,t.readyCallback=function(){t.DOMReady=!0},t.supports.everything||(n=function(){t.readyCallback()},a.addEventListener?(a.addEventListener("DOMContentLoaded",n,!1),e.addEventListener("load",n,!1)):(e.attachEvent("onload",n),a.attachEvent("onreadystatechange",function(){"complete"===a.readyState&&t.readyCallback()})),(r=t.source||{}).concatemoji?d(r.concatemoji):r.wpemoji&&r.twemoji&&(d(r.twemoji),d(r.wpemoji)))}(window,document,window._wpemojiSettings);
		</script>
<style>
img.wp-smiley,
img.emoji {
	display: inline !important;
	border: none !important;
	box-shadow: none !important;
	height: 1em !important;
	width: 1em !important;
	margin: 0 .07em !important;
	vertical-align: -0.1em !important;
	background: none !important;
	padding: 0 !important;
}
</style>
<link href="https://www.cehm53.org/wp-content/themes/astra/assets/css/minified/style.min.css" id="astra-theme-css-css" media="all" rel="stylesheet"/>
<style id="astra-theme-css-inline-css">
html{font-size:93.75%;}a,.page-title{color:#006f78;}a:hover,a:focus{color:#af0e1f;}body,button,input,select,textarea,.ast-button,.ast-custom-button{font-family:-apple-system,BlinkMacSystemFont,Segoe UI,Roboto,Oxygen-Sans,Ubuntu,Cantarell,Helvetica Neue,sans-serif;font-weight:inherit;font-size:15px;font-size:1rem;}blockquote{color:#000000;}.site-title{font-size:35px;font-size:2.3333333333333rem;}header .site-logo-img .custom-logo-link img{max-width:189px;}.astra-logo-svg{width:189px;}.ast-archive-description .ast-archive-title{font-size:40px;font-size:2.6666666666667rem;}.site-header .site-description{font-size:15px;font-size:1rem;}.entry-title{font-size:40px;font-size:2.6666666666667rem;}.comment-reply-title{font-size:24px;font-size:1.6rem;}.ast-comment-list #cancel-comment-reply-link{font-size:15px;font-size:1rem;}h1,.entry-content h1{font-size:40px;font-size:2.6666666666667rem;}h2,.entry-content h2{font-size:30px;font-size:2rem;}h3,.entry-content h3{font-size:25px;font-size:1.6666666666667rem;}h4,.entry-content h4{font-size:20px;font-size:1.3333333333333rem;}h5,.entry-content h5{font-size:18px;font-size:1.2rem;}h6,.entry-content h6{font-size:15px;font-size:1rem;}.ast-single-post .entry-title,.page-title{font-size:30px;font-size:2rem;}#secondary,#secondary button,#secondary input,#secondary select,#secondary textarea{font-size:15px;font-size:1rem;}::selection{background-color:#006f78;color:#ffffff;}body,h1,.entry-title a,.entry-content h1,h2,.entry-content h2,h3,.entry-content h3,h4,.entry-content h4,h5,.entry-content h5,h6,.entry-content h6,.wc-block-grid__product-title{color:#42070d;}.tagcloud a:hover,.tagcloud a:focus,.tagcloud a.current-item{color:#ffffff;border-color:#006f78;background-color:#006f78;}.main-header-menu a,.ast-header-custom-item a{color:#42070d;}.main-header-menu li:hover > a,.main-header-menu li:hover > .ast-menu-toggle,.main-header-menu .ast-masthead-custom-menu-items a:hover,.main-header-menu li.focus > a,.main-header-menu li.focus > .ast-menu-toggle,.main-header-menu .current-menu-item > a,.main-header-menu .current-menu-ancestor > a,.main-header-menu .current_page_item > a,.main-header-menu .current-menu-item > .ast-menu-toggle,.main-header-menu .current-menu-ancestor > .ast-menu-toggle,.main-header-menu .current_page_item > .ast-menu-toggle{color:#006f78;}input:focus,input[type="text"]:focus,input[type="email"]:focus,input[type="url"]:focus,input[type="password"]:focus,input[type="reset"]:focus,input[type="search"]:focus,textarea:focus{border-color:#006f78;}input[type="radio"]:checked,input[type=reset],input[type="checkbox"]:checked,input[type="checkbox"]:hover:checked,input[type="checkbox"]:focus:checked,input[type=range]::-webkit-slider-thumb{border-color:#006f78;background-color:#006f78;box-shadow:none;}.site-footer a:hover + .post-count,.site-footer a:focus + .post-count{background:#006f78;border-color:#006f78;}.footer-adv .footer-adv-overlay{border-top-style:solid;border-top-color:#7a7a7a;}.ast-comment-meta{line-height:1.666666667;font-size:12px;font-size:0.8rem;}.single .nav-links .nav-previous,.single .nav-links .nav-next,.single .ast-author-details .author-title,.ast-comment-meta{color:#006f78;}.entry-meta,.entry-meta *{line-height:1.45;color:#006f78;}.entry-meta a:hover,.entry-meta a:hover *,.entry-meta a:focus,.entry-meta a:focus *{color:#af0e1f;}.ast-404-layout-1 .ast-404-text{font-size:200px;font-size:13.333333333333rem;}.widget-title{font-size:21px;font-size:1.4rem;color:#42070d;}#cat option,.secondary .calendar_wrap thead a,.secondary .calendar_wrap thead a:visited{color:#006f78;}.secondary .calendar_wrap #today,.ast-progress-val span{background:#006f78;}.secondary a:hover + .post-count,.secondary a:focus + .post-count{background:#006f78;border-color:#006f78;}.calendar_wrap #today > a{color:#ffffff;}.ast-pagination a,.page-links .page-link,.single .post-navigation a{color:#006f78;}.ast-pagination a:hover,.ast-pagination a:focus,.ast-pagination > span:hover:not(.dots),.ast-pagination > span.current,.page-links > .page-link,.page-links .page-link:hover,.post-navigation a:hover{color:#af0e1f;}.ast-header-break-point .ast-mobile-menu-buttons-minimal.menu-toggle{background:transparent;color:#006f78;}.ast-header-break-point .ast-mobile-menu-buttons-outline.menu-toggle{background:transparent;border:1px solid #006f78;color:#006f78;}.ast-header-break-point .ast-mobile-menu-buttons-fill.menu-toggle{background:#006f78;color:#ffffff;}@media (max-width:782px){.entry-content .wp-block-columns .wp-block-column{margin-left:0px;}}@media (max-width:768px){#secondary.secondary{padding-top:0;}.ast-separate-container .ast-article-post,.ast-separate-container .ast-article-single{padding:1.5em 2.14em;}.ast-separate-container #primary,.ast-separate-container #secondary{padding:1.5em 0;}.ast-separate-container.ast-right-sidebar #secondary{padding-left:1em;padding-right:1em;}.ast-separate-container.ast-two-container #secondary{padding-left:0;padding-right:0;}.ast-page-builder-template .entry-header #secondary{margin-top:1.5em;}.ast-page-builder-template #secondary{margin-top:1.5em;}#primary,#secondary{padding:1.5em 0;margin:0;}.ast-left-sidebar #content > .ast-container{display:flex;flex-direction:column-reverse;width:100%;}.ast-author-box img.avatar{margin:20px 0 0 0;}.ast-pagination{padding-top:1.5em;text-align:center;}.ast-pagination .next.page-numbers{display:inherit;float:none;}}@media (max-width:768px){.ast-page-builder-template.ast-left-sidebar #secondary{padding-right:20px;}.ast-page-builder-template.ast-right-sidebar #secondary{padding-left:20px;}.ast-right-sidebar #primary{padding-right:0;}.ast-right-sidebar #secondary{padding-left:0;}.ast-left-sidebar #primary{padding-left:0;}.ast-left-sidebar #secondary{padding-right:0;}.ast-pagination .prev.page-numbers{padding-left:.5em;}.ast-pagination .next.page-numbers{padding-right:.5em;}}@media (min-width:769px){.ast-separate-container.ast-right-sidebar #primary,.ast-separate-container.ast-left-sidebar #primary{border:0;}.ast-separate-container.ast-right-sidebar #secondary,.ast-separate-container.ast-left-sidebar #secondary{border:0;margin-left:auto;margin-right:auto;}.ast-separate-container.ast-two-container #secondary .widget:last-child{margin-bottom:0;}.ast-separate-container .ast-comment-list li .comment-respond{padding-left:2.66666em;padding-right:2.66666em;}.ast-author-box{-js-display:flex;display:flex;}.ast-author-bio{flex:1;}.error404.ast-separate-container #primary,.search-no-results.ast-separate-container #primary{margin-bottom:4em;}}@media (min-width:769px){.ast-right-sidebar #primary{border-right:1px solid #eee;}.ast-right-sidebar #secondary{border-left:1px solid #eee;margin-left:-1px;}.ast-left-sidebar #primary{border-left:1px solid #eee;}.ast-left-sidebar #secondary{border-right:1px solid #eee;margin-right:-1px;}.ast-separate-container.ast-two-container.ast-right-sidebar #secondary{padding-left:30px;padding-right:0;}.ast-separate-container.ast-two-container.ast-left-sidebar #secondary{padding-right:30px;padding-left:0;}}.menu-toggle,button,.ast-button,.ast-custom-button,.button,input#submit,input[type="button"],input[type="submit"],input[type="reset"]{color:#ffffff;border-color:#006f78;background-color:#006f78;border-radius:4px;padding-top:7px;padding-right:30px;padding-bottom:7px;padding-left:30px;font-family:inherit;font-weight:inherit;}button:focus,.menu-toggle:hover,button:hover,.ast-button:hover,.button:hover,input[type=reset]:hover,input[type=reset]:focus,input#submit:hover,input#submit:focus,input[type="button"]:hover,input[type="button"]:focus,input[type="submit"]:hover,input[type="submit"]:focus{color:#ffffff;background-color:#af0e1f;border-color:#af0e1f;}@media (min-width:768px){.ast-container{max-width:100%;}}@media (min-width:544px){.ast-container{max-width:100%;}}@media (max-width:544px){.ast-separate-container .ast-article-post,.ast-separate-container .ast-article-single{padding:1.5em 1em;}.ast-separate-container #content .ast-container{padding-left:0.54em;padding-right:0.54em;}.ast-separate-container #secondary{padding-top:0;}.ast-separate-container.ast-two-container #secondary .widget{margin-bottom:1.5em;padding-left:1em;padding-right:1em;}.ast-separate-container .comments-count-wrapper{padding:1.5em 1em;}.ast-separate-container .ast-comment-list li.depth-1{padding:1.5em 1em;margin-bottom:1.5em;}.ast-separate-container .ast-comment-list .bypostauthor{padding:.5em;}.ast-separate-container .ast-archive-description{padding:1.5em 1em;}.ast-search-menu-icon.ast-dropdown-active .search-field{width:170px;}}@media (max-width:544px){.ast-comment-list .children{margin-left:0.66666em;}.ast-separate-container .ast-comment-list .bypostauthor li{padding:0 0 0 .5em;}}@media (max-width:768px){.ast-mobile-header-stack .main-header-bar .ast-search-menu-icon{display:inline-block;}.ast-header-break-point.ast-header-custom-item-outside .ast-mobile-header-stack .main-header-bar .ast-search-icon{margin:0;}.ast-comment-avatar-wrap img{max-width:2.5em;}.comments-area{margin-top:1.5em;}.ast-separate-container .comments-count-wrapper{padding:2em 2.14em;}.ast-separate-container .ast-comment-list li.depth-1{padding:1.5em 2.14em;}.ast-separate-container .comment-respond{padding:2em 2.14em;}}@media (max-width:768px){.ast-header-break-point .main-header-bar .ast-search-menu-icon.slide-search .search-form{right:0;}.ast-header-break-point .ast-mobile-header-stack .main-header-bar .ast-search-menu-icon.slide-search .search-form{right:-1em;}.ast-comment-avatar-wrap{margin-right:0.5em;}}@media (max-width:544px){.ast-separate-container .comment-respond{padding:1.5em 1em;}}@media (min-width:545px){.ast-page-builder-template .comments-area,.single.ast-page-builder-template .entry-header,.single.ast-page-builder-template .post-navigation{max-width:940px;margin-left:auto;margin-right:auto;}}body,.ast-separate-container{background-image:linear-gradient(to right,rgba(255,255,255,0),rgba(255,255,255,0)),url(https://www.cehm53.org/wp-content/uploads/2019/07/Fond.jpg);background-repeat:repeat-x;background-position:center top;background-size:auto;background-attachment:fixed;}@media (max-width:768px){.ast-archive-description .ast-archive-title{font-size:40px;}.entry-title{font-size:30px;}h1,.entry-content h1{font-size:30px;}h2,.entry-content h2{font-size:25px;}h3,.entry-content h3{font-size:20px;}.ast-single-post .entry-title,.page-title{font-size:30px;}}@media (max-width:544px){.ast-archive-description .ast-archive-title{font-size:40px;}.entry-title{font-size:30px;}h1,.entry-content h1{font-size:30px;}h2,.entry-content h2{font-size:25px;}h3,.entry-content h3{font-size:20px;}.ast-single-post .entry-title,.page-title{font-size:30px;}}@media (max-width:768px){html{font-size:85.5%;}}@media (max-width:544px){html{font-size:85.5%;}}@media (min-width:769px){.ast-container{max-width:940px;}}@font-face {font-family: "Astra";src: url(https://www.cehm53.org/wp-content/themes/astra/assets/fonts/astra.woff) format("woff"),url(https://www.cehm53.org/wp-content/themes/astra/assets/fonts/astra.ttf) format("truetype"),url(https://www.cehm53.org/wp-content/themes/astra/assets/fonts/astra.svg#astra) format("svg");font-weight: normal;font-style: normal;font-display: fallback;}@media (max-width:921px) {.main-header-bar .main-header-bar-navigation{display:none;}}.ast-desktop .main-header-menu.submenu-with-border .sub-menu,.ast-desktop .main-header-menu.submenu-with-border .children,.ast-desktop .main-header-menu.submenu-with-border .astra-full-megamenu-wrapper{border-color:#006f78;}.ast-desktop .main-header-menu.submenu-with-border .sub-menu,.ast-desktop .main-header-menu.submenu-with-border .children{border-top-width:2px;border-right-width:0px;border-left-width:0px;border-bottom-width:0px;border-style:solid;}.ast-desktop .main-header-menu.submenu-with-border .sub-menu .sub-menu,.ast-desktop .main-header-menu.submenu-with-border .children .children{top:-2px;}.ast-desktop .main-header-menu.submenu-with-border .sub-menu a,.ast-desktop .main-header-menu.submenu-with-border .children a{border-bottom-width:1px;border-style:solid;border-color:#af0e1f;}@media (min-width:769px){.main-header-menu .sub-menu li.ast-left-align-sub-menu:hover > ul,.main-header-menu .sub-menu li.ast-left-align-sub-menu.focus > ul{margin-left:-0px;}}.ast-small-footer{border-top-style:solid;border-top-width:1px;border-top-color:#7a7a7a;}.ast-small-footer-wrap{text-align:center;}@media (max-width:920px){.ast-404-layout-1 .ast-404-text{font-size:100px;font-size:6.6666666666667rem;}}.ast-breadcrumbs .trail-browse,.ast-breadcrumbs .trail-items,.ast-breadcrumbs .trail-items li{display:inline-block;margin:0;padding:0;border:none;background:inherit;text-indent:0;}.ast-breadcrumbs .trail-browse{font-size:inherit;font-style:inherit;font-weight:inherit;color:inherit;}.ast-breadcrumbs .trail-items{list-style:none;}.trail-items li::after{padding:0 0.3em;content:"\00bb";}.trail-items li:last-of-type::after{display:none;}.ast-header-break-point .main-header-bar{border-bottom-width:1px;border-bottom-color:#006f78;}@media (min-width:769px){.main-header-bar{border-bottom-width:1px;border-bottom-color:#006f78;}}@media (min-width:769px){#primary{width:75%;}#secondary{width:25%;}}.ast-safari-browser-less-than-11 .main-header-menu .menu-item, .ast-safari-browser-less-than-11 .main-header-bar .ast-masthead-custom-menu-items{display:block;}.main-header-menu .menu-item, .main-header-bar .ast-masthead-custom-menu-items{-js-display:flex;display:flex;-webkit-box-pack:center;-webkit-justify-content:center;-moz-box-pack:center;-ms-flex-pack:center;justify-content:center;-webkit-box-orient:vertical;-webkit-box-direction:normal;-webkit-flex-direction:column;-moz-box-orient:vertical;-moz-box-direction:normal;-ms-flex-direction:column;flex-direction:column;}.main-header-menu > .menu-item > a{height:100%;-webkit-box-align:center;-webkit-align-items:center;-moz-box-align:center;-ms-flex-align:center;align-items:center;-js-display:flex;display:flex;}.ast-primary-menu-disabled .main-header-bar .ast-masthead-custom-menu-items{flex:unset;}.header-main-layout-1 .ast-flex.main-header-container, .header-main-layout-3 .ast-flex.main-header-container{-webkit-align-content:center;-ms-flex-line-pack:center;align-content:center;-webkit-box-align:center;-webkit-align-items:center;-moz-box-align:center;-ms-flex-align:center;align-items:center;}
</style>
<link href="https://www.cehm53.org/wp-content/themes/astra/assets/css/minified/menu-animation.min.css" id="astra-menu-animation-css" media="all" rel="stylesheet"/>
<link href="https://www.cehm53.org/wp-includes/css/dist/block-library/style.min.css" id="wp-block-library-css" media="all" rel="stylesheet"/>
<link href="https://www.cehm53.org/wp-content/plugins/contact-form-7/includes/css/styles.css" id="contact-form-7-css" media="all" rel="stylesheet"/>
<link href="https://www.cehm53.org/wp-content/themes/astra/assets/css/minified/compatibility/contact-form-7.min.css" id="astra-contact-form-7-css" media="all" rel="stylesheet"/>
<link href="https://www.cehm53.org/wp-content/plugins/cookie-notice/css/front.min.css" id="cookie-notice-front-css" media="all" rel="stylesheet"/>
<link href="https://www.cehm53.org/wp-content/plugins/google-analytics-dashboard-for-wp/assets/css/frontend.min.css" id="exactmetrics-popular-posts-style-css" media="all" rel="stylesheet"/>
<!--[if IE]>
<script src='https://www.cehm53.org/wp-content/themes/astra/assets/js/minified/flexibility.min.js' id='astra-flexibility-js'></script>
<script id='astra-flexibility-js-after'>
flexibility(document.documentElement);
</script>
<![endif]-->
<script id="exactmetrics-frontend-script-js-extra">
var exactmetrics_frontend = {"js_events_tracking":"true","download_extensions":"zip,mp3,mpeg,pdf,docx,pptx,xlsx,rar","inbound_paths":"[{\"path\":\"\\\/go\\\/\",\"label\":\"affiliate\"},{\"path\":\"\\\/recommend\\\/\",\"label\":\"affiliate\"}]","home_url":"https:\/\/www.cehm53.org","hash_tracking":"false"};
</script>
<script id="exactmetrics-frontend-script-js" src="https://www.cehm53.org/wp-content/plugins/google-analytics-dashboard-for-wp/assets/js/frontend.min.js"></script>
<script id="jquery-core-js" src="https://www.cehm53.org/wp-includes/js/jquery/jquery.min.js"></script>
<script id="jquery-migrate-js" src="https://www.cehm53.org/wp-includes/js/jquery/jquery-migrate.min.js"></script>
<script id="cookie-notice-front-js-extra">
var cnArgs = {"ajaxUrl":"https:\/\/www.cehm53.org\/wp-admin\/admin-ajax.php","nonce":"f5c894f699","hideEffect":"fade","position":"bottom","onScroll":"0","onScrollOffset":"100","onClick":"0","cookieName":"cookie_notice_accepted","cookieTime":"2592000","cookieTimeRejected":"2592000","cookiePath":"\/","cookieDomain":"","redirection":"0","cache":"0","refuse":"0","revokeCookies":"0","revokeCookiesOpt":"automatic","secure":"1","coronabarActive":"0"};
</script>
<script id="cookie-notice-front-js" src="https://www.cehm53.org/wp-content/plugins/cookie-notice/js/front.min.js"></script>
<link href="https://www.cehm53.org/wp-json/" rel="https://api.w.org/"/><link href="https://www.cehm53.org/xmlrpc.php?rsd" rel="EditURI" title="RSD" type="application/rsd+xml"/>
<link href="https://www.cehm53.org/wp-includes/wlwmanifest.xml" rel="wlwmanifest" type="application/wlwmanifest+xml"/>
<link href="https://www.cehm53.org/wp-content/uploads/2019/07/cropped-Logo_favicon-32x32.png" rel="icon" sizes="32x32"/>
<link href="https://www.cehm53.org/wp-content/uploads/2019/07/cropped-Logo_favicon-192x192.png" rel="icon" sizes="192x192"/>
<link href="https://www.cehm53.org/wp-content/uploads/2019/07/cropped-Logo_favicon-180x180.png" rel="apple-touch-icon"/>
<meta content="https://www.cehm53.org/wp-content/uploads/2019/07/cropped-Logo_favicon-270x270.png" name="msapplication-TileImage"/>
</head>
<body class="home blog wp-custom-logo cookies-not-set ast-desktop ast-separate-container ast-right-sidebar astra-2.4.4 ast-header-custom-item-inside group-blog ast-mobile-inherit-site-logo ast-inherit-site-logo-transparent" data-rsssl="1" itemscope="itemscope" itemtype="https://schema.org/Blog">
<div class="hfeed site" id="page">
<a class="skip-link screen-reader-text" href="#content">Aller au contenu</a>
<header class="site-header ast-primary-submenu-animation-fade header-main-layout-1 ast-primary-menu-enabled ast-logo-title-inline ast-hide-custom-menu-mobile ast-menu-toggle-icon ast-mobile-header-inline" id="masthead" itemid="#masthead" itemscope="itemscope" itemtype="https://schema.org/WPHeader">
<div class="main-header-bar-wrap">
<div class="main-header-bar">
<div class="ast-container">
<div class="ast-flex main-header-container">
<div class="site-branding">
<div class="ast-site-identity" itemscope="itemscope" itemtype="https://schema.org/Organization">
<span class="site-logo-img"><a aria-current="page" class="custom-logo-link" href="https://www.cehm53.org/" rel="home"><img alt="Club d'Entreprises de Haute Mayenne" class="custom-logo" height="60" src="https://www.cehm53.org/wp-content/uploads/2019/07/Logo_entete.png" width="128"/></a></span> </div>
</div>
<!-- .site-branding -->
<div class="ast-mobile-menu-buttons">
<div class="ast-button-wrap">
<button aria-controls="primary-menu" aria-expanded="false" class="menu-toggle main-header-menu-toggle ast-mobile-menu-buttons-minimal " type="button">
<span class="screen-reader-text">Menu principal</span>
<span class="menu-toggle-icon"></span>
</button>
</div>
</div>
<div class="ast-main-header-bar-alignment"><div class="main-header-bar-navigation"><nav aria-label="Navigation du site" class="ast-flex-grow-1 navigation-accessibility" id="site-navigation" itemscope="itemscope" itemtype="https://schema.org/SiteNavigationElement"><div class="main-navigation"><ul class="main-header-menu ast-nav-menu ast-flex ast-justify-content-flex-end submenu-with-border astra-menu-animation-fade " id="primary-menu"><li class="menu-item menu-item-type-custom menu-item-object-custom current-menu-item current_page_item menu-item-home menu-item-18" id="menu-item-18"><a aria-current="page" href="https://www.cehm53.org">Accueil</a></li>
<li class="menu-item menu-item-type-custom menu-item-object-custom menu-item-has-children menu-item-209" id="menu-item-209"><a>Présentation</a><button aria-expanded="false" class="ast-menu-toggle"><span class="screen-reader-text">Permutateur de Menu</span></button>
<ul class="sub-menu">
<li class="menu-item menu-item-type-post_type menu-item-object-page menu-item-133" id="menu-item-133"><a href="https://www.cehm53.org/le-mot-de-la-presidente/">Le mot de la Présidente</a></li>
<li class="menu-item menu-item-type-post_type menu-item-object-page menu-item-139" id="menu-item-139"><a href="https://www.cehm53.org/le-club-dentreprises-de-haute-mayenne/">Le Club</a></li>
<li class="menu-item menu-item-type-post_type menu-item-object-page menu-item-234" id="menu-item-234"><a href="https://www.cehm53.org/les-activites-du-club/">Les activités</a></li>
<li class="menu-item menu-item-type-post_type menu-item-object-page menu-item-104" id="menu-item-104"><a href="https://www.cehm53.org/conseil-d-administration/">Le Conseil d’Administration</a></li>
</ul>
</li>
<li class="menu-item menu-item-type-custom menu-item-object-custom menu-item-has-children menu-item-206" id="menu-item-206"><a>Liens</a><button aria-expanded="false" class="ast-menu-toggle"><span class="screen-reader-text">Permutateur de Menu</span></button>
<ul class="sub-menu">
<li class="menu-item menu-item-type-post_type menu-item-object-page menu-item-208" id="menu-item-208"><a href="https://www.cehm53.org/les-communautes-de-communes/">Les Communautés de Communes</a></li>
<li class="menu-item menu-item-type-post_type menu-item-object-page menu-item-207" id="menu-item-207"><a href="https://www.cehm53.org/les-partenaires/">Les partenaires</a></li>
</ul>
</li>
<li class="menu-item menu-item-type-post_type menu-item-object-page menu-item-186" id="menu-item-186"><a href="https://www.cehm53.org/contacter-le-club-dentreprises/">Contact</a></li>
</ul></div></nav></div></div> </div><!-- Main Header Container -->
</div><!-- ast-row -->
</div> <!-- Main Header Bar -->
</div> <!-- Main Header Bar Wrap -->
</header><!-- #masthead -->
<div class="site-content" id="content">
<div class="ast-container">
<div class="content-area primary" id="primary">
<main class="site-main" id="main">
<div class="ast-row">
<article class="post-330 post type-post status-publish format-standard hentry category-vie-du-club ast-col-sm-12 ast-article-post" id="post-330" itemscope="itemscope" itemtype="https://schema.org/CreativeWork">
<div class="ast-post-format- ast-no-thumb blog-layout-1">
<div class="post-content ast-col-md-12">
<div class="ast-blog-featured-section post-thumb ast-col-md-12"></div> <header class="entry-header">
<h2 class="entry-title" itemprop="headline"><a href="https://www.cehm53.org/2021/01/voeux-2021/" rel="bookmark">Vœux 2021</a></h2> <div class="entry-meta"><span class="cat-links"><a href="https://www.cehm53.org/category/vie-du-club/" rel="category tag">Vie du Club</a></span></div> </header><!-- .entry-header -->
<div class="entry-content clear" itemprop="text">
<p>Chers tous, chers entrepreneurs, chers partenaires, 2020 s’achève, année qui aura brisé les certitudes, qui nous aura obligé à sortir de nos sentiers battus, qui nous aura imposé d’avancer dans l’inconnu…Pour nous tous, ce fût une année inédite, épuisante dans la gestion de nos structures, mais aussi une année révélatrice de solidarités, de talents, de …</p>
<p class="read-more"> <a class="" href="https://www.cehm53.org/2021/01/voeux-2021/"> <span class="screen-reader-text">Vœux 2021</span> Lire la suite »</a></p>
</div><!-- .entry-content .clear -->
</div><!-- .post-content -->
</div> <!-- .blog-layout-1 -->
</article><!-- #post-## -->
<article class="post-305 post type-post status-publish format-standard hentry category-conferences category-vie-du-club tag-assemblee-generale tag-conference ast-col-sm-12 ast-article-post" id="post-305" itemscope="itemscope" itemtype="https://schema.org/CreativeWork">
<div class="ast-post-format- ast-no-thumb blog-layout-1">
<div class="post-content ast-col-md-12">
<div class="ast-blog-featured-section post-thumb ast-col-md-12"></div> <header class="entry-header">
<h2 class="entry-title" itemprop="headline"><a href="https://www.cehm53.org/2020/10/assemblee-generale-2020/" rel="bookmark">Assemblée Générale 2020</a></h2> <div class="entry-meta"><span class="cat-links"><a href="https://www.cehm53.org/category/conferences/" rel="category tag">Conférences</a>, <a href="https://www.cehm53.org/category/vie-du-club/" rel="category tag">Vie du Club</a></span></div> </header><!-- .entry-header -->
<div class="entry-content clear" itemprop="text">
<p>Le mardi 29 octobre 2020, s’est tenue l’assemblée générale du Club d’Entreprises de Haute Mayenne. Cette année c’est le site des châteliers qui a été retenu pour la soirée. Le programme a débuté avec l’assemblée générale. S’est suivi une conférence animée par Carine Pavard “manag’heureuse”. Le thème abordé a été choisi suite à la crise …</p>
<p class="read-more"> <a class="" href="https://www.cehm53.org/2020/10/assemblee-generale-2020/"> <span class="screen-reader-text">Assemblée Générale 2020</span> Lire la suite »</a></p>
</div><!-- .entry-content .clear -->
</div><!-- .post-content -->
</div> <!-- .blog-layout-1 -->
</article><!-- #post-## -->
<article class="post-290 post type-post status-publish format-standard hentry category-visites-d-entreprises ast-col-sm-12 ast-article-post" id="post-290" itemscope="itemscope" itemtype="https://schema.org/CreativeWork">
<div class="ast-post-format- ast-no-thumb blog-layout-1">
<div class="post-content ast-col-md-12">
<div class="ast-blog-featured-section post-thumb ast-col-md-12"></div> <header class="entry-header">
<h2 class="entry-title" itemprop="headline"><a href="https://www.cehm53.org/2020/03/journee-nationale-de-recrutement-pour-le-reseau-daniel-moquet-signe-vos-allees/" rel="bookmark">Journée nationale de recrutement pour le réseau Daniel Moquet Signe Vos Allées</a></h2> <div class="entry-meta"><span class="cat-links"><a href="https://www.cehm53.org/category/visites-d-entreprises/" rel="category tag">Visites d'entreprises</a></span></div> </header><!-- .entry-header -->
<div class="entry-content clear" itemprop="text">
<p>Daniel Moquet Signe Vos Allées, spécialiste des aménagements d’extérieur pour les allées, cours et terrasses, a organisé, une opération baptisée « Journée Job &amp; avenir ». Cette grande première a eu lieu les 7 et 8 février 2020 . Le principe ?Inviter, au cœur des agences du réseau, jeunes et moins jeunes en quête d’un …</p>
<p class="read-more"> <a class="" href="https://www.cehm53.org/2020/03/journee-nationale-de-recrutement-pour-le-reseau-daniel-moquet-signe-vos-allees/"> <span class="screen-reader-text">Journée nationale de recrutement pour le réseau Daniel Moquet Signe Vos Allées</span> Lire la suite »</a></p>
</div><!-- .entry-content .clear -->
</div><!-- .post-content -->
</div> <!-- .blog-layout-1 -->
</article><!-- #post-## -->
<article class="post-273 post type-post status-publish format-standard hentry category-visites-d-entreprises ast-col-sm-12 ast-article-post" id="post-273" itemscope="itemscope" itemtype="https://schema.org/CreativeWork">
<div class="ast-post-format- ast-no-thumb blog-layout-1">
<div class="post-content ast-col-md-12">
<div class="ast-blog-featured-section post-thumb ast-col-md-12"></div> <header class="entry-header">
<h2 class="entry-title" itemprop="headline"><a href="https://www.cehm53.org/2020/02/temps-fort-au-lycee-leonard-de-vinci/" rel="bookmark">Temps fort au Lycée Léonard de Vinci</a></h2> <div class="entry-meta"><span class="cat-links"><a href="https://www.cehm53.org/category/visites-d-entreprises/" rel="category tag">Visites d'entreprises</a></span></div> </header><!-- .entry-header -->
<div class="entry-content clear" itemprop="text">
<p>A l’origine de ce temps fort, les élèves du lycée, qui ont organisé des mini-conférences autour de la création d’entreprise. Ainsi le 22 janvier dernier, différentes thématiques ont été abordées autour de la création d’entreprise dont un groupe “Témoignage chef d’entreprise”. 120 élèves ont participé à cette journée. Des membres du club d’entreprises étaient présents …</p>
<p class="read-more"> <a class="" href="https://www.cehm53.org/2020/02/temps-fort-au-lycee-leonard-de-vinci/"> <span class="screen-reader-text">Temps fort au Lycée Léonard de Vinci</span> Lire la suite »</a></p>
</div><!-- .entry-content .clear -->
</div><!-- .post-content -->
</div> <!-- .blog-layout-1 -->
</article><!-- #post-## -->
<article class="post-124 post type-post status-publish format-standard has-post-thumbnail hentry category-vie-du-club ast-col-sm-12 ast-article-post" id="post-124" itemscope="itemscope" itemtype="https://schema.org/CreativeWork">
<div class="ast-post-format- blog-layout-1">
<div class="post-content ast-col-md-12">
<div class="ast-blog-featured-section post-thumb ast-col-md-12"><div class="post-thumb-img-content post-thumb"><a href="https://www.cehm53.org/2019/07/le-club-change-de-logo/"><img alt="" class="attachment-large size-large wp-post-image" height="100" itemprop="image" loading="lazy" sizes="(max-width: 400px) 100vw, 400px" src="https://www.cehm53.org/wp-content/uploads/2019/07/Logo2.png" srcset="https://www.cehm53.org/wp-content/uploads/2019/07/Logo2.png 400w, https://www.cehm53.org/wp-content/uploads/2019/07/Logo2-300x75.png 300w" width="400"/></a></div></div> <header class="entry-header">
<h2 class="entry-title" itemprop="headline"><a href="https://www.cehm53.org/2019/07/le-club-change-de-logo/" rel="bookmark">Le Club change de logo</a></h2> <div class="entry-meta"><span class="cat-links"><a href="https://www.cehm53.org/category/vie-du-club/" rel="category tag">Vie du Club</a></span></div> </header><!-- .entry-header -->
<div class="entry-content clear" itemprop="text">
<p>Le Club d’Entreprises évolue, son logo aussi</p>
</div><!-- .entry-content .clear -->
</div><!-- .post-content -->
</div> <!-- .blog-layout-1 -->
</article><!-- #post-## -->
<article class="post-80 post type-post status-publish format-standard has-post-thumbnail hentry category-actions ast-col-sm-12 ast-article-post" id="post-80" itemscope="itemscope" itemtype="https://schema.org/CreativeWork">
<div class="ast-post-format- blog-layout-1">
<div class="post-content ast-col-md-12">
<div class="ast-blog-featured-section post-thumb ast-col-md-12"><div class="post-thumb-img-content post-thumb"><a href="https://www.cehm53.org/2018/11/les-1000-metiers-en-haute-mayenne/"><img alt="" class="attachment-large size-large wp-post-image" height="100" itemprop="image" loading="lazy" sizes="(max-width: 400px) 100vw, 400px" src="https://www.cehm53.org/wp-content/uploads/2018/11/1000metiers2.jpg" srcset="https://www.cehm53.org/wp-content/uploads/2018/11/1000metiers2.jpg 400w, https://www.cehm53.org/wp-content/uploads/2018/11/1000metiers2-300x75.jpg 300w" width="400"/></a></div></div> <header class="entry-header">
<h2 class="entry-title" itemprop="headline"><a href="https://www.cehm53.org/2018/11/les-1000-metiers-en-haute-mayenne/" rel="bookmark">Les 1000 métiers en Haute Mayenne</a></h2> <div class="entry-meta"><span class="cat-links"><a href="https://www.cehm53.org/category/actions/" rel="category tag">Actions</a></span></div> </header><!-- .entry-header -->
<div class="entry-content clear" itemprop="text">
</div><!-- .entry-content .clear -->
</div><!-- .post-content -->
</div> <!-- .blog-layout-1 -->
</article><!-- #post-## -->
<article class="post-85 post type-post status-publish format-standard has-post-thumbnail hentry category-visites-d-entreprises ast-col-sm-12 ast-article-post" id="post-85" itemscope="itemscope" itemtype="https://schema.org/CreativeWork">
<div class="ast-post-format- blog-layout-1">
<div class="post-content ast-col-md-12">
<div class="ast-blog-featured-section post-thumb ast-col-md-12"><div class="post-thumb-img-content post-thumb"><a href="https://www.cehm53.org/2018/09/visite-de-lancelin-et-de-longchamp/"><img alt="" class="attachment-large size-large wp-post-image" height="99" itemprop="image" loading="lazy" sizes="(max-width: 396px) 100vw, 396px" src="https://www.cehm53.org/wp-content/uploads/2018/09/Lancelin-Longchamp3.jpg" srcset="https://www.cehm53.org/wp-content/uploads/2018/09/Lancelin-Longchamp3.jpg 396w, https://www.cehm53.org/wp-content/uploads/2018/09/Lancelin-Longchamp3-300x75.jpg 300w" width="396"/></a></div></div> <header class="entry-header">
<h2 class="entry-title" itemprop="headline"><a href="https://www.cehm53.org/2018/09/visite-de-lancelin-et-de-longchamp/" rel="bookmark">Visite de Lancelin et de Longchamp</a></h2> <div class="entry-meta"><span class="cat-links"><a href="https://www.cehm53.org/category/visites-d-entreprises/" rel="category tag">Visites d'entreprises</a></span></div> </header><!-- .entry-header -->
<div class="entry-content clear" itemprop="text">
<p>La visite des sociétés Lancelin et Longchamp a réuni 24 participants</p>
</div><!-- .entry-content .clear -->
</div><!-- .post-content -->
</div> <!-- .blog-layout-1 -->
</article><!-- #post-## -->
<article class="post-149 post type-post status-publish format-standard has-post-thumbnail hentry category-visites-d-entreprises ast-col-sm-12 ast-article-post" id="post-149" itemscope="itemscope" itemtype="https://schema.org/CreativeWork">
<div class="ast-post-format- blog-layout-1">
<div class="post-content ast-col-md-12">
<div class="ast-blog-featured-section post-thumb ast-col-md-12"><div class="post-thumb-img-content post-thumb"><a href="https://www.cehm53.org/2018/06/visite-du-pole-sante-de-mayenne-communaute/"><img alt="Mayenne Communauté" class="attachment-large size-large wp-post-image" height="100" itemprop="image" loading="lazy" sizes="(max-width: 400px) 100vw, 400px" src="https://www.cehm53.org/wp-content/uploads/2019/09/sante.jpg" srcset="https://www.cehm53.org/wp-content/uploads/2019/09/sante.jpg 400w, https://www.cehm53.org/wp-content/uploads/2019/09/sante-300x75.jpg 300w" width="400"/></a></div></div> <header class="entry-header">
<h2 class="entry-title" itemprop="headline"><a href="https://www.cehm53.org/2018/06/visite-du-pole-sante-de-mayenne-communaute/" rel="bookmark">Visite du Pôle Santé de Mayenne Communauté</a></h2> <div class="entry-meta"><span class="cat-links"><a href="https://www.cehm53.org/category/visites-d-entreprises/" rel="category tag">Visites d'entreprises</a></span></div> </header><!-- .entry-header -->
<div class="entry-content clear" itemprop="text">
<p>Le 12 juin dernier, le Club d’Entreprises de Haute Mayenne a visité le Pôle Santé de Mayenne Communauté</p>
</div><!-- .entry-content .clear -->
</div><!-- .post-content -->
</div> <!-- .blog-layout-1 -->
</article><!-- #post-## -->
<article class="post-140 post type-post status-publish format-standard has-post-thumbnail hentry category-visites-d-entreprises ast-col-sm-12 ast-article-post" id="post-140" itemscope="itemscope" itemtype="https://schema.org/CreativeWork">
<div class="ast-post-format- blog-layout-1">
<div class="post-content ast-col-md-12">
<div class="ast-blog-featured-section post-thumb ast-col-md-12"><div class="post-thumb-img-content post-thumb"><a href="https://www.cehm53.org/2018/03/visite-du-nouveau-centre-aquatique-la-vague/"><img alt="La Vague" class="attachment-large size-large wp-post-image" height="100" itemprop="image" loading="lazy" sizes="(max-width: 400px) 100vw, 400px" src="https://www.cehm53.org/wp-content/uploads/2019/09/la_vague.png" srcset="https://www.cehm53.org/wp-content/uploads/2019/09/la_vague.png 400w, https://www.cehm53.org/wp-content/uploads/2019/09/la_vague-300x75.png 300w" width="400"/></a></div></div> <header class="entry-header">
<h2 class="entry-title" itemprop="headline"><a href="https://www.cehm53.org/2018/03/visite-du-nouveau-centre-aquatique-la-vague/" rel="bookmark">Visite du nouveau centre aquatique La Vague</a></h2> <div class="entry-meta"><span class="cat-links"><a href="https://www.cehm53.org/category/visites-d-entreprises/" rel="category tag">Visites d'entreprises</a></span></div> </header><!-- .entry-header -->
<div class="entry-content clear" itemprop="text">
<p>16 adhérents du Club d’Entreprises ont fait le grand plongeon</p>
</div><!-- .entry-content .clear -->
</div><!-- .post-content -->
</div> <!-- .blog-layout-1 -->
</article><!-- #post-## -->
<article class="post-145 post type-post status-publish format-standard has-post-thumbnail hentry category-visites-d-entreprises ast-col-sm-12 ast-article-post" id="post-145" itemscope="itemscope" itemtype="https://schema.org/CreativeWork">
<div class="ast-post-format- blog-layout-1">
<div class="post-content ast-col-md-12">
<div class="ast-blog-featured-section post-thumb ast-col-md-12"><div class="post-thumb-img-content post-thumb"><a href="https://www.cehm53.org/2018/02/visite-de-lentreprise-jouve/"><img alt="Logo Jouve" class="attachment-large size-large wp-post-image" height="100" itemprop="image" loading="lazy" sizes="(max-width: 400px) 100vw, 400px" src="https://www.cehm53.org/wp-content/uploads/2019/09/jouve.jpg" srcset="https://www.cehm53.org/wp-content/uploads/2019/09/jouve.jpg 400w, https://www.cehm53.org/wp-content/uploads/2019/09/jouve-300x75.jpg 300w" width="400"/></a></div></div> <header class="entry-header">
<h2 class="entry-title" itemprop="headline"><a href="https://www.cehm53.org/2018/02/visite-de-lentreprise-jouve/" rel="bookmark">Visite de l’entreprise JOUVE</a></h2> <div class="entry-meta"><span class="cat-links"><a href="https://www.cehm53.org/category/visites-d-entreprises/" rel="category tag">Visites d'entreprises</a></span></div> </header><!-- .entry-header -->
<div class="entry-content clear" itemprop="text">
<p>Le Club d’Entreprises a offert à ses membres une visite exceptionnelle de l’entreprise Jouve</p>
</div><!-- .entry-content .clear -->
</div><!-- .post-content -->
</div> <!-- .blog-layout-1 -->
</article><!-- #post-## -->
</div>
</main><!-- #main -->
<div class="ast-pagination">
<nav aria-label="Publications" class="navigation pagination" role="navigation">
<h2 class="screen-reader-text">Navigation des articles</h2>
<div class="nav-links"><span aria-current="page" class="page-numbers current">1</span>
<a class="page-numbers" href="https://www.cehm53.org/page/2/">2</a>
<a class="next page-numbers" href="https://www.cehm53.org/page/2/">Page suivante <span class="ast-right-arrow">→</span></a></div>
</nav></div>
</div><!-- #primary -->
<div class="widget-area secondary" id="secondary" itemscope="itemscope" itemtype="https://schema.org/WPSideBar" role="complementary">
<div class="sidebar-main">
<aside class="widget widget_search" id="search-2"><form action="https://www.cehm53.org/" class="search-form" method="get" role="search">
<label>
<span class="screen-reader-text">Rechercher :</span>
<input class="search-field" name="s" placeholder="Rechercher…" type="search" value=""/>
</label>
<input class="search-submit" type="submit" value="Rechercher"/>
</form></aside>
<aside class="widget widget_recent_entries" id="recent-posts-2">
<h2 class="widget-title">Articles récents</h2>
<ul>
<li>
<a href="https://www.cehm53.org/2021/01/voeux-2021/">Vœux 2021</a>
</li>
<li>
<a href="https://www.cehm53.org/2020/10/assemblee-generale-2020/">Assemblée Générale 2020</a>
</li>
<li>
<a href="https://www.cehm53.org/2020/03/journee-nationale-de-recrutement-pour-le-reseau-daniel-moquet-signe-vos-allees/">Journée nationale de recrutement pour le réseau Daniel Moquet Signe Vos Allées</a>
</li>
<li>
<a href="https://www.cehm53.org/2020/02/temps-fort-au-lycee-leonard-de-vinci/">Temps fort au Lycée Léonard de Vinci</a>
</li>
<li>
<a href="https://www.cehm53.org/2019/07/le-club-change-de-logo/">Le Club change de logo</a>
</li>
</ul>
</aside><aside class="widget widget_archive" id="archives-2"><h2 class="widget-title">Archives</h2> <label class="screen-reader-text" for="archives-dropdown-2">Archives</label>
<select id="archives-dropdown-2" name="archive-dropdown">
<option value="">Sélectionner un mois</option>
<option value="https://www.cehm53.org/2021/01/"> janvier 2021  (1)</option>
<option value="https://www.cehm53.org/2020/10/"> octobre 2020  (1)</option>
<option value="https://www.cehm53.org/2020/03/"> mars 2020  (1)</option>
<option value="https://www.cehm53.org/2020/02/"> février 2020  (1)</option>
<option value="https://www.cehm53.org/2019/07/"> juillet 2019  (1)</option>
<option value="https://www.cehm53.org/2018/11/"> novembre 2018  (1)</option>
<option value="https://www.cehm53.org/2018/09/"> septembre 2018  (1)</option>
<option value="https://www.cehm53.org/2018/06/"> juin 2018  (1)</option>
<option value="https://www.cehm53.org/2018/03/"> mars 2018  (1)</option>
<option value="https://www.cehm53.org/2018/02/"> février 2018  (1)</option>
<option value="https://www.cehm53.org/2016/06/"> juin 2016  (1)</option>
<option value="https://www.cehm53.org/2016/03/"> mars 2016  (2)</option>
<option value="https://www.cehm53.org/2016/01/"> janvier 2016  (1)</option>
<option value="https://www.cehm53.org/2015/06/"> juin 2015  (1)</option>
<option value="https://www.cehm53.org/2015/05/"> mai 2015  (1)</option>
<option value="https://www.cehm53.org/2015/04/"> avril 2015  (2)</option>
<option value="https://www.cehm53.org/2015/01/"> janvier 2015  (1)</option>
<option value="https://www.cehm53.org/2014/09/"> septembre 2014  (1)</option>
</select>
<script>
/* <![CDATA[ */
(function() {
	var dropdown = document.getElementById( "archives-dropdown-2" );
	function onSelectChange() {
		if ( dropdown.options[ dropdown.selectedIndex ].value !== '' ) {
			document.location.href = this.options[ this.selectedIndex ].value;
		}
	}
	dropdown.onchange = onSelectChange;
})();
/* ]]> */
</script>
</aside><aside class="widget widget_categories" id="categories-2"><h2 class="widget-title">Catégories</h2>
<ul>
<li class="cat-item cat-item-5"><a href="https://www.cehm53.org/category/actions/">Actions</a>
</li>
<li class="cat-item cat-item-6"><a href="https://www.cehm53.org/category/conferences/">Conférences</a>
</li>
<li class="cat-item cat-item-4"><a href="https://www.cehm53.org/category/salons/">Salons</a>
</li>
<li class="cat-item cat-item-7"><a href="https://www.cehm53.org/category/vie-du-club/">Vie du Club</a>
</li>
<li class="cat-item cat-item-3"><a href="https://www.cehm53.org/category/visites-d-entreprises/">Visites d'entreprises</a>
</li>
</ul>
</aside>
</div><!-- .sidebar-main -->
</div><!-- #secondary -->
</div> <!-- ast-container -->
</div><!-- #content -->
<footer class="site-footer" id="colophon" itemid="#colophon" itemscope="itemscope" itemtype="https://schema.org/WPFooter">
<div class="ast-small-footer footer-sml-layout-1">
<div class="ast-footer-overlay">
<div class="ast-container">
<div class="ast-small-footer-wrap">
<div class="ast-small-footer-section ast-small-footer-section-1">
						Copyright © 2021 <span class="ast-footer-site-title">Club d'Entreprises de Haute Mayenne</span>   |   <a href="/mentions-legales/" title="Mentions légales">Mentions légales et politique de confidentialité</a> </div>
</div><!-- .ast-row .ast-small-footer-wrap -->
</div><!-- .ast-container -->
</div><!-- .ast-footer-overlay -->
</div><!-- .ast-small-footer-->
</footer><!-- #colophon -->
</div><!-- #page -->
<script id="astra-theme-js-js-extra">
var astra = {"break_point":"921","isRtl":""};
</script>
<script id="astra-theme-js-js" src="https://www.cehm53.org/wp-content/themes/astra/assets/js/minified/style.min.js"></script>
<script id="contact-form-7-js-extra">
var wpcf7 = {"apiSettings":{"root":"https:\/\/www.cehm53.org\/wp-json\/contact-form-7\/v1","namespace":"contact-form-7\/v1"}};
</script>
<script id="contact-form-7-js" src="https://www.cehm53.org/wp-content/plugins/contact-form-7/includes/js/scripts.js"></script>
<script id="wp-embed-js" src="https://www.cehm53.org/wp-includes/js/wp-embed.min.js"></script>
<script>
			/(trident|msie)/i.test(navigator.userAgent)&&document.getElementById&&window.addEventListener&&window.addEventListener("hashchange",function(){var t,e=location.hash.substring(1);/^[A-z0-9_-]+$/.test(e)&&(t=document.getElementById(e))&&(/^(?:a|select|input|button|textarea)$/i.test(t.tagName)||(t.tabIndex=-1),t.focus())},!1);
			</script>
<!-- Cookie Notice plugin v1.3.2 by Digital Factory https://dfactory.eu/ -->
<div aria-label="Cookie Notice" class="cookie-notice-hidden cookie-revoke-hidden cn-position-bottom" id="cookie-notice" role="banner" style="background-color: rgba(0,0,0,1);"><div class="cookie-notice-container" style="color: #fff;"><span class="cn-text-container" id="cn-notice-text">Nous utilisons des cookies pour vous garantir la meilleure expérience sur notre site. Si vous continuez à utiliser ce dernier, nous considérerons que vous acceptez l'utilisation des cookies.</span><span class="cn-buttons-container" id="cn-notice-buttons"><a aria-label="Ok" class="cn-set-cookie cn-button bootstrap button" data-cookie-set="accept" href="#" id="cn-accept-cookie">Ok</a></span><a aria-label="Ok" class="cn-close-icon" data-cookie-set="accept" href="javascript:void(0);" id="cn-close-notice"></a></div>
</div>
<!-- / Cookie Notice plugin -->
</body>
</html>
