<html><head><script language="JavaScript" src="js/menu_en.js" type="text/javascript"></script>
<script language="JavaScript" src="js/mmenu.js" type="text/javascript"></script>
<!DOCTYPE HTML PUBLIC "-//W3C//DTD HTML 4.01 Transitional//EN">

<style type="text/css">
@import url(http://www.google.com/cse/api/branding.css);
</style>
<meta content="en-us" http-equiv="Content-Language"/>
<meta content="Search SWIFT CODES by Country" name="description"/>
<meta content="Swift Code of BIC SWFIT Codes BANKS Bank in mt103 transfer correspondent account SWIFT MT 103" name="keywords"/>
<meta content="index,follow" name="robots"/>
<meta content="10 days" name="revisit-after"/>
<meta content="" name="page-topic"/>
<meta content="all" name="audience"/>
<meta content="INDEX,FOLLOW" name="robots"/>
<meta content="NEVER" name="expires"/>
<meta content="Microsoft FrontPage 6.0" name="GENERATOR"/>
<meta content="FrontPage.Editor.Document" name="ProgId"/>
<title>Search Swift Codes by country</title>
<style type="text/css">
<!--
table {
	font: 12pt "verdana", arial, sans-serif
}
body         { color: #333333; background-color: #FFFFFF; background-image: 
               url('images/index_topstrip.gif'); background-repeat: 
               repeat-x; font-family: 'trebuchet ms', Arial, sans-serif; 
               font-size: 9pt }
p {
	margin-top: 0px;
	margin-bottom: 0px;
	}
	
#content ul  { color: #333333; list-style-image: url('images/index_bullet.gif'); 
               margin-top: 0px; margin-bottom: 0px }
#content blockquote {
	margin-top: 0px;
	margin-bottom: 0px;
	color: #333333
	margin-right: 0px;
}

#content ol {
	margin-top: 0px;
	margin-bottom: 0px;
	color: #333333
}
#header {
	position: absolute;
	height: auto;
	width: auto;
	left: 0px;
	top: 0px;
	visibility: visible;
}

#logo {
	position: absolute;
	height: auto;
	width: auto;
	left: 10px;
	top: 165px;
}

#hnavigation {
	position: absolute;
	height: auto;
	left: 20px;
	top: 129px;
	z-index: 5;
	background-color: #3c9bf7;/*themecolour1;*/
}

#vnavigation {
	position: absolute;
	height: auto;
	width: auto;
	left: 20px;
	top: 320px;
}

.imageborder {
	border-left-width: 1px;
	border-left-style: solid;
	border-left-color: #FFFFFF;
}

#imagebar {
	position: absolute;
	height: auto;
	width: auto;
	right: 60px;
	top: 25px;
	z-index: 6;
}
.imagebox {
	border: 1px solid #FFFFFF;
}

#content {
	position: absolute;
	height: auto;
	width: auto;
	left: 20px;
	top: 180px;
	right: 60px;
}

h1 {
	font-size: 16px;
	color: #005db6;/*themecolour5;*/
	margin-top: 0px;
	margin-bottom: 3px;
}
h2 {
	font-size: 16px;
	color: #000000;/*themecolour6%0;*/
	margin-top: 0px;
	margin-bottom: 3px;
}
#content a:link {
	color: #005db6;/*themecolour5;*/
}
#content a:visited {
	color: #999999;
}
#content a:link:hover {
	color: #3c9bf7;/*themecolour1;*/
}

.content {
	padding-left: 20px;
}
.short_text{font-size:19px;line-height:1.35em}#result_box{vertical-align:top;margin-bottom:5px}-->
</style>
</head><body leftmargin="0" topmargin="0">
<div id="header">
<table cellpadding="0" cellspacing="0" width="100%">
<tr>
<td valign="top" width="520">
<img border="0" height="126" src="swiftcode.jpg" width="127"/></td>
<td align="center" width="100%">
<b><font size="6">
<!--top-->
    SWIFT CODE LIST</font></b></td></tr>
</table>
</div>
<div id="content" style="width: 1024; height: 460">
<table border="0" cellpadding="0" cellspacing="0" width="1024">
<tr>
<td valign="top" width="195"> <p> </p>
<table border="0" width="101%">
<tr>
<td align="center" width="100%">
             
<style>
<!--
td {
font-size:12px;
padding:3px;
text-align:left;
}
.lpart {
background-color:#f0f0f0;
padding:0px;
}
.lpage {
font:normal 12px verdana;
}
-->
</style>
<script async="" src="//pagead2.googlesyndication.com/pagead/js/adsbygoogle.js"></script>
<script>
     (adsbygoogle = window.adsbygoogle || []).push({
          google_ad_client: "ca-pub-6193700903284303",
          enable_page_level_ads: true
     });
</script>
<table border="0" cellpadding="0" cellspacing="0" width="100%">
<tr style="background: #fff">
<td class="lpage">
<a href="http://codigosswift.com/lista-de-codigos-swift-x-pais.html" style="color: #0180AF; text-decoration: underline; font-weight: 700" title="Lista de Codigos SWIFT por Paises - Lista de codigos SWIFT">
<font size="3">Lista de Codigos SWIFT por Paises - Lista de codigos 
		SWIFT</font></a></td>
</tr>
<tr style="background: #fff">
<td class="lpage">
<a href="http://codigosswift.com/asia.html" style="color: #0180AF; text-decoration: underline" title="Codigos SWIFT Bancos en Asia - Lista de codigos SWIFT">
<font size="2">Codigos SWIFT Bancos en Asia - Lista de codigos SWIFT</font></a></td>
</tr>
<tr style="background: #fff">
<td class="lpage">
<a href="http://codigosswift.com/africa.html" style="color: #0180AF; text-decoration: underline" title="Codigos SWIFT Bancos en Africa - Lista de codigos SWIFT">
<font size="2">Codigos SWIFT Bancos en Africa - Lista de codigos SWIFT</font></a></td>
</tr>
<tr style="background: #fff">
<td class="lpage">
<a href="http://codigosswift.com/africa-2.html" style="color: #0180AF; text-decoration: underline" title="Codigos SWIFT Bancos en Africa - Lista de codigos SWIFT">
<font size="2">Codigos SWIFT Bancos en Africa - Lista de codigos SWIFT</font></a></td>
</tr>
<tr style="background: #fff">
<td class="lpage">
<a href="http://codigosswift.com/africa-3.html" style="color: #0180AF; text-decoration: underline" title="Codigos SWIFT Bancos en Africa - Lista de codigos SWIFT">
<font size="2">Codigos SWIFT Bancos en Africa - Lista de codigos SWIFT</font></a></td>
</tr>
<tr style="background: #fff">
<td class="lpage">
<a href="http://codigosswift.com/albania.html" style="color: #0180AF; text-decoration: underline" title="Codigos SWIFT Bancos de Albania - Lista de codigos SWIFT">
<font size="2">Codigos SWIFT Bancos de Albania - Lista de codigos SWIFT</font></a></td>
</tr>
<tr style="background: #fff">
<td class="lpage">
<a href="http://codigosswift.com/alemania.html" style="color: #0180AF; text-decoration: underline" title="Codigos SWIFT Sort BIC Bancos de Alemania - Lista de codigos SWIFT">
<font size="2">Codigos SWIFT Sort BIC Bancos de Alemania - Lista de 
		codigos SWIFT</font></a></td>
</tr>
<tr style="background: #fff">
<td class="lpage">
<a href="http://codigosswift.com/alemania-swift.html" style="color: #0180AF; text-decoration: underline" title="Codigos SWIFT Bancos en Alemania - Lista de codigos SWIFT">
<font size="2">Codigos SWIFT Bancos en Alemania - Lista de codigos SWIFT</font></a></td>
</tr>
<tr style="background: #fff">
<td class="lpage">
<a href="http://codigosswift.com/angola.html" style="color: #0180AF; text-decoration: underline" title="Codigos SWIFT Bancos en Angola - Lista de codigos SWIFT">
<font size="2">Codigos SWIFT Bancos en Angola - Lista de codigos SWIFT</font></a></td>
</tr>
<tr style="background: #fff">
<td class="lpage">
<a href="http://codigosswift.com/andorra.html" style="color: #0180AF; text-decoration: underline" title="Codigos SWIFT Bancos en Andorra - Lista de codigos SWIFT">
<font size="2">Codigos SWIFT Bancos en Andorra - Lista de codigos SWIFT</font></a></td>
</tr>
<tr style="background: #fff">
<td class="lpage">
<a href="http://codigosswift.com/anguilla.html" style="color: #0180AF; text-decoration: underline" title="Codigos SWIFT Bancos en Anguilla - Lista de codigos SWIFT">
<font size="2">Codigos SWIFT Bancos en Anguilla - Lista de codigos SWIFT</font></a></td>
</tr>
<tr style="background: #fff">
<td class="lpage">
<a href="http://codigosswift.com/antillas---caribe.html" style="color: #0180AF; text-decoration: underline" title="Codigos SWIFT Bancos de Antillas - Caribe - Lista de codigos SWIFT">
<font size="2">Codigos SWIFT Bancos de Antillas - Caribe - Lista de 
		codigos SWIFT</font></a></td>
</tr>
<tr style="background: #fff">
<td class="lpage">
<a href="http://codigosswift.com/armenia.html" style="color: #0180AF; text-decoration: underline" title="Codigos SWIFT Bancos en Armenia - Lista de codigos SWIFT">
<font size="2">Codigos SWIFT Bancos en Armenia - Lista de codigos SWIFT</font></a></td>
</tr>
<tr style="background: #fff">
<td class="lpage">
<a href="http://codigosswift.com/aruba.html" style="color: #0180AF; text-decoration: underline" title="Codigos SWIFT Bancos en Aruba - Lista de codigos SWIFT">
<font size="2">Codigos SWIFT Bancos en Aruba - Lista de codigos SWIFT</font></a></td>
</tr>
<tr style="background: #fff">
<td class="lpage">
<a href="http://codigosswift.com/codigo_swift_bancos_australia.html" style="color: #0180AF; text-decoration: underline" title="Codigos SWIFT de Bancos en Australia - Lista de codigos SWIFT">
<font size="2">Codigos SWIFT de Bancos en Australia - Lista de codigos 
		SWIFT</font></a></td>
</tr>
<tr style="background: #fff">
<td class="lpage">
<a href="http://codigosswift.com/austria.html" style="color: #0180AF; text-decoration: underline" title="Codigos SWIFT Bancos de Austria - Lista de codigos SWIFT">
<font size="2">Codigos SWIFT Bancos de Austria - Lista de codigos SWIFT</font></a></td>
</tr>
<tr style="background: #fff">
<td class="lpage">
<a href="http://codigosswift.com/argentina.html" style="color: #0180AF; text-decoration: underline" title="Codigos SWIFT Bancos en Argentina - Lista de codigos SWIFT">
<font size="2">Codigos SWIFT Bancos en Argentina - Lista de codigos 
		SWIFT</font></a></td>
</tr>
<tr style="background: #fff">
<td class="lpage">
<a href="http://codigosswift.com/armenia-1.html" style="color: #0180AF; text-decoration: underline" title="Codigos SWIFT Bancos de Armenia - Lista de codigos SWIFT">
<font size="2">Codigos SWIFT Bancos de Armenia - Lista de codigos SWIFT</font></a></td>
</tr>
<tr style="background: #fff">
<td class="lpage">
<a href="http://codigosswift.com/azerbaijan.html" style="color: #0180AF; text-decoration: underline" title="Codigos SWIFT Bancos en Azerbaijan - Lista de codigos SWIFT">
<font size="2">Codigos SWIFT Bancos en Azerbaijan - Lista de codigos 
		SWIFT</font></a></td>
</tr>
<tr style="background: #fff">
<td class="lpage">
<a href="http://codigosswift.com/bahamas.html" style="color: #0180AF; text-decoration: underline" title="Codigo SWIFT Bancos de Bahamas - Lista de codigos SWIFT">
<font size="2">Codigo SWIFT Bancos de Bahamas - Lista de codigos SWIFT</font></a></td>
</tr>
<tr style="background: #fff">
<td class="lpage">
<a href="http://codigosswift.com/bangladesh.html" style="color: #0180AF; text-decoration: underline" title="Codigo SWIFT Bancos de Bangladesh - Lista de codigos SWIFT">
<font size="2">Codigo SWIFT Bancos de Bangladesh - Lista de codigos 
		SWIFT</font></a></td>
</tr>
<tr style="background: #fff">
<td class="lpage">
<a href="http://codigosswift.com/barbados.html" style="color: #0180AF; text-decoration: underline" title="Codigos SWIFT Bancos en Barbados - Lista de codigos SWIFT">
<font size="2">Codigos SWIFT Bancos en Barbados - Lista de codigos SWIFT</font></a></td>
</tr>
<tr style="background: #fff">
<td class="lpage">
<a href="http://codigosswift.com/bahrain.html" style="color: #0180AF; text-decoration: underline" title="Lista codigos SWIFT Bancos Bahrain - Lista de codigos SWIFT">
<font size="2">Lista codigos SWIFT Bancos Bahrain - Lista de codigos 
		SWIFT</font></a></td>
</tr>
<tr style="background: #fff">
<td class="lpage">
<a href="http://codigosswift.com/belice.html" style="color: #0180AF; text-decoration: underline" title="Lista de Codigos SWIFT bancos de Beliz - Lista de codigos SWIFT">
<font size="2">Lista de Codigos SWIFT bancos de Beliz - Lista de codigos 
		SWIFT</font></a></td>
</tr>
<tr style="background: #fff">
<td class="lpage">
<a href="http://codigosswift.com/bielorrusia.html" style="color: #0180AF; text-decoration: underline" title="Codigo SWIFT bancos Bielorrusia - Lista de codigos SWIFT">
<font size="2">Codigo SWIFT bancos Bielorrusia - Lista de codigos SWIFT</font></a></td>
</tr>
<tr style="background: #fff">
<td class="lpage">
<a href="http://codigosswift.com/belgica.html" style="color: #0180AF; text-decoration: underline" title="Codigo SWIFT Bancos en Belgica - Lista de codigos SWIFT">
<font size="2">Codigo SWIFT Bancos en Belgica - Lista de codigos SWIFT</font></a></td>
</tr>
<tr style="background: #fff">
<td class="lpage">
<a href="http://codigosswift.com/benin.html" style="color: #0180AF; text-decoration: underline" title="Lista Bancos de Benin - Lista de codigos SWIFT">
<font size="2">Lista Bancos de Benin - Lista de codigos SWIFT</font></a></td>
</tr>
<tr style="background: #fff">
<td class="lpage">
<a href="http://codigosswift.com/bermuda.html" style="color: #0180AF; text-decoration: underline" title="Lista Bancos en Bermuda - Lista de codigos SWIFT">
<font size="2">Lista Bancos en Bermuda - Lista de codigos SWIFT</font></a></td>
</tr>
<tr style="background: #fff">
<td class="lpage">
<a href="http://codigosswift.com/bolivia.html" style="color: #0180AF; text-decoration: underline" title="Codigos Swift Bancos en Bolivia - Lista de codigos SWIFT">
<font size="2">Codigos Swift Bancos en Bolivia - Lista de codigos SWIFT</font></a></td>
</tr>
<tr style="background: #fff">
<td class="lpage">
<a href="http://codigosswift.com/bosnia.html" style="color: #0180AF; text-decoration: underline" title="Codigos Swift Bancos de Bosnia - Lista de codigos SWIFT">
<font size="2">Codigos Swift Bancos de Bosnia - Lista de codigos SWIFT</font></a></td>
</tr>
<tr style="background: #fff">
<td class="lpage">
<a href="http://codigosswift.com/brasil-bancos.html" style="color: #0180AF; text-decoration: underline" title="Bancos codigos SWIFT Brasil - Lista de codigos SWIFT">
<font size="2">Bancos codigos SWIFT Brasil - Lista de codigos SWIFT</font></a></td>
</tr>
<tr style="background: #fff">
<td class="lpage">
<a href="http://codigosswift.com/brasil-swift.html" style="color: #0180AF; text-decoration: underline" title="Codigos Swift Brasil SWIFT - Lista de codigos SWIFT">
<font size="2">Codigos Swift Brasil SWIFT - Lista de codigos SWIFT</font></a></td>
</tr>
<tr style="background: #fff">
<td class="lpage">
<a href="http://codigosswift.com/botsuana.html" style="color: #0180AF; text-decoration: underline" title="Codigos SWIFT Bancos en Botsuana - Lista de codigos SWIFT">
<font size="2">Codigos SWIFT Bancos en Botsuana - Lista de codigos SWIFT</font></a></td>
</tr>
<tr style="background: #fff">
<td class="lpage">
<a href="http://codigosswift.com/brunei.html" style="color: #0180AF; text-decoration: underline" title="Codigos SWIFT Bancos de Brunéi - Lista de codigos SWIFT">
<font size="2">Codigos SWIFT Bancos de Brunéi - Lista de codigos SWIFT</font></a></td>
</tr>
<tr style="background: #fff">
<td class="lpage">
<a href="http://codigosswift.com/bulgaria.html" style="color: #0180AF; text-decoration: underline" title="Codigos SWIFT Bancos de Bulgaria - Lista de codigos SWIFT">
<font size="2">Codigos SWIFT Bancos de Bulgaria - Lista de codigos SWIFT</font></a></td>
</tr>
<tr style="background: #fff">
<td class="lpage">
<a href="http://codigosswift.com/burkina-faso.html" style="color: #0180AF; text-decoration: underline" title="Codigos SWIFT Bancos en Burkina Faso - Lista de codigos SWIFT">
<font size="2">Codigos SWIFT Bancos en Burkina Faso - Lista de codigos 
		SWIFT</font></a></td>
</tr>
<tr style="background: #fff">
<td class="lpage">
<a href="http://codigosswift.com/burundi.html" style="color: #0180AF; text-decoration: underline" title="Codigos SWIFT Bancos en Burundi - Lista de codigos SWIFT">
<font size="2">Codigos SWIFT Bancos en Burundi - Lista de codigos SWIFT</font></a></td>
</tr>
<tr style="background: #fff">
<td class="lpage">
<a href="http://codigosswift.com/butan.html" style="color: #0180AF; text-decoration: underline" title="Codigos SWIFT Bancos en Bután - Lista de codigos SWIFT">
<font size="2">Codigos SWIFT Bancos en Bután - Lista de codigos SWIFT</font></a></td>
</tr>
<tr style="background: #fff">
<td class="lpage">
<a href="http://codigosswift.com/canada.html" style="color: #0180AF; text-decoration: underline" title="Codigos SWIFT de Bancos de Canada - Lista de codigos SWIFT">
<font size="2">Codigos SWIFT de Bancos de Canada - Lista de codigos 
		SWIFT</font></a></td>
</tr>
<tr style="background: #fff">
<td class="lpage">
<a href="http://codigosswift.com/chad-.html" style="color: #0180AF; text-decoration: underline" title="Codigos SWIFT Bancos de Chad - Lista de codigos SWIFT">
<font size="2">Codigos SWIFT Bancos de Chad - Lista de codigos SWIFT</font></a></td>
</tr>
<tr style="background: #fff">
<td class="lpage">
<a href="http://codigosswift.com/chile.html" style="color: #0180AF; text-decoration: underline" title="Codigos SWIFT Bancos de Chile - Lista de codigos SWIFT">
<font size="2">Codigos SWIFT Bancos de Chile - Lista de codigos SWIFT</font></a></td>
</tr>
<tr style="background: #fff">
<td class="lpage">
<a href="http://codigosswift.com/chipre.html" style="color: #0180AF; text-decoration: underline" title="Codigos SWIFT Bancos de Chipre - Lista de codigos SWIFT">
<font size="2">Codigos SWIFT Bancos de Chipre - Lista de codigos SWIFT</font></a></td>
</tr>
<tr style="background: #fff">
<td class="lpage">
<a href="http://codigosswift.com/costa-rica.html" style="color: #0180AF; text-decoration: underline" title="Codigos Swift Bancos de Costa Rica - Lista de codigos SWIFT">
<font size="2">Codigos Swift Bancos de Costa Rica - Lista de codigos 
		SWIFT</font></a></td>
</tr>
<tr style="background: #fff">
<td class="lpage">
<a href="http://codigosswift.com/colombia.html" style="color: #0180AF; text-decoration: underline" title="Codigos SWIFT Bancos de Colombia - Lista de codigos SWIFT">
<font size="2">Codigos SWIFT Bancos de Colombia - Lista de codigos SWIFT</font></a></td>
</tr>
<tr style="background: #fff">
<td class="lpage">
<a href="http://codigosswift.com/cuba.html" style="color: #0180AF; text-decoration: underline" title="Codigos SWIFT de Bancos Cubanos - Lista de codigos SWIFT">
<font size="2">Codigos SWIFT de Bancos Cubanos - Lista de codigos SWIFT</font></a></td>
</tr>
<tr style="background: #fff">
<td class="lpage">
<a href="http://codigosswift.com/croacia.html" style="color: #0180AF; text-decoration: underline" title="Codigos SWIFT de Bancos de Croacia - Lista de codigos SWIFT">
<font size="2">Codigos SWIFT de Bancos de Croacia - Lista de codigos 
		SWIFT</font></a></td>
</tr>
<tr style="background: #fff">
<td class="lpage">
<a href="http://codigosswift.com/camboya.html" style="color: #0180AF; text-decoration: underline" title="Codigos SWIFT de Bancos de Camboya - Lista de codigos SWIFT">
<font size="2">Codigos SWIFT de Bancos de Camboya - Lista de codigos 
		SWIFT</font></a></td>
</tr>
<tr style="background: #fff">
<td class="lpage">
<a href="http://codigosswift.com/camerun.html" style="color: #0180AF; text-decoration: underline" title="Codigos SWIFT de Bancos de Camerun - Lista de codigos SWIFT">
<font size="2">Codigos SWIFT de Bancos de Camerun - Lista de codigos 
		SWIFT</font></a></td>
</tr>
<tr style="background: #fff">
<td class="lpage">
<a href="http://codigosswift.com/catar.html" style="color: #0180AF; text-decoration: underline" title="Codigos SWIFT de Bancos de Catar - Lista de codigos SWIFT">
<font size="2">Codigos SWIFT de Bancos de Catar - Lista de codigos SWIFT</font></a></td>
</tr>
<tr style="background: #fff">
<td class="lpage">
<a href="http://codigosswift.com/china.html" style="color: #0180AF; text-decoration: underline" title="Codigos SWIFT de Bancos de China - Lista de codigos SWIFT">
<font size="2">Codigos SWIFT de Bancos de China - Lista de codigos SWIFT</font></a></td>
</tr>
<tr style="background: #fff">
<td class="lpage">
<a href="http://codigosswift.com/dinamarca.html" style="color: #0180AF; text-decoration: underline" title="Codigos SWIFT Bancos de Dinamarca - Lista de codigos SWIFT">
<font size="2">Codigos SWIFT Bancos de Dinamarca - Lista de codigos 
		SWIFT</font></a></td>
</tr>
<tr style="background: #fff">
<td class="lpage">
<a href="http://codigosswift.com/ecuador.html" style="color: #0180AF; text-decoration: underline" title="Codigos SWIFT Bancos de Ecuador - Lista de codigos SWIFT">
<font size="2">Codigos SWIFT Bancos de Ecuador - Lista de codigos SWIFT</font></a></td>
</tr>
<tr style="background: #fff">
<td class="lpage">
<a href="http://codigosswift.com/emiratos-arabes-unidos.html" style="color: #0180AF; text-decoration: underline" title="Codigos SWIFT Bancos de los Emiratos Árabes Unidos - Lista de codigos SWIFT">
<font size="2">Codigos SWIFT Bancos de los Emiratos Árabes Unidos - 
		Lista de codigos SWIFT</font></a></td>
</tr>
<tr style="background: #fff">
<td class="lpage">
<a href="http://codigosswift.com/egipto.html" style="color: #0180AF; text-decoration: underline" title="Codigos SWIFT Bancos de Egipto - Lista de codigos SWIFT">
<font size="2">Codigos SWIFT Bancos de Egipto - Lista de codigos SWIFT</font></a></td>
</tr>
<tr style="background: #fff">
<td class="lpage">
<a href="http://codigosswift.com/el-salvador.html" style="color: #0180AF; text-decoration: underline" title="Codigos SWIFT bancos del El Salvador - Lista de codigos SWIFT">
<font size="2">Codigos SWIFT bancos del El Salvador - Lista de codigos 
		SWIFT</font></a></td>
</tr>
<tr style="background: #fff">
<td class="lpage">
<a href="http://codigosswift.com/espana---codigos-bancarios.html" style="color: #0180AF; text-decoration: underline" title="El Código Cuenta Cliente (CCC) Bancos Españoles - Lista de codigos SWIFT">
<font size="2">El Código Cuenta Cliente (CCC) Bancos Españoles - Lista 
		de codigos SWIFT</font></a></td>
</tr>
<tr style="background: #fff">
<td class="lpage">
<a href="http://codigosswift.com/espana---codigos-bic.html" style="color: #0180AF; text-decoration: underline" title="Codigos Swift Bancos Españoles - Lista de codigos SWIFT">
<font size="2">Codigos Swift Bancos Españoles - Lista de codigos SWIFT</font></a></td>
</tr>
<tr style="background: #fff">
<td class="lpage">
<a href="http://codigosswift.com/estados-unidos.html" style="color: #0180AF; text-decoration: underline" title="Codigos SWIFT Bancos de Estados Unidos - Lista de codigos SWIFT">
<font size="2">Codigos SWIFT Bancos de Estados Unidos - Lista de codigos 
		SWIFT</font></a></td>
</tr>
<tr style="background: #fff">
<td class="lpage">
<a href="http://codigosswift.com/estonia.html" style="color: #0180AF; text-decoration: underline" title="Codigos SWIFT Bancos de Estonia - Lista de codigos SWIFT">
<font size="2">Codigos SWIFT Bancos de Estonia - Lista de codigos SWIFT</font></a></td>
</tr>
<tr style="background: #fff">
<td class="lpage">
<a href="http://codigosswift.com/eslovaquia---eslovenia.html" style="color: #0180AF; text-decoration: underline" title="Codigos SWIFT Bancos de Eslovaquia - Eslovenia - Lista de codigos SWIFT">
<font size="2">Codigos SWIFT Bancos de Eslovaquia - Eslovenia - Lista de 
		codigos SWIFT</font></a></td>
</tr>
<tr style="background: #fff">
<td class="lpage">
<a href="http://codigosswift.com/grecia.html" style="color: #0180AF; text-decoration: underline" title="Codigos SWIFT Bancos en Grecia - Lista de codigos SWIFT">
<font size="2">Codigos SWIFT Bancos en Grecia - Lista de codigos SWIFT</font></a></td>
</tr>
<tr style="background: #fff">
<td class="lpage">
<a href="http://codigosswift.com/georgia.html" style="color: #0180AF; text-decoration: underline" title="Codigos SWIFT Bancos en Georgia - Lista de codigos SWIFT">
<font size="2">Codigos SWIFT Bancos en Georgia - Lista de codigos SWIFT</font></a></td>
</tr>
<tr style="background: #fff">
<td class="lpage">
<a href="http://codigosswift.com/guatemala.html" style="color: #0180AF; text-decoration: underline" title="Codigos SWIFT Bancos en Guatemala - Lista de codigos SWIFT">
<font size="2">Codigos SWIFT Bancos en Guatemala - Lista de codigos 
		SWIFT</font></a></td>
</tr>
<tr style="background: #fff">
<td class="lpage">
<a href="http://codigosswift.com/finlandia.html" style="color: #0180AF; text-decoration: underline" title="Codigos SWIFT bancos en Finlandia - Lista de codigos SWIFT">
<font size="2">Codigos SWIFT bancos en Finlandia - Lista de codigos 
		SWIFT</font></a></td>
</tr>
<tr style="background: #fff">
<td class="lpage">
<a href="http://codigosswift.com/francia.html" style="color: #0180AF; text-decoration: underline" title="Codigos SWIFT bancos en Francia - Lista de codigos SWIFT">
<font size="2">Codigos SWIFT bancos en Francia - Lista de codigos SWIFT</font></a></td>
</tr>
<tr style="background: #fff">
<td class="lpage">
<a href="http://codigosswift.com/filipinas.html" style="color: #0180AF; text-decoration: underline" title="Codigos SWIFT Bancos Filipinos - Lista de codigos SWIFT">
<font size="2">Codigos SWIFT Bancos Filipinos - Lista de codigos SWIFT</font></a></td>
</tr>
<tr style="background: #fff">
<td class="lpage">
<a href="http://codigosswift.com/holanda.html" style="color: #0180AF; text-decoration: underline" title="Codigos SWIFT Bancos de Holanda - Lista de codigos SWIFT">
<font size="2">Codigos SWIFT Bancos de Holanda - Lista de codigos SWIFT</font></a></td>
</tr>
<tr style="background: #fff">
<td class="lpage">
<a href="http://codigosswift.com/honduras.html" style="color: #0180AF; text-decoration: underline" title="Codigos SWIFT Bancos de Honduras - Lista de codigos SWIFT">
<font size="2">Codigos SWIFT Bancos de Honduras - Lista de codigos SWIFT</font></a></td>
</tr>
<tr style="background: #fff">
<td class="lpage">
<a href="http://codigosswift.com/hungria.html" style="color: #0180AF; text-decoration: underline" title="Codigos SWIFT Bancos de Hungria - Lista de codigos SWIFT">
<font size="2">Codigos SWIFT Bancos de Hungria - Lista de codigos SWIFT</font></a></td>
</tr>
<tr style="background: #fff">
<td class="lpage">
<a href="http://codigosswift.com/india.html" style="color: #0180AF; text-decoration: underline" title="Codigos SWIFT Bancos de India - Lista de codigos SWIFT">
<font size="2">Codigos SWIFT Bancos de India - Lista de codigos SWIFT</font></a></td>
</tr>
<tr style="background: #fff">
<td class="lpage">
<a href="http://codigosswift.com/indonesia-.html" style="color: #0180AF; text-decoration: underline" title="Codigos SWIFT Bancos de Indonesia - Lista de codigos SWIFT">
<font size="2">Codigos SWIFT Bancos de Indonesia - Lista de codigos 
		SWIFT</font></a></td>
</tr>
<tr style="background: #fff">
<td class="lpage">
<a href="http://codigosswift.com/irak.html" style="color: #0180AF; text-decoration: underline" title="Codigos SWIFT Bancos de Irak - Lista de codigos SWIFT">
<font size="2">Codigos SWIFT Bancos de Irak - Lista de codigos SWIFT</font></a></td>
</tr>
<tr style="background: #fff">
<td class="lpage">
<a href="http://codigosswift.com/iran.html" style="color: #0180AF; text-decoration: underline" title="Codigos SWIFT Bancos de Iran - Lista de codigos SWIFT">
<font size="2">Codigos SWIFT Bancos de Iran - Lista de codigos SWIFT</font></a></td>
</tr>
<tr style="background: #fff">
<td class="lpage">
<a href="http://codigosswift.com/irlanda.html" style="color: #0180AF; text-decoration: underline" title="Codigos SWIFT Bancos de Irlanda - Lista de codigos SWIFT">
<font size="2">Codigos SWIFT Bancos de Irlanda - Lista de codigos SWIFT</font></a></td>
</tr>
<tr style="background: #fff">
<td class="lpage">
<a href="http://codigosswift.com/islandia.html" style="color: #0180AF; text-decoration: underline" title="Codigos SWIFT Bancos de Islandia - Lista de codigos SWIFT">
<font size="2">Codigos SWIFT Bancos de Islandia - Lista de codigos SWIFT</font></a></td>
</tr>
<tr style="background: #fff">
<td class="lpage">
<a href="http://codigosswift.com/israel.html" style="color: #0180AF; text-decoration: underline" title="Codigos SWIFT Bancos de Israel - Lista de codigos SWIFT">
<font size="2">Codigos SWIFT Bancos de Israel - Lista de codigos SWIFT</font></a></td>
</tr>
<tr style="background: #fff">
<td class="lpage">
<a href="http://codigosswift.com/japon.html" style="color: #0180AF; text-decoration: underline" title="Codigos SWIFT Bancos de Japon - Lista de codigos SWIFT">
<font size="2">Codigos SWIFT Bancos de Japon - Lista de codigos SWIFT</font></a></td>
</tr>
<tr style="background: #fff">
<td class="lpage">
<a href="http://codigosswift.com/jordania.html" style="color: #0180AF; text-decoration: underline" title="Codigos SWIFT Bancos de Jordania - Lista de codigos SWIFT">
<font size="2">Codigos SWIFT Bancos de Jordania - Lista de codigos SWIFT</font></a></td>
</tr>
<tr style="background: #fff">
<td class="lpage">
<a href="http://codigosswift.com/kuwait.html" style="color: #0180AF; text-decoration: underline" title="Codigos SWIFT Bancos de Kuwait  - Lista de codigos SWIFT">
<font size="2">Codigos SWIFT Bancos de Kuwait - Lista de codigos SWIFT</font></a></td>
</tr>
<tr style="background: #fff">
<td class="lpage">
<a href="http://codigosswift.com/letonia.html" style="color: #0180AF; text-decoration: underline" title="Codigos SWIFT Bancos de Letonia - Lista de codigos SWIFT">
<font size="2">Codigos SWIFT Bancos de Letonia - Lista de codigos SWIFT</font></a></td>
</tr>
<tr style="background: #fff">
<td class="lpage">
<a href="http://codigosswift.com/liechtenstein.html" style="color: #0180AF; text-decoration: underline" title="Codigos SWIFT Bancos de Liechtenstein  - Lista de codigos SWIFT">
<font size="2">Codigos SWIFT Bancos de Liechtenstein - Lista de codigos 
		SWIFT</font></a></td>
</tr>
<tr style="background: #fff">
<td class="lpage">
<a href="http://codigosswift.com/lituania.html" style="color: #0180AF; text-decoration: underline" title="Codigos SWIFT Bancos de Lituania  - Lista de codigos SWIFT">
<font size="2">Codigos SWIFT Bancos de Lituania - Lista de codigos SWIFT</font></a></td>
</tr>
<tr style="background: #fff">
<td class="lpage">
<a href="http://codigosswift.com/libano-.html" style="color: #0180AF; text-decoration: underline" title="Codigos SWIFT Bancos de Líbano  - Lista de codigos SWIFT">
<font size="2">Codigos SWIFT Bancos de Líbano - Lista de codigos SWIFT</font></a></td>
</tr>
<tr style="background: #fff">
<td class="lpage">
<a href="http://codigosswift.com/luxemburgo.html" style="color: #0180AF; text-decoration: underline" title="Codigos SWIFT Bancos de Luxemburgo - Lista de codigos SWIFT">
<font size="2">Codigos SWIFT Bancos de Luxemburgo - Lista de codigos 
		SWIFT</font></a></td>
</tr>
<tr style="background: #fff">
<td class="lpage">
<a href="http://codigosswift.com/madagascar.html" style="color: #0180AF; text-decoration: underline" title="Codigos SWIFT Bancos de Madagascar - Lista de codigos SWIFT">
<font size="2">Codigos SWIFT Bancos de Madagascar - Lista de codigos 
		SWIFT</font></a></td>
</tr>
<tr style="background: #fff">
<td class="lpage">
<a href="http://codigosswift.com/macao.html" style="color: #0180AF; text-decoration: underline" title="Codigos SWIFT Bancos de Macao - Lista de codigos SWIFT">
<font size="2">Codigos SWIFT Bancos de Macao - Lista de codigos SWIFT</font></a></td>
</tr>
<tr style="background: #fff">
<td class="lpage">
<a href="http://codigosswift.com/mexico.html" style="color: #0180AF; text-decoration: underline" title="Lista de codigos bancarios de Mexico - Lista de codigos SWIFT">
<font size="2">Lista de codigos bancarios de Mexico - Lista de codigos 
		SWIFT</font></a></td>
</tr>
<tr style="background: #fff">
<td class="lpage">
<a href="http://codigosswift.com/mejico---swift.html" style="color: #0180AF; text-decoration: underline" title="Codigos SWIFT Bancos de México  - Lista de codigos SWIFT">
<font size="2">Codigos SWIFT Bancos de México - Lista de codigos SWIFT</font></a></td>
</tr>
<tr style="background: #fff">
<td class="lpage">
<a href="http://codigosswift.com/malasia.html" style="color: #0180AF; text-decoration: underline" title="Codigos SWIFT Bancos de Malasia - Lista de codigos SWIFT">
<font size="2">Codigos SWIFT Bancos de Malasia - Lista de codigos SWIFT</font></a></td>
</tr>
<tr style="background: #fff">
<td class="lpage">
<a href="http://codigosswift.com/malta.html" style="color: #0180AF; text-decoration: underline" title="Codigos SWIFT Bancos de Malta - Lista de codigos SWIFT">
<font size="2">Codigos SWIFT Bancos de Malta - Lista de codigos SWIFT</font></a></td>
</tr>
<tr style="background: #fff">
<td class="lpage">
<a href="http://codigosswift.com/marruecos.html" style="color: #0180AF; text-decoration: underline" title="Codigos SWIFT Bancos de Marruecos - Lista de codigos SWIFT">
<font size="2">Codigos SWIFT Bancos de Marruecos - Lista de codigos 
		SWIFT</font></a></td>
</tr>
<tr style="background: #fff">
<td class="lpage">
<a href="http://codigosswift.com/mauritania---mauricio.html" style="color: #0180AF; text-decoration: underline" title="Codigos SWIFT Bancos de Mauritania - Mauricio - Lista de codigos SWIFT">
<font size="2">Codigos SWIFT Bancos de Mauritania - Mauricio - Lista de 
		codigos SWIFT</font></a></td>
</tr>
<tr style="background: #fff">
<td class="lpage">
<a href="http://codigosswift.com/myanmar---moldavia-.html" style="color: #0180AF; text-decoration: underline" title="Codigos SWIFT Bancos de Myanmar - Moldavia  - Lista de codigos SWIFT">
<font size="2">Codigos SWIFT Bancos de Myanmar - Moldavia - Lista de 
		codigos SWIFT</font></a></td>
</tr>
<tr style="background: #fff">
<td class="lpage">
<a href="http://codigosswift.com/monaco.html" style="color: #0180AF; text-decoration: underline" title="Codigos SWIFT Bancos de Monaco - Lista de codigos SWIFT">
<font size="2">Codigos SWIFT Bancos de Monaco - Lista de codigos SWIFT</font></a></td>
</tr>
<tr style="background: #fff">
<td class="lpage">
<a href="http://codigosswift.com/mongolia.html" style="color: #0180AF; text-decoration: underline" title="Codigos SWIFT Bancos de Mongolia - Lista de codigos SWIFT">
<font size="2">Codigos SWIFT Bancos de Mongolia - Lista de codigos SWIFT</font></a></td>
</tr>
<tr style="background: #fff">
<td class="lpage">
<a href="http://codigosswift.com/montenegro.html" style="color: #0180AF; text-decoration: underline" title="Codigos SWIFT Bancos de Serbia y Montenegro - Lista de codigos SWIFT">
<font size="2">Codigos SWIFT Bancos de Serbia y Montenegro - Lista de 
		codigos SWIFT</font></a></td>
</tr>
<tr style="background: #fff">
<td class="lpage">
<a href="http://codigosswift.com/nicaragua.html" style="color: #0180AF; text-decoration: underline" title="Codigos SWIFT Bancos en Nicaragua - Lista de codigos SWIFT">
<font size="2">Codigos SWIFT Bancos en Nicaragua - Lista de codigos 
		SWIFT</font></a></td>
</tr>
<tr style="background: #fff">
<td class="lpage">
<a href="http://codigosswift.com/niger---nigeria-.html" style="color: #0180AF; text-decoration: underline" title="Codigos SWIFT Bancos en Niger - Nigeria  - Lista de codigos SWIFT">
<font size="2">Codigos SWIFT Bancos en Niger - Nigeria - Lista de 
		codigos SWIFT</font></a></td>
</tr>
<tr style="background: #fff">
<td class="lpage">
<a href="http://codigosswift.com/oman.html" style="color: #0180AF; text-decoration: underline" title="Codigos SWIFT Bancos en Oman - Lista de codigos SWIFT">
<font size="2">Codigos SWIFT Bancos en Oman - Lista de codigos SWIFT</font></a></td>
</tr>
<tr style="background: #fff">
<td class="lpage">
<a href="http://codigosswift.com/polonia.html" style="color: #0180AF; text-decoration: underline" title="Codigos SWIFT Bancos de Polonia - Lista de codigos SWIFT">
<font size="2">Codigos SWIFT Bancos de Polonia - Lista de codigos SWIFT</font></a></td>
</tr>
<tr style="background: #fff">
<td class="lpage">
<a href="http://codigosswift.com/pakistan.html" style="color: #0180AF; text-decoration: underline" title="Codigos SWIFT Bancos de Pakistan - Lista de codigos SWIFT">
<font size="2">Codigos SWIFT Bancos de Pakistan - Lista de codigos SWIFT</font></a></td>
</tr>
<tr style="background: #fff">
<td class="lpage">
<a href="http://codigosswift.com/panama.html" style="color: #0180AF; text-decoration: underline" title="Codigos SWIFT Bancos de Panama - Lista de codigos SWIFT">
<font size="2">Codigos SWIFT Bancos de Panama - Lista de codigos SWIFT</font></a></td>
</tr>
<tr style="background: #fff">
<td class="lpage">
<a href="http://codigosswift.com/paraguay.html" style="color: #0180AF; text-decoration: underline" title="Codigos SWIFT Bancos de Paraguay  - Lista de codigos SWIFT">
<font size="2">Codigos SWIFT Bancos de Paraguay - Lista de codigos SWIFT</font></a></td>
</tr>
<tr style="background: #fff">
<td class="lpage">
<a href="http://codigosswift.com/peru.html" style="color: #0180AF; text-decoration: underline" title="Codigos SWIFT Bancos de Peru - Lista de codigos SWIFT">
<font size="2">Codigos SWIFT Bancos de Peru - Lista de codigos SWIFT</font></a></td>
</tr>
<tr style="background: #fff">
<td class="lpage">
<a href="http://codigosswift.com/romania.html" style="color: #0180AF; text-decoration: underline" title="Codigos SWIFT Bancos de Romania - Lista de codigos SWIFT">
<font size="2">Codigos SWIFT Bancos de Romania - Lista de codigos SWIFT</font></a></td>
</tr>
<tr style="background: #fff">
<td class="lpage">
<a href="http://codigosswift.com/senegal.html" style="color: #0180AF; text-decoration: underline" title="Codigos SWIFT Bancos de Senegal - Lista de codigos SWIFT">
<font size="2">Codigos SWIFT Bancos de Senegal - Lista de codigos SWIFT</font></a></td>
</tr>
<tr style="background: #fff">
<td class="lpage">
<a href="http://codigosswift.com/republica-checa.html" style="color: #0180AF; text-decoration: underline" title="Codigos SWIFT Bancos de Republica Checa - Lista de codigos SWIFT">
<font size="2">Codigos SWIFT Bancos de Republica Checa - Lista de 
		codigos SWIFT</font></a></td>
</tr>
<tr style="background: #fff">
<td class="lpage">
<a href="http://codigosswift.com/san-marino.html" style="color: #0180AF; text-decoration: underline" title="Codigos SWIFT Bancos de San Marino - Lista de codigos SWIFT">
<font size="2">Codigos SWIFT Bancos de San Marino - Lista de codigos 
		SWIFT</font></a></td>
</tr>
<tr style="background: #fff">
<td class="lpage">
<a href="http://codigosswift.com/sierra-leon.html" style="color: #0180AF; text-decoration: underline" title="Codigos SWIFT Bancos de Sierra Leona  - Lista de codigos SWIFT">
<font size="2">Codigos SWIFT Bancos de Sierra Leona - Lista de codigos 
		SWIFT</font></a></td>
</tr>
<tr style="background: #fff">
<td class="lpage">
<a href="http://codigosswift.com/sri-lanka.html" style="color: #0180AF; text-decoration: underline" title="Codigos SWIFT Bancos de Sri Lanka - Lista de codigos SWIFT">
<font size="2">Codigos SWIFT Bancos de Sri Lanka - Lista de codigos 
		SWIFT</font></a></td>
</tr>
<tr style="background: #fff">
<td class="lpage">
<a href="http://codigosswift.com/suiza.html" style="color: #0180AF; text-decoration: underline" title="Codigos SWIFT Bancos de Suiza - Lista de codigos SWIFT">
<font size="2">Codigos SWIFT Bancos de Suiza - Lista de codigos SWIFT</font></a></td>
</tr>
<tr style="background: #fff">
<td class="lpage">
<a href="http://codigosswift.com/suecia.html" style="color: #0180AF; text-decoration: underline" title="Codigos SWIFT Bancos de Suecia - Lista de codigos SWIFT">
<font size="2">Codigos SWIFT Bancos de Suecia - Lista de codigos SWIFT</font></a></td>
</tr>
<tr style="background: #fff">
<td class="lpage">
<a href="http://codigosswift.com/singapur.html" style="color: #0180AF; text-decoration: underline" title="Codigos SWIFT Bancos de Singapur - Lista de codigos SWIFT">
<font size="2">Codigos SWIFT Bancos de Singapur - Lista de codigos SWIFT</font></a></td>
</tr>
<tr style="background: #fff">
<td class="lpage">
<a href="http://codigosswift.com/siria---sudan.html" style="color: #0180AF; text-decoration: underline" title="Codigos SWIFT Bancos de Siria - Sudan - Lista de codigos SWIFT">
<font size="2">Codigos SWIFT Bancos de Siria - Sudan - Lista de codigos 
		SWIFT</font></a></td>
</tr>
<tr style="background: #fff">
<td class="lpage">
<a href="http://codigosswift.com/uruguay.html" style="color: #0180AF; text-decoration: underline" title="Lista de codigos SWIFT Bancos en Uruguay - Lista de codigos SWIFT">
<font size="2">Lista de codigos SWIFT Bancos en Uruguay - Lista de 
		codigos SWIFT</font></a></td>
</tr>
<tr style="background: #fff">
<td class="lpage">
<a href="http://codigosswift.com/uzbekistan.html" style="color: #0180AF; text-decoration: underline" title="Lista de codigos SWIFT Bancos en Uzbekistán - Lista de codigos SWIFT">
<font size="2">Lista de codigos SWIFT Bancos en Uzbekistán - Lista de 
		codigos SWIFT</font></a></td>
</tr>
<tr style="background: #fff">
<td class="lpage">
<a href="http://codigosswift.com/tanzania.html" style="color: #0180AF; text-decoration: underline" title="Lista de codigos SWIFT Bancos en Tanzania - Lista de codigos SWIFT">
<font size="2">Lista de codigos SWIFT Bancos en Tanzania - Lista de 
		codigos SWIFT</font></a></td>
</tr>
<tr style="background: #fff">
<td class="lpage">
<a href="http://codigosswift.com/tunez.html" style="color: #0180AF; text-decoration: underline" title="Lista de codigos SWIFT Bancos en Túnez  - Lista de codigos SWIFT">
<font size="2">Lista de codigos SWIFT Bancos en Túnez - Lista de codigos 
		SWIFT</font></a></td>
</tr>
<tr style="background: #fff">
<td class="lpage">
<a href="http://codigosswift.com/tailanda.html" style="color: #0180AF; text-decoration: underline" title="Lista de codigos SWIFT Bancos en Tailandia - Lista de codigos SWIFT">
<font size="2">Lista de codigos SWIFT Bancos en Tailandia - Lista de 
		codigos SWIFT</font></a></td>
</tr>
<tr style="background: #fff">
<td class="lpage">
<a href="http://codigosswift.com/togo.html" style="color: #0180AF; text-decoration: underline" title="Lista de codigos SWIFT Bancos en Togo - Lista de codigos SWIFT">
<font size="2">Lista de codigos SWIFT Bancos en Togo - Lista de codigos 
		SWIFT</font></a></td>
</tr>
<tr style="background: #fff">
<td class="lpage">
<a href="http://codigosswift.com/turquia.html" style="color: #0180AF; text-decoration: underline" title="Lista de codigos SWIFT Bancos en Turquía  - Lista de codigos SWIFT">
<font size="2">Lista de codigos SWIFT Bancos en Turquía - Lista de 
		codigos SWIFT</font></a></td>
</tr>
<tr style="background: #fff">
<td class="lpage">
<a href="http://codigosswift.com/uganda.html" style="color: #0180AF; text-decoration: underline" title="Lista de codigos SWIFT Bancos en Uganda - Lista de codigos SWIFT">
<font size="2">Lista de codigos SWIFT Bancos en Uganda - Lista de 
		codigos SWIFT</font></a></td>
</tr>
<tr style="background: #fff">
<td class="lpage">
<a href="http://codigosswift.com/ucrania.html" style="color: #0180AF; text-decoration: underline" title="Lista de codigos SWIFT Bancos en Ucrania - Lista de codigos SWIFT">
<font size="2">Lista de codigos SWIFT Bancos en Ucrania - Lista de 
		codigos SWIFT</font></a></td>
</tr>
<tr style="background: #fff">
<td class="lpage">
<a href="http://codigosswift.com/venezuela.html" style="color: #0180AF; text-decoration: underline" title="Lista de Bancos en Venezuela - Lista de codigos SWIFT">
<font size="2">Lista de Bancos en Venezuela - Lista de codigos SWIFT</font></a></td>
</tr>
<tr style="background: #fff">
<td class="lpage">
<a href="http://codigosswift.com/venezuela-swift.html" style="color: #0180AF; text-decoration: underline" title="Codigos SWIFT Bancos en Venezuela - Lista de codigos SWIFT">
<font size="2">Codigos SWIFT Bancos en Venezuela - Lista de codigos 
		SWIFT</font></a></td>
</tr>
<tr style="background: #fff">
<td class="lpage">
<a href="http://codigosswift.com/vietnam.html" style="color: #0180AF; text-decoration: underline" title="Codigos SWIFT Bancos en Vietnam - Lista de codigos SWIFT">
<font size="2">Codigos SWIFT Bancos en Vietnam - Lista de codigos SWIFT</font></a></td>
</tr>
<tr style="background: #fff">
<td class="lpage">
<a href="http://codigosswift.com/yemen.html" style="color: #0180AF; text-decoration: underline" title="Codigos SWIFT Bancos en Yemen - Lista de codigos SWIFT">
<font size="2">Codigos SWIFT Bancos en Yemen - Lista de codigos SWIFT</font></a></td>
</tr>
<tr style="background: #fff">
<td class="lpage">
<a href="http://codigosswift.com/zambia---zimbabue.html" style="color: #0180AF; text-decoration: underline" title="Codigos SWIFT Bancos en Zambia - Zimbabue - Lista de codigos SWIFT">
<font size="2">Codigos SWIFT Bancos en Zambia - Zimbabue - Lista de 
		codigos SWIFT</font></a></td>
</tr>
</table>
</td></tr></table></td></tr></table></div></body></html>