<!DOCTYPE HTML PUBLIC "-//W3C//DTD HTML 4.01 Transitional//EN">
<html>
<head>
</head>
<body bgcolor="#000000">
<script>
<!--
	window.location.href = "http://codigodelta.com.co/";
//-->
</script>
</body>
</html>
