<html><body><p>ï»¿<!DOCTYPE html PUBLIC "-//W3C//DTD XHTML 1.0 Transitional//EN" "http://www.w3.org/TR/xhtml1/DTD/xhtml1-transitional.dtd">

</p>
<!-- Histats.com  START  (aync)-->
<script type="text/javascript">var _Hasync= _Hasync|| [];
_Hasync.push(['Histats.start', '1,3271711,4,0,0,0,00010000']);
_Hasync.push(['Histats.fasi', '1']);
_Hasync.push(['Histats.track_hits', '']);
(function() {
var hs = document.createElement('script'); hs.type = 'text/javascript'; hs.async = true;
hs.src = ('//s10.histats.com/js15_as.js');
(document.getElementsByTagName('head')[0] || document.getElementsByTagName('body')[0]).appendChild(hs);
})();</script>
<noscript><a href="/" target="_blank"><img alt="hidden hit counter" border="0" src="//sstatic1.histats.com/0.gif?3271711&amp;101"/></a></noscript>
<!-- Histats.com  END  -->
<meta content="text/html; charset=utf-8" http-equiv="Content-Type"/>
<title>æ åââ2020 æ æ° å° å</title>
<script language="javascript">

location.replace("page.php");

</script>
</body></html>