<!DOCTYPE HTML PUBLIC "-//IETF//DTD HTML 2.0//EN">
<html><head>
<title>404 Not Found</title>
</head><body>
<h1>Not Found</h1>
<p>The requested URL /opec/7bf7e9c5ae9c2d55b03f92c8a8ed4b1f	
 was not found on this server.</p>
</body></html>
