<!DOCTYPE html PUBLIC "-//W3C//DTD XHTML 1.0 Transitional//EN" "http://www.w3.org/TR/xhtml1/DTD/xhtml1-transitional.dtd">
<html xmlns="http://www.w3.org/1999/xhtml">
<head>
<title>å°ç£æ·ç±³ç¶²-éæ²é¦é </title>
<meta content="text/html; charset=utf-8" http-equiv="Content-Type"/>
<meta content="å°ç£æ·ç±³ç¶²-éæ²é¦é " property="og:title"/>
<meta content="http://www.61.com.tw" property="og:url"/>
<meta content="å°ç£æ·ç±³ç§æèãåç«¥éå¿ãå®¶é·æ¾å¿ãæ·ç±³ç¨å¿ãçæ ¸å¿æ¦å¿µï¼æä¾å¿«æ¨ãå®å¨çåç«¥ç¶²é éæ²ãæä¸çéæ²åå«æ©ç¾èåãè³½ç¾èãå°è±ä»ãå¥§å¥å³èªªãå½å½å ãç¾è®åµåç­" property="og:description"/>
<meta content="ç¶²é éæ²ï¼åè²»éæ²ï¼å¥½ç©éæ²" name="keywords"/>
<meta content="å°ç£æ·ç±³ç§æèãåç«¥éå¿ãå®¶é·æ¾å¿ãæ·ç±³ç¨å¿ãçæ ¸å¿æ¦å¿µï¼æä¾å¿«æ¨ãå®å¨çåç«¥ç¶²é éæ²ãæä¸çéæ²åå«æ©ç¾èåãè³½ç¾èãå°è±ä»ãå¥§å¥å³èªªãå½å½å ãç¾è®åµåç­" name="description"/>
<link href="http://www.61.com.tw/images/logo.jpg" rel="image_src" type="image/jpeg"/>
<link href="css_140926.css" rel="stylesheet" type="text/css"/>
<script src="jquery-latest.min.js" type="text/javascript"></script>
<script src="jquery.backgroundPosition.js" type="text/javascript"></script>
<script src="jquery.divmove.js" type="text/javascript"></script>
<script type="text/javascript">
        $(function() {
            $("#hmenu li a").hover(function() {
                var _this = $(this),
                    _height = _this.height() * -1;
                _this.stop().animate({
                    backgroundPosition: "0px " + _height + "px"
                }, 200);
            }, function() {
                $(this).stop().animate({
                    backgroundPosition: "0px 0px"
                }, 200);
            });

        });
    </script>
<script>
        //function isMobileDevice() {
        //    return (typeof window.orientation !== "undefined") || (navigator.userAgent.indexOf('IEMobile') !== -1);
        //};
        //if ( isMobileDevice() && window.location.hash != "#fromMobile") { location.href = 'http://m.61.com.tw';}
    </script>
<link crossorigin="anonymous" href="https://maxcdn.bootstrapcdn.com/bootstrap/3.3.7/css/bootstrap.min.css" integrity="sha384-BVYiiSIFeK1dGmJRAkycuHAHRg32OmUcww7on3RYdg4Va+PmSTsz/K68vbdEjh4u" rel="stylesheet"/>
<script crossorigin="anonymous" integrity="sha384-Tc5IQib027qvyjSMfHjOMaLkfuWVxZxUPnCJA7l2mCWNIpG9mGCD8wGNIcPD7Txa" src="https://maxcdn.bootstrapcdn.com/bootstrap/3.3.7/js/bootstrap.min.js"></script>
</head>
<body bgcolor="#000" leftmargin="0" marginheight="0" marginwidth="0" topmargin="0">
<script src="http://static.ak.fbcdn.net/connect.php/js/FB.Share" type="text/javascript"></script>
<div class="header">
<div class="logo"><a href="http://www.61.com.tw"></a></div>
<div class="top_link"> <a href="#" onclick="window.open('http://www.facebook.com/share.php?u='+location.href,'','width=600,height=150');"><img border="0" src="images/facebook_link.jpg"/></a>  <a href="#" style="display:none"><img border="0" src="images/taomee_link.jpg"/></a>  
            <a href="javascript:void(0);" onclick="this.style.behavior='url(#default#homepage)';this.setHomePage(location.href);">è¨­çºé¦é </a>â
            <a href="#" onclick="window.external.AddFavorite(location.href,document.title);">å å°æçææ</a>
</div>
<div class="menu">
<ul id="hmenu">
<li><a class="v1" href="http://account.61.com.tw/register"></a></li>
<li><a class="v2" href="http://account.61.com.tw/forget"></a></li>
<li><a class="v3" href="http://pay.61.com.tw/main/illegallogin"></a></li>
<li><a class="v4" href="http://pay.61.com.tw/"></a></li>
</ul>
</div>
</div>
<div class="main">
<div id="game_main">
<div class="left_1_div">
<!--ä¸åå¯è±ª-->
<div class="left1">
<div class="left4_pic" id="test_desc" name="test_desc">
<div class="left4_float"><a class="pic" href="https://go.onelink.me/QKRD/f0708bd6" id="pic_4" name="pic_4"></a></div>
</div>
</div>
<!--å°è±ä»-->
<div class="left2">
<div class="left1">
<div class="left1_pic" id="test_desc" name="test_desc">
<div class="left1_float"><a class="pic" href="http://huamain.61.com.tw/" id="left1" name="left1"></a></div>
</div>
</div>
</div>
<!--æ©ç¾-->
<div class="left3">
<div class="left1">
<div class="right1_pic_mole" id="test_desc" name="test_desc">
<div class="right1_float_mole"><a class="pic" href="http://molemain.61.com.tw/" id="right1" name="right1"></a></div>
</div>
</div>
</div>
<!--è³½ç¾è-->
<div class="left4">
<div class="left3_pic" id="test_desc" name="test_desc">
<div class="left3_float"><a class="pic" href="http://seermain.61.com.tw/" id="pic_3" name="pic_3"></a></div>
</div>
</div>
</div>
<div class="center_1_div">
<!--å½å½å -->
<div class="game_top">
<div class="game_top_pic" name="test_desc">
<div class="game_top_float"><a class="pic" href="http://ddt.61.com.tw/main_index.php" id="top_1"></a></div>
</div>
</div>
<!--é¬¥å°-->
<div class="game_big">
<div class="game_big_pic" name="test_desc">
<div class="game_top_float_big"><a class="pic" href="https://huammain.61.com.tw/" id="bot_1"></a></div>
</div>
</div>
<!--æ·±å®®å¤§ç-->
<div class="game_bot">
<div class="game_bot_pic" name="test_desc">
<div class="game_bot_float"><a class="pic" href="https://go.onelink.me/0Ds1/4d92cefb" id="mid_1"></a></div>
</div>
</div>
</div>
<div class="right_1_div">
<!--ç¾è®-->
<div class="right1">
<div class="right1_pic" id="test_desc" name="test_desc">
<div class="right1_float"><a class="pic" href="http://as.917play.com.tw/avatar" id="top_2"></a></div>
</div>
</div>
<!--è³½ç¾èM-->
<!---
				<div class="right5">
                    <div class="right5_pic" name="test_desc">
                        <div class="right5_float"><a href="https://www.facebook.com/SeerSW/?aid=1070362" class="pic" id="pic_8"></a></div>
                    </div>
                </div>
				--->
<!--æ°åå¤©æ­¦-->
<div class="right5">
<div class="right5_pic" name="test_desc" style="background-image: url(/images/left4_jg.jpg);">
<div class="right5_float"><a class="pic" href="https://jg.61.com.tw/" id="pic_8"></a></div>
</div>
</div>
<!--ææ°-->
<div class="right2">
<div class="right6_pic" name="test_desc">
<div class="right6_float"><a class="pic" href="https://dj.61.com.tw/" id="pic_10"></a></div>
</div>
</div>
<!-- å¤§é¬§å¤©å®®-->
<div class="right6">
<div class="right7_pic" name="test_desc">
<div class="right7_float"><a class="pic" href="https://h5play.com.tw/games/show/35" id="pic_10"></a></div>
</div>
</div>
</div>
</div>
</div>
<!--game_right_end-->
<!--game_end-->
<div class="footer">
<div class="posiBox">
<!--<div class="discipline_icon"></div>-->
<div class="copyright">
<a href="http://www.61.com.tw/taomee_tw/index.html">éæ¼æå</a>â<a href="http://brand.61.com.tw/business.php?t=1">å» ååä½</a><br/> å°ç£æ·ç±³ç§æè¡ä»½æéå¬å¸ Â© 2016 Taomee. All Rights Reserved.<br/> å®¢æä¿¡ç®±ï¼service@61.com.twãå®¢ææåæéï¼æ¡ä»¶å°æ¼1-3åå·¥ä½æ¥åè¦<br/>
</div>
</div>
</div>
<script type="text/javascript">
        var _gaq = _gaq || [];
        _gaq.push(['_setAccount', 'UA-27769550-1']);
        _gaq.push(['_trackPageview']);

        (function() {
            var ga = document.createElement('script');
            ga.type = 'text/javascript';
            ga.async = true;
            ga.src = ('https:' == document.location.protocol ? 'https://ssl' : 'http://www') + '.google-analytics.com/ga.js';
            var s = document.getElementsByTagName('script')[0];
            s.parentNode.insertBefore(ga, s);
        })();
    </script>
<script type="text/javascript">
        var _gaq = _gaq || [];
        _gaq.push(['_setAccount', 'UA-16713457-1']);
        _gaq.push(['_trackPageview']);

        (function() {
            var ga = document.createElement('script');
            ga.type = 'text/javascript';
            ga.async = true;
            ga.src = ('https:' == document.location.protocol ? 'https://ssl' : 'http://www') + '.google-analytics.com/ga.js';
            var s = document.getElementsByTagName('script')[0];
            s.parentNode.insertBefore(ga, s);
        })();
    </script>
<div style="position:absolute;left:-9999px;">
<!-- phpmyvisites -->
<script type="text/javascript">
            <!--
            var a_vars = Array();
            var pagename = '';

            var phpmyvisitesSite = 7;
            var phpmyvisitesURL = "http://taomeemv.61.com.tw/phpmyvisites.php";
            //-->
        </script>
<script language="javascript" src="http://taomeemv.61.com.tw/phpmyvisites.js" type="text/javascript"></script>
<!-- /phpmyvisites -->
</div>
<!--googleåè¡é·ç¢¼éå§20140509-->
<script type="text/javascript">
        /* <![CDATA[ */
        var google_conversion_id = 1050699772;
        var google_custom_params = window.google_tag_params;
        var google_remarketing_only = true;
        /* ]]> */
    </script>
<script src="//www.googleadservices.com/pagead/conversion.js" type="text/javascript">
</script>
<!-- Track post id -->
<script>
        var url_string = document.URL;
        var url = new URL(url_string);
        var post = url.searchParams.get("post");
        if (post !== null) {

        }
    </script>
<noscript>
<div style="display:inline;">
<img alt="" height="1" src="//googleads.g.doubleclick.net/pagead/viewthroughconversion/1050699772/?value=0&amp;guid=ON&amp;script=0" style="border-style:none;" width="1"/>
</div>
</noscript>
<!--googleåè¡é·ç¢¼çµæ-->
<!-- Modal -->
<div aria-labelledby="myModalLabel" class="modal fade" id="myModal" role="dialog" style="z-index:10000;">
<div class="modal-dialog" role="document">
<div class="modal-content">
<div class="modal-header">
<button aria-label="Close" class="close" data-dismiss="modal" type="button"><span aria-hidden="true">×</span></button>
</div>
<div class="modal-body">
<a href="https://event.61.com.tw/taomee_event/event-center/201808_SummerFestival/main" target="_blank"><img src="https://event.61.com.tw/taomee_event/event-center/assets/201808_SummerFestival/img/summer_cover.jpg" width="100%"/></a>
</div>
<div class="modal-footer">
<a href="https://event.61.com.tw/taomee_event/event-center/201808_SummerFestival/main"><button class="btn btn-default" type="button">åå¾æ´»å</button></a>
<button class="btn btn-primary" data-dismiss="modal" id="btn_close" type="button">Close</button>
</div>
</div>
</div>
</div>
<!-- 	<div class="modal-backdrop" id="modal-backdrop" style="opacity:0.3;"></div>
<script>
  $(function(){
  $('#myModal').css('display','block');
  $('#myModal').addClass('fade_in');
  $('#myModal').removeClass('fade');
  $('body').addClass('modal-open');

  $('#btn_close,.close').click(function(){
    $('#myModal').css('display','none');
    $('#myModal').removeClass('fade_in');
    $('#myModal').addClass('fade');
    $('body').removeClass('modal-open');
    $('#modal-backdrop').hide();
  });

});
</script> -->
</body>
</html>