<!DOCTYPE html>
<html>
<head>
<meta content="text/html; charset=utf-8" http-equiv="Content-type"/>
<meta content="width=device-width, initial-scale=1.0" name="viewport"/>
<title>Index of /</title></head>
<body>
<h1>Index of /</h1><pre><img alt="     " src="/_autoindex/icons/blank.png"/> <a href="?ND">Name</a>                                                                             <a href="?MA">Last modified</a>         <a href="?SA">Size</a>  <a href="?DA">Description </a>
   <hr/><img alt="directory" src="/_autoindex/icons/folder.png"/> <a href="/cgi-bin/">cgi-bin</a>                                                                          04-Dec-2020 13:50        -       
<img alt="[HTM]" src="/_autoindex/icons/html.png"/> <a href="/googlec74292d7f9f6426a.html">googlec74292d7f9f6426a.html</a>                                                      04-Jul-2019 02:21       4k       
</pre><hr/><address>Proudly Served by LiteSpeed Web Server at www.corporeal.com.ve Port 443</address>
</body>
</html>