<html>
<head>
<title>_..::: w84.org community:::.._</title>
<script language="JavaScript" type="text/JavaScript">
<!--
function MM_goToURL() { //v3.0
  var i, args=MM_goToURL.arguments; document.MM_returnValue = false;
  for (i=0; i<(args.length-1); i+=2) eval(args[i]+".location='"+args[i+1]+"'");
}
//-->
</script>
<meta content="text/html; charset=utf-8" http-equiv="Content-Type"/>
</head>
<body>
<!--#echo var="HTTP_REFERER" -->
<!--#echo var="REQUEST_URI" -->
<!--#echo var="HTTP_USER_AGENT" -->
<!--#echo var="REDIRECT_STATUS" -->
</body>
</html>
<!--
-->
