<!DOCTYPE html>
<html lang="fr" prefix="og:http://ogp.me/ns#">
<head>
<base href="https://www.cyclismactu.net/"/>
<script type="text/javascript">
if (parent.frames.length > 0) {window.top.location.href = location.href; } // si dans une frame on redirige
if(top!=self) {top.location=self.location;} // si adresse barre n'est pas celle du site on redirige
</script>
<script charset="utf-8" src="https://cache.consentframework.com/js/pa/25316/c/xFCJi/stub" type="text/javascript"></script>
<script async="" charset="utf-8" src="https://choices.consentframework.com/js/pa/25316/c/xFCJi/cmp" type="text/javascript"></script>
<script src="swar2020c.js" type="text/javascript"></script>
<link href="images/favicon.png" rel="icon" type="image/png"/>
<link href="images/favicon2.png" rel="apple-touch-icon" sizes="180x180"/>
<meta content="text/html; charset=utf-8" http-equiv="Content-Type"/>
<meta content="width=device-width, initial-scale=1, maximum-scale=1, user-scalable=no" name="viewport"/>
<link href="tacki.php" media="screen" rel="stylesheet"/>
<link href="https://fonts.googleapis.com/css?family=Roboto" rel="stylesheet" type="text/css"/>
<script src="https://static.admysports.com/hb/site/cyclismactu_net/hb_cyclismactu_net.js"></script>
<meta content="Cyclisme, Vélo, Tour de France, FFC, UCI, World-tour" name="keywords"/><!-- APEX SLIDER -->
<!--<link href='https://fonts.googleapis.com/css?family=Open+Sans:400,800,300,600' rel='stylesheet' type='text/css'>-->
<link href="apex-slider/apex-slider.css" rel="stylesheet" type="text/css"/>
<link href="apex-slider/captionSWAR.php" rel="stylesheet" type="text/css"/>
<script src="js/jquery.js" type="text/javascript"></script>
<script src="js/jquery-ui.js" type="text/javascript"></script>
<script src="apex-slider/jquery.flashblue-plugins.js" type="text/javascript"></script>
<script src="apex-slider/jquery.apex-slider.js" type="text/javascript"></script>
<script type="text/javascript">
  $(document).ready(function() {
    $(".banner").apexSlider({
      startWidth:1160,
      startHeight:600,
      randomize:false,          //Randomize slide order	
      delay:6000,               //Default delay time	
      transition:"slideleft",      //Effects
      //Thumbnail
      thumbWidth:100,           //Thumb Width, Height and Amount
      thumbHeight:47,
      thumbAmount:6,
      thumbContainerBorder:1,
      //Navigation
      navType:"bullet",           //bullet, thumb, none, both
      navStyle:"round",         //round, round-blue, round-black, number, navbar
      navArrow:"visible",       //visible, none
      showNavOnHover:false,
      showNavArrowOnHover:false,
      hideNavSpeed:2500,
      touchEnabled:true,        //Enable swipe function
      navOffsetHorizontal:0,
      navOffsetVertical:-37,
      //Timer
      showTimer:true,
      timerAlign:"bottom",      //bottom, top
      pauseOnHover:true,        //Pause timer on hover
      //Shadow
      shadow:1,                 //0 = no Shadow, 1,2,3 = 3 Different art of shadows
      //Caption
      hideCaptionAtResolution:0,//Caption should be shown under a screen resolution
      captionEasing:"linear",
      //Lazy load     
      lazyLoad:true,		//Load all images if no lazy load for each image
      //Stop loop
      stopLoop:false,
      stopAfterLoops:-1,
      stopAtSlide:-1,
      //Current item
      currentItem:0,
      //Full width
      fullWidth:false,          //Turns on or off the fullwidth image centering
      //Full screen
      fullScreen:false,
      fullScreenOffsetContainer:"",	
      //Video
      videoJsPath:"videojs/"
    });				
  });
</script>
<title>Toute l'actualité cycliste , les résultats, classements, transferts, et vidéos en direct live - Cyclism'Actu</title>
<meta content="summary_large_image" name="twitter:card"/><meta content="@cyclismactu.net" name="twitter:site"/><meta content="@Cyclismactu" name="twitter:creator"/><meta content="Toute l'actu du Cyclisme" name="twitter:description"/></head>
<!-- adsense page_level_ads mobile -->
<script async="" src="//pagead2.googlesyndication.com/pagead/js/adsbygoogle.js"></script>
<script>
     (adsbygoogle = window.adsbygoogle || []).push({
          google_ad_client: "ca-pub-2908504529538871",
          enable_page_level_ads: true
     });
</script>
<body>
<!--- ///////////////////
///////// SVG //////////
//////////////////////-->
<div aria-hidden="true" style="display:none;"><svg xmlns="http://www.w3.org/2000/svg" xmlns:xlink="http://www.w3.org/1999/xlink">
<symbol id="symbol-magnifier" viewbox="0 0 30 32">
<path d="M20.571 14.857q0-3.304-2.348-5.652t-5.652-2.348-5.652 2.348-2.348 5.652 2.348 5.652 5.652 2.348 5.652-2.348 2.348-5.652zM29.714 29.714q0 0.929-0.679 1.607t-1.607 0.679q-0.964 0-1.607-0.679l-6.125-6.107q-3.196 2.214-7.125 2.214-2.554 0-4.884-0.991t-4.018-2.679-2.679-4.018-0.991-4.884 0.991-4.884 2.679-4.018 4.018-2.679 4.884-0.991 4.884 0.991 4.018 2.679 2.679 4.018 0.991 4.884q0 3.929-2.214 7.125l6.125 6.125q0.661 0.661 0.661 1.607z"></path>
</symbol><symbol id="symbol-user" viewbox="0 0 34 32">
<path d="M30.85 24.753c1.592 1.591 2.388 3.497 2.388 5.713v2.025h-32.404v-2.025c0-2.217 0.795-4.122 2.387-5.713s3.496-2.388 5.714-2.388h16.202c2.217 0 4.122 0.795 5.713 2.388zM17.036 4.138c2.217 0 4.123 0.796 5.714 2.388 1.592 1.591 2.388 3.497 2.388 5.713 0 2.219-0.796 4.123-2.388 5.714-1.591 1.592-3.497 2.387-5.714 2.387s-4.123-0.795-5.714-2.387c-1.592-1.591-2.387-3.496-2.387-5.714 0-2.217 0.795-4.122 2.387-5.713s3.495-2.388 5.714-2.388z"></path>
</symbol><symbol id="symbol-social-dailymotion" viewbox="0 0 32 32">
<path d="M17.8 15.5c-1.6 0-2.9 1.3-2.9 2.9 0 1.6 1.2 2.9 3 2.9 1.5 0 2.7-1.2 2.7-2.8 0-1.7-1.2-3-2.8-3z"></path><path d="M16 0C7.2 0 0 7.2 0 16s7.2 16 16 16 16-7.2 16-16S24.8 0 16 0zm7.8 24.3h-3.3V23c-1 1-2 1.4-3.4 1.4s-2.6-.5-3.6-1.4c-1.3-1.2-2-2.8-2-4.6 0-1.7.6-3.2 1.8-4.3 1.1-1.1 2.4-1.6 3.8-1.6s2.5.5 3.2 1.5V8.9l3.4-.7v16.1z"></path>
</symbol><symbol id="symbol-social-facebook" viewbox="0 0 32 32">
<path d="M22.853 1.357v4.714h-2.804q-1.536 0-2.071 0.643t-0.536 1.929v3.375h5.232l-0.696 5.286h-4.536v13.554h-5.464v-13.554h-4.554v-5.286h4.554v-3.893q0-3.321 1.857-5.152t4.946-1.83q2.625 0 4.071 0.214z"></path>
</symbol><symbol id="symbol-social-twitter" viewbox="0 0 32 32">
<path d="M32 6.076c-1.177 0.522-2.443 0.875-3.771 1.034 1.355-0.813 2.396-2.099 2.887-3.632-1.269 0.752-2.674 1.299-4.169 1.593-1.198-1.276-2.904-2.073-4.792-2.073-3.626 0-6.565 2.939-6.565 6.565 0 0.515 0.058 1.016 0.17 1.496-5.456-0.274-10.294-2.888-13.532-6.86-0.565 0.97-0.889 2.097-0.889 3.301 0 2.278 1.159 4.287 2.921 5.465-1.076-0.034-2.088-0.329-2.974-0.821-0.001 0.027-0.001 0.055-0.001 0.083 0 3.181 2.263 5.834 5.266 6.437-0.551 0.15-1.131 0.23-1.73 0.23-0.423 0-0.834-0.041-1.235-0.118 0.835 2.608 3.26 4.506 6.133 4.559-2.247 1.761-5.078 2.81-8.154 2.81-0.53 0-1.052-0.031-1.566-0.092 2.905 1.863 6.356 2.95 10.064 2.95 12.076 0 18.679-10.004 18.679-18.68 0-0.285-0.006-0.568-0.019-0.849 1.283-0.926 2.396-2.082 3.276-3.398z"></path>
</symbol><symbol id="symbol-social-instagram" viewbox="0 0 32 32">
<path d="M15.812 7.969C11.42 7.969 7.78 11.545 7.78 16a8.007 8.007 0 0 0 8.032 8.031c4.455 0 8.031-3.639 8.031-8.031 0-4.392-3.64-8.031-8.031-8.031zm0 13.176c-2.824 0-5.145-2.321-5.145-5.145 0-2.824 2.321-5.145 5.145-5.145 2.823 0 5.145 2.321 5.145 5.145 0 2.824-2.322 5.145-5.145 5.145z"></path>
<circle cx="24.157" cy="7.78" r="1.82"></circle>
<path d="M28.863 3.075C27.23 1.38 24.91.502 22.275.502H9.349C3.89.502.251 4.142.251 9.6v12.863c0 2.698.878 5.02 2.635 6.713 1.694 1.632 3.953 2.448 6.526 2.448h12.8c2.698 0 4.957-.879 6.588-2.448 1.694-1.63 2.573-3.952 2.573-6.65V9.6c0-2.635-.879-4.894-2.51-6.525zm-.251 19.45c0 1.946-.69 3.514-1.82 4.58-1.13 1.068-2.698 1.632-4.58 1.632h-12.8c-1.883 0-3.451-.564-4.58-1.631-1.13-1.13-1.695-2.698-1.695-4.643V9.6c0-1.882.565-3.451 1.694-4.58 1.067-1.067 2.698-1.632 4.58-1.632h12.926c1.883 0 3.451.565 4.58 1.694 1.067 1.13 1.695 2.698 1.695 4.518v12.925z"></path>
</symbol></svg></div>
<!-- ///////////////////
/////// SITE ///////////
//////////////////////-->
<div id="page-outer-wrap">
<div id="page-inner-wrap">
<div class="container">
<div id="bs-example-navbar-collapse-1" style="float:left;"></div>
<header class="col-xs-12 col-sm-12 col-md-12 col-lg-12" style="height:100px;overflow:hidden;">
<div class="col-xs-12 col-sm-12 col-md-12 col-lg-12" style="padding:0px 5px;float:left;margin-top:5px;">
<div class="col-xs-0 col-sm-0 col-md-2 col-lg-2" style="float:left;text-align:center;">
<form action="recherche.html" class="formSingleInput header-search" id="search-form" method="POST">
<label class="mask" for="search-form-search">Recherche</label>
<input class="formSingleInput-input" id="search-form-search" name="keywords" placeholder="Recherche" type="text"/>
<button class="formSingleInput-btn btnSkin-transparent" type="submit">
<svg aria-hidden="true" height="36" width="36">
<use xlink:href="#symbol-magnifier" xmlns:xlink="http://www.w3.org/1999/xlink"></use>
</svg>
<span class="mask">Ok</span>
</button>
</form>
</div>
<div class="col-xs-10 col-sm-10 col-md-4 col-lg-7" style="float:left;text-align:center;"><a href="."><img class="img-responsive" src="images/logo2017small.png" style="display:inline;max-height:100px;max-width:300px;"/></a></div>
<div class="col-xs-0 col-sm-0 col-md-1 col-lg-1">
<ul class="header-icons"><li class="mbrs" id="mbrs-connectButtonIcon"><div><a class="mbrs-icon mbrs-btnSkin-community" href="connexion.html"><svg class="mbrs-icon-picto" height="16" width="16"><use xlink:href="#symbol-user"></use></svg><span class="mbrs-icon-label">Connexion</span></a></div></li></ul>
</div>
<div class="col-xs-0 col-sm-0 col-md-3 col-lg-2">
<ul class="socialcount">
<li>
<a class="socialcount-facebook" href="https://www.facebook.com/cyclismactu/" rel="nofollow noopener" target="_blank" title="Facebook">
<svg aria-hidden="true" height="25" width="20"><use xlink:href="#symbol-social-facebook" xmlns:xlink="http://www.w3.org/1999/xlink"></use></svg>
<span class="mask">Facebook</span><br/>
<abbr aria-label="42000" class="socialcount-value" title="42000">42.2k</abbr>
</a>
</li>
<li>
<a class="socialcount-twitter" href="https://twitter.com/cyclismactu" rel="nofollow noopener" target="_blank" title="Twitter">
<svg aria-hidden="true" height="25" width="20"><use xlink:href="#symbol-social-twitter" xmlns:xlink="http://www.w3.org/1999/xlink"></use></svg>
<span class="mask">Twitter</span><br/>
<abbr aria-label="21600" class="socialcount-value" title="21600">21.6k</abbr>
</a>
</li>
<li>
<a class="socialcount-instagram" href="https://www.instagram.com/cyclismactu1/" rel="nofollow noopener" target="_blank">
<svg aria-hidden="true" height="25" width="20"><use xlink:href="#symbol-social-instagram" xmlns:xlink="http://www.w3.org/1999/xlink"></use></svg>
<span class="mask">Instagram</span><br/>
<abbr aria-label="1900" class="socialcount-value" title="1900">1.9k</abbr>
</a>
</li>
<li>
<a class="socialcount-dailymotion" href="https://www.dailymotion.com/Cyclismactu" rel="nofollow noopener" target="_blank" title="DailyMotion">
<svg aria-hidden="true" height="25" width="20"><use xlink:href="#symbol-social-dailymotion" xmlns:xlink="http://www.w3.org/1999/xlink"></use></svg>
<span class="mask">Dailymotion</span><br/>
<abbr aria-label="1000" class="socialcount-value" title="1000">1k</abbr>
</a>
</li>
</ul>
</div>
<div class="col-xs-2 col-sm-2" style="min-width:30px;float:right;"><label class="toggle toggle-menu" for="main-nav-check" onclick="" title="Menu">≡</label></div>
</div>
</header>
<input id="main-nav-check" type="checkbox"/>
<div id="menu">
<label class="toggle" for="main-nav-check" onclick="" title="Close">×</label>
<ul>
<li class="cat-black"><a href="."><img src="images/home.png" style="margin-top:5px;" title="Accueil"/> </a></li>
<li class="cat-green col-md-0 col-lg-0"><a href="inscription.html">Inscription</a></li>
<li class="cat-purple col-md-0 col-lg-0"><a href="connexion.html" target="_blank">Connexion</a></li>
<li class="cat-red"><a href="equipes.html">Équipes</a></li>
<li class="cat-blue"><a href="calendrier.html">Calendrier</a></li>
<li class="cat-purple"><a href="classements.html">Classements</a></li>
<li class="cat-green"><a href="https://www.dailymotion.com/Cyclismactu" target="_blank">Cyclism'Actu TV</a></li>
<li class="cat-green col-md-0 col-lg-0"><a href="recherche-article.html">Recherche</a></li>
<li class="cat-red"><a href="/jeu/pronos-accueil/">Pronos</a> <label class="toggle-sub" for="fast-pronos" onclick="">►</label>
<input class="sub-nav-check" id="fast-pronos" type="checkbox"/>
<ul class="sub-nav" id="fast-pronos-sub">
<li class="sub-heading">Pronos <label class="toggle" for="fast-pronos" onclick="" title="Back">►</label></li>
<li><a href="/jeu/pronos-calendrier/">Calendrier</a></li>
<li><a href="/jeu/pronos-classements/">Classements</a></li>
<li><a href="/jeu/pronos-reglement/">Règlement</a></li>
</ul>
</li>
<!--
	    <li class="cat-blue"><a href="">Partenaires</a> <label for="fast-apps" class="toggle-sub" onclick="">&#9658;</label>
		<input type="checkbox" id="fast-apps" class="sub-nav-check"/>
          <ul id="fast-apps-sub" class="sub-nav">
		    <li class="sub-heading">Partenaires <label for="fast-apps" class="toggle" onclick="" title="Back">&#9658;</label></li>
		    <li><a href="http://www.tennisactu.net">Tennis Actu</a></li>
			<li><a href="https://www.challengevelo.com/game/">ChallengeVelo.com | Le Jeu</a></li>
		    <li><a href="https://www.velo-identity.net">Velo-Identity.net | Le Jeu</a></li>
			<li><a href="https://www.velo-manager.net">Velo-Manager.net | Le Jeu</a></li>
		 </ul>
	    </li>-->
<li class="cat-red"><a href="https://www.dailymotion.com/playlist/x5m6lt" target="_blank">Matériel</a></li>
<li class="cat-blue"><a href="https://www.tennisactu.net" target="_blank">Tennis Actu</a></li>
</ul>
</div>
<div class="col-xs-12 col-sm-12 col-md-12 col-lg-12" id="header-pub" style="text-align:center;max-height:160px;overflow:hidden;margin: 10px 0px;clear:both;float:left;">
<!-- HABILLAGE LEADERBOARD -->
<div class="megaban_ca" style="width:100%;text-align:center;"> <div class="toggle_big toggle_small habillage" style="display:block;width:100%;text-align:center;margin:10px 0px;">
<!-- CA Article End Adaptable-->
<ins class="adsbygoogle megaban_ca" data-ad-client="ca-pub-2908504529538871" data-ad-slot="9725935545" style="display:block;min-width:300px;max-width:1200px;width:100%;"></ins>
<script>
			(adsbygoogle = window.adsbygoogle || []).push({});
			</script>
</div>
</div> </div>
<div class="page col-xs-12 col-sm-12 col-md-12 col-lg-12 ">
<div class="col-xs-12 col-sm-12 col-md-0 col-lg-0" id="mobileBreves" style="clear:both;float:center;"> </div>
<div class="main-left col-xs-12 col-sm-12 col-md-7 col-lg-8 ">
<div id="messageImp1610492541" style="background-color:#e5e5e5; padding:20px;margin-top:200px;margin-bottom:250px;display:none;"></div>
<h2>à la Une</h2>
<span class="borderline"></span><div class="bannercontainer responsive" style="position:relative;margin:0 auto;padding:0px 5px;background-color:#fff;max-width:1160px;margin-bottom:20px;">
<div class="banner" style="position:relative;max-width:1160px;height:0px;overflow:hidden;">
<ul style=""><li data-link="news-tour-de-provence-julian-alaphilippe-lancera-sa-saison-en-france-97730.html" data-thumb="https://www.cyclismactu.net/photo/news/97730_alaphilippe0710ter.jpg">
<img src="https://www.cyclismactu.net/photo/news/97730_alaphilippe0710ter.jpg"/>
<div class="caption big_swar lfr" data-easing="easeOutQuad" data-speed="600" data-start="500" data-x="70" data-y="450">
			Tour de La Provence
			<div class="backcornertop"></div>
</div>
<div class="caption medium_black customin customout" data-easing="easeOutQuad" data-speed="600" data-start="1200" data-x="70" data-y="511">
			Julian Alaphilippe lancera sa saison en France !
			</div>
</li><li data-link="news-ffc-cyrille-guimard-candidat-il-faut-100-parrainages-avant-jeudi-97765.html" data-thumb="https://www.cyclismactu.net/photo/news/97765_guimard1101.jpg">
<img src="https://www.cyclismactu.net/photo/news/97765_guimard1101.jpg"/>
<div class="caption big_swar lfr" data-easing="easeOutQuad" data-speed="600" data-start="500" data-x="70" data-y="450">
			FFC
			<div class="backcornertop"></div>
</div>
<div class="caption medium_black customin customout" data-easing="easeOutQuad" data-speed="600" data-start="1200" data-x="70" data-y="511">
			Cyrille Guimard candidat : "Il faut 100 parrainages avant jeudi"
			</div>
</li><li data-link="news-sondage-quel-est-votre-maillot-worldtour-prefere-pour-cette-saison-97572.html" data-thumb="https://www.cyclismactu.net/photo/news/97572_peloton2112.jpg">
<img src="https://www.cyclismactu.net/photo/news/97572_peloton2112.jpg"/>
<div class="caption big_swar lfr" data-easing="easeOutQuad" data-speed="600" data-start="500" data-x="70" data-y="450">
			Sondage
			<div class="backcornertop"></div>
</div>
<div class="caption medium_black customin customout" data-easing="easeOutQuad" data-speed="600" data-start="1200" data-x="70" data-y="511">
			Quel est votre maillot WorldTour préféré pour cette saison ?
			</div>
</li><li data-link="news-itw-chris-froome-se-confie-j-ai-un-peu-impression-rajeunir-97753.html" data-thumb="https://www.cyclismactu.net/photo/news/97753_froo.jpg">
<img src="https://www.cyclismactu.net/photo/news/97753_froo.jpg"/>
<div class="caption big_swar lfr" data-easing="easeOutQuad" data-speed="600" data-start="500" data-x="70" data-y="450">
			ITW
			<div class="backcornertop"></div>
</div>
<div class="caption medium_black customin customout" data-easing="easeOutQuad" data-speed="600" data-start="1200" data-x="70" data-y="511">
			Chris Froome se confie : "J'ai un peu l'impression de rajeunir"
			</div>
</li><li data-link="news-cyclo-cross-van-aert-venturini-tous-champions-nationaux-97743.html" data-thumb="https://www.cyclismactu.net/photo/news/97743_cyclo.jpg">
<img src="https://www.cyclismactu.net/photo/news/97743_cyclo.jpg"/>
<div class="caption big_swar lfr" data-easing="easeOutQuad" data-speed="600" data-start="500" data-x="70" data-y="450">
			Cyclo-cross
			<div class="backcornertop"></div>
</div>
<div class="caption medium_black customin customout" data-easing="easeOutQuad" data-speed="600" data-start="1200" data-x="70" data-y="511">
			Van Aert, Venturini... Tous les champions nationaux !
			</div>
</li><li data-link="news-route-marc-madiot-que-mendes-reste-portugal-avec-ses-footeux-97731.html" data-thumb="https://www.cyclismactu.net/photo/news/97731_img_0430.jpg">
<img src="https://www.cyclismactu.net/photo/news/97731_img_0430.jpg"/>
<div class="caption big_swar lfr" data-easing="easeOutQuad" data-speed="600" data-start="500" data-x="70" data-y="450">
			Route
			<div class="backcornertop"></div>
</div>
<div class="caption medium_black customin customout" data-easing="easeOutQuad" data-speed="600" data-start="1200" data-x="70" data-y="511">
			Marc Madiot : "Que Mendes reste au Portugal avec ses footeux"
			</div>
</li></ul>
</div>
</div><div class="col-xs-12 col-sm-12 col-md-12 col-lg-12" style="padding:5px;">
<div class="col-xs-12 col-sm-12 col-md-6 col-lg-6" style="border:5px solid transparent;">
<h2 style="color:#d4ca56;">Récent</h2>
<span class="borderline"></span><a href="news-piste-gregory-bauge-prend-sa-retraite-je-sens-que-suis-limite-97752.html" style="color:black;"><div style="margin:0px 5px; padding:10px 5px;float:left;width:100%;height:140px;font-size:12px;border-bottom:1px solid #e3e3e3;"><div style="width:100%;float:left;"><b>Piste Grégory Baugé prend sa retraite : "Je sens que je suis limité"</b></div><div style="float:left;width:100%;text-align:justify;padding:10px;color:#5c5c5c;"><img loading="lazy" src="https://www.cyclismactu.net/photo/news/s97752_bauge1202.jpg" style="float:left;margin:10px;max-height:80px;" width="120px"/> À quelques mois des Jeux olympiques de Tokyo, c'est l'un des plus grands pistards de l'histoire du cyclisme français qui a décid&amp;...<br/><small>12/01 21:45</small></div></div></a><a href="news-vtt-simon-andreassen-s-engage-avec-cannondale-factory-racing-97722.html" style="color:black;"><div style="margin:0px 5px; padding:10px 5px;float:left;width:100%;height:140px;font-size:12px;border-bottom:1px solid #e3e3e3;"><div style="width:100%;float:left;"><b>VTT Simon Andreassen s'engage avec Cannondale Factory Racing</b></div><div style="float:left;width:100%;text-align:justify;padding:10px;color:#5c5c5c;"><img loading="lazy" src="https://www.cyclismactu.net/photo/news/s97722_andreassen1001.jpg" style="float:left;margin:10px;max-height:80px;" width="120px"/> Nouveau coureur de la formation Specialized Racing, le Français Jordan Sarrou, champion du monde 2020 de VTT cross-country, n'évoluera p...<br/><small>12/01 21:28</small></div></div></a><a href="news-tour-san-juan-l-edition-2021-du-tour-san-juan-est-annulee-97769.html" style="color:black;"><div style="margin:0px 5px; padding:10px 5px;float:left;width:100%;height:140px;font-size:12px;border-bottom:1px solid #e3e3e3;"><div style="width:100%;float:left;"><b>Tour de San Juan L'édition 2021 du Tour de San Juan est annulée</b></div><div style="float:left;width:100%;text-align:justify;padding:10px;color:#5c5c5c;"><img loading="lazy" src="https://www.cyclismactu.net/photo/news/s97769_sanjuan2021.jpg" style="float:left;margin:10px;max-height:80px;" width="120px"/> Premier grand rendez-vous de la saison professionnelle, la 39e édition du Tour de San Juan (24-31 janvier) n'aura pas lieu. Dé...<br/><small>12/01 21:10</small></div></div></a><a href="news-route-ewan-gagner-une-etape-dans-chaque-grand-tour-en-2021-97718.html" style="color:black;"><div style="margin:0px 5px; padding:10px 5px;float:left;width:100%;height:140px;font-size:12px;border-bottom:1px solid #e3e3e3;"><div style="width:100%;float:left;"><b>Route Ewan : "Gagner une étape dans chaque Grand Tour en 2021"</b></div><div style="float:left;width:100%;text-align:justify;padding:10px;color:#5c5c5c;"><img loading="lazy" src="https://www.cyclismactu.net/photo/news/s97718_ewan3012.jpg" style="float:left;margin:10px;max-height:80px;" width="120px"/> Alors qu'il n'a que 26 ans, Caleb Ewan (Lotto Soudal) fait déjà partie du club des vainqueurs d'étapes sur les trois Grands ...<br/><small>12/01 20:47</small></div></div></a><a href="news-route-percute-par-une-camionnette-alessandro-iacchi-s-est-fait-peur-97794.html" style="color:black;"><div style="margin:0px 5px; padding:10px 5px;float:left;width:100%;height:140px;font-size:12px;border-bottom:1px solid #e3e3e3;"><div style="width:100%;float:left;"><b>Route Percuté par une camionnette, Alessandro Iacchi s'est fait peur</b></div><div style="float:left;width:100%;text-align:justify;padding:10px;color:#5c5c5c;"><img loading="lazy" src="https://www.cyclismactu.net/photo/news/s97794_iacchi1201.jpg" style="float:left;margin:10px;max-height:80px;" width="120px"/> Alessandro Iacchi a eu très chaud ce mardi alors qu'il roulait sur ses routes d'entraînement à Rufina (Toscane). À la sorti...<br/><small>12/01 20:24</small></div></div></a><a href="news-tour-de-provence-julian-alaphilippe-lancera-sa-saison-en-france-97730.html" style="color:black;"><div style="margin:0px 5px; padding:10px 5px;float:left;width:100%;height:140px;font-size:12px;border-bottom:1px solid #e3e3e3;"><div style="width:100%;float:left;"><b>Tour de La Provence Julian Alaphilippe lancera sa saison en France !</b></div><div style="float:left;width:100%;text-align:justify;padding:10px;color:#5c5c5c;"><img loading="lazy" src="https://www.cyclismactu.net/photo/news/s97730_alaphilippe0710ter.jpg" style="float:left;margin:10px;max-height:80px;" width="120px"/> Fondé en 2016 et remporté la saison dernière par Nairo Quintana (Team Arkéa-Samsic), le Tour de La Provence (11-14 f&amp;eacut...<br/><small>12/01 20:01</small></div></div></a><a href="news-route-elmar-reinders-et-van-der-lijke-prolongent-avec-riwal-cycling-97789.html" style="color:black;"><div style="margin:0px 5px; padding:10px 5px;float:left;width:100%;height:140px;font-size:12px;border-bottom:1px solid #e3e3e3;"><div style="width:100%;float:left;"><b>Route Elmar Reinders et Van der Lijke prolongent avec Riwal Cycling</b></div><div style="float:left;width:100%;text-align:justify;padding:10px;color:#5c5c5c;"><img loading="lazy" src="https://www.cyclismactu.net/photo/news/s97789_reindersvanderlijke1201.jpg" style="float:left;margin:10px;max-height:80px;" width="120px"/> Tous deux arrivés en 2020 chez Riwal Readynez - devenue au cours de la saison Riwal Securitas - les Néerlandais Elmar Reinders (28 ...<br/><small>12/01 19:38</small></div></div></a><a href="news-route-rod-ellingworth-difficile-partir-bahrain-victorious-97793.html" style="color:black;"><div style="margin:0px 5px; padding:10px 5px;float:left;width:100%;height:140px;font-size:12px;border-bottom:1px solid #e3e3e3;"><div style="width:100%;float:left;"><b>Route Rod Ellingworth : "Difficile de partir de Bahrain Victorious"</b></div><div style="float:left;width:100%;text-align:justify;padding:10px;color:#5c5c5c;"><img loading="lazy" src="https://www.cyclismactu.net/photo/news/s97793_ellingworth.jpg" style="float:left;margin:10px;max-height:80px;" width="120px"/> Pour sa première déclaration publique de l'année accordée à Cyclingnews, Rod Ellingworth est revenu sur l...<br/><small>12/01 19:15</small></div></div></a><a href="news-route-domenico-pozzovivo-bloque-en-espagne-par-tempete-filomena-97791.html" style="color:black;"><div style="margin:0px 5px; padding:10px 5px;float:left;width:100%;height:140px;font-size:12px;border-bottom:1px solid #e3e3e3;"><div style="width:100%;float:left;"><b>Route Domenico Pozzovivo bloqué en Espagne par la tempête Filomena</b></div><div style="float:left;width:100%;text-align:justify;padding:10px;color:#5c5c5c;"><img loading="lazy" src="https://www.cyclismactu.net/photo/news/s97791_97152_domenico_pozzovivo.jpg" style="float:left;margin:10px;max-height:80px;" width="120px"/> Début d'année compliqué pour Domenico Pozzovivo (Team Qhubeka Assos). L'Italien est actuellement bloqué par la temp&amp;e...<br/><small>12/01 19:02</small></div></div></a><a href="news-route-mads-pedersen-pas-etre-un-sprinteur-comme-caleb-ewan-97788.html" style="color:black;"><div style="margin:0px 5px; padding:10px 5px;float:left;width:100%;height:140px;font-size:12px;border-bottom:1px solid #e3e3e3;"><div style="width:100%;float:left;"><b>Route Mads Pedersen : "Pas être un sprinteur comme Caleb Ewan"</b></div><div style="float:left;width:100%;text-align:justify;padding:10px;color:#5c5c5c;"><img loading="lazy" src="https://www.cyclismactu.net/photo/news/s97788_pedersen.jpg" style="float:left;margin:10px;max-height:80px;" width="120px"/> Les coureurs de la formation Trek-Segafredo informent peu à peu les médias leur programme de courses à l'amorce d'une reprise amp...<br/><small>12/01 18:52</small></div></div></a><a href="news-ffc-cyrille-guimard-candidat-il-faut-100-parrainages-avant-jeudi-97765.html" style="color:black;"><div style="margin:0px 5px; padding:10px 5px;float:left;width:100%;height:140px;font-size:12px;border-bottom:1px solid #e3e3e3;"><div style="width:100%;float:left;"><b>FFC Cyrille Guimard candidat : "Il faut 100 parrainages avant jeudi"</b></div><div style="float:left;width:100%;text-align:justify;padding:10px;color:#5c5c5c;"><img loading="lazy" src="https://www.cyclismactu.net/photo/news/s97765_guimard1101.jpg" style="float:left;margin:10px;max-height:80px;" width="120px"/> C'est officiel depuis dimanche : Cyrille Guimard sera la tête de liste de l'association "Prends Ma Roue" lors des prochaines élections f&amp;...<br/><small>12/01 18:40</small></div></div></a></div>
<div class="col-xs-12 col-sm-12 col-md-6 col-lg-6" style="border:5px solid transparent;">
<h2 style="color:#6f9ed3;">Populaire</h2>
<span class="borderline"></span><a href="news-route-marc-madiot-que-mendes-reste-portugal-avec-ses-footeux-97731.html" style="color:black;"><div style="margin:0px 5px; padding:10px 5px;float:left;width:100%;height:140px;font-size:12px;border-bottom:1px solid #e3e3e3;"><div style="width:100%;float:left;"><b>Route Marc Madiot : "Que Mendes reste au Portugal avec ses footeux"</b></div><div style="float:left;width:100%;text-align:justify;padding:10px;color:#5c5c5c;"><img loading="lazy" src="https://www.cyclismactu.net/photo/news/s97731_img_0430.jpg" style="float:left;margin:10px;max-height:80px;" width="120px"/> Ces derniers jours, une information a fait grand bruit dans le monde du cyclisme : Jorge Mendes, sulfureux agent dans le football, qui s'occupe notamm...<br/><small>11/01 16:15</small></div></div></a><a href="news-itw-lilian-calmejane-chez-ag2r-citroen-c-est-un-soulagement-97650.html" style="color:black;"><div style="margin:0px 5px; padding:10px 5px;float:left;width:100%;height:140px;font-size:12px;border-bottom:1px solid #e3e3e3;"><div style="width:100%;float:left;"><b>ITW Lilian Calmejane chez AG2R Citroën : "C'est un soulagement !"</b></div><div style="float:left;width:100%;text-align:justify;padding:10px;color:#5c5c5c;"><img loading="lazy" src="https://www.cyclismactu.net/photo/news/s97650_calmejane.jpg" style="float:left;margin:10px;max-height:80px;" width="120px"/> Lilian Calmejane sera au départ des championnats de France de cyclo-cross ce dimanche à Pontchâteau, l'occasion pour lui...<br/><small>10/01 11:48</small></div></div></a><a href="news-cyclo-cross-belgique-wout-van-aert-s-offre-son-quatrieme-titre-97740.html" style="color:black;"><div style="margin:0px 5px; padding:10px 5px;float:left;width:100%;height:140px;font-size:12px;border-bottom:1px solid #e3e3e3;"><div style="width:100%;float:left;"><b>Cyclo-cross - Belgique Wout Van Aert s'offre son quatrième titre</b></div><div style="float:left;width:100%;text-align:justify;padding:10px;color:#5c5c5c;"><img loading="lazy" src="https://www.cyclismactu.net/photo/news/s97740_vanaert1001bis.jpg" style="float:left;margin:10px;max-height:80px;" width="120px"/> Triplement sacré en 2016, 2017 et 2018, Wout Van Aert a retrouvé ce dimanche le chemin du succès sur ses Championnats nationaux a...<br/><small>10/01 16:26</small></div></div></a><a href="news-sondage-quel-est-votre-maillot-worldtour-prefere-pour-cette-saison-97572.html" style="color:black;"><div style="margin:0px 5px; padding:10px 5px;float:left;width:100%;height:140px;font-size:12px;border-bottom:1px solid #e3e3e3;"><div style="width:100%;float:left;"><b>Sondage Quel est votre maillot WorldTour préféré pour cette saison ?</b></div><div style="float:left;width:100%;text-align:justify;padding:10px;color:#5c5c5c;"><img loading="lazy" src="https://www.cyclismactu.net/photo/news/s97572_peloton2112.jpg" style="float:left;margin:10px;max-height:80px;" width="120px"/> Chaque année, c'est le sujet qui intéresse tout particulièrement les passionnés de cyclisme lors des premiers jours du moi...<br/><small>12/01 17:20</small></div></div></a><a href="news-cyclo-cross-van-aert-venturini-tous-champions-nationaux-97743.html" style="color:black;"><div style="margin:0px 5px; padding:10px 5px;float:left;width:100%;height:140px;font-size:12px;border-bottom:1px solid #e3e3e3;"><div style="width:100%;float:left;"><b>Cyclo-cross Van Aert, Venturini... Tous les champions nationaux !</b></div><div style="float:left;width:100%;text-align:justify;padding:10px;color:#5c5c5c;"><img loading="lazy" src="https://www.cyclismactu.net/photo/news/s97743_cyclo.jpg" style="float:left;margin:10px;max-height:80px;" width="120px"/> De nombreux championnats nationaux de cyclo-cross se sont déroulés le week-end dernier. En France, Clément Venturini a rempo...<br/><small>12/01 08:15</small></div></div></a><a href="news-tour-de-provence-julian-alaphilippe-lancera-sa-saison-en-france-97730.html" style="color:black;"><div style="margin:0px 5px; padding:10px 5px;float:left;width:100%;height:140px;font-size:12px;border-bottom:1px solid #e3e3e3;"><div style="width:100%;float:left;"><b>Tour de La Provence Julian Alaphilippe lancera sa saison en France !</b></div><div style="float:left;width:100%;text-align:justify;padding:10px;color:#5c5c5c;"><img loading="lazy" src="https://www.cyclismactu.net/photo/news/s97730_alaphilippe0710ter.jpg" style="float:left;margin:10px;max-height:80px;" width="120px"/> Fondé en 2016 et remporté la saison dernière par Nairo Quintana (Team Arkéa-Samsic), le Tour de La Provence (11-14 f&amp;eacut...<br/><small>12/01 20:01</small></div></div></a><a href="news-itw-chris-froome-se-confie-j-ai-un-peu-impression-rajeunir-97753.html" style="color:black;"><div style="margin:0px 5px; padding:10px 5px;float:left;width:100%;height:140px;font-size:12px;border-bottom:1px solid #e3e3e3;"><div style="width:100%;float:left;"><b>ITW Chris Froome se confie : "J'ai un peu l'impression de rajeunir"</b></div><div style="float:left;width:100%;text-align:justify;padding:10px;color:#5c5c5c;"><img loading="lazy" src="https://www.cyclismactu.net/photo/news/s97753_froo.jpg" style="float:left;margin:10px;max-height:80px;" width="120px"/> C'est l'un des grands transferts de l'intersaison : après onze années passées chez Sky/INEOS, Chris Froome a signé av...<br/><small>12/01 12:02</small></div></div></a><a href="news-cyclo-cross-chainel-lavenu-laisse-venturini-faire-du-cross-97782.html" style="color:black;"><div style="margin:0px 5px; padding:10px 5px;float:left;width:100%;height:140px;font-size:12px;border-bottom:1px solid #e3e3e3;"><div style="width:100%;float:left;"><b>Cyclo-cross Chainel à Lavenu : "Laisse Venturini faire du cross"</b></div><div style="float:left;width:100%;text-align:justify;padding:10px;color:#5c5c5c;"><img loading="lazy" src="https://www.cyclismactu.net/photo/news/s97782_chainellavenuventurini1201.jpg" style="float:left;margin:10px;max-height:80px;" width="120px"/> Pour la quatrième fois de sa carrière après ses victoires obtenues en 2017, 2019 et 2020, Clément Venturini est devenu cha...<br/><small>12/01 16:45</small></div></div></a><a href="news-cyclo-cross-france-lilian-calmejane-c-est-une-super-journee-97747.html" style="color:black;"><div style="margin:0px 5px; padding:10px 5px;float:left;width:100%;height:140px;font-size:12px;border-bottom:1px solid #e3e3e3;"><div style="width:100%;float:left;"><b>Cyclo-cross - France Lilian Calmejane : "C'est une super journée"</b></div><div style="float:left;width:100%;text-align:justify;padding:10px;color:#5c5c5c;"><img loading="lazy" src="https://www.cyclismactu.net/photo/news/s97747_calmejane.jpg" style="float:left;margin:10px;max-height:80px;" width="120px"/> Lilian Calmejane participait ce dimanche aux championnats de France de cyclo-cross à Pontchâteau, l'occasion pour lui d'étren...<br/><small>10/01 19:27</small></div></div></a><a href="news-vtt-pauline-ferrand-prevot-rejoint-formation-absolute-absalon-bmc-97697.html" style="color:black;"><div style="margin:0px 5px; padding:10px 5px;float:left;width:100%;height:140px;font-size:12px;border-bottom:1px solid #e3e3e3;"><div style="width:100%;float:left;"><b>VTT Pauline Ferrand-Prévot rejoint la formation Absolute Absalon-BMC</b></div><div style="float:left;width:100%;text-align:justify;padding:10px;color:#5c5c5c;"><img loading="lazy" src="https://www.cyclismactu.net/photo/news/s97697_pfp2021.jpg" style="float:left;margin:10px;max-height:80px;" width="120px"/> Après avoir annoncé fin décembre son départ de la formation Canyon // SRAM Racing, Pauline Ferrand-Pr&amp;eacut...<br/><small>10/01 11:33</small></div></div></a><a href="news-tour-d-italie-la-rai-pourrait-ne-plus-retransmettre-giro-97708.html" style="color:black;"><div style="margin:0px 5px; padding:10px 5px;float:left;width:100%;height:140px;font-size:12px;border-bottom:1px solid #e3e3e3;"><div style="width:100%;float:left;"><b>Tour d'Italie La Rai pourrait ne plus retransmettre le Giro !</b></div><div style="float:left;width:100%;text-align:justify;padding:10px;color:#5c5c5c;"><img loading="lazy" src="https://www.cyclismactu.net/photo/news/s97708_95981_giro2020milan.jpg" style="float:left;margin:10px;max-height:80px;" width="120px"/> Diffuseur historique depuis 23 ans, la chaîne publique La Rai pourrait perdre les droits de retransmission du Tour d'Italie. D'après les ...<br/><small>11/01 08:24</small></div></div></a></div>
</div><!-- jukebox dailymotion
<div class="col-xs-12 col-sm-12 col-md-12 col-lg-12" style="padding:5px;">
<iframe loading="lazy" id="dm_jukebox_iframe" allowtransparency="TRUE" style="overflow:hidden; margin:0; padding:0; width: 100%; height: 442px;" marginwidth="0" marginheight="0" src="https://www.dailymotion.com/widget/jukebox?list[]=%2Fplaylist%2Fx2aycs_Cyclismactu_cyclismactu-videos%2F1&amp;skin=default&amp;autoplay=0&amp;automute=0"  allow="autoplay" align="middle" frameborder="0" width="100%"></iframe>
</div>  -->
<div style="float:left;width:100%;clear:both;margin:10px 0px;background-color:whitesmoke;">
<div style="margin:0px auto;text-align:center;color:grey;font-size:0.8em;padding:5px 5px 5px 20px;">Publicité</div>
<script async="" src="//pagead2.googlesyndication.com/pagead/js/adsbygoogle.js"></script>
<ins class="adsbygoogle" data-ad-client="ca-pub-2908504529538871" data-ad-format="auto" data-ad-slot="9725935545" style="display:block"></ins>
<script>(adsbygoogle = window.adsbygoogle || []).push({});</script></div>
<br/></div>
<div class="main-right col-xs-12 col-sm-12 col-md-5 col-lg-4">
<h2>News</h2>
<span class="borderline"></span>
<div class="col-xs-0 col-sm-0 col-md-12 col-lg-12" id="breves" style="margin-left:3px;max-width:387px;float:left;clear:both;">
<a href="news-media-toutes-vos-videos-velo-sont-voir-et-revoir-sur-cyclism-actu-64074.html" style="color:#222;font-size:11px;text-decoration:none;display:block;width:100%;height:18px;overflow:hidden;padding:3px 0px;" title="Toutes vos vidéos vélo sont à voir et revoir sur Cyclism'Actu"> <b><span style="color: #bbb;">12/01</span> Média</b> Toutes vos vidéos vélo sont à voir et revoir sur Cyclism'Actu</a><a href="news-piste-gregory-bauge-prend-sa-retraite-je-sens-que-suis-limite-97752.html" style="color:#28AD09;font-size:11px;text-decoration:none;display:block;width:100%;height:18px;overflow:hidden;padding:3px 0px;" title="Grégory Baugé prend sa retraite : 'Je sens que je suis limité'"> <b><span style="color: #bbb;">12/01</span> Piste</b> Grégory Baugé prend sa retraite : "Je sens que je suis limité"</a><a href="news-vtt-simon-andreassen-s-engage-avec-cannondale-factory-racing-97722.html" style="color:#222;font-size:11px;text-decoration:none;display:block;width:100%;height:18px;overflow:hidden;padding:3px 0px;" title="Simon Andreassen s'engage avec Cannondale Factory Racing"> <b><span style="color: #bbb;">12/01</span> VTT</b> Simon Andreassen s'engage avec Cannondale Factory Racing</a><a href="news-tour-san-juan-l-edition-2021-du-tour-san-juan-est-annulee-97769.html" style="color:#222;font-size:11px;text-decoration:none;display:block;width:100%;height:18px;overflow:hidden;padding:3px 0px;" title="L'édition 2021 du Tour de San Juan est annulée"> <b><span style="color: #bbb;">12/01</span> Tour de San Juan</b> L'édition 2021 du Tour de San Juan est annulée</a><a href="news-route-ewan-gagner-une-etape-dans-chaque-grand-tour-en-2021-97718.html" style="color:#28AD09;font-size:11px;text-decoration:none;display:block;width:100%;height:18px;overflow:hidden;padding:3px 0px;" title="Ewan : 'Gagner une étape dans chaque Grand Tour en 2021'"> <b><span style="color: #bbb;">12/01</span> Route</b> Ewan : "Gagner une étape dans chaque Grand Tour en 2021"</a><a href="news-route-percute-par-une-camionnette-alessandro-iacchi-s-est-fait-peur-97794.html" style="color:#222;font-size:11px;text-decoration:none;display:block;width:100%;height:18px;overflow:hidden;padding:3px 0px;" title="Percuté par une camionnette, Alessandro Iacchi s'est fait peur"> <b><span style="color: #bbb;">12/01</span> Route</b> Percuté par une camionnette, Alessandro Iacchi s'est fait peur</a><a href="news-tour-de-provence-julian-alaphilippe-lancera-sa-saison-en-france-97730.html" style="color:#E20F22;font-size:11px;text-decoration:none;display:block;width:100%;height:18px;overflow:hidden;padding:3px 0px;" title="Julian Alaphilippe lancera sa saison en France !"> <b><span style="color: #bbb;">12/01</span> Tour de La Provence</b> Julian Alaphilippe lancera sa saison en France !</a><a href="news-route-elmar-reinders-et-van-der-lijke-prolongent-avec-riwal-cycling-97789.html" style="color:#222;font-size:11px;text-decoration:none;display:block;width:100%;height:18px;overflow:hidden;padding:3px 0px;" title="Elmar Reinders et Van der Lijke prolongent avec Riwal Cycling"> <b><span style="color: #bbb;">12/01</span> Route</b> Elmar Reinders et Van der Lijke prolongent avec Riwal Cycling</a><a href="news-route-rod-ellingworth-difficile-partir-bahrain-victorious-97793.html" style="color:#28AD09;font-size:11px;text-decoration:none;display:block;width:100%;height:18px;overflow:hidden;padding:3px 0px;" title="Rod Ellingworth : 'Difficile de partir de Bahrain Victorious'"> <b><span style="color: #bbb;">12/01</span> Route</b> Rod Ellingworth : "Difficile de partir de Bahrain Victorious"</a><a href="news-route-domenico-pozzovivo-bloque-en-espagne-par-tempete-filomena-97791.html" style="color:#222;font-size:11px;text-decoration:none;display:block;width:100%;height:18px;overflow:hidden;padding:3px 0px;" title="Domenico Pozzovivo bloqué en Espagne par la tempête Filomena"> <b><span style="color: #bbb;">12/01</span> Route</b> Domenico Pozzovivo bloqué en Espagne par la tempête Filomena</a><a href="news-route-mads-pedersen-pas-etre-un-sprinteur-comme-caleb-ewan-97788.html" style="color:#222;font-size:11px;text-decoration:none;display:block;width:100%;height:18px;overflow:hidden;padding:3px 0px;" title="Mads Pedersen : 'Pas être un sprinteur comme Caleb Ewan'"> <b><span style="color: #bbb;">12/01</span> Route</b> Mads Pedersen : "Pas être un sprinteur comme Caleb Ewan"</a><a href="news-ffc-cyrille-guimard-candidat-il-faut-100-parrainages-avant-jeudi-97765.html" style="color:#E20F22;font-size:11px;text-decoration:none;display:block;width:100%;height:18px;overflow:hidden;padding:3px 0px;" title="Cyrille Guimard candidat : 'Il faut 100 parrainages avant jeudi'"> <b><span style="color: #bbb;">12/01</span> FFC</b> Cyrille Guimard candidat : "Il faut 100 parrainages avant jeudi"</a><a href="news-transfert-kevin-vauquelin-rejoindra-team-arkea-samsic-en-2022-97792.html" style="color:#222;font-size:11px;text-decoration:none;display:block;width:100%;height:18px;overflow:hidden;padding:3px 0px;" title="Kévin Vauquelin rejoindra le Team Arkéa-Samsic en 2022"> <b><span style="color: #bbb;">12/01</span> Transfert</b> Kévin Vauquelin rejoindra le Team Arkéa-Samsic en 2022</a><a href="news-route-lopez-positif-covid-19-et-absent-du-stage-de-movistar-97790.html" style="color:#28AD09;font-size:11px;text-decoration:none;display:block;width:100%;height:18px;overflow:hidden;padding:3px 0px;" title="Lopez positif au Covid-19 et absent du stage de la Movistar"> <b><span style="color: #bbb;">12/01</span> Route</b> Lopez positif au Covid-19 et absent du stage de la Movistar</a><a href="news-infirmerie-rigoberto-uran-s-est-betement-casse-petit-orteil-97773.html" style="color:#222;font-size:11px;text-decoration:none;display:block;width:100%;height:18px;overflow:hidden;padding:3px 0px;" title="Rigoberto Uran s'est bêtement cassé le petit orteil"> <b><span style="color: #bbb;">12/01</span> Infirmerie</b> Rigoberto Uran s'est bêtement cassé le petit orteil</a><a href="news-sondage-quel-est-votre-maillot-worldtour-prefere-pour-cette-saison-97572.html" style="color:#E20F22;font-size:11px;text-decoration:none;display:block;width:100%;height:18px;overflow:hidden;padding:3px 0px;" title="Quel est votre maillot WorldTour préféré pour cette saison ?"> <b><span style="color: #bbb;">12/01</span> Sondage</b> Quel est votre maillot WorldTour préféré pour cette saison ?</a><a href="news-route-fred-wright-reussir-sur-classiques-dans-futur-97759.html" style="color:#222;font-size:11px;text-decoration:none;display:block;width:100%;height:18px;overflow:hidden;padding:3px 0px;" title="Fred Wright : 'Réussir sur les classiques dans le futur'"> <b><span style="color: #bbb;">12/01</span> Route</b> Fred Wright : "Réussir sur les classiques dans le futur"</a><div style="float:left; width:100%;"><img class="col-xs-0 col-sm-0 col-md-12 col-lg-12" onclick="envoieRequete('inc-breves.php?start=17','breves');" src="images/down.gif" style="width:20px;padding:3px;" title="Plus ancien"/> <img class="col-xs-12 col-sm-12 col-md-0 col-lg-0" onclick="envoieRequete('inc-breves.php?start=17','mobileBreves');" src="images/down.gif" style="width:20px;padding:3px;" title="Plus ancien"/> </div><div style="text-align:center;clear:both;"><a href="http://media.unibet.fr/redirect.aspx?pid=165328&amp;bid=2991" target="_blank">
<div class="col-xs-0 col-sm-0 col-md-12 col-lg-12" style="cursor:pointer;width:100%;min-height:250px; cursor:pointer; max-heigth:300px;;background-position: center;background-image: url('/pubs/300x250/20190701_banniÃ¨re_300x250.jpg');background-repeat: no-repeat;background-size: 300px 250px;background-color:#ffffff;"></div>
<div class="col-xs-12 col-sm-12 col-md-0 col-lg-0" style="width:100%;min-height:50px; cursor:pointer; height: 70px;background-position: center;background-image: url('/pubs/1200x150/unibet.jpg');background-repeat: no-repeat;background-size: 99% 50px;background-color:#ffffff;"></div>
</a></div> </div>
<script type="text/javascript">document.getElementById('mobileBreves').innerHTML=document.getElementById('breves').innerHTML; </script> <h2 style="margin-top:10px;">Transferts</h2>
<span class="borderline"></span>
<div style="text-align:center;">
<a href="transferts-2020-2021.html"><div style="margin: 0 auto; background-image: url(images/transferts.jpg); background-size:cover; height: 90px; width: 100%; max-width:300px; font-weight:bold;"><div style="float:left; clear:both; background:#51a3ff; font-weight:bold; font-size:11px; margin-top:35px; padding:4px; color:white;">TRANSFERTS</div><div style="float:left; width:100%; padding:4px; font-size:22px; text-align:center; color:white;background-color: rgba(0, 0, 0, 0.4);">2020 - 2021</div></div></a>
</div>
<div style="float:left;text-align:center;margin:15px 5px;width:100%;clear:both;background-color:whitesmoke;">
<div style="margin:0px auto;text-align:center;color:grey;font-size:0.8em;padding:5px 5px 5px 20px;">Publicité</div>
<!-- DroiteFixe -->
<ins class="adsbygoogle" data-ad-client="ca-pub-6323590091557071" data-ad-format="rectangle" data-ad-slot="3303761462" data-full-width-responsive="true" style="display:block"></ins>
<script>
     (adsbygoogle = window.adsbygoogle || []).push({});
</script>
</div>
<!-- dernier sondage-->
<h2>Sondage</h2>
<span class="borderline"></span>
<div><div style="font-size:1.8em;color:#222;margin-left:15px;">Quelle équipe du WorldTour a le plus beau maillot en 2021 ?</div><br/><form action="sondage.html" method="post"><input id="rep0" name="reponse" style="margin-top:5px;margin-left:35px;" type="radio" value="1"/><label for="rep0" style="color:#bbb;">AG2R Citroën Team</label><br/><input id="rep1" name="reponse" style="margin-top:5px;margin-left:35px;" type="radio" value="2"/><label for="rep1" style="color:#bbb;">Astana-Premier Tech</label><br/><input id="rep2" name="reponse" style="margin-top:5px;margin-left:35px;" type="radio" value="3"/><label for="rep2" style="color:#bbb;">Bahrain Victorious</label><br/><input id="rep3" name="reponse" style="margin-top:5px;margin-left:35px;" type="radio" value="4"/><label for="rep3" style="color:#bbb;">BORA-hansgrohe</label><br/><input id="rep4" name="reponse" style="margin-top:5px;margin-left:35px;" type="radio" value="5"/><label for="rep4" style="color:#bbb;">Cofidis</label><br/><input id="rep5" name="reponse" style="margin-top:5px;margin-left:35px;" type="radio" value="6"/><label for="rep5" style="color:#bbb;">Deceuninck-Quick Step</label><br/><input id="rep6" name="reponse" style="margin-top:5px;margin-left:35px;" type="radio" value="7"/><label for="rep6" style="color:#bbb;">Groupama-FDJ</label><br/><input id="rep7" name="reponse" style="margin-top:5px;margin-left:35px;" type="radio" value="8"/><label for="rep7" style="color:#bbb;">INEOS Grenadiers</label><br/><input id="rep8" name="reponse" style="margin-top:5px;margin-left:35px;" type="radio" value="9"/><label for="rep8" style="color:#bbb;">Intermarché-Wanty-Gobert</label><br/><input id="rep9" name="reponse" style="margin-top:5px;margin-left:35px;" type="radio" value="10"/><label for="rep9" style="color:#bbb;">Israel Start-Up Nation</label><br/><input id="rep10" name="reponse" style="margin-top:5px;margin-left:35px;" type="radio" value="11"/><label for="rep10" style="color:#bbb;">Team Bike Exchange</label><br/><input id="rep11" name="reponse" style="margin-top:5px;margin-left:35px;" type="radio" value="12"/><label for="rep11" style="color:#bbb;">Team DSM</label><br/><input id="rep12" name="reponse" style="margin-top:5px;margin-left:35px;" type="radio" value="13"/><label for="rep12" style="color:#bbb;">Team Jumbo-Visma</label><br/><input id="rep13" name="reponse" style="margin-top:5px;margin-left:35px;" type="radio" value="14"/><label for="rep13" style="color:#bbb;">UAE-Team Emirates</label><br/><input id="rep14" name="reponse" style="margin-top:5px;margin-left:35px;" type="radio" value="15"/><label for="rep14" style="color:#bbb;">Une autre équipe</label><br/><br/><div class="col-xs-6 col-sm-6 col-md-6 col-lg-6" style="text-align:center;"><a href="sondage.html" style="color:#222;">Résultats</a></div><div class="col-xs-6 col-sm-6 col-md-6 col-lg-6" style="text-align:center;"><input name="sondage" type="hidden" value="481"/><input name="submit" style="color:black;" type="submit" value="Voter"/></div></form></div><br/><br/>
<!-- PUBS 300x125 -->
<h2>Partenaires</h2>
<span class="borderline"></span>
<div style="text-align:center;position:relative;">
<!-- <iframe charset="UTF-8" SRC="https://www.challengevelo.com/widget.php?communaute=CA" TYPE="text/javascript"  style="border:0;height:125px;width:300px;margin:10 0;" scrolling="no"></iframe> -->
<a href="http://www.tennisactu.net" target="_blank"><img src="pubs/300x125/tennisfb.jpg" style="margin-top:10px;width:300px;max-height:250px;"/></a></div>
</div>
</div>
<footer class="col-xs-12 col-sm-12 col-md-12 col-lg-12">
<div class="col-xs-12 col-sm-12 col-md-4 col-lg-4" style="text-align:center;"><img class="img-responsive" src="images/logo2017small.png" style="display:inline;"/></div>
<div class="col-xs-6 col-sm-6 col-md-4 col-lg-4" id="about" name="about"><b>A propos de Cyclism'Actu</b><br/>Cyclism'Actu est édité par Swar-Agency<br/>1 Avenue de La Plante 5000 Namur<br/>SPRLS BE 0836.273.820</div>
<div class="col-xs-6 col-sm-6 col-md-4 col-lg-4"><b>Informations supplémentaires</b><br/><a href="mailto:contact@swar-agency">Devenir partenaire</a><br/><a href="mailto:contact@swar-agency.com">Nous contacter</a><br/><a href="//www.tennisactu.net" target="_blank">Tennis Actu</a><br/><a href="cgu.html">Conditions Générales</a> - <a href="cookies.html">Données Personnelles</a></div>
</footer>
<div class="col-xs-12 col-sm-12 col-md-12 col-lg-12" id="footer-under">
<div class="col-xs-6 col-sm-6 col-md-6 col-lg-6" style="text-align:left;"><b>© Cyclism'Actu</b> Tous droits réservés ©2008-2021</div>
<div class="col-xs-6 col-sm-6 col-md-6 col-lg-6" style="text-align:right;">Produit par <b><a href="http://www.swar-agency.com" target="_blank">Swar Agency</a>.</b></div>
</div>
</div>
</div>
</div>
<!-- Adrenalead PUSH -->
<script type="text/javascript">
var _nAdzq=_nAdzq ||[];
(function(){
  _nAdzq.push(['setIds','85ec26fe3753193f']);
  _nAdzq.push(['setPk','BHnTuZ7MZr27-vxGhTKbmOYaj-LRkqRhjOx22su_Wo_sjqLndNsXIooLbmvslPbTC-hZO6d37i-vPRfLFrFh9rk']);
  _nAdzq.push(['setLogo','https://www.cyclismactu.net/images/logo2017small.png']);
  _nAdzq.push(['setDomain', 'notifpush.com']);
  _nAdzq.push(['setNativDomain', true]); // domaine de l'optin natif
  _nAdzq.push(['setSubscriptionNotif', false]); // notification after optin
  _nAdzq.push(['setTemplateId', 'QuantCast1']);// QuantCast1/ QuantCast2
  _nAdzq.push(['setCmp','quantcast']);
  var u='https://notifpush.com/scripts/';
  var s=document.createElement('script');
  s.type='text/javascript';
  s.defer=true;
  s.async=true;
  s.src=u+'nadz-sdk.js';
  var p=document.getElementsByTagName('script')[0];
  p.parentNode.insertBefore(s,p);
})();
</script>
<!-- TABOOLA -->
<script type="text/javascript">
  window._taboola = window._taboola || [];
  _taboola.push({article:'auto'});
  !function (e, f, u, i) {
    if (!document.getElementById(i)){
      e.async = 1;
      e.src = u;
      e.id = i;
      f.parentNode.insertBefore(e, f);
    }
  }(document.createElement('script'),
  document.getElementsByTagName('script')[0],
  '//cdn.taboola.com/libtrc/swaragency-cyclismactu/loader.js',
  'tb_loader_script');
  if(window.performance && typeof window.performance.mark == 'function')
    {window.performance.mark('tbl_ic');}
</script>
<script type="text/javascript">
  window._taboola = window._taboola || [];
  _taboola.push({flush: true});
</script>
<!-- Smilewanted Corner Vidéo -->
<script async="" src="//tags.smilewanted.com/formats/corner-video/cyclismactu_net_9b6a646" type="text/javascript"></script>
<script src="adserver.js" type="text/javascript"></script>
<script>
if (document.getElementById('ads') == null) {
	var user= '';
	if (user!=17155) { document.getElementById('messageImp1610492541').style.display='block'; document.getElementById('messageImp1610492541').innerHTML='<b>Un bloqueur de publicité a été détecté !</b><br/>Nous souhaitons vous informer que les publicités représentent près de 90% des revenus de notre site, et permet de proposer un contenu gratuit, de répondre au frais d\'hébergement du site, domaines, et de contribuer à son développement.<br/>C\'est pourquoi nous vous serions reconnaissant de bien vouloir désactiver votre bloqueur de publicité sur notre site.<br/>Merci !<br/>'; }
}
</script>
<!-- Analytics -->
<script async="">
  (function(i,s,o,g,r,a,m){i['GoogleAnalyticsObject']=r;i[r]=i[r]||function(){
  (i[r].q=i[r].q||[]).push(arguments)},i[r].l=1*new Date();a=s.createElement(o),
  m=s.getElementsByTagName(o)[0];a.async=1;a.src=g;m.parentNode.insertBefore(a,m)
  })(window,document,'script','//www.google-analytics.com/analytics.js','ga');
  ga('create', 'UA-6409795-1', 'auto');
  ga('send', 'pageview');
</script>
</body>
</html>