<!DOCTYPE html>
<html lang="en-US">
<head>
<meta charset="utf-8"/>
<!--[if IE]><meta http-equiv="X-UA-Compatible" content="IE=edge"><![endif]-->
<meta content="width=device-width, initial-scale=1" name="viewport"/>
<!--[if lt IE 9]>
	  <script src="https://darsequran.in/wp-content/themes/videotube/assets/js/ie8/html5shiv.js"></script>
      <script src="https://darsequran.in/wp-content/themes/videotube/assets/js/ie8/respond.min.js"></script>
	<![endif]-->
<title>Page not found – Darse Quran</title>
<script>
                            /* You can add more configuration options to webfontloader by previously defining the WebFontConfig with your options */
                            if ( typeof WebFontConfig === "undefined" ) {
                                WebFontConfig = new Object();
                            }
                            WebFontConfig['google'] = {families: ['Acme', 'Aclonica']};

                            (function() {
                                var wf = document.createElement( 'script' );
                                wf.src = 'https://ajax.googleapis.com/ajax/libs/webfont/1.5.3/webfont.js';
                                wf.type = 'text/javascript';
                                wf.async = 'true';
                                var s = document.getElementsByTagName( 'script' )[0];
                                s.parentNode.insertBefore( wf, s );
                            })();
                        </script>
<link href="//fonts.googleapis.com" rel="dns-prefetch"/>
<link href="//s.w.org" rel="dns-prefetch"/>
<link href="https://darsequran.in/feed/" rel="alternate" title="Darse Quran » Feed" type="application/rss+xml"/>
<link href="https://darsequran.in/comments/feed/" rel="alternate" title="Darse Quran » Comments Feed" type="application/rss+xml"/>
<script type="text/javascript">
			window._wpemojiSettings = {"baseUrl":"https:\/\/s.w.org\/images\/core\/emoji\/11\/72x72\/","ext":".png","svgUrl":"https:\/\/s.w.org\/images\/core\/emoji\/11\/svg\/","svgExt":".svg","source":{"concatemoji":"https:\/\/darsequran.in\/wp-includes\/js\/wp-emoji-release.min.js?ver=4.9.16"}};
			!function(a,b,c){function d(a,b){var c=String.fromCharCode;l.clearRect(0,0,k.width,k.height),l.fillText(c.apply(this,a),0,0);var d=k.toDataURL();l.clearRect(0,0,k.width,k.height),l.fillText(c.apply(this,b),0,0);var e=k.toDataURL();return d===e}function e(a){var b;if(!l||!l.fillText)return!1;switch(l.textBaseline="top",l.font="600 32px Arial",a){case"flag":return!(b=d([55356,56826,55356,56819],[55356,56826,8203,55356,56819]))&&(b=d([55356,57332,56128,56423,56128,56418,56128,56421,56128,56430,56128,56423,56128,56447],[55356,57332,8203,56128,56423,8203,56128,56418,8203,56128,56421,8203,56128,56430,8203,56128,56423,8203,56128,56447]),!b);case"emoji":return b=d([55358,56760,9792,65039],[55358,56760,8203,9792,65039]),!b}return!1}function f(a){var c=b.createElement("script");c.src=a,c.defer=c.type="text/javascript",b.getElementsByTagName("head")[0].appendChild(c)}var g,h,i,j,k=b.createElement("canvas"),l=k.getContext&&k.getContext("2d");for(j=Array("flag","emoji"),c.supports={everything:!0,everythingExceptFlag:!0},i=0;i<j.length;i++)c.supports[j[i]]=e(j[i]),c.supports.everything=c.supports.everything&&c.supports[j[i]],"flag"!==j[i]&&(c.supports.everythingExceptFlag=c.supports.everythingExceptFlag&&c.supports[j[i]]);c.supports.everythingExceptFlag=c.supports.everythingExceptFlag&&!c.supports.flag,c.DOMReady=!1,c.readyCallback=function(){c.DOMReady=!0},c.supports.everything||(h=function(){c.readyCallback()},b.addEventListener?(b.addEventListener("DOMContentLoaded",h,!1),a.addEventListener("load",h,!1)):(a.attachEvent("onload",h),b.attachEvent("onreadystatechange",function(){"complete"===b.readyState&&c.readyCallback()})),g=c.source||{},g.concatemoji?f(g.concatemoji):g.wpemoji&&g.twemoji&&(f(g.twemoji),f(g.wpemoji)))}(window,document,window._wpemojiSettings);
		</script>
<style type="text/css">
img.wp-smiley,
img.emoji {
	display: inline !important;
	border: none !important;
	box-shadow: none !important;
	height: 1em !important;
	width: 1em !important;
	margin: 0 .07em !important;
	vertical-align: -0.1em !important;
	background: none !important;
	padding: 0 !important;
}
</style>
<link href="https://darsequran.in/wp-content/plugins/click-to-chat-for-whatsapp/assets/css/mainstyles.css?ver=1.7" id="ccw_main_css-css" media="all" rel="stylesheet" type="text/css"/>
<link href="https://darsequran.in/wp-content/plugins/contact-form-plugin/css/form_style.css?ver=4.1.6" id="cntctfrm_form_style-css" media="all" rel="stylesheet" type="text/css"/>
<link href="https://darsequran.in/wp-content/plugins/revslider/public/assets/css/settings.css?ver=5.4.8.3" id="rs-plugin-settings-css" media="all" rel="stylesheet" type="text/css"/>
<style id="rs-plugin-settings-inline-css" type="text/css">
#rs-demo-id {}
</style>
<link href="https://darsequran.in/wp-content/themes/videotube/assets/css/bootstrap.min.css?ver=4.9.16" id="bootstrap-css" media="all" rel="stylesheet" type="text/css"/>
<link href="https://darsequran.in/wp-content/plugins/js_composer/assets/lib/bower/font-awesome/css/font-awesome.min.css?ver=5.7" id="font-awesome-css" media="all" rel="stylesheet" type="text/css"/>
<link href="//fonts.googleapis.com/css?family=Lato%3A300%2C400%2C700%2C900&amp;ver=4.9.16" id="google-font-css" media="all" rel="stylesheet" type="text/css"/>
<link href="https://darsequran.in/wp-content/themes/videotube/style.css?ver=1568902286" id="videotube-style-css" media="all" rel="stylesheet" type="text/css"/>
<link href="https://darsequran.in/wp-content/themes/videotube/assets/css/bootstrap-multiselect.css?ver=4.9.16" id="bootstrap-multiselect-css" media="all" rel="stylesheet" type="text/css"/>
<link href="https://darsequran.in/wp-content/themes/videotube/assets/style/green.css" id="/wp-content/themes/videotube/assets/style/green.css-css" media="all" rel="stylesheet" type="text/css"/>
<script src="https://darsequran.in/wp-includes/js/jquery/jquery.js?ver=1.12.4" type="text/javascript"></script>
<script src="https://darsequran.in/wp-includes/js/jquery/jquery-migrate.min.js?ver=1.4.1" type="text/javascript"></script>
<script src="https://darsequran.in/wp-content/plugins/revslider/public/assets/js/jquery.themepunch.tools.min.js?ver=5.4.8.3" type="text/javascript"></script>
<script src="https://darsequran.in/wp-content/plugins/revslider/public/assets/js/jquery.themepunch.revolution.min.js?ver=5.4.8.3" type="text/javascript"></script>
<link href="https://darsequran.in/wp-json/" rel="https://api.w.org/"/>
<link href="https://darsequran.in/xmlrpc.php?rsd" rel="EditURI" title="RSD" type="application/rsd+xml"/>
<link href="https://darsequran.in/wp-includes/wlwmanifest.xml" rel="wlwmanifest" type="application/wlwmanifest+xml"/>
<meta content="WordPress 4.9.16" name="generator"/>
<style type="text/css">.recentcomments a{display:inline !important;padding:0 !important;margin:0 !important;}</style>
<!--[if lte IE 9]><link rel="stylesheet" type="text/css" href="https://darsequran.in/wp-content/plugins/js_composer/assets/css/vc_lte_ie9.min.css" media="screen"><![endif]--><meta content="Powered by Slider Revolution 5.4.8.3 - responsive, Mobile-Friendly Slider Plugin for WordPress with comfortable drag and drop interface." name="generator"/>
<script type="text/javascript">function setREVStartSize(e){									
						try{ e.c=jQuery(e.c);var i=jQuery(window).width(),t=9999,r=0,n=0,l=0,f=0,s=0,h=0;
							if(e.responsiveLevels&&(jQuery.each(e.responsiveLevels,function(e,f){f>i&&(t=r=f,l=e),i>f&&f>r&&(r=f,n=e)}),t>r&&(l=n)),f=e.gridheight[l]||e.gridheight[0]||e.gridheight,s=e.gridwidth[l]||e.gridwidth[0]||e.gridwidth,h=i/s,h=h>1?1:h,f=Math.round(h*f),"fullscreen"==e.sliderLayout){var u=(e.c.width(),jQuery(window).height());if(void 0!=e.fullScreenOffsetContainer){var c=e.fullScreenOffsetContainer.split(",");if (c) jQuery.each(c,function(e,i){u=jQuery(i).length>0?u-jQuery(i).outerHeight(!0):u}),e.fullScreenOffset.split("%").length>1&&void 0!=e.fullScreenOffset&&e.fullScreenOffset.length>0?u-=jQuery(window).height()*parseInt(e.fullScreenOffset,0)/100:void 0!=e.fullScreenOffset&&e.fullScreenOffset.length>0&&(u-=parseInt(e.fullScreenOffset,0))}f=u}else void 0!=e.minHeight&&f<e.minHeight&&(f=e.minHeight);e.c.closest(".rev_slider_wrapper").css({height:f})					
						}catch(d){console.log("Failure at Presize of Slider:"+d)}						
					};</script>
<noscript><style type="text/css"> .wpb_animate_when_almost_visible { opacity: 1; }</style></noscript></head>
<body class="error404 wpb-js-composer js-comp-ver-5.7 vc_responsive">
<div id="header">
<div class="container">
<div class="row">
<div class="col-sm-3" id="logo">
<a href="https://darsequran.in" title="Tafseer of Quran &amp; Islamic Videos">
<img alt="Tafseer of Quran &amp; Islamic Videos" src="http://darsequran.in/wp-content/uploads/2019/09/download-1-e1568479268673.jpg"/>
</a>
</div>
<form action="https://darsequran.in" method="get">
<div class="col-sm-6" id="header-search">
<span class="glyphicon glyphicon-search search-icon"></span>
<input id="search" name="s" placeholder="Search here..." type="text" value=""/>
</div>
</form>
<div class="col-sm-3" id="header-social">
<a href="https://www.facebook.com/darsequran.in"><i class="fa fa-facebook"></i></a><a href="http://www.twitter.com/yousuf4851"><i class="fa fa-twitter"></i></a><a href="http://www.instagram.com/yousuf4851"><i class="fa fa-instagram"></i></a><a href="https://www.youtube.com/channel/UC98AiM3neFR-57cb9C9GRuA"><i class="fa fa-youtube"></i></a> <a href="https://darsequran.in/feed/rss/"><i class="fa fa-rss"></i></a>
</div>
</div>
</div>
</div><!-- /#header -->
<div id="navigation-wrapper">
<div class="container">
<div class="navbar-header">
<button class="navbar-toggle" data-target=".bs-navbar-collapse" data-toggle="collapse" type="button">
<span class="icon-bar"></span>
<span class="icon-bar"></span>
<span class="icon-bar"></span>
</button>
</div>
<nav class="collapse navbar-collapse bs-navbar-collapse" role="navigation">
<!-- menu -->
<ul class="nav navbar-nav list-inline menu" id="menu-header-menu"><li class="menu-item menu-item-type-custom menu-item-object-custom menu-item-home menu-item-3815 depth" id="menu-item-3815"><a href="http://darsequran.in">Home</a></li>
<li class="menu-item menu-item-type-custom menu-item-object-custom menu-item-has-children dropdown menu-item-3766 depth" id="menu-item-3766"><a href="#">SURAH (Dars) <b class="caret"></b></a>
<ul class="dropdown-menu">
<li class="menu-item menu-item-type-taxonomy menu-item-object-categories menu-item-4022 depth" id="menu-item-4022"><a href="https://darsequran.in/categories/yunus/">SURAH YUNUS</a></li>
<li class="menu-item menu-item-type-taxonomy menu-item-object-categories menu-item-4021 depth" id="menu-item-4021"><a href="https://darsequran.in/categories/hud/">SURAH HUD</a></li>
<li class="menu-item menu-item-type-taxonomy menu-item-object-categories menu-item-4019 depth" id="menu-item-4019"><a href="https://darsequran.in/categories/yusuf/">SURAH YUSUF</a></li>
<li class="menu-item menu-item-type-taxonomy menu-item-object-categories menu-item-4024 depth" id="menu-item-4024"><a href="https://darsequran.in/categories/surah-ar-rad/">SURAH AR RAD</a></li>
<li class="menu-item menu-item-type-taxonomy menu-item-object-categories menu-item-4023 depth" id="menu-item-4023"><a href="https://darsequran.in/categories/surah-ibrahim/">SURAH IBRAHIM</a></li>
<li class="menu-item menu-item-type-taxonomy menu-item-object-categories menu-item-4026 depth" id="menu-item-4026"><a href="https://darsequran.in/categories/surah-al-hijr/">SURAH AL HIJR</a></li>
<li class="menu-item menu-item-type-taxonomy menu-item-object-categories menu-item-4020 depth" id="menu-item-4020"><a href="https://darsequran.in/categories/surah-an-nahl/">SURAH AN NAHL</a></li>
<li class="menu-item menu-item-type-taxonomy menu-item-object-categories menu-item-4025 depth" id="menu-item-4025"><a href="https://darsequran.in/categories/surah-bani-israel/">SURAH BANI ISRAEL</a></li>
<li class="menu-item menu-item-type-taxonomy menu-item-object-categories menu-item-4031 depth" id="menu-item-4031"><a href="https://darsequran.in/categories/surah-al-kahf/">SURAH AL KAHF</a></li>
<li class="menu-item menu-item-type-taxonomy menu-item-object-categories menu-item-4149 depth" id="menu-item-4149"><a href="https://darsequran.in/categories/surah-maryam/">SURAH MARYAM</a></li>
<li class="menu-item menu-item-type-taxonomy menu-item-object-categories menu-item-4151 depth" id="menu-item-4151"><a href="https://darsequran.in/categories/surah-taha/">SURAH TA HA</a></li>
</ul>
</li>
<li class="menu-item menu-item-type-taxonomy menu-item-object-categories menu-item-3816 depth" id="menu-item-3816"><a href="https://darsequran.in/categories/islamic-videos/">ISLAMIC VIDEOS</a></li>
<li class="menu-item menu-item-type-taxonomy menu-item-object-categories menu-item-3817 depth" id="menu-item-3817"><a href="https://darsequran.in/categories/q-a-sessions/">Q &amp; A Sessions</a></li>
<li class="menu-item menu-item-type-post_type menu-item-object-page menu-item-4036 depth" id="menu-item-4036"><a href="https://darsequran.in/contact-darse-quran/">CONTACT US</a></li>
</ul> </nav>
</div>
</div><!-- /#navigation-wrapper --> <div class="container">
<div class="row">
<div class="col-sm-8 main-content">
<div class="post-1 post type-post status-publish format-standard hentry category-uncategorized">
<div class="post-header">
<h2>This is somewhat embarrassing, isn't it?</h2>
</div>
<div class="post-entry">
<p>It seems we can not find what you are looking for. Perhaps searching can help.</p>
<a aria-label="band (2 items)" class="tag-cloud-link tag-link-9 tag-link-position-1" href="https://darsequran.in/tag/band/" style="font-size: 16.4pt;">band</a> <a aria-label="camera (1 item)" class="tag-cloud-link tag-link-10 tag-link-position-2" href="https://darsequran.in/tag/camera/" style="font-size: 8pt;">camera</a> <a aria-label="Cranberries (1 item)" class="tag-cloud-link tag-link-11 tag-link-position-3" href="https://darsequran.in/tag/cranberries/" style="font-size: 8pt;">Cranberries</a> <a aria-label="Dancing (1 item)" class="tag-cloud-link tag-link-12 tag-link-position-4" href="https://darsequran.in/tag/dancing/" style="font-size: 8pt;">Dancing</a> <a aria-label="Decorative (1 item)" class="tag-cloud-link tag-link-13 tag-link-position-5" href="https://darsequran.in/tag/decorative/" style="font-size: 8pt;">Decorative</a> <a aria-label="delicious (2 items)" class="tag-cloud-link tag-link-14 tag-link-position-6" href="https://darsequran.in/tag/delicious/" style="font-size: 16.4pt;">delicious</a> <a aria-label="Fail (2 items)" class="tag-cloud-link tag-link-15 tag-link-position-7" href="https://darsequran.in/tag/fail/" style="font-size: 16.4pt;">Fail</a> <a aria-label="food (2 items)" class="tag-cloud-link tag-link-16 tag-link-position-8" href="https://darsequran.in/tag/food-2/" style="font-size: 16.4pt;">food</a> <a aria-label="funny (2 items)" class="tag-cloud-link tag-link-17 tag-link-position-9" href="https://darsequran.in/tag/funny/" style="font-size: 16.4pt;">funny</a> <a aria-label="Lake (1 item)" class="tag-cloud-link tag-link-18 tag-link-position-10" href="https://darsequran.in/tag/lake/" style="font-size: 8pt;">Lake</a> <a aria-label="Little Kid (1 item)" class="tag-cloud-link tag-link-19 tag-link-position-11" href="https://darsequran.in/tag/little-kid/" style="font-size: 8pt;">Little Kid</a> <a aria-label="live (2 items)" class="tag-cloud-link tag-link-20 tag-link-position-12" href="https://darsequran.in/tag/live/" style="font-size: 16.4pt;">live</a> <a aria-label="Movie (2 items)" class="tag-cloud-link tag-link-41 tag-link-position-13" href="https://darsequran.in/video_tag/movie/" style="font-size: 16.4pt;">Movie</a> <a aria-label="music (2 items)" class="tag-cloud-link tag-link-21 tag-link-position-14" href="https://darsequran.in/tag/music-3/" style="font-size: 16.4pt;">music</a> <a aria-label="Nature (2 items)" class="tag-cloud-link tag-link-46 tag-link-position-15" href="https://darsequran.in/video_tag/nature/" style="font-size: 16.4pt;">Nature</a> <a aria-label="nintend (1 item)" class="tag-cloud-link tag-link-47 tag-link-position-16" href="https://darsequran.in/video_tag/nintend/" style="font-size: 8pt;">nintend</a> <a aria-label="Party (1 item)" class="tag-cloud-link tag-link-22 tag-link-position-17" href="https://darsequran.in/tag/party/" style="font-size: 8pt;">Party</a> <a aria-label="perfomance (2 items)" class="tag-cloud-link tag-link-23 tag-link-position-18" href="https://darsequran.in/tag/perfomance/" style="font-size: 16.4pt;">perfomance</a> <a aria-label="photoshop (1 item)" class="tag-cloud-link tag-link-24 tag-link-position-19" href="https://darsequran.in/tag/photoshop/" style="font-size: 8pt;">photoshop</a> <a aria-label="Pumpkins (1 item)" class="tag-cloud-link tag-link-25 tag-link-position-20" href="https://darsequran.in/tag/pumpkins/" style="font-size: 8pt;">Pumpkins</a> <a aria-label="recipe (2 items)" class="tag-cloud-link tag-link-26 tag-link-position-21" href="https://darsequran.in/tag/recipe-2/" style="font-size: 16.4pt;">recipe</a> <a aria-label="Surah Maryam (1 item)" class="tag-cloud-link tag-link-94 tag-link-position-22" href="https://darsequran.in/video_tag/surah-maryam/" style="font-size: 8pt;">Surah Maryam</a> <a aria-label="tips (1 item)" class="tag-cloud-link tag-link-27 tag-link-position-23" href="https://darsequran.in/tag/tips/" style="font-size: 8pt;">tips</a> <a aria-label="Travel (1 item)" class="tag-cloud-link tag-link-28 tag-link-position-24" href="https://darsequran.in/tag/travel/" style="font-size: 8pt;">Travel</a> <a aria-label="tutorial (1 item)" class="tag-cloud-link tag-link-29 tag-link-position-25" href="https://darsequran.in/tag/tutorial/" style="font-size: 8pt;">tutorial</a> <a aria-label="USA (1 item)" class="tag-cloud-link tag-link-30 tag-link-position-26" href="https://darsequran.in/tag/usa/" style="font-size: 8pt;">USA</a> <a aria-label="video (1 item)" class="tag-cloud-link tag-link-31 tag-link-position-27" href="https://darsequran.in/tag/video/" style="font-size: 8pt;">video</a> <a aria-label="Video Game (3 items)" class="tag-cloud-link tag-link-68 tag-link-position-28" href="https://darsequran.in/video_tag/video-game/" style="font-size: 22pt;">Video Game</a> <a aria-label="videos (2 items)" class="tag-cloud-link tag-link-32 tag-link-position-29" href="https://darsequran.in/tag/videos/" style="font-size: 16.4pt;">videos</a> <a aria-label="viral (2 items)" class="tag-cloud-link tag-link-33 tag-link-position-30" href="https://darsequran.in/tag/viral/" style="font-size: 16.4pt;">viral</a> <a aria-label="zelda (1 item)" class="tag-cloud-link tag-link-75 tag-link-position-31" href="https://darsequran.in/video_tag/zelda/" style="font-size: 8pt;">zelda</a> </div>
</div><!-- /.post -->
</div>
</div><!-- /.row -->
</div><!-- /.container -->
<div id="footer">
<div class="container">
<div class="copyright">
<p>Copyright 2019 By MEHFIL DARSEQURAN All rights reserved.</p> </div>
</div>
</div><!-- /#footer -->
<style>#navigation-wrapper{background:#59d600!important;}.dropdown-menu{background:#59d600!important;}.widget h4.widget-title{background:#59d600}#footer{background:#59d600}body{font-family:Acme;}h1,h2,h3,h4,h5,h6 {font-family:Aclonica!important}#navigation-wrapper ul.menu li a{font-family:Aclonica, sans-serif!important;}</style><div class="ccw_plugin chatbot" style="bottom:10px; right:10px;">
<!-- style 4   chip - logo+text -->
<div class="style4 animated no-animation ccw-no-hover-an">
<a class="nofocus" href="https://web.whatsapp.com/send?phone=919885028451&amp;text=Assalam alaikum" target="_blank">
<div class="chip style-4 ccw-analytics" data-ccw="style-4" id="style-4" style="background-color: #e4e4e4; color: rgba(0, 0, 0, 0.6)">
<img alt="WhatsApp" class="ccw-analytics" data-ccw="style-4" id="s4-icon" src="https://darsequran.in/wp-content/plugins/click-to-chat-for-whatsapp/./assets/img/whatsapp-logo-32x32.png"/>
                WhatsApp us            </div>
</a>
</div>
</div><script type="text/javascript">
/* <![CDATA[ */
var ht_ccw_var = {"page_title":"Hello world!","google_analytics":"","ga_category":"","ga_action":"","ga_label":"","fb_analytics":"","fb_event_name":"","p1_value":"","p2_value":"","p3_value":"","p1_name":"","p2_name":"","p3_name":""};
/* ]]> */
</script>
<script src="https://darsequran.in/wp-content/plugins/click-to-chat-for-whatsapp/assets/js/app.js?ver=1.7" type="text/javascript"></script>
<script src="https://darsequran.in/wp-content/themes/videotube/assets/js/bootstrap.min.js?ver=4.9.16" type="text/javascript"></script>
<script src="https://darsequran.in/wp-content/themes/videotube/assets/js/ie8/jquery.placeholder.js?ver=4.9.16" type="text/javascript"></script>
<script src="https://darsequran.in/wp-content/themes/videotube/assets/js/jquery.matchheight-min.js?ver=4.9.16" type="text/javascript"></script>
<script src="https://darsequran.in/wp-content/themes/videotube/assets/js/functions.js?ver=4.9.16" type="text/javascript"></script>
<script src="https://darsequran.in/wp-content/themes/videotube/assets/js/jquery.cookie.js?ver=4.9.16" type="text/javascript"></script>
<script src="https://darsequran.in/wp-content/themes/videotube/assets/js/bootstrap-multiselect.js?ver=4.9.16" type="text/javascript"></script>
<script src="https://darsequran.in/wp-content/themes/videotube/assets/js/jquery.form.min.js?ver=4.9.16" type="text/javascript"></script>
<script src="https://darsequran.in/wp-content/themes/videotube/assets/js/ajax_handled.js?ver=4.9.16" type="text/javascript"></script>
<script src="https://darsequran.in/wp-content/themes/videotube/assets/js/loading-more.js?ver=4.9.16" type="text/javascript"></script>
<script src="https://darsequran.in/wp-content/themes/videotube/assets/js/readmore.min.js?ver=4.9.16" type="text/javascript"></script>
<script type="text/javascript">
/* <![CDATA[ */
var jsvar = {"home_url":"https:\/\/darsequran.in\/","ajaxurl":"https:\/\/darsequran.in\/wp-admin\/admin-ajax.php","_ajax_nonce":"80bc815fb0","video_filetypes":["mp4","m4v","webm","ogv","flv"],"image_filetypes":["jpg","gif","png"],"error_image_filetype":"Please upload an image instead.","error_video_filetype":"Please upload a video instead.","delete_video_confirm":"Do you want to delete this video?"};
/* ]]> */
</script>
<script src="https://darsequran.in/wp-content/themes/videotube/assets/js/custom.js?ver=4.9.16" type="text/javascript"></script>
<script src="https://darsequran.in/wp-includes/js/wp-embed.min.js?ver=4.9.16" type="text/javascript"></script>
</body>
</html>
