<!DOCTYPE html>
<!--[if lt IE 7]> <html class="no-js lt-ie9 lt-ie8 lt-ie7" lang="en"> <![endif]--><!--[if IE 7]>    <html class="no-js lt-ie9 lt-ie8" lang="en"> <![endif]--><!--[if IE 8]>    <html class="no-js lt-ie9" lang="en"> <![endif]--><!--[if gt IE 8]><!--><html class="no-js" lang="fr-FR"> <!--<![endif]-->
<head>
<meta charset="utf-8"/>
<meta content="" name="description"/>
<meta content="ECOWEB 2.0" name="author"/>
<meta content="width=device-width, initial-scale=1, maximum-scale=1" name="viewport"/>
<link href="http://referencemoi.com/clients/nouveaudecoval/css/font-awesome.css" rel="stylesheet" type="text/css"/>
<link href="http://referencemoi.com/clients/nouveaudecoval/css/font-awesome.min.css" rel="stylesheet" type="text/css"/>
<title>Nothing found for  Boptfoorum Trading+System+Esempio Forex Scalping Strategy Adxef45756010805Fe0F15Febe54C877Fd6 %09%0A</title>
<link href="https://www.decoval.fr/feed/" rel="alternate" title="RSS2.0" type="application/rss+xml"/>
<link href="https://www.decoval.fr/xmlrpc.php" rel="pingback"/>
<!--[if lt IE 9]>   <link rel="stylesheet" type="text/css" href="https://www.decoval.fr/wp-content/themes/universfolio/css/ie8.css" /> <![endif]-->
<!--[if lt IE 9]><script src="https://www.decoval.fr/wp-content/themes/universfolio/js/html5.js"></script><![endif]-->
<!-- All In One SEO Pack 3.7.0[765,804] -->
<script class="aioseop-schema" type="application/ld+json">{"@context":"https://schema.org","@graph":[{"@type":"Organization","@id":"https://www.decoval.fr/#organization","url":"https://www.decoval.fr/","name":"DECOVAL","sameAs":[]},{"@type":"WebSite","@id":"https://www.decoval.fr/#website","url":"https://www.decoval.fr/","name":"DECOVAL","publisher":{"@id":"https://www.decoval.fr/#organization"}}]}</script>
<script type="text/javascript">
				window.ga=window.ga||function(){(ga.q=ga.q||[]).push(arguments)};ga.l=+new Date;
				ga('create', 'UA-5727766', 'auto');
				// Plugins
				
				ga('send', 'pageview');
			</script>
<script async="" src="https://www.google-analytics.com/analytics.js"></script>
<!-- All In One SEO Pack -->
<link href="//maps.google.com" rel="dns-prefetch"/>
<link href="//translate.google.com" rel="dns-prefetch"/>
<link href="//fonts.googleapis.com" rel="dns-prefetch"/>
<link href="//s.w.org" rel="dns-prefetch"/>
<link href="https://www.decoval.fr/feed/" rel="alternate" title="DECOVAL » Flux" type="application/rss+xml"/>
<link href="https://www.decoval.fr/comments/feed/" rel="alternate" title="DECOVAL » Flux des commentaires" type="application/rss+xml"/>
<script type="text/javascript">
			window._wpemojiSettings = {"baseUrl":"https:\/\/s.w.org\/images\/core\/emoji\/12.0.0-1\/72x72\/","ext":".png","svgUrl":"https:\/\/s.w.org\/images\/core\/emoji\/12.0.0-1\/svg\/","svgExt":".svg","source":{"concatemoji":"https:\/\/www.decoval.fr\/wp-includes\/js\/wp-emoji-release.min.js?ver=45abdf93f79282075cf5721e96828430"}};
			/*! This file is auto-generated */
			!function(e,a,t){var r,n,o,i,p=a.createElement("canvas"),s=p.getContext&&p.getContext("2d");function c(e,t){var a=String.fromCharCode;s.clearRect(0,0,p.width,p.height),s.fillText(a.apply(this,e),0,0);var r=p.toDataURL();return s.clearRect(0,0,p.width,p.height),s.fillText(a.apply(this,t),0,0),r===p.toDataURL()}function l(e){if(!s||!s.fillText)return!1;switch(s.textBaseline="top",s.font="600 32px Arial",e){case"flag":return!c([127987,65039,8205,9895,65039],[127987,65039,8203,9895,65039])&&(!c([55356,56826,55356,56819],[55356,56826,8203,55356,56819])&&!c([55356,57332,56128,56423,56128,56418,56128,56421,56128,56430,56128,56423,56128,56447],[55356,57332,8203,56128,56423,8203,56128,56418,8203,56128,56421,8203,56128,56430,8203,56128,56423,8203,56128,56447]));case"emoji":return!c([55357,56424,55356,57342,8205,55358,56605,8205,55357,56424,55356,57340],[55357,56424,55356,57342,8203,55358,56605,8203,55357,56424,55356,57340])}return!1}function d(e){var t=a.createElement("script");t.src=e,t.defer=t.type="text/javascript",a.getElementsByTagName("head")[0].appendChild(t)}for(i=Array("flag","emoji"),t.supports={everything:!0,everythingExceptFlag:!0},o=0;o<i.length;o++)t.supports[i[o]]=l(i[o]),t.supports.everything=t.supports.everything&&t.supports[i[o]],"flag"!==i[o]&&(t.supports.everythingExceptFlag=t.supports.everythingExceptFlag&&t.supports[i[o]]);t.supports.everythingExceptFlag=t.supports.everythingExceptFlag&&!t.supports.flag,t.DOMReady=!1,t.readyCallback=function(){t.DOMReady=!0},t.supports.everything||(n=function(){t.readyCallback()},a.addEventListener?(a.addEventListener("DOMContentLoaded",n,!1),e.addEventListener("load",n,!1)):(e.attachEvent("onload",n),a.attachEvent("onreadystatechange",function(){"complete"===a.readyState&&t.readyCallback()})),(r=t.source||{}).concatemoji?d(r.concatemoji):r.wpemoji&&r.twemoji&&(d(r.twemoji),d(r.wpemoji)))}(window,document,window._wpemojiSettings);
		</script>
<style type="text/css">
img.wp-smiley,
img.emoji {
	display: inline !important;
	border: none !important;
	box-shadow: none !important;
	height: 1em !important;
	width: 1em !important;
	margin: 0 .07em !important;
	vertical-align: -0.1em !important;
	background: none !important;
	padding: 0 !important;
}
</style>
<link href="https://www.decoval.fr/wp-admin/css/farbtastic.min.css?ver=1.3u1" id="farbtastic-css" media="all" rel="stylesheet" type="text/css"/>
<link href="https://www.decoval.fr/wp-content/themes/universfolio/plugins/font-awesome/css/font-awesome.css?ver=45abdf93f79282075cf5721e96828430" id="font-awesome-css" media="all" rel="stylesheet" type="text/css"/>
<link href="https://www.decoval.fr/wp-content/themes/universfolio/css/normalize.css?ver=45abdf93f79282075cf5721e96828430" id="normalize-css" media="all" rel="stylesheet" type="text/css"/>
<link href="https://www.decoval.fr/wp-content/themes/universfolio/style.css?ver=45abdf93f79282075cf5721e96828430" id="main-styles-css" media="all" rel="stylesheet" type="text/css"/>
<link href="https://www.decoval.fr/wp-content/themes/universfolio/css/revslider.css?ver=45abdf93f79282075cf5721e96828430" id="revsilder-css" media="all" rel="stylesheet" type="text/css"/>
<link href="https://www.decoval.fr/wp-content/themes/universfolio/css/responsive.css?ver=45abdf93f79282075cf5721e96828430" id="responsive-css" media="all" rel="stylesheet" type="text/css"/>
<link href="https://www.decoval.fr/wp-content/themes/universfolio/css/dynamic-styles.php?ver=45abdf93f79282075cf5721e96828430" id="dynamic-styles-css" media="all" rel="stylesheet" type="text/css"/>
<link href="https://www.decoval.fr/wp-content/themes/universfolio/js/jplayer/skin/pink.flag/jplayer.pink.flag.css?ver=3.0.1" id="jplayer-styles-css" media="all" rel="stylesheet" type="text/css"/>
<link href="https://www.decoval.fr/wp-includes/css/dist/block-library/style.min.css?ver=45abdf93f79282075cf5721e96828430" id="wp-block-library-css" media="all" rel="stylesheet" type="text/css"/>
<link href="https://www.decoval.fr/wp-content/plugins/addon-elements-for-elementor-page-builder/assets/css/eae.min.css?ver=45abdf93f79282075cf5721e96828430" id="eae-css-css" media="all" rel="stylesheet" type="text/css"/>
<link href="https://www.decoval.fr/wp-content/plugins/elementor/assets/lib/font-awesome/css/v4-shims.min.css?ver=45abdf93f79282075cf5721e96828430" id="font-awesome-4-shim-css" media="all" rel="stylesheet" type="text/css"/>
<link href="https://www.decoval.fr/wp-content/plugins/elementor/assets/lib/font-awesome/css/all.min.css?ver=45abdf93f79282075cf5721e96828430" id="font-awesome-5-all-css" media="all" rel="stylesheet" type="text/css"/>
<link href="https://www.decoval.fr/wp-content/plugins/addon-elements-for-elementor-page-builder/assets/lib/vegas/vegas.min.css?ver=45abdf93f79282075cf5721e96828430" id="vegas-css-css" media="all" rel="stylesheet" type="text/css"/>
<link href="https://www.decoval.fr/wp-content/plugins/advanced-recent-posts/lptw-recent-posts.css?ver=45abdf93f79282075cf5721e96828430" id="lptw-style-css" media="all" rel="stylesheet" type="text/css"/>
<link href="https://www.decoval.fr/wp-content/plugins/contact-form-7/includes/css/styles.css?ver=5.2.2" id="contact-form-7-css" media="all" rel="stylesheet" type="text/css"/>
<style id="contact-form-7-inline-css" type="text/css">
.wpcf7 .wpcf7-recaptcha iframe {margin-bottom: 0;}.wpcf7 .wpcf7-recaptcha[data-align="center"] > div {margin: 0 auto;}.wpcf7 .wpcf7-recaptcha[data-align="right"] > div {margin: 0 0 0 auto;}
</style>
<link href="https://www.decoval.fr/wp-content/plugins/google-language-translator/css/style.css?ver=6.0.7" id="google-language-translator-css" media="" rel="stylesheet" type="text/css"/>
<link href="https://www.decoval.fr/wp-content/plugins/mega-addons-for-visual-composer/css/ihover.css?ver=45abdf93f79282075cf5721e96828430" id="image-hover-effects-css-css" media="all" rel="stylesheet" type="text/css"/>
<link href="https://www.decoval.fr/wp-content/plugins/mega-addons-for-visual-composer/css/style.css?ver=45abdf93f79282075cf5721e96828430" id="style-css-css" media="all" rel="stylesheet" type="text/css"/>
<link href="https://www.decoval.fr/wp-content/plugins/mega-addons-for-visual-composer/css/font-awesome/css/all.css?ver=45abdf93f79282075cf5721e96828430" id="font-awesome-latest-css" media="all" rel="stylesheet" type="text/css"/>
<link href="https://www.decoval.fr/wp-content/plugins/ht-mega-for-elementor/assets/css/htbbootstrap.css?ver=1.4.7" id="htbbootstrap-css" media="all" rel="stylesheet" type="text/css"/>
<link href="https://www.decoval.fr/wp-content/plugins/ht-mega-for-elementor/assets/css/htmega-widgets.css?ver=1.4.7" id="htmega-widgets-css" media="all" rel="stylesheet" type="text/css"/>
<link href="https://www.decoval.fr/wp-content/plugins/ht-mega-for-elementor/assets/css/animation.css?ver=1.4.7" id="htmega-animation-css" media="all" rel="stylesheet" type="text/css"/>
<link href="https://www.decoval.fr/wp-content/plugins/ht-mega-for-elementor/assets/css/htmega-keyframes.css?ver=1.4.7" id="htmega-keyframes-css" media="all" rel="stylesheet" type="text/css"/>
<link href="https://www.decoval.fr/wp-content/plugins/wc-shortcodes/public/assets/css/style.css?ver=3.46" id="wc-shortcodes-style-css" media="all" rel="stylesheet" type="text/css"/>
<link href="https://fonts.googleapis.com/css?family=Open+Sans%3A400%2C300%2C300italic%2C400italic%2C600%2C600italic%2C700%2C700italic%2C800%2C800italic&amp;subset=latin%2Clatin-ext&amp;ver=45abdf93f79282075cf5721e96828430" id="universfolio-opensans-css" media="all" rel="stylesheet" type="text/css"/>
<link href="https://www.decoval.fr/wp-content/plugins/wc-shortcodes/public/assets/css/font-awesome.min.css?ver=4.7.0" id="wordpresscanvas-font-awesome-css" media="all" rel="stylesheet" type="text/css"/>
<script src="https://www.decoval.fr/wp-includes/js/jquery/jquery.js?ver=1.12.4-wp" type="text/javascript"></script>
<script src="https://www.decoval.fr/wp-includes/js/jquery/jquery-migrate.min.js?ver=1.4.1" type="text/javascript"></script>
<script src="https://www.decoval.fr/wp-content/plugins/elementor/assets/lib/font-awesome/js/v4-shims.min.js?ver=45abdf93f79282075cf5721e96828430" type="text/javascript"></script>
<script src="https://www.decoval.fr/wp-includes/js/jquery/ui/core.min.js?ver=1.11.4" type="text/javascript"></script>
<script src="https://www.decoval.fr/wp-content/plugins/mega-addons-for-visual-composer/js/script.js?ver=45abdf93f79282075cf5721e96828430" type="text/javascript"></script>
<script src="https://www.decoval.fr/wp-content/plugins/google-analyticator/external-tracking.min.js?ver=6.5.4" type="text/javascript"></script>
<link href="https://www.decoval.fr/wp-json/" rel="https://api.w.org/"/>
<link href="https://www.decoval.fr/xmlrpc.php?rsd" rel="EditURI" title="RSD" type="application/rsd+xml"/>
<link href="https://www.decoval.fr/wp-includes/wlwmanifest.xml" rel="wlwmanifest" type="application/wlwmanifest+xml"/>
<script type="text/javascript">
            (function () {
                window.lae_fs = {can_use_premium_code: false};
            })();
        </script>
<!-- GA Google Analytics @ https://m0n.co/ga -->
<script>
			(function(i,s,o,g,r,a,m){i['GoogleAnalyticsObject']=r;i[r]=i[r]||function(){
			(i[r].q=i[r].q||[]).push(arguments)},i[r].l=1*new Date();a=s.createElement(o),
			m=s.getElementsByTagName(o)[0];a.async=1;a.src=g;m.parentNode.insertBefore(a,m)
			})(window,document,'script','https://www.google-analytics.com/analytics.js','ga');
			ga('create', 'UA-76341845-1', 'auto');
			ga('send', 'pageview');
		</script>
<style type="text/css">#google_language_translator a {display: none !important; }.goog-te-gadget {color:transparent !important;}.goog-te-gadget { font-size:0px !important; }.goog-branding { display:none; }.goog-tooltip {display: none !important;}.goog-tooltip:hover {display: none !important;}.goog-text-highlight {background-color: transparent !important; border: none !important; box-shadow: none !important;}#google_language_translator { display:none; }#flags { display:none; }.goog-te-banner-frame{visibility:hidden !important;}body { top:0px !important;}</style><meta content="Powered by WPBakery Page Builder - drag and drop page builder for WordPress." name="generator"/>
<!-- Google Analytics Tracking by Google Analyticator 6.5.4: http://www.videousermanuals.com/google-analyticator/ -->
<script type="text/javascript">
    var analyticsFileTypes = [''];
    var analyticsSnippet = 'disabled';
    var analyticsEventTracking = 'enabled';
</script>
<script type="text/javascript">
	(function(i,s,o,g,r,a,m){i['GoogleAnalyticsObject']=r;i[r]=i[r]||function(){
	(i[r].q=i[r].q||[]).push(arguments)},i[r].l=1*new Date();a=s.createElement(o),
	m=s.getElementsByTagName(o)[0];a.async=1;a.src=g;m.parentNode.insertBefore(a,m)
	})(window,document,'script','//www.google-analytics.com/analytics.js','ga');
	ga('create', 'UA-XXXXXXXX-X', 'auto');
	ga('require', 'linkid', 'linkid.js');

	ga('set', 'anonymizeIp', true);
 
	ga('send', 'pageview');
</script>
<noscript><style> .wpb_animate_when_almost_visible { opacity: 1; }</style></noscript></head>
<script>
  (function(i,s,o,g,r,a,m){i['GoogleAnalyticsObject']=r;i[r]=i[r]||function(){
  (i[r].q=i[r].q||[]).push(arguments)},i[r].l=1*new Date();a=s.createElement(o),
  m=s.getElementsByTagName(o)[0];a.async=1;a.src=g;m.parentNode.insertBefore(a,m)
  })(window,document,'script','https://www.google-analytics.com/analytics.js','ga');

  ga('create', 'UA-76341845-1', 'auto');
  ga('send', 'pageview');
</script>
<body class="error404 wide wc-shortcodes-font-awesome-enabled wpb-js-composer js-comp-ver-6.2.0 vc_responsive elementor-default"><div id="p">
<header class="clearfix" id="header">
<div class="container clearfix">
<div class="clearfix" id="top-bar">
<div class="info clearfix">
<li class="numowm"><i class="featicon icon-phone"></i>03 20 77 62 49</li>
<li class="iconsocial"><a href="https://www.facebook.com/pages/Decoval-engineering/657162804356354" target="blank"><i></i></a>
</li>
<li class="iconsocial"> <a href="https://www.linkedin.com/company/decoval-servipack" target="blank"><i></i></a>
</li>
<li class="iconsocial"><a href="https://www.youtube.com/user/DecovalEngineering/videos" target="blank"><i></i></a>
</li> </div>
<div class="flags clearfix">
<li class="textref">DECOVAL - Fabrication et maintenance, broyeur, déchiqueteur, Compacteur, Presse à balles</li>
</div>
</div>
<div id="logo">
<a href="https://www.decoval.fr">
<img src="http://decoval.fr/wp-content/uploads/2016/02/Logo1-Decoval.png"/>
</a>
</div>
<nav class="menu-top-menu-container" id="nav"><ul class="sf-menu clearfix" id="navlist"><li class="menu-item menu-item-type-post_type menu-item-object-page menu-item-home menu-item-2057" id="menu-item-2057"><a href="https://www.decoval.fr/">Accueil</a></li>
<li class="menu-item menu-item-type-custom menu-item-object-custom menu-item-2673" id="menu-item-2673"><a href="https://www.decoval.fr/la-societe-decoval-servipack/">Société</a></li>
<li class="menu-item menu-item-type-post_type menu-item-object-page menu-item-has-children menu-item-2226" id="menu-item-2226"><a href="https://www.decoval.fr/notre-gamme/">Nos produits</a>
<ul class="sub-menu">
<li class="menu-item menu-item-type-custom menu-item-object-custom menu-item-has-children menu-item-2394" id="menu-item-2394"><a href="http://decoval.fr/broyages-dechiquetage/">Broyeurs &amp; Déchiqueteurs</a>
<ul class="sub-menu">
<li class="menu-item menu-item-type-custom menu-item-object-custom menu-item-3053" id="menu-item-3053"><a href="http://decoval.fr/portfolio/dechiqueteur-a-cisaille-rotative-2-axes-2/">Déchiqueteur à cisaille 2 Axes</a></li>
<li class="menu-item menu-item-type-custom menu-item-object-custom menu-item-3054" id="menu-item-3054"><a href="http://decoval.fr/portfolio/dechiqueteur-a-cisaille-rotative-4-axes-a-grille-de-calibrage/">Déchiqueteur à cisaille 4 Axes à grille de calibrage</a></li>
<li class="menu-item menu-item-type-custom menu-item-object-custom menu-item-3055" id="menu-item-3055"><a href="http://decoval.fr/portfolio/dechiqueteur-a-cisaille-rotative-3-axes-a-grille-de-calibrage-4/">Déchiqueteur monorotor à grille de calibrage</a></li>
<li class="menu-item menu-item-type-custom menu-item-object-custom menu-item-3056" id="menu-item-3056"><a href="http://decoval.fr/portfolio/lacerateur-carton-2/">Lacerateur carton</a></li>
<li class="menu-item menu-item-type-custom menu-item-object-custom menu-item-3058" id="menu-item-3058"><a href="http://decoval.fr/portfolio/lacerateur-dib-dis/">Lacérateur Encombrants – OM</a></li>
<li class="menu-item menu-item-type-custom menu-item-object-custom menu-item-3060" id="menu-item-3060"><a href="http://decoval.fr/portfolio/lacerateur-plastique-et-bois/">Lacérateur plastique et bois</a></li>
<li class="menu-item menu-item-type-custom menu-item-object-custom menu-item-3059" id="menu-item-3059"><a href="http://decoval.fr/portfolio/broyeur-plastique/">Broyeur plastique</a></li>
<li class="menu-item menu-item-type-custom menu-item-object-custom menu-item-3057" id="menu-item-3057"><a href="http://decoval.fr/portfolio/broyeur-dechets-alimentaires-et-emballages-2/">Broyeur déchets alimentaires et emballages</a></li>
<li class="menu-item menu-item-type-custom menu-item-object-custom menu-item-3500" id="menu-item-3500"><a href="http://decoval.fr/portfolio/broyeur-de-verre/">Broyeur de verre</a></li>
<li class="menu-item menu-item-type-custom menu-item-object-custom menu-item-3061" id="menu-item-3061"><a href="http://decoval.fr/portfolio/broyeur-a-marteaux/">Broyeur à marteaux</a></li>
<li class="menu-item menu-item-type-custom menu-item-object-custom menu-item-3062" id="menu-item-3062"><a href="http://decoval.fr/portfolio/perforateur-de-bouteilles/">Perforateur de bouteilles</a></li>
</ul>
</li>
<li class="menu-item menu-item-type-custom menu-item-object-custom menu-item-has-children menu-item-2391" id="menu-item-2391"><a href="http://decoval.fr/compactage/">Compacteurs</a>
<ul class="sub-menu">
<li class="menu-item menu-item-type-custom menu-item-object-custom menu-item-3063" id="menu-item-3063"><a href="http://decoval.fr/portfolio/compacteur-poste-fixe-2/">Compacteur Poste fixe</a></li>
<li class="menu-item menu-item-type-custom menu-item-object-custom menu-item-3067" id="menu-item-3067"><a href="http://decoval.fr/portfolio/2276/">Compacteur monobloc</a></li>
<li class="menu-item menu-item-type-custom menu-item-object-custom menu-item-3066" id="menu-item-3066"><a href="http://decoval.fr/portfolio/compacteur-monobloc-2/">Compacteur a vis</a></li>
<li class="menu-item menu-item-type-custom menu-item-object-custom menu-item-7846" id="menu-item-7846"><a href="https://www.decoval.fr/portfolio/rouleau-compacteur/">Rouleau compacteur</a></li>
</ul>
</li>
<li class="menu-item menu-item-type-custom menu-item-object-custom menu-item-has-children menu-item-2843" id="menu-item-2843"><a href="http://decoval.fr/presse-a-balle/">Presse à balle &amp; Presses spéciales</a>
<ul class="sub-menu">
<li class="menu-item menu-item-type-custom menu-item-object-custom menu-item-3068" id="menu-item-3068"><a href="http://decoval.fr/portfolio/presse-a-balles-verticale-5/">Presse à balles verticale</a></li>
<li class="menu-item menu-item-type-custom menu-item-object-custom menu-item-3069" id="menu-item-3069"><a href="http://decoval.fr/portfolio/presse-a-balles-horizontale-2/">Presse à balles horizontale</a></li>
<li class="menu-item menu-item-type-custom menu-item-object-custom menu-item-3501" id="menu-item-3501"><a href="http://decoval.fr/portfolio/presse-a-pneus/">Presse à balles pour Pneus</a></li>
<li class="menu-item menu-item-type-custom menu-item-object-custom menu-item-3070" id="menu-item-3070"><a href="http://decoval.fr/portfolio/presse-a-futs-2/">Presse à futs</a></li>
<li class="menu-item menu-item-type-custom menu-item-object-custom menu-item-3502" id="menu-item-3502"><a href="http://decoval.fr/portfolio/presse-a-briquettes/">Presse à briquettes</a></li>
<li class="menu-item menu-item-type-custom menu-item-object-custom menu-item-3071" id="menu-item-3071"><a href="http://decoval.fr/portfolio/presse-a-densifier-et-essorer/">Presse à densifier et essorer</a></li>
<li class="menu-item menu-item-type-custom menu-item-object-custom menu-item-3499" id="menu-item-3499"><a href="http://decoval.fr/portfolio/dejanteur/">Presse à déjanter – Déjanteur</a></li>
<li class="menu-item menu-item-type-custom menu-item-object-custom menu-item-3503" id="menu-item-3503"><a href="http://decoval.fr/portfolio/tasseur-pour-poubelle-et-sac/">Presse poubelle et sac – Tasseur</a></li>
</ul>
</li>
<li class="menu-item menu-item-type-custom menu-item-object-custom menu-item-has-children menu-item-2392" id="menu-item-2392"><a href="http://www.decoval.fr/equipements-peripheriques/">Equipements périphériques</a>
<ul class="sub-menu">
<li class="menu-item menu-item-type-custom menu-item-object-custom menu-item-3072" id="menu-item-3072"><a href="http://decoval.fr/portfolio/transport-pneumatique-avec-mise-en-big-bag-3/">Transport pneumatique avec mise en Big bag</a></li>
<li class="menu-item menu-item-type-custom menu-item-object-custom menu-item-3073" id="menu-item-3073"><a href="http://decoval.fr/portfolio/tremie-charpente-speciale-2/">Trémie – charpente spéciale</a></li>
<li class="menu-item menu-item-type-custom menu-item-object-custom menu-item-3074" id="menu-item-3074"><a href="http://decoval.fr/portfolio/insonorisation-2/">Insonorisation</a></li>
<li class="menu-item menu-item-type-custom menu-item-object-custom menu-item-3075" id="menu-item-3075"><a href="http://decoval.fr/portfolio/ligne-de-tri-2/">Ligne de tri</a></li>
<li class="menu-item menu-item-type-custom menu-item-object-custom menu-item-3076" id="menu-item-3076"><a href="http://decoval.fr/portfolio/crible-5/">Crible</a></li>
<li class="menu-item menu-item-type-custom menu-item-object-custom menu-item-3077" id="menu-item-3077"><a href="http://decoval.fr/portfolio/detecteur-separateur-magnetique-3/">Détecteur – séparateur magnétique</a></li>
<li class="menu-item menu-item-type-custom menu-item-object-custom menu-item-3078" id="menu-item-3078"><a href="http://decoval.fr/portfolio/basculeur-leve-conteneur/">Basculeur lève conteneur</a></li>
<li class="menu-item menu-item-type-custom menu-item-object-custom menu-item-3087" id="menu-item-3087"><a href="http://decoval.fr/portfolio/convoyeur-a-bande/">Convoyeurs</a></li>
</ul>
</li>
<li class="menu-item menu-item-type-custom menu-item-object-custom menu-item-has-children menu-item-2571" id="menu-item-2571"><a href="http://decoval.fr/ligne-complete/">Ligne complète</a>
<ul class="sub-menu">
<li class="menu-item menu-item-type-custom menu-item-object-custom menu-item-3079" id="menu-item-3079"><a href="http://decoval.fr/portfolio/ligne-de-recyclage-de-pneumatiques-2/">Ligne de recyclage de pneumatiques</a></li>
<li class="menu-item menu-item-type-custom menu-item-object-custom menu-item-3081" id="menu-item-3081"><a href="http://decoval.fr/portfolio/lavage-de-plastique/">Lavage de plastique</a></li>
<li class="menu-item menu-item-type-custom menu-item-object-custom menu-item-3083" id="menu-item-3083"><a href="http://decoval.fr/portfolio/ligne-de-traitement-des-deee/">Ligne de recyclage des DEEE</a></li>
<li class="menu-item menu-item-type-custom menu-item-object-custom menu-item-3084" id="menu-item-3084"><a href="http://decoval.fr/portfolio/ligne-de-traitement-de-refrigerateurs/">Ligne de recyclage de réfrigérateurs</a></li>
<li class="menu-item menu-item-type-custom menu-item-object-custom menu-item-3085" id="menu-item-3085"><a href="http://decoval.fr/portfolio/ligne-de-separation-liquide-solide/">Ligne de séparation liquide – solide</a></li>
</ul>
</li>
<li class="menu-item menu-item-type-custom menu-item-object-custom menu-item-has-children menu-item-2393" id="menu-item-2393"><a href="http://decoval.fr/tremie-biogaz/">Tremie BIO GAZ</a>
<ul class="sub-menu">
<li class="menu-item menu-item-type-custom menu-item-object-custom menu-item-3086" id="menu-item-3086"><a href="http://decoval.fr/portfolio/tremie-de-regulation-2/">Trémie de préparation voie séche</a></li>
<li class="menu-item menu-item-type-custom menu-item-object-custom menu-item-6153" id="menu-item-6153"><a href="http://decoval.fr/portfolio/tremie-de-preparation-voie-liquide/">Trémie de préparation voie liquide</a></li>
<li class="menu-item menu-item-type-custom menu-item-object-custom menu-item-6152" id="menu-item-6152"><a href="http://decoval.fr/portfolio/tremie-de-preparation-voie-pateuse/">Trémie de préparation voie pateuse</a></li>
</ul>
</li>
</ul>
</li>
<li class="menu-item menu-item-type-custom menu-item-object-custom menu-item-has-children menu-item-2395" id="menu-item-2395"><a href="#">Applications</a>
<ul class="sub-menu">
<li class="menu-item menu-item-type-post_type menu-item-object-page menu-item-2433" id="menu-item-2433"><a href="https://www.decoval.fr/plastique/">Plastique</a></li>
<li class="menu-item menu-item-type-post_type menu-item-object-page menu-item-2431" id="menu-item-2431"><a href="https://www.decoval.fr/papier-et-carton/">Papier et Carton</a></li>
<li class="menu-item menu-item-type-post_type menu-item-object-page menu-item-2432" id="menu-item-2432"><a href="https://www.decoval.fr/bois/">Bois</a></li>
<li class="menu-item menu-item-type-post_type menu-item-object-page menu-item-2434" id="menu-item-2434"><a href="https://www.decoval.fr/metaux/">Métaux</a></li>
<li class="menu-item menu-item-type-post_type menu-item-object-page menu-item-2436" id="menu-item-2436"><a href="https://www.decoval.fr/dechet/">Déchet</a></li>
<li class="menu-item menu-item-type-post_type menu-item-object-page menu-item-2435" id="menu-item-2435"><a href="https://www.decoval.fr/electromenager/">Electroménager</a></li>
<li class="menu-item menu-item-type-post_type menu-item-object-page menu-item-2599" id="menu-item-2599"><a href="https://www.decoval.fr/pneu-et-caoutchouc/">Pneu et caoutchouc</a></li>
<li class="menu-item menu-item-type-post_type menu-item-object-page menu-item-2437" id="menu-item-2437"><a href="https://www.decoval.fr/dechet-organique/">Déchet Organique</a></li>
<li class="menu-item menu-item-type-post_type menu-item-object-page menu-item-2438" id="menu-item-2438"><a href="https://www.decoval.fr/dechets-speciaux/">Déchets spéciaux</a></li>
<li class="menu-item menu-item-type-post_type menu-item-object-page menu-item-2439" id="menu-item-2439"><a href="https://www.decoval.fr/textile/">Textile</a></li>
<li class="menu-item menu-item-type-post_type menu-item-object-page menu-item-2597" id="menu-item-2597"><a href="https://www.decoval.fr/mousse/">Mousse</a></li>
<li class="menu-item menu-item-type-post_type menu-item-object-page menu-item-2600" id="menu-item-2600"><a href="https://www.decoval.fr/automobile/">Automobile</a></li>
</ul>
</li>
<li class="menu-item menu-item-type-post_type menu-item-object-page menu-item-2630" id="menu-item-2630"><a href="https://www.decoval.fr/materiel-occasion-dechets/">Occasions</a></li>
<li class="menu-item menu-item-type-post_type menu-item-object-page menu-item-2660" id="menu-item-2660"><a href="https://www.decoval.fr/service/">SAV</a></li>
<li class="menu-item menu-item-type-post_type menu-item-object-page menu-item-2532" id="menu-item-2532"><a href="https://www.decoval.fr/videos/">Nos vidéos</a></li>
<li class="menu-item menu-item-type-post_type menu-item-object-page menu-item-2049" id="menu-item-2049"><a href="https://www.decoval.fr/contact/">Contact</a></li>
<li class="menu-item menu-item-type-post_type menu-item-object-page menu-item-2397" id="menu-item-2397"><a href="https://www.decoval.fr/actus/">Nos actus</a></li>
</ul></nav> <div class="default-language-fr" id="google_language_translator"></div>
</div>
<!-- End of class="container clearfix" -->
<!-- Power by ECOWEB 2.0 -->
</header><!-- End of header -->
<!-- Page Title -->
<section id="page-title">
<div class="container clearfix">
<h1>Page Non Trouvée<span>/ Erreur 404</span></h1>
<nav id="breadcrumbs">
<ul>
<li><a href="https://www.decoval.fr">Home</a> / </li>
<li>Page Non Trouvée</li>
</ul>
</nav>
</div>
</section>
<!-- End Page Title -->
<!-- Content -->
<section id="content">
<div class="container text-center clearfix">
<!-- Error Page -->
<div class="error-page mb40 clearfix">
<span>Ooopss ..! Erreur</span> 404
		</div>
<a class="button gray" href="javascript: history.go(-1)"><i class="icon-undo"></i>Retour à page précédente</a>
<!-- End Error Page -->
</div>
</section>
<!-- End Content -->
<footer id="footer">
<div class="container clearfix">
<ul class="no-bullet clearfix p0 row">
<li class="widget three column"><h3 class="widget-title">DECOVAL</h3> <div class="textwidget">DECOVAL - SERVIPACK - Fabrication et maintenance, broyeur, Déchiqueteur, Compacteur, Presse à balles. <br/><br/>
<a href="#">5 rue Augustin Lhermitte 59139 WATTIGNIES</a>
<a class="numowm href="><i class="featicon icon-phone"></i>03 20 77 62 49</a>
<a href="#">contact@decoval.fr</a>
<a href="http://www.referencemoi.com">Referencemoi.com-création site internet</a><br/>
</div>
</li><li class="widget three column"><h3 class="widget-title">NOS GAMMES</h3> <div class="textwidget"><a href="http://decoval.fr/broyeurs-et-dechiqueteur/">Broyeurs &amp; Déchiqueteurs</a><br/>
<a href="http://decoval.fr/compacteurs/">Compacteurs</a><br/>
<a href="http://decoval.fr/presse-a-balle/">Equipements périphériques</a><br/>
<a href="http://decoval.fr/ligne-complete/">Ligne complète</a><br/>
<a href="http://decoval.fr/presse-a-balle/">Presse à balles</a>
<a href="http://decoval.fr/tremie-de-stockage/">Tremie de stockage </a><br/>
<a href="http://decoval.fr/equipements-peripheriques/">Equipements periphériques</a>
<a href="https://www.presseaballe.fr/">Presse à Balle</a>
</div>
</li><li class="widget three column"><h3 class="widget-title">NOS DERNIERES ACTUS</h3> <ul class="footer-list">
<li>
<a class="footer-post-thumb" href="https://www.decoval.fr/roll-packer-rouleau-compacteur/">
<img alt="" class="cover wp-post-image" height="50" sizes="(max-width: 50px) 100vw, 50px" src="https://www.decoval.fr/wp-content/uploads/2020/03/IMG_0933-50x50.jpg" srcset="https://www.decoval.fr/wp-content/uploads/2020/03/IMG_0933-50x50.jpg 50w, https://www.decoval.fr/wp-content/uploads/2020/03/IMG_0933-150x150.jpg 150w" width="50"/> </a>
<a class="footer-post-link" href="https://www.decoval.fr/roll-packer-rouleau-compacteur/">Equipement d’un rouleau compacteur pour déchets bois pour Benalu(62)</a><br/>
<small>19 mars 2020</small>
<div class="clear"></div>
</li>
<li>
<a class="footer-post-thumb" href="https://www.decoval.fr/compacteur-poste-fixe-benalu/">
<img alt="" class="cover wp-post-image" height="50" sizes="(max-width: 50px) 100vw, 50px" src="https://www.decoval.fr/wp-content/uploads/2020/03/PHOTO-BEN-ALU-2-2-50x50.jpg" srcset="https://www.decoval.fr/wp-content/uploads/2020/03/PHOTO-BEN-ALU-2-2-50x50.jpg 50w, https://www.decoval.fr/wp-content/uploads/2020/03/PHOTO-BEN-ALU-2-2-150x150.jpg 150w" width="50"/> </a>
<a class="footer-post-link" href="https://www.decoval.fr/compacteur-poste-fixe-benalu/">Equipement de deux compacteurs postes fixes P1500 pour la société BENALU (62)</a><br/>
<small></small>
<div class="clear"></div>
</li>
<li>
<a class="footer-post-thumb" href="https://www.decoval.fr/compacteur-poste-fixe-auchan/">
<img alt="Compacteur poste fixe" class="cover wp-post-image" height="50" sizes="(max-width: 50px) 100vw, 50px" src="https://www.decoval.fr/wp-content/uploads/2020/03/IMG_20200219_150500-50x50.jpg" srcset="https://www.decoval.fr/wp-content/uploads/2020/03/IMG_20200219_150500-50x50.jpg 50w, https://www.decoval.fr/wp-content/uploads/2020/03/IMG_20200219_150500-150x150.jpg 150w" width="50"/> </a>
<a class="footer-post-link" href="https://www.decoval.fr/compacteur-poste-fixe-auchan/">Reconditionnement, installation et location d’un compacteur poste fixe P1500</a><br/>
<small></small>
<div class="clear"></div>
</li>
</ul>
</li><li class="widget three column"><h3 class="widget-title">A PROPOS</h3> <div class="textwidget"><a href="http://www.decoval.fr/la-societe-decoval-servipack/">Qui sommes nous ?</a><br/>
<a href="http://decoval.fr/mentions-legales/">Mentions Légales</a><br/>
<a href="http://decoval.fr/contact/">Nous contacter</a><br/>
<a href="http://www.decoval.fr/lexique/">Lexique</a><br/>
<div1>Rechercher un terme précis sur decoval.fr</div1>
<script>
  (function() {
    var cx = '003155352370847531393:ivscgeolvyg';
    var gcse = document.createElement('script');
    gcse.type = 'text/javascript';
    gcse.async = true;
    gcse.src = 'https://cse.google.com/cse.js?cx=' + cx;
    var s = document.getElementsByTagName('script')[0];
    s.parentNode.insertBefore(gcse, s);
  })();
</script>
<gcse:search></gcse:search>
</div>
</li><li class="widget three column"><h3 class="widget-title">Recherche</h3><div class="row collapse top_search contact">
<form action="https://www.decoval.fr" id="search-global-form" method="get">
<input id="search" name="s" placeholder="Entrez dans des termes de recherche" type="text" value=""/>
<button class="button" id="search-submit" name="search" type="submit" value=""><i class="icon-search"></i></button>
</form>
</div></li>
</ul>
<div class="scrollup" id="back-to-top">
<a href="#top">Haut</a>
</div>
<div class="copyright"><script>
  (function(i,s,o,g,r,a,m){i['GoogleAnalyticsObject']=r;i[r]=i[r]||function(){
  (i[r].q=i[r].q||[]).push(arguments)},i[r].l=1*new Date();a=s.createElement(o),
  m=s.getElementsByTagName(o)[0];a.async=1;a.src=g;m.parentNode.insertBefore(a,m)
  })(window,document,'script','https://www.google-analytics.com/analytics.js','ga');

  ga('create', 'UA-76341845-1', 'auto');
  ga('send', 'pageview');

</script></div>
<div class="social-icons clearfix">
<a href="https://www.facebook.com/pages/Decoval-engineering/657162804356354"><img alt="logo Facebook" id="FB" src="http://referencemoi.com/clients/nouveaudecoval/wp-content/uploads/2015/06/FB.png"/></a>
<a href="https://www.facebook.com/pages/Decoval-engineering/657162804356354"><img alt="logo Facebook" id="hover_FB" src="http://referencemoi.com/clients/nouveaudecoval/wp-content/uploads/2015/06/FBH.png"/></a>
<a href="https://plus.google.com/+DecovalEngineering/posts"><img alt="logo Google +" id="Google" src="http://referencemoi.com/clients/nouveaudecoval/wp-content/uploads/2015/06/Google.png"/></a>
<a href="https://plus.google.com/+DecovalEngineering/posts"><img alt="logo Google +" id="hover_Google" src="http://referencemoi.com/clients/nouveaudecoval/wp-content/uploads/2015/06/GoogleH.png"/></a>
<a href="https://twitter.com/DecovalEng"><img alt="logo Twitter" id="Twitter" src="http://referencemoi.com/clients/nouveaudecoval/wp-content/uploads/2015/06/Twitter.png"/></a>
<a href="https://twitter.com/DecovalEng"><img alt="logo Twitter" id="hover_Twitter" src="http://referencemoi.com/clients/nouveaudecoval/wp-content/uploads/2015/06/TwitterH.png"/></a>
<a href="https://www.youtube.com/user/DecovalEngineering/videos"><img alt="logo Youtube" id="Youtube" src="http://referencemoi.com/clients/nouveaudecoval/wp-content/uploads/2015/06/Youtube.png"/></a>
<a href="https://www.youtube.com/user/DecovalEngineering/videos"><img alt="logo Youtube" id="hover_Youtube" src="http://referencemoi.com/clients/nouveaudecoval/wp-content/uploads/2015/06/YoutubeH.png"/></a>
</div>
</div>
</footer>
</div><!-- end of div id=wrap, in the header -->
<div class="size24" id="flags" style="display:none"><ul class="ui-sortable" id="sortable"><li id="English"><a class="nturl notranslate en flag English" href="#" title="English"></a></li></ul></div><div id="glt-footer"></div><script>function GoogleLanguageTranslatorInit() { new google.translate.TranslateElement({pageLanguage: 'fr', includedLanguages:'en', autoDisplay: false}, 'google_language_translator');}</script><script src="https://www.decoval.fr/wp-content/themes/universfolio/js/jquery.isotope.min.js?ver=3.2" type="text/javascript"></script>
<script src="https://www.decoval.fr/wp-content/themes/universfolio/js/modernizr.foundation.js?ver=3.2" type="text/javascript"></script>
<script src="https://www.decoval.fr/wp-content/themes/universfolio/js/jquery.bxslider.min.js?ver=3.2" type="text/javascript"></script>
<script src="https://www.decoval.fr/wp-content/themes/universfolio/js/jflickrfeed.min.js?ver=3.2" type="text/javascript"></script>
<script src="https://www.decoval.fr/wp-content/themes/universfolio/js/jquery.fancybox.js?ver=3.2" type="text/javascript"></script>
<script src="https://www.decoval.fr/wp-content/themes/universfolio/js/jquery.superfish.js?ver=3.2" type="text/javascript"></script>
<script src="https://www.decoval.fr/wp-content/themes/universfolio/js/ddlevelsmenu.js?ver=3.2" type="text/javascript"></script>
<script src="https://www.decoval.fr/wp-content/themes/universfolio/js/script.js?ver=3.2" type="text/javascript"></script>
<script src="http://maps.google.com/maps/api/js?sensor=false&amp;ver=3.2" type="text/javascript"></script>
<script src="https://www.decoval.fr/wp-content/themes/universfolio/js/gmap3.min.js?ver=3.2" type="text/javascript"></script>
<script src="https://www.decoval.fr/wp-content/themes/universfolio/js/jplayer/jquery.jplayer.min.js?ver=3.2" type="text/javascript"></script>
<script src="https://www.decoval.fr/wp-content/themes/universfolio/js/jquery.touchSwipe.min.js?ver=3.2" type="text/javascript"></script>
<script src="https://www.decoval.fr/wp-content/themes/universfolio/js/jquery.validate.min.js?ver=3.2" type="text/javascript"></script>
<script type="text/javascript">
/* <![CDATA[ */
var eae = {"ajaxurl":"https:\/\/www.decoval.fr\/wp-admin\/admin-ajax.php","current_url":"aHR0cHM6Ly93d3cuZGVjb3ZhbC5mci9ib3B0Zm9vcnVtL1RyYWRpbmcrU3lzdGVtK0VzZW1waW8vZm9yZXgtc2NhbHBpbmctc3RyYXRlZ3ktYWR4ZWY0NTc1NjAxMDgwNWZlMGYxNWZlYmU1NGM4NzdmZDYuaHRtbCUwOS8=","breakpoints":{"xs":0,"sm":480,"md":768,"lg":1025,"xl":1440,"xxl":1600}};
var eae_editor = {"plugin_url":"https:\/\/www.decoval.fr\/wp-content\/plugins\/addon-elements-for-elementor-page-builder\/"};
/* ]]> */
</script>
<script src="https://www.decoval.fr/wp-content/plugins/addon-elements-for-elementor-page-builder/assets/js/eae.min.js?ver=1.0" type="text/javascript"></script>
<script src="https://www.decoval.fr/wp-includes/js/imagesloaded.min.js?ver=3.2.0" type="text/javascript"></script>
<script src="https://www.decoval.fr/wp-includes/js/masonry.min.js?ver=3.3.2" type="text/javascript"></script>
<script src="https://www.decoval.fr/wp-content/plugins/addon-elements-for-elementor-page-builder/assets/js/animated-main.min.js?ver=1.0" type="text/javascript"></script>
<script src="https://www.decoval.fr/wp-content/plugins/addon-elements-for-elementor-page-builder/assets/js/particles.min.js?ver=1.0" type="text/javascript"></script>
<script src="https://www.decoval.fr/wp-content/plugins/addon-elements-for-elementor-page-builder/assets/lib/magnific.min.js?ver=1.9" type="text/javascript"></script>
<script src="https://www.decoval.fr/wp-content/plugins/addon-elements-for-elementor-page-builder/assets/lib/vegas/vegas.min.js?ver=2.4.0" type="text/javascript"></script>
<script src="https://www.decoval.fr/wp-content/plugins/addon-elements-for-elementor-page-builder/assets/lib/swiper/js/swiper.min.js?ver=4.4.6" type="text/javascript"></script>
<script src="https://www.decoval.fr/wp-content/plugins/addon-elements-for-elementor-page-builder/assets/lib/isotope/isotope.pkgd.min.js?ver=2.6.2" type="text/javascript"></script>
<script src="https://www.decoval.fr/wp-content/plugins/addon-elements-for-elementor-page-builder/assets/lib/tilt/tilt.jquery.min.js?ver=45abdf93f79282075cf5721e96828430" type="text/javascript"></script>
<script src="https://www.decoval.fr/wp-includes/js/jquery/jquery.masonry.min.js?ver=3.1.2b" type="text/javascript"></script>
<script src="https://www.decoval.fr/wp-content/plugins/advanced-recent-posts/lptw-recent-posts.js?ver=45abdf93f79282075cf5721e96828430" type="text/javascript"></script>
<script type="text/javascript">
/* <![CDATA[ */
var wpcf7 = {"apiSettings":{"root":"https:\/\/www.decoval.fr\/wp-json\/contact-form-7\/v1","namespace":"contact-form-7\/v1"},"cached":"1"};
/* ]]> */
</script>
<script src="https://www.decoval.fr/wp-content/plugins/contact-form-7/includes/js/scripts.js?ver=5.2.2" type="text/javascript"></script>
<script src="https://www.decoval.fr/wp-content/plugins/google-language-translator/js/scripts.js?ver=6.0.7" type="text/javascript"></script>
<script src="//translate.google.com/translate_a/element.js?cb=GoogleLanguageTranslatorInit" type="text/javascript"></script>
<script src="https://www.decoval.fr/wp-content/plugins/ht-mega-for-elementor/assets/js/popper.min.js?ver=1.4.7" type="text/javascript"></script>
<script src="https://www.decoval.fr/wp-content/plugins/ht-mega-for-elementor/assets/js/htbbootstrap.js?ver=1.4.7" type="text/javascript"></script>
<script src="https://www.decoval.fr/wp-content/plugins/ht-mega-for-elementor/assets/js/waypoints.js?ver=1.4.7" type="text/javascript"></script>
<script type="text/javascript">
/* <![CDATA[ */
var WCShortcodes = {"ajaxurl":"https:\/\/www.decoval.fr\/wp-admin\/admin-ajax.php"};
/* ]]> */
</script>
<script src="https://www.decoval.fr/wp-content/plugins/wc-shortcodes/public/assets/js/rsvp.js?ver=3.46" type="text/javascript"></script>
<script src="https://www.decoval.fr/wp-includes/js/wp-embed.min.js?ver=45abdf93f79282075cf5721e96828430" type="text/javascript"></script>
<script src="https://www.decoval.fr/wp-content/themes/universfolio/js/hover.js?ver=45abdf93f79282075cf5721e96828430" type="text/javascript"></script>
<script src="//www.decoval.fr/wp-content/uploads/custom-css-js/6749.js?v=3115" type="text/javascript"></script>
</body>
</html>