<!DOCTYPE html>
<html lang="en-GB">
<head><noscript><style>#loftloader-wrapper { display: none !important; }</style></noscript><style> html.loftloader-pro-hide #loftloader-wrapper { display: none !important; } </style><script type="text/javascript">    ( function() {
        var loftloaderCache = {
            'timestamp': 1610029056,
            'isOncePerSession': "off",
            'scope': "none",
            'isFront': "on",
            'uid': "6bb61e3b7bce0931da574d19d1d82c88",
            'pageID': -1        },
        htmlClass = document.documentElement.classList, isFront = ( 'on' === loftloaderCache.isFront ),
        sessionID = false, session = window.sessionStorage;
        if ( 'on' === loftloaderCache.isOncePerSession ) {
            switch ( loftloaderCache.scope ) {
                case 'site':
                    sessionID = 'loftloaderSiteOncePerSession';
                    break;
                case 'front':
                    if ( isFront ) {
                        sessionID = 'loftloaderFrontOncePerSession';
                    }
                    break;
                case 'page':
                    sessionID = loftloaderCache.uid;
                    break;
            }
            if ( sessionID ) {
                if ( session.getItem( sessionID ) ) {
                    var styles = [ 'loftloader-page-smooth-transition-bg', 'loftloader-pro-disable-scrolling', 'loftloader-pro-always-show-scrollbar' ];
                    styles.forEach( function ( s ) {
                        if ( document.getElementById( s ) ) {
                            document.getElementById( s ).remove();
                        }
                    } );
                } else {
                    session.setItem( sessionID, 'done' );
                    htmlClass.remove( 'loftloader-pro-hide' );
                }
            }
        }
    } ) ();
</script>
<script type="text/javascript">
var loftloaderProProgressInit = 0.6, init = 0, percentageStyles = '';
function loftloaderProInsertStyle( styleID, styleContent ) {
    var style = document.createElement( 'style' );
    style.id = styleID;
    style.innerText = styleContent
    document.head.appendChild( style );
}
if ( window.sessionStorage.getItem( 'loftloader-pro-smooth-transition' ) && ( 'on' === window.sessionStorage.getItem( 'loftloader-pro-smooth-transition' ) ) ) {
    var onceStyles = '', initPercentage = loftloaderProProgressInit * 100;
    init = loftloaderProProgressInit; }
percentageStyles = '#loftloader-wrapper .percentage:after, #loftloader-wrapper .load-count:after { content: "' + ( init * 100 ) + '%"; }';
percentageStyles += ' #loftloader-wrapper .load-count { width: ' + ( init * 100 ) + '%; }';
loftloaderProInsertStyle( 'loftloader-pro-progress-bar-style', 'span.bar span.load { transform: scaleX(' + init + '); }' );
loftloaderProInsertStyle( 'loftloader-pro-progress-percentage-style', percentageStyles );
</script>
<meta charset="utf-8"/>
<meta content="IE=edge" http-equiv="X-UA-Compatible"/>
<link href="https://www.del-marine.com/xmlrpc.php" rel="pingback"/>
<script type="text/javascript">
		document.documentElement.className = 'js';
	</script>
<title>Del Marine |</title>
<style id="et-divi-userfonts">@font-face { font-family: "Tahoma"; font-display: swap;  src: url("https://www.del-marine.com/wp-content/uploads/et-fonts/tahoma.ttf") format("truetype"); }</style><link href="//fonts.googleapis.com" rel="dns-prefetch"/>
<link href="//s.w.org" rel="dns-prefetch"/>
<link href="https://www.del-marine.com/feed/" rel="alternate" title="Del Marine » Feed" type="application/rss+xml"/>
<script type="text/javascript">
			window._wpemojiSettings = {"baseUrl":"https:\/\/s.w.org\/images\/core\/emoji\/13.0.0\/72x72\/","ext":".png","svgUrl":"https:\/\/s.w.org\/images\/core\/emoji\/13.0.0\/svg\/","svgExt":".svg","source":{"concatemoji":"https:\/\/www.del-marine.com\/wp-includes\/js\/wp-emoji-release.min.js?ver=5.5.3"}};
			!function(e,a,t){var r,n,o,i,p=a.createElement("canvas"),s=p.getContext&&p.getContext("2d");function c(e,t){var a=String.fromCharCode;s.clearRect(0,0,p.width,p.height),s.fillText(a.apply(this,e),0,0);var r=p.toDataURL();return s.clearRect(0,0,p.width,p.height),s.fillText(a.apply(this,t),0,0),r===p.toDataURL()}function l(e){if(!s||!s.fillText)return!1;switch(s.textBaseline="top",s.font="600 32px Arial",e){case"flag":return!c([127987,65039,8205,9895,65039],[127987,65039,8203,9895,65039])&&(!c([55356,56826,55356,56819],[55356,56826,8203,55356,56819])&&!c([55356,57332,56128,56423,56128,56418,56128,56421,56128,56430,56128,56423,56128,56447],[55356,57332,8203,56128,56423,8203,56128,56418,8203,56128,56421,8203,56128,56430,8203,56128,56423,8203,56128,56447]));case"emoji":return!c([55357,56424,8205,55356,57212],[55357,56424,8203,55356,57212])}return!1}function d(e){var t=a.createElement("script");t.src=e,t.defer=t.type="text/javascript",a.getElementsByTagName("head")[0].appendChild(t)}for(i=Array("flag","emoji"),t.supports={everything:!0,everythingExceptFlag:!0},o=0;o<i.length;o++)t.supports[i[o]]=l(i[o]),t.supports.everything=t.supports.everything&&t.supports[i[o]],"flag"!==i[o]&&(t.supports.everythingExceptFlag=t.supports.everythingExceptFlag&&t.supports[i[o]]);t.supports.everythingExceptFlag=t.supports.everythingExceptFlag&&!t.supports.flag,t.DOMReady=!1,t.readyCallback=function(){t.DOMReady=!0},t.supports.everything||(n=function(){t.readyCallback()},a.addEventListener?(a.addEventListener("DOMContentLoaded",n,!1),e.addEventListener("load",n,!1)):(e.attachEvent("onload",n),a.attachEvent("onreadystatechange",function(){"complete"===a.readyState&&t.readyCallback()})),(r=t.source||{}).concatemoji?d(r.concatemoji):r.wpemoji&&r.twemoji&&(d(r.twemoji),d(r.wpemoji)))}(window,document,window._wpemojiSettings);
		</script>
<meta content="Child Theme for Divi v.1.0" name="generator"/><style type="text/css">
img.wp-smiley,
img.emoji {
	display: inline !important;
	border: none !important;
	box-shadow: none !important;
	height: 1em !important;
	width: 1em !important;
	margin: 0 .07em !important;
	vertical-align: -0.1em !important;
	background: none !important;
	padding: 0 !important;
}
</style>
<link href="https://fonts.googleapis.com/css?family=Lato%3A100%2C200%2C300%2C400%2C500%2C600%2C700%2C800&amp;ver=2019111501" id="loftloader-google-font-css" media="all" rel="stylesheet" type="text/css"/>
<link href="https://www.del-marine.com/wp-content/plugins/loftloader-pro/assets/css/loftloader.min.css?ver=2019111501" id="loftloader-style-css" media="all" rel="stylesheet" type="text/css"/>
<style id="loftloader-style-inline-css" type="text/css">
#loftloader-wrapper .loader-bg { opacity: 1.00; }#loftloader-wrapper.end-split-h .loader-bg:before, #loftloader-wrapper.end-split-h .loader-bg:after, #loftloader-wrapper.end-split-v .loader-bg:before, #loftloader-wrapper.end-split-v .loader-bg:after, #loftloader-wrapper.end-fade .loader-bg, #loftloader-wrapper.end-up .loader-bg, #loftloader-wrapper.end-left .loader-bg, #loftloader-wrapper.end-right .loader-bg, #loftloader-wrapper.end-shrink-fade .loader-bg:before, .loader-bg .loader-bg-half:before  { background-color: #ffffff; }#loftloader-wrapper .loader-inner #loader, #loftloader-wrapper.loftloader-ducks #loader span { color: #248acc }#loftloader-wrapper.loftloader-crystal #loader span { box-shadow: 0 -15px 0 0 rgba(36, 138, 204, 0.5), 15px -15px 0 0 rgba(36, 138, 204, 0.5), 15px 0 0 0 rgba(36, 138, 204, 0.5), 15px 15px 0 0 rgba(36, 138, 204, 0.5), 0 15px 0 0 rgba(36, 138, 204, 0.5), -15px 15px 0 0 rgba(36, 138, 204, 0.5), -15px 0 0 0 rgba(36, 138, 204, 0.5), -15px -15px 0 0 rgba(36, 138, 204, 0.5); }#loftloader-wrapper.loftloader-crossing #loader span:before { background: #00ffff }#loftloader-wrapper.loftloader-crossing #loader span:after { background: #ff0000 }#loftloader-wrapper.loftloader-rainbow #loader span:before { box-shadow: 0 0 0 10px #ff0000, 0 0 0 20px #ffd700, 0 0 0 30px #00ffff; }#loftloader-wrapper.loftloader-frame #loader { width: 80px; }#loftloader-wrapper.loftloader-frame #loader { height: 80px; }#loftloader-wrapper.loftloader-frame #loader span:after, #loftloader-wrapper.loftloader-frame #loader span:before { width: 4px; }#loftloader-wrapper.loftloader-frame #loader:after, #loftloader-wrapper.loftloader-frame #loader:before { height: 4px; }#loftloader-wrapper.loftloader-imgfading #loader img, #loftloader-wrapper.loftloader-imgloading #loader img, #loftloader-wrapper.loftloader-imgrotating #loader img, #loftloader-wrapper.loftloader-imgbouncing #loader img, #loftloader-wrapper.loftloader-imgstatic #loader img { width: 80px; }#loftloader-wrapper.loftloader-imgfading .loader-inner #loader, #loftloader-wrapper.loftloader-imgloading .loader-inner #loader, #loftloader-wrapper.loftloader-imgrotating .loader-inner #loader, #loftloader-wrapper.loftloader-imgbouncing .loader-inner #loader, #loftloader-wrapper.loftloader-imgstatic .loader-inner #loader { max-width: 100%; }span.bar { width: 30vw; }span.bar { height: 10px; }span.bar, span.percentage { color: #248acc; }#loftloader-wrapper .percentage, #loftloader-wrapper span.bar span.load-count { font-family: Lato; }#loftloader-wrapper .percentage, #loftloader-wrapper span.bar span.load-count { font-weight: 100; }#loftloader-wrapper .percentage, #loftloader-wrapper span.bar span.load-count { letter-spacing: 0.1em; }body span.percentage, body #loftloader-wrapper span.bar span.load-count { font-size: 16px; }#loftloader-wrapper .loader-message { font-size: 16px; }#loftloader-wrapper .loader-message { color: #248acc; }#loftloader-wrapper .loader-message { font-family: Lato; }#loftloader-wrapper .loader-message { font-weight: 400; }#loftloader-wrapper .loader-message { letter-spacing: 0.1em; }#loftloader-wrapper .loader-message { line-height: 1.5; }
</style>
<link href="https://www.del-marine.com/wp-includes/css/dist/block-library/style.min.css?ver=5.5.3" id="wp-block-library-css" media="all" rel="stylesheet" type="text/css"/>
<link href="https://www.del-marine.com/wp-content/themes/Divi/style.css?ver=5.5.3" id="divi-parent-css" media="all" rel="stylesheet" type="text/css"/>
<link href="https://www.del-marine.com/wp-content/themes/ChildThemeDivi/style.css?ver=5.5.3" id="child-style-css" media="all" rel="stylesheet" type="text/css"/>
<link href="https://www.del-marine.com/wp-content/themes/ChildThemeDivi/style.css?ver=4.5.6" id="divi-style-css" media="all" rel="stylesheet" type="text/css"/>
<link href="https://www.del-marine.com/wp-includes/css/dashicons.min.css?ver=5.5.3" id="dashicons-css" media="all" rel="stylesheet" type="text/css"/>
<script id="jquery-core-js" src="https://www.del-marine.com/wp-includes/js/jquery/jquery.js?ver=1.12.4-wp" type="text/javascript"></script>
<script id="es6-promise-js" src="https://www.del-marine.com/wp-content/themes/Divi/core/admin/js/es6-promise.auto.min.js?ver=5.5.3" type="text/javascript"></script>
<script id="et-core-api-spam-recaptcha-js-extra" type="text/javascript">
/* <![CDATA[ */
var et_core_api_spam_recaptcha = {"site_key":"","page_action":{"action":"www_del_marine_com"}};
/* ]]> */
</script>
<script id="et-core-api-spam-recaptcha-js" src="https://www.del-marine.com/wp-content/themes/Divi/core/admin/js/recaptcha.js?ver=5.5.3" type="text/javascript"></script>
<link href="https://www.del-marine.com/wp-json/" rel="https://api.w.org/"/><link href="https://www.del-marine.com/wp-json/wp/v2/pages/15" rel="alternate" type="application/json"/><link href="https://www.del-marine.com/xmlrpc.php?rsd" rel="EditURI" title="RSD" type="application/rsd+xml"/>
<link href="https://www.del-marine.com/wp-includes/wlwmanifest.xml" rel="wlwmanifest" type="application/wlwmanifest+xml"/>
<meta content="WordPress 5.5.3" name="generator"/>
<link href="https://www.del-marine.com/" rel="canonical"/>
<link href="https://www.del-marine.com/" rel="shortlink"/>
<link href="https://www.del-marine.com/wp-json/oembed/1.0/embed?url=https%3A%2F%2Fwww.del-marine.com%2F" rel="alternate" type="application/json+oembed"/>
<link href="https://www.del-marine.com/wp-json/oembed/1.0/embed?url=https%3A%2F%2Fwww.del-marine.com%2F&amp;format=xml" rel="alternate" type="text/xml+oembed"/>
<meta content="width=device-width, initial-scale=1.0, maximum-scale=1.0, user-scalable=0" name="viewport"/><link href="https://www.del-marine.com/wp-content/uploads/2020/08/cropped-favicon-32x32.png" rel="icon" sizes="32x32"/>
<link href="https://www.del-marine.com/wp-content/uploads/2020/08/cropped-favicon-192x192.png" rel="icon" sizes="192x192"/>
<link href="https://www.del-marine.com/wp-content/uploads/2020/08/cropped-favicon-180x180.png" rel="apple-touch-icon"/>
<meta content="https://www.del-marine.com/wp-content/uploads/2020/08/cropped-favicon-270x270.png" name="msapplication-TileImage"/>
<style id="et-divi-customizer-global-cached-inline-styles">.woocommerce #respond input#submit,.woocommerce-page #respond input#submit,.woocommerce #content input.button,.woocommerce-page #content input.button,.woocommerce-message,.woocommerce-error,.woocommerce-info{background:#014d99!important}#et_search_icon:hover,.mobile_menu_bar:before,.mobile_menu_bar:after,.et_toggle_slide_menu:after,.et-social-icon a:hover,.et_pb_sum,.et_pb_pricing li a,.et_pb_pricing_table_button,.et_overlay:before,.entry-summary p.price ins,.woocommerce div.product span.price,.woocommerce-page div.product span.price,.woocommerce #content div.product span.price,.woocommerce-page #content div.product span.price,.woocommerce div.product p.price,.woocommerce-page div.product p.price,.woocommerce #content div.product p.price,.woocommerce-page #content div.product p.price,.et_pb_member_social_links a:hover,.woocommerce .star-rating span:before,.woocommerce-page .star-rating span:before,.et_pb_widget li a:hover,.et_pb_filterable_portfolio .et_pb_portfolio_filters li a.active,.et_pb_filterable_portfolio .et_pb_portofolio_pagination ul li a.active,.et_pb_gallery .et_pb_gallery_pagination ul li a.active,.wp-pagenavi span.current,.wp-pagenavi a:hover,.nav-single a,.tagged_as a,.posted_in a{color:#014d99}.et_pb_contact_submit,.et_password_protected_form .et_submit_button,.et_pb_bg_layout_light .et_pb_newsletter_button,.comment-reply-link,.form-submit .et_pb_button,.et_pb_bg_layout_light .et_pb_promo_button,.et_pb_bg_layout_light .et_pb_more_button,.woocommerce a.button.alt,.woocommerce-page a.button.alt,.woocommerce button.button.alt,.woocommerce button.button.alt.disabled,.woocommerce-page button.button.alt,.woocommerce-page button.button.alt.disabled,.woocommerce input.button.alt,.woocommerce-page input.button.alt,.woocommerce #respond input#submit.alt,.woocommerce-page #respond input#submit.alt,.woocommerce #content input.button.alt,.woocommerce-page #content input.button.alt,.woocommerce a.button,.woocommerce-page a.button,.woocommerce button.button,.woocommerce-page button.button,.woocommerce input.button,.woocommerce-page input.button,.et_pb_contact p input[type="checkbox"]:checked+label i:before,.et_pb_bg_layout_light.et_pb_module.et_pb_button{color:#014d99}.footer-widget h4{color:#014d99}.et-search-form,.nav li ul,.et_mobile_menu,.footer-widget li:before,.et_pb_pricing li:before,blockquote{border-color:#014d99}.et_pb_counter_amount,.et_pb_featured_table .et_pb_pricing_heading,.et_quote_content,.et_link_content,.et_audio_content,.et_pb_post_slider.et_pb_bg_layout_dark,.et_slide_in_menu_container,.et_pb_contact p input[type="radio"]:checked+label i:before{background-color:#014d99}.container,.et_pb_row,.et_pb_slider .et_pb_container,.et_pb_fullwidth_section .et_pb_title_container,.et_pb_fullwidth_section .et_pb_title_featured_container,.et_pb_fullwidth_header:not(.et_pb_fullscreen) .et_pb_fullwidth_header_container{max-width:960px}.et_boxed_layout #page-container,.et_boxed_layout.et_non_fixed_nav.et_transparent_nav #page-container #top-header,.et_boxed_layout.et_non_fixed_nav.et_transparent_nav #page-container #main-header,.et_fixed_nav.et_boxed_layout #page-container #top-header,.et_fixed_nav.et_boxed_layout #page-container #main-header,.et_boxed_layout #page-container .container,.et_boxed_layout #page-container .et_pb_row{max-width:1120px}a{color:#014d99}#top-header,#et-secondary-nav li ul{background-color:#014d99}#footer-widgets .footer-widget a,#footer-widgets .footer-widget li a,#footer-widgets .footer-widget li a:hover{color:#ffffff}.footer-widget{color:#ffffff}#main-footer .footer-widget h4{color:#014d99}.footer-widget li:before{border-color:#014d99}.et_slide_in_menu_container,.et_slide_in_menu_container .et-search-field{letter-spacing:px}.et_slide_in_menu_container .et-search-field::-moz-placeholder{letter-spacing:px}.et_slide_in_menu_container .et-search-field::-webkit-input-placeholder{letter-spacing:px}.et_slide_in_menu_container .et-search-field:-ms-input-placeholder{letter-spacing:px}@media only screen and (min-width:981px){.et-fixed-header#top-header,.et-fixed-header#top-header #et-secondary-nav li ul{background-color:#014d99}}@media only screen and (min-width:1200px){.et_pb_row{padding:24px 0}.et_pb_section{padding:48px 0}.single.et_pb_pagebuilder_layout.et_full_width_page .et_post_meta_wrapper{padding-top:72px}.et_pb_fullwidth_section{padding:0}}	h1,h2,h3,h4,h5,h6{font-family:'Tahoma',Helvetica,Arial,Lucida,sans-serif}body,input,textarea,select{font-family:'Arial',Helvetica,Arial,Lucida,sans-serif}</style></head>
<body class="home page-template-default page page-id-15 et-tb-has-template et-tb-has-header et-tb-has-footer et_pb_button_helper_class et_boxed_layout et_cover_background et_pb_gutter et_pb_gutters3 et_pb_pagebuilder_layout et_no_sidebar et_divi_theme et-db et_minified_js et_minified_css loftloader-pro-enabled" data-rsssl="1"><div class="end-fade loftloader-none" data-show-close-time="15000" id="loftloader-wrapper"><div class="loader-inner"><div id="loader"><span></span></div></div><div class="loader-bg"></div><div class="loader-close-button" style="display: none;"><span class="screen-reader-text">Close</span></div></div>
<div id="page-container">
<div class="et-boc" id="et-boc">
<header class="et-l et-l--header">
<div class="et_builder_inner_content et_pb_gutters3">
<div class="et_pb_section et_pb_section_0_tb_header et_section_regular">
<div class="et_pb_row et_pb_row_0_tb_header">
<div class="et_pb_column et_pb_column_4_4 et_pb_column_0_tb_header et_pb_css_mix_blend_mode_passthrough et-last-child">
<div class="et_pb_module et_pb_image et_pb_image_0_tb_header">
<a href="https://www.del-marine.com/"><span class="et_pb_image_wrap "><img alt="" sizes="(min-width: 0px) and (max-width: 480px) 480px, (min-width: 481px) 564px, 100vw" src="https://www.del-marine.com/wp-content/uploads/2020/08/logo.png" srcset="https://www.del-marine.com/wp-content/uploads/2020/08/logo.png 564w, https://www.del-marine.com/wp-content/uploads/2020/08/logo-480x145.png 480w" title="logo"/></span></a>
</div>
</div> <!-- .et_pb_column -->
</div> <!-- .et_pb_row -->
</div> <!-- .et_pb_section --><div class="et_pb_section et_pb_section_1_tb_header et_pb_with_background et_pb_fullwidth_section et_section_regular">
<div class="et_pb_module et_pb_fullwidth_menu et_pb_fullwidth_menu_0_tb_header et_pb_bg_layout_light et_pb_text_align_left et_dropdown_animation_fade et_pb_fullwidth_menu--without-logo et_pb_fullwidth_menu--style-centered">
<div class="et_pb_row clearfix">
<div class="et_pb_menu__wrap">
<div class="et_pb_menu__menu">
<nav class="et-menu-nav fullwidth-menu-nav"><ul class="et-menu fullwidth-menu nav" id="menu-main-menu"><li class="et_pb_menu_page_id-51 menu-item menu-item-type-post_type menu-item-object-page menu-item-71"><a href="https://www.del-marine.com/procurement/">Procurement</a></li>
<li class="et_pb_menu_page_id-53 menu-item menu-item-type-post_type menu-item-object-page menu-item-has-children menu-item-70"><a href="https://www.del-marine.com/shipping-consolidation/">Shipping/Consolidation</a>
<ul class="sub-menu">
<li class="et_pb_menu_page_id-225 menu-item menu-item-type-post_type menu-item-object-page menu-item-242"><a href="https://www.del-marine.com/global-shipping-sea/">Global Shipping – Sea</a></li>
<li class="et_pb_menu_page_id-227 menu-item menu-item-type-post_type menu-item-object-page menu-item-241"><a href="https://www.del-marine.com/global-shipping-air/">Global Shipping – Air</a></li>
</ul>
</li>
<li class="et_pb_menu_page_id-55 menu-item menu-item-type-post_type menu-item-object-page menu-item-has-children menu-item-69"><a href="https://www.del-marine.com/p-p-e/">P.P.E</a>
<ul class="sub-menu">
<li class="et_pb_menu_page_id-229 menu-item menu-item-type-post_type menu-item-object-page menu-item-246"><a href="https://www.del-marine.com/ppe-catalogue/">PPE Catalogue</a></li>
<li class="et_pb_menu_page_id-231 menu-item menu-item-type-post_type menu-item-object-page menu-item-245"><a href="https://www.del-marine.com/construction-civil-engineering/">Construction / Civil Engineering</a></li>
<li class="et_pb_menu_page_id-233 menu-item menu-item-type-post_type menu-item-object-page menu-item-244"><a href="https://www.del-marine.com/oil-and-gas/">Oil and Gas</a></li>
<li class="et_pb_menu_page_id-235 menu-item menu-item-type-post_type menu-item-object-page menu-item-243"><a href="https://www.del-marine.com/traffic-management/">Traffic Management</a></li>
</ul>
</li>
<li class="et_pb_menu_page_id-57 menu-item menu-item-type-post_type menu-item-object-page menu-item-68"><a href="https://www.del-marine.com/fire-fighting/">Fire Fighting</a></li>
<li class="et_pb_menu_page_id-59 menu-item menu-item-type-post_type menu-item-object-page menu-item-67"><a href="https://www.del-marine.com/distributors/">Distributors</a></li>
<li class="et_pb_menu_page_id-61 menu-item menu-item-type-post_type menu-item-object-page menu-item-has-children menu-item-66"><a href="https://www.del-marine.com/vehicles/">Vehicles</a>
<ul class="sub-menu">
<li class="et_pb_menu_page_id-237 menu-item menu-item-type-post_type menu-item-object-page menu-item-248"><a href="https://www.del-marine.com/specialists-vehicles/">Specialists Vehicles</a></li>
<li class="et_pb_menu_page_id-239 menu-item menu-item-type-post_type menu-item-object-page menu-item-247"><a href="https://www.del-marine.com/oem-and-genuine-spare-parts/">OEM and Genuine Spare Parts</a></li>
</ul>
</li>
<li class="et_pb_menu_page_id-49 menu-item menu-item-type-post_type menu-item-object-page menu-item-72"><a href="https://www.del-marine.com/contact/">Contact</a></li>
</ul></nav>
</div>
<div class="et_mobile_nav_menu">
<a class="mobile_nav closed" href="#">
<span class="mobile_menu_bar"></span>
</a>
</div>
</div>
</div>
</div>
</div> <!-- .et_pb_section --><div class="et_pb_section et_pb_section_2_tb_header et_pb_with_background et_section_regular et_pb_section--fixed">
<div class="et_pb_row et_pb_row_1_tb_header">
<div class="et_pb_column et_pb_column_4_4 et_pb_column_1_tb_header et_pb_css_mix_blend_mode_passthrough et-last-child">
<div class="et_pb_module et_pb_text et_pb_text_0_tb_header et_pb_text_align_left et_pb_bg_layout_light">
<div class="et_pb_text_inner"><p><a href="https://www.del-marine.com/">Home</a>     <a href="https://www.del-marine.com/about-us/">About us</a>     <a href="https://www.del-marine.com/contact/">Contact</a></p></div>
</div> <!-- .et_pb_text -->
</div> <!-- .et_pb_column -->
</div> <!-- .et_pb_row -->
</div> <!-- .et_pb_section --> </div><!-- .et_builder_inner_content -->
</header><!-- .et-l -->
<div id="et-main-area">
<div id="main-content">
<article class="post-15 page type-page status-publish hentry" id="post-15">
<div class="entry-content">
<div class="et-l et-l--post">
<div class="et_builder_inner_content et_pb_gutters3">
<div class="et_pb_section et_pb_section_1 et_section_regular">
<div class="et_pb_row et_pb_row_0">
<div class="et_pb_column et_pb_column_4_4 et_pb_column_0 et_pb_css_mix_blend_mode_passthrough et-last-child">
<div class="et_pb_module et_pb_gallery et_pb_gallery_0 et_pb_bg_layout_light et_pb_slider et_pb_gallery_fullwidth et_slider_auto et_slider_speed_3000 clearfix">
<div class="et_pb_gallery_items et_post_gallery clearfix" data-per_page="4"><div class="et_pb_gallery_item et_pb_bg_layout_light et_pb_gallery_item_0_0">
<div class="et_pb_gallery_image landscape">
<a href="https://www.del-marine.com/wp-content/uploads/2020/08/home_slide_image_1.png" title="home_slide_image_1">
<img sizes="(min-width: 0px) and (max-width: 480px) 480px, (min-width: 481px) 939px, 100vw" src="https://www.del-marine.com/wp-content/uploads/2020/08/home_slide_image_1.png" srcset="https://www.del-marine.com/wp-content/uploads/2020/08/home_slide_image_1.png 939w, https://www.del-marine.com/wp-content/uploads/2020/08/home_slide_image_1-480x232.png 480w"/>
<span class="et_overlay"></span>
</a>
</div></div><div class="et_pb_gallery_item et_pb_bg_layout_light et_pb_gallery_item_0_1">
<div class="et_pb_gallery_image landscape">
<a href="https://www.del-marine.com/wp-content/uploads/2020/08/home_slide_image_2.png" title="home_slide_image_2">
<img sizes="(min-width: 0px) and (max-width: 480px) 480px, (min-width: 481px) 939px, 100vw" src="https://www.del-marine.com/wp-content/uploads/2020/08/home_slide_image_2.png" srcset="https://www.del-marine.com/wp-content/uploads/2020/08/home_slide_image_2.png 939w, https://www.del-marine.com/wp-content/uploads/2020/08/home_slide_image_2-480x232.png 480w"/>
<span class="et_overlay"></span>
</a>
</div></div><div class="et_pb_gallery_item et_pb_bg_layout_light et_pb_gallery_item_0_2">
<div class="et_pb_gallery_image landscape">
<a href="https://www.del-marine.com/wp-content/uploads/2020/08/home_slide_image_4.png" title="home_slide_image_4">
<img sizes="(min-width: 0px) and (max-width: 480px) 480px, (min-width: 481px) 939px, 100vw" src="https://www.del-marine.com/wp-content/uploads/2020/08/home_slide_image_4.png" srcset="https://www.del-marine.com/wp-content/uploads/2020/08/home_slide_image_4.png 939w, https://www.del-marine.com/wp-content/uploads/2020/08/home_slide_image_4-480x232.png 480w"/>
<span class="et_overlay"></span>
</a>
</div></div><div class="et_pb_gallery_item et_pb_bg_layout_light et_pb_gallery_item_0_3">
<div class="et_pb_gallery_image landscape">
<a href="https://www.del-marine.com/wp-content/uploads/2020/08/home_slide_image_3.png" title="home_slide_image_3">
<img sizes="(min-width: 0px) and (max-width: 480px) 480px, (min-width: 481px) 939px, 100vw" src="https://www.del-marine.com/wp-content/uploads/2020/08/home_slide_image_3.png" srcset="https://www.del-marine.com/wp-content/uploads/2020/08/home_slide_image_3.png 939w, https://www.del-marine.com/wp-content/uploads/2020/08/home_slide_image_3-480x232.png 480w"/>
<span class="et_overlay"></span>
</a>
</div></div><div class="et_pb_gallery_item et_pb_bg_layout_light et_pb_gallery_item_0_4">
<div class="et_pb_gallery_image landscape">
<a href="https://www.del-marine.com/wp-content/uploads/2020/08/home_slide_image_5.png" title="home_slide_image_5">
<img sizes="(min-width: 0px) and (max-width: 480px) 480px, (min-width: 481px) 939px, 100vw" src="https://www.del-marine.com/wp-content/uploads/2020/08/home_slide_image_5.png" srcset="https://www.del-marine.com/wp-content/uploads/2020/08/home_slide_image_5.png 939w, https://www.del-marine.com/wp-content/uploads/2020/08/home_slide_image_5-480x232.png 480w"/>
<span class="et_overlay"></span>
</a>
</div></div><div class="et_pb_gallery_item et_pb_bg_layout_light et_pb_gallery_item_0_5">
<div class="et_pb_gallery_image landscape">
<a href="https://www.del-marine.com/wp-content/uploads/2020/08/home_slide_image_6.png" title="home_slide_image_6">
<img sizes="(min-width: 0px) and (max-width: 480px) 480px, (min-width: 481px) 939px, 100vw" src="https://www.del-marine.com/wp-content/uploads/2020/08/home_slide_image_6.png" srcset="https://www.del-marine.com/wp-content/uploads/2020/08/home_slide_image_6.png 939w, https://www.del-marine.com/wp-content/uploads/2020/08/home_slide_image_6-480x232.png 480w"/>
<span class="et_overlay"></span>
</a>
</div></div><div class="et_pb_gallery_item et_pb_bg_layout_light et_pb_gallery_item_0_6">
<div class="et_pb_gallery_image landscape">
<a href="https://www.del-marine.com/wp-content/uploads/2020/08/home_slide_image_7.png" title="home_slide_image_7">
<img sizes="(min-width: 0px) and (max-width: 480px) 480px, (min-width: 481px) 939px, 100vw" src="https://www.del-marine.com/wp-content/uploads/2020/08/home_slide_image_7.png" srcset="https://www.del-marine.com/wp-content/uploads/2020/08/home_slide_image_7.png 939w, https://www.del-marine.com/wp-content/uploads/2020/08/home_slide_image_7-480x232.png 480w"/>
<span class="et_overlay"></span>
</a>
</div></div><div class="et_pb_gallery_item et_pb_bg_layout_light et_pb_gallery_item_0_7">
<div class="et_pb_gallery_image landscape">
<a href="https://www.del-marine.com/wp-content/uploads/2020/08/home_slide_image_8.png" title="home_slide_image_8">
<img sizes="(min-width: 0px) and (max-width: 480px) 480px, (min-width: 481px) 939px, 100vw" src="https://www.del-marine.com/wp-content/uploads/2020/08/home_slide_image_8.png" srcset="https://www.del-marine.com/wp-content/uploads/2020/08/home_slide_image_8.png 939w, https://www.del-marine.com/wp-content/uploads/2020/08/home_slide_image_8-480x232.png 480w"/>
<span class="et_overlay"></span>
</a>
</div></div></div><!-- .et_pb_gallery_items --></div><!-- .et_pb_gallery -->
</div> <!-- .et_pb_column -->
</div> <!-- .et_pb_row -->
</div> <!-- .et_pb_section --><div class="et_pb_section et_pb_section_2 et_section_regular">
<div class="et_pb_row et_pb_row_1">
<div class="et_pb_column et_pb_column_4_4 et_pb_column_1 et_pb_css_mix_blend_mode_passthrough et-last-child">
<div class="et_pb_module et_pb_text et_pb_text_0 et_pb_text_align_left et_pb_bg_layout_light">
<div class="et_pb_text_inner"><header>
<h1 itemprop="name">Welcome to Del Marine Ltd.</h1>
<p> </p>
</header>
<h2>‘An honest, practical and professional approach backed by extensive procurement experience gained over 20 years’</h2>
<p>Established in the 1990’s, Del-Marine Ltd is a Global Procurement and Logistics Company, specialising in the supply of manufactured goods and services Worldwide.</p>
<p>The fundamental aim of our organisation is to provide high quality and specialised support for the various activities of our clients.<br/> We offer a wide range of Specialised Services as listed below;</p>
<ul class="standard">
<li>The Procurement and Supply of any goods or services, specialising in used construction equipment and vehicles as well as an extensive range of Genuine and / or OEM spare parts. However all ranges of Customer and End-User requirements can be handled.</li>
<li>Global transportation – be it by sea (LCL / FCL / Conventional / Bulk / RoRo), Air or Courier</li>
<li>Assistance with Third Party Contract negotiations</li>
<li>Assistance with Servicing / Refurbishment Projects, Machinery repair / re-manufacture.</li>
<li>Assistance and advice on Instruments of Finance — Letters of Credit, Bank Guarantees, Performance Bonds etc.</li>
<li>Importation Services and Inter-Country onward Delivery Services</li>
<li>Full Logistical Service for any large and / or small Projects.</li>
<li>Export, Re-Export and Counter Trade</li>
</ul>
<p>Our Senior Management have experience in the world of shipping, banking and overseas trade built up over the last 40 years in the fields of oil, petroleum products, bulk cargo and manufactured goods across a broad spectrum. This wide ranging experience is available to all of our clients and we can assist in all aspects of your business.</p>
<p>We represent a number of Global Manufacturers for the African markets – details of which are listed under our registered distributor’s page…</p></div>
</div> <!-- .et_pb_text -->
</div> <!-- .et_pb_column -->
</div> <!-- .et_pb_row -->
</div> <!-- .et_pb_section --> </div><!-- .et_builder_inner_content -->
</div><!-- .et-l -->
</div> <!-- .entry-content -->
</article> <!-- .et_pb_post -->
</div> <!-- #main-content -->
<footer class="et-l et-l--footer">
<div class="et_builder_inner_content et_pb_gutters3">
<div class="et_pb_section et_pb_section_0_tb_footer et_section_regular">
<div class="et_pb_row et_pb_row_0_tb_footer">
<div class="et_pb_column et_pb_column_1_2 et_pb_column_0_tb_footer et_pb_css_mix_blend_mode_passthrough">
<div class="et_pb_module et_pb_text et_pb_text_0_tb_footer et_pb_text_align_left et_pb_bg_layout_light">
<div class="et_pb_text_inner"><h5>RECENT ARTICLES</h5>
<div class="content">
<p><a href="https://www.del-marine.com/procurement/" itemprop="url"> <span itemprop="name"><fontsninja-text class="" id="fontsninja-text-169"> Procurement Company in Africa </fontsninja-text></span> </a><a href="https://www.del-marine.com/specialists-vehicles/" itemprop="url"><span itemprop="name"><fontsninja-text class="" id="fontsninja-text-172"><br/> Specialist Vehicles </fontsninja-text></span> </a><a href="#" itemprop="url"><span itemprop="name"><fontsninja-text class="" id="fontsninja-text-175"><br/> </fontsninja-text></span></a><a href="https://www.del-marine.com/oil-and-gas/"><span itemprop="name"><fontsninja-text class="" id="fontsninja-text-175">Welcome to Del Marine Ltd. </fontsninja-text></span> <span itemprop="name"><fontsninja-text id="fontsninja-text-178"></fontsninja-text></span><span itemprop="name"><fontsninja-text id="fontsninja-text-178"><br/> Personal Protective Equipment For The Oil and Gas Industries </fontsninja-text></span> </a><a href="https://www.del-marine.com/oem-and-genuine-spare-parts/" itemprop="url"><span itemprop="name"><fontsninja-text id="fontsninja-text-181"><br/> OEM and Genuine Spare Parts </fontsninja-text></span> </a></p>
</div></div>
</div> <!-- .et_pb_text -->
</div> <!-- .et_pb_column --><div class="et_pb_column et_pb_column_1_2 et_pb_column_1_tb_footer et_pb_css_mix_blend_mode_passthrough et-last-child">
<div class="et_pb_module et_pb_text et_pb_text_1_tb_footer et_pb_text_align_left et_pb_bg_layout_light">
<div class="et_pb_text_inner"><h5>NEWSLETTER</h5>
<div class="content">
<p><a href="#" itemprop="url"> <span itemprop="name"><fontsninja-text class="" id="fontsninja-text-169"></fontsninja-text></span></a>Newsletter signup coming soon<a href="#" itemprop="url"><span itemprop="name"><fontsninja-text id="fontsninja-text-181"></fontsninja-text></span></a></p>
</div></div>
</div> <!-- .et_pb_text -->
</div> <!-- .et_pb_column -->
</div> <!-- .et_pb_row -->
</div> <!-- .et_pb_section --><div class="et_pb_section et_pb_section_1_tb_footer et_pb_with_background et_section_regular">
<div class="et_pb_row et_pb_row_1_tb_footer">
<div class="et_pb_column et_pb_column_1_2 et_pb_column_2_tb_footer et_pb_css_mix_blend_mode_passthrough">
<div class="et_pb_module et_pb_text et_pb_text_2_tb_footer et_pb_text_align_left et_pb_bg_layout_light">
<div class="et_pb_text_inner"><p><a href="https://www.del-marine.com/">Home</a>   <a href="https://www.del-marine.com/about-us/">About us</a>   <a href="https://www.del-marine.com/contact/">Contact</a></p></div>
</div> <!-- .et_pb_text -->
</div> <!-- .et_pb_column --><div class="et_pb_column et_pb_column_1_2 et_pb_column_3_tb_footer et_pb_css_mix_blend_mode_passthrough et-last-child">
<div class="et_pb_module et_pb_text et_pb_text_3_tb_footer et_pb_text_align_right et_pb_bg_layout_light">
<div class="et_pb_text_inner"><p class="gkCopyrights">© 2015 Del Marine. All rights reserved.</p></div>
</div> <!-- .et_pb_text -->
</div> <!-- .et_pb_column -->
</div> <!-- .et_pb_row -->
</div> <!-- .et_pb_section --> </div><!-- .et_builder_inner_content -->
</footer><!-- .et-l -->
</div> <!-- #et-main-area -->
</div><!-- #et-boc -->
</div> <!-- #page-container -->
<script id="divi-custom-script-js-extra" type="text/javascript">
/* <![CDATA[ */
var DIVI = {"item_count":"%d Item","items_count":"%d Items"};
var et_shortcodes_strings = {"previous":"Previous","next":"Next"};
var et_pb_custom = {"ajaxurl":"https:\/\/www.del-marine.com\/wp-admin\/admin-ajax.php","images_uri":"https:\/\/www.del-marine.com\/wp-content\/themes\/Divi\/images","builder_images_uri":"https:\/\/www.del-marine.com\/wp-content\/themes\/Divi\/includes\/builder\/images","et_frontend_nonce":"37f8b9bf60","subscription_failed":"Please, check the fields below to make sure you entered the correct information.","et_ab_log_nonce":"cf52ecb573","fill_message":"Please, fill in the following fields:","contact_error_message":"Please, fix the following errors:","invalid":"Invalid email","captcha":"Captcha","prev":"Prev","previous":"Previous","next":"Next","wrong_captcha":"You entered the wrong number in captcha.","wrong_checkbox":"Checkbox","ignore_waypoints":"no","is_divi_theme_used":"1","widget_search_selector":".widget_search","ab_tests":[],"is_ab_testing_active":"","page_id":"15","unique_test_id":"","ab_bounce_rate":"5","is_cache_plugin_active":"no","is_shortcode_tracking":"","tinymce_uri":""}; var et_frontend_scripts = {"builderCssContainerPrefix":"#et-boc","builderCssLayoutPrefix":"#et-boc .et-l"};
var et_pb_box_shadow_elements = [];
var et_pb_motion_elements = {"desktop":[],"tablet":[],"phone":[]};
/* ]]> */
</script>
<script id="divi-custom-script-js" src="https://www.del-marine.com/wp-content/themes/Divi/js/custom.unified.js?ver=4.5.6" type="text/javascript"></script>
<script id="jquery-waitformedias-js-extra" type="text/javascript">
/* <![CDATA[ */
var loftloaderDetectElement = "image";
/* ]]> */
</script>
<script id="jquery-waitformedias-js" src="https://www.del-marine.com/wp-content/plugins/loftloader-pro/assets/js/jquery.waitformedias.min.js?ver=2019111501" type="text/javascript"></script>
<script id="loftloader-front-main-js-extra" type="text/javascript">
/* <![CDATA[ */
var loftloaderPro = {"leavingProgressMax":"0.6","insiteTransitionShowAll":""};
/* ]]> */
</script>
<script id="loftloader-front-main-js" src="https://www.del-marine.com/wp-content/plugins/loftloader-pro/assets/js/loftloader.min.js?ver=2019111501" type="text/javascript"></script>
<script id="et-core-common-js" src="https://www.del-marine.com/wp-content/themes/Divi/core/admin/js/common.js?ver=4.5.6" type="text/javascript"></script>
<script id="wp-embed-js" src="https://www.del-marine.com/wp-includes/js/wp-embed.min.js?ver=5.5.3" type="text/javascript"></script>
<style id="et-builder-module-design-tb-33-tb-91-15-cached-inline-styles">@font-face{font-family:"Tahoma";font-display:swap;src:url("https://www.del-marine.com/wp-content/uploads/et-fonts/tahoma.ttf") format("truetype")}.et_pb_section_0_tb_header.et_pb_section{padding-top:30px;padding-bottom:0px;margin-top:30px}.et_pb_row_0_tb_header,body.et_boxed_layout #page-container .et_pb_row_0_tb_header.et_pb_row,body.et_boxed_layout.et_pb_pagebuilder_layout.single #page-container #et-boc .et-l .et_pb_row_0_tb_header.et_pb_row,body.et_boxed_layout.et_pb_pagebuilder_layout.single.et_full_width_page #page-container #et-boc .et-l .et_pb_row_0_tb_header.et_pb_row,body.et_boxed_layout.et_pb_pagebuilder_layout.single.et_full_width_portfolio_page #page-container #et-boc .et-l .et_pb_row_0_tb_header.et_pb_row{width:100%}.et_pb_image_0_tb_header{text-align:left;margin-left:0}.et_pb_section_1_tb_header.et_pb_section{margin-bottom:10px;background-color:#014D99!important}.et_pb_text_0_tb_header.et_pb_text a{color:#FFFFFF!important}.et_pb_fullwidth_menu_0_tb_header.et_pb_fullwidth_menu ul li a{color:#FFFFFF!important}.et_pb_fullwidth_menu_0_tb_header.et_pb_fullwidth_menu{padding-top:0px;padding-bottom:0px}.et_pb_fullwidth_menu_0_tb_header.et_pb_fullwidth_menu ul li.current-menu-item a{color:#FFFFFF!important}.et_pb_fullwidth_menu_0_tb_header.et_pb_fullwidth_menu .et_mobile_menu a{color:#FFFFFF!important}.et_pb_fullwidth_menu_0_tb_header.et_pb_fullwidth_menu .nav li ul{background-color:#418CD1!important;border-color:#418CD1}.et_pb_fullwidth_menu_0_tb_header.et_pb_fullwidth_menu .et_mobile_menu{border-color:#418CD1}.et_pb_fullwidth_menu_0_tb_header.et_pb_fullwidth_menu .et_mobile_menu,.et_pb_fullwidth_menu_0_tb_header.et_pb_fullwidth_menu .et_mobile_menu ul{background-color:#418CD1!important}.et_pb_fullwidth_menu_0_tb_header .et_pb_row>.et_pb_menu__logo-wrap .et_pb_menu__logo,.et_pb_fullwidth_menu_0_tb_header .et_pb_menu__logo-slot{max-width:100%}.et_pb_fullwidth_menu_0_tb_header .et_pb_row>.et_pb_menu__logo-wrap .et_pb_menu__logo img,.et_pb_fullwidth_menu_0_tb_header .et_pb_menu__logo-slot .et_pb_menu__logo-wrap img{max-height:none}.et_pb_fullwidth_menu_0_tb_header .mobile_nav .mobile_menu_bar:before{font-size:45px;color:#FFFFFF}.et_pb_fullwidth_menu_0_tb_header .et_pb_menu__icon.et_pb_menu__search-button,.et_pb_fullwidth_menu_0_tb_header .et_pb_menu__icon.et_pb_menu__close-search-button{color:#014d99}.et_pb_fullwidth_menu_0_tb_header .et_pb_menu__icon.et_pb_menu__cart-button{font-size:13px;color:#014d99}.et_pb_section_2_tb_header.et_pb_section{padding-top:12px;padding-bottom:12px;background-color:#014D99!important}.et_pb_section_2_tb_header{z-index:460;position:fixed!important;top:0px;bottom:auto;left:50%;right:auto;transform:scaleX(1.01) scaleY(1) translateX(-50%)}body.logged-in.admin-bar .et_pb_section_2_tb_header{top:calc(0px + 32px)}.et_pb_row_1_tb_header.et_pb_row{padding-top:0px!important;padding-bottom:0px!important;padding-top:0px;padding-bottom:0px}.et_pb_text_0_tb_header h1{font-weight:600;color:#014D99!important}.et_pb_text_0_tb_header h2{font-weight:600;font-size:20px;color:#014D99!important;line-height:1.4em}@media only screen and (max-width:980px){.et_pb_image_0_tb_header{margin-left:auto;margin-right:auto}.et_pb_fullwidth_menu_0_tb_header.et_pb_fullwidth_menu{padding-top:20px}}@media only screen and (max-width:767px){.et_pb_image_0_tb_header{margin-left:auto;margin-right:auto}}@font-face{font-family:"Tahoma";font-display:swap;src:url("https://www.del-marine.com/wp-content/uploads/et-fonts/tahoma.ttf") format("truetype")}.et_pb_section_0_tb_footer.et_pb_section{padding-top:30px;padding-bottom:30px}.et_pb_text_0_tb_footer.et_pb_text a{color:#666666!important}.et_pb_text_1_tb_footer.et_pb_text a{color:#666666!important}.et_pb_text_0_tb_footer h1{font-weight:600;color:#014D99!important}.et_pb_text_1_tb_footer h1{font-weight:600;color:#014D99!important}.et_pb_text_2_tb_footer h1{font-weight:600;color:#014D99!important}.et_pb_text_3_tb_footer h1{font-weight:600;color:#014D99!important}.et_pb_text_0_tb_footer h2{font-weight:600;font-size:20px;color:#014D99!important;line-height:1.4em}.et_pb_text_1_tb_footer h2{font-weight:600;font-size:20px;color:#014D99!important;line-height:1.4em}.et_pb_text_2_tb_footer h2{font-weight:600;font-size:20px;color:#014D99!important;line-height:1.4em}.et_pb_text_3_tb_footer h2{font-weight:600;font-size:20px;color:#014D99!important;line-height:1.4em}.et_pb_text_0_tb_footer h5{color:#D4D4DA!important}.et_pb_text_1_tb_footer h5{color:#D4D4DA!important}.et_pb_section_1_tb_footer.et_pb_section{padding-top:0px;padding-bottom:0px;background-color:#2F3336!important}.et_pb_text_2_tb_footer.et_pb_text{color:#FFFFFF!important}.et_pb_text_2_tb_footer.et_pb_text a{color:#FFFFFF!important}@font-face{font-family:"Tahoma";font-display:swap;src:url("https://www.del-marine.com/wp-content/uploads/et-fonts/tahoma.ttf") format("truetype")}.et_pb_section_1.et_pb_section{padding-top:0px;padding-bottom:0px}.et_pb_section_2.et_pb_section{padding-top:0px;padding-bottom:0px}.et_pb_row_0.et_pb_row{padding-top:0px!important;padding-bottom:0px!important;padding-top:0px;padding-bottom:0px}.et_pb_row_0,body.et_boxed_layout #page-container .et_pb_row_0.et_pb_row,body.et_boxed_layout.et_pb_pagebuilder_layout.single #page-container #et-boc .et-l .et_pb_row_0.et_pb_row,body.et_boxed_layout.et_pb_pagebuilder_layout.single.et_full_width_page #page-container #et-boc .et-l .et_pb_row_0.et_pb_row,body.et_boxed_layout.et_pb_pagebuilder_layout.single.et_full_width_portfolio_page #page-container #et-boc .et-l .et_pb_row_0.et_pb_row{width:100%}.et_pb_text_0 h1{font-weight:600;color:#014D99!important}.et_pb_text_0 h2{font-weight:600;font-size:20px;color:#014D99!important;line-height:1.4em}</style>
</body>
</html>
<!-- Page generated by LiteSpeed Cache 3.3.1 on 2021-01-07 14:17:36 -->