<html>
<head>
<title>DELKA INNOVO GROUP</title>
</head>
<body bgcolor="#FFFFFF">
<table align="center" border="0" cellpadding="0" cellspacing="0" width="704">
<tr>
<td valign="TOP" width="50"><br/>
<br/>
<br/>
<br/> </td>
<td height="459" valign="TOP" width="654">
<table border="0" cellpadding="0" cellspacing="0" height="441" width="605">
<tr>
<td height="139" valign="TOP">
<p align="CENTER"><img alt="" height="289" src="http://delkainnovo.com/images/logo.jpg" width="800"/></p></td>
</tr>
<tr>
<td height="26" valign="TOP"><p align="CENTER"><font face="Helvetica, Arial"><b><br/>
</b></font> </p></td>
</tr>
<tr>
<td height="250" valign="top">
<p align="center"><strong>IF YOU HAVE ANY QUESTIONS PLEASE CONTACT US</strong></p>
<p align="center"><strong>PHONE: 786-546-9821</strong></p>
<p align="center"><strong>EMAIL: <a href="mailto:jdelgado@delkainnovo.com">jdelgado@delkainnovo.com</a></strong></p>
<p align="center"><strong>CHECK BACK WITH US SOON!</strong></p>
<p align="center"> </p>
<p align="center"> </p>
<p align="center"> </p>
<p align="center"> </p>
<p align="center"><font size="4"><br/>
</font><br/>
<br/>
</p></td>
</tr>
</table>
<div align="center"> <br/>
<a href="https://www.ekovista.com"><img border="0" height="25" src="http://www.ekovista.com/images/sm-eko-powered.png" width="100"/></a> <br/>
<font size="-1">powered by <a href="http://www.ekovista.com">ekovista.com</a></font> </div> </td>
</tr>
</table>
</body>
</html>
