<!DOCTYPE html PUBLIC "-//W3C//DTD XHTML 1.0 Transitional//EN" "http://www.w3.org/TR/xhtml1/DTD/xhtml1-transitional.dtd">
<html lang="en" xml:lang="en" xmlns="http://www.w3.org/1999/xhtml">
<head>
<title>ERROR 404 - Not Found!</title>
<meta content="text/html; charset=utf-8" http-equiv="Content-Type"/>
<meta content="noindex" name="robots"/>
<style type="text/css"><!--
    body {
        color: #444444;
        background-color: #EEEEEE;
        font-family: 'Trebuchet MS', sans-serif;
        font-size: 80%;
    }
    h1 {}
    h2 { font-size: 1.2em; }
    #page{
        background-color: #FFFFFF;
        width: 60%;
        margin: 24px auto;
        padding: 12px;
    }
    #header {
        padding: 6px ;
        text-align: center;
    }
    .status3xx { background-color: #475076; color: #FFFFFF; }
    .status4xx { background-color: #C55042; color: #FFFFFF; }
    .status5xx { background-color: #F2E81A; color: #000000; }
    #content {
        padding: 4px 0 24px 0;
    }
    #footer {
        color: #666666;
        background: #f9f9f9;
        padding: 10px 20px;
        border-top: 5px #efefef solid;
        font-size: 0.8em;
        text-align: center;
    }
    #footer a {
        color: #999999;
    }
    --></style>
</head>
<body>
<div id="page">
<div class="status4xx" id="header">
<h1>ERROR 404 - Not Found!</h1>
</div>
<div id="content">
<h2>The following error occurred:</h2>
<p>The requested URL was not found on this server.</p>
<p>Please check the URL or contact the <!--WEBMASTER//-->webmaster<!--WEBMASTER//-->.</p>
</div>
<div id="footer">
<p>Powered by <a href="http://www.ispconfig.org">ISPConfig</a></p>
</div>
</div>
</body>
</html>
