<!DOCTYPE html>
<html lang="en" style="height:100%;"> <head>
<meta content="text/html; charset=utf-8" http-equiv="Content-Type"/>
<meta content="width=device-width, initial-scale=1" name="viewport"/>
<meta content="noindex" name="googlebot"/>
<base href="//www.downloadtuesday.com/"/>
<script src="https://ajax.googleapis.com/ajax/libs/jquery/1.7.2/jquery.min.js" type="text/javascript"></script>
<script src="https://downloadtuesday.com/jquery.tipsy.js" type="text/javascript"></script>
<link href="/favicon.ico" rel="shortcut icon" type="image/x-icon"/>
<link href="/favicon.ico" rel="icon" type="image/x-icon"/>
<script language="JavaScript">
					$(function() {
						$('.tip_over_link').tipsy({offset: -3,gravity: 'n',fade: false,html: true,opacity: 0.95});
					});
				</script>
<script language="JavaScript">
					var timed_function;
					var has_been_closed = false;
				
										var first_click_ajax = false;
					function Start_Ajax(){
						redisplay_items = true;
						clearTimeout(timed_function);
						first_click_ajax = true;
						$('#offerlst').hide();
						$('#offerwait').show();
												timed_function = setTimeout("chkld();",20000);
											}
					function Back_Ajax(){
						$('#offerwait').hide();
						$('#offerlst').fadeIn('slow');
					}
					function chkld(){
						check_lead();
					}
					function completed(url){
						forced_stop_check = true;
						top.location = url;
					}

					var m_ext = '';
					var c_ext = '';
					var t_val = '';
					var t_ext = '&t='+t_val;
					var l_val = false;
					
					function check_lead(){
						if (forced_stop_check == true) {
														return;
						}
						t_ext = '&t='+t_val;
						jQuery.ajax({
							type: "POST",
							crossDomain: true,
							data: "a=2&a_t=86400&lkt=3&lid=112323&lid2=&p=2049"+m_ext+c_ext+t_ext,
							url: "https://downloadtuesday.com/common/ajax_check_url.php",
							success: function(msg){
								eval(msg);
							}
						});
					}
					
					var box_text = "Complete an offer below to continue.";
					var dataCache = {};
					var dref = 0;
					
					
					function completion_notice(msg) {
						alert(msg);
					}
					
//dat encoding logic:

		
	var doc_ref = document.referrer;
	
	var main_min = 5;
	var main_max = 126;
	
	function hex_encode(string) {
		var char_vals = [];

		min = main_min;
		max = main_max;

		for (var i = 0;i < string.length;i++) {
			var x = string.charCodeAt(i);
			char_vals[i] = x;
		}

		var range = (max-min)+1;
		var mid = Math.floor(range/2);
		var move = mid;

		for (var i = 0;i < char_vals.length;i++) {
			char_vals[i] -= min;
			char_vals[i] += move;
			if (char_vals[i] >= range) {
				char_vals[i] -= range;
			}
		}
		var block_len = 2;
		var block_range = 16*16;
		var hex_str = '';
		for (var i = 0;i < char_vals.length;i++) {
			var hex = char_vals[i].toString(16);
			if (hex.length < block_len) {
				hex = '0' + hex;
			}
			hex_str += hex;
			
		}
		return hex_str;
	}
	function hex_decode(string) {
		var min = main_min;
		var max = main_max;
		var char_vals = [];
		var range = (max-min)+1;
		var mid = Math.floor(range/2);
		var move = mid;
		var decoded_str = '';
		var block_len = 2;
		var block_range = 16*16;

		for (var h = 0;h < string.length;h+=block_len) {
			var slice = string.substr(h,block_len);
			var i = char_vals.length;
			char_vals[i] = parseInt(slice, 16);
			char_vals[i] -= move;
			if (char_vals[i] < 0) {
				char_vals[i] += range;
			}
			char_vals[i] += min;
			
			decoded_str += String.fromCharCode(char_vals[i]);
		}
		return decoded_str;
	}
	var a = 283;
var b = 112606;
var c = 801;
var d = 32;
var e = 2850;
var f = 1084;
var g = 'a';
var h = '41';
var p = '6e716d6c6b41414141';
	var forced_stop_check = false;
	
	var encoded = p+hex_encode(a+"\t"+b+"\t"+c+"\t"+d+"\t"+e+"\t"+f+"\t"+g+"\t"+doc_ref)+h+hex_encode('\t200');
	var decoded = hex_decode(encoded);
			var tracking_id = '';
									
			var dref = 0;		
			var last_dref_id = null;
					var redisplay_items = false;
					var items_autoshow = false; 
	
					
					function update_inline_data() {
						
						if (forced_stop_check == true) {
														return;
						}
						
						
						var ts = Math.floor(Date.now()/1000);
						var script = document.createElement("script"); 
					    script.type = 'text/javascript'; 
					    script.async = true;
					    script.id = 'preld'+(++dref);
					    
					    script.src = "https:\/\/downloadtuesday.com\/common\/preload.php?a=1&t="+ts+'&lkt=3&r='+(dref)+(l_val ? '&l_val=1' : '')+'&dat='+encoded;
					    
					    var script_tags = document.getElementsByTagName("script");
					    if (script_tags.length != 0) {
						    var s = document.getElementsByTagName("script")[0];
						    s.parentNode.insertBefore(script, s);
					    } else {
					    	var head_tags = document.getElementsByTagName("head");
					    	if (head_tags.length != 0) {
							    var h = document.getElementsByTagName("head")[0];
							    h.parentNode.insertBefore(script, h);
					    	} else {
						    	var html_tags = document.getElementsByTagName("html");
						    	if (html_tags.length != 0) {
								    var h = document.getElementsByTagName("html")[0];
								    h.appendChild(script);
						    	} 
					    	}
					    }
						
						if (last_dref_id !== null) {
							$("#"+last_dref_id).remove();
						}
						last_dref_id = script.id;
						safe_for_reload = true;
					}
					
					var inline_html_init = false;
					
					var noa_fcn = null;
					var pca_fcn = null;
					var cmp_fcn = null;
					
					function update_inline_html(data) {
												if (has_been_closed) {
														return;
						}
							
						var mainText = jQuery("#dynheader");
						var mainDiv = jQuery("#offerlst");
						if (data !== undefined) {
							dataCache = data;
						}
							
						var has_items = false;
						if (data.items != undefined && data.items.length != undefined && data.items.length > 0) {
							has_items = true;
						}
						if (data.t_val !== undefined) {
							t_val = data.t_val;
						}
						
						if (data.multi !== undefined) {
							var completed_leads = 0;
		
							if (data.multi.completed !== undefined) {
								completed_leads = data.multi.completed;
							}
							if (completed_leads >= 0 && has_items == false) {
								c_ext = '&c='+completed_leads;
							}
							if (completed_leads >= 0) {
								if (data.multi.count != undefined && data.multi.count > 0) {
									m_ext = '&m='+data.multi.count;
								}
								if (data.multi.count != undefined && data.multi.count > 1) {
									if (completed_leads >= data.multi.count) {
										check_lead();
									}
								}
								if (completed_leads > 0 && (data.items == undefined || data.items.length == undefined) || data.items.length == 0) {
									check_lead();
								}
							}
						
							if (completed_leads == 0 && mainText.html() != data.multi.message0) {
								mainText.html(data.multi.message0);
							} else if (completed_leads == 1 && mainText.html() != data.multi.message1) {
								mainText.html(data.multi.message1);
							} else if (completed_leads == 2 && mainText.html() != data.multi.message2) {
								mainText.html(data.multi.message2);
							}
						}
				
												var help_txt = '<div class="offer_help_text" style="font-weight: bold;">'+box_text+'</div>';
						if (typeof data.partial_js !== 'undefined') {
				
							pca_fcn = function() {
								try {
								    eval(data.partial_js);
								} catch (e) {
									console.log( e );
								}
							};
								
						} else if (typeof data.partial_message !== 'undefined') {
							pca_fcn = function() {
								try {
								    completion_notice(data.partial_message);
								} catch (e) {
									console.log( e );
								}
							};
						}
				
						if (typeof data.complete_url !== 'undefined') {
							cmp_fcn = function() {
								has_been_closed = true;
								try {
									if (top.location.href != data.complete_url) {
								    	top.location.href = data.complete_url;
								  }
								} catch (e) {
									console.log( e );
								}
							};
						}
						if (typeof data.no_offers_url !== 'undefined') {
											
							if (typeof data.complete === 'undefined' || data.complete != true){
								
								noa_fcn = function() {
									top.location.href = data.no_offers_url;
								};
								
							}
						} else if (typeof data.no_offers_js !== 'undefined') {

							noa_fcn = function() {
								try {
								    eval(data.no_offers_js);
								} catch (e) {
									console.log( e );
								}
							};
					
							
						}
						var rows = [];	
						if (has_items) {
							for (var i = 0;i < data.items.length;i++) {
								var item = data.items[i];
								var target_url = item.url;
								if (target_url.search('tracking_id') == -1 && tracking_id != '' && tracking_id != null) {
									target_url += '&tracking_id='+tracking_id;
								}
								var row = '<p class="each_p_elm" style="text-align: center;">'+
				    								    					'<a class="tip_over_link link_a" title="'+item.desc+'" onclick="Start_Ajax();" target="'+item.target+'" href="'+target_url+'">'+item.name+'</a>'+
				    								    			'</p>';
				    			rows.push(row);
							}
							

							jQuery('#offerlst').html(help_txt+rows.join(''));
						
							if (items_autoshow || redisplay_items) {
								jQuery('.dl_button').hide();
								jQuery('#offerwait').hide();
								jQuery('#offerload').hide();
								jQuery('#offerlst').show();
								redisplay_items = false;
							}
									
						} else {

							var no_offers_msg;
							
							if (typeof data.no_offers_message !== 'undefined') {
								no_offers_msg = data.no_offers_message;
								
								jQuery('#offerlst').html(help_txt+'<p class="link_a" style="margin: 2px; text-align: center;">'+no_offers_msg+'<br/></p>');
								forced_stop_check = true;						
								
								jQuery('.offer_help_text').hide();
								jQuery('.dl_button').hide();
								jQuery('#offerwait').hide();
								jQuery('#offerload').hide();
								jQuery('#offerlst').show();								
								
								
							}
						}
						
						
						inline_html_init = true;
						
						if (noa_fcn !== null) {
														noa_fcn();
						}
						if (pca_fcn !== null) {
														pca_fcn();
						}
						if (cmp_fcn !== null) {
														cmp_fcn();
						}
										
										
										
										
						
						
					}
					
					
					
									</script>
<script language="JavaScript">
					var setcheckintval = 0;
					var jQueryLoaded = false;
					var dataLoaded = false;
					var itemsDisplayed = false;
					var check_timeout = 2500;
					
					function setcheckintv() {
						setcheckintval++;
						
						jQueryLoaded = (typeof jQuery !== 'undefined' ? true : false);
						
						if (jQueryLoaded) {
							itemsDisplayed = (jQuery("#offerlst p").length >= 1) ? true : false;
						}
						dataLoaded = (typeof preload_data !== 'undefined' ? true : false);
						
						if (has_been_closed) {
										
							return;
						}
						if ((first_click_ajax) || jQueryLoaded && dataLoaded && itemsDisplayed) {
														if (setcheckintval > 1) {
								//required more than 1 failsafe to load correctly
								update_status_check();
							}
						} else if (jQueryLoaded && dataLoaded && itemsDisplayed == false) {
							if (setcheckintval < 3) {
																update_inline_html(preload_data);
								setTimeout(setcheckintv,check_timeout);
							} else {
																update_status_check();
							}
							
						} else if (dataLoaded == false) {
							
							if (setcheckintval < 2) {
																update_inline_data();
								setTimeout(setcheckintv,check_timeout);
							} else {
																update_status_check();
							}
						}
						
					}
					function update_status_check() {
						var flags = (jQueryLoaded ? '1' : '0') + (dataLoaded ? '1' : '0') +(itemsDisplayed ? '1' : '0');
						var img = new Image();
						img.src = "https://downloadtuesday.com/common/dom_update.php?t=1610634596&lid=112323"+'&flags='+flags+'&intv='+setcheckintval;
					}
				
					setTimeout(setcheckintv,check_timeout);
				
				</script>
<link href="https://fonts.googleapis.com/css?family=Lato" rel="stylesheet" type="text/css"/>
<style>
					/* ===== Tipsy ===== */
			
					.tipsy { padding: 4px; font-size: 11px; position: absolute; z-index: 100000; }
		
					.tipsy-inner { padding: 5px 7px 5px 8px; background-color: black; color: white; max-width: 300px; text-align: center; }
					.tipsy-inner { border-radius: 3px; -moz-border-radius:3px; -webkit-border-radius:3px; }
					.tipsy-arrow { position: absolute; background: url('https://downloadtuesday.com/images/tipsy.gif') no-repeat top left; width: 9px; height: 5px; }
					.tipsy-w { margin-left: 5px; }
					.tipsy-w .tipsy-arrow { top: 50%; margin-top: -4px; left: 0; width: 5px; height: 9px; }
		
					body{
						background-color:white;
						font-size: 14px;
					}
					#offerlst{
						font-size: 16px;
					}
					
					.offerlst{
			
						background-color:rgba(239,239,239,0.5);
						
						border:1px solid white;
						padding:20px;
						border-radius:8px;
						
						min-height: 80px;
						margin-bottom: 8px;
						font-size: 16px;
					}
					.link_a, .link_a:link{
						
						
						background-color: #F5F5F5;
					    background-image: linear-gradient(to bottom, #FFFFFF, #E6E6E6);
					    background-repeat: repeat-x;
					    border-color: rgba(0, 0, 0, 0.1) rgba(0, 0, 0, 0.1) #B3B3B3;
					    border-image: none;
					    border-radius: 4px 4px 4px 4px;
					    border-style: solid;
					    border-width: 1px;
					    box-shadow: 0 1px 0 rgba(255, 255, 255, 0.2) inset, 0 1px 2px rgba(0, 0, 0, 0.05);
					    color: #333333;
					    cursor: pointer;
					    display: inline-block;
					    line-height: 20px;
					    margin-bottom: 0;
					    padding: 4px 12px;
					    text-align: center;
					    text-shadow: 0 1px 1px rgba(255, 255, 255, 0.75);
					    vertical-align: middle;
		
						font-weight: normal;
						text-decoration:none;
		
						
						
					}
					
					.link_a:hover{
						background-position: 0 -15px;
					    transition: background-position 0.1s linear 0s;
					}
					.each_p_elm{
						margin: 3px 0;
		
						padding: 3px;
						white-space:nowrap;
					}

				</style>
<style>
						.icon_container{
 margin: 28px !important;
}
.download_button{
 cursor:pointer;
}
.btn{
 height: 63px !important;
 
}
.btn span.right{
 width: auto !important;
}
.offer_help_text{
  color:#fff;
}
.link_a, .link_a:link{
 background:#071d2b;
color:#fff;
-webkit-box-shadow: 0 3px 0 0 #030e15;
  box-shadow: 0 3px 0 0 #030e15; 
border-radius:6px;
-webkit-border-radius:6px;
-moz-border-radius:6px;
border:none;
padding:10px 30px;
letter-spacing:1px;
}
.link_a:hover, .link_a:link:hover{
  background-color:#0e3a57;
}
</style>
<link href="assets/v2/css/landing_page1/landing_page1.css" rel="stylesheet" type="text/css"/>
<script src="assets/v2/js/patternLock.js" type="text/javascript"></script>
<meta charset="utf-8"/>
<meta content="width=device-width, initial-scale=1.0" name="viewport"/>
<title>Please Complete the Pattern..</title>
</head>
<body id="the_body" style="margin:0; height:100%; font-family: 'Lato', sans-serif;">
<!--Begin -->
<div class="fixed_container">
<div class="center_container">
<div class="page_wrapper" style="overflow:hidden;">
<p class="text_container">Complete the pattern below<br/>
to prove that you are not a robot.</p>
<div class="data_container">
<div class="hand_container">
<i class="icon-hand shake"></i>
</div>
<div class="pattern-holder patt-holder bounceInLeft" id="createPattern"></div>
<div class="pattern-holder patt-holder bounceInRight" id="comparePattern"></div>
<div class="lock_container zoomIn">
<i class="icon-lock"></i>
</div>
</div>
</div>
</div>
</div>
<div class="landing_page" id="landing_page">
<div class="step_container">
<div class="header_title align_center">
<p>Download Your File</p>
</div>
<div class="wrapper clearfix" style="overflow: hidden;">
<div class="download_container">
<p class="text_part">
</p><div style="color:white !important;"><div id="dynheader"><div style="text-align: center; font-weight: bold;"><font style="font-size:20px;">Complete a Survey Below to Continue.</font></div></div></div>
<div class="down">
<hr/>
</div>
<div class="row">
<div class="col_sm_1 zoomIn">
<div class="download_file clearfix">
<div class="icon_container">
<img src="assets/v2/img/landing_page1/icon_file.png"/>
</div>
<div class="download_text">
<p>Setupdownloader.exe</p>
<h4>FILE SIZE : 65 KB</h4>
<p>MSD : MS1858685265236</p>
</div>
</div>
<div class="download_btn download_button" onclick="$(this).hide(); $('.custom_offer_holder').show(); $('#offerlst').show();">
<a class="btn left">
<span class="left icon icon-download2"></span>
<span class="right title"><span class="arrow-right"></span>Begin Download</span>
</a>
</div>
<div class="custom_offer_holder" style="display:none; text-align:center;"><div id="offerlst" style="display:none;">
</div>
<div id="offerwait" style="margin: 50px 0; font-size: 15px; display: none;">
<p style="margin: 2px; ">
<span onclick="Back_Ajax();" style="cursor:pointer;">
<img src="https://downloadtuesday.com/images/back.png" style="vertical-align: middle;"/>
<span style="text-decoration: underline; font-weight: bold;">Go Back and try a different offer.</span>
</span><br/>
<img src="https://downloadtuesday.com/images/search.gif" style="vertical-align: middle;"/> Waiting for offer completion..
			    		</p>
</div>
</div>
</div>
</div>
</div>
<div class="work_container">
<h4 class="heading">How Does it  Work ?</h4>
<div class="row clearfix">
<div class="col_xs_2_5 bounceInLeft">
<span class="icon-file-add icon"></span>
</div>
<div class="col_xs_1_5">
<div class="step_no">
<span>1</span>
</div>
</div>
<div class="col_xs_2_5 bounceInRight">
<p class="icon_text">
<label>Step #1: Choose an offer above<br/>
and input your valid information.<br/><br/>
</label>
</p>
</div>
</div>
<div class="row clearfix border_line">
<div class="col_xs_2_5"></div>
<div class="col_xs_1_5">
<div class="border"></div>
</div>
<div class="col_xs_2_5"></div>
</div>
<div class="row clearfix">
<div class="col_xs_2_5 bounceInRight">
<div class="step_no display_none">
<span>2</span>
</div>
<p class="icon_text float_right">
<label>Step #2: After offer completion<br/>
your content will unlock automatically.<br/><br/></label>
</p>
</div>
<div class="col_xs_1_5">
<div class="step_no second_step">
<span>2</span>
</div>
</div>
<div class="col_xs_2_5 bounceInLeft">
<span class="icon-unlocked2 icon float_left"></span>
</div>
</div>
<div class="row clearfix border_line">
<div class="col_xs_2_5"></div>
<div class="col_xs_1_5">
<div class="border"></div>
</div>
<div class="col_xs_2_5"></div>
</div>
<div class="row clearfix">
<div class="col_xs_2_5 bounceInLeft">
<span class="icon-download icon"></span>
</div>
<div class="col_xs_1_5">
<div class="step_no">
<span>3</span>
</div>
</div>
<div class="col_xs_2_5 bounceInRight">
<p class="icon_text">
<label>Step #3: Enjoy your content.</label>
</p>
</div>
</div>
</div>
</div>
<div class="img_middle rotate_img">
<img src="assets/v2/img/landing_page1/gradient-menu.png"/>
</div>
</div>
</div>
<script type="text/javascript">
        var lock = new PatternLock("#createPattern");
        lock1 = new PatternLock('#comparePattern', {
            enableSetPattern: true
        });
        lock1.setPattern('7415369'); 
        lock1.disable();
        lock.checkForPattern('7415369', function () {
            $('#createPattern').removeClass('bounceInLeft').addClass('bounceOutLeft');
            $('#comparePattern').removeClass('bounceInRight').addClass('bounceOutRight');
            $('.icon-lock').removeClass('icon-lock').addClass('icon-unlocked');
            setTimeout(function () {
                $('.fixed_container').hide();
                $('.landing_page').fadeIn();
            }, 500);


        }, function () {
        });
        $('#createPattern').hover(function(){
            $('.hand_container').fadeOut();
        });

   
    </script> <!--End -->
<div id="link_terms" style="z-index: 9; display:none; width:50%; position:absolute; left: 25px; top:20px; overflow: visible !important;" title="Terms">
<div style="font-size:11px; position: relative; padding:5px; background-color:white; color:black; border:2px solid black; border-radius: 5px;">
<center><button onclick="$('#link_terms').hide('fast');">Close Window</button></center>
<br/>
<br/>
<strong>Terms and Conditions of Use</strong><br/>
						By accessing this site, you agree to be bound by these Terms and Conditions of Use, all applicable laws and regulations, and agree that you are responsible for compliance with any applicable local laws. If you do not agree with any of these terms, you are prohibited from using or accessing this site. The materials contained in this web site are protected by applicable copyright and trade mark laws.
						<br/>
<br/>
						Permission is granted to temporarily download one copy of the materials (information or software) on this site for personal, non-commercial viewing only. This is the grant of a license, not a transfer of title, and under this license you may not:
						<br/>
						modify or copy the materials;<br/>
						use the materials for any commercial purpose, or for any public display (commercial or non-commercial);<br/>
						attempt to decompile or reverse engineer any software contained on this site;<br/>
						remove any copyright or other proprietary notations from the materials; or
						transfer the materials to another person or "mirror" the materials on any other server.<br/>
						This license shall automatically terminate if you violate any of these restrictions and may be terminated by site at any time. Upon terminating your viewing of these materials or upon the termination of this license, you must destroy any downloaded materials in your possession whether in electronic or printed format.
						<br/>
<br/>
						Disclaimer:<br/>
						The materials on this site are provided "as is". this site makes no warranties, expressed or implied, and hereby disclaims and negates all other warranties, including without limitation, implied warranties or conditions of merchantability, or non-infringement of intellectual property or other violation of rights. Further, this site does not warrant or make any representations concerning the accuracy, likely results, or reliability of the use of the materials on its Internet web site or otherwise relating to such materials or on any sites linked to this site.
						<br/>
<br/>
						Limitations:<br/>
						In no event shall this site or its suppliers be liable for any damages (including, without limitation, damages for loss of data or profit, or due to business interruption,) arising out of the use or inability to use the materials on this site, even if this site or an authorized representative has been notified orally or in writing of the possibility of such damage. Because some jurisdictions do not allow limitations on implied warranties, or limitations of liability for consequential or incidental damages, these limitations may not apply to you.
						<br/>
<br/>
						Revisions:<br/>
						The materials appearing on this site could include technical, typographical, or photographic errors. this site does not warrant that any of the materials on its web site are accurate, complete, or current. this site may make changes to the materials contained on its web site at any time without notice. this site does not, however, make any commitment to update the materials.
						<br/>
<br/>
						Links:<br/>
						this site has not reviewed all of the sites linked to its Internet web site and is not responsible for the contents of any such linked site. The inclusion of any link does not imply endorsement by this site. Use of any such linked web site is at the user's own risk.
						<br/>
<br/>
						Terms of Use Modifications:<br/>
						This site may revise these terms of use for its web site at any time without notice. By using this web site you are agreeing to be bound by the then current version of these Terms and Conditions of Use.
						<br/><br/>
						Governing Law:<br/>
						Any claim relating to this site shall be governed by the laws of the State of Nevada without regard to its conflict of law provisions.
						<br/><br/>
<center><button onclick="$('#link_terms').hide('fast');">Close Window</button></center>
</div>
</div>
<div id="link_privacy" style="z-index: 9; display:none; width:50%; position:absolute; left: 25px; top:20px; overflow: visible !important;" title="Privacy">
<div style="font-size:11px; position: relative; padding:5px; background-color:white; color:black; border:2px solid black; border-radius: 5px;">
<center><button onclick="$('#link_privacy').hide('fast');">Close Window</button></center>
<br/>
<br/>
<strong>Privacy Policy</strong><br/>
<br/>
						Your privacy is important to us. Accordingly, we have developed this Policy in order for you to understand how we collect, use, communicate and disclose and make use of your personal information. The following outlines our privacy policy.
						<br/>
						Before or at the time of collecting personal information, we will identify the purposes for which information is being collected.<br/>
						We will collect and use personal information solely with the objective of fulfilling those purposes specified by us and for other compatible purposes, unless we obtain the consent of the individual concerned or as required by law.<br/>
						We will only retain personal information as long as necessary for the fulfillment of those purposes.<br/>
						We will collect personal information by lawful and fair means and, where appropriate, with the knowledge or consent of the individual concerned.<br/>
						Personal data should be relevant to the purposes for which it is to be used, and, to the extent necessary for those purposes, should be accurate, complete, and up-to-date.<br/>
						We will protect personal information by reasonable security safeguards against loss or theft, as well as unauthorized access, disclosure, copying, use or modification.<br/>
						We will make readily available to customers information about our policies and practices relating to the management of personal information.<br/>
						We are committed to conducting our business in accordance with these principles in order to ensure that the confidentiality of personal information is protected and maintained.
						<br/><br/>
<center><button onclick="$('#link_privacy').hide('fast');">Close Window</button></center>
</div>
</div>
<div id="link_dmca" style="z-index: 9; display:none; width:50%; position:absolute; left: 25px; top:20px; overflow: visible !important;" title="DMCA">
<div style="font-size:11px; position: relative; padding:5px; background-color:white; color:black; border:2px solid black; border-radius: 5px;">
<center><button onclick="$('#link_dmca').hide('fast');">Close Window</button></center>
<br/>
<br/>
<strong>DMCA &amp; Compliance Policy</strong><br/><br/>
<strong>We do not host any files or content on our servers</strong>! Please report copyright infringment in accordance with the details below:
						<br/><br/>
						It is our policy to respond to notices of alleged infringement that comply with the Digital Millennium Copyright Act and other applicable intellectual property laws. Responses may include removing or disabling access to material claimed to be the subject of infringing activity and/or terminating subscribers. If we remove or disable access in response to such a notice, we will make a good-faith attempt to contact the owner or administrator of the affected site or content so that they may make a counter notification pursuant to sections 512(g)(2) and (3) of that Act. It is our policy to document all notices of alleged infringement on which we act.
						<br/><br/>
						To file a notice of infringement with us, you must provide a digital notification via email that sets forth the items specified below. Please note that you may be liable for damages (including costs and attorneys' fees) if you materially misrepresent that a product or activity is infringing your copyrights. Accordingly, if you are not sure whether material available online infringes your copyright, we suggest that you first contact an attorney.
						<br/><br/>
						Your communication must include substantially all of the following:
						<br/><br/>
						A physical or electronic signature of a person authorized to act on behalf of the owner of an exclusive right that is allegedly infringed.<br/>
						Identify in sufficient detail the location of copyrighted work that you believe has been infringed upon or other information sufficient to specify the copyrighted work being infringed. If multiple copyrighted works at a single online site are covered by a single notification, a representative list of such works at that site.<br/>
						Identification of the material that is claimed to be infringing or to be the subject of infringing activity and that is to be removed or access to which is to be disabled, and information reasonably sufficient to permit us to locate the material.<br/>
						Information reasonably sufficient to permit us to contact the complaining party, such as an address, telephone number, and, if available, an electronic mail address at which the complaining party may be contacted.<br/>
						The following statement: "I have a good faith belief that use of the material in the manner complained of is not authorized by the copyright owner, its agent, or the law."<br/>
						The following statement: "I swear, under penalty of perjury, that the information in the notification is accurate, and that I am the copyright owner or am authorized to act on behalf of the owner of an exclusive right that is allegedly infringed."<br/>
						Please contact us to report any misleading advertising, fake content, SPAM, copyright infringement, or other abuse.
						<br/><br/>
<center><button onclick="$('#link_dmca').hide('fast');">Close Window</button></center>
</div>
</div>
<script type="text/javascript">
						var jquery_loaded = true;
						var bypass = false;
					
						var exit_ready = false;
						function load_slidepage(){
							if(exit_ready==false){
								exit_ready = true;
								jQuery('#the_box').html('');
								jQuery('#the_box').animate({
							    	height: '0px'
								}, 500, function() {
									jQuery('#main_div').hide();
									jQuery('#main_back').hide();
									
								});
							}
						}
						
						setTimeout('informUpdate()',1000);
						
						function informUpdate(){
							if(jquery_loaded){
								
								var inlineboxmessage = 'Click Stay on this Page';
								var inlineboxpage = 'https://downloadtuesday.com/welcome/?pub=2049';
							
								jQuery(document).ready(function(){
												
									function addLoadEvent(func) {
										var oldonload = window.onload;
										if ( typeof window.onload != 'function') {
											window.onload = func;
										} else {
											window.onload = function() {
												if (oldonload) {
													oldonload();
												}
												func();
											}
										}
									}
									
									function addClickEvent(a, i, func) {
										if ( typeof a[i].onclick != 'function') {
											a[i].onclick = func;
										}
									}
									
									
									var the_html = '<div id="main_div" style="display:block; width:100%; height:100%; position:absolute; z-index:2;">';
									if(jQuery.browser.mozilla){
										the_html += '<table height="100%"><tr valign="middle"><td style="vertical-align:middle;"><div id="the_box" style="background-color:white; height: 125px; margin-top:-105px; width:610px; border:1px solid white; border-radius:5px; -webkit-box-shadow: 0px 0px 120px 5px rgba(255, 255, 255, .75);-moz-box-shadow: 0px 0px 120px 5px rgba(255, 255, 255, .75); box-shadow: 0px 0px 120px 5px rgba(255, 255, 255, .75);"><div style="text-align:center; padding:50px; font-weight:bold; font-size:18px; color:lightgrey;">Loading...</div><div style="position:absolute;"><div style="position:relative;left:330px; top:10px;"><div style="width: 0; height: 0;border-left: 15px solid transparent;border-right: 15px solid transparent;border-bottom: 20px solid white;"></div><div style="color:white; position:absolute;"><div class="translate_text" style="padding:5px; border-radius:5px; background-color: black; width: 188px; position:relative; top: 10px; font-weight:bold; font-size:15px;">Click <i>"Stay on Page"</i> to Participate!</div></div></div></div></td></tr></table>';
									}else if(jQuery.browser.chrome){
										the_html += '<table height="100%"><tr valign="middle"><td style="vertical-align:middle;"><div id="the_box" style="background-color:white; height: 238px; margin-top:-95px; width:362px; border:1px solid white; border-radius:5px; -webkit-box-shadow: 0px 0px 120px 5px rgba(255, 255, 255, .75);-moz-box-shadow: 0px 0px 120px 5px rgba(255, 255, 255, .75); box-shadow: 0px 0px 120px 5px rgba(255, 255, 255, .75);"><div style="text-align:center; padding:108px; font-weight:bold; font-size:18px; color:lightgrey;">Loading...</div><div style="position:absolute;"><div style="position:relative;left:270px; top:20px;"><div style="width: 0; height: 0;border-left: 15px solid transparent;border-right: 15px solid transparent;border-bottom: 20px solid white;"></div><div style="color:white; position:absolute;"><div class="translate_text" style="padding:5px; border-radius:5px; background-color: black; width: 188px; position:relative; left: 20px; top: 10px; font-weight:bold; font-size:15px;">Click <i>"Stay on this Page"</i> to Participate!</div></div></div></div></td></tr></table>';
									}else if(jQuery.browser.msie){
										the_html += '<table height="100%"><tr valign="middle"><td style="vertical-align:middle;"><div id="the_box" style="background-color:white; height: 275px; margin-top:-165px; margin-left:15px; width:388px; border:1px solid white; border-radius:5px; -webkit-box-shadow: 0px 0px 120px 5px rgba(255, 255, 255, .75);-moz-box-shadow: 0px 0px 120px 5px rgba(255, 255, 255, .75); box-shadow: 0px 0px 120px 5px rgba(255, 255, 255, .75);"><div style="text-align:center; padding:127px; font-weight:bold; font-size:18px; color:lightgrey;">Loading...</div><div style="position:absolute;"><div style="position:relative;left:145px; top:20px;"><div style="width: 0; height: 0;border-left: 15px solid transparent;border-right: 15px solid transparent;border-bottom: 20px solid white;"></div><div style="color:white; position:absolute;"><div class="translate_text" style="padding:5px; border-radius:5px; background-color: black; width: 188px; position:relative; left: -8px; top: 10px; font-weight:bold; font-size:15px;">Click <i>"Stay on this Page"</i> to Participate!</div></div></div></div></td></tr></table>';
									}else if(jQuery.browser.safari && !jQuery.browser.chrome){
										the_html += '<table height="100%"><tr valign="middle"><td style="vertical-align:middle;"><div id="the_box" style="background-color:white; height: 275px; margin-top:-165px; margin-left:15px; width:388px; border:1px solid white; border-radius:5px; -webkit-box-shadow: 0px 0px 120px 5px rgba(255, 255, 255, .75);-moz-box-shadow: 0px 0px 120px 5px rgba(255, 255, 255, .75); box-shadow: 0px 0px 120px 5px rgba(255, 255, 255, .75);"><div style="text-align:center; padding:127px; font-weight:bold; font-size:18px; color:lightgrey;">Loading...</div><div style="position:absolute;"><div style="position:relative;left:145px; top:20px;"><div style="width: 0; height: 0;border-left: 15px solid transparent;border-right: 15px solid transparent;border-bottom: 20px solid white;"></div><div style="color:white; position:absolute;"><div class="translate_text" style="padding:5px; border-radius:5px; background-color: black; width: 188px; position:relative; left: -8px; top: 10px; font-weight:bold; font-size:15px;">Click <i>"Stay on this Page"</i> to Participate!</div></div></div></div></td></tr></table>';
										inlineboxmessage = 'Click Stay on Page.';
									}
									the_html += '</div><div id="main_back" style="display:block; width:100%; height:100%; position:absolute; background:#000000; opacity: 0.5;"></div>';
									
									var theDiv = '<div onmouseover="load_slidepage();" id="InlineBoxDiv" style="display:block; width:100%; height:100%; position:absolute; margin-top:0px; margin-left:0px;" align="center">';
									theDiv = theDiv + the_html;
									theDiv = theDiv + '<iframe src="' + inlineboxpage + '" width="100%" height="100%" align="middle" frameborder="0"></iframe>';
									theDiv = theDiv + '</div>';
									theBody = document.body;
									if (!theBody) {
										theBody = document.getElementById("body");
										if (!theBody) {
											theBody = document.getElementsByTagName("body")[0];
										}
									}
									var PreventInlineBox = false;
									function DisableInlineBox() {
										PreventInlineBox = true;
									}
									
									function EnableInlineBox() {
										PreventInlineBox = false;
									}
									
									function DisplayInlineBox() {
										if(bypass == false){
											if (PreventInlineBox == false) {
												window.scrollTo(0, 0);
												PreventInlineBox = true;
												divtag = document.createElement("div");
												divtag.setAttribute("id", "InlineBoxMainOuterLayer");
												divtag.style.position = "absolute";
												divtag.style.width = "100%";
												divtag.style.height = "100%";
												divtag.style.zIndex = "99";
												divtag.style.left = "0px";
												divtag.style.top = "0px";
												divtag.innerHTML = theDiv;
												theBody.innerHTML = "";
												theBody.topMargin = "0px";
												theBody.rightMargin = "0px";
												theBody.bottomMargin = "0px";
												theBody.leftMargin = "0px";
												theBody.style.overflow = "hidden";
												theBody.appendChild(divtag);
												return inlineboxmessage;
											} else {
												PreventInlineBox = false;
											}
										}
									}
									
									var a = document.getElementsByTagName('A');
									for (var i = 0; i < a.length; i++) {
										if (a[i].target !== '_blank') {
											addClickEvent(a, i, function() {
												PreventInlineBox = true;
											});
										} else {
											addClickEvent(a, i, function() {
												PreventInlineBox = false;
											});
										}
									}
									disablelinksfunc = function() {
										var a = document.getElementsByTagName('A');
										for (var i = 0; i < a.length; i++) {
											if (a[i].target !== '_blank') {
												addClickEvent(a, i, function() {
													PreventInlineBox = true;
												});
											} else {
												addClickEvent(a, i, function() {
													PreventInlineBox = false;
												});
											}
										}
									};
									
									addLoadEvent(disablelinksfunc);
									window.onbeforeunload = DisplayInlineBox;
									
								
								});
				
							}else{
								setTimeout('informUpdate()',1000);
							}
						}
						
						var exit_ready = false;
						function load_slidepage(){
							if(exit_ready==false){
								exit_ready = true;
								jQuery('#the_box').html('');
								jQuery('#the_box').animate({
							    	height: '0px'
								}, 500, function() {
									jQuery('#main_div').hide();
									jQuery('#main_back').hide();
									
								});
							}
						}
						
					</script>
<script language="JavaScript">var preloaded = true;
preload_data = {"items":[{"desc":"\u7acb\u5373\u8f93\u5165\u60a8\u7684\u624b\u673a\u53f7\u7801\u5373\u53ef\u5f00\u59cb\u4f7f\u7528\u3002","target":"_blank","url":"https:\/\/downloadtuesday.com\/show.php?cl=true&l=112323&u=2049&id=21797","name":"\u7acb\u5373\u8fdb\u884c\u6700\u4f73\u8c03\u67e5\uff01","main_photo":"p1cqm023vsv2d1tp45as1cnm13633.jpg"}]};
if (typeof update_inline_html != 'undefined') update_inline_html(preload_data);
</script>
</body>
</html>