<html lang="ja">
<head>
<title>ï¼·ï¼¡ï¼¤ï¼¡ï¼¸ã¬ã³ã¿ã«ãµã¼ãã¼</title>
<meta content="text/html; charset=utf-8" http-equiv="Content-Type"/>
</head>
<body bgcolor="#FFFFFF">
<style type="text/css">
<!--
A:link { color:#0000FF }
A:visited { color:#800080 }
A:active { color:#AACC00 }
A:hover { color:#FB00DC }
-->
</style>
<center>
<table border="4" width="581">
<tr>
<td rowspan="2" width="101"><a href="http://www.wadax.ne.jp/"><img alt="ã¬ã³ã¿ã«ãµã¼ãã¼" border="0" src="http://www.wadax.ne.jp/image/wadax_logo.gif"/></a></td>
<td height="27" nowrap="" width="458">ã¨ã©ã¼ ï¼ï¼ï¼ã<font color="#FF0000"><b><font size="+1">ãã®ãã¡ã¤ã«ããã£ã¬ã¯ããªã¯å­å¨ãã¾ãã</font></b></font></td>
</tr>
<tr>
<td height="17" nowrap="" width="458">Error 404 Not Found</td>
</tr>
</table>
<br/>
<p>
</p></center>
<p align="center"><b>æå®ããã¢ãã¬ã¹(URL)ã«ã¯ãã¡ã¤ã«ããã£ã¬ã¯ããªãå­å¨ãã¾ãã</b></p>
<p align="center">å¥åããã¢ãã¬ã¹ãããªã³ã¯ã§ã®ã¢ãã¬ã¹ã«ãæå®ã®ãã¡ã¤ã«ãããã¾ããã§ããã</p>
<p align="center">ãã¼ã ãã¼ã¸éè¨­èã®é½åã«ããããã¡ã¤ã«ããã£ã¬ã¯ããªãåé¤ããå ´åãã<br/>
  ã¢ãã¬ã¹ã®å¥åãã¹ããªã³ã¯ã®è¨å¥ãã¹ã«ãããã¢ã¯ã»ã¹åºæ¥ãªãå ´åãããã¾ãã</p>
<p align="center"><b>å¥åããå ´åãã¢ãã¬ã¹ãééã£ã¦ããªããããä¸åº¦ç¢ºèªãã¦ãã ãã</b></p>
<p align="center">æãå¥ãã¾ããããã®ä»ã®åå ã«ã¤ãã¾ãã¦ã¯ãã¼ã ãã¼ã¸å¶ä½èã«ç´æ¥ãç¢ºèªä¸ããã</p>
<hr width="60%"/>
<p align="center">WADAX ã§ã¯ããã®ã¨ã©ã¼ãçºçãããå®¢æ§ã®ãã¼ã ãã¼ã¸ããªãè¡¨ç¤ºãããªãã®ãã<br/>
  ãç­ãããäºãåºæ¥ã¾ããããã®ã¨ã©ã¼ã¯ãå®¢æ§ã®é½åç­ã«ãããã¡ã¤ã«ãå­å¨ããªããã<br/>
  ã¢ãã¬ã¹ã®å¥åãã¹ã®åå ã§è¡¨ç¤ºãããçºãWADAX ã§ãå®¢æ§ã®ãè³ªåã«å¯¾ãã¦ã<br/>
  åå ã®ç¢ºèªãã»ã¨ãã©åºæ¥ãªãçºã§ããå¤§å¤æãå¥ãã¾ãããäºæ¿ä¸ããã¾ããããé¡ãç³ãä¸ãã¾ãã<br/>
<br/>
</p>
<p align="center"><a href="http://www.wadax.ne.jp/"><img border="0" height="60" src="http://www.wadax.ne.jp/image/wadax_bn.gif" width="468"/></a>
</p>
<p>ã</p>
<p>ã</p>
<p><br/>
<i>Copyright &amp;copy 2000 GMO CLOUD K.K. All Rights Reserved. <br/>
<a href="http://www.wadax.ne.jp/" target="_blank"> http://www.wadax.ne.jp/</a>
</i><br/>
</p>
</body>
</html>
