<!DOCTYPE html PUBLIC "-//W3C//DTD XHTML 1.0 Transitional//EN" "http://www.w3.org/TR/xhtml1/DTD/xhtml1-transitional.dtd">
<html xmlns="http://www.w3.org/1999/xhtml">
<head>
<meta content="text/html; charset=utf-8" http-equiv="Content-Type"/>
<title>7723ææºæ¸¸æ_åè´¹å®åææºæ¸¸æ_å®åæ¸¸æç ´è§£çä¸è½½_ææºç½æ¸¸ä¸è½½</title>
<meta content="format=html5;url=http://3g.7723.cn" name="mobile-agent"/>
<meta content="format=xhtml;url=http://3g.7723.cn" name="mobile-agent"/>
<meta content="åè´¹ææºæ¸¸æç½_å®åç ´è§£ææºæ¸¸æ_ææºç½æ¸¸ä¸è½½ç½" name="keywords"/>
<meta content="7723ææºæ¸¸æ[www.7723.cn]æ¯ææºæ¸¸æåè´¹ä¸è½½ç½ç«ï¼ä¸æä¾åç§åè´¹ææºå°æ¸¸æãå®åç ´è§£ææºæ¸¸æãå®åæ±åçæ¸¸æãææºç½æ¸¸ä¸è½½ã" name="description"/>
<link href="/images/favicon.ico" rel="shortcut icon" type="image/x-icon"/>
<script src="/js/uaredirect.js" type="text/javascript"></script>
<script type="text/javascript">uaredirect("http://3g.7723.cn");</script>
<link href="/css/common.css" rel="stylesheet" type="text/css"/>
<link href="/css/user/login.css" rel="stylesheet" type="text/css"/>
<script src="/js/jquery-1.9.1.min.js" type="text/javascript"></script>
<script src="/js/index.js" type="text/javascript"></script>
<script src="/js/function.js" type="text/javascript"></script>
</head>
<body>
<div class="inav">
<div class="w nav_kd">
<a class="n_d xz " href="/">é¦é¡µ</a>
<a class="n_d " href="/netgame/">æ¸¸æ</a>
</div>
</div>
<link href="/css/index/index.css" rel="stylesheet" type="text/css"/>
<div class="w logo_h">
<h1>
<a href="/">
<img class="ilogo" height="77" src="/images/logo.jpg" title="å®åç ´è§£æ¸¸æä¸è½½" width="198"/>
</a>
</h1>
<form action="/search/game" class="lh_fl" method="get">
<div class="isou1">
<input autocomplete="off" id="searchKeyword" name="keyword" onblur="clearHover();return false;" onclick="stopEvent(event);return false;" onfocus="genshortresult(); return false;" onkeyup="javascript:genshortresult()" placeholder="è¯·è¾å¥æç´¢å³é®å­" type="text"/>
</div>
<div class="isou_an"></div>
<div id="searchResult" style="display:none;">
<div class="searchResultBg">
</div>
<div class="searchResultBottom">
</div>
</div>
</form>
<div class="qc"></div>
</div>
<script src="/js/android.js" type="text/javascript"></script>
<div class="w b_h">
<div class="fl ib_lwh">
<div class="fl ba_dat">
<a class="ban_r" href="javascript:void(0)" id="index_ban_r"></a>
<span class="xz"></span>
<span class="s2"></span>
<span class="s3"></span>
<span class="s4"></span>
<span class="s5"></span>
<ul class="izbbox" id="izbbox_ul">
<li><a href="http://www.7723.cn/game/37231.htm" target="_blank"><img height="300" src="http://images.7723.cn/attachments/logo_image/920147/7xntTPz7WsBsiHNH4W6pDtPtme8a37wy.jpg" width="498"/><em></em><span class="wz">ç¾äººå¼å±ï¼ä¸äººæç¥!</span></a><a href="http://3g.7723.cn/game/37658.htm" target="_blank"><img height="300" src="http://images.7723.cn/attachments/logo_image/920147/H5SKkE2Y2ySRwHPkPs2fNiht8BHi2XPi.jpg" width="498"/><em></em><span class="wz">ä¸ºç±³ç²å®å¶ï¼åæªæä¹ç¥!</span></a><a href="http://3g.7723.cn/game/36338.htm" target="_blank"><img height="300" src="http://images.7723.cn/attachments/logo_image/1180973/td7ntS6aAsseDA2PXhBEkGCkShNjytht.jpg" width="498"/><em></em><span class="wz">ãæçä¸çãä¸­å½çå¨å¹³å°å¬æµä»æ¥å¼å¯</span></a><a href="http://www.7723.cn/game/36177.htm" target="_blank"><img height="300" src="http://images.7723.cn/attachments/logo_image/920147/5CSWT6RRw48xpfCEDntsRRPsihwJpjBK.jpg" width="498"/><em></em><span class="wz">5ç§ä¸è½½,ä¸ç­ææº,ä¸ç­æ¢RMB,å®ç¾</span></a><a href="http://www.7723.cn/game/35039.htm" target="_blank"><img height="300" src="http://images.7723.cn/attachments/logo_image/1/4CGM6n3rNPtwmbXcES52sRNaShNSHnCA.jpg" width="498"/><em></em><span class="wz">13ä¸ªå½å®¶çéTOP1ï¼é£é¡å¨ç200å¤å½ï¼</span></a> </li>
</ul>
<a class="ban_l" href="javascript:void(0)" id="index_ban_l"></a>
</div>
<div class="fr">
<a class="yd_wzfd" href="http://www.7723.cn/game/36177.htm" target="_blank">
<img class="ib_r2" height="149" src="http://images.7723.cn/attachments/logo_image/920147/WyQhnpxEckZX48rXtSiPSDEWfmmaZaD4.jpg" width="245"/><em></em><span class="wz">ç½å¤©ææº,æä¸åæ¶æ¢RMB</span></a>
<a class="yd_wzfd" href="http://www.7723.cn/game/36817.htm" target="_blank">
<img class="ib_r2" height="149" src="http://images.7723.cn/attachments/logo_image/920147/NRREsdE5GHP6rjSW7HdbiKTMadrWzTBe.jpg" width="245"/><em></em><span class="wz">ç±æå®æ¤,ä½ ççå½ï¼</span></a>
</div>
</div>
<div class="fr ib_rwh">
<div class="lbr_tl">
<a class="dsb_lk" href="http://www.7723.cn/netgame/" style="display: block;">
<img class="fahd" src="http://www.7723.cn/images/logo/3.png"/>
<h2 class="fah_h2" style="padding-top: 25px;">7723ç½æ¸¸</h2>
</a>
</div>
<div class="lbr_tl">
<span class="al_ct"></span>
<a class="dsb_lk" href="#"><img class="al_a_ct" src="http://www.7723.cn/images/logo/1.png"/></a>
</div>
</div>
<img height="27" src="/images/ibanner_bottom.gif" width="1000"/>
</div>
<div class="w pj_t1"></div>
<div class="w">
<div class="fr i_dj_r">
<ul class="i_sjdj">
<li class="jsby">
<span></span>
<a href="/android/new/152-0-0-1.htm" target="_blank">è§è²æ®æ¼</a>
</li>
<li class="yzxx">
<span></span>
<a href="/android/new/153-0-0-1.htm" target="_blank">çæºä¼é²</a>
</li>
<li class="dzyx">
<span></span>
<a href="/android/new/154-0-0-1.htm" target="_blank">å¨ä½æ¸¸æ</a>
</li>
<li class="scyx">
<span></span>
<a href="/android/new/155-0-0-1.htm" target="_blank">ç«éèµè½¦</a>
</li>
<li class="mxyx">
<span></span>
<a href="/android/new/156-0-0-1.htm" target="_blank">åé©æ¸¸æ</a>
</li>
<li class="ycyx">
<span></span>
<a href="/android/new/157-0-0-1.htm" target="_blank">å»ææ¸¸æ</a>
</li>
<li class="tyyx">
<span></span>
<a href="/android/new/158-0-0-1.htm" target="_blank">ä½è²æ¸¸æ</a>
</li>
<li class="gdyx">
<span></span>
<a href="/android/new/159-0-0-1.htm" target="_blank">æ ¼ææ¸¸æ</a>
</li>
</ul>
</div>
<div class="fl i_dj_t">
<h2><a href="/android/">æè¿æ´æ°</a></h2>
<a class="dj_xx xz" href="javascript:;" onclick="over_ul_toggle(2,'dj',this);" val="new">æ°æ¸¸</a>
<a class="dj_xx" href="javascript:;" onclick="over_ul_toggle(3,'dj',this);" val="hot">ç­é¨</a>
<a class="dj_xx" href="javascript:;" onclick="over_ul_toggle(4,'dj',this);" val="five">äºæ</a>
<a class="pj_gd" href="/android/new/" tag="android" target="_blank">æ´å¤</a>
</div>
<ul class="fl i_dj ul_dj_2 ">
<li>
<a href="/game/77173.htm" target="_blank" title="å¹»ä¹¦å¯ä¸å½">
<em class="xx3"></em> <img height="71" src="http://image.7723.cn/attachments/icons/20/RCJDfB8ibeNeJdasTZxAJtsxnAArdcd7.png" width="71"/>
<font>å¹»ä¹¦å¯ä¸å½</font>
<span>ä¸è½½</span>
</a>
</li>
<li>
<a href="/game/57446.htm" target="_blank" title="å¿èå¿é¡»æ­»3(æ¬¢èåæ¦)">
<em class="xx3"></em> <img height="71" src="http://image.7723.cn/attachments/icons/20/4sTRpTW6cWcAQFt2pKJfeQ3jTFn6E8B4.png" width="71"/>
<font>å¿èå¿é¡»æ­»3(æ¬¢èåæ¦)</font>
<span>ä¸è½½</span>
</a>
</li>
<li>
<a href="/game/77255.htm" target="_blank" title="è¿å¾2">
<em class="xx3"></em> <img height="71" src="http://image.7723.cn/sdkopen/icon/43/BRfjyh638icasYAyNTmayGhRS5x5WxhE.png" width="71"/>
<font>è¿å¾2</font>
<span>ä¸è½½</span>
</a>
</li>
<li>
<a href="/game/61257.htm" target="_blank" title="å°å¹´ä¾ å®¢">
<em class="xx3"></em> <img height="71" src="http://image.7723.cn/attachments/icons/20/2kNyEM44BziNmQPzermZHxFE2QkxJshB.png" width="71"/>
<font>å°å¹´ä¾ å®¢</font>
<span>ä¸è½½</span>
</a>
</li>
<li>
<a href="/game/65419.htm" target="_blank" title="èèäºé¸">
<em class="xx3"></em> <img height="71" src="http://image.7723.cn/sdkopen/icon/54/CPXN8X346xd82ibtXkrdTaDEGFNy8bRw.png" width="71"/>
<font>èèäºé¸</font>
<span>ä¸è½½</span>
</a>
</li>
<li>
<a href="/game/67728.htm" target="_blank" title="èéä¹±æ(å½æ)">
<em class="xx3"></em> <img height="71" src="http://image.7723.cn/attachments/icons/20/yM2x4xnfrTARxDNJm8KPyMSmsdzW6FAY.gif" width="71"/>
<font>èéä¹±æ(å½æ)</font>
<span>ä¸è½½</span>
</a>
</li>
<li>
<a href="/game/74185.htm" target="_blank" title="éä¹æçºª">
<em class="xx3"></em> <img height="71" src="http://image.7723.cn/attachments/icons/20/8znrmZ2DDfkxpPf42QffAmQKSheZBMbf.png" width="71"/>
<font>éä¹æçºª</font>
<span>ä¸è½½</span>
</a>
</li>
<li>
<a href="/game/76947.htm" target="_blank" title="ä¹å·å«èå½">
<em class="xx3"></em> <img height="71" src="http://image.7723.cn/attachments/icons/98/PPZpGJkpccZnm7EkEDEi4n7wdhmbyKRb.png" width="71"/>
<font>ä¹å·å«èå½</font>
<span>ä¸è½½</span>
</a>
</li>
<li>
<a href="/game/68818.htm" target="_blank" title="ç«åèé¼ ">
<em class="xx3"></em> <img height="71" src="http://image.7723.cn/attachments/icons/20/xYADCJxRw8rz6aPDr5MFrhYsipxhPaat.png" width="71"/>
<font>ç«åèé¼ </font>
<span>ä¸è½½</span>
</a>
</li>
<li>
<a href="/game/60172.htm" target="_blank" title="ä¼æ´çº³">
<em class="xx3"></em> <img height="71" src="http://image.7723.cn/attachments/icons/20/Ee2kkH2nP54n6YhniQEM8XPXRMiPSNJc.png" width="71"/>
<font>ä¼æ´çº³</font>
<span>ä¸è½½</span>
</a>
</li>
<li>
<a href="/game/65371.htm" target="_blank" title="å¦åä¸çéªå»æ">
<em class="xx3"></em> <img height="71" src="http://image.7723.cn/sdkopen/icon/54/5C7sjtf5Z3d4mtrWf3KfdeyYcQnFy7sz.png" width="71"/>
<font>å¦åä¸çéªå»æ</font>
<span>ä¸è½½</span>
</a>
</li>
<li>
<a href="/game/72375.htm" target="_blank" title="å¢¨é­">
<em class="xx3"></em> <img height="71" src="http://image.7723.cn/sdkopen/icon/54/6PyC3E2pkyX4TmW6ZRTAf8kZECMrw6Q3.png" width="71"/>
<font>å¢¨é­</font>
<span>ä¸è½½</span>
</a>
</li>
<li>
<a href="/game/21785.htm" target="_blank" title="åçççº·äº">
<em class="xx3"></em> <img height="71" src="http://image.7723.cn/attachments/icons/920147/E6td4e8Bm73zKtmXHJ64t6BasKNKmZHK.png" width="71"/>
<font>åçççº·äº</font>
<span>ä¸è½½</span>
</a>
</li>
<li>
<a href="/game/63418.htm" target="_blank" title="ç»¿èµä¹å·">
<em class="xx3"></em> <img height="71" src="http://image.7723.cn/attachments/icons/58/JzQrjXT44KFkKfcjaMtbzBpDTsxJTAP7.png" width="71"/>
<font>ç»¿èµä¹å·</font>
<span>ä¸è½½</span>
</a>
</li>
<li>
<a href="/game/54998.htm" target="_blank" title="ä¸èµ·æ¥æå¦">
<em class="xx3"></em> <img height="71" src="http://image.7723.cn/attachments/icons/98/njF64SFcCM5kJAb5Na5DDmhzyMcCGA3B.png" width="71"/>
<font>ä¸èµ·æ¥æå¦</font>
<span>ä¸è½½</span>
</a>
</li>
<li>
<a href="/game/72080.htm" target="_blank" title="èå°é£äº">
<em class="xx3"></em> <img height="71" src="http://image.7723.cn/sdkopen/icon/814/skeM6wmGJEMXDfTANhzcZCPADmDPfKBR.png" width="71"/>
<font>èå°é£äº</font>
<span>ä¸è½½</span>
</a>
</li>
<li>
<a href="/game/14678.htm" target="_blank" title="æ¢¦å¹»è¥¿æ¸¸">
<em class="xx3"></em> <img height="71" src="http://image.7723.cn/attachments/icons/98/Z6eNQyiDjQhWrHZs8JDWCxaEkEZZwrYz.png" width="71"/>
<font>æ¢¦å¹»è¥¿æ¸¸</font>
<span>ä¸è½½</span>
</a>
</li>
<li>
<a href="/game/61274.htm" target="_blank" title="ä»ä¾ ç¬¬ä¸æ¾ç½®">
<em class="xx3"></em> <img height="71" src="http://image.7723.cn/sdkopen/icon/43/bCyH5R8Fz5d6z2MnKX4xC7XznmzmTP6T.png" width="71"/>
<font>ä»ä¾ ç¬¬ä¸æ¾ç½®</font>
<span>ä¸è½½</span>
</a>
</li>
<li>
<a href="/game/23863.htm" target="_blank" title="ç«å½±å¿è">
<em class="xx3"></em> <img height="71" src="http://image.7723.cn/attachments/icons/20/e2KMm7rAbYZcwmWyGEczYKhw7kWkpQEW.png" width="71"/>
<font>ç«å½±å¿è</font>
<span>ä¸è½½</span>
</a>
</li>
<li>
<a href="/game/37206.htm" target="_blank" title="æå¼ºNBA">
<em class="xx3"></em> <img height="71" src="http://image.7723.cn/attachments/icons/20/wr738cSBP6cwwWx8tHiGBkJcypCbEe3P.png" width="71"/>
<font>æå¼ºNBA</font>
<span>ä¸è½½</span>
</a>
</li>
<li>
<a href="/game/40855.htm" target="_blank" title="QQåå¤ææ¸¸">
<em class="xx3"></em> <img height="71" src="http://image.7723.cn/attachments/icons/20/MmwD5rdG3k5xX6Jrh2YrTJ5aA2aMerCT.png" width="71"/>
<font>QQåå¤ææ¸¸</font>
<span>ä¸è½½</span>
</a>
</li>
</ul>
<ul class="fl i_dj ul_dj_3" style="display:none;">
<li>
<a href="/game/11092.htm" target="_blank" title="7723æ¸¸æç">
<em class="xx2"></em><img height="71" src="http://image.7723.cn/attachments/icons/44891/49661436859656.png" width="71"/>
<font>7723æ¸¸æç</font>
<span>ä¸è½½</span>
</a>
</li><li>
<a href="/game/24335.htm" target="_blank" title="ç©¿è¶ç«çº¿(5å¨å¹´åºå¸)">
<img height="71" src="http://image.7723.cn/attachments/icons/20/SEXGHwwEAKd7An63eHkmB5r8yZDcdhrm.png" width="71"/>
<font>ç©¿è¶ç«çº¿(5å¨å¹´åºå¸)</font>
<span>ä¸è½½</span>
</a>
</li><li>
<a href="/game/37117.htm" target="_blank" title="7723æ¸¸æç">
<em class="xx2"></em><img height="71" src="http://image.7723.cn/attachments/icons/6/badrTQefkb8pSzFf72zYazQMADTBJXBm.png" width="71"/>
<font>7723æ¸¸æç</font>
<span>ä¸è½½</span>
</a>
</li><li>
<a href="/game/36338.htm" target="_blank" title="æçä¸ç">
<img height="71" src="http://image.7723.cn/attachments/icons/20/mkSNQPcSiEjTd6XsmPYxZnfJW2ysbDDN.png" width="71"/>
<font>æçä¸ç</font>
<span>ä¸è½½</span>
</a>
</li><li>
<a href="/game/21378.htm" target="_blank" title="é¨è½å²çª">
<img height="71" src="http://image.7723.cn/attachments/icons/920147/CzwkGFYTjz4HH8jATZmEbJxTtF6hyWK6.png" width="71"/>
<font>é¨è½å²çª</font>
<span>ä¸è½½</span>
</a>
</li><li>
<a href="/game/76531.htm" target="_blank" title="å¶åæ¢¦å¹»ç¥­2">
<img height="71" src="http://image.7723.cn/attachments/icons/58/rTWRiJMRb33ACWNZbpexFKfmEYWeA2xt.png" width="71"/>
<font>å¶åæ¢¦å¹»ç¥­2</font>
<span>ä¸è½½</span>
</a>
</li><li>
<a href="/game/36009.htm" target="_blank" title="7723æ¸¸æç">
<em class="xx2"></em><img height="71" src="http://image.7723.cn/attachments/icons/8/ZDQtZz5E4aKkPSa8jKGnbzTSFfyePNax.png" width="71"/>
<font>7723æ¸¸æç</font>
<span>ä¸è½½</span>
</a>
</li><li>
<a href="/game/57446.htm" target="_blank" title="å¿èå¿é¡»æ­»3">
<img height="71" src="http://image.7723.cn/attachments/icons/20/4sTRpTW6cWcAQFt2pKJfeQ3jTFn6E8B4.png" width="71"/>
<font>å¿èå¿é¡»æ­»3</font>
<span>ä¸è½½</span>
</a>
</li><li>
<a href="/game/39213.htm" target="_blank" title="å³æï¼å¹³å®äº¬">
<img height="71" src="http://image.7723.cn/attachments/icons/40/8yNCSAHDSAKfhRQXYBdbbPabPsriHAzd.png" width="71"/>
<font>å³æï¼å¹³å®äº¬</font>
<span>ä¸è½½</span>
</a>
</li><li>
<a href="/game/24329.htm" target="_blank" title="çèè£è(æ°è±éâæ¾â)">
<img height="71" src="http://image.7723.cn/attachments/icons/20/3EPTyCZBBs3EheN6H3x3The7scBa24yk.png" width="71"/>
<font>çèè£è(æ°è±éâæ¾â)</font>
<span>ä¸è½½</span>
</a>
</li><li>
<a href="/game/38943.htm" target="_blank" title="QQé£è½¦(å¥¥ç¹æ¼èå¨)">
<img height="71" src="http://image.7723.cn/attachments/icons/20/nDMECNAaE47iNRHp6FEdScAhCT8YKJBm.png" width="71"/>
<font>QQé£è½¦(å¥¥ç¹æ¼èå¨)</font>
<span>ä¸è½½</span>
</a>
</li><li>
<a href="/game/49897.htm" target="_blank" title="ææ¥ä¹å">
<img height="71" src="http://image.7723.cn/attachments/icons/20/Q3tjYnG3eirNTA8WaCD238A7JH3QD5SE.png" width="71"/>
<font>ææ¥ä¹å</font>
<span>ä¸è½½</span>
</a>
</li><li>
<a href="/game/56484.htm" target="_blank" title="ç«åèé¼ (èç¨æ·ä¸å±)">
<img height="71" src="http://image.7723.cn/attachments/icons/20/n33TP468FFshieEhEppKiCxCfDfrdCBd.png" width="71"/>
<font>ç«åèé¼ (èç¨æ·ä¸å±)</font>
<span>ä¸è½½</span>
</a>
</li><li>
<a href="/game/21785.htm" target="_blank" title="åçççº·äº">
<img height="71" src="http://image.7723.cn/attachments/icons/920147/E6td4e8Bm73zKtmXHJ64t6BasKNKmZHK.png" width="71"/>
<font>åçççº·äº</font>
<span>ä¸è½½</span>
</a>
</li><li>
<a href="/game/47557.htm" target="_blank" title="åæ°éªå£«">
<img height="71" src="http://image.7723.cn/attachments/icons/20/XDDYcXXX8iDbkhsxbT5txedrNT6r4eSd.png" width="71"/>
<font>åæ°éªå£«</font>
<span>ä¸è½½</span>
</a>
</li><li>
<a href="/game/53293.htm" target="_blank" title="æçæè°">
<img height="71" src="http://image.7723.cn/attachments/icons/20/2DQxkP2ehcjdbpCHGPw2es287Nc6jneb.png" width="71"/>
<font>æçæè°</font>
<span>ä¸è½½</span>
</a>
</li><li>
<a href="/game/53237.htm" target="_blank" title="èµå°å·æçå¤§æ">
<img height="71" src="http://image.7723.cn/attachments/icons/20/mJNsEXzGBRxJnwpTTbnmwHfwrk82BYDy.png" width="71"/>
<font>èµå°å·æçå¤§æ</font>
<span>ä¸è½½</span>
</a>
</li><li>
<a href="/game/74183.htm" target="_blank" title="é«è½æåå¢">
<img height="71" src="http://image.7723.cn/attachments/icons/20/yBSz24t3EkZsExm8F8zABDGxny3PHJE4.png" width="71"/>
<font>é«è½æåå¢</font>
<span>ä¸è½½</span>
</a>
</li>
</ul>
<ul class="fl i_dj ul_dj_4" style="display:none;">
<li>
<a href="/game/77173.htm" target="_blank" title="å¹»ä¹¦å¯ä¸å½">
<em class="xx3"></em> <img height="71" src="http://image.7723.cn/attachments/icons/20/RCJDfB8ibeNeJdasTZxAJtsxnAArdcd7.png" width="71"/>
<font>å¹»ä¹¦å¯ä¸å½</font>
<span>ä¸è½½</span>
</a>
</li>
<li>
<a href="/game/57446.htm" target="_blank" title="å¿èå¿é¡»æ­»3(æ¬¢èåæ¦)">
<em class="xx3"></em> <img height="71" src="http://image.7723.cn/attachments/icons/20/4sTRpTW6cWcAQFt2pKJfeQ3jTFn6E8B4.png" width="71"/>
<font>å¿èå¿é¡»æ­»3(æ¬¢èåæ¦)</font>
<span>ä¸è½½</span>
</a>
</li>
<li>
<a href="/game/61257.htm" target="_blank" title="å°å¹´ä¾ å®¢">
<em class="xx3"></em> <img height="71" src="http://image.7723.cn/attachments/icons/20/2kNyEM44BziNmQPzermZHxFE2QkxJshB.png" width="71"/>
<font>å°å¹´ä¾ å®¢</font>
<span>ä¸è½½</span>
</a>
</li>
<li>
<a href="/game/65419.htm" target="_blank" title="èèäºé¸">
<em class="xx3"></em> <img height="71" src="http://image.7723.cn/sdkopen/icon/54/CPXN8X346xd82ibtXkrdTaDEGFNy8bRw.png" width="71"/>
<font>èèäºé¸</font>
<span>ä¸è½½</span>
</a>
</li>
<li>
<a href="/game/67728.htm" target="_blank" title="èéä¹±æ(å½æ)">
<em class="xx3"></em> <img height="71" src="http://image.7723.cn/attachments/icons/20/yM2x4xnfrTARxDNJm8KPyMSmsdzW6FAY.gif" width="71"/>
<font>èéä¹±æ(å½æ)</font>
<span>ä¸è½½</span>
</a>
</li>
<li>
<a href="/game/74185.htm" target="_blank" title="éä¹æçºª">
<em class="xx3"></em> <img height="71" src="http://image.7723.cn/attachments/icons/20/8znrmZ2DDfkxpPf42QffAmQKSheZBMbf.png" width="71"/>
<font>éä¹æçºª</font>
<span>ä¸è½½</span>
</a>
</li>
<li>
<a href="/game/76947.htm" target="_blank" title="ä¹å·å«èå½">
<em class="xx3"></em> <img height="71" src="http://image.7723.cn/attachments/icons/98/PPZpGJkpccZnm7EkEDEi4n7wdhmbyKRb.png" width="71"/>
<font>ä¹å·å«èå½</font>
<span>ä¸è½½</span>
</a>
</li>
<li>
<a href="/game/68818.htm" target="_blank" title="ç«åèé¼ ">
<em class="xx3"></em> <img height="71" src="http://image.7723.cn/attachments/icons/20/xYADCJxRw8rz6aPDr5MFrhYsipxhPaat.png" width="71"/>
<font>ç«åèé¼ </font>
<span>ä¸è½½</span>
</a>
</li>
<li>
<a href="/game/60172.htm" target="_blank" title="ä¼æ´çº³">
<em class="xx3"></em> <img height="71" src="http://image.7723.cn/attachments/icons/20/Ee2kkH2nP54n6YhniQEM8XPXRMiPSNJc.png" width="71"/>
<font>ä¼æ´çº³</font>
<span>ä¸è½½</span>
</a>
</li>
<li>
<a href="/game/65371.htm" target="_blank" title="å¦åä¸çéªå»æ">
<em class="xx3"></em> <img height="71" src="http://image.7723.cn/sdkopen/icon/54/5C7sjtf5Z3d4mtrWf3KfdeyYcQnFy7sz.png" width="71"/>
<font>å¦åä¸çéªå»æ</font>
<span>ä¸è½½</span>
</a>
</li>
<li>
<a href="/game/72375.htm" target="_blank" title="å¢¨é­">
<em class="xx3"></em> <img height="71" src="http://image.7723.cn/sdkopen/icon/54/6PyC3E2pkyX4TmW6ZRTAf8kZECMrw6Q3.png" width="71"/>
<font>å¢¨é­</font>
<span>ä¸è½½</span>
</a>
</li>
<li>
<a href="/game/63418.htm" target="_blank" title="ç»¿èµä¹å·">
<em class="xx3"></em> <img height="71" src="http://image.7723.cn/attachments/icons/58/JzQrjXT44KFkKfcjaMtbzBpDTsxJTAP7.png" width="71"/>
<font>ç»¿èµä¹å·</font>
<span>ä¸è½½</span>
</a>
</li>
<li>
<a href="/game/54998.htm" target="_blank" title="ä¸èµ·æ¥æå¦">
<em class="xx3"></em> <img height="71" src="http://image.7723.cn/attachments/icons/98/njF64SFcCM5kJAb5Na5DDmhzyMcCGA3B.png" width="71"/>
<font>ä¸èµ·æ¥æå¦</font>
<span>ä¸è½½</span>
</a>
</li>
<li>
<a href="/game/72080.htm" target="_blank" title="èå°é£äº">
<em class="xx3"></em> <img height="71" src="http://image.7723.cn/sdkopen/icon/814/skeM6wmGJEMXDfTANhzcZCPADmDPfKBR.png" width="71"/>
<font>èå°é£äº</font>
<span>ä¸è½½</span>
</a>
</li>
<li>
<a href="/game/14678.htm" target="_blank" title="æ¢¦å¹»è¥¿æ¸¸">
<em class="xx3"></em> <img height="71" src="http://image.7723.cn/attachments/icons/98/Z6eNQyiDjQhWrHZs8JDWCxaEkEZZwrYz.png" width="71"/>
<font>æ¢¦å¹»è¥¿æ¸¸</font>
<span>ä¸è½½</span>
</a>
</li>
<li>
<a href="/game/61274.htm" target="_blank" title="ä»ä¾ ç¬¬ä¸æ¾ç½®">
<em class="xx3"></em> <img height="71" src="http://image.7723.cn/sdkopen/icon/43/bCyH5R8Fz5d6z2MnKX4xC7XznmzmTP6T.png" width="71"/>
<font>ä»ä¾ ç¬¬ä¸æ¾ç½®</font>
<span>ä¸è½½</span>
</a>
</li>
<li>
<a href="/game/40855.htm" target="_blank" title="QQåå¤ææ¸¸">
<em class="xx3"></em> <img height="71" src="http://image.7723.cn/attachments/icons/20/MmwD5rdG3k5xX6Jrh2YrTJ5aA2aMerCT.png" width="71"/>
<font>QQåå¤ææ¸¸</font>
<span>ä¸è½½</span>
</a>
</li>
<li>
<a href="/game/56967.htm" target="_blank" title="åç½3ï¼æå°æ±æ¹">
<em class="xx3"></em> <img height="71" src="http://image.7723.cn/attachments/icons/20/Sn6pyMrDpmm2jQP3YKasppE5FZAD3843.png" width="71"/>
<font>åç½3ï¼æå°æ±æ¹</font>
<span>ä¸è½½</span>
</a>
</li>
<li>
<a href="/game/53864.htm" target="_blank" title="å®ç¾ä¸ç">
<em class="xx3"></em> <img height="71" src="http://image.7723.cn/attachments/icons/40/CzNW4rXP6WAG8yMGxS7b8zhtC5FJ7Cbh.png" width="71"/>
<font>å®ç¾ä¸ç</font>
<span>ä¸è½½</span>
</a>
</li>
<li>
<a href="/game/48109.htm" target="_blank" title="å¨æ°å åè¶³ç">
<em class="xx3"></em> <img height="71" src="http://image.7723.cn/attachments/icons/20/Dc5XM2bG6KWJskZrWt8SSJjxYdxZCQzx.png" width="71"/>
<font>å¨æ°å åè¶³ç</font>
<span>ä¸è½½</span>
</a>
</li>
<li>
<a href="/game/75095.htm" target="_blank" title="é¸¿å¾ä¹ä¸">
<em class="xx3"></em> <img height="71" src="http://image.7723.cn/attachments/icons/20/JeKeC7Qd33MkRkxFP2M6wRyHrW4c5pyx.png" width="71"/>
<font>é¸¿å¾ä¹ä¸</font>
<span>ä¸è½½</span>
</a>
</li>
</ul>
<p class="qc"></p>
</div>
<div class="w pj_t1 sy_g"></div>
<div class="w">
<div class="fl i_dj_t">
<h2><a href="/netgame/">ææºç½æ¸¸</a></h2>
<a class="dj_xx xz" href="javascript:;" onclick="over_ul_toggle(2,'wy',this);" val="new">æ°æ¸¸</a>
<a class="dj_xx" href="javascript:;" onclick="over_ul_toggle(3,'wy',this);" val="hot">ç­é¨</a>
<a class="dj_xx" href="javascript:;" onclick="over_ul_toggle(4,'wy',this);" val="five">äºæ</a>
<a class="pj_gd" href="/netgame/new/" tag="netgame" target="_blank">æ´å¤</a>
</div>
<ul class="fl i_dj ul_wy_2">
<li>
<a href="/game/77173.htm" target="_blank" title="å¹»ä¹¦å¯ä¸å½">
<em class="xx3"></em> <img height="71" src="http://image.7723.cn/attachments/icons/20/RCJDfB8ibeNeJdasTZxAJtsxnAArdcd7.png" width="71"/>
<font>å¹»ä¹¦å¯ä¸å½</font>
<span>ä¸è½½</span>
</a>
</li>
<li>
<a href="/game/57446.htm" target="_blank" title="å¿èå¿é¡»æ­»3(æ¬¢èåæ¦)">
<em class="xx3"></em> <img height="71" src="http://image.7723.cn/attachments/icons/20/4sTRpTW6cWcAQFt2pKJfeQ3jTFn6E8B4.png" width="71"/>
<font>å¿èå¿é¡»æ­»3(æ¬¢èåæ¦)</font>
<span>ä¸è½½</span>
</a>
</li>
<li>
<a href="/game/77255.htm" target="_blank" title="è¿å¾2">
<em class="xx3"></em> <img height="71" src="http://image.7723.cn/sdkopen/icon/43/BRfjyh638icasYAyNTmayGhRS5x5WxhE.png" width="71"/>
<font>è¿å¾2</font>
<span>ä¸è½½</span>
</a>
</li>
<li>
<a href="/game/67728.htm" target="_blank" title="èéä¹±æ(å½æ)">
<em class="xx3"></em> <img height="71" src="http://image.7723.cn/attachments/icons/20/yM2x4xnfrTARxDNJm8KPyMSmsdzW6FAY.gif" width="71"/>
<font>èéä¹±æ(å½æ)</font>
<span>ä¸è½½</span>
</a>
</li>
<li>
<a href="/game/74185.htm" target="_blank" title="éä¹æçºª">
<em class="xx3"></em> <img height="71" src="http://image.7723.cn/attachments/icons/20/8znrmZ2DDfkxpPf42QffAmQKSheZBMbf.png" width="71"/>
<font>éä¹æçºª</font>
<span>ä¸è½½</span>
</a>
</li>
<li>
<a href="/game/76947.htm" target="_blank" title="ä¹å·å«èå½">
<em class="xx3"></em> <img height="71" src="http://image.7723.cn/attachments/icons/98/PPZpGJkpccZnm7EkEDEi4n7wdhmbyKRb.png" width="71"/>
<font>ä¹å·å«èå½</font>
<span>ä¸è½½</span>
</a>
</li>
<li>
<a href="/game/68818.htm" target="_blank" title="ç«åèé¼ ">
<em class="xx3"></em> <img height="71" src="http://image.7723.cn/attachments/icons/20/xYADCJxRw8rz6aPDr5MFrhYsipxhPaat.png" width="71"/>
<font>ç«åèé¼ </font>
<span>ä¸è½½</span>
</a>
</li>
<li>
<a href="/game/60172.htm" target="_blank" title="ä¼æ´çº³">
<em class="xx3"></em> <img height="71" src="http://image.7723.cn/attachments/icons/20/Ee2kkH2nP54n6YhniQEM8XPXRMiPSNJc.png" width="71"/>
<font>ä¼æ´çº³</font>
<span>ä¸è½½</span>
</a>
</li>
<li>
<a href="/game/65371.htm" target="_blank" title="å¦åä¸çéªå»æ">
<em class="xx3"></em> <img height="71" src="http://image.7723.cn/sdkopen/icon/54/5C7sjtf5Z3d4mtrWf3KfdeyYcQnFy7sz.png" width="71"/>
<font>å¦åä¸çéªå»æ</font>
<span>ä¸è½½</span>
</a>
</li>
<li>
<a href="/game/72375.htm" target="_blank" title="å¢¨é­">
<em class="xx3"></em> <img height="71" src="http://image.7723.cn/sdkopen/icon/54/6PyC3E2pkyX4TmW6ZRTAf8kZECMrw6Q3.png" width="71"/>
<font>å¢¨é­</font>
<span>ä¸è½½</span>
</a>
</li>
<li>
<a href="/game/21785.htm" target="_blank" title="åçççº·äº">
<em class="xx3"></em> <img height="71" src="http://image.7723.cn/attachments/icons/920147/E6td4e8Bm73zKtmXHJ64t6BasKNKmZHK.png" width="71"/>
<font>åçççº·äº</font>
<span>ä¸è½½</span>
</a>
</li>
<li>
<a href="/game/63418.htm" target="_blank" title="ç»¿èµä¹å·">
<em class="xx3"></em> <img height="71" src="http://image.7723.cn/attachments/icons/58/JzQrjXT44KFkKfcjaMtbzBpDTsxJTAP7.png" width="71"/>
<font>ç»¿èµä¹å·</font>
<span>ä¸è½½</span>
</a>
</li>
<li>
<a href="/game/54998.htm" target="_blank" title="ä¸èµ·æ¥æå¦">
<em class="xx3"></em> <img height="71" src="http://image.7723.cn/attachments/icons/98/njF64SFcCM5kJAb5Na5DDmhzyMcCGA3B.png" width="71"/>
<font>ä¸èµ·æ¥æå¦</font>
<span>ä¸è½½</span>
</a>
</li>
<li>
<a href="/game/72080.htm" target="_blank" title="èå°é£äº">
<em class="xx3"></em> <img height="71" src="http://image.7723.cn/sdkopen/icon/814/skeM6wmGJEMXDfTANhzcZCPADmDPfKBR.png" width="71"/>
<font>èå°é£äº</font>
<span>ä¸è½½</span>
</a>
</li>
<li>
<a href="/game/14678.htm" target="_blank" title="æ¢¦å¹»è¥¿æ¸¸">
<em class="xx3"></em> <img height="71" src="http://image.7723.cn/attachments/icons/98/Z6eNQyiDjQhWrHZs8JDWCxaEkEZZwrYz.png" width="71"/>
<font>æ¢¦å¹»è¥¿æ¸¸</font>
<span>ä¸è½½</span>
</a>
</li>
<li>
<a href="/game/61274.htm" target="_blank" title="ä»ä¾ ç¬¬ä¸æ¾ç½®">
<em class="xx3"></em> <img height="71" src="http://image.7723.cn/sdkopen/icon/43/bCyH5R8Fz5d6z2MnKX4xC7XznmzmTP6T.png" width="71"/>
<font>ä»ä¾ ç¬¬ä¸æ¾ç½®</font>
<span>ä¸è½½</span>
</a>
</li>
<li>
<a href="/game/23863.htm" target="_blank" title="ç«å½±å¿è">
<em class="xx3"></em> <img height="71" src="http://image.7723.cn/attachments/icons/20/e2KMm7rAbYZcwmWyGEczYKhw7kWkpQEW.png" width="71"/>
<font>ç«å½±å¿è</font>
<span>ä¸è½½</span>
</a>
</li>
<li>
<a href="/game/37206.htm" target="_blank" title="æå¼ºNBA">
<em class="xx3"></em> <img height="71" src="http://image.7723.cn/attachments/icons/20/wr738cSBP6cwwWx8tHiGBkJcypCbEe3P.png" width="71"/>
<font>æå¼ºNBA</font>
<span>ä¸è½½</span>
</a>
</li>
<li>
<a href="/game/40855.htm" target="_blank" title="QQåå¤ææ¸¸">
<em class="xx3"></em> <img height="71" src="http://image.7723.cn/attachments/icons/20/MmwD5rdG3k5xX6Jrh2YrTJ5aA2aMerCT.png" width="71"/>
<font>QQåå¤ææ¸¸</font>
<span>ä¸è½½</span>
</a>
</li>
<li>
<a href="/game/56967.htm" target="_blank" title="åç½3ï¼æå°æ±æ¹">
<em class="xx3"></em> <img height="71" src="http://image.7723.cn/attachments/icons/20/Sn6pyMrDpmm2jQP3YKasppE5FZAD3843.png" width="71"/>
<font>åç½3ï¼æå°æ±æ¹</font>
<span>ä¸è½½</span>
</a>
</li>
<li>
<a href="/game/53864.htm" target="_blank" title="å®ç¾ä¸ç">
<em class="xx3"></em> <img height="71" src="http://image.7723.cn/attachments/icons/40/CzNW4rXP6WAG8yMGxS7b8zhtC5FJ7Cbh.png" width="71"/>
<font>å®ç¾ä¸ç</font>
<span>ä¸è½½</span>
</a>
</li>
<li>
<a href="/game/48109.htm" target="_blank" title="å¨æ°å åè¶³ç">
<em class="xx3"></em> <img height="71" src="http://image.7723.cn/attachments/icons/20/Dc5XM2bG6KWJskZrWt8SSJjxYdxZCQzx.png" width="71"/>
<font>å¨æ°å åè¶³ç</font>
<span>ä¸è½½</span>
</a>
</li>
<li>
<a href="/game/75095.htm" target="_blank" title="é¸¿å¾ä¹ä¸">
<em class="xx3"></em> <img height="71" src="http://image.7723.cn/attachments/icons/20/JeKeC7Qd33MkRkxFP2M6wRyHrW4c5pyx.png" width="71"/>
<font>é¸¿å¾ä¹ä¸</font>
<span>ä¸è½½</span>
</a>
</li>
<li>
<a href="/game/71770.htm" target="_blank" title="å¨çè¡å¨(é¦å¸­ææ¥å®SKY)">
<em class="xx3"></em> <img height="71" src="http://image.7723.cn/attachments/icons/20/YMHXRTaZ8DxXYKKiphJzyaKREzCtG6ZF.png" width="71"/>
<font>å¨çè¡å¨(é¦å¸­ææ¥å®SKY)</font>
<span>ä¸è½½</span>
</a>
</li>
<li>
<a href="/game/72009.htm" target="_blank" title="å¡å¡å¸å½">
<em class="xx3"></em> <img height="71" src="http://image.7723.cn/sdkopen/icon/54/rAjdxHA8cnMBWmbCTCkaKFXXAMnfa54H.png" width="71"/>
<font>å¡å¡å¸å½</font>
<span>ä¸è½½</span>
</a>
</li>
<li>
<a href="/game/72778.htm" target="_blank" title="æé­é­äºº(å£è¯èçæ¬)">
<em class="xx3"></em> <img height="71" src="http://image.7723.cn/attachments/icons/20/Y727EtPwYKTZnAXBzsGXk6y2dkJTYmdi.png" width="71"/>
<font>æé­é­äºº(å£è¯èçæ¬)</font>
<span>ä¸è½½</span>
</a>
</li>
<li>
<a href="/game/71679.htm" target="_blank" title="æçå¦åæçå¢">
<em class="xx3"></em> <img height="71" src="http://image.7723.cn/sdkopen/icon/54/P8pX28MM2BPEkNymiiHNe4xAM4YyFR5J.png" width="71"/>
<font>æçå¦åæçå¢</font>
<span>ä¸è½½</span>
</a>
</li>
<li>
<a href="/game/72868.htm" target="_blank" title="å¼å¿æä¸å½">
<em class="xx3"></em> <img height="71" src="http://image.7723.cn/sdkopen/icon/54/HBsBQNchZ8cdHEeykk7kYwN7Gh4xkfxe.png" width="71"/>
<font>å¼å¿æä¸å½</font>
<span>ä¸è½½</span>
</a>
</li>
</ul>
<ul class="fl i_dj ul_wy_3" style="display:none;">
<li>
<a href="/game/24329.htm" target="_blank" title="çèè£è">
<em class="xx3"></em> <img height="71" src="http://image.7723.cn/attachments/icons/20/3EPTyCZBBs3EheN6H3x3The7scBa24yk.png" width="71"/>
<font>çèè£è</font>
<span>ä¸è½½</span>
</a>
</li>
<li>
<a href="/game/24335.htm" target="_blank" title="ç©¿è¶ç«çº¿(5å¨å¹´åºå¸)">
<em class="xx3"></em> <img height="71" src="http://image.7723.cn/attachments/icons/20/SEXGHwwEAKd7An63eHkmB5r8yZDcdhrm.png" width="71"/>
<font>ç©¿è¶ç«çº¿(5å¨å¹´åºå¸)</font>
<span>ä¸è½½</span>
</a>
</li>
<li>
<a href="/game/36338.htm" target="_blank" title="æçä¸ç">
<em class="xx3"></em> <img height="71" src="http://image.7723.cn/attachments/icons/20/mkSNQPcSiEjTd6XsmPYxZnfJW2ysbDDN.png" width="71"/>
<font>æçä¸ç</font>
<span>ä¸è½½</span>
</a>
</li>
<li>
<a href="/game/39960.htm" target="_blank" title="åå¹³ç²¾è±(SS11èµå­£å¼å¯)">
<em class="xx3"></em> <img height="71" src="http://image.7723.cn/attachments/icons/20/bpw7E7ZdTRFWrkrEmHisA5tFBbicett7.png" width="71"/>
<font>åå¹³ç²¾è±(SS11èµå­£å¼å¯)</font>
<span>ä¸è½½</span>
</a>
</li>
<li>
<a href="/game/21378.htm" target="_blank" title="é¨è½å²çª">
<em class="xx3"></em> <img height="71" src="http://image.7723.cn/attachments/icons/920147/CzwkGFYTjz4HH8jATZmEbJxTtF6hyWK6.png" width="71"/>
<font>é¨è½å²çª</font>
<span>ä¸è½½</span>
</a>
</li>
<li>
<a href="/game/39802.htm" target="_blank" title="ççæäº:ææéå¯">
<em class="xx3"></em> <img height="71" src="http://image.7723.cn/attachments/icons/20/3pnWMrKDAhzrCY3pCskejGxRzSHMiyQp.png" width="71"/>
<font>ççæäº:ææéå¯</font>
<span>ä¸è½½</span>
</a>
</li>
<li>
<a href="/game/56484.htm" target="_blank" title="ç«åèé¼ (èç¨æ·ä¸å±)">
<em class="xx3"></em> <img height="71" src="http://image.7723.cn/attachments/icons/20/n33TP468FFshieEhEppKiCxCfDfrdCBd.png" width="71"/>
<font>ç«åèé¼ (èç¨æ·ä¸å±)</font>
<span>ä¸è½½</span>
</a>
</li>
<li>
<a href="/game/49897.htm" target="_blank" title="ææ¥ä¹å">
<em class="xx3"></em> <img height="71" src="http://image.7723.cn/attachments/icons/20/Q3tjYnG3eirNTA8WaCD238A7JH3QD5SE.png" width="71"/>
<font>ææ¥ä¹å</font>
<span>ä¸è½½</span>
</a>
</li>
<li>
<a href="/game/41194.htm" target="_blank" title="ç¬¬äºäººæ ¼(æªå¼¹è¾©é©³èå¨)">
<em class="xx3"></em> <img height="71" src="http://image.7723.cn/attachments/icons/20/m86kyZnpMBcfPK2ahpD8ifBXfy6b2Y5e.png" width="71"/>
<font>ç¬¬äºäººæ ¼(æªå¼¹è¾©é©³èå¨)</font>
<span>ä¸è½½</span>
</a>
</li>
<li>
<a href="/game/38943.htm" target="_blank" title="QQé£è½¦(å¥¥ç¹æ¼èå¨)">
<em class="xx3"></em> <img height="71" src="http://image.7723.cn/attachments/icons/20/nDMECNAaE47iNRHp6FEdScAhCT8YKJBm.png" width="71"/>
<font>QQé£è½¦(å¥¥ç¹æ¼èå¨)</font>
<span>ä¸è½½</span>
</a>
</li>
<li>
<a href="/game/23863.htm" target="_blank" title="ç«å½±å¿è">
<em class="xx3"></em> <img height="71" src="http://image.7723.cn/attachments/icons/20/e2KMm7rAbYZcwmWyGEczYKhw7kWkpQEW.png" width="71"/>
<font>ç«å½±å¿è</font>
<span>ä¸è½½</span>
</a>
</li>
<li>
<a href="/game/49369.htm" target="_blank" title="é¨è½å²çª:çå®¤æäº">
<em class="xx3"></em> <img height="71" src="http://image.7723.cn/attachments/icons/20/wJseGPYAZB7hedffBetkPhzX57GEYJeC.png" width="71"/>
<font>é¨è½å²çª:çå®¤æäº</font>
<span>ä¸è½½</span>
</a>
</li>
<li>
<a href="/game/57490.htm" target="_blank" title="æ¿æç«æ´äºº">
<em class="xx3"></em> <img height="71" src="http://image.7723.cn/attachments/icons/58/7eYYpzF7Nzc44n4zRtS27ZYrHiSGnyAm.png" width="71"/>
<font>æ¿æç«æ´äºº</font>
<span>ä¸è½½</span>
</a>
</li>
<li>
<a href="/game/41067.htm" target="_blank" title="åé ä¸é­æ³">
<em class="xx3"></em> <img height="71" src="http://image.7723.cn/attachments/icons/20/CpBADQ6z4SskixrT7dxmWmRMaicNCaKy.png" width="71"/>
<font>åé ä¸é­æ³</font>
<span>ä¸è½½</span>
</a>
</li>
<li>
<a href="/game/39118.htm" target="_blank" title="å¥¥ç¹æ¼ç³»åOL">
<em class="xx3"></em> <img height="71" src="http://image.7723.cn/attachments/icons/20/XNGZfEtw8JmWWXFhhbaSGaEM62xrRPWA.png" width="71"/>
<font>å¥¥ç¹æ¼ç³»åOL</font>
<span>ä¸è½½</span>
</a>
</li>
<li>
<a href="/game/64930.htm" target="_blank" title="éè£ä¸éµ(æ°èµå­£å¼å¯)">
<em class="xx3"></em> <img height="71" src="http://image.7723.cn/attachments/icons/20/e6He2bx2bfdiZP7nZ5zNe5Ss2wFy5MaJ.png" width="71"/>
<font>éè£ä¸éµ(æ°èµå­£å¼å¯)</font>
<span>ä¸è½½</span>
</a>
</li>
<li>
<a href="/game/39114.htm" target="_blank" title="è±é­ä¹å">
<em class="xx3"></em> <img height="71" src="http://image.7723.cn/attachments/icons/20/TKXb4p8G5zWsmWb3eyTcYm7hFbDakcZr.png" width="71"/>
<font>è±é­ä¹å</font>
<span>ä¸è½½</span>
</a>
</li>
<li>
<a href="/game/58523.htm" target="_blank" title="ä¹é«æ é">
<em class="xx3"></em> <img height="71" src="http://image.7723.cn/attachments/icons/20/xtjifZER5YsMSJfkfKE76P3QQ5AaTNes.png" width="71"/>
<font>ä¹é«æ é</font>
<span>ä¸è½½</span>
</a>
</li>
<li>
<a href="/game/39421.htm" target="_blank" title="å°å°çªå»é">
<em class="xx3"></em> <img height="71" src="http://image.7723.cn/attachments/icons/20/DifyrdzGSQYSXBGWJEy4QZxMG2abd55d.png" width="71"/>
<font>å°å°çªå»é</font>
<span>ä¸è½½</span>
</a>
</li>
<li>
<a href="/game/45319.htm" target="_blank" title="æµ·å²å¥åµ">
<em class="xx3"></em> <img height="71" src="http://image.7723.cn/attachments/icons/32/xX5CzXdJ8FEE2Fwr8RA3WexZj6P4nH6n.png" width="71"/>
<font>æµ·å²å¥åµ</font>
<span>ä¸è½½</span>
</a>
</li>
<li>
<a href="/game/52214.htm" target="_blank" title="éå¸å¤§å¯ç¿">
<em class="xx3"></em> <img height="71" src="http://image.7723.cn/attachments/icons/58/SbHGd5HFp4nJzbPN3pabdWhHfKt3jtRa.png" width="71"/>
<font>éå¸å¤§å¯ç¿</font>
<span>ä¸è½½</span>
</a>
</li>
<li>
<a href="/game/37237.htm" target="_blank" title="ç«æ´äººèç2">
<em class="xx3"></em> <img height="71" src="http://image.7723.cn/attachments/icons/58/tntfNhYEnNP5pTjzYEt3mY3KwKnbMJBH.gif" width="71"/>
<font>ç«æ´äººèç2</font>
<span>ä¸è½½</span>
</a>
</li>
<li>
<a href="/game/39123.htm" target="_blank" title="é æ¢¦è¥¿æ¸¸OL">
<em class="xx3"></em> <img height="71" src="http://image.7723.cn/attachments/icons/58/kfDiPJrtFDW3TGTZjMpP3mbYN6cFbpad.png" width="71"/>
<font>é æ¢¦è¥¿æ¸¸OL</font>
<span>ä¸è½½</span>
</a>
</li>
<li>
<a href="/game/35849.htm" target="_blank" title="å¥¶å">
<em class="xx3"></em> <img height="71" src="http://image.7723.cn/attachments/icons/58/4DTmen2YSmFF6sptYnP8Qy5NzPHjDkz8.png" width="71"/>
<font>å¥¶å</font>
<span>ä¸è½½</span>
</a>
</li>
<li>
<a href="/game/39121.htm" target="_blank" title="æ¶ç©ºå¬å¤">
<em class="xx3"></em> <img height="71" src="http://image.7723.cn/attachments/icons/20/eH6xttXSKfNnmER8PHk85DptJt3AaGY8.png" width="71"/>
<font>æ¶ç©ºå¬å¤</font>
<span>ä¸è½½</span>
</a>
</li>
<li>
<a href="/game/67728.htm" target="_blank" title="èéä¹±æ(å½æ)">
<em class="xx3"></em> <img height="71" src="http://image.7723.cn/attachments/icons/20/yM2x4xnfrTARxDNJm8KPyMSmsdzW6FAY.gif" width="71"/>
<font>èéä¹±æ(å½æ)</font>
<span>ä¸è½½</span>
</a>
</li>
<li>
<a href="/game/59211.htm" target="_blank" title="å¥è©ææå®¶">
<em class="xx3"></em> <img height="71" src="http://image.7723.cn/attachments/icons/40/iHJrWAGzrDwSpACmWiPXwempS2kjFtRD.png" width="71"/>
<font>å¥è©ææå®¶</font>
<span>ä¸è½½</span>
</a>
</li>
<li>
<a href="/game/52446.htm" target="_blank" title="é¹é¹å¤©å®«">
<em class="xx3"></em> <img height="71" src="http://image.7723.cn/attachments/icons/40/NhpM8XGHBGYrpDh8cJKfByw8TDeDcsjB.png" width="71"/>
<font>é¹é¹å¤©å®«</font>
<span>ä¸è½½</span>
</a>
</li>
</ul>
<ul class="fl i_dj ul_wy_4" style="display:none;">
<li>
<a href="/game/77173.htm" target="_blank" title="å¹»ä¹¦å¯ä¸å½">
<em class="xx3"></em> <img height="71" src="http://image.7723.cn/attachments/icons/20/RCJDfB8ibeNeJdasTZxAJtsxnAArdcd7.png" width="71"/>
<font>å¹»ä¹¦å¯ä¸å½</font>
<span>ä¸è½½</span>
</a>
</li>
<li>
<a href="/game/57446.htm" target="_blank" title="å¿èå¿é¡»æ­»3(æ¬¢èåæ¦)">
<em class="xx3"></em> <img height="71" src="http://image.7723.cn/attachments/icons/20/4sTRpTW6cWcAQFt2pKJfeQ3jTFn6E8B4.png" width="71"/>
<font>å¿èå¿é¡»æ­»3(æ¬¢èåæ¦)</font>
<span>ä¸è½½</span>
</a>
</li>
<li>
<a href="/game/67728.htm" target="_blank" title="èéä¹±æ(å½æ)">
<em class="xx3"></em> <img height="71" src="http://image.7723.cn/attachments/icons/20/yM2x4xnfrTARxDNJm8KPyMSmsdzW6FAY.gif" width="71"/>
<font>èéä¹±æ(å½æ)</font>
<span>ä¸è½½</span>
</a>
</li>
<li>
<a href="/game/74185.htm" target="_blank" title="éä¹æçºª">
<em class="xx3"></em> <img height="71" src="http://image.7723.cn/attachments/icons/20/8znrmZ2DDfkxpPf42QffAmQKSheZBMbf.png" width="71"/>
<font>éä¹æçºª</font>
<span>ä¸è½½</span>
</a>
</li>
<li>
<a href="/game/76947.htm" target="_blank" title="ä¹å·å«èå½">
<em class="xx3"></em> <img height="71" src="http://image.7723.cn/attachments/icons/98/PPZpGJkpccZnm7EkEDEi4n7wdhmbyKRb.png" width="71"/>
<font>ä¹å·å«èå½</font>
<span>ä¸è½½</span>
</a>
</li>
<li>
<a href="/game/68818.htm" target="_blank" title="ç«åèé¼ ">
<em class="xx3"></em> <img height="71" src="http://image.7723.cn/attachments/icons/20/xYADCJxRw8rz6aPDr5MFrhYsipxhPaat.png" width="71"/>
<font>ç«åèé¼ </font>
<span>ä¸è½½</span>
</a>
</li>
<li>
<a href="/game/60172.htm" target="_blank" title="ä¼æ´çº³">
<em class="xx3"></em> <img height="71" src="http://image.7723.cn/attachments/icons/20/Ee2kkH2nP54n6YhniQEM8XPXRMiPSNJc.png" width="71"/>
<font>ä¼æ´çº³</font>
<span>ä¸è½½</span>
</a>
</li>
<li>
<a href="/game/65371.htm" target="_blank" title="å¦åä¸çéªå»æ">
<em class="xx3"></em> <img height="71" src="http://image.7723.cn/sdkopen/icon/54/5C7sjtf5Z3d4mtrWf3KfdeyYcQnFy7sz.png" width="71"/>
<font>å¦åä¸çéªå»æ</font>
<span>ä¸è½½</span>
</a>
</li>
<li>
<a href="/game/72375.htm" target="_blank" title="å¢¨é­">
<em class="xx3"></em> <img height="71" src="http://image.7723.cn/sdkopen/icon/54/6PyC3E2pkyX4TmW6ZRTAf8kZECMrw6Q3.png" width="71"/>
<font>å¢¨é­</font>
<span>ä¸è½½</span>
</a>
</li>
<li>
<a href="/game/63418.htm" target="_blank" title="ç»¿èµä¹å·">
<em class="xx3"></em> <img height="71" src="http://image.7723.cn/attachments/icons/58/JzQrjXT44KFkKfcjaMtbzBpDTsxJTAP7.png" width="71"/>
<font>ç»¿èµä¹å·</font>
<span>ä¸è½½</span>
</a>
</li>
<li>
<a href="/game/54998.htm" target="_blank" title="ä¸èµ·æ¥æå¦">
<em class="xx3"></em> <img height="71" src="http://image.7723.cn/attachments/icons/98/njF64SFcCM5kJAb5Na5DDmhzyMcCGA3B.png" width="71"/>
<font>ä¸èµ·æ¥æå¦</font>
<span>ä¸è½½</span>
</a>
</li>
<li>
<a href="/game/72080.htm" target="_blank" title="èå°é£äº">
<em class="xx3"></em> <img height="71" src="http://image.7723.cn/sdkopen/icon/814/skeM6wmGJEMXDfTANhzcZCPADmDPfKBR.png" width="71"/>
<font>èå°é£äº</font>
<span>ä¸è½½</span>
</a>
</li>
<li>
<a href="/game/14678.htm" target="_blank" title="æ¢¦å¹»è¥¿æ¸¸">
<em class="xx3"></em> <img height="71" src="http://image.7723.cn/attachments/icons/98/Z6eNQyiDjQhWrHZs8JDWCxaEkEZZwrYz.png" width="71"/>
<font>æ¢¦å¹»è¥¿æ¸¸</font>
<span>ä¸è½½</span>
</a>
</li>
<li>
<a href="/game/61274.htm" target="_blank" title="ä»ä¾ ç¬¬ä¸æ¾ç½®">
<em class="xx3"></em> <img height="71" src="http://image.7723.cn/sdkopen/icon/43/bCyH5R8Fz5d6z2MnKX4xC7XznmzmTP6T.png" width="71"/>
<font>ä»ä¾ ç¬¬ä¸æ¾ç½®</font>
<span>ä¸è½½</span>
</a>
</li>
<li>
<a href="/game/40855.htm" target="_blank" title="QQåå¤ææ¸¸">
<em class="xx3"></em> <img height="71" src="http://image.7723.cn/attachments/icons/20/MmwD5rdG3k5xX6Jrh2YrTJ5aA2aMerCT.png" width="71"/>
<font>QQåå¤ææ¸¸</font>
<span>ä¸è½½</span>
</a>
</li>
<li>
<a href="/game/56967.htm" target="_blank" title="åç½3ï¼æå°æ±æ¹">
<em class="xx3"></em> <img height="71" src="http://image.7723.cn/attachments/icons/20/Sn6pyMrDpmm2jQP3YKasppE5FZAD3843.png" width="71"/>
<font>åç½3ï¼æå°æ±æ¹</font>
<span>ä¸è½½</span>
</a>
</li>
<li>
<a href="/game/53864.htm" target="_blank" title="å®ç¾ä¸ç">
<em class="xx3"></em> <img height="71" src="http://image.7723.cn/attachments/icons/40/CzNW4rXP6WAG8yMGxS7b8zhtC5FJ7Cbh.png" width="71"/>
<font>å®ç¾ä¸ç</font>
<span>ä¸è½½</span>
</a>
</li>
<li>
<a href="/game/48109.htm" target="_blank" title="å¨æ°å åè¶³ç">
<em class="xx3"></em> <img height="71" src="http://image.7723.cn/attachments/icons/20/Dc5XM2bG6KWJskZrWt8SSJjxYdxZCQzx.png" width="71"/>
<font>å¨æ°å åè¶³ç</font>
<span>ä¸è½½</span>
</a>
</li>
<li>
<a href="/game/75095.htm" target="_blank" title="é¸¿å¾ä¹ä¸">
<em class="xx3"></em> <img height="71" src="http://image.7723.cn/attachments/icons/20/JeKeC7Qd33MkRkxFP2M6wRyHrW4c5pyx.png" width="71"/>
<font>é¸¿å¾ä¹ä¸</font>
<span>ä¸è½½</span>
</a>
</li>
<li>
<a href="/game/71770.htm" target="_blank" title="å¨çè¡å¨(é¦å¸­ææ¥å®SKY)">
<em class="xx3"></em> <img height="71" src="http://image.7723.cn/attachments/icons/20/YMHXRTaZ8DxXYKKiphJzyaKREzCtG6ZF.png" width="71"/>
<font>å¨çè¡å¨(é¦å¸­ææ¥å®SKY)</font>
<span>ä¸è½½</span>
</a>
</li>
<li>
<a href="/game/72778.htm" target="_blank" title="æé­é­äºº(å£è¯èçæ¬)">
<em class="xx3"></em> <img height="71" src="http://image.7723.cn/attachments/icons/20/Y727EtPwYKTZnAXBzsGXk6y2dkJTYmdi.png" width="71"/>
<font>æé­é­äºº(å£è¯èçæ¬)</font>
<span>ä¸è½½</span>
</a>
</li>
<li>
<a href="/game/66827.htm" target="_blank" title="è¾å°:é¿é¾æOnline">
<em class="xx3"></em> <img height="71" src="http://image.7723.cn/attachments/icons/20/zkGZPrt5FAHSfzA6AaJiWsMBFxBrTPmk.png" width="71"/>
<font>è¾å°:é¿é¾æOnline</font>
<span>ä¸è½½</span>
</a>
</li>
<li>
<a href="/game/58255.htm" target="_blank" title="å¡å°ä¹å">
<em class="xx3"></em> <img height="71" src="http://image.7723.cn/attachments/icons/98/Sjs57BMCkNjyi2YdPckTJzQZ6NeN6hMX.png" width="71"/>
<font>å¡å°ä¹å</font>
<span>ä¸è½½</span>
</a>
</li>
<li>
<a href="/game/24329.htm" target="_blank" title="çèè£è">
<em class="xx3"></em> <img height="71" src="http://image.7723.cn/attachments/icons/20/3EPTyCZBBs3EheN6H3x3The7scBa24yk.png" width="71"/>
<font>çèè£è</font>
<span>ä¸è½½</span>
</a>
</li>
<li>
<a href="/game/77147.htm" target="_blank" title="å¹»çä¼ è¯´">
<em class="xx3"></em> <img height="71" src="http://image.7723.cn/attachments/icons/98/tWKtaYFpXfyYsXmRGBw4i5hXJ8mNSJQk.gif" width="71"/>
<font>å¹»çä¼ è¯´</font>
<span>ä¸è½½</span>
</a>
</li>
<li>
<a href="/game/57539.htm" target="_blank" title="æçä½¿å½">
<em class="xx3"></em> <img height="71" src="http://image.7723.cn/attachments/icons/58/FGsaJ6bmxMAGHNxJRtypDzin7FekGadC.png" width="71"/>
<font>æçä½¿å½</font>
<span>ä¸è½½</span>
</a>
</li>
<li>
<a href="/game/76198.htm" target="_blank" title="æ··æ²èµ·æº">
<em class="xx3"></em> <img height="71" src="http://image.7723.cn/sdkopen/icon/307/i6kTASr2z7JyKn62XQAezcjsRtsPHN2Q.png" width="71"/>
<font>æ··æ²èµ·æº</font>
<span>ä¸è½½</span>
</a>
</li>
<li>
<a href="/game/76696.htm" target="_blank" title="å¦ç²¾çå°¾å·´:åæ°ä¹æ">
<em class="xx3"></em> <img height="71" src="http://image.7723.cn/attachments/icons/20/bpKDQiRn6fQrEKhCbjhtfPMRJhYywQCY.png" width="71"/>
<font>å¦ç²¾çå°¾å·´:åæ°ä¹æ</font>
<span>ä¸è½½</span>
</a>
</li>
</ul>
<p class="qc"></p>
</div>
<link href="/css/tankuang.css" rel="stylesheet" type="text/css"/>
<div class="zhezhaoceng" style="display: none;">
<div class="mask"></div>
<div class="tanchu">
<span class="title1">ä½¿ç¨7723å®¢æ·ç«¯ä¸è½½<i class="close" style="background-image: url('/css/img/guanbi.png')"> </i></span>
<p class="title2">è¯¥æ¸¸æä»æ¯æå¨7723æ¸¸æçåä¸è½½å¦~</p>
<div class="middle">
<img class="first_img" src="/css/img/10202.jpg"/>
<div class="tips">
<p>ä¸é®å®è£æ°ä½éª</p>
<p>æ¸¸ææ´æ°è½»èæä¸¾</p>
<p>ç©è½¬æ¸¸æç¤¾åºä¸¤ä¸è¯¯</p>
<p>ç²¾éãç ´è§£æ¸¸æè¯å¿æ¨è</p>
</div>
</div>
<div class="bottom"><a class="green_boder" href="javascript:;">äºç»´ç ä¸è½½</a><a class="green_btn" href="/gamesdown/11092.html">ä¸è½½</a></div>
</div>
</div>
<script>
    $(".green_boder").click(function () {
        $(".tips").empty();
        $(".tips").prepend("<img src='/css/liantu.png' class='erweima'></img>")
    })
    $(".tankuang").click(function(){
        var is_apk = $(this).attr("attr-data");
        if(is_apk==1){
            $(".zhezhaoceng").css("display","block");
        }else{
            location.href = $(this).attr("attr-href");
        }
        return false;
    })
    $(".close").click(function(){
        $(".zhezhaoceng").css('display','none');
        $(".tips").empty();
        var _html =   "<p>ä¸é®å®è£æ°ä½éª</p><p>æ¸¸ææ´æ°è½»èæä¸¾</p><p>ç©è½¬æ¸¸æç¤¾åºä¸¤ä¸è¯¯</p><p>ç²¾éãç ´è§£æ¸¸æè¯å¿æ¨è</p>";
        $(".tips").prepend(_html)
    })
</script>
<div class="zp_bottom">
<div class="w bot_t">
<strong>åæé¾æ¥</strong>
<font>å¸åºQQï¼2845392368</font>
</div>
<div class="w bot_yqlj">
<a href="http://www.baidu.com" target="_blank" title="ç¾åº¦">ç¾åº¦</a>
<a href="http://sj.xiaopi.com/" target="_blank" title="å°ç®ææ¸¸ç½">å°ç®ææ¸¸ç½</a>
<a href="http://iphone.265g.com/" target="_blank" title="iphone5ä¸­æç½">iphone5ä¸­æç½</a>
<a href="http://www.fpwap.com/" target="_blank" title="ææºç½æ¸¸">ææºç½æ¸¸</a>
<a href="http://www.gamehome.tv/" target="_blank" title="çµç©ä¹å®¶">çµç©ä¹å®¶</a>
<a href="http://www.apk8.com/" target="_blank" title="å®åæ¸¸æ">å®åæ¸¸æ</a>
<a href="http://www.mz6.net/" target="_blank" title="å®åæ¸¸æ">å®åæ¸¸æ</a>
<a href="https://www.biubiu001.com/" target="_blank" title="biubiuå éå¨">biubiuå éå¨</a>
<a href="https://www.milu.com/" target="_blank" title="ææ¸¸å¬çæ">ææ¸¸å¬çæ</a>
<a href="http://www.185sy.com" target="_blank" title="185ææ¸¸">185ææ¸¸</a>
<a href="https://www.shouji.com.cn/" target="_blank" title="ææºä¹å­">ææºä¹å­</a>
<a href="http://www.3733.com/" target="_blank" title="3733æ¸¸æ">3733æ¸¸æ</a>
<a href="http://www.ccplay.cc/" target="_blank" title="è«è«å©æ">è«è«å©æ</a>
<a href="http://www.upandashi.com/" target="_blank" title="Uçå¯å¨çå¶ä½å·¥å· ">Uçå¯å¨çå¶ä½å·¥å· </a>
<a href="http://www.jisuxz.com/" target="_blank" title="æéä¸è½½">æéä¸è½½</a>
<a href="http://www.9553.com/" target="_blank" title="9553ä¸è½½ç«">9553ä¸è½½ç«</a>
<a href="http://www.ttrar.com/" target="_blank" title="å¤©å¤©ä¸è½½">å¤©å¤©ä¸è½½</a>
<a href="http://www.3322.cc" target="_blank" title="3322ä¸è½½ç«">3322ä¸è½½ç«</a>
<a href="http://sj.zol.com.cn/" target="_blank" title="ZOLææºåºç¨">ZOLææºåºç¨</a>
<a href="http://www.cncrk.com" target="_blank" title="èµ·ç¹ä¸è½½">èµ·ç¹ä¸è½½</a>
<a href="http://www.shuowan.com" target="_blank" title="è¯´ç©ç½">è¯´ç©ç½</a>
<a href="http://www.gaoshouyou.com/" target="_blank" title="é«ææ¸¸">é«ææ¸¸</a>
<a href="http://www.mofang.com/" target="_blank" title="é­æ¹ææºæ¸¸æ">é­æ¹ææºæ¸¸æ</a>
<a href="http://www.3234.com/" target="_blank" title="3234æ¸¸æç½">3234æ¸¸æç½</a>
<a href="http://www.tongbu.com/" target="_blank" title="è¹æå©æ">è¹æå©æ</a>
<a href="http://www.7xz.com/" target="_blank" title="ææºç½æ¸¸">ææºç½æ¸¸</a>
<a href="http://www.9669.com/" target="_blank" title="9669ææ¸¸">9669ææ¸¸</a>
<a href="http://www.xp510.com/" target="_blank" title="ç³»ç»ä¹å®¶">ç³»ç»ä¹å®¶</a>
<a href="http://www.3987.com/" target="_blank" title="ç»ä¸ä¸è½½">ç»ä¸ä¸è½½</a>
<a href="http://www.d9soft.com/" target="_blank" title="ç¬¬ä¹è½¯ä»¶ç«">ç¬¬ä¹è½¯ä»¶ç«</a>
<a href="http://www.xpgod.com/" target="_blank" title="è½¯ä»¶ä¸è½½å¤©å ">è½¯ä»¶ä¸è½½å¤©å </a>
<a href="http://www.d1xz.net/" target="_blank" title="ç¬¬ä¸æåº§ç½">ç¬¬ä¸æåº§ç½</a>
<a href="http://www.33lc.com/" target="_blank" title="ç»¿è¶è½¯ä»¶ä¸è½½">ç»¿è¶è½¯ä»¶ä¸è½½</a>
<a href="http://www.duanwenxue.com/" target="_blank" title="æå­¦ç½">æå­¦ç½</a>
<a href="http://www.xingzuo360.cn/" target="_blank" title="360æåº§ç½">360æåº§ç½</a>
<a href="http://www.hackhome.com/" target="_blank" title="ç½ä¾ ææºç«">ç½ä¾ ææºç«</a>
<a href="http://www.3533.com/" target="_blank" title="ææºä¸ç">ææºä¸ç</a>
<a href="http://www.yy138.com/" target="_blank" title="ææºåºç¨ä¸è½½">ææºåºç¨ä¸è½½</a>
<a href="http://www.3h3.com/" target="_blank" title="åæºæ¸¸æä¸è½½">åæºæ¸¸æä¸è½½</a>
<a href="http://ol.tgbus.com" target="_blank" title="å·´å£«ç½æ¸¸">å·´å£«ç½æ¸¸</a>
<a href="http://www.benshouji.com" target="_blank" title="ææºç½æ¸¸">ææºç½æ¸¸</a>
<a href="http://a.3533.com/" target="_blank" title="å®ååºç¨">å®ååºç¨</a>
<a href="http://www.pipaw.com" target="_blank" title="çµç¶ç½ææ¸¸ä¸è½½">çµç¶ç½ææ¸¸ä¸è½½</a>
<a href="http://www.wanyx.com/" target="_blank" title="åæºæ¸¸æä¸è½½">åæºæ¸¸æä¸è½½</a>
<a href="http://es.7723.com" target="_blank" title="7723">7723</a>
<a href="http://android.265g.com" target="_blank" title="265Gå®åç½">265Gå®åç½</a>
<a href="http://android.gamedog.cn/" target="_blank" title="å®åæ¸¸æ">å®åæ¸¸æ</a>
<p class="qc"></p>
</div>
<div class="bot_bottom">
<a class="lm" href="http://www.7723.cn/zonghe/gy.htm" target="_blank">å³äºæä»¬</a>
|<a class="lm" href="http://www.7723.cn/zonghe/lcwm.htm" target="_blank">èç³»æä»¬</a>
|<a class="lm" href="http://www.7723.cn/zonghe/bqsm.htm" target="_blank">çæå£°æ</a>
|<a class="lm" href="http://www.7723.cn/zonghe/bz.htm" target="_blank">å¸®å©ä¸­å¿</a>
|<a class="lm" href="http://www.7723.cn/zonghe/jzjh.htm" target="_blank">å®¶é¿çæ¤</a>
|<a class="lm" href="http://www.7723.cn/zonghe/jfcl.htm" target="_blank">çº çº·å¤ç</a>
|<a class="lm" href="" target="_blank">åºç¨åå¸</a>
<br/>
æµå¶ä¸è¯æ¸¸æï¼æç»ççæ¸¸æãæ³¨æèªæä¿æ¤ï¼è°¨é²åéªä¸å½ãéåº¦æ¸¸æçèï¼æ²è¿·æ¸¸æä¼¤èº«ãåçå®ææ¶é´ï¼äº«åå¥åº·çæ´»ã
<br/>
<a class="lm" href="http://images.7723.cn/7723cn/pic/%E5%A2%9E%E5%80%BC%E7%94%B5%E4%BF%A1%E4%B8%9A%E5%8A%A1%E7%BB%8F%E8%90%A5%E8%AE%B8%E5%8F%AF%E8%AF%81.jpg" target="_blank">å¢å¼çµä¿¡ä¸å¡ç»è¥è®¸å¯è¯ï¼é½B2-20160170</a>
|<a class="lm" href="http://www.beian.gov.cn/portal/registerSystemInfo?recordcode=35021102000359" target="_blank"><img src="/css/bootstrap/image/gongan_logo.png"/>é½å¬ç½å®å¤ 35021102000359å·</a>
|<a class="lm" href="http://www.beian.miit.gov.cn" target="_blank">ç½ç«å¤æ¡å·ï¼é½ICPå¤14019555å·</a>
<br/>
<a class="lm" href="http://sq.ccm.gov.cn/ccnt/sczr/service/business/emark/toDetail/ef3c7b0b8fe140d7b133c42a88758093" target="_blank"><img src="/css/bootstrap/image/wen_hua_log.png" width="20px"/>ç½ç»æåç»è¥è®¸å¯è¯å·ï¼é½ç½æï¼2016ï¼4364-073å·</a>
<br/>
è¯·åæ¨çå¥½åæ¨èwww.7723.cnï¼å¤è°¢æ¯æï¼ Copyright (C) 2010 7723ææºæ¸¸æç½ All Rights Reserved<br/>
å¦é¨å·´æäºå¨ç§ææéå¬å¸ <a href="http://www.7723.cn/zonghe/jzjh.htm" style="color: red;">æªæå¹´äººå®¶é¿çæ¤</a>
<a href="http://www.anquan.org" key="5810495defbfb014cd568346" logo_size="83x30" logo_type="realname"><script src="//static.anquan.org/static/outer/js/aq_auth.js"></script></a>
</div>
</div>
<div style="display:none;">
<script type="text/javascript">
	var _bdhmProtocol = (("https:" == document.location.protocol) ? " https://" : " http://");
	document.write(unescape("%3Cscript src='" + _bdhmProtocol + "hm.baidu.com/h.js%3Fc040557a8f4f8d0710c9a409084a1f1b' type='text/javascript'%3E%3C/script%3E"));
	</script>
<script>
		window._bd_share_config={"common":{"bdSnsKey":{},"bdText":"","bdMini":"2","bdMiniList":false,"bdPic":"","bdStyle":"0","bdSize":"16"},"slide":{"type":"slide","bdImg":"1","bdPos":"right","bdTop":"100"}};with(document)0[(getElementsByTagName('head')[0]||body).appendChild(createElement('script')).src='http://bdimg.share.baidu.com/static/api/js/share.js?v=89860593.js?cdnversion='+~(-new Date()/36e5)];
	</script>
</div>
<style>
.rmlb_list { width: 100%px;margin-left: 0px;border-top: 0;margin-top:0; }
</style>
</body>
</html>