<html><body><p>ï»¿<!DOCTYPE html PUBLIC "-//W3C//DTD XHTML 1.0 Transitional//EN" "http://www.w3.org/TR/xhtml1/DTD/xhtml1-transitional.dtd">

</p>
<meta content="text/html; charset=utf-8" http-equiv="Content-Type"/>
<title>é¦é¡µ</title>
<link href="css/public.css" rel="stylesheet" type="text/css"/>
<link href="css/style.css" rel="stylesheet" type="text/css"/>
<script src="js/jquery-1.7.2.js"></script>
<script src="js/banner.js"></script>
<script src="js/nav.js"></script>
<script>
		if(/Android|webOS|iPhone|iPod|BlackBerry/i.test(navigator.userAgent)) {
			window.location.href="https://www.7755.com/m";
		};
	</script>
<!--  header start   -->
<div class="header">
<div class="top_bar">
<div class="mar_auto clearfix">
<span class="float_l color_6 bg_tb pd20">èçäº</span>
<div class="p_link float_r">
<p class="bg_tb1 pd30 color_6 float_l">åè´¹å¨è¯¢ç­çº¿ï¼<b>021</b> - <b class="color_f60 font16">4001234566</b></p>
<div class="link float_l"> | <a href="#">è®¾ä¸ºé¦é¡µ</a> | <a href="#">å å¥æ¶è</a> | <a class="pd_right" href="#">èç³»æä»¬</a></div>
</div>
</div>
</div>
<div class="logo_menu mar_auto clearfix">
<a href="index.html"><img class="float_l" src="images/logo.png"/></a>
<div class="nav float_r">
<div class="navmain">
<ul id="nav_all">
<li><a class="current" href="index.html">ç½ç«é¦é¡µ</a></li>
<li><a href="about.html">å³äºæä»¬</a>
<ul>
<li><a href="about.html">å¬å¸ç®ä»</a> | </li>
<li><a href="#">ä¼ä¸æå</a> | </li>
<li><a href="#">ç»ç»æ¶æ</a> | </li>
</ul>
</li>
<li><a href="products.html">äº§åä»ç»</a>
<ul class="min">
<li><a href="products.html">é¸æºç³»å</a> | </li>
<li><a href="#">çæ§ç³»ç»</a> | </li>
<li><a href="#">KB0ä¿æ¤æ§å¶å¼å³</a> | </li>
<li><a href="#">éçµç®±</a> | </li>
<li><a href="#">EPSåºæ¥çµæº</a> | </li>
</ul>
</li>
<li><a href="news.html">æ°é»ä¸­å¿</a>
<ul>
<li><a href="news.html">äº§åå¨æ</a> | </li>
<li><a href="#">è¡ä¸æ°é»</a> | </li>
</ul>
</li>
<li><a href="resources.html">äººåèµæº</a></li>
<li><a href="recruitment.html">äººææè</a></li>
<li><a href="contact.html">èç³»æä»¬</a></li>
</ul>
</div>
</div>
</div>
</div>
<!--  main start   -->
<div class="main">
<!--  banner start   -->
<div class="banner" id="banner">
<a class="d1" href="#" style="background:url(images/banner_1.jpg) center no-repeat;"></a>
<a class="d1" href="#" style="background:url(images/banner_1.jpg) center no-repeat;"></a>
<a class="d1" href="#" style="background:url(images/banner_1.jpg) center no-repeat;"></a>
<a class="d1" href="#" style="background:url(images/banner_1.jpg) center no-repeat;"></a>
<a class="d1" href="#" style="background:url(images/banner_1.jpg) center no-repeat;"></a>
<div class="d2" id="banner_id">
<ul>
<li></li>
<li></li>
<li></li>
<li></li>
<li></li>
</ul>
</div>
</div>
<!--  products start   -->
<div class="products">
<div class="pro_tie"><div class="mar_auto clearfix"><h2 class="float_l color_6">äº§åä»ç»</h2><a class="float_r font14" href="products.html">æ¥çæ´å¤äº§å</a></div></div>
<div class="pro_con mar_auto clearfix">
<div class="pro_c_tie float_l color_fff"><h3><b>Products</b></h3><span class="font_14">èçäºçµèç§æ <br/>ä¸ä¸ééé¸äº§åç åãçäº§ãéå®ä¸ä½çé«æ°ä¼ä¸</span><a class="font14" href="products.html">äºè§£æ´å¤</a></div>
<ul class="pro_c_list float_l">
<li><a href="products.html"><img src="images/pro_img1.png"/><p>é¸æºç³»å</p></a></li>
<li><a href="products.html"><img src="images/pro_img2.png"/><p>é¸æºç³»å</p></a></li>
<li><a href="products.html"><img src="images/pro_img1.png"/><p>é¸æºç³»å</p></a></li>
<li><a href="products.html"><img src="images/pro_img2.png"/><p>é¸æºç³»å</p></a></li>
</ul>
</div>
<div class="mar_auto"><a class="more_hui" href="products.html">learn more</a></div>
</div>
<!--  news_ren start   -->
<div class="news_ren">
<div class="pro_tie pro_tie1">
<div class="mar_auto clearfix">
<div class="w835 float_l"><h2 class="float_l color_6">äº§åä»ç»</h2><a class="float_r font14 color_3 a001" href="#">/ è¡ä¸ä¿¡æ¯</a><a class="float_r a00 font14" href="news.html">äº§åå¨æ</a></div>
<div class="w332 float_r"><h2 class="float_l color_6">äººåèµæº</h2><a class="float_r a00" href="resources.html">æ´å¤ &gt;&gt;</a></div>
</div>
</div>
<div class="mar_auto two_con clearfix">
<div class="news_con float_l w835">
<div class="hot_n float_l">
<a href="#"><img height="134" src="images/news_img.jpg" width="360"/></a>
<time class="color_6">215-01-01</time>
<h3 class="font14"><a class="color_3" href="#">ä¸é¨å¤©å¦ä½ä¿å»ä¸è¾é¸ï¼</a></h3>
<span><a class="color_6" href="#">é¨å¤©é¦åè¦è¿è¡çæ¯å¯¹ä¸è¾é¸çé²æ°´ä¿å»ï¼å¦ä½åå¥½é¨å¤©ä¸è¾é¸çé²æ°´ä¿å»ï¼</a></span>
</div>
<ul class="n_list float_r">
<li><span class="float_r color_9">215-01-01</span><a class="font14 color_6" href="news_detail.html">ä¸è¾é¸æºä¸»è¦ç³»ååç±»</a></li>
<li><span class="float_r color_9">215-01-01</span><a class="font14 color_6" href="news_detail.html">ä¸é¨å¤©å¦ä½ä¿å»ä¸è¾é¸ï¼</a></li>
<li><span class="float_r color_9">215-01-01</span><a class="font14 color_6" href="news_detail.html">ç¿¼é¸å¶é ææçéæ©è¦ç¹</a></li>
<li><span class="float_r color_9">215-01-01</span><a class="font14 color_6" href="news_detail.html">æµææé¸å¯è½ä¼åºç°çå¸çº¿è¯¯åº</a></li>
<li><span class="float_r color_9">215-01-01</span><a class="font14 color_6" href="news_detail.html">å®è£åºå¥å£ééé¸æºå¥½å¤ä»ç»</a></li>
<li><span class="float_r color_9">215-01-01</span><a class="font14 color_6" href="news_detail.html">ç¿¼é¸å¶é ææçéæ©è¦ç¹</a></li>
<li><span class="float_r color_9">215-01-01</span><a class="font14 color_6" href="news_detail.html">æµææé¸å¯è½ä¼åºç°çå¸çº¿è¯¯åº</a></li>
</ul>
</div>
<div class="ren_con float_r w332">
<h2 class="font14 color_3">æ½å·¥å</h2>
<p class="color_6 txt_line">æ½å·¥åæ¯åºå±çææ¯ç»ç»ç®¡çäººåãä¸»è¦å·¥ä½åå®¹æ¯å¨é¡¹ç®ç»çé¢å¯¼ä¸ï¼æ·±å¥æ½å·¥ç°åºï¼åå©æå¥½æ½å·¥ççï¼ä¸æ½å·¥éä¸èµ·å¤æ ¸å·¥ç¨éï¼æä¾æ½å·¥ç°åºæéææè§æ ¼ãåå·åå°åºæ¥æï¼åå¥½ç°åºææçéªæ¶ç­¾è¯åç®¡çï¼åæ¶å¯¹éè½å·¥ç¨è¿è¡éªæ¶åå·¥ç¨éç­¾è¯ï¼åå©é¡¹ç®ç»çåå¥½å·¥ç¨çèµæ...</p>
<img height="83" src="images/ren_img.jpg" width="331"/> </div>
</div>
</div>
<!--  contact start   -->
<div class="contact">
<div class="pro_tie"><div class="mar_auto clearfix"><h2 class="float_l color_6">èç³»æä»¬</h2></div></div>
<div class="mar_auto">
<h1 class="img_h1"><img src="images/contact_tie.jpg"/></h1>
<div class="two_txt clearfix">
<div class="one_t float_l">
<h2 class="color_0 font14 line34"><b>å å¥æä»¬</b></h2>
<p class="line24 color_3">ä¹è®¸æ¨æ¯ä¸ä½èµæ·±çå·¥ä½äººåï¼è¿éä¼æä¾æ æ°çæºä¼åå®ç°ä»·å¼çå¹³å°ã</p>
<p><b class="color_0 line24">MAILï¼</b><span class="color_3">4245235453@qq.com</span></p>
<p class="color_c font14 line24">åå¾  èçäº äººææèé¨</p>
</div>
<div class="two_t float_l">
<h2 class="color_0 font14 line34"><b>æ¬¢è¿æ¥å°èçäº</b></h2>
<p class="line24 color_3">ä¸æµ·äºå£«æç§ææéå¬å¸æ¯ä¸å®¶ä¸ä¸ééé¸äº§åç åãçäº§ãéå®ä¸ä½çé«æ°ä¼ä¸ãå¬å¸æ¼2005å¹´1ææç«ï¼å·¥åè®¾å¨å¨çå®é²ä¹é½âä¸æµ·ã 
æ¬å¬å¸ç°æèªä¸»äº§åæºè½äººè¡ééé¸(é£äºç³»åä¸æ£é¸,æ æç³»åç¿¼é¸,å²ä¸ç³»åæé¸)åæ¶è¿æ´åäººè¸è¯å«,æçº¹è¯å«,æçº¹è¯å«,è¹èè¯å«ç­ææ¯çè¿ç¨;</p>
<p><b class="color_0 line24">èçäºçµèç§æä¸æµ·æ»é¨ï¼</b><span class="color_3"></span></p>
<p class="line24 color_3">TEL: 021-12334565</p>
</div>
</div>
</div>
</div>
</div>
<!--  footer start   -->
<div class="footer">
<div class="mar_auto clearfix">
<div class="t_txt float_l color_3 line24">Copyright Â© 2019 èçäº All Rights Reserved <br/>
ææ¯æ¯æï¼èçäº</div>
<img class="float_r" height="50" src="images/logo.png" width="197"/> </div>
</div>
<script type="text/javascript">
    $(document).ready(function(){
		banner();					   
	});
</script>
</body></html>