<!DOCTYPE html>
<html>
<head>
<meta content="text/html;charset=utf-8" http-equiv="content-type"/>
<meta content="IE=edge,chrome=1" http-equiv="X-UA-Compatible"/>
<meta content="no-transform" http-equiv="Cache-Control"/>
<title>大卡车计时赛,7k7k大卡车计时赛游戏 - 体育小游戏 - 7K7K小游戏</title>
<meta content="7K7K小游戏为您提供大卡车计时赛小游戏,大卡车计时赛在线玩,大卡车计时赛攻略秘籍,大卡车计时赛怎么玩等。一款体育小游戏。游戏中，玩家通过控制卡车在规定的路段和限定的时间里..." name="Description"/>
<meta content="大卡车计时赛,大卡车计时赛怎么玩,大卡车计时赛小游戏,大卡车计时赛攻略秘籍,大卡车计时赛在线玩" name="Keywords"/>
<meta content="7k7k大卡车计时赛小游戏" property="og:title"/>
<meta content="7K7K小游戏" property="og:site_name"/>
<meta content="http://www.7k7k.com/flash/160086.htm" property="og:url"/>
<meta content="http://i1.7k7kimg.cn/cms/cms10/20151026/142900_5779.jpg" property="og:image"/>
<link href="http://www.7k7k.com/flash/160086.htm" rel="canonical"/>
<link href="//www.7k7kjs.cn/static/common/css/base.css?v=300" rel="stylesheet" type="text/css"/>
<link href="//www.7k7kjs.cn/static/qike/common/css/swiper-bundle.css?v=300" rel="stylesheet"/>
<link href="//www.7k7kjs.cn/static/qike/common/css/icon.css?v=300" rel="stylesheet" type="text/css"/>
<link href="//www.7k7kjs.cn/static/qike/common/css/hf.css?v=300" rel="stylesheet" type="text/css"/>
<link href="//www.7k7kjs.cn/static/qike/flash/css/flash_icon.css?v=300" rel="stylesheet" type="text/css"/>
<link href="//www.7k7kjs.cn/static/qike/flash/css/flash_tag.css?v=300" rel="stylesheet"/>
<link href="//www.7k7kjs.cn/static/qike/flash/css/flash.css?v=300" rel="stylesheet" type="text/css"/>
<meta content="format=html5;url=http://m.7k7k.com/flash/160086.html" name="mobile-agent"/>
<meta content="format=xhtml;url=http://m.7k7k.com/flash/160086.html" name="mobile-agent"/>
<link href="http://m.7k7k.com/flash/160086.html" media="only screen and(max-width: 640px)" rel="alternate"/>
<script src="//www.7k7kjs.cn/js/lib/jquery/1.7.2/jquery-min.js?v=300"></script>
<script src="//www.7k7kjs.cn/static/common/jiayou.ori.js?v=300" type="text/javascript"></script>
<script type="text/javascript">
            document.domain="7k7k.com";
        </script>
<base target="_blank"/>
</head>
<body id="theme-blue">
<div class="header">
<div class="header_c">
<a class="h_logo" href="http://www.7k7k.com/" target="_self" title="7k7k小游戏"></a>
<div class="h_nav h_nav_7">
<a class="h_nav_i" href="http://www.7k7k.com/">首页</a>
<a class="h_nav_i" href="http://www.7k7k.com/tag/62/">双人</a>
<a class="h_nav_i" href="http://www.7k7k.com/mm.htm">女生</a>
<a class="h_nav_i" href="http://www.7k7k.com/boy.htm">男生</a>
<a class="h_nav_i" href="http://www.7k7k.com/sheji/">射击</a>
<a class="h_nav_i" href="http://www.7k7k.com/xiuxian/">休闲</a>
<div class="h_nav_i h_nav_i_more">更多
        <i class="icon icon_jt_full"></i>
<div class="h_more">
<i class="h_more_jt"></i>
<div class="h_more_columns">
<h2 class="h_more_tit"><a href="http://www.7k7k.com/"><span class="h_more_tit_c1">7K7K</span>小游戏</a></h2>
<div class="h_more_list">
<div class="h_more_list_c"><a href="http://www.7k7k.com/tag/62/">双人小游戏</a>
<a href="http://www.7k7k.com/mm.htm">女生小游戏</a>
<a href="http://www.7k7k.com/huanzhuang/">换装小游戏</a>
<a href="http://www.7k7k.com/yizhi/">益智小游戏</a>
<a href="http://www.7k7k.com/xiuxian">休闲小游戏</a>
<a href="http://www.7k7k.com/jiemi/">解谜小游戏</a>
<a href="http://www.7k7k.com/avg/">易次元游戏</a></div>
<div class="h_more_list_c"><a href="http://www.7k7k.com/dongzuo/">动作小游戏</a>
<a href="http://www.7k7k.com/zhanzheng/">战争小游戏</a>
<a href="http://www.7k7k.com/maoxian/">冒险小游戏</a><a href="http://www.7k7k.com/sheji/">射击小游戏</a>
<a href="http://www.7k7k.com/tiyu/">体育小游戏</a>
<a href="http://www.7k7k.com/tag/134/">过关小游戏</a><a href="http://www.7k7k.com/td.html">塔防小游戏</a></div>
</div>
<i class="h_more_fgline"></i>
</div>
<div class="h_more_columns">
<h2 class="h_more_tit"><a href="http://www.7k7k.com/tag/"><span class="h_more_tit_c2">7K7K</span>游戏专题</a></h2>
<div class="h_more_list">
<div class="h_more_list_c">
<a href="http://www.7k7k.com/tag/3277/">三人游戏</a>
<a href="http://www.7k7k.com/tag/92/">棋牌游戏</a>
<a href="http://www.7k7k.com/tag/1704/">森林冰火人</a>
<a href="http://www.7k7k.com/tag/423/">单人闯关</a>
<a href="http://www.7k7k.com/tag/76/">密室逃脱</a>
<a href="http://www.7k7k.com/tag/49/">坦克游戏</a>
<a href="http://www.7k7k.com/tag/2690/">植物大战僵尸</a>
</div>
<div class="h_more_list_c">
<a href="http://www.7k7k.com/tag/1/">连连看</a>
<a href="http://www.7k7k.com/tag/1263/">无敌版</a>
<a href="http://www.7k7k.com/tag/3271/">h5游戏</a>
<a href="http://www.7k7k.com/tag/224/">火柴人</a>
<a href="http://www.7k7k.com/tag/907/">3D赛车</a>
<a href="http://www.7k7k.com/tag/383/">机器人</a>
<a href="http://www.7k7k.com/tag/404/">斗地主</a>
</div>
<div class="h_more_list_c">
<a href="http://www.7k7k.com/tag/681/">反恐精英</a>
<a href="http://www.7k7k.com/tag/676/">二战前线</a>
<a href="http://www.7k7k.com/tag/498/">恐龙战队</a>
<a href="http://www.7k7k.com/tag/3267/">神庙逃亡</a>
<a href="http://www.7k7k.com/tag/3465/">极品飞车</a>
<a href="http://www.7k7k.com/tag/1321/">拯救橙子</a>
<a href="http://www.7k7k.com/tag/1097/">冒险过关</a>
</div>
<div class="h_more_list_c">
<a href="http://www.7k7k.com/tag/63/">做饭游戏</a>
<a href="http://www.7k7k.com/tag/3/">换装游戏</a>
<a href="http://www.7k7k.com/tag/177/">阿SUE</a>
<a href="http://www.7k7k.com/tag/227/">小动物</a>
<a href="http://www.7k7k.com/tag/104/">拼图游戏</a>
<a href="http://www.7k7k.com/tag/66/">角色扮演</a>
<a href="http://www.7k7k.com/tag/3390/">网红游戏</a>
</div>
<div class="h_more_list_c">
<a href="http://www.7k7k.com/chengguang.html">橙光游戏</a>
<a href="http://www.7k7k.com/tag/31/">泡泡龙</a>
<a href="http://www.7k7k.com/tag/75/">找茬游戏</a>
<a href="http://www.7k7k.com/tag/197/">婚纱换装</a>
<a href="http://www.7k7k.com/tag/24/">消消看</a>
<a href="http://www.7k7k.com/tag/298/">美少女</a>
<a href="http://www.7k7k.com/tag/29/">布置游戏</a>
</div>
</div>
<i class="h_more_fgline"></i>
</div>
<div class="h_more_columns">
<h2 class="h_more_tit"><a href="http://web.7k7k.com/"><span class="h_more_tit_c3">7K7K</span>网页游戏</a></h2>
<div class="h_more_list">
<div class="h_more_list_c"><a href="http://web.7k7k.com/games/cjzg/">裁决战歌</a><a href="http://web.7k7k.com/games/W02000/">热血战歌</a><a href="http://web.7k7k.com/games/cqsj/">传奇世界</a><a href="http://web.7k7k.com/games/smcs2/">神魔传说</a><a href="https://web.7k7k.com/games/mhj2/">莽荒纪2</a><a href="https://web.7k7k.com/games/dldlx/">斗罗大陆</a><a href="https://web.7k7k.com/games/W02022/">盛世遮天</a></div>
<div class="h_more_list_c"><a href="http://h5.7k7k.com/game/eccafa568349b06237ac496a231e504f">怼怼三国</a><a href="http://g.7k7k.com/games/W01996/">生死狙击</a><a href="http://news.7k7k.com/pkt/">皮卡堂</a><a href="http://h5.7k7k.com/game/f5c4dbf7fb41d89d76a333332f33f853">街篮高手</a><a href="http://tklm.7k7k.com/">坦克联盟</a><a href="http://news.7k7k.com/tzyx/">特战英雄</a><a href="http://news.7k7k.com/wmpy/">完美漂移</a></div>
</div>
<i class="h_more_fgline"></i>
</div>
<div class="h_more_columns">
<h2 class="h_more_tit"><a href="http://www.7k7k.com/tag/285/"><span class="h_more_tit_c4">7K7K</span>儿童游戏</a></h2>
<div class="h_more_list">
<div class="h_more_list_c"><a href="http://www.7k7k.com/special/roco/">洛克王国</a><a href="http://www.7k7k.com/special/51seer/">赛尔号</a><a href="http://news.7k7k.com/aoqi/">奥奇传说</a><a href="http://news.7k7k.com/lskg/">就要K歌</a><a href="http://news.7k7k.com/ppbt/">炮炮兵团</a><a href="http://news.7k7k.com/mhlw/">梦幻恋舞</a><a href="http://news.7k7k.com/mnsj/">迷你世界</a></div>
<div class="h_more_list_c"><a href="http://www.7k7k.com/special/xiaohuaxian/">小花仙</a>
<a href="http://www.7k7k.com/special/aola/">奥拉星</a>
<a href="http://www.7k7k.com/special/aobi/">奥比岛</a>
<a href="http://news.7k7k.com/ssol/">推理学院</a>
<a href="http://news.7k7k.com/czzzt/">村长征战团</a>
<a href="http://news.7k7k.com/msdzls">美食战老鼠</a>
<a href="http://news.7k7k.com/games/tpbsn/">逃跑吧少年</a></div>
</div>
</div>
</div>
</div>
</div>
<div class="h_site">
<div class="login_no">
<div class="h_login login_btn"><i class="icon icon_user"></i><span>登录</span></div>
<div class="h_reg"><i class="icon_line1"></i><a href="http://zc.7k7k.com/">注册</a></div>
</div>
<div class="login_already" style="display:none">
<span class="login_unames"></span>
<span class="signout">【退出】</span>
</div>
<div class="h_history">
<i class="icon_line1"></i>
<i class="icon icon_time"></i>
<span>我玩过的</span>
<i class="icon icon_jt_full"></i>
<div class="history_con">
<i class="h_history_jt"></i>
<div class="w_head">
<ul class="w_tabs">
<li class="w_tabs_i w_tabs_ied w_tabs_i_only">我玩过的</li>
</ul>
<div class="w_lr">
<i class="icon icon_left icon_left_his2"></i>
<i class="icon icon_right icon_right_his2"></i>
</div>
</div>
<div class="swiper-game-his2 swiper-container">
<div class="swiper-wrapper" id="i-played">
<ul class="game_list swiper-slide"> <li class="game_item">
<a href="http://web.7k7k.com/games/W02119/zz/zz-syrm.html">
<div class="pic ">
<img alt="7k7k传奇国度" src="http://i1.7k7kimg.cn/cms/cms10/20201222/101822_8575.png"/>
<i class="icon_jian"></i>
</div>
<p>7k7k传奇国度</p>
</a>
</li>
<li class="game_item">
<a href="http://www.7k7k.com/flash/200592.htm">
<div class="pic ">
<img alt="神枪手强尼2无敌版" src="http://i3.7k7kimg.cn/game/7677/201/200592_121440.jpg"/>
<i class="icon_jian"></i>
</div>
<p>神枪手强尼2无敌版</p>
</a>
</li>
<li class="game_item">
<a href="http://www.7k7k.com/flash/200555.htm">
<div class="pic ">
<img alt="传奇世界之仗剑天涯H5" src="http://i4.7k7kimg.cn/game/7677/201/200555_146557.jpg"/>
<i class="icon_jian"></i>
</div>
<p>传奇世界之仗剑天涯H5</p>
</a>
</li>
<li class="game_item">
<a href="http://www.7k7k.com/flash/200482.htm">
<div class="pic ">
<img alt="乐高赛车手" src="http://i5.7k7kimg.cn/cms/cms10/20201229/181515_8729.jpg"/>
<i class="icon_jian"></i>
</div>
<p>乐高赛车手</p>
</a>
</li>
<li class="game_item">
<a href="http://www.7k7k.com/flash/200469.htm">
<div class="pic ">
<img alt="炫技摩托" src="//i3.7k7kimg.cn/game/7677/201/200469_405108.jpg"/>
<i class="icon_jian"></i>
</div>
<p>炫技摩托</p>
</a>
</li>
<li class="game_item">
<a href="http://www.7k7k.com/flash/200438.htm">
<div class="pic ">
<img alt="7k7k妖怪宝可萌" src="http://i1.7k7kimg.cn/game/7677/201/200438_086472.jpg"/>
<i class="icon_jian"></i>
</div>
<p>7k7k妖怪宝可萌</p>
</a>
</li>
<li class="game_item">
<a href="http://www.7k7k.com/flash/200436.htm">
<div class="pic ">
<img alt="7k7k斗罗大陆H5" src="http://i1.7k7kimg.cn/game/7677/201/200436_011474.jpg"/>
<i class="icon_jian"></i>
</div>
<p>7k7k斗罗大陆H5</p>
</a>
</li>
<li class="game_item">
<a href="http://www.7k7k.com/flash/200435.htm">
<div class="pic ">
<img alt="7k7k大明侠客令" src="http://i3.7k7kimg.cn/game/7677/201/200435_622327.jpg"/>
<i class="icon_jian"></i>
</div>
<p>7k7k大明侠客令</p>
</a>
</li>
<li class="game_item">
<a href="http://www.7k7k.com/flash/200433.htm">
<div class="pic ">
<img alt="全民养成之女皇陛下" src="http://i3.7k7kimg.cn/game/7677/201/200433_629347.jpg"/>
<i class="icon_jian"></i>
</div>
<p>全民养成之女皇陛下</p>
</a>
</li>
</ul> <ul class="game_list swiper-slide"> <li class="game_item">
<a href="http://www.7k7k.com/flash/200429.htm">
<div class="pic ">
<img alt="7k7k街篮高手" src="http://i4.7k7kimg.cn/game/7677/201/200429_515584.jpg"/>
<i class="icon_jian"></i>
</div>
<p>7k7k街篮高手</p>
</a>
</li>
<li class="game_item">
<a href="http://www.7k7k.com/flash/200428.htm">
<div class="pic ">
<img alt="7k7k谁是首富" src="http://i4.7k7kimg.cn/game/7677/201/200428_561166.jpg"/>
<i class="icon_jian"></i>
</div>
<p>7k7k谁是首富</p>
</a>
</li>
<li class="game_item">
<a href="http://www.7k7k.com/flash/200413.htm">
<div class="pic ">
<img alt="亚当夏娃捉迷藏" src="http://i4.7k7kimg.cn/game/7677/201/200413_592386.jpg"/>
<i class="icon_jian"></i>
</div>
<p>亚当夏娃捉迷藏</p>
</a>
</li>
<li class="game_item">
<a href="http://www.7k7k.com/flash/200194.htm">
<div class="pic ">
<img alt="海岛越野赛" src="http://i3.7k7kimg.cn/game/7677/201/200194_366775.jpg"/>
<i class="icon_jian"></i>
</div>
<p>海岛越野赛</p>
</a>
</li>
<li class="game_item">
<a href="http://www.7k7k.com/flash/200173.htm">
<div class="pic ">
<img alt="救救鱼儿吧" src="http://i4.7k7kimg.cn/game/7677/201/200173_012906.jpg"/>
<i class="icon_jian"></i>
</div>
<p>救救鱼儿吧</p>
</a>
</li>
<li class="game_item">
<a href="http://www.7k7k.com/flash/200119.htm">
<div class="pic ">
<img alt="亚当夏娃外星大作战" src="http://i4.7k7kimg.cn/cms/cms10/20201109/140302_4286.jpg"/>
<i class="icon_jian"></i>
</div>
<p>亚当夏娃外星大作战</p>
</a>
</li>
<li class="game_item">
<a href="http://www.7k7k.com/flash/200006.htm">
<div class="pic ">
<img alt="亚当夏娃梦游记" src="http://i5.7k7kimg.cn/cms/cms10/20201021/115406_9465.jpg"/>
<i class="icon_jian"></i>
</div>
<p>亚当夏娃梦游记</p>
</a>
</li>
<li class="game_item">
<a href="http://www.7k7k.com/flash/199941.htm">
<div class="pic ">
<img alt="火车冲鸭" src="http://i5.7k7kimg.cn/cms/cms10/20200930/144312_7952.jpg"/>
<i class="icon_jian"></i>
</div>
<p>火车冲鸭</p>
</a>
</li>
<li class="game_item">
<a href="http://www.7k7k.com/flash/199860.htm">
<div class="pic ">
<img alt="特技飞车竞赛5" src="http://i5.7k7kimg.cn/cms/cms10/20200918/172228_7756.jpg"/>
<i class="icon_jian"></i>
</div>
<p>特技飞车竞赛5</p>
</a>
</li>
</ul> <ul class="game_list swiper-slide"> <li class="game_item">
<a href="http://tklm.7k7k.com/">
<div class="pic ">
<img alt="全民坦克大战" src="http://i1.7k7kimg.cn/game/7677/200/199858_527328.jpg"/>
<i class="icon_jian"></i>
</div>
<p>全民坦克大战</p>
</a>
</li>
<li class="game_item">
<a href="http://news.7k7k.com/yhzr/">
<div class="pic ">
<img alt="7k7k英魂之刃" src="http://i1.7k7kimg.cn/cms/cms10/20201130/135734_7342.jpg"/>
<i class="icon_jian"></i>
</div>
<p>7k7k英魂之刃</p>
</a>
</li>
<li class="game_item">
<a href="http://www.7k7k.com/flash/199831.htm">
<div class="pic ">
<img alt="翻转的立方体2" src="http://i2.7k7kimg.cn/cms/cms10/20200910/104912_8169.jpg"/>
<i class="icon_jian"></i>
</div>
<p>翻转的立方体2</p>
</a>
</li>
<li class="game_item">
<a href="http://www.7k7k.com/flash/199827.htm">
<div class="pic ">
<img alt="神枪手强尼3" src="http://i3.7k7kimg.cn/cms/cms10/20200909/120549_3602.jpg"/>
<i class="icon_jian"></i>
</div>
<p>神枪手强尼3</p>
</a>
</li>
<li class="game_item">
<a href="http://web.7k7k.com/games/zsjx/9223112/9223112-zsjx.html">
<div class="pic ">
<img alt="7k7k战神觉醒" src="http://i2.7k7kimg.cn/game/7677/200/199823_352746.jpg"/>
<i class="icon_jian"></i>
</div>
<p>7k7k战神觉醒</p>
</a>
</li>
<li class="game_item">
<a href="http://www.7k7k.com/flash/199808.htm">
<div class="pic ">
<img alt="灵敏橡胶特工" src="http://i3.7k7kimg.cn/cms/cms10/20200903/152217_8874.jpg"/>
<i class="icon_jian"></i>
</div>
<p>灵敏橡胶特工</p>
</a>
</li>
<li class="game_item">
<a href="http://www.7k7k.com/flash/199805.htm">
<div class="pic ">
<img alt="碾压一切" src="http://i1.7k7kimg.cn/game/7677/200/199805_165628.jpg"/>
<i class="icon_jian"></i>
</div>
<p>碾压一切</p>
</a>
</li>
<li class="game_item">
<a href="http://www.7k7k.com/flash/199800.htm">
<div class="pic ">
<img alt="智慧打水" src="http://i2.7k7kimg.cn/game/7677/200/199800_982953.jpg"/>
<i class="icon_jian"></i>
</div>
<p>智慧打水</p>
</a>
</li>
<li class="game_item">
<a href="http://www.7k7k.com/flash/199773.htm">
<div class="pic ">
<img alt="交通达人" src="http://i5.7k7kimg.cn/cms/cms10/20200828/153718_6666.jpg"/>
<i class="icon_jian"></i>
</div>
<p>交通达人</p>
</a>
</li>
</ul> </div>
</div>
</div>
</div>
</div>
<form class="h_search" onsubmit="return false;">
<i class="icon icon_search"></i>
<input autocomplete="off" class="h_search_inp" type="text" value=""/>
<span class="h_search_btn">搜 索</span>
<div class="search_con">
<div class="search_tj">
<div class="search_his">
</div>
<div class="search_hot">
<p class="search_con_tit"><span>热门搜索</span></p>
<p><a class="search_hot_r" href="http://news.7k7k.com/mnsj/?ss">迷你世界</a><a class="search_hot_r" href="http://www.7k7k.com/tag/62/?ss">双人游戏</a></p>
<p><a class="search_hot_r" href="http://www.7k7k.com/tag/1/?ss">连连看</a><a class="search_hot_r" href="http://www.7k7k.com/tag/1263/?ss">无敌版游戏</a></p>
<p><a class="search_hot_r" href="http://g.7k7k.com/games/W01996/?ss">生死狙击</a><a class="search_hot_r" href="http://www.7k7k.com/tag/2690?ss">植物大战僵尸</a></p>
<p><a class="search_hot_r" href="http://www.7k7k.com/flash/24163.htm?ss">赛尔号</a><a class="search_hot_r" href="http://www.7k7k.com/tag/404?ss">斗地主</a></p>
<p><a class="search_hot_r" href="http://www.7k7k.com/tag/76/?ss">密室逃脱</a><a class="search_hot_r" href="http://www.7k7k.com/tag/224?ss">火柴人</a></p>
</div> </div>
<div class="search_lx"></div>
</div>
</form>
</div>
</div> <script>
        _is_girl = parseInt('0')
        _game_id = parseInt('160086')
        _ycy = parseInt('0')
    </script>
<div class="main">
<div class="line wrap wrap_only wrap_head_ad">
<ul class="game_list">
<li class="game_item">
<a href="http://news.7k7k.com/mnsj/?boy">
<div class="pic"><img alt="迷你世界" src="http://i3.7k7kimg.cn/cms/cms10/20210107/104127_5080.jpg"/></div>
<p>迷你世界</p>
</a>
</li>
<li class="game_item">
<a href="http://news.7k7k.com/tzyx/?boy">
<div class="pic"><img alt="特战英雄" src="http://i2.7k7kimg.cn/cms/cms10/20170812/093314_9747.jpg"/></div>
<p>特战英雄</p>
</a>
</li>
<li class="game_item">
<a href="http://news.7k7k.com/ssol/?boy">
<div class="pic"><img alt="天黑请闭眼" src="http://i3.7k7kimg.cn/cms/cms10/20190730/160438_2405.jpg"/></div>
<p>天黑请闭眼</p>
</a>
</li>
<li class="game_item">
<a href="http://news.7k7k.com/wmpy/?boy">
<div class="pic"><img alt="完美漂移" src="http://i4.7k7kimg.cn/cms/cms10/20170510/143249_6538.jpg"/></div>
<p>完美漂移</p>
</a>
</li>
<li class="game_item">
<a href="http://g.7k7k.com/games/W01996/?boy">
<div class="pic"><img alt="生死狙击(移动)" src="http://i4.7k7kimg.cn/cms/cms10/20190812/135933_6922.gif"/></div>
<p>生死狙击(移动)</p>
</a>
</li>
<li class="game_item">
<a href="http://news.7k7k.com/games/tpbsn/?boy">
<div class="pic"><img alt="逃跑吧少年" src="http://i4.7k7kimg.cn/cms/cms10/20190212/161132_8018.jpg"/></div>
<p>逃跑吧少年</p>
</a>
</li>
<li class="game_item">
<a href="http://tklm.7k7k.com/?boy">
<div class="pic"><img alt="坦克联盟" src="http://i2.7k7kimg.cn/cms/cms10/20170317/172433_5101.jpg"/></div>
<p>坦克联盟</p>
</a>
</li>
<li class="game_item">
<a href="http://news.7k7k.com/ppbt/?boy">
<div class="pic"><img alt="炮炮兵团" src="http://i4.7k7kimg.cn/cms/cms10/20160407/182650_9445.jpg"/></div>
<p>炮炮兵团</p>
</a>
</li>
<li class="game_item">
<a href="http://web.7k7k.com/games/W02119/zz/zz-sylt.html">
<div class="pic"><img alt="传奇国度" src="http://i1.7k7kimg.cn/cms/cms10/20201222/101822_8575.png"/></div>
<p>传奇国度</p>
</a>
</li>
<li class="game_item">
<a href="http://h5.7k7k.com/playGameOnpc/?gid=5d69046250a49d8f79733b56f3bacb01&amp;tid=73755">
<div class="pic"><img alt="谁是首富" src="http://i4.7k7kimg.cn/cms/cms10/20201226/111542_6834.jpg"/></div>
<p>谁是首富</p>
</a>
</li>
</ul>
</div>
<div class="crumb">
<div class="crumb_l">
<a href="/">7k7k小游戏</a>
<span>&gt;</span>
<a href="http://www.7k7k.com/tiyu/" target="_self">体育游戏</a>
<span>&gt;</span> <a href="http://www.7k7k.com/tag/425/">卡车</a> <a href="http://www.7k7k.com/tag/111/">驾驶</a> <a href="http://www.7k7k.com/tag/134/">过关</a> <span>&gt;</span>
<a href="http://www.7k7k.com/swf/160086.htm">大卡车计时赛</a>
</div>
<div class="crumb_r">
<a href="/shortcut?url=YQk2QmMXYxNmXDAfMxxjFGIVN0BhTzkOYQpmUTdcMx03VDlWZQgxHjVTOFQ5WDlKZAwyHWJTZlAwADYGZFwxB2FPNl5jF2MO&amp;name=YVY2XWNUYwhmgzCUM5RjhmLvN5ZhiTmEYcdmjjeZM5I30TmuZdMx2TWAOKM53zmBZNwy1GLqZuk=" rel="nofollow">保存到桌面</a>
<i class="icon_line2"></i>
<a href="javascript:void(0);" onclick="jiayou.utils.addFavorite('大卡车计时赛','http://www.7k7k.com/flash/160086.htm')" target="_self">加入收藏</a>
</div>
</div>
<div class="columns">
<div class="columns_l con_box">
<div class="wrap wrap_info">
<div class="game_info">
<div class="game_info_l game_info_l70">
<a href="http://www.7k7k.com/swf/160086.htm">
<img alt="大卡车计时赛" src="http://i5.7k7kimg.cn/game/7070/161/160086_914935.jpg"/>
</a>
</div>
<div class="game_info_r">
<a href="http://www.7k7k.com/swf/160086.htm"><h1 class="game_info_tit">大卡车计时赛</h1></a>
<p class="game_info_f1"><span>分类：<a href="http://www.7k7k.com/tiyu/">体育游戏</a></span>  |  <span>大小：33M</span>  |  <span>日期：2015-10-26</span></p>
<div class="game_info_f2">
<div class="game_info_pinglun"><i class="flash_icon fi_pinglun"></i>评论</div>
<div class="game_info_shoucang">
<span class="shoucang_btn"><i class="flash_icon fi_shoucang"></i>收藏</span>
<div class="shoucang_tip">
<span>点击收藏游戏</span>
<i class="shoucang_tip_jt"></i>
</div>
</div>
<div class="game_info_fenxiang">
<i class="flash_icon fi_fenxiang"></i>分享
                                <div class="fenxiang_tip">
<i class="fenxiang_tip_jt"></i>
<div class="fenxiang_con">
<div class="fenxiang_con_l">
<div class="fenxiang_type bdsharebuttonbox" id="fenxiang_type">
<a class="fenxiang_item" id="share_qq"></a>
<a class="fenxiang_item bds_qzone" data-cmd="qzone" href="javascript:;"></a>
<a class="fenxiang_item bds_tsina" data-cmd="tsina" href="javascript:;"></a>
<a class="fenxiang_item bds_tieba" data-cmd="tieba" href="javascript:;"></a>
</div>
<div class="fenxiang_send">
<h3>发送给好友一起玩</h3>
<div class="fenxiang_copy">
<span class="fenxiang_copy_link"><i>http://www.7k7k.com/flash/160086.htm</i></span>
<input id="fenxiang_link" readonly="" type="text" value="http://www.7k7k.com/flash/160086.htm"/>
<span class="fenxiang_copy_btn">复制</span>
</div>
</div>
</div>
<div class="fenxiang_con_r">
<div class="fenxiang_code"><img alt="大卡车计时赛" src="/flash/qrcode?id=160086"/></div>
<p>微信扫一扫分享</p>
</div>
</div>
</div>
</div>
</div>
</div>
<a class="begin_btn" href="http://www.7k7k.com/swf/160086.htm">开始游戏</a>
</div>
<div class="game_desc">
                    一款体育小游戏。游戏中，玩家通过控制卡车在规定的路段和限定的时间里驾驶。喜欢的小伙伴们快来玩吧！                    <span data-isopen="0">收起</span>
</div>
<div class="game_zhuanti">
<span>标签：</span>
<a href="http://www.7k7k.com/tag/425/">卡车</a><a href="http://www.7k7k.com/tag/111/">驾驶</a><a href="http://www.7k7k.com/tag/134/">过关</a><a href="http://www.7k7k.com/tag/106/">挑战</a><a href="http://www.7k7k.com/tag/2672/">Unity3D</a><a href="http://www.7k7k.com/tag/276/">3D</a><a href="http://www.7k7k.com/tag/252/">体育</a> </div>
<div class="game_jieping">
<div class="game_htit">
<h2 class="game_htit_l"><i></i>游戏截屏</h2>
<span class="game_htit_r">《大卡车计时赛》 游戏画面</span>
</div>
<div class="game_jieping_box game_jieping_h">
<ul class="game_jieping_list"><li class="game_jieping_first" data-url="http://www.7k7k.com/swf/160086.htm"><img alt="《大卡车计时赛》游戏画面1" draggable="false" ondragstart="return false;" src="http://i3.7k7kimg.cn/cms/cms10/20151026/143035_6759.jpg"/></li><li data-url="http://www.7k7k.com/swf/160086.htm"><img alt="《大卡车计时赛》游戏画面2" draggable="false" ondragstart="return false;" src="http://i1.7k7kimg.cn/cms/cms10/20151026/142900_5779.jpg"/></li><li data-url="http://www.7k7k.com/swf/160086.htm"><img alt="《大卡车计时赛》游戏画面3" draggable="false" ondragstart="return false;" src="http://i5.7k7kimg.cn/cms/cms10/20151026/143017_1506.jpg"/></li></ul> </div>
</div>
<div class="game_wanfa">
<div class="game_htit">
<h2 class="game_htit_l"><i></i>游戏玩法</h2>
<span class="game_htit_r">《大卡车计时赛》怎么玩</span>
</div>
<div class="game_wanfa_con">
<div class="game_wanfa_ft game_wanfa_ft1">
<div class="game_wanfa_ft game_wanfa_ft1"><p class="game_wanfa_p1">1.操作说明</p><p class="game_wanfa_p2"><span class="flash_icon_box"><i class="flash_icon1 fil_key_a" data-text="A"></i><i class="flash_icon1 fil_key_d" data-text="D"></i>/<i class="flash_icon1 fil_key_lr" data-text="lr"></i></span>左右移动
<span class="flash_icon_box"><i class="flash_icon1 fil_key_w" data-text="W"></i><i class="flash_icon1 fil_key_s" data-text="S"></i>/<i class="flash_icon1 fil_key_ud" data-text="ud"></i></span>前进后退
<span class="flash_icon_box"><i class="flash_icon1 fil_key_space" data-text="space"></i></span>刹车
<span class="flash_icon_box"><i class="flash_icon1 fil_key_c" data-text="C"></i></span>切换视角</p></div> </div>
<i class="game_wanfa_line"></i>
<div class="game_wanfa_ft game_wanfa_ft2">
<p class="game_wanfa_p1">2.如何开始</p>
<p class="game_wanfa_p2">游戏加载完毕后，点击两次play，点击关卡1开始游戏。</p>
</div>
<div class="game_wanfa_ft game_wanfa_ft3">
<i class="game_wanfa_line"></i>
<p class="game_wanfa_p1">3.游戏目标</p>
<p class="game_wanfa_p2">合理操作，顺利过关。</p>
</div>
</div>
</div>
<div class="game_kaishi">
<a href="http://www.7k7k.com/swf/160086.htm">开始游戏</a>
</div>
<p class="game_jszc">《大卡车计时赛》小游戏怎么玩、通关秘籍、攻略视频及下载安装等由7k7k小游戏提供技术支持。</p>
</div>
<div class="wrap wrap_like">
<div class="w_head">
<ul class="w_tabs">
<li class="w_tabs_i w_tabs_ied w_tabs_i_only">猜你喜欢</li>
</ul>
</div>
<ul class="game_list game_list_default">
<li class="game_item">
<a href="http://www.7k7k.com/flash/200657.htm">
<div class="pic pic70"><img alt="新城市停车" src="http://i4.7k7kimg.cn/game/7070/201/200657_233140.jpg"/></div>
<p>新城市停车</p>
</a>
</li>
<li class="game_item">
<a href="http://www.7k7k.com/flash/199053.htm">
<div class="pic pic70"><img alt="空中飞车挑战赛" src="http://i1.7k7kimg.cn/game/7070/200/199053_212543.jpg"/></div>
<p>空中飞车挑战赛</p>
</a>
</li>
<li class="game_item">
<a href="http://www.7k7k.com/flash/195357.htm">
<div class="pic pic70"><img alt="急速下坡滑雪" src="http://i2.7k7kimg.cn/game/7070/196/195357_323876.jpg"/></div>
<p>急速下坡滑雪</p>
</a>
</li>
<li class="game_item">
<a href="http://www.7k7k.com/flash/190701.htm">
<div class="pic pic70"><img alt="刺激赛车" src="http://i1.7k7kimg.cn/game/7070/191/190701_819004.jpg"/></div>
<p>刺激赛车</p>
</a>
</li>
<li class="game_item">
<a href="http://www.7k7k.com/flash/184048.htm">
<div class="pic pic70"><img alt="玩具车狂飙" src="http://i3.7k7kimg.cn/game/7070/185/184048_202674.jpg"/></div>
<p>玩具车狂飙</p>
</a>
</li>
<li class="game_item">
<a href="http://www.7k7k.com/flash/175016.htm">
<div class="pic pic70"><img alt="红色狂飙2" src="http://i1.7k7kimg.cn/game/7070/176/175016_423719.jpg"/></div>
<p>红色狂飙2</p>
</a>
</li>
<li class="game_item">
<a href="http://www.7k7k.com/flash/165736.htm">
<div class="pic pic70"><img alt="屋顶特技飞车" src="http://i2.7k7kimg.cn/game/7070/166/165736_136845.jpg"/></div>
<p>屋顶特技飞车</p>
</a>
</li>
<li class="game_item">
<a href="http://www.7k7k.com/flash/199437.htm">
<div class="pic pic70"><img alt="城市赛车竞赛" src="http://i2.7k7kimg.cn/game/7070/200/199437_859106.jpg"/></div>
<p>城市赛车竞赛</p>
</a>
</li>
<li class="game_item">
<a href="http://www.7k7k.com/flash/196548.htm">
<div class="pic pic70"><img alt="投篮机" src="http://i3.7k7kimg.cn/game/7070/197/196548_211961.jpg"/></div>
<p>投篮机</p>
</a>
</li>
<li class="game_item">
<a href="http://www.7k7k.com/flash/191722.htm">
<div class="pic pic70"><img alt="交通公路赛车手" src="http://i4.7k7kimg.cn/game/7070/192/191722_895693.jpg"/></div>
<p>交通公路赛车手</p>
</a>
</li>
<li class="game_item">
<a href="http://www.7k7k.com/flash/185176.htm">
<div class="pic pic70"><img alt="警匪赛车" src="http://i2.7k7kimg.cn/game/7070/186/185176_910882.jpg"/></div>
<p>警匪赛车</p>
</a>
</li>
<li class="game_item">
<a href="http://www.7k7k.com/flash/177395.htm">
<div class="pic pic70"><img alt="极速跑车竞速赛" src="http://i3.7k7kimg.cn/game/7070/178/177395_179573.jpg"/></div>
<p>极速跑车竞速赛</p>
</a>
</li>
<li class="game_item">
<a href="http://www.7k7k.com/flash/169083.htm">
<div class="pic pic70"><img alt="小动物赛车" src="http://i4.7k7kimg.cn/game/7070/170/169083_908796.jpg"/></div>
<p>小动物赛车</p>
</a>
</li>
<li class="game_item">
<a href="http://www.7k7k.com/flash/161784.htm">
<div class="pic pic70"><img alt="达喀尔汽车拉力赛" src="http://i5.7k7kimg.cn/game/7070/162/161784_701903.jpg"/></div>
<p>达喀尔汽车拉力赛</p>
</a>
</li>
</ul>
</div>
<div class="wrap wrap_pagead">
<div class="w_head">
<ul class="w_tabs">
<li class="w_tabs_i w_tabs_ied w_tabs_i_only">精品页游</li>
</ul>
<div class="w_links">
<a class="w_more" href="http://g.7k7k.com/">查看更多</a>
</div>
</div>
<div class="game_yeyou">
</div>
</div>
<div class="wrap wrap_pinglun">
<div class="w_head">
<ul class="w_tabs">
<li class="w_tabs_i w_tabs_ied w_tabs_i_only">游戏评论</li>
</ul>
<div class="w_head_r">可在此交流 《大卡车计时赛》通关秘籍、攻略心得等</div>
</div>
<iframe frameborder="0" height="1" id="pinglun" lz_src="http://cy.pl.7k7k.com/channel3.html?category=1387788877&amp;id=7k7kmainsite160086&amp;type=1&amp;up=1&amp;title=大卡车计时赛&amp;isScore=1" marginheight="0" marginwidth="0" name="comment" scrolling="no" width="100%"></iframe>
</div>
</div>
<div class="columns_r">
<div class="wrap">
<div class="w_head">
<ul class="w_tabs">
<li class="w_tabs_i w_tabs_ied w_tabs_i_only">相关游戏</li>
</ul>
</div>
<ul class="game_list">
<li class="game_item">
<a href="http://www.7k7k.com/flash/151818.htm">
<div class="pic pic70"><img alt="3D挖掘机驾驶" src="http://i2.7k7kimg.cn/game/7070/152/151818_077329.jpg"/></div>
<p>3D挖掘机驾驶</p>
</a>
</li>
<li class="game_item">
<a href="http://www.7k7k.com/flash/120161.htm">
<div class="pic pic70"><img alt="3D大卡车真实驾驶" src="http://i2.7k7kimg.cn/game/7070/121/120161_314948.jpg"/></div>
<p>3D大卡车真实驾驶</p>
</a>
</li>
<li class="game_item">
<a href="http://www.7k7k.com/flash/115496.htm">
<div class="pic pic70"><img alt="3D货运大卡车" src="http://i2.7k7kimg.cn/game/7070/116/115496_925139.jpg"/></div>
<p>3D货运大卡车</p>
</a>
</li>
<li class="game_item">
<a href="http://www.7k7k.com/flash/111648.htm">
<div class="pic pic70"><img alt="3D雷诺卡车赛" src="http://i3.7k7kimg.cn/game/7070/112/111648_111661.jpg"/></div>
<p>3D雷诺卡车赛</p>
</a>
</li>
<li class="game_item">
<a href="http://www.7k7k.com/flash/199668.htm">
<div class="pic pic70"><img alt="运输大卡车" src="http://i5.7k7kimg.cn/game/7070/200/199668_262263.jpg"/></div>
<p>运输大卡车</p>
</a>
</li>
<li class="game_item">
<a href="http://www.7k7k.com/flash/129596.htm">
<div class="pic pic70"><img alt="水资源运输车" src="http://i4.7k7kimg.cn/game/7070/130/129596_159005.jpg"/></div>
<p>水资源运输车</p>
</a>
</li>
<li class="game_item">
<a href="http://www.7k7k.com/flash/106759.htm">
<div class="pic pic70"><img alt="大卡车司机停车3" src="http://i1.7k7kimg.cn/game/7070/107/106759_577204.jpg"/></div>
<p>大卡车司机停车3</p>
</a>
</li>
<li class="game_item">
<a href="http://www.7k7k.com/flash/174870.htm">
<div class="pic pic70"><img alt="3D超级竞速4" src="http://i2.7k7kimg.cn/game/7070/175/174870_155529.jpg"/></div>
<p>3D超级竞速4</p>
</a>
</li>
<li class="game_item">
<a href="http://www.7k7k.com/flash/106260.htm">
<div class="pic pic70"><img alt="最真实驾驶" src="http://i4.7k7kimg.cn/game/7070/107/106260_295731.jpg"/></div>
<p>最真实驾驶</p>
</a>
</li>
<li class="game_item">
<a href="http://www.7k7k.com/flash/172329.htm">
<div class="pic pic70"><img alt="大卡车狂飙赛" src="http://i1.7k7kimg.cn/game/7070/173/172329_228097.jpg"/></div>
<p>大卡车狂飙赛</p>
</a>
</li>
<li class="game_item">
<a href="http://www.7k7k.com/flash/200657.htm">
<div class="pic pic70"><img alt="新城市停车" src="http://i4.7k7kimg.cn/game/7070/201/200657_233140.jpg"/></div>
<p>新城市停车</p>
</a>
</li>
<li class="game_item">
<a href="http://www.7k7k.com/flash/151679.htm">
<div class="pic pic70"><img alt="3D巴士停车2" src="http://i5.7k7kimg.cn/game/7070/152/151679_153912.jpg"/></div>
<p>3D巴士停车2</p>
</a>
</li>
<li class="game_item">
<a href="http://www.7k7k.com/flash/170912.htm">
<div class="pic pic70"><img alt="格斗战机" src="http://i1.7k7kimg.cn/game/7070/171/170912_521542.jpg"/></div>
<p>格斗战机</p>
</a>
</li>
<li class="game_item">
<a href="http://www.7k7k.com/flash/160211.htm">
<div class="pic pic70"><img alt="货车模拟驾驶" src="http://i4.7k7kimg.cn/game/7070/161/160211_060066.jpg"/></div>
<p>货车模拟驾驶</p>
</a>
</li>
<li class="game_item">
<a href="http://www.7k7k.com/flash/187323.htm">
<div class="pic pic70"><img alt="摩托障碍挑战4" src="http://i3.7k7kimg.cn/game/7070/188/187323_964115.jpg"/></div>
<p>摩托障碍挑战4</p>
</a>
</li>
<li class="game_item">
<a href="http://www.7k7k.com/flash/177350.htm">
<div class="pic pic70"><img alt="超级大脚车挑战赛" src="http://i4.7k7kimg.cn/game/7070/178/177350_209002.jpg"/></div>
<p>超级大脚车挑战赛</p>
</a>
</li>
<li class="game_item">
<a href="http://www.7k7k.com/flash/173169.htm">
<div class="pic pic70"><img alt="摩托障碍挑战3" src="http://i1.7k7kimg.cn/game/7070/174/173169_329034.jpg"/></div>
<p>摩托障碍挑战3</p>
</a>
</li>
<li class="game_item">
<a href="http://www.7k7k.com/flash/148870.htm">
<div class="pic pic70"><img alt="迷你直升机驾驶" src="http://i2.7k7kimg.cn/game/7070/149/148870_842368.jpg"/></div>
<p>迷你直升机驾驶</p>
</a>
</li>
</ul>
</div>
<div class="wrap wrap_ad1">
<div class="w_head">
<ul class="w_tabs">
<li class="w_tabs_i w_tabs_ied w_tabs_i_only">休闲竞技游戏</li>
</ul>
<div class="w_links">
<a href="http://g.7k7k.com/">查看更多</a>
</div>
</div>
<div class="swiper_type2 swiper-container ">
<div class="swiper-wrapper">
</div>
<div class="swiper-pagination swiper-pagination2"></div>
<span class="icon icon_swper_prev icon_swper_prev2"></span>
<span class="icon icon_swper_next icon_swper_next2"></span>
</div>
<ul class="geme_Mlist geme_Mlist_flash">
</ul>
</div>
<div class="wrap wrap_change">
<div class="w_head">
<ul class="w_tabs"><li class="w_tabs_i w_tabs_ied w_tabs_i_only">我玩过的</li></ul>
<div class="w_lr"><i class="icon icon_left icon_left_his1"></i><i class="icon icon_right icon_right_his1"></i></div>
</div>
<div class="swiper-game-his1 swiper-container">
<div class="swiper-wrapper" id="i-played-box">
<ul class="game_list swiper-slide"> <li class="game_item" data-id="200597"><a href="http://web.7k7k.com/games/W02119/zz/zz-syrm.html">
<div class="pic ">
<img alt="7k7k传奇国度" src="http://i1.7k7kimg.cn/cms/cms10/20201222/101822_8575.png"/>
<i class="icon_jian"></i></div>
<p>7k7k传奇国度</p>
</a></li>
<li class="game_item" data-id="200592"><a href="http://www.7k7k.com/flash/200592.htm">
<div class="pic ">
<img alt="神枪手强尼2无敌版" src="http://i3.7k7kimg.cn/game/7677/201/200592_121440.jpg"/>
<i class="icon_jian"></i></div>
<p>神枪手强尼2无敌版</p>
</a></li>
<li class="game_item" data-id="200555"><a href="http://www.7k7k.com/flash/200555.htm">
<div class="pic ">
<img alt="传奇世界之仗剑天涯H5" src="http://i4.7k7kimg.cn/game/7677/201/200555_146557.jpg"/>
<i class="icon_jian"></i></div>
<p>传奇世界之仗剑天涯H5</p>
</a></li>
<li class="game_item" data-id="200482"><a href="http://www.7k7k.com/flash/200482.htm">
<div class="pic ">
<img alt="乐高赛车手" src="http://i5.7k7kimg.cn/cms/cms10/20201229/181515_8729.jpg"/>
<i class="icon_jian"></i></div>
<p>乐高赛车手</p>
</a></li>
<li class="game_item" data-id="200469"><a href="http://www.7k7k.com/flash/200469.htm">
<div class="pic ">
<img alt="炫技摩托" src="//i3.7k7kimg.cn/game/7677/201/200469_405108.jpg"/>
<i class="icon_jian"></i></div>
<p>炫技摩托</p>
</a></li>
<li class="game_item" data-id="200438"><a href="http://www.7k7k.com/flash/200438.htm">
<div class="pic ">
<img alt="7k7k妖怪宝可萌" src="http://i1.7k7kimg.cn/game/7677/201/200438_086472.jpg"/>
<i class="icon_jian"></i></div>
<p>7k7k妖怪宝可萌</p>
</a></li>
<li class="game_item" data-id="200436"><a href="http://www.7k7k.com/flash/200436.htm">
<div class="pic ">
<img alt="7k7k斗罗大陆H5" src="http://i1.7k7kimg.cn/game/7677/201/200436_011474.jpg"/>
<i class="icon_jian"></i></div>
<p>7k7k斗罗大陆H5</p>
</a></li>
<li class="game_item" data-id="200435"><a href="http://www.7k7k.com/flash/200435.htm">
<div class="pic ">
<img alt="7k7k大明侠客令" src="http://i3.7k7kimg.cn/game/7677/201/200435_622327.jpg"/>
<i class="icon_jian"></i></div>
<p>7k7k大明侠客令</p>
</a></li>
<li class="game_item" data-id="200433"><a href="http://www.7k7k.com/flash/200433.htm">
<div class="pic ">
<img alt="全民养成之女皇陛下" src="http://i3.7k7kimg.cn/game/7677/201/200433_629347.jpg"/>
<i class="icon_jian"></i></div>
<p>全民养成之女皇陛下</p>
</a></li>
</ul><ul class="game_list swiper-slide"> <li class="game_item" data-id="200429"><a href="http://www.7k7k.com/flash/200429.htm">
<div class="pic ">
<img alt="7k7k街篮高手" src="http://i4.7k7kimg.cn/game/7677/201/200429_515584.jpg"/>
<i class="icon_jian"></i></div>
<p>7k7k街篮高手</p>
</a></li>
<li class="game_item" data-id="200428"><a href="http://www.7k7k.com/flash/200428.htm">
<div class="pic ">
<img alt="7k7k谁是首富" src="http://i4.7k7kimg.cn/game/7677/201/200428_561166.jpg"/>
<i class="icon_jian"></i></div>
<p>7k7k谁是首富</p>
</a></li>
<li class="game_item" data-id="200413"><a href="http://www.7k7k.com/flash/200413.htm">
<div class="pic ">
<img alt="亚当夏娃捉迷藏" src="http://i4.7k7kimg.cn/game/7677/201/200413_592386.jpg"/>
<i class="icon_jian"></i></div>
<p>亚当夏娃捉迷藏</p>
</a></li>
<li class="game_item" data-id="200194"><a href="http://www.7k7k.com/flash/200194.htm">
<div class="pic ">
<img alt="海岛越野赛" src="http://i3.7k7kimg.cn/game/7677/201/200194_366775.jpg"/>
<i class="icon_jian"></i></div>
<p>海岛越野赛</p>
</a></li>
<li class="game_item" data-id="200173"><a href="http://www.7k7k.com/flash/200173.htm">
<div class="pic ">
<img alt="救救鱼儿吧" src="http://i4.7k7kimg.cn/game/7677/201/200173_012906.jpg"/>
<i class="icon_jian"></i></div>
<p>救救鱼儿吧</p>
</a></li>
<li class="game_item" data-id="200119"><a href="http://www.7k7k.com/flash/200119.htm">
<div class="pic ">
<img alt="亚当夏娃外星大作战" src="http://i4.7k7kimg.cn/cms/cms10/20201109/140302_4286.jpg"/>
<i class="icon_jian"></i></div>
<p>亚当夏娃外星大作战</p>
</a></li>
<li class="game_item" data-id="200006"><a href="http://www.7k7k.com/flash/200006.htm">
<div class="pic ">
<img alt="亚当夏娃梦游记" src="http://i5.7k7kimg.cn/cms/cms10/20201021/115406_9465.jpg"/>
<i class="icon_jian"></i></div>
<p>亚当夏娃梦游记</p>
</a></li>
<li class="game_item" data-id="199941"><a href="http://www.7k7k.com/flash/199941.htm">
<div class="pic ">
<img alt="火车冲鸭" src="http://i5.7k7kimg.cn/cms/cms10/20200930/144312_7952.jpg"/>
<i class="icon_jian"></i></div>
<p>火车冲鸭</p>
</a></li>
<li class="game_item" data-id="199860"><a href="http://www.7k7k.com/flash/199860.htm">
<div class="pic ">
<img alt="特技飞车竞赛5" src="http://i5.7k7kimg.cn/cms/cms10/20200918/172228_7756.jpg"/>
<i class="icon_jian"></i></div>
<p>特技飞车竞赛5</p>
</a></li>
</ul><ul class="game_list swiper-slide"> <li class="game_item" data-id="199858"><a href="http://tklm.7k7k.com/">
<div class="pic ">
<img alt="全民坦克大战" src="http://i1.7k7kimg.cn/game/7677/200/199858_527328.jpg"/>
<i class="icon_jian"></i></div>
<p>全民坦克大战</p>
</a></li>
<li class="game_item" data-id="199856"><a href="http://news.7k7k.com/yhzr/">
<div class="pic ">
<img alt="7k7k英魂之刃" src="http://i1.7k7kimg.cn/cms/cms10/20201130/135734_7342.jpg"/>
<i class="icon_jian"></i></div>
<p>7k7k英魂之刃</p>
</a></li>
<li class="game_item" data-id="199831"><a href="http://www.7k7k.com/flash/199831.htm">
<div class="pic ">
<img alt="翻转的立方体2" src="http://i2.7k7kimg.cn/cms/cms10/20200910/104912_8169.jpg"/>
<i class="icon_jian"></i></div>
<p>翻转的立方体2</p>
</a></li>
<li class="game_item" data-id="199827"><a href="http://www.7k7k.com/flash/199827.htm">
<div class="pic ">
<img alt="神枪手强尼3" src="http://i3.7k7kimg.cn/cms/cms10/20200909/120549_3602.jpg"/>
<i class="icon_jian"></i></div>
<p>神枪手强尼3</p>
</a></li>
<li class="game_item" data-id="199823"><a href="http://web.7k7k.com/games/zsjx/9223112/9223112-zsjx.html">
<div class="pic ">
<img alt="7k7k战神觉醒" src="http://i2.7k7kimg.cn/game/7677/200/199823_352746.jpg"/>
<i class="icon_jian"></i></div>
<p>7k7k战神觉醒</p>
</a></li>
<li class="game_item" data-id="199808"><a href="http://www.7k7k.com/flash/199808.htm">
<div class="pic ">
<img alt="灵敏橡胶特工" src="http://i3.7k7kimg.cn/cms/cms10/20200903/152217_8874.jpg"/>
<i class="icon_jian"></i></div>
<p>灵敏橡胶特工</p>
</a></li>
<li class="game_item" data-id="199805"><a href="http://www.7k7k.com/flash/199805.htm">
<div class="pic ">
<img alt="碾压一切" src="http://i1.7k7kimg.cn/game/7677/200/199805_165628.jpg"/>
<i class="icon_jian"></i></div>
<p>碾压一切</p>
</a></li>
<li class="game_item" data-id="199800"><a href="http://www.7k7k.com/flash/199800.htm">
<div class="pic ">
<img alt="智慧打水" src="http://i2.7k7kimg.cn/game/7677/200/199800_982953.jpg"/>
<i class="icon_jian"></i></div>
<p>智慧打水</p>
</a></li>
<li class="game_item" data-id="199773"><a href="http://www.7k7k.com/flash/199773.htm">
<div class="pic ">
<img alt="交通达人" src="http://i5.7k7kimg.cn/cms/cms10/20200828/153718_6666.jpg"/>
<i class="icon_jian"></i></div>
<p>交通达人</p>
</a></li>
</ul></div>
</div>
</div>
<div class="wrap wrap_ad2">
<div class="w_head">
<ul class="w_tabs">
<li class="w_tabs_i w_tabs_ied w_tabs_i_only">热门网游</li>
</ul>
<div class="w_links">
<a href="http://web.7k7k.com/">查看更多</a>
</div>
</div>
<div class="swiper_type2 swiper-container ">
<div class="swiper-wrapper">
</div>
<div class="swiper-pagination swiper-pagination2"></div>
<span class="icon icon_swper_prev icon_swper_prev2"></span>
<span class="icon icon_swper_next icon_swper_next2"></span>
</div>
<ul class="geme_Mlist geme_Mlist_flash">
</ul>
</div>
<div class="fixed-scroll">
<div class="wrap ">
<div class="w_head">
<ul class="w_tabs">
<li class="w_tabs_i w_tabs_ied w_tabs_i_only">相关专题</li>
</ul>
<div class="w_links">
<a href="/tag/">查看更多</a>
</div>
</div>
<ul class="game_list">
<li class="game_item">
<a href="/tag/12/">
<div class="pic pic70"><img alt="赛车" src="http://i1.7k7kimg.cn/tag/7070/1/12_192873.jpg"/></div>
<p>赛车</p>
</a>
</li>
<li class="game_item">
<a href="/tag/23/">
<div class="pic pic70"><img alt="单车" src="http://i2.7k7kimg.cn/tag/7070/1/23_511640.jpg"/></div>
<p>单车</p>
</a>
</li>
<li class="game_item">
<a href="/tag/47/">
<div class="pic pic70"><img alt="篮球" src="http://i3.7k7kimg.cn/tag/7070/1/47_921986.jpg"/></div>
<p>篮球</p>
</a>
</li>
<li class="game_item">
<a href="/tag/54/">
<div class="pic pic70"><img alt="摩托" src="http://i2.7k7kimg.cn/tag/7070/1/54_218723.jpg"/></div>
<p>摩托</p>
</a>
</li>
<li class="game_item">
<a href="/tag/62/">
<div class="pic pic70"><img alt="双人" src="http://i5.7k7kimg.cn/tag/7070/1/62_497460.jpg"/></div>
<p>双人</p>
</a>
</li>
<li class="game_item">
<a href="/tag/111/">
<div class="pic pic70"><img alt="驾驶" src="http://i1.7k7kimg.cn/tag/7070/1/111_960835.jpg"/></div>
<p>驾驶</p>
</a>
</li>
<li class="game_item">
<a href="/tag/127/">
<div class="pic pic70"><img alt="足球" src="http://i4.7k7kimg.cn/tag/7070/1/127_425023.jpg"/></div>
<p>足球</p>
</a>
</li>
<li class="game_item">
<a href="/tag/263/">
<div class="pic pic70"><img alt="障碍" src="http://i2.7k7kimg.cn/tag/7070/1/263_778974.jpg"/></div>
<p>障碍</p>
</a>
</li>
<li class="game_item">
<a href="/tag/276/">
<div class="pic pic70"><img alt="3D" src="http://i2.7k7kimg.cn/tag/7070/1/276_473694.jpg"/></div>
<p>3D</p>
</a>
</li>
<li class="game_item">
<a href="/tag/333/">
<div class="pic "><img alt="汽车" src="http://i2.7k7kimg.cn/tag/7677/1/333_177018.jpg"/></div>
<p>汽车</p>
</a>
</li>
<li class="game_item">
<a href="/tag/363/">
<div class="pic pic70"><img alt="竞速" src="http://i3.7k7kimg.cn/tag/7070/1/363_733502.jpg"/></div>
<p>竞速</p>
</a>
</li>
<li class="game_item">
<a href="/tag/378/">
<div class="pic pic70"><img alt="自行车" src="http://i3.7k7kimg.cn/tag/7070/1/378_411586.jpg"/></div>
<p>自行车</p>
</a>
</li>
</ul>
</div>
<div class="wrap wrap_page_ad2">
<div class="w_head">
<ul class="w_tabs">
<li class="w_tabs_i w_tabs_ied w_tabs_i_only">网页游戏</li>
</ul>
<div class="w_links">
<a href="http://web.7k7k.com/">查看更多</a>
</div>
</div>
<ul class="game_list">
</ul>
<ul class="geme_Mlist">
</ul>
</div>
</div>
</div>
</div>
<div class="line wrap wrap_type2">
<div class="w_head">
<ul class="w_tabs">
<li class="w_tabs_i w_tabs_ied w_tabs_i_only">热门专题</li>
</ul>
<div class="w_links">
<a class="w_more" href="/tag/">查看更多</a>
</div>
</div>
<ul class="game_list">
<li class="game_item">
<a href="/tag/252/">
<div class="pic1">
<i class="img_bk"></i>
<img alt="体育" src="http://i5.7k7kimg.cn/tag/10075/1/252_132883.jpg"/>
</div>
<p>体育</p>
</a>
</li>
<li class="game_item">
<a href="/tag/276/">
<div class="pic1">
<i class="img_bk"></i>
<img alt="3D" src="http://i4.7k7kimg.cn/tag/10075/1/276_301179.jpg"/>
</div>
<p>3D</p>
</a>
</li>
<li class="game_item">
<a href="/tag/12/">
<div class="pic1">
<i class="img_bk"></i>
<img alt="赛车" src="http://i4.7k7kimg.cn/tag/10075/1/12_217996.jpg"/>
</div>
<p>赛车</p>
</a>
</li>
<li class="game_item">
<a href="/tag/907/">
<div class="pic1">
<i class="img_bk"></i>
<img alt="3D赛车" src="http://i2.7k7kimg.cn/tag/10075/1/907_511421.jpg"/>
</div>
<p>3D赛车</p>
</a>
</li>
<li class="game_item">
<a href="/tag/111/">
<div class="pic1">
<i class="img_bk"></i>
<img alt="驾驶" src="http://i2.7k7kimg.cn/tag/10075/1/111_640631.jpg"/>
</div>
<p>驾驶</p>
</a>
</li>
<li class="game_item">
<a href="/tag/54/">
<div class="pic1">
<i class="img_bk"></i>
<img alt="摩托" src="http://i2.7k7kimg.cn/tag/10075/1/54_295736.jpg"/>
</div>
<p>摩托</p>
</a>
</li>
<li class="game_item">
<a href="/tag/35/">
<div class="pic1">
<i class="img_bk"></i>
<img alt="卡丁车" src="http://i4.7k7kimg.cn/tag/10075/1/35_393091.jpg"/>
</div>
<p>卡丁车</p>
</a>
</li>
<li class="game_item">
<a href="/tag/333/">
<div class="pic1">
<i class="img_bk"></i>
<img alt="汽车" src="http://i4.7k7kimg.cn/tag/10075/1/333_708204.jpg"/>
</div>
<p>汽车</p>
</a>
</li>
<li class="game_item">
<a href="/tag/3929/">
<div class="pic1">
<i class="img_bk"></i>
<img alt="球类" src="http://i2.7k7kimg.cn/tag/10075/4/3929_049521.jpg"/>
</div>
<p>球类</p>
</a>
</li>
<li class="game_item">
<a href="/tag/264/">
<div class="pic1">
<i class="img_bk"></i>
<img alt="越野" src="http://i1.7k7kimg.cn/tag/10075/1/264_320691.jpg"/>
</div>
<p>越野</p>
</a>
</li>
<li class="game_item">
<a href="/tag/21/">
<div class="pic1">
<i class="img_bk"></i>
<img alt="台球" src="http://i3.7k7kimg.cn/tag/10075/1/21_785887.jpg"/>
</div>
<p>台球</p>
</a>
</li>
<li class="game_item">
<a href="/tag/378/">
<div class="pic1">
<i class="img_bk"></i>
<img alt="自行车" src="http://i3.7k7kimg.cn/tag/10075/1/378_299363.jpg"/>
</div>
<p>自行车</p>
</a>
</li>
<li class="game_item">
<a href="/tag/47/">
<div class="pic1">
<i class="img_bk"></i>
<img alt="篮球" src="http://i2.7k7kimg.cn/tag/10075/1/47_479950.jpg"/>
</div>
<p>篮球</p>
</a>
</li>
<li class="game_item">
<a href="/tag/127/">
<div class="pic1">
<i class="img_bk"></i>
<img alt="足球" src="http://i5.7k7kimg.cn/tag/10075/1/127_846195.jpg"/>
</div>
<p>足球</p>
</a>
</li>
<li class="game_item">
<a href="/tag/3465/">
<div class="pic1">
<i class="img_bk"></i>
<img alt="极品飞车" src="http://i2.7k7kimg.cn/tag/10075/4/3465_081265.jpg"/>
</div>
<p>极品飞车</p>
</a>
</li>
<li class="game_item">
<a href="/tag/3588/">
<div class="pic1">
<i class="img_bk"></i>
<img alt="街头篮球" src="http://i1.7k7kimg.cn/tag/10075/4/3588_155750.jpg"/>
</div>
<p>街头篮球</p>
</a>
</li>
</ul>
<div class="game_links">
<a href="/tag/4278/">运动</a>
<a href="/tag/363/">竞速</a>
<a href="/tag/425/">卡车</a>
<a href="/tag/242/">停车</a>
<a href="/tag/303/">特技</a>
<a href="/tag/474/">四驱车</a>
<a href="/tag/4178/">跑车</a>
<a href="/tag/133/">赛跑</a>
<a href="/tag/1534/">消防车</a>
<a href="/tag/1293/">漂移</a>
<a href="/tag/4046/">训练</a>
<a href="/tag/3905/">3D摩托</a>
<a href="/tag/131/">水上运动</a>
<a href="/tag/4132/">公路</a>
<a href="/tag/3902/">3D跑酷</a>
<a href="/tag/992/">桌球</a>
<a href="/tag/3176/">出租车</a>
<a href="/tag/635/">F1赛车</a>
<a href="/tag/3467/">极限摩托</a>
<a href="/tag/22/">滑雪</a>
<a href="/tag/3903/">3D台球</a>
<a href="/tag/1839/">球赛</a>
<a href="/tag/3904/">3D足球</a>
<a href="/tag/122/">网球</a>
<a href="/tag/4254/">潜水</a>
<a href="/tag/4153/">田径</a>
<a href="/tag/4128/">射门</a>
<a href="/tag/3489/">点球大战</a>
<a href="/tag/3589/">扣篮</a>
<a href="/tag/3342/">男生游戏精选</a>
<a href="/tag/3914/">双人体育</a>
<a href="/tag/4028/">飞车</a>
<a href="/tag/4090/">体育无敌版</a>
<a href="/tag/23/">单车</a>
<a href="/tag/3984/">运货</a>
<a href="/tag/1375/">3D无敌版</a>
<a href="/tag/3284/">挖掘机</a>
<a href="/tag/3881/">3D卡车驾驶</a>
<a href="/tag/446/">极限越野</a>
<a href="/tag/3205/">救护车</a>
<a href="/tag/3586/">投篮</a>
<a href="/tag/200/">运动休闲</a>
<a href="/tag/3329/">越野车</a>
<a href="/tag/451/">摩托挑战赛</a>
<a href="/tag/3966/">模拟驾驶</a>
<a href="/tag/3473/">摩托障碍赛</a>
<a href="/tag/3872/">卡车停靠</a>
<a href="/tag/1615/">双人足球</a>
<a href="/tag/3985/">汽车运货</a>
<a href="/tag/3649/">四驱车大赛</a>
<a href="/tag/4177/">机车</a>
<a href="/tag/85/">拳击</a>
<a href="/tag/4367/">货车</a>
<a href="/tag/3885/">3D赛车越野</a>
<a href="/tag/4127/">拉力赛</a>
<a href="/tag/3261/">斯诺克</a>
<a href="/tag/278/">游泳</a>
<a href="/tag/2734/">赛艇</a>
<a href="/tag/3883/">大车吃小车</a>
<a href="/tag/2179/">大脚车</a>
<a href="/tag/1483/">警车赛车</a>
<a href="/tag/251/">雪人</a>
<a href="/tag/123/">乒乓球</a>
<a href="/tag/3884/">3D赛车竞速</a>
<a href="/tag/3886/">3D赛车大赛</a>
<a href="/tag/490/">疯狂大卡车</a>
<a href="/tag/230/">奥运</a>
<a href="/tag/3986/">火车运货</a>
<a href="/tag/4328/">骑马</a>
<a href="/tag/496/">特技摩托</a>
<a href="/tag/3942/">NBA</a>
<a href="/tag/3882/">大卡车司机停车</a>
<a href="/tag/4034/">运动会</a>
<a href="/tag/1669/">世界杯</a>
<a href="/tag/540/">越野赛</a>
<a href="/tag/3871/">出租车停车</a>
<a href="/tag/4474/">冠军</a>
<a href="/tag/3611/">自行车赛</a>
<a href="/tag/655/">公路赛车</a>
<a href="/tag/3868/">消防车停车</a>
<a href="/tag/4260/">老爷车</a>
<a href="/tag/119/">冰球</a>
<a href="/tag/3873/">跑车停靠</a>
<a href="/tag/4422/">奔跑</a>
<a href="/tag/4103/">滑冰</a>
<a href="/tag/889/">山地自行车</a>
<a href="/tag/128/">保龄球</a>
<a href="/tag/4253/">方程式赛车</a>
<a href="/tag/724/">碰碰车</a>
<a href="/tag/118/">排球</a>
<a href="/tag/120/">高尔夫</a>
<a href="/tag/1346/">国际象棋</a>
<a href="/tag/3870/">倒车模拟</a>
<a href="/tag/4026/">跑步</a>
<a href="/tag/4024/">登山</a>
<a href="/tag/57/">棒球</a>
<a href="/tag/4288/">角斗士</a>
<a href="/tag/4129/">足球射门</a>
<a href="/tag/125/">跳水</a>
<a href="/tag/4381/">瑜伽</a>
<a href="/tag/4136/">撞球</a>
<a href="/tag/3977/">相扑</a>
<a href="/tag/3610/">火柴人骑自行车</a>
<a href="/tag/3652/">山地滑雪</a>
<a href="/tag/126/">跳绳</a>
<a href="/tag/1021/">沙滩排球</a>
<a href="/tag/4370/">跆拳道</a>
<a href="/tag/4152/">跳高</a>
<a href="/tag/3587/">画线篮球</a>
<a href="/tag/3650/">滑雪比赛</a>
<a href="/tag/361/">橄榄球</a>
<a href="/tag/4298/">杂技</a>
<a href="/tag/3928/">特技自行车</a>
<a href="/tag/219/">攀岩</a>
</div>
</div>
</div>
<div class="footer">
<div class="f_con">
<div class="f_con_fl1">
<div class="f_game">
<div class="f_game_columns f_game_columns1">
<h2 class="f_game_tit"><a href="http://www.7k7k.com/"><span class="h_more_tit_c1">7K7K</span>小游戏</a></h2>
<div class="f_game_list f_game_list_l">
<a href="http://www.7k7k.com/tag/62/">双人游戏</a>
<a href="http://www.7k7k.com/tag/236/">冒险游戏</a>
<a href="http://www.7k7k.com/tag/253/">益智游戏</a>
<a href="http://www.7k7k.com/tag/134/">过关游戏</a>
<a href="http://www.7k7k.com/tag/245/">敏捷游戏</a>
<a href="http://www.7k7k.com/tag/106/">挑战游戏</a>
<a href="http://www.7k7k.com/td.html">塔防游戏</a>
</div>
<div class="f_game_list">
<a href="http://www.7k7k.com/mm.htm">女生游戏</a>
<a href="http://www.7k7k.com/boy.htm">男生游戏</a>
<a href="http://www.7k7k.com/tag/30/">战争游戏</a>
<a href="http://www.7k7k.com/tag/92/">棋牌游戏</a>
<a href="http://www.7k7k.com/tag/252/">体育游戏</a>
<a href="http://www.7k7k.com/tag/2727/">闯关游戏</a>
<a href="http://www.7k7k.com/tag/12/">赛车游戏</a>
</div>
</div>
<div class="f_game_columns">
<h2 class="f_game_tit"><a href="http://www.7k7k.com/tag/"><span class="h_more_tit_c2">7K7K</span>游戏专题</a></h2>
<div class="f_game_list f_game_list_l">
<a href="http://www.7k7k.com/tag/1/">连连看</a>
<a href="http://www.7k7k.com/tag/1263/">无敌版</a>
<a href="http://www.7k7k.com/tag/2124/">冒险王</a>
<a href="http://www.7k7k.com/tag/5/">泡泡堂</a>
<a href="http://www.7k7k.com/tag/404/">斗地主</a>
<a href="http://www.7k7k.com/tag/35/">卡丁车</a>
<a href="http://www.7k7k.com/tag/166/">魂斗罗</a>
</div>
<div class="f_game_list f_game_list_l">
<a href="http://www.7k7k.com/tag/177/">阿SUE</a>
<a href="http://www.7k7k.com/tag/222/">战斗机</a>
<a href="http://www.7k7k.com/tag/142/">特种兵</a>
<a href="http://www.7k7k.com/tag/31/">泡泡龙</a>
<a href="http://www.7k7k.com/tag/224/">火柴人</a>
<a href="http://www.7k7k.com/tag/24/">消消看</a>
<a href="http://www.7k7k.com/tag/27/">对对碰</a>
</div>
<div class="f_game_list f_game_list_l">
<a href="http://www.7k7k.com/tag/422/">单人</a>
<a href="http://www.7k7k.com/tag/17/">格斗</a>
<a href="http://www.7k7k.com/tag/247/">动作</a>
<a href="http://www.7k7k.com/tag/246/">射击</a>
<a href="http://www.7k7k.com/tag/111/">驾驶</a>
<a href="http://www.7k7k.com/tag/49/">坦克</a>
<a href="http://www.7k7k.com/tag/3899/">消除</a>
</div>
<div class="f_game_list f_game_list_l">
<a href="http://www.7k7k.com/tag/3/">换装</a>
<a href="http://www.7k7k.com/tag/8/">化妆</a>
<a href="http://www.7k7k.com/tag/4/">打扮</a>
<a href="http://www.7k7k.com/tag/41/">公主</a>
<a href="http://www.7k7k.com/tag/156/">芭比</a>
<a href="http://www.7k7k.com/tag/235/">解谜</a>
<a href="http://www.7k7k.com/tag/375/">制作</a>
</div>
<div class="f_game_list f_game_list_l">
<a href="http://www.7k7k.com/tag/58/">合金弹头</a>
<a href="http://www.7k7k.com/tag/11/">黄金矿工</a>
<a href="http://www.7k7k.com/tag/3267/">神庙逃亡</a>
<a href="http://www.7k7k.com/tag/681/">反恐精英</a>
<a href="http://www.7k7k.com/tag/76/">密室逃脱</a>
<a href="http://www.7k7k.com/tag/3390/">网红游戏</a>
<a href="http://www.7k7k.com/tag/3158/">橙光游戏</a>
</div>
<div class="f_game_list">
<a href="http://www.7k7k.com/tag/2690/">植物大战僵尸</a>
<a href="http://www.7k7k.com/tag/1704/">森林冰火人</a>
<a href="http://www.7k7k.com/tag/2841/">愤怒的小鸟</a>
<a href="http://www.7k7k.com/tag/2824/">皇家守卫军</a>
<a href="http://www.7k7k.com/tag/115/">俄罗斯方块</a>
<a href="http://www.7k7k.com/tag/1365/">逗小猴开心</a>
<a href="http://www.7k7k.com/tag/3271/">HTML5游戏</a>
</div>
</div>
<div class="f_game_columns">
<h2 class="f_game_tit"><a href="http://web.7k7k.com/"><span class="h_more_tit_c3">7K7K</span>网页游戏</a></h2>
<div class="f_game_list f_game_list_l">
<a href="http://web.7k7k.com/games/cjzg/">裁决战歌</a><a href="http://web.7k7k.com/games/W02000/">热血战歌</a><a href="http://web.7k7k.com/games/cqsj/">传奇世界</a><a href="http://web.7k7k.com/games/smcs2/">神魔传说</a><a href="https://web.7k7k.com/games/mhj2/">莽荒纪2</a><a href="https://web.7k7k.com/games/dldlx/">斗罗大陆</a><a href="https://web.7k7k.com/games/W02022/">盛世遮天</a>
</div>
<div class="f_game_list">
<a href="http://h5.7k7k.com/game/eccafa568349b06237ac496a231e504f">怼怼三国</a><a href="http://g.7k7k.com/games/W01996/">生死狙击</a><a href="http://news.7k7k.com/pkt/">皮卡堂</a><a href="http://h5.7k7k.com/game/f5c4dbf7fb41d89d76a333332f33f853">街篮高手</a><a href="http://tklm.7k7k.com/">坦克联盟</a><a href="http://news.7k7k.com/tzyx/">特战英雄</a><a href="http://news.7k7k.com/wmpy/">完美漂移</a>
</div>
</div>
<div class="f_game_columns">
<h2 class="f_game_tit"><a href="http://www.7k7k.com/tag/285/"><span class="h_more_tit_c4">7K7K</span>儿童游戏</a></h2>
<div class="f_game_list f_game_list_l">
<a href="http://www.7k7k.com/special/roco/">洛克王国</a><a href="http://www.7k7k.com/special/51seer/">赛尔号</a><a href="http://news.7k7k.com/aoqi/">奥奇传说</a><a href="http://news.7k7k.com/lskg/">就要K歌</a><a href="http://news.7k7k.com/ppbt/">炮炮兵团</a><a href="http://news.7k7k.com/mhlw/">梦幻恋舞</a><a href="http://news.7k7k.com/mnsj/">迷你世界</a>
</div>
<div class="f_game_list">
<a href="http://www.7k7k.com/special/xiaohuaxian/">小花仙</a><a href="http://www.7k7k.com/special/aola/">奥拉星</a><a href="http://www.7k7k.com/special/aobi/">奥比岛</a><a href="http://news.7k7k.com/ssol/">推理学院</a><a href="http://news.7k7k.com/czzzt/">村长征战团</a><a href="http://news.7k7k.com/msdzls">美食战老鼠</a><a href="http://news.7k7k.com/games/tpbsn/">逃跑吧少年</a>
</div>
</div>
</div>
<div class="f_wechat">
<h2 class="f_wechat_tit">关注微信</h2>
<div class="f_wechat_code">
<img alt="7K7K游戏" src="//www.7k7kjs.cn/static/qike/tag/images/wechat_code.jpg"/>
<p>微信扫码关注7K7K</p>
</div>
</div>
</div>
<div class="f_con_fl2">
<p><a href="http://www.7k7k.com/html/about.htm">关于我们</a> | <a href="http://www.7k7k.com/html/lianxi.htm">联系方式</a> | <a href="http://www.7k7k.com/html/a.htm">广告服务</a> | <a href="http://www.7k7k.com/html/duty.htm">免责声明</a> | <a href="http://web.7k7k.com/jiazhang/">家长监护工程</a> | <a href="http://web.7k7k.com/kf/">纠纷处理</a> | <a href="http://web.7k7k.com/">网页游戏</a> | <span>Copyright 2003-2021 7k7k.com</span></p>
<p class="p2"><a href="http://www.beian.gov.cn/portal/registerSystemInfo?recordcode=11010802021337">京公网安备 11010802021337号 </a> | <a href="https://beian.miit.gov.cn/#/Integrated/index">京ICP备18058000号-2</a> | <a href="https://beian.miit.gov.cn/#/Integrated/index">ICP证京B2-20191377号</a> | <a href="http://sq.ccm.gov.cn/ccnt/sczr/service/business/emark/toDetail/7D780FC3F7B6EA77E053010A14ACD91E">京网文[2018]11363-1047号</a></p>
<p class="p3">
<span>文明办网、文明上网举报，纠纷处理及不良内容举报电话：400-809-7676 </span>
<a href="mailto:jubao@7k7k.com">举报邮箱：jubao@7k7k.com</a>
<a href="http://www.jiayou123.cn/">北京迦游网络科技有限公司 </a>
</p>
<p class="f_p4">游戏作品版权归原作者享有，如无意之中侵犯了您的版权，请您按照《版权保护投诉指引》来信告知，本网站将应您的要求删除。</p>
<p class="f_p5">7k7k小游戏温馨提示：适度游戏娱乐，沉迷游戏伤身，合理安排时间，享受快乐生活……</p>
</div> <i class="foot_cat"></i>
</div>
</div>
<script src="//www.7k7kjs.cn/static/qike/common/js/login1.js?v=1.0.2"></script>
<script src="//www.7k7kjs.cn/static/qike/common/js/swiper-bundle.js?v=300"></script>
<script src="//www.7k7kjs.cn/static/qike/common/js/header.js?v=300"></script>
<script src="//www.7k7kjs.cn/static/qike/flash/js/flash1.js?v=300"></script>
<script src="//www.7k7kjs.cn/static/common/pub.js?v=1.0.2"></script>
</body>
</html>