<!DOCTYPE html PUBLIC "-//W3C//DTD XHTML 1.0 Transitional//EN" "http://www.w3.org/TR/xhtml1/DTD/xhtml1-transitional.dtd">
<html xmlns="http://www.w3.org/1999/xhtml">
<head>
<meta content="text/html; charset=utf-8" http-equiv="Content-Type"/>
<title>ìµì  ì¤í¬ì¸  ë´ì¤ -7mkr</title>
<meta content="ì¤í¬ì¸ ,ì¶êµ¬,  ì¼êµ¬,  ëêµ¬,  í¬í ,ëìì, ë¬¸ìì¤ê³, ë¼ì´ë¸ ì¤ì½ì´" name="keywords"/>
<meta content="7mkrë ìµì  ì¶êµ¬,ì¼êµ¬,ëêµ¬,ì°ì,ëìì ë±ë± ì ë³´ë¥¼ ì ê³µí´ëë¦½ëë¤." name="description"/>
<link href="//style.7mkr.com/reset.css?f6" rel="stylesheet" type="text/css"/>
<link href="//style.7mkr.com/home.css" rel="stylesheet" type="text/css"/>
<script src="/js/7mkr_gg.js" type="text/javascript"></script>
<script src="/js/jquery.min.js" type="text/javascript"></script>
<script src="/js/jquery.lazyload.js" type="text/javascript"></script>
<script src="/js/index.js" type="text/javascript"></script>
<script src="/js/rank.js" type="text/javascript"></script>
<script src="//static.7m.com.cn/js/7mkr/video_sidebar.js?v=1" type="text/javascript"></script>
<script language="javascript" src="//check.7m.com.cn/acpl.aspx"></script>
<script type="text/javascript">
	function writeJs(url){
		document.write('<script type="text/javascript" src="'+url+'?f='+new Date().valueOf()+'" ><\/script>');
	}
	writeJs('/js/roll/indexroll.js');
	writeJs('/js/roll/indexentphotoroll.js');
</script>
</head>
<!--[if IE 6]>
<script type="text/javascript" src="//www.7mkr.com/js/DD_belatedPNG_0.0.8a-min.js"></script>
<script type="text/javascript">
	DD_belatedPNG.fix('.logo_sign, .footer, .icon_a_on, .icon_b_on, .icon_c_on, .icon_d_on, .icon_e_on, .icon_f_on, .icon_g_on, .icon_a, .icon_b, .icon_c, .icon_d, .icon_e, .icon_f, .icon_g');
</script>
<![endif]-->
<body>
<div class="content">
<div class="header">
<div class="glo_menu">
<!--
   		<div class="focuswe">
        	<strong>ì¹êµ¬ ì¶ê°ï¼</strong>
        	<a href="https://www.facebook.com/7msport" class="fb" target="_blank" title="Facebook"></a>
            <a href="https://www.twitter.com/7mkrsports/" class="tt" target="_blank" title="Twitter"></a>
            &lt;!&ndash; <a href="https://www.instagram.com/sports7mkr/" class="ins" target="_blank" title="Instagram"></a> &ndash;&gt;
        </div>
-->
<ul class="glo_menu_box">
<li onmouseout="hidemenu( 1 )" onmouseover="showmenu( 1 )"><a href="http://live3.7mkr.com/cpk_live_kr.aspx?line=no" target="_blank">ëì &amp;ì¹ë¥ 2in1</a>|
            	<ul class="s_menu_box" id="menu1" onmouseout="hidemenu( 1 )" onmouseover="showmenu( 1 )" style="display:none;left:-6px;">
<div class="f_arrtr"><span></span></div>
<li onmouseout="hidesonmenu( 11 )" onmouseover="showsonmenu( 11 )">
<a class="s_m_nav" href="http://live3.7mkr.com/cpk_live_kr.aspx?line=no" target="_blank">S2 2in1</a>
<dl class="nav_menu_a" id="sonmenu11" onmouseout="hidesonmenu( 11 )" onmouseover="showsonmenu( 11 )" style="display:none;">
<dd><a href="http://live3.7mkr.com/cpk_live_kr.aspx?view=all&amp;line=no" target="_blank">ì ì²´í</a></dd>
<dd class="div_none"><a href="http://live3.7mkr.com/cpk_live_kr.aspx?view=simplify&amp;line=no" target="_blank">ê°ì´í</a></dd>
</dl>
</li>
<li onmouseout="hidesonmenu( 12 )" onmouseover="showsonmenu( 12 )">
<a class="s_m_nav" href="http://live3.7mkr.com/pk_live_kr.aspx?line=no" target="_blank">Macauslot 2in1</a>
<dl class="nav_menu_a" id="sonmenu12" onmouseout="hidesonmenu( 12 )" onmouseover="showsonmenu( 12 )" style="display:none;">
<dd><a href="http://live3.7mkr.com/pk_live_kr.aspx?view=all&amp;line=no" target="_blank">ì ì²´í</a></dd>
<dd class="div_none"><a href="http://live3.7mkr.com/pk_live_kr.aspx?view=simplify&amp;line=no" target="_blank">ê°ì´í</a></dd>
</dl>
</li>
<!--		            <li onmouseover="showsonmenu( 13 )" onmouseout="hidesonmenu( 13 )">
		                <a class="s_m_nav div_none" href="http://live3.7mkr.com/lbpk_live_kr.aspx?line=no" target="_blank" >Ladbrokes 2in1</a>
		                <dl class="nav_menu_a" style="display:none;" id="sonmenu13" onmouseover="showsonmenu( 13 )" onmouseout="hidesonmenu( 13 )" >
		                    <dd><a href="http://live3.7mkr.com/lbpk_live_kr.aspx?view=all&line=no" target="_blank" >ì ì²´í</a></dd>
		                    <dd class="div_none"><a href="http://live3.7mkr.com/lbpk_live_kr.aspx?view=simplify&line=no" target="_blank" >ê°ì´í</a></dd>
		                </dl>
		            </li>-->
</ul>
</li>
<!--<li><a href="//guess.7mkr.com/index.html" target="_blank">í´ì¦ ê²ì</a>|<i class="hot_i" style="display: inline-block;width: 22px;height: 12px;background:url('//img.7m.com.cn/bf/en/t_new.gif') no-repeat 0 0;position: absolute;top: 2px;right: 18px;"></i></li>-->
<li onmouseout="hidemenu( 2 )" onmouseover="showmenu( 2 )"><a href="http://live3.7mkr.com/default_kr.aspx?line=no" target="_blank"><strong style="color:#FCFF00">ë¼ì´ë¸ì¤ì½ì´</strong></a>|
            	<ul class="s_menu_box" id="menu2" onmouseout="hidemenu( 2 )" onmouseover="showmenu( 2 )" style="display:none;left:-16px;">
<div class="f_arrtr"><span></span></div>
<li onmouseout="hidesonmenu( 21 )" onmouseover="showsonmenu( 21 )">
<a class="s_m_nav" href="http://live3.7mkr.com/default_kr.aspx?line=no" target="_blank">ì¶êµ¬ ì¤ì½ì´</a>
<dl class="nav_menu_a" id="sonmenu21" onmouseout="hidesonmenu( 21 )" onmouseover="showsonmenu( 21 )" style="display:none;">
<dd><a href="http://live3.7mkr.com/default_kr.aspx?view=all&amp;line=no" target="_blank">ì ì²´í</a></dd>
<dd class="div_none"><a href="http://live3.7mkr.com/default_kr.aspx?view=simplify&amp;line=no" target="_blank">ê°ì´í</a></dd>
</dl>
</li>
<li><a class="s_m_nav" href="https://esports.7mkr.com/live/" target="_blank">eì¤í¬ì¸  ì¤ì½ì´</a></li>
<li><a class="s_m_nav" href="https://basket.7mkr.com" target="_blank">ëêµ¬ ì¤ì½ì´</a></li>
<li><a class="s_m_nav" href="http://tennis.7m.com.cn/default_en.aspx?ecd=kr" target="_blank">íëì¤ ì¤ì½ì´</a></li>
<li><a class="s_m_nav" href="https://bab.7mkr.com/" target="_blank">ì¼êµ¬ ì¤ì½ì´</a></li>
<li><a class="s_m_nav div_none" href="http://amf.7m.com.cn/default_kr.aspx" target="_blank">ë¯¸ìì¶êµ¬</a></li>
</ul>
</li>
<li onmouseout="hidemenu( 3 )" onmouseover="showmenu( 3 )"><a href="https://data.7mkr.com/result/" target="_blank">ê²½ê¸°ê²°ê³¼</a>|
            	<ul class="s_menu_box" id="menu3" onmouseout="hidemenu( 3 )" onmouseover="showmenu( 3 )" style="display:none;left:-26px;">
<div class="f_arrtr"><span></span></div>
<li><a class="s_m_nav" href="https://data.7mkr.com/result/" target="_blank">ì¶êµ¬ ê²½ê¸°ê²°ê³¼</a></li>
<li><a class="s_m_nav div_none" href="http://bdata.7m.com.cn/result_data/default_kr.aspx" target="_blank">ëêµ¬ ê²½ê¸°ê²°ê³¼</a></li>
</ul>
</li>
<li onmouseout="hidemenu( 4 )" onmouseover="showmenu( 4 )"><a href="https://data.7mkr.com/fixture/?date=1" target="_blank">ê²½ê¸°ì¼ì </a>|
            	<ul class="s_menu_box" id="menu4" onmouseout="hidemenu( 4 )" onmouseover="showmenu( 4 )" style="display:none;left:-26px;">
<div class="f_arrtr"><span></span></div>
<li><a class="s_m_nav" href="https://data.7mkr.com/fixture/?date=1" target="_blank">ì¶êµ¬ ê²½ê¸°ì¼ì </a></li>
<li><a class="s_m_nav div_none" href="http://bdata.7m.com.cn/fixture_data/default_kr.aspx" target="_blank">ëêµ¬ ê²½ê¸°ì¼ì </a></li>
</ul>
</li>
<li onmouseout="hidemenu( 5 )" onmouseover="showmenu( 5 )"><a href="http://s2.luckscore.com/default_kr.shtml" target="_blank">ì¹ë¥ </a>|
            	<ul class="s_menu_box" id="menu5" onmouseout="hidemenu( 5 )" onmouseover="showmenu( 5 )" style="display:none;left:-38px;">
<div class="f_arrtr"><span></span></div>
<li onmouseout="hidesonmenu( 51 )" onmouseover="showsonmenu( 51 )">
<a class="s_m_nav" href="http://s2.luckscore.com/default_kr.shtml" target="_blank">ì¶êµ¬ ì¹ë¥ </a>
<dl class="nav_menu_a" id="sonmenu51" onmouseout="hidesonmenu( 51 )" onmouseover="showsonmenu( 51 )" style="display:none;">
<dd><a href="http://odds.lucksport.com/index_kr.shtml" target="_blank">ì¹ë¥ </a></dd>
<dd><a href="http://am.lucksport.com/en/winodds.shtml?ecd=kr" target="_blank">í¸ëìº¡</a></dd>
<dd><a href="http://s2.luckscore.com/default_kr.shtml" target="_blank">ì¹ë¥ S2</a></dd>
<dd class="div_none"><a href="http://1x2.7mkr.com" target="_blank">ì¹ë¥ 1Ã2</a></dd>
</dl>
</li>
<li onmouseout="hidesonmenu( 52 )" onmouseover="showsonmenu( 52 )">
<a class="s_m_nav div_none" href="http://bodds.lucksport.com/default_kr.shtml" target="_blank">ëêµ¬ ì¹ë¥ </a>
<dl class="nav_menu_a" id="sonmenu52" onmouseout="hidesonmenu( 52 )" onmouseover="showsonmenu( 52 )" style="display:none;">
<dd><a href="http://bodds.lucksport.com/default_kr.shtml" target="_blank">ì¹ë¥ </a></dd>
<dd class="div_none"><a href="http://bam.lucksport.com/en/winodds.shtml?ecd=kr" target="_blank">Macauslot Odds</a></dd>
</dl>
</li>
</ul>
</li>
<li><a href="http://data.7m.com.cn/database/index_kr.htm" target="_blank">ë°ì´í°</a>|</li>
<li onmouseout="hidemenu( 6 )" onmouseover="showmenu( 6 )"><a href="https://freelive.7mkr.com/" target="_blank">ë¬´ë£ì¬ì©</a>|
            	<ul class="s_menu_box" id="menu6" onmouseout="hidemenu( 6 )" onmouseover="showmenu( 6 )" style="display:none;left:-26px;">
<div class="f_arrtr"><span></span></div>
<li><a class="s_m_nav" href="https://freelive.7mkr.com/" target="_blank">ì¶êµ¬ ì¤ì½ì´ ì¬ì©</a></li>
<li><a class="s_m_nav div_none" href="https://freelive.7mkr.com/apply3_kr.aspx" target="_blank">ëêµ¬ ì¤ì½ì´ ì¬ì©</a></li>
</ul>
</li>
<li><a href="http://tv.7m.com.cn/kr/" target="_blank">í¸ì±í</a>|</li>
<li><a href="http://predict.7msport.com/kr/" target="_blank">ê²½ê¸° ìì¸¡</a>|</li>
<li><a href="http://sport.7mkr.com/soccer/report/index.shtml" target="_blank"><strong style="color:#FCFF00">ì ë³´</strong></a></li>
<!--<li><a href="http://2016.7mkr.com" target="_blank" ><strong style="color:#FF0000">EURO 2016</strong></a></li>-->
<!--<li><a href="//2018.7msport.com/kr/index?target=7mkr_com_Button" target="_blank"><strong style="color:#FCFF00">2018 ìëì»µ</strong></a><i class="hot_i"></i></li>-->
</ul>
</div>
<div class="banner">
<div class="logo"><a class="logo_sign" href="http://www.7mkr.com"></a></div>
<div class="poster" id="ad_home_t1"></div>
<div class="search">
<form action="http://www.7mkr.com/search.php" target="_blank">
<span class="top_sea_text"><input id="key" name="key" onmouseout="seachkey( 0 , 1 )" onmouseover="seachkey( 0 , 0 )" type="text" value="ê²ì.."/></span>
<input class="top_sea_sur" onclick="search( 0 )" type="button"/>
<input name="t" type="hidden" value="1"/>
</form>
</div>
</div>
<div class="page_menu">
<ul class="menu_bg">
<li><a class="icon_a_on" href="http://www.7mkr.com">í</a></li>
<li><em><img src="http://static.7m.com.cn/images/video/kr/hot_icon.gif"/></em><a class="icon_h" href="https://tips.7mkr.com" target="_blank">íë¡í½</a></li>
<li><a class="icon_b" href="http://sport.7mkr.com/soccer/list/domestic/">ì¶êµ¬</a></li>
<li><a class="icon_c" href="http://sport.7mkr.com/baseball/">ì¼êµ¬</a></li>
<li><a class="icon_d" href="http://sport.7mkr.com/basketball/">ëêµ¬/ê¸°í</a></li>
<li><a class="icon_e" href="http://ent.7mkr.com">ì°ì</a></li>
<li><a class="icon_f" href="http://photo.7mkr.com">í¬í </a></li>
<!-- <li>
                <em><img src="http://static.7m.com.cn/images/video/kr/hot_icon.gif"></em>
                <a href="http://video.7mkr.com" class="icon_g">ëìì</a>
			</li> -->
<li>
<em><img src="http://static.7m.com.cn/images/video/kr/new_icon.gif"/></em>
<a class="icon_g" href="https://esports.7mkr.com/live/" style="font-size: 12px;" target="_blank">eì¤í¬ì¸ </a>
</li>
</ul>
</div>
</div>
<script type="text/javascript">


function $$( id ){
	return document.getElementById( id );
}

function showmenu( index ){
	$$( 'menu'+index ).style.display = 'block';
}

function hidemenu( index ){
	$$( 'menu'+index ).style.display = 'none';
}

function showsonmenu( index ){
	$$( 'sonmenu'+index ).style.display = 'block';
}

function hidesonmenu( index ){
	$$( 'sonmenu'+index ).style.display = 'none';
}


function search( flag ){
	var key =  flag == 0 ? $( '#key' ).val( ) : $( '#fkey' ).val( );
	if( key == 'ê²ì..' || key == '' ){
		return false;
	}
	window.open( '/search.php?t=1&key='+ encodeURIComponent( key ) );	
}

function seachkey(  oid , flag ){
	var keyobj = oid == 0 ? $( '#key' ) : $( '#fkey' );
	if( flag == 0 ){
		if( keyobj.val( ) == 'ê²ì..' ){
			keyobj.val( '' );
		}
	}
	if( flag == 1 ){
		if( keyobj.val( ) == 'ê²ì..'|| keyobj.val( ) == ''  )
		keyobj.val( 'ê²ì..' ); 
	}
}

</script>
<div id="ts_m"></div>
<!-- ä¸»åå®¹ -->
<div class="abody">
<div class="front_page">
<!-- è½®æ¢ -->
<div class="rotate">
<!-- å¤§å¾ -->
<div class="big_pic">
<ul id="slideUl"></ul>
<div class="b_pic_wzbg"></div>
<div class="b_pic_wz">
<a class="rot_title" href="#" id="pic_title"></a>
<span class="pic_that" id="pic_that"></span>
</div>
</div>
<!-- å¤§å¾ç»æ -->
<!-- å°å¾ -->
<div class="small_pic">
<ul id="slideUl2"></ul>
</div>
<!-- å°å¾ç»æ -->
</div>
<!-- è½®æ¢ç»æ -->
<!-- å¤´æ¡æ°é» -->
<div class="headline">
<dl class="line_box_t">
<dt class="head_title">
<a href="http://news.7mkr.com/data/20210112/142242.shtml" title="ë§¤ë ¥ë§ì ì ëª¨ë¸ ì ë°, ì²­ë°ì§ì ëª¨ë¸í¤ëë¥¼ ìê³  íìì ë§¤ë ¥ ë½ë´">ë§¤ë ¥ë§ì ì ëª¨ë¸ ì ë°, ì²­ë°ì§ì ëª¨...</a></dt>
<dd class="head_pic">
<a href="http://news.7mkr.com/data/20210112/142242.shtml" title="ë§¤ë ¥ë§ì ì ëª¨ë¸ ì ë°, ì²­ë°ì§ì ëª¨ë¸í¤ëë¥¼ ìê³  íìì ë§¤ë ¥ ë½ë´">
<img alt="ë§¤ë ¥ë§ì ì ëª¨ë¸ ì ë°, ì²­ë°ì§ì ëª¨ë¸í¤ëë¥¼ ìê³  íìì ë§¤ë ¥ ë½ë´" class="lazy" data-original="http://uimg.7mkr.com//data/newsicon/20210112/033509o553ru5id31610436909400149.jpg"/></a></dd>
<dd class="head_wz">TFC ë§ê±¸ ì ë°ê° ëªë¶íì ì ë¼ì¸ì ê³¼ìíë¤. ì ë°ë ìµê·¼ ìì ì SNSì ì²­ë°ì§ì ëª¨ë¸í¤ëë¥¼ ë§¤ì¹ìí¨ ...</dd>
</dl>
<dl class="line_box_c">
<dt class="head_title">
<a href="http://news.7mkr.com/data/20210112/142241.shtml" title="í¬í­, ë² íë ë¯¸ëíë ì ì§í¸ ìì">í¬í­, ë² íë ë¯¸ëíë ì ì§í¸ ìì</a></dt>
<dd class="head_pic">
<a href="http://news.7mkr.com/data/20210112/142241.shtml" title="í¬í­, ë² íë ë¯¸ëíë ì ì§í¸ ìì">
<img alt="í¬í­, ë² íë ë¯¸ëíë ì ì§í¸ ìì" class="lazy" data-original="http://uimg.7mkr.com//data/newsicon/20210112/032049d1w3u0sl_f1610436049148748.jpg"/></a></dd>
<dd class="head_wz">í¬í­ì¤í¸ë¬ì¤ê° ë¯¸ëíë ì ì§í¸ë¥¼ ììíë©´ì ì¤ìì ê°ííë¤.ì ì§í¸ë í¬í­ ì ì¤íì¸ í¬ì² ê³µê³ ë¥¼ ì¡¸ì...</dd>
</dl>
<dl class="line_box_b">
<dt class="head_title">
<a href="http://news.7mkr.com/data/20210112/142131.shtml" title="ì´ ëª¸ë§¤ê° 50ë?â¦ì¹ê³¼ìì¬ ì´ìì§ íì ">ì´ ëª¸ë§¤ê° 50ë?…ì¹ê³¼ìì¬ ì´ìì§ í...</a></dt>
<dd class="head_pic">
<a href="http://news.7mkr.com/data/20210112/142131.shtml" title="ì´ ëª¸ë§¤ê° 50ë?â¦ì¹ê³¼ìì¬ ì´ìì§ íì ">
<img alt="ì´ ëª¸ë§¤ê° 50ë?â¦ì¹ê³¼ìì¬ ì´ìì§ íì " class="lazy" data-original="http://uimg.7mkr.com//data/newsicon/20210112/103122n0521czorz161041868213176.jpg"/></a></dd>
<dd class="head_wz">ì íë² ê²¸ ì¹ê³¼ìì¬ ì´ìì§(52)ì´ ë¹í¤ë ìíë¥¼ ê³µê°íë¤.ì¹ê³¼ìì¬ ì´ìì§ì 11ì¼ ì¸ì¤íê·¸ë¨ì "ì§ëì¹...</dd>
</dl>
</div>
<!-- å¤´æ¡æ°é»ç»æ -->
<!-- å³ä¾§å¹¿å -->
<div class="front_ad">
<div class="appkr">
<div class="app_title"></div>
<div class="app_box">
<a class="app_i" href="http://app.7m.com.cn/soccer/kr/index.shtml" target="_blank"></a>
<a class="app_a" href="http://app.7m.com.cn/soccer/kr/index.shtml" target="_blank"></a>
</div>
<div class="app_gg">2017-07-10 7Mê³µì§<br/>7Mì¶êµ¬&amp;ëêµ¬ ë¤ì¸ì´ ë²ì  ì¶ì</div>
</div>
<div id="ad_home_t">
<!--	            	<a href="http://live.7mkr.com" target="_blank"><img src="http://7mad.7m.com.cn/7mkr_db_220x93.gif" width="220" height="63"></a>
	            	<a href="http://tv.7m.com.cn/kr" target="_blank"><img src="http://7mad.7m.com.cn/s/7mkr_tv_220x93.gif" width="220" height="63"></a>
	            	<a href="http://bwlive.7m.com.cn/index_kr.shtml" target="_blank"><img src="http://7mad.7m.com.cn/s/7mkr_bw_220x93.gif" width="220" height="63"></a>
	            	<a href="https://freelive.7mkr.com/" target="_blank"><img src="http://7mad.7m.com.cn/s/7mkr_free_220x93.gif" width="220" height="63"></a>-->
</div>
</div>
<!-- å³ä¾§å¹¿åç»æ -->
<div class="clear"></div>
</div>
<!-- æ°é»åå®¹ä¸»æ¨¡å -->
<div class="host_cont">
<!-- è¶³çæ¨¡å -->
<div class="football">
<div class="foot_box">
<div class="for_civ">
<span class="foreign"><a href="//sport.7mkr.com/soccer/list/foreign/">í´ì¸</a></span>
<span class="civil"><a href="//sport.7mkr.com/soccer/list/domestic/">êµ­ë´</a></span>
</div>
<!-- è¶³çå½åæ°é» -->
<div class="foot_news">
<div class="com_title">
<span class="com_wz">êµ­ë´</span>
<span class="com_more"><a href="//sport.7mkr.com/soccer/list/domestic/">ëë³´ê¸°</a></span>
<div class="clear"></div>
</div>
<div class="foot_big">
<a href="http://news.7mkr.com/data/20210112/142241.shtml"><img class="lazy" data-original="http://uimg.7mkr.com//data/newsicon/20210112/032049d1w3u0sl_f1610436049148748.jpg" title="í¬í­, ë² íë ë¯¸ëíë ì ì§í¸ ìì"/></a>
<span class="f_b_title"><a href="http://news.7mkr.com/data/20210112/142241.shtml" title="í¬í­, ë² íë ë¯¸ëíë ì ì§í¸ ìì">í¬í­, ë² íë ë¯¸ëíë ì ì§í¸ ìì</a></span>
<span class="f_b_words">í¬í­ì¤í¸ë¬ì¤ê° ë¯¸ëíë ì ì§í¸ë¥¼ ììíë©´ì ì¤ìì ê°ííë¤.ì ì§í¸ë í¬í­ ì ì¤íì¸ í¬ì² ê³µê³ ë¥¼ ì¡¸ìíê³  ìë¨ëë¥¼ ê±°ì³ 2011ë í¬í­ì¤í¸ë¬ì¤ìì íë¡ ë°ë·íë¤. ì¹´íë¥´ì ìëìë¯¸ë¦¬í¸...</span>
</div>
<div class="foot_small">
<ul>
<li>
<span class="f_s_title"><a href="http://news.7mkr.com/data/20210112/142120.shtml" title="Kë¦¬ê·¸1 ì±ë¨, ëì ì ë°ë ê³µê²©ì ë°ì©ì§ ìì">Kë¦¬ê·¸1 ì±ë¨, ëì ì ë°ë ê³µê²©ì ë°ì©ì§ ìì</a></span>
<span class="f_s_pic"><a href="http://news.7mkr.com/data/20210112/142120.shtml" title="Kë¦¬ê·¸1 ì±ë¨, ëì ì ë°ë ê³µê²©ì ë°ì©ì§ ìì"><img alt="Kë¦¬ê·¸1 ì±ë¨, ëì ì ë°ë ê³µê²©ì ë°ì©ì§ ìì" class="lazy" data-original="http://uimg.7mkr.com//data/newsicon/20210112/094046qvixjpfvs_1610415646431627.jpg"/></a></span>
<span class="f_s_words">íë¡ì¶êµ¬ Kë¦¬ê·¸2 ëì íëìí°ì¦ìì ë°ë ê³µê²©ì ë°ì©ì§(29)ê° 2015∼2016ìì¦ íì½íë Kë¦¬ê·¸1 ì±ë¨ FC...</span>
<div class="clear"></div>
</li>
<li>
<span class="f_s_title"><a href="http://news.7mkr.com/data/20210112/142119.shtml" title="íëªë³´ ê°ëì´ ë³´ìì ? ì´ì  ë¤ë¥¸ ì¹´ëë¥¼ ë§ì§ë¤">íëªë³´ ê°ëì´ ë³´ìì ? ì´ì  ë¤ë¥¸ ì¹´ëë¥¼ ë§ì§ë¤</a></span>
<span class="f_s_pic"><a href="http://news.7mkr.com/data/20210112/142119.shtml" title="íëªë³´ ê°ëì´ ë³´ìì ? ì´ì  ë¤ë¥¸ ì¹´ëë¥¼ ë§ì§ë¤"><img alt="íëªë³´ ê°ëì´ ë³´ìì ? ì´ì  ë¤ë¥¸ ì¹´ëë¥¼ ë§ì§ë¤" class="lazy" data-original="http://uimg.7mkr.com//data/newsicon/20210112/093748ouj_qe43gt161041546877914.jpg"/></a></span>
<span class="f_s_words">ëíí ì¬ë ¹í ìì , íëªë³´ ì¸ì° íë ê°ëì ì ì ì  ì¸¡ë©´ìì ë§ì í¨ë¥¼ ê°ì§ì§ ìì ì§ëìì²ë¼ ì¬ê²¨...</span>
<div class="clear"></div>
</li>
<li>
<span class="f_s_title"><a href="http://news.7mkr.com/data/20210111/142112.shtml" title="íë¡ì¶êµ¬ ìì ì¼ì±, ì¤ì ìë¹ì ìµì ì ìì">íë¡ì¶êµ¬ ìì ì¼ì±, ì¤ì ìë¹ì ìµì ì ìì</a></span>
<span class="f_s_pic"><a href="http://news.7mkr.com/data/20210111/142112.shtml" title="íë¡ì¶êµ¬ ìì ì¼ì±, ì¤ì ìë¹ì ìµì ì ìì"><img alt="íë¡ì¶êµ¬ ìì ì¼ì±, ì¤ì ìë¹ì ìµì ì ìì" class="lazy" data-original="http://uimg.7mkr.com//data/newsicon/20210111/031337mgncu80o0w1610349217129205.jpg"/></a></span>
<span class="f_s_words">íë¡ì¶êµ¬ Kë¦¬ê·¸1 ìì ì¼ì±ì´ ì¤ì ìë¹ì ìµì ì(26)ì ììíë¤.ììì 11ì¼ “ìµì ìì ì¼ë³¸ J2(2ë¶)...</span>
<div class="clear"></div>
</li>
</ul>
</div>
<div class="clear"></div>
</div>
<div class="m1_l" id="m1_l"></div>
<!-- è¶³çå½åæ°é»ç»æ -->
<!-- è¶³çå½å¤æ°é» -->
<div class="foot_news">
<div class="com_title">
<span class="com_wz">í´ì¸</span>
<span class="com_more"><a href="//sport.7mkr.com/soccer/list/foreign/">ëë³´ê¸°</a></span>
<div class="clear"></div>
</div>
<div class="foot_big">
<a href="http://news.7mkr.com/data/20210112/142240.shtml"><img class="lazy" data-original="http://uimg.7mkr.com//data/newsicon/20210112/0313013kgrfmshla1610435581120738.jpg" title="ìí¥ë¯¼, í í¸ë '12ìì ê³¨' ì£¼ì¸ê³µ ëì â¦'ìëê³¨ ì ì¡°ê¸°'"/></a>
<span class="f_b_title"><a href="http://news.7mkr.com/data/20210112/142240.shtml" title="ìí¥ë¯¼, í í¸ë '12ìì ê³¨' ì£¼ì¸ê³µ ëì â¦'ìëê³¨ ì ì¡°ê¸°'">ìí¥ë¯¼, í í¸ë '12ìì ê³¨' ì£¼ì¸ê³µ ëì â¦'ìëê³¨ ì ì¡°ê¸°'</a></span>
<span class="f_b_words">ìí¥ë¯¼ì´ í í¸ë íì¤í¼ì '12ìì ê³¨' ì£¼ì¸ê³µì´ ëë¤.í í¸ëì 12ì¼(íêµ­ ìê°) êµ¬ë¨ ííì´ì§ë¥¼ íµí´ ìí¥ë¯¼ì´ í°ë¨ë¦° ê³¨ì´ í¬ í¬íë¥¼ íµí´ ì´ë¬ì ê³¨ì ë½íë¤ê³  ê³µì ë°ííë¤....</span>
</div>
<div class="foot_small">
<ul>
<li>
<span class="f_s_title"><a href="http://news.7mkr.com/data/20210112/142118.shtml" title="ë£¨ë, 18ëì ì ì ìí ë§ë¬´ë¦¬â¦ëë¹ ì ì ê°ë ë¶ì">ë£¨ë, 18ëì ì ì ìí ë§ë¬´ë¦¬â¦ëë¹ ì ì ê°ë ë¶ì</a></span>
<span class="f_s_pic"><a href="http://news.7mkr.com/data/20210112/142118.shtml" title="ë£¨ë, 18ëì ì ì ìí ë§ë¬´ë¦¬â¦ëë¹ ì ì ê°ë ë¶ì"><img alt="ë£¨ë, 18ëì ì ì ìí ë§ë¬´ë¦¬â¦ëë¹ ì ì ê°ë ë¶ì" class="lazy" data-original="http://uimg.7mkr.com//data/newsicon/20210112/092755v6wzxsgvjc1610414875183996.jpg"/></a></span>
<span class="f_s_words">ì¨ì¸ ë£¨ë(ëë¹ì¹´ì´í°)ê° 18ë ë§ì íì­ ìíì ë§ë¬´ë¦¬ íë¤. ì¬ ìì¦ ì ì ê²¸ ê°ëëíì§ì ë§¡ë¤ê° ì ...</span>
<div class="clear"></div>
</li>
<li>
<span class="f_s_title"><a href="http://news.7mkr.com/data/20210112/142117.shtml" title="'40ëªâ36ëª' EPL ì ê· íì§ì ìí­ íë½â¦ ê²½ê¸°ë ì¬ì í ì§í">'40ëªâ36ëª' EPL ì ê· íì§ì ìí­ íë½â¦ ê²½ê¸°ë ì¬ì í ì§í</a></span>
<span class="f_s_pic"><a href="http://news.7mkr.com/data/20210112/142117.shtml" title="'40ëªâ36ëª' EPL ì ê· íì§ì ìí­ íë½â¦ ê²½ê¸°ë ì¬ì í ì§í"><img alt="'40ëªâ36ëª' EPL ì ê· íì§ì ìí­ íë½â¦ ê²½ê¸°ë ì¬ì í ì§í" class="lazy" data-original="http://uimg.7mkr.com//data/newsicon/20210112/092415mzrh73od9b1610414655823587.jpg"/></a></span>
<span class="f_s_words">ìê¸ëë íë¦¬ë¯¸ì´ë¦¬ê·¸ìì ì ì¢ ì½ë¡ëë°ì´ë¬ì¤ ê°ì¼ì¦(ì½ë¡ë19) ì ê· íì§ìê° 2ì£¼ ì°ì 30ëª ì´ìì ...</span>
<div class="clear"></div>
</li>
<li>
<span class="f_s_title"><a href="http://news.7mkr.com/data/20210111/142116.shtml" title="'íí¼ì ëìë¤?'...ì¸ì§, ìì¤ë ë ë íë¤ë¥´ë°ì²´ ì´ì  ìë°">'íí¼ì ëìë¤?'...ì¸ì§, ìì¤ë ë ë íë¤ë¥´ë°ì²´ ì´ì  ìë°</a></span>
<span class="f_s_pic"><a href="http://news.7mkr.com/data/20210111/142116.shtml" title="'íí¼ì ëìë¤?'...ì¸ì§, ìì¤ë ë ë íë¤ë¥´ë°ì²´ ì´ì  ìë°"><img alt="'íí¼ì ëìë¤?'...ì¸ì§, ìì¤ë ë ë íë¤ë¥´ë°ì²´ ì´ì  ìë°" class="lazy" data-original="http://uimg.7mkr.com//data/newsicon/20210111/0405339azztelx7n1610352333482627.jpg"/></a></span>
<span class="f_s_words">ë©ìí¸ ì¸ì§(32, ìì¤ë)ì íë¤ë¥´ë°ì²´ ì´ì ì´ ê·¼ì í ê²ì¼ë¡ ë³´ì¸ë¤. ì¸ì§ì íì´ ì´ë¥¼ ê°ì ì ì¼ë¡ íí...</span>
<div class="clear"></div>
</li>
</ul>
</div>
<div class="clear"></div>
</div>
<!-- è¶³çå½å¤æ°é»ç»æ -->
</div>
<!-- è¶³çæå­ç´æ­&è¶³çæè¡æ¦ -->
<div class="news_right">
<div class="m1_r" id="m1_r"></div>
<div class="r_match">
<div class="match_title"><a href="http://wlive.7m.com.cn/index_kr.shtml" target="_blank">ëë³´ê¸°</a></div>
<div class="match_box">
<div class="lea_title">
<h3 class="div_none" id="wl_t0" onmouseover="changeWlive(0)"><span class="title_down">ENG PR</span><em></em></h3>
<h3 id="wl_t1" onmouseover="changeWlive(1)">SPA D1</h3>
<h3 id="wl_t2" onmouseover="changeWlive(2)">ITA D1</h3>
<h3 id="wl_t3" onmouseover="changeWlive(3)">GER D1</h3>
<h3 id="wl_t4" onmouseover="changeWlive(4)">UEFA CL</h3>
<!--<h3 class="div_none" id="wl_t0" onmouseover="changeWlive(0)"><span class="title_down">EURO</span><em></em></h3>
		<h3 id="wl_t1" onmouseover="changeWlive(1)">AMEC</h3>-->
<div class="clear"></div>
</div>
<div id="wl_c0"><div class="match_list"><div class="match_team"><span class="team_l"><a href="http://team.7mkr.com/240/index.shtml" target="_blank">ë§¨ì²´ì¤í° ìí°</a></span><span class="team_vs"><a href="https://wlive.7mkr.com/live/kr/4064097.shtml" target="_blank">VS</a></span><span class="team_r"><a href="http://team.7mkr.com/507/index.shtml" target="_blank">ë¸ë¼ì´í´ &amp; í¸ë¸ ì¨ë¹ì¸</a></span><div class="clear"></div></div><div class="match_that"><span class="that_time">01-14 03:00</span><span class="that_status"><a class="status_blue" href="http://analyse.7mkr.com/4064097/index.shtml" target="_blank">ë¶ì</a></span><div class="clear"></div></div></div><div class="match_list"><div class="match_team"><span class="team_l"><a href="http://team.7mkr.com/175/index.shtml" target="_blank">í í¸ë íì¤í¼ FC</a></span><span class="team_vs"><a href="https://wlive.7mkr.com/live/kr/4114654.shtml" target="_blank">VS</a></span><span class="team_r"><a href="http://team.7mkr.com/398/index.shtml" target="_blank">íë¼ FC</a></span><div class="clear"></div></div><div class="match_that"><span class="that_time">01-14 05:15</span><span class="that_status"><a class="status_blue" href="http://analyse.7mkr.com/4114654/index.shtml" target="_blank">ë¶ì</a></span><div class="clear"></div></div></div><div class="match_list"><div class="match_team"><span class="team_l"><a href="http://team.7mkr.com/567/index.shtml" target="_blank">ìì¤ë  FC</a></span><span class="team_vs"><a href="https://wlive.7mkr.com/live/kr/4064088.shtml" target="_blank">VS</a></span><span class="team_r"><a href="http://team.7mkr.com/112/index.shtml" target="_blank">í¬ë¦¬ì¤í í°ë¦¬ì¤ FC</a></span><div class="clear"></div></div><div class="match_that"><span class="that_time">01-15 05:00</span><span class="that_status"><a class="status_blue" href="http://analyse.7mkr.com/4064088/index.shtml" target="_blank">ë¶ì</a></span><div class="clear"></div></div></div><div class="match_list"><div class="match_team"><span class="team_l"><a href="http://team.7mkr.com/300/index.shtml" target="_blank">ì¸ë²ííí´ ìëë¬ì¤ FC</a></span><span class="team_vs"><a href="https://wlive.7mkr.com/live/kr/4064107.shtml" target="_blank">VS</a></span><span class="team_r"><a href="http://team.7mkr.com/50/index.shtml" target="_blank">ì¨ì¤í¸ ë¸ë¡ë¯¸ì¹ ì¨ë¹ì¸</a></span><div class="clear"></div></div><div class="match_that"><span class="that_time">01-16 21:30</span><span class="that_status"><a class="status_blue" href="http://analyse.7mkr.com/4064107/index.shtml" target="_blank">ë¶ì</a></span><div class="clear"></div></div></div><div class="match_list"><div class="match_team"><span class="team_l"><a href="http://team.7mkr.com/867/index.shtml" target="_blank">ë¦¬ì¦ ì ëì´í°ë FC</a></span><span class="team_vs"><a href="https://wlive.7mkr.com/live/kr/4064101.shtml" target="_blank">VS</a></span><span class="team_r"><a href="http://team.7mkr.com/507/index.shtml" target="_blank">ë¸ë¼ì´í´ &amp; í¸ë¸ ì¨ë¹ì¸</a></span><div class="clear"></div></div><div class="match_that"><span class="that_time">01-17 00:00</span><span class="that_status"><a class="status_blue" href="http://analyse.7mkr.com/4064101/index.shtml" target="_blank">ë¶ì</a></span><div class="clear"></div></div></div></div>
<div id="wl_c1" style="display:none"><div class="match_list"><div class="match_team"><span class="team_l"><a href="http://team.7mkr.com/2226/index.shtml" target="_blank">ê·¸ë¼ëë¤ CF</a></span><span class="team_vs"><a href="https://wlive.7mkr.com/live/kr/4072837.shtml" target="_blank"><span class="win">2</span> - 0</a></span><span class="team_r"><a href="http://team.7mkr.com/665/index.shtml" target="_blank">CA ì¤ì¬ìë</a></span><div class="clear"></div></div><div class="match_that"><span class="that_time">01-13 03:00</span><span class="that_status"><a class="status_blue" href="http://analyse.7mkr.com/4072837/index.shtml" target="_blank">ë¶ì</a></span><div class="clear"></div></div></div><div class="match_list"><div class="match_team"><span class="team_l"><a href="http://team.7mkr.com/664/index.shtml" target="_blank">ìíë í°ì½ ë§ëë¦¬ë</a></span><span class="team_vs"><a href="https://wlive.7mkr.com/live/kr/4072986.shtml" target="_blank"><span class="win">2</span> - 0</a></span><span class="team_r"><a href="http://team.7mkr.com/49/index.shtml" target="_blank">ì¸ë¹ì¼ FC</a></span><div class="clear"></div></div><div class="match_that"><span class="that_time">01-13 05:30</span><span class="that_status"><a class="status_blue" href="http://analyse.7mkr.com/4072986/index.shtml" target="_blank">ë¶ì</a></span><div class="clear"></div></div></div><div class="match_list"><div class="match_team"><span class="team_l"><a href="http://team.7mkr.com/735/index.shtml" target="_blank">ì¹´ëì¤ CF</a></span><span class="team_vs"><a href="https://wlive.7mkr.com/live/kr/4072989.shtml" target="_blank">VS</a></span><span class="team_r"><a href="http://team.7mkr.com/275/index.shtml" target="_blank">ë ë°í UD</a></span><div class="clear"></div></div><div class="match_that"><span class="that_time">01-20 03:00</span><span class="that_status"><a class="status_blue" href="http://analyse.7mkr.com/4072989/index.shtml" target="_blank">ë¶ì</a></span><div class="clear"></div></div></div><div class="match_list"><div class="match_team"><span class="team_l"><a href="http://team.7mkr.com/352/index.shtml" target="_blank">ë ì ë°ì¼ëë¦¬ë</a></span><span class="team_vs"><a href="https://wlive.7mkr.com/live/kr/4072993.shtml" target="_blank">VS</a></span><span class="team_r"><a href="http://team.7mkr.com/563/index.shtml" target="_blank">ìì²´ CF</a></span><div class="clear"></div></div><div class="match_that"><span class="that_time">01-20 03:00</span><span class="that_status"><a class="status_blue" href="http://analyse.7mkr.com/4072993/index.shtml" target="_blank">ë¶ì</a></span><div class="clear"></div></div></div><div class="match_list"><div class="match_team"><span class="team_l"><a href="http://team.7mkr.com/557/index.shtml" target="_blank">ìë¼ë² ì¤</a></span><span class="team_vs"><a href="https://wlive.7mkr.com/live/kr/4072987.shtml" target="_blank">VS</a></span><span class="team_r"><a href="http://team.7mkr.com/49/index.shtml" target="_blank">ì¸ë¹ì¼ FC</a></span><div class="clear"></div></div><div class="match_that"><span class="that_time">01-20 05:30</span><span class="that_status"><a class="status_blue" href="http://analyse.7mkr.com/4072987/index.shtml" target="_blank">ë¶ì</a></span><div class="clear"></div></div></div></div>
<div id="wl_c2" style="display:none"><div class="match_list"><div class="match_team"><span class="team_l"><a href="http://team.7mkr.com/304/index.shtml" target="_blank">SS ë¼ì¹ì¤</a></span><span class="team_vs"><a href="https://wlive.7mkr.com/live/kr/4074514.shtml" target="_blank">VS</a></span><span class="team_r"><a href="http://team.7mkr.com/264/index.shtml" target="_blank">AS ë¡ë§</a></span><div class="clear"></div></div><div class="match_that"><span class="that_time">01-16 04:45</span><span class="that_status"><a class="status_blue" href="http://analyse.7mkr.com/4074514/index.shtml" target="_blank">ë¶ì</a></span><div class="clear"></div></div></div><div class="match_list"><div class="match_team"><span class="team_l"><a href="http://team.7mkr.com/462/index.shtml" target="_blank">ë³¼ë¡ë FC 1909</a></span><span class="team_vs"><a href="https://wlive.7mkr.com/live/kr/4074510.shtml" target="_blank">VS</a></span><span class="team_r"><a href="http://team.7mkr.com/62/index.shtml" target="_blank">ìë¼ì¤ ë² ë¡ë FC</a></span><div class="clear"></div></div><div class="match_that"><span class="that_time">01-16 23:00</span><span class="that_status"><a class="status_blue" href="http://analyse.7mkr.com/4074510/index.shtml" target="_blank">ë¶ì</a></span><div class="clear"></div></div></div><div class="match_list"><div class="match_team"><span class="team_l"><a href="http://team.7mkr.com/77/index.shtml" target="_blank">í ë¦¬ë¸ FC</a></span><span class="team_vs"><a href="https://wlive.7mkr.com/live/kr/4074518.shtml" target="_blank">VS</a></span><span class="team_r"><a href="http://team.7mkr.com/1653/index.shtml" target="_blank">ì¤íì¹ì ì¹¼ì´</a></span><div class="clear"></div></div><div class="match_that"><span class="that_time">01-17 02:00</span><span class="that_status"><a class="status_blue" href="http://analyse.7mkr.com/4074518/index.shtml" target="_blank">ë¶ì</a></span><div class="clear"></div></div></div><div class="match_list"><div class="match_team"><span class="team_l"><a href="http://team.7mkr.com/156/index.shtml" target="_blank">UC ì¼íëë¦¬ì</a></span><span class="team_vs"><a href="https://wlive.7mkr.com/live/kr/4074516.shtml" target="_blank">VS</a></span><span class="team_r"><a href="http://team.7mkr.com/54/index.shtml" target="_blank">ì°ëë¤ì¸ ì¹¼ì´</a></span><div class="clear"></div></div><div class="match_that"><span class="that_time">01-17 04:45</span><span class="that_status"><a class="status_blue" href="http://analyse.7mkr.com/4074516/index.shtml" target="_blank">ë¶ì</a></span><div class="clear"></div></div></div><div class="match_list"><div class="match_team"><span class="team_l"><a href="http://team.7mkr.com/211/index.shtml" target="_blank">SSC ëí´ë¦¬</a></span><span class="team_vs"><a href="https://wlive.7mkr.com/live/kr/4074515.shtml" target="_blank">VS</a></span><span class="team_r"><a href="http://team.7mkr.com/400/index.shtml" target="_blank">ACF í¼ì¤ë í°ë</a></span><div class="clear"></div></div><div class="match_that"><span class="that_time">01-17 20:30</span><span class="that_status"><a class="status_blue" href="http://analyse.7mkr.com/4074515/index.shtml" target="_blank">ë¶ì</a></span><div class="clear"></div></div></div></div>
<div id="wl_c3" style="display:none"><div class="match_list"><div class="match_team"><span class="team_l"><a href="http://team.7mkr.com/504/index.shtml" target="_blank">ì ëì¨ ë² ë¥¼ë¦°</a></span><span class="team_vs"><a href="https://wlive.7mkr.com/live/kr/4055131.shtml" target="_blank">VS</a></span><span class="team_r"><a href="http://team.7mkr.com/281/index.shtml" target="_blank">ë°ì´ì´ 04 ë ë²ì¿ ì  </a></span><div class="clear"></div></div><div class="match_that"><span class="that_time">01-16 04:30</span><span class="that_status"><a class="status_blue" href="http://analyse.7mkr.com/4055131/index.shtml" target="_blank">ë¶ì</a></span><div class="clear"></div></div></div><div class="match_list"><div class="match_team"><span class="team_l"><a href="http://team.7mkr.com/415/index.shtml" target="_blank">ë³´ë£¨ìì ëë¥´í¸ë¬¸í¸</a></span><span class="team_vs"><a href="https://wlive.7mkr.com/live/kr/4055126.shtml" target="_blank">VS</a></span><span class="team_r"><a href="http://team.7mkr.com/231/index.shtml" target="_blank">ë§ì¸ì¸ </a></span><div class="clear"></div></div><div class="match_that"><span class="that_time">01-16 23:30</span><span class="that_status"><a class="status_blue" href="http://analyse.7mkr.com/4055126/index.shtml" target="_blank">ë¶ì</a></span><div class="clear"></div></div></div><div class="match_list"><div class="match_team"><span class="team_l"><a href="http://team.7mkr.com/921/index.shtml" target="_blank">TSG 1899 í¸ííì</a></span><span class="team_vs"><a href="https://wlive.7mkr.com/live/kr/4055129.shtml" target="_blank">VS</a></span><span class="team_r"><a href="http://team.7mkr.com/482/index.shtml" target="_blank">ìë¥´ë¯¸ëì ë¹ë í í¸</a></span><div class="clear"></div></div><div class="match_that"><span class="that_time">01-16 23:30</span><span class="that_status"><a class="status_blue" href="http://analyse.7mkr.com/4055129/index.shtml" target="_blank">ë¶ì</a></span><div class="clear"></div></div></div><div class="match_list"><div class="match_team"><span class="team_l"><a href="http://team.7mkr.com/57/index.shtml" target="_blank">VfL ë³¼íì¤ë¶ë¥´í¬</a></span><span class="team_vs"><a href="https://wlive.7mkr.com/live/kr/4055133.shtml" target="_blank">VS</a></span><span class="team_r"><a href="http://team.7mkr.com/13149/index.shtml" target="_blank">RB ë¼ì´íì¹í</a></span><div class="clear"></div></div><div class="match_that"><span class="that_time">01-16 23:30</span><span class="that_status"><a class="status_blue" href="http://analyse.7mkr.com/4055133/index.shtml" target="_blank">ë¶ì</a></span><div class="clear"></div></div></div><div class="match_list"><div class="match_team"><span class="team_l"><a href="http://team.7mkr.com/319/index.shtml" target="_blank">FC ì¾°ë¥¸</a></span><span class="team_vs"><a href="https://wlive.7mkr.com/live/kr/4055128.shtml" target="_blank">VS</a></span><span class="team_r"><a href="http://team.7mkr.com/367/index.shtml" target="_blank">í¤ë¥´í BSC ë² ë¥¼ë¦°</a></span><div class="clear"></div></div><div class="match_that"><span class="that_time">01-16 23:30</span><span class="that_status"><a class="status_blue" href="http://analyse.7mkr.com/4055128/index.shtml" target="_blank">ë¶ì</a></span><div class="clear"></div></div></div></div>
<div id="wl_c4" style="display:none"><div class="match_list"><div class="match_team"><span class="team_l"><a href="http://team.7mkr.com/514/index.shtml" target="_blank">FC ë°ë¥´ìë¡ë</a></span><span class="team_vs"><a href="https://wlive.7mkr.com/live/kr/4112268.shtml" target="_blank">VS</a></span><span class="team_r"><a href="http://team.7mkr.com/517/index.shtml" target="_blank">íë¦¬ ìì ë¥´ë§¹ FC</a></span><div class="clear"></div></div><div class="match_that"><span class="that_time">02-17 05:00</span><span class="that_status"><a class="status_blue" href="http://analyse.7mkr.com/4112268/index.shtml" target="_blank">ë¶ì</a></span><div class="clear"></div></div></div><div class="match_list"><div class="match_team"><span class="team_l"><a href="http://team.7mkr.com/13149/index.shtml" target="_blank">RB ë¼ì´íì¹í</a></span><span class="team_vs"><a href="https://wlive.7mkr.com/live/kr/4112272.shtml" target="_blank">VS</a></span><span class="team_r"><a href="http://team.7mkr.com/279/index.shtml" target="_blank">ë¦¬ë²í FC</a></span><div class="clear"></div></div><div class="match_that"><span class="that_time">02-17 05:00</span><span class="that_status"><a class="status_blue" href="http://analyse.7mkr.com/4112272/index.shtml" target="_blank">ë¶ì</a></span><div class="clear"></div></div></div><div class="match_list"><div class="match_team"><span class="team_l"><a href="http://team.7mkr.com/464/index.shtml" target="_blank">FC í¬ë¥´í¬</a></span><span class="team_vs"><a href="https://wlive.7mkr.com/live/kr/4112273.shtml" target="_blank">VS</a></span><span class="team_r"><a href="http://team.7mkr.com/2/index.shtml" target="_blank">ì ë²¤í¬ì¤ FC</a></span><div class="clear"></div></div><div class="match_that"><span class="that_time">02-18 05:00</span><span class="that_status"><a class="status_blue" href="http://analyse.7mkr.com/4112273/index.shtml" target="_blank">ë¶ì</a></span><div class="clear"></div></div></div><div class="match_list"><div class="match_team"><span class="team_l"><a href="http://team.7mkr.com/49/index.shtml" target="_blank">ì¸ë¹ì¼ FC</a></span><span class="team_vs"><a href="https://wlive.7mkr.com/live/kr/4112274.shtml" target="_blank">VS</a></span><span class="team_r"><a href="http://team.7mkr.com/415/index.shtml" target="_blank">ë³´ë£¨ìì ëë¥´í¸ë¬¸í¸</a></span><div class="clear"></div></div><div class="match_that"><span class="that_time">02-18 05:00</span><span class="that_status"><a class="status_blue" href="http://analyse.7mkr.com/4112274/index.shtml" target="_blank">ë¶ì</a></span><div class="clear"></div></div></div><div class="match_list"><div class="match_team"><span class="team_l"><a href="http://team.7mkr.com/664/index.shtml" target="_blank">ìíë í°ì½ ë§ëë¦¬ë</a></span><span class="team_vs"><a href="https://wlive.7mkr.com/live/kr/4112275.shtml" target="_blank">VS</a></span><span class="team_r"><a href="http://team.7mkr.com/444/index.shtml" target="_blank">ì²¼ì FC</a></span><div class="clear"></div></div><div class="match_that"><span class="that_time">02-24 05:00</span><span class="that_status"><a class="status_blue" href="http://analyse.7mkr.com/4112275/index.shtml" target="_blank">ë¶ì</a></span><div class="clear"></div></div></div></div>
</div>
</div>
<script language="javascript">
var wlive_title = ["ENG PR","SPA D1","ITA D1","GER D1","UEFA CL"];
//var wlive_title = ["EURO","AMEC","ENG PR","ITA D1","GER D1"];
function changeWlive(index)
{
	document.getElementById("wl_t" + index).innerHTML = "<span class='title_down'>" + wlive_title[index] + "</span><em></em>" ;
	document.getElementById("wl_c" + index).style.display = "block";
	for(var i= 1;i<=4;i++)
	{
		index = (index+1)%5;
		document.getElementById("wl_t" + index).innerHTML = wlive_title[index];
		document.getElementById("wl_c" + index).style.display = "none";
	}
}
</script>
<div class="r_soccer">
<div class="soccer_title"></div>
<div class="soccer_box">
<div class="rank_title">
<h3 class="" id="randlist0" onmousemove="changeScoreRank( 0 )"><span class="title_down">ì¹ì ìì</span><em></em></h3>
<h3 class="div_none" id="randlist1" onmousemove="changeScoreRank( 1 )">ê³¨ê²í°ë­í¹</h3>
</div>
<div class="f_ranking">
<!--ç§¯åæ¦-->
<div class="inte_str" id="randdiv0" style="display:;">
<div class="screen">
<select id="selTeamRank" onchange="LoadTeamRank(this.value)">
<option value="250">Kë¦¬ê·¸ í´ëì</option>
<option value="92">ìê¸ëë íë¦¬ë¯¸ì´ë¦¬ê·¸</option>
<option value="34">ì´íë¦¬ì ì¸ë¦¬ì A</option>
<option value="39">ëì¼ 1 ë¶ë°ì¤ë¦¬ê° </option>
<option value="85">ì¤íì¸ íë¦¬ë©ë¼ë¦¬ê° </option>
<option value="93">ë¥´ ì¹í¼ì¤ë ë¦¬ê·¸ ì</option>
</select>
<span class="minute"><a href="#" id="ranka">ëë³´ê¸°&gt;&gt;</a></span>
<div class="clear"></div>
</div>
<div class="inte_title">
<span class="t_name">í</span>
<span class="t_score">ì¹ì </span>
</div>
<ul class="inte_box" id="rank_box"></ul>
</div>
<!--å°ææ¦-->
<div class="inte_str" id="randdiv1" style="display:none;">
<div class="screen">
<select id="selTeamRank" onchange="LoadShooterRank(this.value)">
<option value="250">Kë¦¬ê·¸ í´ëì</option>
<option value="92">ìê¸ëë íë¦¬ë¯¸ì´ë¦¬ê·¸</option>
<option value="34">ì´íë¦¬ì ì¸ë¦¬ì A</option>
<option value="39">ëì¼ 1 ë¶ë°ì¤ë¦¬ê° </option>
<option value="85">ì¤íì¸ íë¦¬ë©ë¼ë¦¬ê° </option>
<option value="93">ë¥´ ì¹í¼ì¤ë ë¦¬ê·¸ ì</option>
</select>
<span class="minute"><a href="#" id="shootera">ëë³´ê¸°&gt;&gt;</a></span>
<div class="clear"></div>
</div>
<div class="inte_title">
<span class="t_name">ìì</span>
<span class="t_score">ê³¨ì¸</span>
</div>
<ul class="inte_box" id="shooter_box"></ul>
</div>
</div>
</div>
</div>
</div>
<!-- è¶³çæå­ç´æ­&è¶³çæè¡æ¦ç»æ -->
<div class="clear"></div>
</div>
<!-- è¶³çæ¨¡åç»æ -->
<!-- æ£çæ¨¡å -->
<div class="baseball">
<div class="base_box">
<div class="base_civ">
<span class="foreign"><a href="//sport.7mkr.com/baseball/list/foreign/">í´ì¸</a></span>
<span class="civil"><a href="//sport.7mkr.com/baseball/list/domestic/">êµ­ë´</a></span>
</div>
<!-- æ£çå½åæ°é» -->
<div class="base_news">
<div class="com_title">
<span class="com_wz">êµ­ë´</span>
<span class="com_more"><a href="//sport.7mkr.com/baseball/list/domestic/">ëë³´ê¸°</a></span>
<div class="clear"></div>
</div>
<div class="base_big">
<a href="http://news.7mkr.com/data/20210112/142123.shtml"><img class="lazy" data-original="http://uimg.7mkr.com//data/newsicon/20210112/095131oy4a2qfu9y1610416291631874.jpg" title="ì´ì ë ìíì¢ì ìê°â¦ ë¹ë¦¬ê·¸ ëì  ì±ê³µí ê¹"/></a>
<span class="b_b_title"><a href="http://news.7mkr.com/data/20210112/142123.shtml" title="ì´ì ë ìíì¢ì ìê°â¦ ë¹ë¦¬ê·¸ ëì  ì±ê³µí ê¹">ì´ì ë ìíì¢ì ìê°â¦ ë¹ë¦¬ê·¸ ëì  ì±ê³µí ê¹</a></span>
<span class="b_b_words">ì´ë² ì¤í ë¸ë¦¬ê·¸ìì í¬ì¤í(ë¹ê³µê°ê²½ììì°°) ìì¤íì íµí´ ë¯¸êµ­ ë©ì´ì ë¦¬ê·¸(MLB) ì§ì¶ì ëì í ê¹íì±(26)ê³¼ ëì±ë²(32)ì í¬ë¹ë ìê°ë ¸ë¤. ê¹íì±ì MLB êµ¬ë¨ë¤ì ë¨ê±°ì´ ...</span>
</div>
<div class="base_small">
<ul>
<li>
<span class="b_s_pic"><a href="http://news.7mkr.com/data/20210112/142124.shtml" title="ê°ë¹í ê·¸ë¦¬ì ë¤ë LG ê±°í¬ ë¼ëª¨ì¤"><img alt="ê°ë¹í ê·¸ë¦¬ì ë¤ë LG ê±°í¬ ë¼ëª¨ì¤" class="lazy" data-original="http://uimg.7mkr.com//data/newsicon/20210112/095351ti5_a5bu7e1610416431990976.jpg"/></a></span>
<span class="b_s_title"><a href="http://news.7mkr.com/data/20210112/142124.shtml" title="ê°ë¹í ê·¸ë¦¬ì ë¤ë LG ê±°í¬ ë¼ëª¨ì¤">ê°ë¹í ê·¸ë¦¬ì ë¤ë LG ê±°í¬ ë¼ëª¨ì¤</a></span>
<span class="b_s_words">LG í¸ìì¤ ë¡ë² ë¥´í  ë¼ëª¨ì¤(27)ê° ì¬í´ë ì¤ë¬´ë¬ ì ëí¼ì ìëë¤. ê¸°ëê³¼ ì ìë ¥ ëª¨ë ë°ì´ë ê·¸ë í...</span>
</li>
<li>
<span class="b_s_pic"><a href="http://news.7mkr.com/data/20210111/142104.shtml" title="[SCí«í¬ì»¤ì¤]'ì ë¹ì© ê³ í¨ì¨ì ëíì' KIA ì ìí ìµë ì°ë´ ë³´ì¸ë¤, ì ìì¦ 'ì¸ì´ë¸ì'ì¼ë¡ ë³´ëµí ê¹?"><img alt="[SCí«í¬ì»¤ì¤]'ì ë¹ì© ê³ í¨ì¨ì ëíì' KIA ì ìí ìµë ì°ë´ ë³´ì¸ë¤, ì ìì¦ 'ì¸ì´ë¸ì'ì¼ë¡ ë³´ëµí ê¹?" class="lazy" data-original="http://uimg.7mkr.com//data/newsicon/20210111/102550eqih2m6k2m1610331950514334.jpg"/></a></span>
<span class="b_s_title"><a href="http://news.7mkr.com/data/20210111/142104.shtml" title="[SCí«í¬ì»¤ì¤]'ì ë¹ì© ê³ í¨ì¨ì ëíì' KIA ì ìí ìµë ì°ë´ ë³´ì¸ë¤, ì ìì¦ 'ì¸ì´ë¸ì'ì¼ë¡ ë³´ëµí ê¹?">[SCí«í¬ì»¤ì¤]'ì ë¹ì© ê³ í¨ì¨ì ëíì' KIA ì ìí ìµë ì°ë´ ë³´ì¸ë¤, ì ìì¦ 'ì¸ì´ë¸ì'ì¼ë¡ ë³´ëµí ê¹?</a></span>
<span class="b_s_words">ì ìí(25)ì ì§ë ìì¦ ì´ë° '8í ì¬ëì´'ìë¤. ë°ì¤í ë¬¸ê²½ì°¬(ì´ì 29)ê³¼ í¨ê» 'íê· ìì±ì  ìµê°' íì¹...</span>
</li>
<li>
<span class="b_s_pic"><a href="http://news.7mkr.com/data/20210111/142103.shtml" title="âì¨ì ì¡°ë ¥ìâ SK ê¶ëë¦¬ ë¶íí¬ì, 17ì¼ ê²°í¼"><img alt="âì¨ì ì¡°ë ¥ìâ SK ê¶ëë¦¬ ë¶íí¬ì, 17ì¼ ê²°í¼" class="lazy" data-original="http://uimg.7mkr.com//data/newsicon/20210111/102001jm7d73mjo21610331601744271.jpg"/></a></span>
<span class="b_s_title"><a href="http://news.7mkr.com/data/20210111/142103.shtml" title="âì¨ì ì¡°ë ¥ìâ SK ê¶ëë¦¬ ë¶íí¬ì, 17ì¼ ê²°í¼">âì¨ì ì¡°ë ¥ìâ SK ê¶ëë¦¬ ë¶íí¬ì, 17ì¼ ê²°í¼</a></span>
<span class="b_s_words">SK ê¶ëë¦¬ ë¶íí¬ì(29)ê° 17ì¼ ì¸ì² ì¤êµ¬ì ìì¹í ê·¸ëëí¸íì¨ë©ìì ë¹ìì ì ë¶ ì¬ì§ì(29) ìê³¼ í...</span>
</li>
</ul>
</div>
<div class="clear"></div>
</div>
<div class="m2" id="m2_1"></div>
<!-- æ£çå½åæ°é»ç»æ -->
<!-- æ£çå½å¤æ°é» -->
<div class="base_news">
<div class="com_title">
<span class="com_wz">í´ì¸</span>
<span class="com_more"><a href="//sport.7mkr.com/baseball/list/foreign/">ëë³´ê¸°</a></span>
<div class="clear"></div>
</div>
<div class="base_small">
<ul>
<li>
<span class="b_s_pic"><a href="http://news.7mkr.com/data/20210112/142122.shtml" title="'ë©ì¸  ìë¨' ë¦°ëì´ "><img alt="'ë©ì¸  ìë¨' ë¦°ëì´ " class="lazy" data-original="http://uimg.7mkr.com//data/newsicon/20210112/094857msvvqxnddm1610416137906997.jpg"/></a></span>
<span class="b_s_title"><a href="http://news.7mkr.com/data/20210112/142122.shtml" title="'ë©ì¸  ìë¨' ë¦°ëì´ ">'ë©ì¸  ìë¨' ë¦°ëì´ "ì¸ìì ìë¡ì´ íì´ì§â¦ì¥ê¸°ê³ì½ ì¢ì"</a></span>
<span class="b_s_words">ë§ì ê¸°ë ìì ë´ì ë©ì¸  ì ëí¼ì ìì íëìì¤ì½ ë¦°ëì´(28)ê° ìë¨ ê¸°ìíê²¬ì ê°ê³  ìê°ì ë°íë¤....</span>
</li>
<li>
<span class="b_s_pic"><a href="http://news.7mkr.com/data/20210111/142108.shtml" title=""><img alt="" class="lazy" data-original="http://uimg.7mkr.com//data/newsicon/20210111/105742tr8mvqzhru161033386255754.jpg"/></a></span>
<span class="b_s_title"><a href="http://news.7mkr.com/data/20210111/142108.shtml" title="">"í ë¡ í , ë¦°ëì´ í¸ë ì´ë íìì ìµì  ì¹´ë ì ì" í¸ë ë² ì¤í ë¦¬ë?</a></span>
<span class="b_s_words">í ë¡ í  ë¸ë£¨ì ì´ì¤ì ì¤í ë¸ë¦¬ê·¸ë ë¶ì£¼íë¤.íì§ë§ ì¤ìì´ ìë¤. ì ì´ë ìì§ê¹ì§ë ê·¸ë ë¤. ê±°ì ëë¶...</span>
</li>
<li>
<span class="b_s_pic"><a era="" href="http://news.7mkr.com/data/20210111/142107.shtml" title=""><img alt="" class="lazy" data-original="http://uimg.7mkr.com//data/newsicon/20210111/105248vcisg3vosh1610333568841306.jpg" era=""/></a></span>
<span class="b_s_title"><a era="" href="http://news.7mkr.com/data/20210111/142107.shtml" title="">"ê¹ê´í, ERA ì ì§ íë¤ ê²â¦ì êµ¬ê° ê´ê±´" ç¾ë§¤ì²´</a></span>
<span class="b_s_words">ë©ì´ì ë¦¬ê·¸(MLB)ìì ë ë²ì§¸ ìì¦ì ìë ê¹ê´í(33·ì¸ì¸í¸ë£¨ì´ì¤ ì¹´ëëì¤)ì´ 2021ìì¦ 1ì ë íê· ì...</span>
</li>
</ul>
</div>
<div class="base_big">
<a href="http://news.7mkr.com/data/20210112/142121.shtml"><img class="lazy" data-original="http://uimg.7mkr.com//data/newsicon/20210112/0946117tz8agczy7161041597182083.jpg" title="'ì½ë¡ë19 íì°ì¸ ì¬ê°' æ¥íë¡ì¼êµ¬, ì¤íë§ìº í ì¼ì  ì°ê¸° ê²í "/></a>
<span class="b_b_title"><a href="http://news.7mkr.com/data/20210112/142121.shtml" title="'ì½ë¡ë19 íì°ì¸ ì¬ê°' æ¥íë¡ì¼êµ¬, ì¤íë§ìº í ì¼ì  ì°ê¸° ê²í ">'ì½ë¡ë19 íì°ì¸ ì¬ê°' æ¥íë¡ì¼êµ¬, ì¤íë§ìº í ì¼ì  ì°ê¸° ê²í </a></span>
<span class="b_b_words">ì¬ê°í ì ì¢ ì½ë¡ëë°ì´ë¬ì¤ ê°ì¼ì¦(ì½ë¡ë19) íì°ì¸ë¥¼ ë³´ì´ê³  ìë ì¼ë³¸íë¡ì¼êµ¬(NPB)ê° ì¤íë§ìº í ì°ê¸°ë¥¼ ë¼ìíë¤.ì¼ë³¸ 'ì¤í¬ëì¹ ìë¥ì¤'ë 12ì¼(íêµ­ìê°) "ì½ë¡ë19 ê°ì¼...</span>
</div>
<div class="clear"></div>
</div>
<!-- æ£çå½å¤æ°é»ç»æ -->
</div>
</div>
<!-- æ£çæ¨¡åç»æ -->
<!-- ç»¼åæ°é»æ¨¡å -->
<div class="general">
<div class="gen_box">
<div class="for_civ">
<span class="foreign"><a href="//sport.7mkr.com/other/">ê¸°í</a></span>
<span class="civil"><a href="//sport.7mkr.com/basketball/">ëêµ¬</a></span>
</div>
<!-- å¶ä»æ°é» -->
<div class="else_news">
<div class="com_title">
<span class="com_wz">ê¸°í</span>
<span class="com_more"><a href="//sport.7mkr.com/other/">ëë³´ê¸°</a></span>
<div class="clear"></div>
</div>
<div class="gen_big">
<a href="http://news.7mkr.com/data/20210112/142127.shtml"><img class="lazy" data-original="http://uimg.7mkr.com//data/newsicon/20210112/10113292tbh4hij91610417492888638.jpg" title="íêµ­ì ë ê°í ê¹ìì§Â·ìë°ì¸ ì¬í´ ì²« êµ­ì ëí ê¸ë©ë¬ íë"/></a>
<span class="g_b_title"><a href="http://news.7mkr.com/data/20210112/142127.shtml" title="íêµ­ì ë ê°í ê¹ìì§Â·ìë°ì¸ ì¬í´ ì²« êµ­ì ëí ê¸ë©ë¬ íë">íêµ­ì ë ê°í ê¹ìì§·ìë°ì¸ ì¬í´...</a></span>
<span class="g_b_words">íêµ­ì ëì ê°í ê¹ìì§(ìì°ìì²­)ê³¼ ìë°ì¸(ë¨ìì£¼ìì²­)ì´ ëëí ê¸ë©ë¬ì ëª©ì ê±¸ìë¤.ê¹ìì§ê³¼ ìë°ì¸ì 12ì¼(íêµ­ìê°) ì¹´íë¥´ ëí ë£¨ì¬ì¼ ì¤í¬ì¸  ìë ëìì ì´ë¦° 2021 IJF...</span>
</div>
<div class="gen_small">
<ul>
<li>
<span class="g_s_title"><a href="http://news.7mkr.com/data/20210112/142128.shtml" title="ì¤í¤ ìëì»µ ì¤ìì¤ ëí, ì½ë¡ë19ë¡ ì¤ì¤í¸ë¦¬ìë¡ ê°ìµì§ ë³ê²½">ì¤í¤ ìëì»µ ì¤ìì¤ ëí, ì½ë¡ë19ë¡ ì¤...</a></span>
<span class="g_s_pic"><a href="http://news.7mkr.com/data/20210112/142128.shtml" title="ì¤í¤ ìëì»µ ì¤ìì¤ ëí, ì½ë¡ë19ë¡ ì¤ì¤í¸ë¦¬ìë¡ ê°ìµì§ ë³ê²½"><img alt="ì¤í¤ ìëì»µ ì¤ìì¤ ëí, ì½ë¡ë19ë¡ ì¤ì¤í¸ë¦¬ìë¡ ê°ìµì§ ë³ê²½" class="lazy" data-original="http://uimg.7mkr.com//data/newsicon/20210112/10140532fyukwevw1610417645424773.jpg"/></a></span>
<span class="g_s_words">ì¤ìì¤ìì ì´ë¦´ ìì ì´ë êµ­ì ì¤í¤ì°ë§¹(FIS) ìíì¸ ìëì»µ ëíê° ì½ë¡ë19 ëë¬¸ì ê°ìµì§ë¥¼ ì¤ì¤í¸ë¦¬ìë¡ ë³ê²½íìµëë¤.FI...</span>
<div class="clear"></div>
</li>
<li>
<span class="g_s_title"><a href="http://news.7mkr.com/data/20210111/142109.shtml" ko="" title="UFC 257ì ì¥ìíë ì½ë ë§¥ê·¸ë¦¬ê±°, ">UFC 257ì ì¥ìíë ì½ë ë§¥ê·¸ë¦¬ê±°, "í¬...</a></span>
<span class="g_s_pic"><a href="http://news.7mkr.com/data/20210111/142109.shtml" ko="" title="UFC 257ì ì¥ìíë ì½ë ë§¥ê·¸ë¦¬ê±°, "><img alt="UFC 257ì ì¥ìíë ì½ë ë§¥ê·¸ë¦¬ê±°, " class="lazy" data-original="http://uimg.7mkr.com//data/newsicon/20210111/110325l0fs24zwgv1610334205872022.jpg" ko=""/></a></span>
<span class="g_s_words">“1ë¶ ìì KOë¡ ëë´ê² ë¤.” UFC ìë ì½ë ë§¥ê·¸ë¦¬ê±°(32)ê° ë¤ë¶ì§ ê°ì¤ë¥¼ ëíëë¤. ì½ë ë§¥ê·¸ë¦¬ê±°ë ì¤ë 23ì¼(íêµ­ìê°) ...</span>
<div class="clear"></div>
</li>
</ul>
</div>
</div>
<!-- å¶ä»æ°é»ç»æ -->
<!-- ç¯®çæ°é» -->
<div class="basket_news">
<div class="com_title">
<span class="com_wz">ëêµ¬</span>
<span class="com_more"><a href="//sport.7mkr.com/basketball/">ëë³´ê¸°</a></span>
<div class="clear"></div>
</div>
<div class="gen_big">
<a href="http://news.7mkr.com/data/20210112/142125.shtml"><img class="lazy" data-original="http://uimg.7mkr.com//data/newsicon/20210112/10000879eycul_kr1610416808255297.jpg" title="ì½ë¡ë19ì ë¤ì íë¤ë¦¬ë NBAâ¦ ë¦¬ê·¸ ì¤ë¨ ëë"/></a>
<span class="g_b_title"><a href="http://news.7mkr.com/data/20210112/142125.shtml" title="ì½ë¡ë19ì ë¤ì íë¤ë¦¬ë NBAâ¦ ë¦¬ê·¸ ì¤ë¨ ëë">ì½ë¡ë19ì ë¤ì íë¤ë¦¬ë NBA… ë¦¬...</a></span>
<span class="g_b_words">ë¯¸êµ­íë¡ëêµ¬(NBA)ê° ì ì¢ ì½ë¡ëë°ì´ë¬ì¤ ê°ì¼ì¦(ì½ë¡ë19)ì ìí¥ì¼ë¡ íë¤ë¦¬ê³  ìë¤. ê²½ê¸° ì°ê¸°ê° ìë°ë¥´ë©° ìì¹« ëë¤ì ë¦¬ê·¸ê° ì¤ë¨ë ê¹ ë¸ì¬ì´ì¬ë¤.ë¯¸êµ­ ì¤í¬ì¸  ì ë¬¸ ë§¤ì²´ ESP...</span>
</div>
<div class="gen_small">
<ul>
<li>
<span class="g_s_title"><a href="http://news.7mkr.com/data/20210112/142126.shtml" title="ëì¹ì¹-íì´í, NBA ì´ì£¼ì ì ì ì ì ">ëì¹ì¹-íì´í, NBA ì´ì£¼ì ì ì ì ì </a></span>
<span class="g_s_pic"><a href="http://news.7mkr.com/data/20210112/142126.shtml" title="ëì¹ì¹-íì´í, NBA ì´ì£¼ì ì ì ì ì "><img alt="ëì¹ì¹-íì´í, NBA ì´ì£¼ì ì ì ì ì " class="lazy" data-original="http://uimg.7mkr.com//data/newsicon/20210112/100249dhk5saybm91610416969908250.jpg"/></a></span>
<span class="g_s_words">NBAë¥¼ ëííë ê¸°ëì£¼ë¤ì´ ëëí ì´ì£¼ì ì ìê° ëë¤.NBAë 12ì¼(ì´í íêµ­ìê°) 3ì£¼ì°¨ ì´ì£¼ì ì ìë¥¼ ì ì í´ ë°ííë¤. ì...</span>
<div class="clear"></div>
</li>
<li>
<span class="g_s_title"><a href="http://news.7mkr.com/data/20210111/142110.shtml" title="ì íë¦¬ë ì íëí, ë³´ê·¸ë¤ë¸ë¹ì¹ ì¤ë¥¸ìª½ ë¬´ë¦ ë¶ì">ì íë¦¬ë ì íëí, ë³´ê·¸ë¤ë¸ë¹ì¹ ì¤ë¥¸...</a></span>
<span class="g_s_pic"><a href="http://news.7mkr.com/data/20210111/142110.shtml" title="ì íë¦¬ë ì íëí, ë³´ê·¸ë¤ë¸ë¹ì¹ ì¤ë¥¸ìª½ ë¬´ë¦ ë¶ì"><img alt="ì íë¦¬ë ì íëí, ë³´ê·¸ë¤ë¸ë¹ì¹ ì¤ë¥¸ìª½ ë¬´ë¦ ë¶ì" class="lazy" data-original="http://uimg.7mkr.com//data/newsicon/20210111/110736bse627pbog1610334456589312.jpg"/></a></span>
<span class="g_s_words">ë§ì ê¸°ëë¥¼ ëª¨ì ì íëí í¸í¬ì¤ê° ìì¦ ì´ë°ë¶í° ì´ì ìì ë¶ìì ìë¬ë¦¬ê³  ìë¤.ãESPNãì ì ëë¦¬ì¸ ìì¦ë´ë¡ì°ì¤í¤ ê¸°...</span>
<div class="clear"></div>
</li>
</ul>
</div>
</div>
<!-- ç¯®çæ°é»ç»æ -->
<div class="clear"></div>
</div>
<!-- ç¯®çæå­ç´æ­&ç¯®çæè¡æ¦ -->
<div class="news_right">
<div class="r_match">
<div class="nba_match"><a href="//bwlive.7mkr.com/" target="_blank">ëë³´ê¸°</a></div>
<div class="match_nba">
<!-- nba -->
<div class="nba_live">
<script>function LoadBwliveLogoErr(obj){var tryNumber = $(obj).attr('try');if (tryNumber == 0){$(obj).attr('try', '1');obj.src = '//bdata.7m.com.cn/basketball_team_data/' +$(obj).attr('tid') + '/logo_Img/club_logo.jpg';}if (tryNumber == 1){$(obj).attr('try', '2');obj.src = '//bdata.7m.com.cn/basketball_team_data/' +$(obj).attr('tid') + '/logo_Img/club_logo.gif';}if (tryNumber == 2){obj.onerror = null;obj.src = '//img.7m.com.cn/basket/data/def_team.gif';}}</script><div class="nba_list"><div class="nba_team"><span class="n_team_l_p"><a href="https://bdata.7mkr.com/basketball_team_data/10/kr/" target="_blank"><img height="40" onerror="LoadBwliveLogoErr(this)" src="//img.7m.com.cn/bwlive/team/l2/10.gif" tid="10" try="0" width="40"/></a></span><span class="n_team_l"><a href="https://bdata.7mkr.com/basketball_team_data/10/kr/" target="_blank">MIA</a></span><span class="n_team_vs"><a href="https://bwlive.7mkr.com/kr/live/1137214.shtml" target="_blank"><span class="win">63</span>-55</a></span><span class="n_team_r"><a href="https://bdata.7mkr.com/basketball_team_data/11/kr/" target="_blank">PHI</a></span><span class="n_team_r_p"><a href="https://bdata.7mkr.com/basketball_team_data/11/kr/" target="_blank"><img height="40" onerror="LoadBwliveLogoErr(this)" src="//img.7m.com.cn/bwlive/team/l2/11.gif" tid="11" try="0" width="40"/></a></span><div class="clear"></div></div><div class="match_that"><span class="that_time">[01-13 09:00]</span><span class="that_state">[2ì¿¼í°]</span><span class="that_status"><a class="status_blue" href="https://bwlive.7mkr.com/kr/live/1137214.shtml" target="_blank">ë¶ì</a></span><div class="clear"></div></div></div><div class="nba_list"><div class="nba_team"><span class="n_team_l_p"><a href="https://bdata.7mkr.com/basketball_team_data/19/kr/" target="_blank"><img height="40" onerror="LoadBwliveLogoErr(this)" src="//img.7m.com.cn/bwlive/team/l2/19.gif" tid="19" try="0" width="40"/></a></span><span class="n_team_l"><a href="https://bdata.7mkr.com/basketball_team_data/19/kr/" target="_blank">DEN</a></span><span class="n_team_vs"><a href="https://bwlive.7mkr.com/kr/live/1137215.shtml" target="_blank"><span class="win">46</span>-32</a></span><span class="n_team_r"><a href="https://bdata.7mkr.com/basketball_team_data/5/kr/" target="_blank">BKN</a></span><span class="n_team_r_p"><a href="https://bdata.7mkr.com/basketball_team_data/5/kr/" target="_blank"><img height="40" onerror="LoadBwliveLogoErr(this)" src="//img.7m.com.cn/bwlive/team/l2/5.gif" tid="5" try="0" width="40"/></a></span><div class="clear"></div></div><div class="match_that"><span class="that_time">[01-13 09:30]</span><span class="that_state">[2ì¿¼í°]</span><span class="that_status"><a class="status_blue" href="https://bwlive.7mkr.com/kr/live/1137215.shtml" target="_blank">ë¶ì</a></span><div class="clear"></div></div></div><div class="nba_list"><div class="nba_team"><span class="n_team_l_p"><a href="https://bdata.7mkr.com/basketball_team_data/21/kr/" target="_blank"><img height="40" onerror="LoadBwliveLogoErr(this)" src="//img.7m.com.cn/bwlive/team/l2/21.gif" tid="21" try="0" width="40"/></a></span><span class="n_team_l"><a href="https://bdata.7mkr.com/basketball_team_data/21/kr/" target="_blank">UTA</a></span><span class="n_team_vs"><a href="https://bwlive.7mkr.com/kr/live/1137216.shtml" target="_blank"><span class="win">33</span>-22</a></span><span class="n_team_r"><a href="https://bdata.7mkr.com/basketball_team_data/6/kr/" target="_blank">CLE</a></span><span class="n_team_r_p"><a href="https://bdata.7mkr.com/basketball_team_data/6/kr/" target="_blank"><img height="40" onerror="LoadBwliveLogoErr(this)" src="//img.7m.com.cn/bwlive/team/l2/6.gif" tid="6" try="0" width="40"/></a></span><div class="clear"></div></div><div class="match_that"><span class="that_time">[01-13 09:30]</span><span class="that_state">[2ì¿¼í°]</span><span class="that_status"><a class="status_blue" href="https://bwlive.7mkr.com/kr/live/1137216.shtml" target="_blank">ë¶ì</a></span><div class="clear"></div></div></div><div class="nba_list"><div class="nba_team"><span class="n_team_l_p"><a href="https://bdata.7mkr.com/basketball_team_data/26/kr/" target="_blank"><img height="40" onerror="LoadBwliveLogoErr(this)" src="//img.7m.com.cn/bwlive/team/l2/26.gif" tid="26" try="0" width="40"/></a></span><span class="n_team_l"><a href="https://bdata.7mkr.com/basketball_team_data/26/kr/" target="_blank">SAS</a></span><span class="n_team_vs"><a href="https://bwlive.7mkr.com/kr/live/1137219.shtml" target="_blank">5-<span class="win">8</span></a></span><span class="n_team_r"><a href="https://bdata.7mkr.com/basketball_team_data/17/kr/" target="_blank">OKC</a></span><span class="n_team_r_p"><a href="https://bdata.7mkr.com/basketball_team_data/17/kr/" target="_blank"><img height="40" onerror="LoadBwliveLogoErr(this)" src="//img.7m.com.cn/bwlive/team/l2/17.gif" tid="17" try="0" width="40"/></a></span><div class="clear"></div></div><div class="match_that"><span class="that_time">[01-13 10:00]</span><span class="that_state">[1ì¿¼í°]</span><span class="that_status"><a class="status_blue" href="https://bwlive.7mkr.com/kr/live/1137219.shtml" target="_blank">ë¶ì</a></span><div class="clear"></div></div></div><div class="nba_list"><div class="nba_team"><span class="n_team_l_p"><a href="https://bdata.7mkr.com/basketball_team_data/1/kr/" target="_blank"><img height="40" onerror="LoadBwliveLogoErr(this)" src="//img.7m.com.cn/bwlive/team/l2/1.gif" tid="1" try="0" width="40"/></a></span><span class="n_team_l"><a href="https://bdata.7mkr.com/basketball_team_data/1/kr/" target="_blank">LAL</a></span><span class="n_team_vs"><a href="https://bwlive.7mkr.com/kr/live/1137218.shtml" target="_blank"><span class="win">8</span>-5</a></span><span class="n_team_r"><a href="https://bdata.7mkr.com/basketball_team_data/28/kr/" target="_blank">HOU</a></span><span class="n_team_r_p"><a href="https://bdata.7mkr.com/basketball_team_data/28/kr/" target="_blank"><img height="40" onerror="LoadBwliveLogoErr(this)" src="//img.7m.com.cn/bwlive/team/l2/28.gif" tid="28" try="0" width="40"/></a></span><div class="clear"></div></div><div class="match_that"><span class="that_time">[01-13 10:00]</span><span class="that_state">[1ì¿¼í°]</span><span class="that_status"><a class="status_blue" href="https://bwlive.7mkr.com/kr/live/1137218.shtml" target="_blank">ë¶ì</a></span><div class="clear"></div></div></div><div class="nba_list"><div class="nba_team"><span class="n_team_l_p"><a href="https://bdata.7mkr.com/basketball_team_data/13/kr/" target="_blank"><img height="40" onerror="LoadBwliveLogoErr(this)" src="//img.7m.com.cn/bwlive/team/l2/13.gif" tid="13" try="0" width="40"/></a></span><span class="n_team_l"><a href="https://bdata.7mkr.com/basketball_team_data/13/kr/" target="_blank">IND</a></span><span class="n_team_vs"><a href="https://bwlive.7mkr.com/kr/live/1137220.shtml" target="_blank"> VS </a></span><span class="n_team_r"><a href="https://bdata.7mkr.com/basketball_team_data/25/kr/" target="_blank">GSW</a></span><span class="n_team_r_p"><a href="https://bdata.7mkr.com/basketball_team_data/25/kr/" target="_blank"><img height="40" onerror="LoadBwliveLogoErr(this)" src="//img.7m.com.cn/bwlive/team/l2/25.gif" tid="25" try="0" width="40"/></a></span><div class="clear"></div></div><div class="match_that"><span class="that_time">[01-13 12:30]</span><span class="that_state">[ììíì§ìì]</span><span class="that_status"><a class="status_blue" href="https://bwlive.7mkr.com/kr/live/1137220.shtml" target="_blank">ë¶ì</a></span><div class="clear"></div></div></div>
</div>
<!-- nbaç»æ -->
</div>
</div>
<div class="r_soccer">
<div class="nba_rank"><a href="http://bdata.7m.com.cn/basketball_match_data/3/kr/standings.shtml">ëë³´ê¸°</a></div>
<div class="soccer_box">
<div class="rank_title">
<h3 class="" id="brandlist0" onmouseover="changeBaskRank( 0 )"><span class="title_down">ëë¶ ë­í¹ìì</span><em></em></h3>
<h3 class="div_none" id="brandlist1" onmouseover="changeBaskRank( 1 )">ìë¶ ë­í¹ìì</h3>
</div>
<div class="nba_ranking">
<div class="ew_title">
<span class="ew_name">íëª</span>
<span class="ew_score">ì¹ë¥ </span>
<span class="ew_diff">ì¹ì°¨</span>
<div class="clear"></div>
</div>
<!--ä¸é¨æè¡æ¦-->
<div class="nba_str" id="branddiv0" style="display:;">
<ul class="east_west" id="rank_east">
</ul>
</div>
<!--è¥¿é¨æè¡æ¦-->
<div class="nba_str" id="branddiv1" style="display:none;">
<ul class="east_west" id="rank_west"></ul>
</div>
</div>
</div>
</div>
</div>
<!-- ç¯®ççæå­ç´æ­&ç¯®çæè¡æ¦ç»æ -->
<div class="clear"></div>
</div>
<!-- ç»¼åæ°é»æ¨¡åç»æ -->
<!-- å¨±ä¹æ°é»æ¨¡å -->
<div class="enter">
<div class="rec_box">
<div class="base_civ">
<span class="foreign"><a href="//ent.7mkr.com">ëë³´ê¸°</a></span>
</div>
<div class="rec_news_ab">
<dl class="rec_big">
<dt>
<a href="http://news.7mkr.com/data/20210112/142243.shtml"><img alt="ìµìë¯¸, ë³´ì¼ ë¯ ë§ ë¯ ì¡ê°ì  ëª¸ë§¤" class="lazy" data-original="http://uimg.7mkr.com//data/newsicon/20210112/0347114epekjnavr1610437631809916.jpg" height="222" width="296"/></a>
<span class="r_b_title"><a href="http://news.7mkr.com/data/20210112/142243.shtml" title="ìµìë¯¸, ë³´ì¼ ë¯ ë§ ë¯ ì¡ê°ì  ëª¸ë§¤">ìµìë¯¸, ë³´ì¼ ë¯ ë§ ë¯ ì¡ê°ì  ëª¸ë§¤</a></span>
<span class="r_b_words">ëª¨ë¸ ìµìë¯¸ê° ì¡ê°ì  ëª¸ë§¤ë¥¼ ë½ëë¤.ê·¸ë 4ì¼ ì¸ì¤íê·¸ë¨ì ì¬ì§ í ì¥ì ê²ì¬íë¤.ì¬ì§ ì ìµìë¯¸ë ...</span>
</dt>
<dd>
<span class="r_s_title"><a href="http://news.7mkr.com/data/20210112/142130.shtml">ë¸ëíí¬ ì ë, ë í°ìì¸ Xì²­ë°ì§ë ...</a></span>
<span class="r_s_pic"><a href="http://news.7mkr.com/data/20210112/142130.shtml"><img alt="ë¸ëíí¬ ì ë, ë í°ìì¸ Xì²­ë°ì§ë ì§ë¦¬" class="lazy" data-original="http://uimg.7mkr.com//data/newsicon/20210112/102809ols1496azq1610418489980157.jpg"/></a></span>
<span class="r_s_words">ë¸ëíí¬ì ì ëê° ì¹ìí ìíë¥¼ ë½ëë¤.ì ëë 10ì¼ ìì ì ì¸ì¤íê·¸ë¨ì "Preparing something fun f...</span>
</dd>
<dd>
<span class="r_s_title"><a href="http://news.7mkr.com/data/20210112/142129.shtml">í´ ì¹´ë¤ìì, íê²© ëª¸ë§¤ê° ëë³´ì´ë ...</a></span>
<span class="r_s_pic"><a href="http://news.7mkr.com/data/20210112/142129.shtml"><img alt="í´ ì¹´ë¤ìì, íê²© ëª¸ë§¤ê° ëë³´ì´ë ëì ë¦¬ë£©" class="lazy" data-original="http://uimg.7mkr.com//data/newsicon/20210112/102549egtiu29hc_1610418349160856.jpg"/></a></span>
<span class="r_s_words">í´ ì¹´ë¤ììì´ ëì ë¦¬ë¥¼ ìê³  ë ì¬í ëª¸ë§¤ë¥¼ ë½ëë¤.12ì¼(íêµ­ìê°) í ë¦¬ì°ë ë°°ì° ê²¸ ëª¨ë¸ í´ ì¹´ë¤ìì...</span>
</dd>
</dl>
</div>
<div class="rec_news_ab">
<dl class="rec_big">
<dt>
<a href="http://news.7mkr.com/data/20210112/142242.shtml"><img alt="ë§¤ë ¥ë§ì ì ëª¨ë¸ ì ë°, ì²­ë°ì§ì ëª¨ë¸í¤ëë¥¼ ìê³  íìì ë§¤ë ¥ ë½ë´" class="lazy" data-original="http://uimg.7mkr.com//data/newsicon/20210112/033509o553ru5id31610436909400149.jpg" height="222" width="296"/></a>
<span class="r_b_title"><a href="http://news.7mkr.com/data/20210112/142242.shtml" title="ë§¤ë ¥ë§ì ì ëª¨ë¸ ì ë°, ì²­ë°ì§ì ëª¨ë¸í¤ëë¥¼ ìê³  íìì ë§¤ë ¥ ë½ë´">ë§¤ë ¥ë§ì ì ëª¨ë¸ ì ë°, ì²­ë°ì§ì ëª¨...</a></span>
<span class="r_b_words">TFC ë§ê±¸ ì ë°ê° ëªë¶íì ì ë¼ì¸ì ê³¼ìíë¤. ì ë°ë ìµê·¼ ìì ì SNSì ì²­ë°ì§ì ëª¨ë¸í¤ëë¥¼ ë§¤ì¹ìí¨ ...</span>
</dt>
<dd>
<span class="r_s_title"><a href="http://news.7mkr.com/data/20210111/142115.shtml">ì ìì§, ë¸ë¼í+ë ê¹ì¤ê° ì´ë ê² ì ...</a></span>
<span class="r_s_pic"><a href="http://news.7mkr.com/data/20210111/142115.shtml"><img alt="ì ìì§, ë¸ë¼í+ë ê¹ì¤ê° ì´ë ê² ì ì´ì¸ë¦¬ë ì¬ì..ìë²½ Së¼ì¸" class="lazy" data-original="http://uimg.7mkr.com//data/newsicon/20210111/035712ns3gmog5tj1610351832677905.jpg"/></a></span>
<span class="r_s_words">ì ìì§ê° ë¸ë¼íì ë ê¹ì¤ë¥¼ ìê³  Së¼ì¸ ëª¸ë§¤ë¥¼ ìëí´ íì ë¤.11ì¼ ì  êµ­ê°ëí ë¦¬ë¬ì²´ì¡° ì¶ì  ë°©ì¡ì¸ ...</span>
</dd>
<dd>
<span class="r_s_title"><a href="http://news.7mkr.com/data/20210111/142114.shtml">ì¤íì, 51ì¸ë¼ê³ ? ì¼ë¦¬ì¼ë¦¬ 'LAì§'...</a></span>
<span class="r_s_pic"><a href="http://news.7mkr.com/data/20210111/142114.shtml"><img alt="ì¤íì, 51ì¸ë¼ê³ ? ì¼ë¦¬ì¼ë¦¬ 'LAì§'ì ë½ë¸ ëì¬+íí ììë³µ ìí" class="lazy" data-original="http://uimg.7mkr.com//data/newsicon/20210111/0349572e4srqweij1610351397554704.jpg"/></a></span>
<span class="r_s_words">ê·¸ë£¹ ì¼ ì¶ì  ì¬ìê° ì¤íìì´ ëì¬í ëª¸ë§¤ë¥¼ ìëíë¤.ì¤íìì 11ì¼ ìì ì ì¸ì¤íê·¸ë¨ì¤í ë¦¬ì "GET ...</span>
</dd>
</dl>
</div>
<div class="rec_news_c">
<dl class="rec_big">
<dt>
<a href="http://news.7mkr.com/data/20210112/142131.shtml"><img alt="ì´ ëª¸ë§¤ê° 50ë?â¦ì¹ê³¼ìì¬ ì´ìì§ íì " class="lazy" data-original="http://uimg.7mkr.com//data/newsicon/20210112/103122n0521czorz161041868213176.jpg" height="222" width="296"/></a>
<span class="r_b_title"><a href="http://news.7mkr.com/data/20210112/142131.shtml" title="ì´ ëª¸ë§¤ê° 50ë?â¦ì¹ê³¼ìì¬ ì´ìì§ íì ">ì´ ëª¸ë§¤ê° 50ë?…ì¹ê³¼ìì¬ ì´ìì§ í...</a></span>
<span class="r_b_words">ì íë² ê²¸ ì¹ê³¼ìì¬ ì´ìì§(52)ì´ ë¹í¤ë ìíë¥¼ ê³µê°íë¤.ì¹ê³¼ìì¬ ì´ìì§ì 11ì¼ ì¸ì¤íê·¸ë¨ì "ì§ëì¹...</span>
</dt>
<dd>
<span class="r_s_title"><a href="http://news.7mkr.com/data/20210111/142100.shtml">ìµí¬, ì¶ì° 2ë¬ ë§ì ë³µê· íì , 'ë§...</a></span>
<span class="r_s_pic"><a href="http://news.7mkr.com/data/20210111/142100.shtml"><img alt="ìµí¬, ì¶ì° 2ë¬ ë§ì ë³µê· íì , 'ë§ í¸í ì¹´í' í©ë¥â¦íê°ë·° ì í¼ì§ ê³µê°" class="lazy" data-original="http://uimg.7mkr.com//data/newsicon/20210111/095546gqwx5y3pgz1610330146710987.jpg"/></a></span>
<span class="r_s_words">'ì¼êµ¬ ì¬ì ' ìµí¬ê° 'ì¡ì ì¬ì 'ì¼ë¡ ë³ì íë¤.Eì±ëì ë°ë¥´ë©´ ìµí¬ë ì¤ë 28ì¼ ì²« ë°©ì¡ëë í°ìºì¤í¸ E...</span>
</dd>
<dd>
<span class="r_s_title"><a href="http://news.7mkr.com/data/20210111/142098.shtml">ì¹ê³¼ìì¬ ì´ìì§, ëì´ 53ì¸ë¼ ë¯¿ê¸° ...</a></span>
<span class="r_s_pic"><a href="http://news.7mkr.com/data/20210111/142098.shtml"><img alt="ì¹ê³¼ìì¬ ì´ìì§, ëì´ 53ì¸ë¼ ë¯¿ê¸° íë  ë¹í¤ë ìí" class="lazy" data-original="http://uimg.7mkr.com//data/newsicon/20210111/095110v9liogjfd31610329870314983.jpg"/></a></span>
<span class="r_s_words">ì¹ê³¼ìì¬ ì´ìì§ì´ ì¼ì ëª¨ìµì ê³µê°íë¤.ì´ìì§ì ì§ë 4ì¼ ìì ì ì¸ì¤íê·¸ë¨ì ì¬ì§ì ê²ì¬íë¤.ê³µê°...</span>
</dd>
</dl>
</div>
<div class="clear"></div>
</div>
<div class="m2" id="m2_2"></div>
<!-- å¨±ä¹å¾åº -->
<div class="rec_pic">
<div class="r_pic_title"><a href="//photo.7mkr.com">ëë³´ê¸°</a></div>
<div class="pic_box">
<ul id="entroll">
</ul>
</div>
</div>
<!-- å¨±ä¹å¾åºç»æ -->
</div>
<!-- å¨±ä¹æ°é»æ¨¡åç»æ -->
<!-- ä½è²å¾åºæ¨¡å -->
<div class="sports_pic">
<div class="base_civ"></div>
<div class="spo_but">
<ul>
<li class="but1_on" id="but1" onmouseover="showSpoPic( 1 );$('img.lazy_photo').trigger('photo');">ììíë³´</li>
<li class="but2" id="but2" onmouseover="showSpoPic( 2 );$('img.lazy_photo').trigger('photo');">ì¤í¬ì¸  ì¤í</li>
<li class="but3" id="but3" onmouseover="showSpoPic( 3 );$('img.lazy_photo').trigger('photo');">ì¹ì´ë¦¬ë</li>
</ul>
</div>
<div class="spo_pic" id="spo_pic1" style="display: block">
<ul>
<li><a href="http://photo.7mkr.com/data/20210111/142064.shtml"><img alt="ITA D1 17R ì ë²¤í¬ì¤ 3:1 ì¬ìì¬ë¡ ì¹¼ì´" class="lazy" data-original="http://uimg.7mkr.com//data/photoicon/20210111/09324423xldxx05h1610328764876837.jpg"/></a><span><a href="http://photo.7mkr.com/data/20210111/142064.shtml">ITA D1 17R ì ë²¤í¬ì¤ 3:1 ì¬ìì¬ë¡ ì¹¼ì´</a></span></li>
<li><a href="http://photo.7mkr.com/data/20210110/142010.shtml"><img alt="SPA D1 18R ê·¸ë¼ëë¤ 0:4 ë°ë¥´ìë¡ë" class="lazy" data-original="http://uimg.7mkr.com//data/photoicon/20210110/094655l702qyflo11610243215671312.jpg"/></a><span><a href="http://photo.7mkr.com/data/20210110/142010.shtml">SPA D1 18R ê·¸ë¼ëë¤ 0:4 ë°ë¥´ìë¡ë</a></span></li>
<li><a href="http://photo.7mkr.com/data/20210107/141846.shtml"><img alt="ITA D1 16R AC ë°ë 1:3 ì ë²¤í¬ì¤ FC" class="lazy" data-original="http://uimg.7mkr.com//data/photoicon/20210107/111420hp38guenic160998926062724.jpg"/></a><span><a href="http://photo.7mkr.com/data/20210107/141846.shtml">ITA D1 16R AC ë°ë 1:3 ì ë²¤í¬ì¤ FC</a></span></li>
<li><a href="http://photo.7mkr.com/data/20210106/141797.shtml"><img alt="ENG LC ì¤ê²°ì¹ì  í í¸ë íì¤í¼ FC 2:0 ë¸ë í¸í¼ë FC" class="lazy" data-original="http://uimg.7mkr.com//data/photoicon/20210106/0954484g3en79r7a1609898088833953.jpg"/></a><span><a href="http://photo.7mkr.com/data/20210106/141797.shtml">ENG LC ì¤ê²°ì¹ì  í í¸ë íì¤í¼ FC 2:0 ë¸ë í¸í¼ë FC</a></span></li>
<li><a href="http://photo.7mkr.com/data/20210104/141683.shtml"><img alt="ENG PR 16R ì²¼ì 1:3 ë§¨ì²´ì¤í° ìí°" class="lazy" data-original="http://uimg.7mkr.com//data/photoicon/20210104/093924wmskspxkrt1609724364904466.jpg"/></a><span><a href="http://photo.7mkr.com/data/20210104/141683.shtml">ENG PR 16R ì²¼ì 1:3 ë§¨ì²´ì¤í° ìí°</a></span></li>
<li><a href="http://photo.7mkr.com/data/20210103/141626.shtml"><img alt="ENG PR 17R  í í¸ë íì¤í¼ 3:0 ë¦¬ì¦ ì ëì´í°ë" class="lazy" data-original="http://uimg.7mkr.com//data/photoicon/20210103/0928580c7u263xv31609637338811063.jpg"/></a><span><a href="http://photo.7mkr.com/data/20210103/141626.shtml">ENG PR 17R  í í¸ë íì¤í¼ 3:0 ë¦¬ì¦ ì ëì´í°ë</a></span></li>
<li><a href="http://photo.7mkr.com/data/20201228/141274.shtml"><img alt="ENG PR 15R ì¸ë²ííí´ ìëë¬ì¤ 1:1 í í¸ë íì¤í¼" class="lazy" data-original="http://uimg.7mkr.com//data/photoicon/20201228/0957432o0vt6_zpv1609120663362480.jpg"/></a><span><a href="http://photo.7mkr.com/data/20201228/141274.shtml">ENG PR 15R ì¸ë²ííí´ ìëë¬ì¤ 1:1 í í¸ë íì¤í¼</a></span></li>
<li><a href="http://photo.7mkr.com/data/20201227/141202.shtml"><img alt="ENG PR 15R ìì¤ë  3:1 ì²¼ì" class="lazy" data-original="http://uimg.7mkr.com//data/photoicon/20201227/101651yc_3jmpels1609035411221414.jpg"/></a><span><a href="http://photo.7mkr.com/data/20201227/141202.shtml">ENG PR 15R ìì¤ë  3:1 ì²¼ì</a></span></li>
<li><a href="http://photo.7mkr.com/data/20201223/140978.shtml"><img alt="ITA D1 13R ì ë²¤í¬ì¤ FC 0:3 ACF í¼ì¤ë í°ë" class="lazy" data-original="http://uimg.7mkr.com//data/photoicon/20201223/1009457hbw_03nmx1608689385842539.jpg"/></a><span><a href="http://photo.7mkr.com/data/20201223/140978.shtml">ITA D1 13R ì ë²¤í¬ì¤ FC 0:3 ACF í¼ì¤ë í°ë</a></span></li>
<li><a href="http://photo.7mkr.com/data/20201221/140856.shtml"><img alt="ENG PR 14R í í¸ë íì¤í¼ 0:2 ë ì¤í° ìí°" class="lazy" data-original="http://uimg.7mkr.com//data/photoicon/20201221/092828arhpr5131h160851410852062.jpg"/></a><span><a href="http://photo.7mkr.com/data/20201221/140856.shtml">ENG PR 14R í í¸ë íì¤í¼ 0:2 ë ì¤í° ìí°</a></span></li>
<li><a href="http://photo.7mkr.com/data/20201220/140820.shtml"><img alt="ITA D1 13R íë¥´ë§ ì¹¼ì´ 1913 0:4 ì ë²¤í¬ì¤" class="lazy" data-original="http://uimg.7mkr.com//data/photoicon/20201220/095225x2cogjkttc1608429145681825.jpg"/></a><span><a href="http://photo.7mkr.com/data/20201220/140820.shtml">ITA D1 13R íë¥´ë§ ì¹¼ì´ 1913 0:4 ì ë²¤í¬ì¤</a></span></li>
<li><a href="http://photo.7mkr.com/data/20201217/140632.shtml"><img alt="ENG PR 13R ë¦¬ë²í FC 2:1 í í¸ë íì¤í¼ FC" class="lazy" data-original="http://uimg.7mkr.com//data/photoicon/20201217/1105064i7656qpkt1608174306152847.jpg"/></a><span><a href="http://photo.7mkr.com/data/20201217/140632.shtml">ENG PR 13R ë¦¬ë²í FC 2:1 í í¸ë íì¤í¼ FC</a></span></li>
<div class="clear"></div>
</ul>
</div>
<div class="spo_pic" id="spo_pic2" style="display: none">
<ul>
<li><a href="http://photo.7mkr.com/data/20201127/139530.shtml"><img alt="'ìê°ì ì¶êµ¬ç¥' ìë¥´í¨ ë§ë¼ëë ì¡°ë¬¸ ì¸ì°ì¸í´" class="lazy_photo" data-original="http://uimg.7mkr.com//data/photoicon/20201127/1016458h9j6pmy3_1606443405508602.jpg"/></a><span><a href="http://photo.7mkr.com/data/20201127/139530.shtml">'ìê°ì ì¶êµ¬ç¥' ìë¥´í¨ ë§ë¼ëë ì¡°ë¬¸ ì¸ì°ì¸í´</a></span></li>
<li><a href="http://photo.7mkr.com/data/20200903/134728.shtml"><img alt="PSG 'ê°í' ë¤ì´ë§ë¥´, ì½ë¡ë19 ìì±íì " class="lazy_photo" data-original="http://uimg.7mkr.com//data/photoicon/20200903/1024181n6rf7da1a1599099858378108.jpg"/></a><span><a href="http://photo.7mkr.com/data/20200903/134728.shtml">PSG 'ê°í' ë¤ì´ë§ë¥´, ì½ë¡ë19 ìì±íì </a></span></li>
<li><a href="http://photo.7mkr.com/data/20200901/134644.shtml"><img alt="ë©ì, 7ìµ ì ë¡ì í´ì½ê¸ì ì§ë¶í´ì¼ í´ì ë°ë¥´ìë¡ëë¥¼ ë ë  ì ìë¤!" class="lazy_photo" data-original="http://uimg.7mkr.com//data/photoicon/20200901/105236ziwkszaerx1598928756600681.jpg"/></a><span><a href="http://photo.7mkr.com/data/20200901/134644.shtml">ë©ì, 7ìµ ì ë¡ì í´ì½ê¸ì ì§ë¶í´ì¼ í´ì ë°ë¥´ìë¡ëë¥¼ ë ë  ì ìë¤!</a></span></li>
<li><a href="http://photo.7mkr.com/data/20200828/134338.shtml"><img alt="ë©ì, í©ê³¼ ì¬ííëâ¦ë§¨ìí° ì´ì ì¤" class="lazy_photo" data-original="http://uimg.7mkr.com//data/photoicon/20200828/095803lul7k2tmmy1598579883742062.jpg"/></a><span><a href="http://photo.7mkr.com/data/20200828/134338.shtml">ë©ì, í©ê³¼ ì¬ííëâ¦ë§¨ìí° ì´ì ì¤</a></span></li>
<li><a href="http://photo.7mkr.com/data/20200826/134248.shtml"><img alt="ì¶êµ¬ì¤í ë¦¬ì¤ë¬ ë©ì, 20ë ê³ í¥ ë°ë¥´ìë¡ëìì ì´ì " class="lazy_photo" data-original="http://uimg.7mkr.com//data/photoicon/20200826/100914ionmgjm0zu1598407754316487.jpg"/></a><span><a href="http://photo.7mkr.com/data/20200826/134248.shtml">ì¶êµ¬ì¤í ë¦¬ì¤ë¬ ë©ì, 20ë ê³ í¥ ë°ë¥´ìë¡ëìì ì´ì </a></span></li>
<li><a href="http://photo.7mkr.com/data/20200823/134107.shtml"><img alt="í¸ë ëì ì¬ì¹, í´ê°ë¥¼ ë³´ë´" class="lazy_photo" data-original="http://uimg.7mkr.com//data/photoicon/20200823/094754ndxxy_b2tm1598147274663406.jpg"/></a><span><a href="http://photo.7mkr.com/data/20200823/134107.shtml">í¸ë ëì ì¬ì¹, í´ê°ë¥¼ ë³´ë´</a></span></li>
<li><a href="http://photo.7mkr.com/data/20200616/130603.shtml"><img alt="ë ì ë§ëë¦¬ëì ì¤í, í¹ë³í ëª¨ìµ" class="lazy_photo" data-original="http://uimg.7mkr.com//data/photoicon/20200616/100850x26zo1z0qk1592273330638862.jpg"/></a><span><a href="http://photo.7mkr.com/data/20200616/130603.shtml">ë ì ë§ëë¦¬ëì ì¤í, í¹ë³í ëª¨ìµ</a></span></li>
<li><a href="http://photo.7mkr.com/data/20200610/130341.shtml"><img alt="ë©ì, ë°ë¥´ì¬ íë ¨ì 'ìëí¨ì¤'...ë¼ë¦¬ê°ë " class="lazy_photo" data-original="http://uimg.7mkr.com//data/photoicon/20200610/095229tj4jtpqxth1591753949344786.jpg" goat="" my="" oh=""/></a><span><a href="http://photo.7mkr.com/data/20200610/130341.shtml">ë©ì, ë°ë¥´ì¬ íë ¨ì 'ìëí¨ì¤'...ë¼ë¦¬ê°ë "Oh, my GOAT"</a></span></li>
<li><a href="http://photo.7mkr.com/data/20200604/130087.shtml"><img alt="íë ¨ì ë¯¸ì¹ ì´ ì ì, 4ìê° ì  ëì°©âê°ì¸ í¸ë ì´ë" class="lazy_photo" data-original="http://uimg.7mkr.com//data/photoicon/20200604/094947idy3np1w_z1591235387325759.jpg"/></a><span><a href="http://photo.7mkr.com/data/20200604/130087.shtml">íë ¨ì ë¯¸ì¹ ì´ ì ì, 4ìê° ì  ëì°©âê°ì¸ í¸ë ì´ë</a></span></li>
<li><a href="http://photo.7mkr.com/data/20200529/129828.shtml"><img alt="ì ë½ì 3ë ë¦¬ê·¸ë¤ì´ 6ì ì¬ê°" class="lazy_photo" data-original="http://uimg.7mkr.com//data/photoicon/20200529/0925012ohc8hl_f71590715501399313.jpg"/></a><span><a href="http://photo.7mkr.com/data/20200529/129828.shtml">ì ë½ì 3ë ë¦¬ê·¸ë¤ì´ 6ì ì¬ê°</a></span></li>
<li><a href="http://photo.7mkr.com/data/20200521/129483.shtml"><img alt="ìí¥ë¯¼, í í¸ë ë³µê· ì¸ì¦ì· " class="lazy_photo" data-original="http://uimg.7mkr.com//data/photoicon/20200521/094246rdi8sc6j8u1590025366884402.jpg"/></a><span><a href="http://photo.7mkr.com/data/20200521/129483.shtml">ìí¥ë¯¼, í í¸ë ë³µê· ì¸ì¦ì· "ëê° ëììëì§ ë³´ì¸ì!"</a></span></li>
<li><a href="http://photo.7mkr.com/data/20200515/129160.shtml"><img alt="ë ì ë§ëë¦¬ë ì ìë¤ íë ¨ ë³µê·" class="lazy_photo" data-original="http://uimg.7mkr.com//data/photoicon/20200515/094156pr17argo271589506916182934.jpg"/></a><span><a href="http://photo.7mkr.com/data/20200515/129160.shtml">ë ì ë§ëë¦¬ë ì ìë¤ íë ¨ ë³µê·</a></span></li>
<div class="clear"></div>
</ul>
</div>
<div class="spo_pic" id="spo_pic3" style="display: none">
<ul>
<li><a href="http://photo.7mkr.com/data/20210102/141550.shtml"><img alt="[XiuRen] No.2079 ëª¨ë¸ Fei Yue Ying-Cherry" class="lazy_photo" data-original="http://uimg.7mkr.com//data/photoicon/20210102/092532xdjud2h6as1609550732328697.jpg"/></a><span><a href="http://photo.7mkr.com/data/20210102/141550.shtml">[XiuRen] No.2079 ëª¨ë¸ Fei Yue Ying-Cherry</a></span></li>
<li><a href="http://photo.7mkr.com/data/20201229/141308.shtml"><img alt="[YouMi] Vol.493 ëª¨ë¸ Wang Yu Chun" class="lazy_photo" data-original="http://uimg.7mkr.com//data/photoicon/20201229/095820zopb9dhl311609207100982917.jpg"/></a><span><a href="http://photo.7mkr.com/data/20201229/141308.shtml">[YouMi] Vol.493 ëª¨ë¸ Wang Yu Chun</a></span></li>
<li><a href="http://photo.7mkr.com/data/20201226/141124.shtml"><img alt="[HuaYang] VOL.022 ëª¨ë¸ Hwang Yue Ran" class="lazy_photo" data-original="http://uimg.7mkr.com//data/photoicon/20201226/095118_84rej9xjh1608947478145991.jpg"/></a><span><a href="http://photo.7mkr.com/data/20201226/141124.shtml">[HuaYang] VOL.022 ëª¨ë¸ Hwang Yue Ran</a></span></li>
<li><a href="http://photo.7mkr.com/data/20201222/140908.shtml"><img alt="[DKGirl] Vol.016 Sasa Wong" class="lazy_photo" data-original="http://uimg.7mkr.com//data/photoicon/20201222/094406qr8gt8yihl1608601446357406.jpg"/></a><span><a href="http://photo.7mkr.com/data/20201222/140908.shtml">[DKGirl] Vol.016 Sasa Wong</a></span></li>
<li><a href="http://photo.7mkr.com/data/20201219/140735.shtml"><img alt="[YouMi] Vol.492 ëª¨ë¸ Nalu Selena" class="lazy_photo" data-original="http://uimg.7mkr.com//data/photoicon/20201219/094657wt850g28s11608342417848844.jpg"/></a><span><a href="http://photo.7mkr.com/data/20201219/140735.shtml">[YouMi] Vol.492 ëª¨ë¸ Nalu Selena</a></span></li>
<li><a href="http://photo.7mkr.com/data/20201205/139955.shtml"><img alt="[XiuRen] No.2193 ëª¨ë¸ Chen Xiao Miao" class="lazy_photo" data-original="http://uimg.7mkr.com//data/photoicon/20201205/0918459owg5wjnte160713112520858.jpg"/></a><span><a href="http://photo.7mkr.com/data/20201205/139955.shtml">[XiuRen] No.2193 ëª¨ë¸ Chen Xiao Miao</a></span></li>
<li><a href="http://photo.7mkr.com/data/20201121/139185.shtml"><img alt="[MiStar] VOL.229 ëª¨ë¸ Hwang Yue Ran" class="lazy_photo" data-original="http://uimg.7mkr.com//data/photoicon/20201121/092914ezx_ezrd3p1605922154590670.jpg"/></a><span><a href="http://photo.7mkr.com/data/20201121/139185.shtml">[MiStar] VOL.229 ëª¨ë¸ Hwang Yue Ran</a></span></li>
<li><a href="http://photo.7mkr.com/data/20201110/138560.shtml"><img alt="[XiuRen] No.1091 ëª¨ë¸ Hwang Yue Ran" class="lazy_photo" data-original="http://uimg.7mkr.com//data/photoicon/20201110/101750pgc5q0ufii160497467062484.jpg"/></a><span><a href="http://photo.7mkr.com/data/20201110/138560.shtml">[XiuRen] No.1091 ëª¨ë¸ Hwang Yue Ran</a></span></li>
<li><a href="http://photo.7mkr.com/data/20201031/138005.shtml"><img alt="[IMISS] Vol.406 ëª¨ë¸ Lavinia" class="lazy_photo" data-original="http://uimg.7mkr.com//data/photoicon/20201031/101422gw49smpnhg1604110462361420.jpg"/></a><span><a href="http://photo.7mkr.com/data/20201031/138005.shtml">[IMISS] Vol.406 ëª¨ë¸ Lavinia</a></span></li>
<li><a href="http://photo.7mkr.com/data/20201027/137775.shtml"><img alt="[XiuRen] No.1077 ëª¨ë¸ Hwang Yue Ran" class="lazy_photo" data-original="http://uimg.7mkr.com//data/photoicon/20201027/111622qr21fyf98f1603768582523826.jpg"/></a><span><a href="http://photo.7mkr.com/data/20201027/137775.shtml">[XiuRen] No.1077 ëª¨ë¸ Hwang Yue Ran</a></span></li>
<li><a href="http://photo.7mkr.com/data/20201024/137573.shtml"><img alt="[XiuRen] No.1776 ëª¨ë¸ Manuela" class="lazy_photo" data-original="http://uimg.7mkr.com//data/photoicon/20201024/09270767u4ua9x0x1603502827616613.jpg"/></a><span><a href="http://photo.7mkr.com/data/20201024/137573.shtml">[XiuRen] No.1776 ëª¨ë¸ Manuela</a></span></li>
<li><a href="http://photo.7mkr.com/data/20201006/136569.shtml"><img alt="[MFStar] Vol.258 ëª¨ë¸ Hwang Yue Ran" class="lazy_photo" data-original="http://uimg.7mkr.com//data/photoicon/20201006/09531867c4a86_hd1601949198497804.jpg"/></a><span><a href="http://photo.7mkr.com/data/20201006/136569.shtml">[MFStar] Vol.258 ëª¨ë¸ Hwang Yue Ran</a></span></li>
<div class="clear"></div>
</ul>
</div>
</div>
<script type="text/javascript">
function showSpoPic( id ){
	for( var i=1; i<=3; i++ ){
		if( id == i ){
			$( '#but'+i ).addClass( 'but'+i+'_on' );
			$( '#but'+i ).removeClass( 'but'+i );
			$( '#spo_pic'+i ).css( 'display' , 'block' );
		} else {
			$( '#but'+i ).addClass( 'but'+i );
			$( '#but'+i ).removeClass( 'but'+i+'_on' );
			$( '#spo_pic'+i ).css( 'display' , 'none' );
		}
	}
}
</script>
<!-- ä½è²å¾åºæ¨¡åç»æ -->
</div>
<!-- æ°é»åå®¹ä¸»æ¨¡åç»æ -->
</div>
<!-- ä¸»åå®¹ç»æ -->
</div>
<script id="spt_message" language="javascript" src="http://www.7m.com.cn/js/addmessagediv.js?l=kr" type="text/javascript"></script>
<div class="footer_bg">
<div class="footer">
<dl>
<dt class="foot_search">
<form action="//www.7mkr.com/search.php" target="_blank">
<span class="foot_text"><input id="fkey" name="key" onmouseout="seachkey( 1 , 1 )" onmouseover="seachkey( 1 , 0 )" type="text" value="ê²ì.."/></span>
<input class="foot_sur" onclick="search( 1 )" type="button"/>
<input name="t" type="hidden" value="1"/>
</form>
</dt>
<dd>
<a href="javascript:void(0);" onclick="window.open('http://help.7m.com.cn/sm_kr.htm','','width=560,height=260,scrollbars=yes')">ì¬ì´í¸ ì ì±</a>|
                <a href="javascript:void(0);" onclick="window.open('http://help.7m.com.cn/jump.aspx?l=kr&amp;page=sentmessage&amp;t=0','','width=450,height=460,scrollbars=yes');">ìë´ ë° ë¬¸ì</a>|
                <a href="javascript:void(0);" onclick="window.open('http://help.7m.com.cn/jump.aspx?l=kr&amp;page=sentmessage&amp;t=1','','width=450,height=460,scrollbars=yes');">ì¤ë¥ ë³´ê³ </a>|
                <a href="javascript:void(0);" onclick="window.open('http://help.7m.com.cn/ads_kr.htm','','width=450,height=245')">ê´ê³  ë§í¬</a>|
                <a class="tnl1" href="http://sitemap.7m.com.cn/index_kr.shtml" target="_blank">ì¬ì´í¸ë§µ</a>
</dd>
<dd>
                ì£¼ì: ì í¬ ì¬ì´í¸ì ê´ë ¨ì´ ìë ê´ê³ ë¥¼ íµíì¬ ê±°ëíì¨ì ê²½ì°ì ìê¸´ ìì¤ì ì±ìì§ì§ ììµëë¤.
            </dd>
<!--
            <dd>
				<a href="https://www.facebook.com/7msport/" class="big_fb" target="_blank" title="Facebook"></a>
                <a href="https://www.twitter.com/7mkrsports/" class="big_tt" target="_blank" title="Twitter"></a>
                &lt;!&ndash; <a href="https://www.instagram.com/sports7mkr/" class="big_ins" target="_blank" title="instagram"></a> &ndash;&gt;
            </dd>
-->
</dl>
<p class="copyright">
           © Copyright 2013 - <script type="text/javascript">document.write(new Date().getFullYear())</script> íê¶ ìì  www.7mkr.com All Rights Reserved. 
        </p>
</div>
</div>
<div style="display:none"><script src="//count.7m.com.cn/count.js" type="text/javascript"></script></div>
<!--Designed on 2012-12-30, by WZQ & PCD ,Ver 1.0 -->
<script id="spt_popkr" language="javascript" src="//www.7mkr.com/promotion/addpop.js?l=kr" type="text/javascript"></script>
<!--script type="text/javascript" language="javascript" src="http://7mad.7m.com.cn/ap/promotion20150429/addpop.js?l=kr" id="spt_pop"></script>-->
<script type="text/javascript">
        $(function() {
            $("img.lazy").lazyload({ threshold : 120 });
            $("img.lazy_photo").lazyload({ event : "photo" });
//            sidebarVar.init('right', 'kr');
        });
    </script>
</body>
</html>