<!DOCTYPE html>
<html lang="th">
<head id="head">
<meta charset="utf-8"/>
<title>7m บ้านผลบอล ผลบอลสด รายงานสดผลบอลสดๆทั่วโลก 7m Livescore</title>
<meta content="ผลบอลสด, 7m, บ้านผลบอล" name="keywords"/>
<meta content="บ้านผลบอล 7m ผลบอลสด Livescore ดูผลบอลสด ผลบอลสดวันนี้ มีถ่ายทอดบอลสดคู่ใหญ่ทุกคู่ทุกวัน อัพเดทรวดเร็วแม่นยำ ตลอด 24 ชั่วโมง." name="description"/>
<meta content="width=1300" name="viewport"/>
<meta content="INDEX,FOLLOW" name="ROBOTS"/>
<link href="//cdn.7mscorethai.com/favicon.ico" rel="shortcut icon" type="image/x-icon"/>
<link href="//cdn.7mscorethai.com/favicon.ico" rel="icon" type="image/x-icon"/>
<link href="//cdn.7mscorethai.com/css/desktop/default.css" rel="stylesheet"/>
<link href="//cdn.7mscorethai.com/css/icon.css?1" rel="stylesheet"/>
<link href="//cdn.7mscorethai.com/css/flag.css" rel="stylesheet"/>
<meta content="zK-XY7ewlJA6yveir-WbKHNYlr9WzO-GpsYLWXEtVoc" name="google-site-verification"/>
<script src="//cdn.7mscorethai.com/js/jquery.min.js"></script>
<script src="//cdn.7mscorethai.com/js/angular/angular.min.js"></script>
<script type="text/javascript">
  (function() {
    var ga1 = document.createElement('script'); ga1.type = 'text/javascript';
    ga1.async = true;
    ga1.src = "//lvs.truehits.in.th/dataa/t0032048.js";
    var s = document.getElementsByTagName('script')[0]; s.parentNode.insertBefore(ga1, s);
  })();
</script>
<link href="//www.7mscorethai.com/manifest.json" rel="manifest"/>
<script async="" src="https://cdn.onesignal.com/sdks/OneSignalSDK.js"></script>
<script>
  var OneSignal = window.OneSignal || [];
  OneSignal.push(function() {
    OneSignal.init({
      appId: "5c387c7f-e28c-4bd1-9e67-395858c2cc82",
    });
  });
</script>
</head>
<body>
<style>
#welcome p {
   
    text-indent: 35px;
    margin-bottom: 10px;
}
.ico-boxing{
    background: url(//cdn.7mscorethai.com/ico/32/boxing.png) no-repeat scroll 10px 10px transparent;
}
.menulink img{
    height:30px;
}
</style>
<div class="container">
<div id="header">
<div class="header-top" style="padding: 0 5px;">
<a href="/" style="display:inline-block; width: 350px; height: 100px;" title="7m"></a>
<div class="clearfix"></div>
</div>
<div class="header-menu">
<ul class="top-menu">
<li class="ico-football"><a href="/ดูบอลสด7m.html" title="ดูบอลสด">ดูบอลสด</a></li>
<li class="ico-basketball"><a href="/ดูบาสสด.html" title="ดูบาสสด">ดูบาสสด</a></li>
<li class="ico-nfl"><a href="/ดูอเมริกันฟุตบอลสด.html" title="ดูอเมริกันฟุตบอลสด">ดูอเมริกันฟุตบอลสด</a></li>
<li class="ico-boxing"><a href="/ดูมวยสด1.html" title="ดูมวยสด">ดูมวยสด</a></li>
<div class="clearfix"></div>
</ul>
<ul class="sub-menu">
<li class="ico-star"><a href="/#score-table" title="ผลบอล 7m">ผลบอล 7m</a></li>
<li class="ico-star"><a href="/livescore" title="ผลบอลสด">ผลบอลสด</a></li>
<li class="ico-score"><a href="/ผลบอลเมื่อคืน/" title="ผลบอลเมื่อคืน">ผลบอลเมื่อคืน</a></li>
<li class="ico-calendar"><a href="/programball.html" title="โปรแกรมบอล">โปรแกรมบอล</a></li>
<div class="clearfix"></div>
</ul>
</div>
<div class="clearfix"></div>
</div>
<div id="main">
<style>
#score-league
{
    margin: 0;
}
#score-league img
{
    margin-right: 13px;
}
.menulink img
{
    height: 29px;
}
#score-table .title 
{
    padding: 3px 10px;
    background: linear-gradient(to bottom, #7592a5 0%, #4d7aa3 8%, #07345d 100%);
    color: #fff;
    line-height: 25px;
    font-weight: bold;
    text-shadow: 0 0 5px #333;
    margin: 0 0 5px;
}
#score-table table
{
    width: 630px;
}
#score-table  thead tr{
	background:#ccc;
}
#score-table thead  th{
	font-size:11px;
	padding:3px 10px;
}

#score-table td{
	border-bottom:#cfcfcf solid 1px;
	text-align:center;
}
#score-table .league td{
    background: #326CA9;
    padding: 2px 10px 3px;
    text-align:left;

}
#score-table .league td a{
    color: #fff;

}

#score-table .match td{
     padding: 5px 3px;
     font-size: 12px;
}
#score-table .match .playing{
     color:#f30;
}
#score-table .match .time{
    width:70px;
    font-size:11px;
}
#score-table .match .status{
    width: 50px;
    font-size: 10px;
}
#score-table  .home{
   
    text-align:right;
}
#score-table .match .score{
    width:50px;
    font-weight:bold;
    color:#039;
}
#score-table .away{
    text-align:left;
}
#score-table .match .ht{
    width: 30px;
    font-size: 11px;
}
#score-table .match .hd{
    width:50px;
    font-size:12px;
    font-weight:bold;
    color:#C33;
   
}
#score-table .tor{
    font-weight:bold;
    text-decoration:underline;
   
}
#score-tabletr:nth-child(even) {background: #FFF}
#score-table tr:nth-child(odd) {background: #EEE}
#main .main-content
{
    width: 630px;
    margin: 0 5px;
    float: left;
}
td.score { cursor: pointer; }
#score-timeline
{
    position: absolute;
    width: 350px;
    min-height: 100px;
    background-color: rgba(238,238,238,0.9);
    border: #555 solid 1px;
    box-shadow: 0 0 5px #036;
}
#score-timeline table
{
    width: 100%;
}
#score-timeline td
{
    border-bottom: #CCC solid 1px;
    padding: 2px 5px;
    background-color: #FFF;
}
#score-timeline td.half
{
    background-color: #888;
    color: #FFF;
    text-align: center;
}
#score-timeline td.home
{
    text-align: left;
    width: 40%;
}
#score-timeline td.away
{
    text-align: right;
    width: 40%;
}
#score-timeline td.score
{    
    text-align: center;
    border: solid 1px #ccc;
    font-weight: bold;
}

#score-timeline .icon-goal
{
    display: inline-block;
    width: 13px;
    height: 13px;
    background: url('//cdn.7mscorethai.com/ico/info/icon-goal.png') no-repeat scroll 50% 50% transparent;
}
#score-timeline .icon-goal-own
{
    display: inline-block;
    width: 13px;
    height: 13px;
    background: url('//cdn.7mscorethai.com/ico/info/icon-goal-own.png') no-repeat scroll 50% 50% transparent;
}
#score-timeline .icon-sub-in
{
    display: inline-block;
    width: 13px;
    height: 13px;
    background: url('//cdn.7mscorethai.com/ico/info/icon-sub-in.png') no-repeat scroll 50% 50% transparent;
}
#score-timeline .icon-sub-out
{
    display: inline-block;
    width: 13px;
    height: 13px;
    background: url('//cdn.7mscorethai.com/ico/info/icon-sub-out.png') no-repeat scroll 50% 50% transparent;
}
#score-timeline .icon-card-y
{
    display: inline-block;
    width: 13px;
    height: 13px;
    background: url('//cdn.7mscorethai.com/ico/info/icon-card-y.png') no-repeat scroll 50% 50% transparent;
}
#score-timeline .icon-card-r
{
    display: inline-block;
    width: 13px;
    height: 13px;
    background: url('//cdn.7mscorethai.com/ico/info/icon-card-r.png') no-repeat scroll 50% 50% transparent;
}
#score-timeline .icon-card-yr
{
    display: inline-block;
    width: 13px;
    height: 13px;
    background: url('//cdn.7mscorethai.com/ico/info/icon-card-yr.png') no-repeat scroll 50% 50% transparent;
}
#score-timeline .icon-penalty-missed
{
    display: inline-block;
    width: 13px;
    height: 13px;
    background: url('//cdn.7mscorethai.com/ico/info/icon-penalty-missed.png') no-repeat scroll 50% 50% transparent;
}
#score-timeline .head{    
    background-color: #555;
    color: #FFF;
    padding: 10px;
    font-size: 15px;
    text-align: center;
    font-weight: bold;
}
.side-live
{
    float: right;
    width: 300px;
    background: #FFF;
}
.side-live .title
{
    padding: 3px 10px;
    background: linear-gradient(to bottom, #7592a5 0%, #4d7aa3 8%, #07345d 100%);
    color: #fff;
    line-height: 25px;
    font-weight: bold;
    text-shadow: 0 0 5px #333;
    margin: 0;
    border-top: #CCC solid 1px;
    border-left: #CCC solid 1px;
    border-right: #CCC solid 1px;
}
.match-list
{
    background: #FFF;
}
.match-list .league
{
    padding: 5px;
    background: #222;
    background: linear-gradient(to bottom,#5a5959 30%,#222 100%);
    color: #e7e7e7;
    font-size: 12px;
    line-height: 20px;
    border-left: #CCC solid 1px;
    border-right: #CCC solid 1px;
}
.match-list .league a
{
    color: #FFF;
}
.match-list .match
{
    border-bottom: #CCC solid 1px;
    padding: 10px 0;
    background: #FCFCFC;
}
.match-list .match .home-team
{
    float: left;
    width: 133px;
    text-align: center;
}
.match-list .match .away-team
{
    float: right;
    width: 133px;
    text-align: center;
}
.match-list .match .team-name
{
    font-size: 11px;
    font-weight: bold;
    height: 25px;
    vertical-align: middle;
    line-height: 11px;
    padding: 0 3px;
}
.match-list .match .score
{
    float: left;
    width: 34px;
    text-align: center;
    padding-top: 10px;
    
}
.match-list .home-img img,
.match-list .away-img img
{
    height: 50px;
}
.match-list .time
{
    font-size: 10px;
}
.match-list .action
{
    text-align: center;
    margin-top: 5px;
}
.match-list .match .action .btn-play
{
    border: 1px solid #0e771c;
    -webkit-box-shadow: #fff 0 0 1px inset;
    -moz-box-shadow: #fff 0 0 1px inset;
    box-shadow: #fff 0 0 1px inset;
    -webkit-border-radius: 3px;
    -moz-border-radius: 3px;
    border-radius: 3px;
    font-size: 12px;
    font-family: arial,helvetica,sans-serif;
    padding: 0 10px;
    text-decoration: none;
    display: inline-block;
    text-shadow: 0 2px 0 rgba(0,0,0,.5);
    font-weight: 700;
    color: #fff;
    background-color: #4ba614;
    background-image: -webkit-gradient(linear,left top,left bottom,from(#4ba614),to(#008c00));
    background-image: -webkit-linear-gradient(top,#4ba614,#008c00);
    background-image: -moz-linear-gradient(top,#4ba614,#008c00);
    background-image: -ms-linear-gradient(top,#4ba614,#008c00);
    background-image: -o-linear-gradient(top,#4ba614,#008c00);
    background-image: linear-gradient(to bottom,#4ba614,#008c00);
    filter: progid:DXImageTransform.Microsoft.gradient(GradientType=0,startColorstr=#4ba614,endColorstr=#008c00);
    line-height: 25px;
}
.match-list .match .action a:before
{
    content: url(//cdn.7mscorethai.com/_files/emoticons/play-icon.png);
    margin-right: 6px;
    position: relative;
    display: inline-block;
    vertical-align: middle;
    font-size: 0;
    line-height: 0;
}
</style>
<style>

.ico-boxing1{
    background: url(//cdn.7mscorethai.com/ico/24/boxing1.png) no-repeat scroll 10px 6px transparent;
}
.ico-boxing2{
    background: url(//cdn.7mscorethai.com/ico/24/boxing2.png) no-repeat scroll 10px 6px transparent;
}
.ico-boxing3{
    background: url(//cdn.7mscorethai.com/ico/24/boxing3.png) no-repeat scroll 10px 6px transparent;
}
.ico-boxing4{
    background: url(//cdn.7mscorethai.com/ico/24/boxing4.png) no-repeat scroll 10px 6px transparent;
}
</style>
<div class="main-menu">
<ul>
<li class="title">7mscorethai</li>
<li class="ico-vision"><a href="/ทรรศนะบอล.html" title="ทรรศนะบอล">ทรรศนะบอล</a></li>
<li class="ico-tded"><a href="/ทีเด็ดบอลวันนี้.html" title="ทีเด็ดบอลวันนี้">ทีเด็ดบอลวันนี้</a></li>
<li class="ico-handicap"><a href="/ราคาบอล.html" title="ราคาบอล">ราคาบอล</a></li>
<li class="ico-boxing1"><a href="/เรตมวย.html" title="เรตมวย">เรตมวย</a></li>
<li class="ico-boxing2"><a href="/วิจารณ์มวย.html" title="วิจารณ์มวย">วิจารณ์มวย</a></li>
<li class="ico-boxing3"><a href="/โปรแกรมมวย.html" title="โปรแกรมมวย">โปรแกรมมวย</a></li>
<li class="ico-boxing4"><a href="/โปรแกรมมวยตู้.html" title="โปรแกรมมวยตู้">โปรแกรมมวยตู้</a></li>
<li class="ico-boxing4"><a href="/ผลมวย.html" title="ผลมวย">ผลมวย</a></li>
</ul>
<div class="banner">
<a href="http://www.allbetclubs.com" rel="nofollow" target="_blank"><img alt="ALLBET Club" src="//cdn.7mscorethai.com/images/banners/banner-allbetclub-250x80-001.gif"/></a>
</div>
<ul>
<li class="title">Standings Menu</li>
<li class="ico-table"><a href="/ตารางคะแนนบอล.html" title="ตารางคะแนนบอล">ตารางคะแนนบอล</a></li>
<li class="ico-top_scorer"><a href="/ดาวซัลโว.html" title="ดาวซัลโว">ดาวซัลโว</a></li>
</ul>
<div class="banner">
<a href="http://sbo.click/-396161d4" rel="nofollow" target="_blank"><img alt="SBOBET CZ" src="//cdn.7mscorethai.com/images/banners/banner-cz-250x80-001.gif"/></a>
</div>
<ul>
<li class="title">Hot Leagues</li>
<li style="background: url(//cdn.7mscorethai.com/_files/league-icon/league-87a252a7.png) no-repeat scroll 10px 6px transparent; background-size: 25px 25px;"><a href="/league-soccer-thailand-thai_league_1" title="ไทยลีก">ไทยลีก</a></li>
<li style="background: url(//cdn.7mscorethai.com/_files/league-icon/league-6b0f66dd.png) no-repeat scroll 10px 6px transparent; background-size: 25px 25px;"><a href="/league-soccer-europe-europa_league" title="ยูโรป้าลีค">ยูโรป้าลีค</a></li>
<li style="background: url(//cdn.7mscorethai.com/_files/league-icon/league-d2726373.png) no-repeat scroll 10px 6px transparent; background-size: 25px 25px;"><a href="/league-soccer-europe-champions_league" title="แชมป์เปี้ยนลีค">แชมป์เปี้ยนลีค</a></li>
<li style="background: url(//cdn.7mscorethai.com/_files/league/league-0a09331e.png) no-repeat scroll 10px 6px transparent; background-size: 25px 25px;"><a href="/league-soccer-england-premier_league" title="อิงแลน พี่เมียหลีก">อิงแลน พี่เมียหลีก</a></li>
<li style="background: url(//cdn.7mscorethai.com/_files/league-icon/league-c5058e1f.png) no-repeat scroll 10px 6px transparent; background-size: 25px 25px;"><a href="/league-soccer-spain-laliga" title="ลาลิกา สเปน">ลาลิกา สเปน</a></li>
<li style="background: url(//cdn.7mscorethai.com/_files/league-icon/league-e254d10c.png) no-repeat scroll 10px 6px transparent; background-size: 25px 25px;"><a href="/league-soccer-germany-bundesliga" title="บุนเดสลีกา เยอรมัน">บุนเดสลีกา เยอรมัน</a></li>
<li style="background: url(//cdn.7mscorethai.com/_files/league-icon/league-86d1eae5.png) no-repeat scroll 10px 6px transparent; background-size: 25px 25px;"><a href="/league-soccer-italy-serie_a" title="กัลโช่ ซีรีย์ อา อิลาลี">กัลโช่ ซีรีย์ อา อิลาลี</a></li>
<li style="background: url(//cdn.7mscorethai.com/_files/league-icon/league-42580ba9.png) no-repeat scroll 10px 6px transparent; background-size: 25px 25px;"><a href="/league-soccer-france-ligue_1" title="ลีก เอิง ฝรั่งเศส">ลีก เอิง ฝรั่งเศส</a></li>
<li style="background: url(//cdn.7mscorethai.com/_files/league-icon/league-590cb0b3.png) no-repeat scroll 10px 6px transparent; background-size: 25px 25px;"><a href="/league-soccer-netherlands-eredivisie" title="เอเรอดีวีซี เนเธอร์แลนด์">เอเรอดีวีซี เนเธอร์แลนด์</a></li>
<li style="background: url(//cdn.7mscorethai.com/_files/league-icon/league-52a79c74.png) no-repeat scroll 10px 6px transparent; background-size: 25px 25px;"><a href="/league-basketball-usa-nba" title="บาสเกตบอล NBA">บาสเกตบอล NBA</a></li>
<li style="background: url(//cdn.7mscorethai.com/_files/league-icon/league-77b45498.png) no-repeat scroll 10px 6px transparent; background-size: 25px 25px;"><a href="/league-american_football-usa-nfl" title="อเมริกันฟุตบอล NFL">อเมริกันฟุตบอล NFL</a></li>
</ul>
<div class="banner">
<a href="https://www.super-vip2541.com" target="_blank"><img alt="VIP2541" src="//cdn.7mscorethai.com/images/banners/banner-supervip2541-250x80-001.gif"/></a>
</div>
</div>
<script>

$( ".main-menu>ul>li" ).click(function() {
    if($(this).find('.submenu').is(':visible'))
    {
        $(this).find('.submenu').hide();
    }
    else
    {
        $('.submenu').hide();
        $(this).find('.submenu').show();
    }
});   
</script>
<div class="main-content">
<div class="content-body">
<div id="score-table">
<h3 class="title">ผลบอล</h3>
<a href="https://gclub888.online/" target="_blank">
<img src="https://cdn.7mscorethai.com/images/banners/gclub888-935x100-001.gif" style="width:100%;"/>
</a>
<a href="https://www.playhouse99.com/" target="_blank">
<img alt="พนันออนไลน์" src="https://cdn.7mscorethai.com/images/banners/banner-playhouse-935x100-004.gif" style="width:100%;"/>
</a>
<a href="https://77up.app" rel="nofollow" target="_blank">
<img src="https://cdn.7mscorethai.com/images/banners/77upth-935x100-004-2.gif" style="width:100%;"/>
</a>
<a href="https://www.lsm99online.com/" rel="nofollow" target="_blank">
<img src="https://cdn.7mscorethai.com/images/banners/lsm99online-935x100-005.gif" style="width:100%;"/>
</a>
<div id="score-league">
<ul>
<li>
<a href="/league-soccer-thailand-thai_premier_league#league-score" title="THAILAND: Thai Premier League"><img src="//cdn.7mscorethai.com/_files/league/league-b3a2db92.png"/></a>
</li>
<li>
<a href="/league-soccer-england-premier_league#league-score" title="ENGLAND: Premier League"><img src="//cdn.7mscorethai.com/_files/league/league-0a09331e.png"/></a>
</li>
<li>
<a href="/league-soccer-spain-laliga#league-score" title="SPAIN: LaLiga"><img src="//cdn.7mscorethai.com/_files/league/league-0968eba8.png"/></a>
</li>
<li>
<a href="/league-soccer-germany-bundesliga#league-score" title="GERMANY: Bundesliga"><img src="//cdn.7mscorethai.com/_files/league/league-a6c55edb.png"/></a>
</li>
<li>
<a href="/league-soccer-italy-serie_a#league-score" title="ITALY: Serie A"><img src="//cdn.7mscorethai.com/_files/league/league-fbc0eccf.png"/></a>
</li>
<li>
<a href="/league-soccer-france-ligue_1#league-score" title="FRANCE: Ligue 1"><img src="//cdn.7mscorethai.com/_files/league/league-9558dc75.png"/></a>
</li>
<li>
<a href="/league-soccer-netherlands-eredivisie#league-score" title="NETHERLANDS: Eredivisie"><img src="//cdn.7mscorethai.com/_files/league/league-f3e54c7c.png"/></a>
</li>
<div class="clearfix"></div>
</ul>
</div>
<div class="menulink">
<a href="https://www.thsport.com/"><img alt="ข่าวกีฬา" src="//cdn.7mscorethai.com/images/banners/ข่าวกีฬา.png"/></a>
<a href="https://www.thsport.com/บอลไทย.html"><img alt="ข่าวบอลไทย" src="//cdn.7mscorethai.com/images/menu02/kowballthai.png"/></a>
<a href="https://www.thsport.com/ข่าวฟุตบอลต่างประเทศ.html"><img alt="ข่าวฟุตบอลต่างประเทศ" src="//cdn.7mscorethai.com/images/menu02/footballtangprated.png"/></a>
<a href="https://www.thsport.com/ข่าว-NBA.html"><img alt="ข่าว NBA" src="//cdn.7mscorethai.com/images/menu02/NBA.png"/></a>
<a href="https://www.thsport.com/ข่าว-NFL.html"><img alt="ข่าว NFL" src="//cdn.7mscorethai.com/images/menu02/NFL.png"/></a>
<a href="https://www.thsport.com/column.html"><img alt="คอลัมนิสต์" src="//cdn.7mscorethai.com/images/menu02/korlunnis.png"/></a>
<div style="text-align: center;padding: 5px;">
เว็บ<a href="https://ufabetpanda.com/"><strong>แทงบอลออนไลน์</strong></a>ที่ดีที่สุดในโลก
</div>
</div>
<div ng-app="livescore" ng-controller="livescoreController">
<table>
<thead>
<tr>
<th colspan="2">Time</th>
<th class="home">Home</th>
<th>Score</th>
<th class="away">Away</th>
<th>HT</th>
<th>Handicap</th>
</tr>
</thead>
<tbody ng-if="!content.loaded">
<tr class="league">
<td colspan="7">
<span class="flag flag-93"></span>
<a href="/league-isl">INDIA: ISL</a>
</td>
</tr>
<tr class="match">
<td class="time">
14/01 - 21:00 </td>
<td class="status playing">
<span class="play-time" d-t="1610636586" d-ta="2700" d-tm="90" d-ts="1610639038"></span><img border="0" src="//cdn.7mscorethai.com/images/in.gif"/>
</td>
<td class="home tor">Goa</td>
<td class="score"><a href="/live-soccer-jPVbTN55.html">2 - 0</a></td>
<td class="away ">Jamshedpur</td>
<td class="ht">1 - 0</td>
<td class="hd">0/0.5</td>
</tr>
<tr class="league">
<td colspan="7">
<span class="flag flag-101"></span>
<a href="/league-football-jordan-premier_league">JORDAN: Premier League</a>
</td>
</tr>
<tr class="match">
<td class="time">
14/01 - 21:00 </td>
<td class="status playing">
<span class="play-time" d-t="1610636751" d-ta="2700" d-tm="90" d-ts="1610639038"></span><img border="0" src="//cdn.7mscorethai.com/images/in.gif"/>
</td>
<td class="home tor">อัล จาซีร่า อัมมาน</td>
<td class="score"><a href="/live-soccer-rRfDfzuI.html">1 - 0</a></td>
<td class="away ">Shabab Al Ordon</td>
<td class="ht">0 - 0</td>
<td class="hd">1</td>
</tr>
<tr class="league">
<td colspan="7">
<span class="flag flag-155"></span>
<a href="/league-football-portugal-taca_de_portugal">PORTUGAL: Taça de Portugal</a>
</td>
</tr>
<tr class="match">
<td class="time">
14/01 - 21:00 </td>
<td class="status playing">
<span class="play-time" d-t="1610636848" d-ta="2700" d-tm="90" d-ts="1610639038"></span><img border="0" src="//cdn.7mscorethai.com/images/in.gif"/>
</td>
<td class="home ">AD Fafe</td>
<td class="score"><a href="/live-soccer-fJiRpPXK.html">2 - 0</a></td>
<td class="away tor">เบเลเนนส์</td>
<td class="ht">2 - 0</td>
<td class="hd">0.5</td>
</tr>
<tr class="league">
<td colspan="7">
<span class="flag flag-8"></span>
<a href="/league-football-world-club_friendly">WORLD: Club Friendly</a>
</td>
</tr>
<tr class="match">
<td class="time">
14/01 - 21:00 </td>
<td class="status playing">
<span class="play-time" d-t="1610636692" d-ta="2700" d-tm="90" d-ts="1610639038"></span><img border="0" src="//cdn.7mscorethai.com/images/in.gif"/>
</td>
<td class="home ">Bandirmaspor (Tur)</td>
<td class="score"><a href="/live-soccer-l4ohLFoe.html">0 - 1</a></td>
<td class="away tor">เลช พอซนาน (Pol)</td>
<td class="ht">0 - 1</td>
<td class="hd">0.5/1</td>
</tr>
<tr class="league">
<td colspan="7">
<span class="flag flag-165"></span>
<a href="/league-football-saudi_arabia-saudi_professional_league">SAUDI ARABIA: Saudi Professional League</a>
</td>
</tr>
<tr class="match">
<td class="time">
14/01 - 21:45 </td>
<td class="status playing">
Half time
</td>
<td class="home tor">Al-Ettifaq</td>
<td class="score"><a href="/live-soccer-4vleaGD6.html">1 - 0</a></td>
<td class="away ">Al Batin</td>
<td class="ht">1 - 0</td>
<td class="hd">0.5</td>
</tr>
<tr class="match">
<td class="time">
14/01 - 21:50 </td>
<td class="status playing">
Half time
</td>
<td class="home ">Al-Fateh</td>
<td class="score"><a href="/live-soccer-MFr0bzTC.html">1 - 1</a></td>
<td class="away tor">Al-Taawon</td>
<td class="ht">1 - 1</td>
<td class="hd">0/0.5</td>
</tr>
<tr class="league">
<td colspan="7">
<span class="flag flag-69"></span>
<a href="/league-football-egypt-premier_league">EGYPT: Premier League</a>
</td>
</tr>
<tr class="match">
<td class="time">
14/01 - 22:00 </td>
<td class="status playing">
<span class="play-time" d-t="1610636385" d-ta="0" d-tm="45" d-ts="1610639038"></span><img border="0" src="//cdn.7mscorethai.com/images/in.gif"/>
</td>
<td class="home ">El Gouna</td>
<td class="score"><a href="/live-soccer-GYLEOaML.html">1 - 0</a></td>
<td class="away tor">Al Ittihad</td>
<td class="ht">1 - 0</td>
<td class="hd">0/0.5</td>
</tr>
<tr class="league">
<td colspan="7">
<span class="flag flag-157"></span>
<a href="/league-football-romania-liga_1">ROMANIA: Liga 1</a>
</td>
</tr>
<tr class="match">
<td class="time">
14/01 - 22:00 </td>
<td class="status playing">
<span class="play-time" d-t="1610636400" d-ta="0" d-tm="45" d-ts="1610639038"></span><img border="0" src="//cdn.7mscorethai.com/images/in.gif"/>
</td>
<td class="home tor">FC Botosani</td>
<td class="score"><a href="/live-soccer-8IJBlZhl.html">0 - 0</a></td>
<td class="away ">FC Arges</td>
<td class="ht">0 - 0</td>
<td class="hd">0.5/1</td>
</tr>
<tr class="league">
<td colspan="7">
<span class="flag flag-83"></span>
<a href="/league-football-greece-super_league">GREECE: Super League</a>
</td>
</tr>
<tr class="match">
<td class="time">
14/01 - 22:15 </td>
<td class="status playing">
<span class="play-time" d-t="1610637316" d-ta="0" d-tm="45" d-ts="1610639038"></span><img border="0" src="//cdn.7mscorethai.com/images/in.gif"/>
</td>
<td class="home tor">Atromitos</td>
<td class="score"><a href="/live-soccer-xS4jInZt.html">0 - 1</a></td>
<td class="away ">Lamia</td>
<td class="ht">0 - 1</td>
<td class="hd">0/0.5</td>
</tr>
<tr class="league">
<td colspan="7">
<span class="flag flag-178"></span>
<a href="/league-football-sudan-premier_league">SUDAN: Premier League</a>
</td>
</tr>
<tr class="match">
<td class="time">
14/01 - 20:00 </td>
<td class="status ">
</td>
<td class="home tor">Hay al-Arab</td>
<td class="score"><a href="/live-soccer-Yaeocz9U.html">-</a></td>
<td class="away ">Hilal El-Fasher</td>
<td class="ht"></td>
<td class="hd">0</td>
</tr>
<tr class="league">
<td colspan="7">
<span class="flag flag-126"></span>
<a href="/league-football-mauritania-ligue_1">MAURITANIA: Ligue 1</a>
</td>
</tr>
<tr class="match">
<td class="time">
14/01 - 20:15 </td>
<td class="status ">
</td>
<td class="home tor">ASAC Concorde</td>
<td class="score"><a href="/live-soccer-2PQlK4Qm.html">-</a></td>
<td class="away ">Inter Nouakchott</td>
<td class="ht"></td>
<td class="hd">1.5</td>
</tr>
<tr class="league">
<td colspan="7">
<span class="flag flag-156"></span>
<a href="/league-football-qatar-division_2">QATAR: Division 2</a>
</td>
</tr>
<tr class="match">
<td class="time">
14/01 - 21:45 </td>
<td class="status ">
</td>
<td class="home ">Al Mesaimeer</td>
<td class="score"><a href="/live-soccer-Aw2ye9gm.html">-</a></td>
<td class="away tor">Al-Shahaniya</td>
<td class="ht"></td>
<td class="hd">1</td>
</tr>
<tr class="match">
<td class="time">
14/01 - 21:45 </td>
<td class="status ">
</td>
<td class="home ">Al Muaidar</td>
<td class="score"><a href="/live-soccer-0Sflh7w6.html">-</a></td>
<td class="away tor">Al Markhiya</td>
<td class="ht"></td>
<td class="hd">1</td>
</tr>
<tr class="match">
<td class="time">
14/01 - 21:45 </td>
<td class="status ">
</td>
<td class="home ">Al-Waab</td>
<td class="score"><a href="/live-soccer-h2itfT8g.html">-</a></td>
<td class="away tor">Shamal</td>
<td class="ht"></td>
<td class="hd">2</td>
</tr>
<tr class="match">
<td class="time">
14/01 - 21:45 </td>
<td class="status ">
</td>
<td class="home ">Lusail</td>
<td class="score"><a href="/live-soccer-65epgmOa.html">-</a></td>
<td class="away tor">Al Bidda</td>
<td class="ht"></td>
<td class="hd">1</td>
</tr>
<tr class="league">
<td colspan="7">
<span class="flag flag-191"></span>
<a href="/league-football-turkey-turkish_cup">TURKEY: Turkish Cup</a>
</td>
</tr>
<tr class="match">
<td class="time">
14/01 - 22:45 </td>
<td class="status ">
</td>
<td class="home tor">อลันยาสปอร์</td>
<td class="score"><a href="/live-soccer-QZkbOXmD.html">-</a></td>
<td class="away ">บูว์ยุคเซฮีร์ เบเลดิเย่ เอร์ซูรุมสปอร์</td>
<td class="ht"></td>
<td class="hd">1/1.5</td>
</tr>
<tr class="league">
<td colspan="7">
<span class="flag flag-126"></span>
<a href="/league-football-mauritania-ligue_1">MAURITANIA: Ligue 1</a>
</td>
</tr>
<tr class="match">
<td class="time">
14/01 - 23:00 </td>
<td class="status ">
</td>
<td class="home tor">Madine Trarza</td>
<td class="score"><a href="/live-soccer-tGPhJOuf.html">-</a></td>
<td class="away ">Nouakchott King's</td>
<td class="ht"></td>
<td class="hd">0</td>
</tr>
<tr class="league">
<td colspan="7">
<span class="flag flag-178"></span>
<a href="/league-football-sudan-premier_league">SUDAN: Premier League</a>
</td>
</tr>
<tr class="match">
<td class="time">
14/01 - 23:15 </td>
<td class="status ">
</td>
<td class="home ">Al-Ahly Merowe</td>
<td class="score"><a href="/live-soccer-YZRiIJvt.html">-</a></td>
<td class="away tor">Al Wadi</td>
<td class="ht"></td>
<td class="hd">1</td>
</tr>
<tr class="league">
<td colspan="7">
<span class="flag flag-98"></span>
<a href="/league-football-italy-coppa_italia">ITALY: Coppa Italia</a>
</td>
</tr>
<tr class="match">
<td class="time">
14/01 - 23:30 </td>
<td class="status ">
</td>
<td class="home tor">ซัสเซาโล่</td>
<td class="score"><a href="/live-soccer-MBnpNZnc.html">-</a></td>
<td class="away ">สปาล</td>
<td class="ht"></td>
<td class="hd">0.5/1</td>
</tr>
<tr class="league">
<td colspan="7">
<span class="flag flag-165"></span>
<a href="/league-football-saudi_arabia-saudi_professional_league">SAUDI ARABIA: Saudi Professional League</a>
</td>
</tr>
<tr class="match">
<td class="time">
15/01 - 00:10 </td>
<td class="status ">
</td>
<td class="home tor">Al-Ittihad FC</td>
<td class="score"><a href="/live-soccer-WQkm1xqf.html">-</a></td>
<td class="away ">Abha</td>
<td class="ht"></td>
<td class="hd">1</td>
</tr>
<tr class="league">
<td colspan="7">
<span class="flag flag-83"></span>
<a href="/league-football-greece-super_league">GREECE: Super League</a>
</td>
</tr>
<tr class="match">
<td class="time">
15/01 - 00:30 </td>
<td class="status ">
</td>
<td class="home ">Aris</td>
<td class="score"><a href="/live-soccer-407uVm2m.html">-</a></td>
<td class="away tor">เออีเค เอเธนส์</td>
<td class="ht"></td>
<td class="hd">0/0.5</td>
</tr>
<tr class="league">
<td colspan="7">
<span class="flag flag-139"></span>
<a href="/league-football-netherlands-eredivisie">NETHERLANDS: Eredivisie</a>
</td>
</tr>
<tr class="match">
<td class="time">
15/01 - 00:45 </td>
<td class="status ">
</td>
<td class="home tor">ฮีเรนวีน</td>
<td class="score"><a href="/live-soccer-Ma0e30BH.html">-</a></td>
<td class="away ">วาลไวก์</td>
<td class="ht"></td>
<td class="hd">0.5/1</td>
</tr>
<tr class="league">
<td colspan="7">
<span class="flag flag-191"></span>
<a href="/league-football-turkey-turkish_cup">TURKEY: Turkish Cup</a>
</td>
</tr>
<tr class="match">
<td class="time">
15/01 - 00:45 </td>
<td class="status ">
</td>
<td class="home tor">เฟเนร์บาห์เช่</td>
<td class="score"><a href="/live-soccer-jHcoRZ3f.html">-</a></td>
<td class="away ">คาซิมปาซ่า</td>
<td class="ht"></td>
<td class="hd">1/1.5</td>
</tr>
<tr class="league">
<td colspan="7">
<span class="flag flag-39"></span>
<a href="/league-football-brazil-brasileiro_u23">BRAZIL: Brasileiro U23 - Play Offs</a>
</td>
</tr>
<tr class="match">
<td class="time">
15/01 - 01:00 </td>
<td class="status ">
</td>
<td class="home tor">Ceara U23</td>
<td class="score"><a href="/live-soccer-0lKfEcXt.html">-</a></td>
<td class="away ">Juventude U23</td>
<td class="ht"></td>
<td class="hd">0</td>
</tr>
<tr class="league">
<td colspan="7">
<span class="flag flag-157"></span>
<a href="/league-football-romania-liga_1">ROMANIA: Liga 1</a>
</td>
</tr>
<tr class="match">
<td class="time">
15/01 - 01:00 </td>
<td class="status ">
</td>
<td class="home tor">ซีเอฟอาร์ คลูจ์</td>
<td class="score"><a href="/live-soccer-vctTdco8.html">-</a></td>
<td class="away ">Academica Clinceni</td>
<td class="ht"></td>
<td class="hd">1</td>
</tr>
<tr class="league">
<td colspan="7">
<span class="flag flag-39"></span>
<a href="/league-football-brazil-brasileiro_u23">BRAZIL: Brasileiro U23 - Play Offs</a>
</td>
</tr>
<tr class="match">
<td class="time">
15/01 - 01:30 </td>
<td class="status ">
</td>
<td class="home ">Vila Nova FC U23</td>
<td class="score"><a href="/live-soccer-U5TOJJ9J.html">-</a></td>
<td class="away tor">Fluminense U23</td>
<td class="ht"></td>
<td class="hd">1</td>
</tr>
<tr class="league">
<td colspan="7">
<span class="flag flag-139"></span>
<a href="/league-football-netherlands-eredivisie">NETHERLANDS: Eredivisie</a>
</td>
</tr>
<tr class="match">
<td class="time">
15/01 - 02:00 </td>
<td class="status ">
</td>
<td class="home ">ทเวนเต้</td>
<td class="score"><a href="/live-soccer-z34a2KQN.html">-</a></td>
<td class="away tor">อาแย็กซ์</td>
<td class="ht"></td>
<td class="hd">1.5/2</td>
</tr>
<tr class="league">
<td colspan="7">
<span class="flag flag-176"></span>
<a href="/league-football-spain-tercera_division_group_5">SPAIN: Tercera Division - Group 5</a>
</td>
</tr>
<tr class="match">
<td class="time">
15/01 - 02:00 </td>
<td class="status ">
</td>
<td class="home ">UE Sants</td>
<td class="score"><a href="/live-soccer-4InNBQGd.html">-</a></td>
<td class="away tor">Horta</td>
<td class="ht"></td>
<td class="hd">1</td>
</tr>
<tr class="league">
<td colspan="7">
<span class="flag flag-198"></span>
<a href="/league-football-england-premier_league">ENGLAND: Premier League</a>
</td>
</tr>
<tr class="match">
<td class="time">
15/01 - 03:00 </td>
<td class="status ">
</td>
<td class="home tor">อาเซนอล</td>
<td class="score"><a href="/live-soccer-YLftSz3s.html">-</a></td>
<td class="away ">คริสตัล พาเลซ</td>
<td class="ht"></td>
<td class="hd">0.5/1</td>
</tr>
<tr class="league">
<td colspan="7">
<span class="flag flag-139"></span>
<a href="/league-football-netherlands-eredivisie">NETHERLANDS: Eredivisie</a>
</td>
</tr>
<tr class="match">
<td class="time">
15/01 - 03:00 </td>
<td class="status ">
</td>
<td class="home ">วิลเลม ทเว</td>
<td class="score"><a href="/live-soccer-UP331vtU.html">-</a></td>
<td class="away tor">โกรนิงเก้น</td>
<td class="ht"></td>
<td class="hd">0.5</td>
</tr>
<tr class="league">
<td colspan="7">
<span class="flag flag-51"></span>
<a href="/league-football-chile-primera_division">CHILE: Primera Division</a>
</td>
</tr>
<tr class="match">
<td class="time">
15/01 - 03:00 </td>
<td class="status ">
</td>
<td class="home tor">เอฟเวอร์ตัน</td>
<td class="score"><a href="/live-soccer-277y2HtQ.html">-</a></td>
<td class="away ">A. Italiano</td>
<td class="ht"></td>
<td class="hd">0.5</td>
</tr>
<tr class="league">
<td colspan="7">
<span class="flag flag-57"></span>
<a href="/league-football-costa_rica-primera_division">COSTA RICA: Primera Division - Clausura</a>
</td>
</tr>
<tr class="match">
<td class="time">
15/01 - 03:00 </td>
<td class="status ">
</td>
<td class="home ">Sporting San Jose</td>
<td class="score"><a href="/live-soccer-MDsDHqO6.html">-</a></td>
<td class="away tor">Herediano</td>
<td class="ht"></td>
<td class="hd">0/0.5</td>
</tr>
<tr class="league">
<td colspan="7">
<span class="flag flag-198"></span>
<a href="/league-football-england-women_s_league_cup">ENGLAND: Women's League Cup - Play Offs</a>
</td>
</tr>
<tr class="match">
<td class="time">
15/01 - 03:00 </td>
<td class="status ">
</td>
<td class="home ">Crystal Palace W</td>
<td class="score"><a href="/live-soccer-fDdzPrBg.html">-</a></td>
<td class="away tor">Leicester W</td>
<td class="ht"></td>
<td class="hd">1/1.5</td>
</tr>
<tr class="league">
<td colspan="7">
<span class="flag flag-176"></span>
<a href="/league-football-spain-super_cup">SPAIN: Super Cup</a>
</td>
</tr>
<tr class="match">
<td class="time">
15/01 - 03:00 </td>
<td class="status ">
</td>
<td class="home tor">เรอัล มาดริด</td>
<td class="score"><a href="/live-soccer-dUhRivUH.html">-</a></td>
<td class="away ">แอธเลติก บิลเบา</td>
<td class="ht"></td>
<td class="hd">0.5/1</td>
</tr>
<tr class="league">
<td colspan="7">
<span class="flag flag-98"></span>
<a href="/league-football-italy-coppa_italia">ITALY: Coppa Italia</a>
</td>
</tr>
<tr class="match">
<td class="time">
15/01 - 03:15 </td>
<td class="status ">
</td>
<td class="home tor">อตาลันต้า</td>
<td class="score"><a href="/live-soccer-AwW9FUNk.html">-</a></td>
<td class="away ">กายารี่</td>
<td class="ht"></td>
<td class="hd">1.5/2</td>
</tr>
<tr class="league">
<td colspan="7">
<span class="flag flag-155"></span>
<a href="/league-football-portugal-taca_de_portugal">PORTUGAL: Taça de Portugal</a>
</td>
</tr>
<tr class="match">
<td class="time">
15/01 - 03:30 </td>
<td class="status ">
</td>
<td class="home tor">Gil Vicente</td>
<td class="score"><a href="/live-soccer-x8vVkHEO.html">-</a></td>
<td class="away ">Academico Viseu</td>
<td class="ht"></td>
<td class="hd">0.5</td>
</tr>
<tr class="league">
<td colspan="7">
<span class="flag flag-22"></span>
<a href="/league-football-argentina-copa_diego_maradona">ARGENTINA: Copa Diego Maradona - Losers stage</a>
</td>
</tr>
<tr class="match">
<td class="time">
15/01 - 03:45 </td>
<td class="status ">
</td>
<td class="home tor">Defensa y Justicia</td>
<td class="score"><a href="/live-soccer-84GeNfDt.html">-</a></td>
<td class="away ">Aldosivi</td>
<td class="ht"></td>
<td class="hd">0/0.5</td>
</tr>
<tr class="league">
<td colspan="7">
<span class="flag flag-39"></span>
<a href="/league-football-brazil-campeonato_goiano">BRAZIL: Campeonato Goiano</a>
</td>
</tr>
<tr class="match">
<td class="time">
15/01 - 04:00 </td>
<td class="status ">
</td>
<td class="home ">Gremio Anapolis</td>
<td class="score"><a href="/live-soccer-8pMHWpOp.html">-</a></td>
<td class="away tor">Goianesia</td>
<td class="ht"></td>
<td class="hd">0/0.5</td>
</tr>
<tr class="league">
<td colspan="7">
<span class="flag flag-70"></span>
<a href="/league-football-el_salvador-primera_division">EL SALVADOR: Primera Division - Apertura - Play Offs</a>
</td>
</tr>
<tr class="match">
<td class="time">
15/01 - 04:15 </td>
<td class="status ">
</td>
<td class="home tor">Jocoro</td>
<td class="score"><a href="/live-soccer-C68PdzlH.html">-</a></td>
<td class="away ">Municipal Limeno</td>
<td class="ht"></td>
<td class="hd">0</td>
</tr>
<tr class="league">
<td colspan="7">
<span class="flag flag-128"></span>
<a href="/league-football-mexico-liga_mx_women">MEXICO: Liga MX Women - Clausura</a>
</td>
</tr>
<tr class="match">
<td class="time">
15/01 - 04:45 </td>
<td class="status ">
</td>
<td class="home tor">Cruz Azul W</td>
<td class="score"><a href="/live-soccer-4MUqKJUi.html">-</a></td>
<td class="away ">Club Leon W</td>
<td class="ht"></td>
<td class="hd">0/0.5</td>
</tr>
<tr class="league">
<td colspan="7">
<span class="flag flag-39"></span>
<a href="/league-football-brazil-serie_b">BRAZIL: Serie B</a>
</td>
</tr>
<tr class="match">
<td class="time">
15/01 - 05:15 </td>
<td class="status ">
</td>
<td class="home tor">Operario</td>
<td class="score"><a href="/live-soccer-pURB1Cua.html">-</a></td>
<td class="away ">CRB</td>
<td class="ht"></td>
<td class="hd">0</td>
</tr>
<tr class="league">
<td colspan="7">
<span class="flag flag-51"></span>
<a href="/league-football-chile-primera_division">CHILE: Primera Division</a>
</td>
</tr>
<tr class="match">
<td class="time">
15/01 - 05:15 </td>
<td class="status ">
</td>
<td class="home ">U. De Chile</td>
<td class="score"><a href="/live-soccer-r1k4cyks.html">-</a></td>
<td class="away tor">Palestino</td>
<td class="ht"></td>
<td class="hd">0.5</td>
</tr>
<tr class="league">
<td colspan="7">
<span class="flag flag-53"></span>
<a href="/league-football-colombia-copa_colombia">COLOMBIA: Copa Colombia</a>
</td>
</tr>
<tr class="match">
<td class="time">
15/01 - 05:30 </td>
<td class="status ">
</td>
<td class="home ">Dep. Pasto</td>
<td class="score"><a href="/live-soccer-8p0MY2GS.html">-</a></td>
<td class="away tor">America De Cali</td>
<td class="ht"></td>
<td class="hd">0/0.5</td>
</tr>
<tr class="league">
<td colspan="7">
<span class="flag flag-201"></span>
<a href="/league-football-uruguay-primera_division">URUGUAY: Primera Division - Torneo Intermedio - Play Offs</a>
</td>
</tr>
<tr class="match">
<td class="time">
15/01 - 06:00 </td>
<td class="status ">
</td>
<td class="home tor">Nacional</td>
<td class="score"><a href="/live-soccer-fiRIkGOi.html">-</a></td>
<td class="away ">Wanderers</td>
<td class="ht"></td>
<td class="hd">0/0.5</td>
</tr>
<tr class="league">
<td colspan="7">
<span class="flag flag-22"></span>
<a href="/league-football-argentina-copa_argentina">ARGENTINA: Copa Argentina</a>
</td>
</tr>
<tr class="match">
<td class="time">
15/01 - 07:10 </td>
<td class="status ">
</td>
<td class="home tor">Colon Santa FE</td>
<td class="score"><a href="/live-soccer-GlG7Tf3k.html">-</a></td>
<td class="away ">Cipolletti</td>
<td class="ht"></td>
<td class="hd">1</td>
</tr>
<tr class="league">
<td colspan="7">
<span class="flag flag-39"></span>
<a href="/league-football-brazil-serie_b">BRAZIL: Serie B</a>
</td>
</tr>
<tr class="match">
<td class="time">
15/01 - 07:30 </td>
<td class="status ">
</td>
<td class="home tor">Cuiaba Esporte</td>
<td class="score"><a href="/live-soccer-E9JScUvO.html">-</a></td>
<td class="away ">Guarani</td>
<td class="ht"></td>
<td class="hd">0.5</td>
</tr>
<tr class="league">
<td colspan="7">
<span class="flag flag-51"></span>
<a href="/league-football-chile-primera_division">CHILE: Primera Division</a>
</td>
</tr>
<tr class="match">
<td class="time">
15/01 - 07:30 </td>
<td class="status ">
</td>
<td class="home ">U. Espanola</td>
<td class="score"><a href="/live-soccer-Mil8de4m.html">-</a></td>
<td class="away tor">U. Catolica</td>
<td class="ht"></td>
<td class="hd">0.5</td>
</tr>
<tr class="league">
<td colspan="7">
<span class="flag flag-70"></span>
<a href="/league-football-el_salvador-primera_division">EL SALVADOR: Primera Division - Apertura - Play Offs</a>
</td>
</tr>
<tr class="match">
<td class="time">
15/01 - 08:00 </td>
<td class="status ">
</td>
<td class="home ">Sonsonate</td>
<td class="score"><a href="/live-soccer-dUtrFH3o.html">-</a></td>
<td class="away tor">FAS</td>
<td class="ht"></td>
<td class="hd">0.5/1</td>
</tr>
<tr class="league">
<td colspan="7">
<span class="flag flag-90"></span>
<a href="/league-football-honduras-liga_nacional">HONDURAS: Liga Nacional - Apertura - Final</a>
</td>
</tr>
<tr class="match">
<td class="time">
15/01 - 08:00 </td>
<td class="status ">
</td>
<td class="home tor">Olimpia</td>
<td class="score"><a href="/live-soccer-lEWUHmq2.html">-</a></td>
<td class="away ">Marathon</td>
<td class="ht"></td>
<td class="hd">1</td>
</tr>
<tr class="league">
<td colspan="7">
<span class="flag flag-57"></span>
<a href="/league-football-costa_rica-primera_division">COSTA RICA: Primera Division - Clausura</a>
</td>
</tr>
<tr class="match">
<td class="time">
15/01 - 09:00 </td>
<td class="status ">
</td>
<td class="home tor">Cartagines</td>
<td class="score"><a href="/live-soccer-nek0Kovl.html">-</a></td>
<td class="away ">Santos DG</td>
<td class="ht"></td>
<td class="hd">0.5/1</td>
</tr>
<tr class="league">
<td colspan="7">
<span class="flag flag-24"></span>
<a href="/league-football-australia-w_league">AUSTRALIA: W-League</a>
</td>
</tr>
<tr class="match">
<td class="time">
14/01 - 15:05 </td>
<td class="status ">
Postponed
</td>
<td class="home ">Melbourne City W</td>
<td class="score"><a href="/live-soccer-rHsq5xg5.html">0 - 0</a></td>
<td class="away ">Adelaide W</td>
<td class="ht">0 - 0</td>
<td class="hd"></td>
</tr>
<tr class="league">
<td colspan="7">
<span class="flag flag-93"></span>
<a href="/league-football-india-i_league">INDIA: I-League</a>
</td>
</tr>
<tr class="match">
<td class="time">
14/01 - 15:30 </td>
<td class="status ">
Finished
</td>
<td class="home tor">Gokulam</td>
<td class="score"><a href="/live-soccer-QZqaxy4m.html">4 - 3</a></td>
<td class="away ">Punjab</td>
<td class="ht">1 - 3</td>
<td class="hd">0</td>
</tr>
<tr class="league">
<td colspan="7">
<span class="flag flag-18"></span>
<a href="/league-football-algeria-u21_league">ALGERIA: U21 League</a>
</td>
</tr>
<tr class="match">
<td class="time">
14/01 - 16:00 </td>
<td class="status ">
Finished
</td>
<td class="home ">Skikda U21</td>
<td class="score"><a href="/live-soccer-pYVspN4d.html">1 - 1</a></td>
<td class="away tor">Constantine U21</td>
<td class="ht">0 - 1</td>
<td class="hd">1</td>
</tr>
<tr class="league">
<td colspan="7">
<span class="flag flag-24"></span>
<a href="/league-football-australia-w_league">AUSTRALIA: W-League</a>
</td>
</tr>
<tr class="match">
<td class="time">
14/01 - 16:05 </td>
<td class="status ">
Finished
</td>
<td class="home ">Perth W</td>
<td class="score"><a href="/live-soccer-pY7yPhX9.html">1 - 2</a></td>
<td class="away tor">Adelaide W</td>
<td class="ht">0 - 1</td>
<td class="hd">0/0.5</td>
</tr>
<tr class="league">
<td colspan="7">
<span class="flag flag-29"></span>
<a href="/league-football-bangladesh-premier_league">BANGLADESH: Premier League</a>
</td>
</tr>
<tr class="match">
<td class="time">
14/01 - 17:00 </td>
<td class="status ">
Finished
</td>
<td class="home tor">Abahani Limited</td>
<td class="score"><a href="/live-soccer-bFACqDIL.html">1 - 0</a></td>
<td class="away ">Bangladesh Police</td>
<td class="ht">0 - 0</td>
<td class="hd">1.5</td>
</tr>
<tr class="league">
<td colspan="7">
<span class="flag flag-191"></span>
<a href="/league-football-turkey-2_lig_white_group">TURKEY: 2. Lig White Group</a>
</td>
</tr>
<tr class="match">
<td class="time">
14/01 - 17:00 </td>
<td class="status ">
Finished
</td>
<td class="home tor">Ankara Demirspor</td>
<td class="score"><a href="/live-soccer-SvISI9lF.html">0 - 0</a></td>
<td class="away ">Inegolspor</td>
<td class="ht">0 - 0</td>
<td class="hd">0.5/1</td>
</tr>
<tr class="match">
<td class="time">
14/01 - 17:00 </td>
<td class="status ">
Finished
</td>
<td class="home tor">Corum</td>
<td class="score"><a href="/live-soccer-I9zxdns2.html">2 - 2</a></td>
<td class="away ">Amedspor</td>
<td class="ht">0 - 0</td>
<td class="hd">0/0.5</td>
</tr>
<tr class="match">
<td class="time">
14/01 - 17:00 </td>
<td class="status ">
Finished
</td>
<td class="home ">Kocaelispor</td>
<td class="score"><a href="/live-soccer-tbSbxeo5.html">1 - 1</a></td>
<td class="away tor">H.Trabzon</td>
<td class="ht">1 - 0</td>
<td class="hd">0/0.5</td>
</tr>
<tr class="league">
<td colspan="7">
<span class="flag flag-191"></span>
<a href="/league-football-turkey-2_lig_red_group">TURKEY: 2. Lig Red Group</a>
</td>
</tr>
<tr class="match">
<td class="time">
14/01 - 17:00 </td>
<td class="status ">
 Finished
</td>
<td class="home ">Bayburt</td>
<td class="score"><a href="/live-soccer-Wd0b60mH.html">2 - 4</a></td>
<td class="away tor">Sakaryaspor</td>
<td class="ht">1 - 3</td>
<td class="hd">1/1.5</td>
</tr>
<tr class="league">
<td colspan="7">
<span class="flag flag-93"></span>
<a href="/league-football-india-i_league">INDIA: I-League</a>
</td>
</tr>
<tr class="match">
<td class="time">
14/01 - 17:35 </td>
<td class="status ">
Finished
</td>
<td class="home tor">Sudeva Delhi</td>
<td class="score"><a href="/live-soccer-Kdq3yeJg.html">3 - 0</a></td>
<td class="away ">Indian Arrows</td>
<td class="ht">1 - 0</td>
<td class="hd">0.5/1</td>
</tr>
<tr class="league">
<td colspan="7">
<span class="flag flag-155"></span>
<a href="/league-football-portugal-campeonato_de_portugal">PORTUGAL: Campeonato de Portugal</a>
</td>
</tr>
<tr class="match">
<td class="time">
14/01 - 18:00 </td>
<td class="status ">
Finished
</td>
<td class="home ">Montijo</td>
<td class="score"><a href="/live-soccer-noWMdzjS.html">4 - 0</a></td>
<td class="away tor">SC Praiense</td>
<td class="ht">0 - 0</td>
<td class="hd">0.5/1</td>
</tr>
<tr class="league">
<td colspan="7">
<span class="flag flag-8"></span>
<a href="/league-football-world-club_friendly">WORLD: Club Friendly</a>
</td>
</tr>
<tr class="match">
<td class="time">
14/01 - 18:00 </td>
<td class="status ">
Finished
</td>
<td class="home tor">Sonderjyske (Den)</td>
<td class="score"><a href="/live-soccer-ENIWBJAR.html">1 - 1</a></td>
<td class="away ">Odense (Den)</td>
<td class="ht">0 - 0</td>
<td class="hd">0/0.5</td>
</tr>
<tr class="league">
<td colspan="7">
<span class="flag flag-103"></span>
<a href="/league-football-kenya-premier_league">KENYA: Premier League</a>
</td>
</tr>
<tr class="match">
<td class="time">
14/01 - 19:00 </td>
<td class="status ">
Finished
</td>
<td class="home tor">Gor Mahia</td>
<td class="score"><a href="/live-soccer-jROiXDAc.html">3 - 1</a></td>
<td class="away ">Mathare Utd.</td>
<td class="ht">2 - 0</td>
<td class="hd">1/1.5</td>
</tr>
<tr class="league">
<td colspan="7">
<span class="flag flag-8"></span>
<a href="/league-football-world-club_friendly">WORLD: Club Friendly</a>
</td>
</tr>
<tr class="match">
<td class="time">
14/01 - 19:00 </td>
<td class="status ">
Finished
</td>
<td class="home tor">ดินาโม ซาเกร็บ (Cro)</td>
<td class="score"><a href="/live-soccer-pGtkj3pQ.html">2 - 1</a></td>
<td class="away ">MOL Fehervar (Hun)</td>
<td class="ht">1 - 1</td>
<td class="hd">1</td>
</tr>
<tr class="league">
<td colspan="7">
<span class="flag flag-69"></span>
<a href="/league-football-egypt-premier_league">EGYPT: Premier League</a>
</td>
</tr>
<tr class="match">
<td class="time">
14/01 - 19:30 </td>
<td class="status ">
Finished
</td>
<td class="home ">Aswan SC</td>
<td class="score"><a href="/live-soccer-QqT1R1x3.html">1 - 1</a></td>
<td class="away tor">Ghazl El Mahallah</td>
<td class="ht">0 - 0</td>
<td class="hd">0/0.5</td>
</tr>
<tr class="league">
<td colspan="7">
<span class="flag flag-165"></span>
<a href="/league-football-saudi_arabia-saudi_professional_league">SAUDI ARABIA: Saudi Professional League</a>
</td>
</tr>
<tr class="match">
<td class="time">
14/01 - 19:30 </td>
<td class="status ">
Finished
</td>
<td class="home tor">Al-Faisaly</td>
<td class="score"><a href="/live-soccer-jHsu3bEs.html">2 - 2</a></td>
<td class="away ">Al Qadisiya</td>
<td class="ht">1 - 0</td>
<td class="hd">0/0.5</td>
</tr>
<tr class="league">
<td colspan="7">
<span class="flag flag-8"></span>
<a href="/league-football-world-club_friendly">WORLD: Club Friendly</a>
</td>
</tr>
<tr class="match">
<td class="time">
14/01 - 19:30 </td>
<td class="status ">
Finished
</td>
<td class="home ">Lok. Plovdiv (Bul)</td>
<td class="score"><a href="/live-soccer-8zwpFesd.html">3 - 1</a></td>
<td class="away ">Maritsa Plovdiv (Bul)</td>
<td class="ht">1 - 0</td>
<td class="hd"></td>
</tr>
<tr class="league">
<td colspan="7">
<span class="flag flag-165"></span>
<a href="/league-football-saudi_arabia-saudi_professional_league">SAUDI ARABIA: Saudi Professional League</a>
</td>
</tr>
<tr class="match">
<td class="time">
14/01 - 19:55 </td>
<td class="status ">
Finished
</td>
<td class="home ">Al Ain</td>
<td class="score"><a href="/live-soccer-Qmki0db0.html">0 - 3</a></td>
<td class="away tor">Al-Shabab</td>
<td class="ht">0 - 0</td>
<td class="hd">0.5</td>
</tr>
<tr class="league">
<td colspan="7">
<span class="flag flag-18"></span>
<a href="/league-football-algeria-ligue_1">ALGERIA: Ligue 1</a>
</td>
</tr>
<tr class="match">
<td class="time">
14/01 - 20:00 </td>
<td class="status ">
Finished
</td>
<td class="home ">Skikda</td>
<td class="score"><a href="/live-soccer-pUBxeQwk.html">0 - 0</a></td>
<td class="away tor">Constantine</td>
<td class="ht">0 - 0</td>
<td class="hd">0.5</td>
</tr>
<tr class="league">
<td colspan="7">
<span class="flag flag-8"></span>
<a href="/league-football-world-club_friendly">WORLD: Club Friendly</a>
</td>
</tr>
<tr class="match">
<td class="time">
14/01 - 20:00 </td>
<td class="status ">
Finished
</td>
<td class="home tor">Horsens (Den)</td>
<td class="score"><a href="/live-soccer-8Mw3JqX4.html">2 - 2</a></td>
<td class="away ">Skive IK (Den)</td>
<td class="ht">1 - 0</td>
<td class="hd">1/1.5</td>
</tr>
<tr class="match">
<td class="time">
14/01 - 20:00 </td>
<td class="status ">
Finished
</td>
<td class="home ">Jagiellonia (Pol)</td>
<td class="score"><a href="/live-soccer-nRylEFd2.html">2 - 1</a></td>
<td class="away tor">Zaglebie (Pol)</td>
<td class="ht">0 - 0</td>
<td class="hd">0/0.5</td>
</tr>
<tr class="match">
<td class="time">
14/01 - 20:00 </td>
<td class="status ">
Finished
</td>
<td class="home tor">Neftci Baku (Aze)</td>
<td class="score"><a href="/live-soccer-rPynXyiR.html">4 - 3</a></td>
<td class="away ">Keshla (Aze)</td>
<td class="ht">2 - 0</td>
<td class="hd">0.5/1</td>
</tr>
<tr class="league">
<td colspan="7">
<span class="flag flag-93"></span>
<a href="/league-football-india-i_league">INDIA: I-League</a>
</td>
</tr>
<tr class="match">
<td class="time">
14/01 - 20:30 </td>
<td class="status ">
Finished
</td>
<td class="home ">Mohammedan</td>
<td class="score"><a href="/live-soccer-bmr7zFYa.html">0 - 0</a></td>
<td class="away tor">Churchill Brothers</td>
<td class="ht">0 - 0</td>
<td class="hd">0.5</td>
</tr>
<tr class="league">
<td colspan="7">
<span class="flag flag-55"></span>
<a href="/league-football-dr_congo-ligue_1">DR CONGO: Ligue 1</a>
</td>
</tr>
<tr class="match">
<td class="time">
14/01 - 21:30 </td>
<td class="status ">
Postponed 
</td>
<td class="home ">JSK</td>
<td class="score"><a href="/live-soccer-lxNqmm64.html">0 - 0</a></td>
<td class="away ">Motema Pembe</td>
<td class="ht">0 - 0</td>
<td class="hd"></td>
</tr>
<tr class="league">
<td colspan="7">
<span class="flag flag-53"></span>
<a href="/league-football-colombia-copa_colombia">COLOMBIA: Copa Colombia</a>
</td>
</tr>
<tr class="match">
<td class="time">
15/01 - 08:00 </td>
<td class="status ">
Postponed
</td>
<td class="home ">Deportes Tolima</td>
<td class="score"><a href="/live-soccer-tOu8kyfF.html">0 - 0</a></td>
<td class="away tor">Atl. Nacional</td>
<td class="ht">0 - 0</td>
<td class="hd">0.5</td>
</tr>
</tbody>
<tbody ng-if="content.loaded" ng-repeat="val in content.resort">
<tr class="league">
<td colspan="7">
<span class="flag flag-{{val.flag}}"></span>
<a href="/league-{{val.league_id}}" ng-if="val.league_id">{{val.league}}</a>
<a ng-if="!val.league_id">{{val.league}}</a>
</td>
</tr>
<tr class="match" ng-repeat="v in val.data">
<td class="time">
{{v._*1000|date : 'd/MM - H:mm'}}
</td>
<td class="status {{v.status1 == 2 ? 'playing' : ''}}" d-st="{{v.status1}}-{{v.status2}}">
<span ng-if="v.status1 != 2">
{{v.status1 == '1' ? '' : v.status }}
</span>
<span ng-if="v.status1 == 2">
<span ng-if="v.status2 == 6">Extra Time</span>
<span ng-if="v.status2 == 38">Half time</span>
<span ng-if="v.status2 == 7">Penalties</span>
<span ng-if="v.status2 == 42" style="white-space: nowrap;">Awaiting Updates</span>
<span class="play-time" d-t="{{v.AO}}" d-ta="{{ (v.status2==6) ? 5400 : (v.status2 == 13 ? 2700 : 0)}}" d-tm="{{v.status2==6 ? 120 : (v.status2 == 13 ? 90 : 45)}}" d-ts="1610639038" ng-if="[38,7,42].indexOf(+v.status2) &lt; 0"></span>
<img border="0" ng-if="[38,7,42].indexOf(+v.status2) &lt; 0" src="//cdn.7mscorethai.com/images/in.gif"/>
</span>
</td>
<td class="home {{v.odds[1] == 1 ? 'tor' : ''}}">{{v.team1}}</td>
<td class="score" ng-mouseleave="content.detail.close();" ng-mouseover="content.detail.mouse_over($event,v)">
<a href="/live-soccer-{{v.id}}.html" style="color: #039;">{{v.status2 ==1 ? '-' : v.score}}</a>
</td>
<td class="away {{v.odds[1] == 2 ? 'tor' : ''}}">{{v.team2}}</td>
<td class="ht">{{v.halftime}}</td>
<td class="hd">{{v.odds[0]}}</td>
</tr>
<tr ng-if="content.banner_view[$index]">
<td colspan="7">
<a :="" href="{{content.banner_view[$index].href}}" target="_blank">
<img :="" ng-src="{{content.banner_view[$index].img}}" style="width:100%;"/>
</a>
</td>
</tr>
</tbody>
</table>
<div id="score-timeline" style="display:none;">
<table>
<thead>
<tr>
<td class="half" colspan="3">
<a href="/live-soccer-{{content.detail.data.id}}.html" style="color: #fff;text-decoration: underline; font-weight: bold;">{{content.detail.data.team1}} VS {{content.detail.data.team2}}</a>
</td>
</tr>
</thead>
<tbody ng-if="content.detail.waiting">
<tr>
<td class="half" colspan="3">Loading</td>
</tr>
</tbody>
<tbody ng-if="!content.detail.waiting &amp;&amp; content.detail.data.detail.timeline.length == 0">
<tr>
<td class="half" colspan="3">ไม่พบข้อมูล</td>
</tr>
</tbody>
<tbody ng-if="!content.detail.waiting &amp;&amp; content.detail.data.detail.timeline.length != 0" ng-repeat="val in content.detail.data.detail.timeline">
<tr>
<td class="half" colspan="3">{{val.subject}}</td>
</tr>
<tr ng-if="val.data.length == 0">
<td class="home"> </td>
<td class="score">{{val.score}}</td>
<td class="away"> </td>
</tr>
<tr ng-repeat="(k,v) in val.data">
<td class="home">
<span ng-if="v.team == 1">
{{v.time}}' <span class="icon-{{content.live_summary_live[v.status][0]}}"></span> {{v.name}}
</span>
</td>
<td class="score" ng-if="k==0" rowspan="{{val.data.length}}">{{val.score}}</td>
<td class="away">
<span ng-if="v.team == 2">
{{v.name}} <span class="icon-{{content.live_summary_live[v.status][0]}}"></span> {{v.time}}'
</span>
</td>
</tr>
</tbody>
<tbody>
</tbody>
</table>
</div>
<script>
                
                    function object_update(a,b) {
                        for(var k in b) {
                            if(k == '_a_') {
                                for(var key in b._a_) {
                                    if(typeof b._a_[key] == 'object' && !Array.isArray(b._a_[key])) {
                                        if(b._a_[key]._a_ || b._a_[key]._d_) {
                                            object_update(a[key],b._a_[key]);
                                        } else {
                                            a[key] = b._a_[key];
                                        }
                                        continue;
                                    }
                    
                                    a[key] = b._a_[key];
                                }
                                continue;
                            } 
                            if(k = '_d_'){
                                for(var key in b._d_) {
                                    delete a[key];
                                }
                                continue;
                            }
                        }
                    }
                    var content;
                    var app = angular.module('livescore',[]);
                    app.config(['$compileProvider', function ($compileProvider) {
                        $compileProvider.debugInfoEnabled(false);
                    }]);
                    app.controller('livescoreController',function($scope,$http){
                        var core = 'https://core.7mscorethai.com:1339/';
                        var core2 = 'https://chat.7mscorethai.com:1342/';
                        
                        content = {
                            banner_view : [],
                            banner : [],
                            loaded : false,
                            time : 5000,
                            data : {},
                            resort : {},
                            update: 0,
                            init : function() {
                                content.event.get_content(function(){
                                    content.event.get_update();
                                });
                            },
                            live_summary_live : {"substitution-in":["sub-in","sub-out"],"american-football-ball":["goal"],"soccer-ball":["goal"],"soccer-ball-own":["goal-own"],"y-card":["card-y"],"r-card":["card-r"],"yr-card":["card-yr"]},
                            detail : {
                                time_freez : 20000,
                                data : false,
                                waiting : false,
                                show: false,
                                get_data : function(id,callback) {
                                    $http.post(core2 + 'detail.js?id=' + id).then(function(rest) {
                                        if(callback) {
                                            callback(rest.data);
                                        }
                                    })
                                },
                                mouse_over : function(e,val) {
                                    var pos = $(e.currentTarget).position();
                                    if(content.detail.waiting) {
                                        return;
                                    }
                                    content.detail.data = val;
                                    var pTop = pos.top+50-scrollY;
                                    var pLeft = pos.left-140-scrollX;
                                    $('#score-timeline').css({'top':pTop+'px'});
                                    $('#score-timeline').css({'left':pLeft+'px'});
                                    $('#score-timeline').show();
                                    content.detail.show = true;
                                    if(val.detail_time) {
                                        if((Date.now() - val.detail_time) < content.detail.time_freez) {
                                            return;
                                        }
                                    }
                                    content.detail.waiting = true;
                                    content.detail.get_data(val.id,function(rest) {
                                        content.detail.waiting =false;
                                        val.detail = rest;
                                        val.detail_time = Date.now();
                                    });
                                },
                                mouse_leave : function() {
                                    // $('#score-timeline').hide();
                                },
                                close : function(e) {
                                    $('#score-timeline').hide();
                                }
                            },
                            event : {
                                banner : function() {
                                    var banner = [];
                                    var obj = JSON.parse(JSON.stringify(content.banner));
                                    var o = 0;
                                    for(var key in content.resort) {
                                        var val = content.resort[key];
                                        if(!obj.length) {
                                            break;
                                        }
                                        o += val.data.length;
                                        if(o > 2) {
                                            o = 0;
                                            banner[key] = obj.shift();
                                        }
                                    }
                                    content.banner_view = banner;
                                },
                                resort : function() {
                                    var live = {
                                        live : [],
                                        notstart : [],
                                        finish : [],
                                    };
                                    
                                    var online = [];
                                    var livescore = content.data;
                                    for(var key in livescore.data) {
                                        var val = livescore.data[key];
                                        for(var k in val.data) {
                                            var v = val.data[k];
                                            
                                            type = 'live';
                                            if(v.status1 == 3) {
                                                type = 'finish';
                                            } else if(v.status2 == 1) {
                                                type = 'notstart';
                                            }
                                            if(!live[type][+v._]) {
                                                live[type][+v._] = [];
                                            }
                                            live[type][+v._].push(v);
                                        }
                                    }
                                    var ret = [];
                                    var last_league = false;
                                    var league = false;
                                    for(var key in live) {
                                        var val = live[key];
                                        for(var _k in val) {
                                            var _v = val[_k];
                                            for(var k in _v) {
                                                var v = _v[k];
                                                if(last_league != livescore.league_index[v.id]) {
                                                    last_league = livescore.league_index[v.id];
                                                    if(league) {
                                                        ret.push(league);
                                                    }
                                                    league = JSON.parse(JSON.stringify(livescore.data[last_league]));
                                                    league.data = [];
                                                }
                                                league.data.push(v);
                                            }
                                        }
                                    }
                                    ret.push(league);
                                    return ret;
                                },
                                get_update : function() {
                                    $http.post(core + 'update.js?id='+content.update).then(function(rest) {
                                        var val = rest.data;
                                        if(val && val != '0') {
                                            content.a = content.data;
                                            content.b = val.update;
                                            object_update(content.data,val.update);
                                            content.resort = content.event.resort(content.data);
                                            content.event.banner();
                                            content.loaded = true;
                                            content.update = val.id+1;
                                            setTimeout(function(){
                                                play_time(true);
                                            },200);
                                        }
                                        setTimeout(function() {
                                            content.event.get_update();
                                        },content.time);
                                    });
                                },
                                get_content : function(callback) {
                                    $http.post(core2 + 'content.js').then(function(rest) {
                                        content.data = rest.data;
                                        if(callback) {
                                            callback();
                                        }
                                    });
                                },
                            },
                            fn : {
                                update : function(a,b) {
                                    for(var k in b) {
                                        if(k == '_a_') {
                                            for(var key in b._a_) {
                                                if(typeof b._a_[key] == 'object' && !Array.isArray(b._a_[key])) {
                                                    if(b._a_[key]._a_ || b._a_[key]._d_) {
                                                        content.fn.update(a[key],b._a_[key]);
                                                    } else {
                                                        if(a) {
                                                            a[key] = b._a_[key];
                                                        } else {
                                                            console.log(b._a_);
                                                        }
                                                    }
                                                    continue;
                                                }
                                                if(a) {
                                                    a[key] = b._a_[key];
                                                } else {
                                                    console.log(b._a_);
                                                }
                                            }
                                            continue;
                                        } 
                                        if(k = '_d_'){
                                            for(var key in b._d_) {
                                                delete a[key];
                                            }
                                            continue;
                                        }
                                    }
                                }
                            }
                        };
                        content.init();
                        $scope.content = content;
                    });
                </script>
</div>
</div>
<div id="welcome">
<h1>7mscorethai บ้านผลบอล รายงานผลบอลสดทั่วโลกตลอด 24 ชั่วโมง</h1>
<p>เว็บไซต์ 7m รายงาน<strong>ผลบอลสด</strong> 24 ชั่วโมง สดแบบนาทีต่อนาที ผลบอลล่าสุดเช็คผลบอลสดอัพเดทสดๆ ร้อนๆ จากสนาม ทุกนัด ทุกประเทศ รู้ผลบอลก่อนใครๆ รวดเร็วทันใจ เที่ยงตรง ถูกต้องและแม่นยำ เว็บไซต์ <a href="https://www.7mscorethai.com"><strong>7m</strong></a> ผลบอลวันนี้ ยังให้บริการ ราคาบอล ทรรศนะบอล วิเคราะห์บอล ทีเด็ดบอลวันนี้ ดูบอลสดที่เรามีให้บริการโดดเด่นกว่าที่อื่น <strong>7mscore</strong>ดูบอลสดได้ทุกคู่ <strong>7m</strong>บอลบิ๊กแมท พร้อมทั้งเชียร์ทีมที่คุณรัก ไม่ต้องไปหาดูที่อื่น <strong>ผลบอล7m</strong>ผลบอลสดวันนี้ที่นี้มีให้บริการครบทุกอย่าง เรียกว่า ครบวงจรกันเลยทีเดียว ดูได้ทุกลีก <strong>Livescore</strong> ทั้งบอลไทย บอลทีมชาติ บอลยุโรป บอลอังกฤษ เยอรมัน ฝรั่งเศส ฝั่งอเมริกาใต้ ไม่พลาดทุกการยิงประตู ไม่พลาดการยิงจุดโทษ ใบเหลืองใบแดง ฟังผลบอลสด คุณสามารถมาตรวจสอบผลบอลสดพร้อมกับดูบอลสดที่ท่านต้องการได้ที่เว็บไซต์ 7mscore ที่นี่ที่เดียว <strong>ผลบอลสดๆ</strong> ดูผลบอลสด <strong>บ้านผลบอล</strong></p></div>
<script>
        var diff = false;
        function play_time(once) {
            
            if(document.getElementsByClassName('play-time').length == 0) {
                return;
            }
            var obj = document.getElementsByClassName('play-time');
            for(var i=0; i<obj.length; i++) {
                var ob = obj[i];
                var t = +ob.getAttribute('d-t');
                var ts = +ob.getAttribute('d-ts');
                var ta = +ob.getAttribute('d-ta');
                var tm = +ob.getAttribute('d-tm');
                
                var n = Math.floor(Date.now()/1000);
                
                if(diff === false) {
                    diff = n - ts;
                }
                var v = Math.floor((n-t-diff+ta)/60);
                if(v>tm) {
                    v = tm;
                }
                if(isNaN(v)) {
                    v = '';
                }
                ob.innerHTML = v;
            }
            if(!once) {
                setTimeout(play_time,5000);
            }
        }
        play_time();
        
    </script>
</div>
</div>
<div class="side-live">
<div class="match-list">
<h3 class="title">รายการถ่ายทอดสด</h3>
<div class="league">
<div class="league-name"><span class="flag flag-98"></span><a href="league-football-italy-coppa_italia">ITALY: Coppa Italia</a></div>
</div>
<div class="match">
<div class="home-team">
<div class="team-name">ซัสเซาโล่</div>
<div class="home-img">
<img class="team-logo" src="//static.7mscorethai.com/images/logo/IFKEHRGG-hWBv29Yp.png"/>
</div>
</div>
<div class="score">
<div class="time">
⚽<br/> <strong>23:30</strong>
</div>
<strong class="vs">VS</strong>
</div>
<div class="away-team">
<div class="team-name">สปาล</div>
<div class="away-img">
<img class="team-logo" src="//static.7mscorethai.com/images/logo/21y70myS-G8uIooXn.png"/>
</div>
</div>
<div class="clearfix"></div>
<div class="action">
<a class="btn-play" href="live-soccer-MBnpNZnc.html">คลิ๊กดูฟุตบอลสด</a>
</div>
<div class="clearfix"></div>
</div>
<div class="match">
<div class="home-team">
<div class="team-name">อตาลันต้า</div>
<div class="home-img">
<img class="team-logo" src="//static.7mscorethai.com/images/logo/xASUZ6il-S82PeYBB.png"/>
</div>
</div>
<div class="score">
<div class="time">
⚽<br/> <strong>03:15</strong>
</div>
<strong class="vs">VS</strong>
</div>
<div class="away-team">
<div class="team-name">กายารี่</div>
<div class="away-img">
<img class="team-logo" src="//static.7mscorethai.com/images/logo/IBlLf9f5-fJEtvjYe.png"/>
</div>
</div>
<div class="clearfix"></div>
<div class="action">
<a class="btn-play" href="live-soccer-AwW9FUNk.html">คลิ๊กดูฟุตบอลสด</a>
</div>
<div class="clearfix"></div>
</div>
<div class="league">
<div class="league-name"><span class="flag flag-198"></span><a href="league-football-england-premier_league">ENGLAND: พี่เมียหลีก</a></div>
</div>
<div class="match">
<div class="home-team">
<div class="team-name">อาเซนอล</div>
</div>
<div class="score">
<div class="time">
⚽<br/> <strong>03:00</strong>
</div>
<strong class="vs">VS</strong>
</div>
<div class="away-team">
<div class="team-name">คริสตัล พาเลซ</div>
</div>
<div class="clearfix"></div>
<div class="action">
<a class="btn-play" href="live-soccer-YLftSz3s.html">คลิ๊กดูฟุตบอลสด</a>
</div>
<div class="clearfix"></div>
</div>
<div class="league">
<div class="league-name"><span class="flag flag-200"></span><a href="league-basketball-usa-nba">USA: NBA</a></div>
</div>
<div class="match">
<div class="home-team">
<div class="team-name">Philadelphia 76ers</div>
<div class="home-img">
<img class="team-logo" src="//static.7mscorethai.com/images/logo/rNU4bqCr-AeMbLT4P.png"/>
</div>
</div>
<div class="score">
<div class="time">
🏀<br/> <strong>07:00</strong>
</div>
<strong class="vs">VS</strong>
</div>
<div class="away-team">
<div class="team-name">Miami Heat</div>
<div class="away-img">
<img class="team-logo" src="//static.7mscorethai.com/images/logo/fBzhqch5-WYQ9hX2e.png"/>
</div>
</div>
<div class="clearfix"></div>
<div class="action">
<a class="btn-play" href="live-basketball-x2Zzg6MB.html">คลิกดูบาสเกตบอลสด</a>
</div>
<div class="clearfix"></div>
</div>
<div class="match">
<div class="home-team">
<div class="team-name">San Antonio Spurs</div>
<div class="home-img">
<img class="team-logo" src="//static.7mscorethai.com/images/logo/8f2WVCFG-lbetCDVm.png"/>
</div>
</div>
<div class="score">
<div class="time">
🏀<br/> <strong>07:30</strong>
</div>
<strong class="vs">VS</strong>
</div>
<div class="away-team">
<div class="team-name">Houston Rockets</div>
<div class="away-img">
<img class="team-logo" src="//static.7mscorethai.com/images/logo/tpfZ3yeM-xIAQvi0J.png"/>
</div>
</div>
<div class="clearfix"></div>
<div class="action">
<a class="btn-play" href="live-basketball-GhYvhQyI.html">คลิกดูบาสเกตบอลสด</a>
</div>
<div class="clearfix"></div>
</div>
<div class="match">
<div class="home-team">
<div class="team-name">Toronto Raptors</div>
<div class="home-img">
<img class="team-logo" src="//static.7mscorethai.com/images/logo/UmPff6f5-Q9co7bFf.png"/>
</div>
</div>
<div class="score">
<div class="time">
🏀<br/> <strong>07:30</strong>
</div>
<strong class="vs">VS</strong>
</div>
<div class="away-team">
<div class="team-name">Charlotte Hornets</div>
<div class="away-img">
<img class="team-logo" src="//static.7mscorethai.com/images/logo/4WaruFyS-WWBAneIl.png"/>
</div>
</div>
<div class="clearfix"></div>
<div class="action">
<a class="btn-play" href="live-basketball-hI7AROwb.html">คลิกดูบาสเกตบอลสด</a>
</div>
<div class="clearfix"></div>
</div>
<div class="match">
<div class="home-team">
<div class="team-name">Denver Nuggets</div>
<div class="home-img">
<img class="team-logo" src="//static.7mscorethai.com/images/logo/OnnMU0hl-ELSHsuFl.png"/>
</div>
</div>
<div class="score">
<div class="time">
🏀<br/> <strong>10:00</strong>
</div>
<strong class="vs">VS</strong>
</div>
<div class="away-team">
<div class="team-name">Golden State Warriors</div>
<div class="away-img">
<img class="team-logo" src="//static.7mscorethai.com/images/logo/ptyTvYeM-buTsBjXI.png"/>
</div>
</div>
<div class="clearfix"></div>
<div class="action">
<a class="btn-play" href="live-basketball-AFXripiO.html">คลิกดูบาสเกตบอลสด</a>
</div>
<div class="clearfix"></div>
</div>
<div class="match">
<div class="home-team">
<div class="team-name">Portland Trail Blazers</div>
<div class="home-img">
<img class="team-logo" src="//static.7mscorethai.com/images/logo/zBmCc7Wg-d2JCnRY3.png"/>
</div>
</div>
<div class="score">
<div class="time">
🏀<br/> <strong>10:00</strong>
</div>
<strong class="vs">VS</strong>
</div>
<div class="away-team">
<div class="team-name">Indiana Pacers</div>
<div class="away-img">
<img class="team-logo" src="//static.7mscorethai.com/images/logo/YyvHJVCa-2PaYvEYe.png"/>
</div>
</div>
<div class="clearfix"></div>
<div class="action">
<a class="btn-play" href="live-basketball-OIymj46U.html">คลิกดูบาสเกตบอลสด</a>
</div>
<div class="clearfix"></div>
</div>
</div>
</div>
<div class="clearfix"></div>
</div>
<div id="footer">
<div>7mscorethai.com เว็บไซด์รายงานข่าวสาร
7m
ผลบอลสด
ดูบอลสด
และ ดูบอลออนไลน์แจกฟรีทีเด็ดบอล
ทีเด็ดบอลวันนี้
ทีเด็ดฟุตบอลวันนี้ทีเด็ดฟุตบอลทีเด็ดบอลชุด
ทีเด็ดบอลสเต็ประดับVIPที่แม่นที่สุดในทุกๆลีกทั่วโลก และยังมีทรรศนะวิเคราะห์บอล
ทรรศนะบอล
ทรรศนะเซียนบอล
ทรรศนะบอลวันนี้ให้ท่านได้อ่าน วิเคราะห์บอล
วิเคราะห์บอลวันนี้
วิเคราะห์บอลคืนนี้จากเหล่าเซียนดัง นอกเหนือจากนั้นยังมีข้อมูล ล้มโต๊ะ
บ้านผลบอล
เซียนสเต็ป
7m
สยามกีฬา
baanpolball
สปอร์ตพูล
ตลาดลูกหนัง
สปอร์ตแมน
zeanstep
Soccersuckอัพเดทตารางบอล
ตารางบอลวันนี้
ตารางบอลคืนนี้
ตารางบอลพรุ่งนี้
โปรแกรมบอล
โปรแกรมฟุตบอล
โปรแกรมฟุตบอลวันนี้ราคาบอลราคาบอลไหลเช็คราคาบอลราคาบอลวันนี้ราคาบอลสดราคาบอลพรีเมียร์ลีกแถมยังให้บริการ ดูผลบอลเมื่อคืนผลบอลล่าสุดผลบอลพรีเมียร์ลีกอังกฤษผลบอลวันนี้ผลบอลบุนเดสลีกาเยอรมันผลบอลลาลีกาสเปนผลบอลลีกเอิงฝรั่งเศษผลบอลสดไทยพรีเมียร์ลีกผลบอลสดไทยดิวิชั่น1บอลไทยดิวิชั่น2ผลบอลสดยูฟ่าแชมป์เปี้ยนลีกผลบอลสดยูโรป้าลีกและผลบอลสดทั่วโลกอัพเดทตลอดเวลา24ชั่วโมง รับรองทีเด็ดฟุตบอลระเทพVIP ให้เสพข้อมูลฟรีๆและ ชมไฮไลท์ฟุตบอลความคมชัดระดับHD อัพเดททันทีแบบ Realtime ที่ฟุตบอลแข่งจบจากทุกๆลีกทั่วโลก ทำให้แฟนบอลทุกๆท่านจะไม่พลาดทุกช็อตสำคัญของการแข่งขัน ดูบอลผ่านเน็ตดูบอลออนไลน์
ดูบอลสดทุกลีกทั่วโลก ดูฟุตบอลออนไลน์สามารถติดตาม ตารางคะแนนลาลิกาตารางคะแนนพรีเมียร์ลีกตารางคะแนนลีกเอิงตารางคะแนนบุนเดสลีกา
</div>
<div class="footer-copyright">
Copyright © 2013 - 2021 Server Time 14/01/2021 - 22:43:58 7M Score Thai, All rights reserved.
<a href="/sitemap.xml" title="sitemap"><img src="//cdn.7mscorethai.com/icon-sitemap.png"/></a>
<div id="truehits_div" style="display:inline-block;"></div>
</div>
</div>
<div id="fb-root"></div>
<script>(function(d, s, id) {
  var js, fjs = d.getElementsByTagName(s)[0];
  if (d.getElementById(id)) return;
  js = d.createElement(s); js.id = id;
  js.src = "//connect.facebook.net/th_TH/sdk.js#xfbml=1&version=v2.10&appId=421062971368558";
  fjs.parentNode.insertBefore(js, fjs);
}(document, 'script', 'facebook-jssdk'));</script>
<script>
  (function(i,s,o,g,r,a,m){i['GoogleAnalyticsObject']=r;i[r]=i[r]||function(){
  (i[r].q=i[r].q||[]).push(arguments)},i[r].l=1*new Date();a=s.createElement(o),
  m=s.getElementsByTagName(o)[0];a.async=1;a.src=g;m.parentNode.insertBefore(a,m)
  })(window,document,'script','https://www.google-analytics.com/analytics.js','ga');

  ga('create', 'UA-104169731-1', 'auto');
  ga('send', 'pageview');

</script>
<script type="text/javascript">var _Hasync= _Hasync|| [];
_Hasync.push(['Histats.start', '1,3918780,4,0,0,0,00010000']);
_Hasync.push(['Histats.fasi', '1']);
_Hasync.push(['Histats.track_hits', '']);

function histat_recheck() {
    var hs = document.createElement('script'); hs.type = 'text/javascript'; hs.async = true;
    hs.src = ('//s10.histats.com/js15_as.js');
    (document.getElementsByTagName('head')[0] || document.getElementsByTagName('body')[0]).appendChild(hs);
    setTimeout(histat_recheck,600000);
}
setTimeout(histat_recheck,2000);
</script>
<noscript><a href="/" target="_blank"><img alt="" border="0" src="//sstatic1.histats.com/0.gif?3918780&amp;101"/></a></noscript>
</div></body>
</html>