<!DOCTYPE html>
<html>
<head>
<meta charset="utf-8"/>
<meta content="IE=edge" http-equiv="X-UA-Compatible"/>
<meta content="width=device-width, initial-scale=1" name="viewport"/>
<link href="/assets/favicons/180x180.png?v=1580278883264" rel="icon" type="image/png"/>
<link href="/assets/favicons/32x32.png?v=1580278883264" rel="icon" type="image/png"/>
<link href="/assets/favicons/16x16.png?v=1580278883264" rel="icon" type="image/png"/>
<meta content="https://emailoans.com.au/assets/favicons/180x180.png" property="og:image"/><link href="/assets/css/publish/common.css?v=1580278883264" rel="stylesheet" type="text/css"/>
<link href="/assets/css/publish/publish.css?v=1580278883264" rel="stylesheet" type="text/css"/>
<link href="/styles/906f5482-77b5-495a-a33f-2607df6b833f.css?1580278883264" id="global_styles" rel="stylesheet" type="text/css"/>
</head>
<body>
<script type="text/javascript">window['sprites'] = ["icons/publish.svg"];</script>
<script type="text/javascript">
  	window['__PRELOADED_STATE__'] = {"resellerId":"4","menu":{"hidden":[],"unlinked":[],"list":[{"children":[],"name":"Home","hash":"8d1d13fa-e359-40e4-a1ad-35fb5faf628e","tag":"home","homepage":true,"_id":"59fd5c211ecba10016c07b21","title":"","description":""},{"children":[],"_id":"59fda578860a830017e489c6","tag":"services","hash":"3bc35c6b-595c-468d-a8c4-21bba8bbed62","name":"Services","title":"","description":""},{"children":[],"name":"Personal & Car Loans","hash":"5aaee6a2-0398-4f21-8582-7066b286ba0a","tag":"our-loan","_id":"59fff9db2235750017cd7d9b","title":"","description":""},{"children":[],"_id":"5ad497816f09290017f8ffb6","tag":"credit","hash":"cc309492-4258-44d2-93a4-fc9159d472b6","name":"Privacy & Credit Guide","title":"","description":""},{"children":[],"name":"Contact us","hash":"c8748a43-046c-40f5-87e5-f10c6b7b1ad9","tag":"contact","_id":"5a000c41860a830017e489e0","title":"","description":""}]},"header":{"elements":[{"type":"component","name":"logo","options":{"hash":"d59575d118674628"}},{"options":{"hash":"f6361f0b6c59cafa"},"name":"navigation","type":"component"}],"options":{"style":{"height":80,"background":"#fff","borderTopColor":"var(--color_brand)","borderTopWidth":0,"borderBottomColor":"var(--color_brand)","borderBottomWidth":0,"minHeight":0},"float":"right","hash":"35a86e39-4535-406e-b8e8-ead75b1aab10"},"name":"header","type":"block","style":{"height":80,"background":"#fff","borderTopColor":"var(--color_brand)","borderTopWidth":0,"borderBottomColor":"var(--color_brand)","borderBottomWidth":0,"minHeight":0},"float":"right","hash":"ad15bf44-2010-419e-abf2-95c13d66da6f"},"footer":{"elements":[{"options":{"hash":"3bb18c45346a43aa"},"elements":[{"name":"row_item","options":{"hash":"0228923989ad3f84","static":{"size":12}},"elements":[{"elements":[{"elements":[{"options":{"color":"rgb(var(--preColor_brand))","fillColor":"rgb(var(--preColor_textAlt))","hash":"c8cb82ebdcbdf783","float":"left","size":40,"type":2,"list":[{"type":"fb"},{"type":"twitter"},{"type":"instagram"}]},"name":"social"}],"options":{"static":{"size":6},"hash":"a8a3ca923ba0d634"},"type":"block","name":"row_item"},{"elements":[{"options":{"entityMap":{"0":{"type":"COLOR","mutability":"MUTABLE","data":"rgb(var(--preColor_text))"}},"hash":"4491105729e23655","blocksBackup":[{"textAlign":"center","color":"var(--color_textAlt)"}],"blocks":[{"key":"3nt61","text":"Copyright Â© 2019. All rights reserved. Em@iloans","type":"unstyled","depth":0,"inlineStyleRanges":[],"blockInlineStyle":{"fontSize":"15em","textAlign":"right","color":"var(--color_textAlt)"},"entityRanges":[{"offset":0,"length":48,"key":0}]}],"type":"text"},"name":"redactor","type":"component"}],"options":{"static":{"size":6},"hash":"b19eef79ccf8cd80"},"type":"block","name":"row_item"}],"options":{"hash":"da5f7cfb16361dbc"},"type":"block","name":"row_block"}]}],"name":"row_block","type":"block"}],"options":{"dynamic":{"rowMiddle":true},"hash":"371f6003-77c5-4947-9cf7-387f4c048688","style":{"background":"rgb(var(--preColor_textAlt))","paddingBottom":20,"paddingTop":20},"static":{"size":3}},"name":"builder/default","type":"section"},"settings":{"legal":{"analytics":{"active":true},"cookieBanner":{"active":false}},"marketing":{"googleAnalytics":{"id":""},"googleTagManager":{"id":""},"pinterestButton":{"color":0,"size":0,"type":0,"active":false}}},"eCommerce":{},"stickyElements":[{"options":{"position":"right","hash":"ef563163-5a5c-42dd-83e6-4f00d1810ffe"},"name":"back_to_top"}],"pinterest":{"color":0,"size":0,"type":0,"active":false},"styles":{"preColor":{"brand":"53, 200, 53","altBrand":"13, 13, 13","text":"13, 13, 13","textAlt":"255, 255, 255","complementary":"238, 238, 238"},"color":{"brand":"rgb(var(--preColor_brand))","altBrand":"rgb(var(--preColor_altBrand))","text":"rgb(var(--preColor_text))","textAlt":"rgb(var(--preColor_textAlt))","complementary":"rgb(var(--preColor_complementary))"},"font":{"primary":"Montserrat, sans-serif","secondary":"Roboto Condensed, sans-serif","complementary":"PT Sans, serif"},"menu":{"type":3,"padding":"10px","fontSize":"18em","active":{"color":"rgb(var(--preColor_brand))","background":"var(--color_altBrand)"},"color":"rgb(var(--preColor_text))"},"template":{"background":"#fff","fill":"var(--color_brand)","fontFamily":"var(--font_primary)","name":"Mortgage"},"header":{"alwaysCollapsed":false,"main":{"background":"rgb(var(--preColor_textAlt))","borderTopColor":"rgb(var(--preColor_text))","borderTopWidth":"0px","borderBottomColor":"rgb(var(--preColor_text))","borderBottomWidth":0,"opacity":"0.70"},"sub":{"background":"var(--header_main_background)"},"height":80},"footer":{"main":{"background":"rgb(var(--preColor_textAlt))"},"sub":{"background":"var(--footer_main_background)"}},"logo":{"default":{"isLink":true,"text":"Mortgage","src":"themes/128/logo(11).svg"},"default_footer":{"src":"'themes/_global/logo.png'"},"crop":{"left":0,"top":50,"mode":"contain","zoom":1.25,"width":151,"height":70},"logoWidth":87,"view":"index"},"link":{"name":"link_06","presets":[{"name":"link_01"},{"name":"link_02"},{"name":"link_03"},{"name":"link_04"},{"name":"link_05"}],"color":"rgb(var(--preColor_altBrand))","preColor":"var(--preColor_altBrand)","fontStyle":"normal","textDecoration":"none","fontWeight":700,"borderBottom":"none","underlined":false},"blockquote1":{"name":"blockquote_01"},"blockquote2":{"name":"blockquote_02"},"text":{"fontSize":"16em","lineHeight":"1.6em","fontWeight":"400","fontStyle":"normal","fontVariant":"normal","fontFamily":"var(--font_primary)","textTransform":"none","textAlign":"left","color":"var(--color_text)"},"title":{"lineHeight":1.4,"fontStyle":"normal","fontWeight":700,"fontVariant":"normal","textTransform":"none","textAlign":"left","color":"var(--color_text)","heroHeading":{"fontSize":"68em","lineHeight":"1em","fontWeight":700,"fontStyle":"normal","fontVariant":"normal","fontFamily":"var(--font_secondary)","textTransform":"Uppercase","textAlign":"var(--title_textAlign)","color":"var(--title_color)"},"mainHeading":{"fontSize":"44em","lineHeight":"1.1em","fontWeight":"700","fontStyle":"normal","fontVariant":"var(--title_fontVariant)","fontFamily":"var(--font_secondary)","textTransform":"var(--title_textTransform)","textAlign":"var(--title_textAlign)","color":"var(--title_color)"},"heading":{"fontSize":"38em","lineHeight":"1.2em","fontWeight":"700","fontStyle":"normal","fontVariant":"normal","fontFamily":"var(--font_secondary)","textTransform":"Uppercase","textAlign":"var(--title_textAlign)","color":"var(--title_color)"},"smallHeading":{"fontSize":"24em","lineHeight":"1.2em","fontWeight":"700","fontStyle":"normal","fontVariant":"normal","fontFamily":"var(--font_secondary)","textTransform":"Default","textAlign":"var(--title_textAlign)","color":"var(--title_color)"},"subHeading":{"fontSize":"22em","lineHeight":"1.3em","fontWeight":"700","fontStyle":"normal","fontVariant":"normal","fontFamily":"var(--font_secondary)","textTransform":"Default","textAlign":"var(--title_textAlign)","color":"var(--title_color)"}},"btn":{"fontSize":"16px","fontFamily":"var(--font_secondary)","borderRadius":0,"border":0,"textTransform":"uppercase","fontWeight":700,"fontStyle":"normal","fill":"currentColor","primary":{"fill":"var(--btn_fill)","fontSize":"var(--btn_fontSize)","fontFamily":"Montserrat, sans-serif","textTransform":"var(--btn_textTransform)","fontWeight":"700","fontStyle":"var(--btn_fontStyle)","borderRadius":"4px","borderWidth":"0px","borderColor":"transparent","background":"var(--color_brand)","color":"rgb(var(--preColor_textAlt))"},"secondary":{"fill":"var(--btn_fill)","fontSize":"var(--btn_fontSize)","fontFamily":"Montserrat, sans-serif","textTransform":"var(--btn_textTransform)","fontWeight":"700","fontStyle":"var(--btn_fontStyle)","borderRadius":"4px","borderWidth":"0px","borderColor":"transparent","background":"var(--color_altBrand)","color":"rgb(var(--preColor_textAlt))"},"borderPrimary":{"fill":"var(--btn_fill)","background":"transparent","fontSize":"var(--btn_fontSize)","fontFamily":"Montserrat, sans-serif","borderRadius":"4px","textTransform":"var(--btn_textTransform)","fontWeight":"700","fontStyle":"var(--btn_fontStyle)","borderStyle":"solid","borderWidth":"3px","color":"var(--color_brand)","borderColor":"var(--color_brand)"},"borderSecondary":{"fill":"var(--btn_fill)","background":"transparent","fontSize":"var(--btn_fontSize)","fontFamily":"Montserrat, sans-serif","borderRadius":"4px","textTransform":"var(--btn_textTransform)","fontWeight":"700","fontStyle":"var(--btn_fontStyle)","borderStyle":"solid","borderWidth":"3px","color":"var(--color_altBrand)","borderColor":"var(--color_altBrand)"},"default":{"fill":"var(--btn_fill)","paddingTop":"6px","paddingBottom":"6px","fontSize":"var(--btn_fontSize)","fontFamily":"var(--btn_fontFamily)","textTransform":"var(--btn_textTransform)","fontWeight":"var(--btn_fontWeight)","fontStyle":"var(--btn_fontStyle)","borderRadius":"0","borderWidth":"0","borderColor":"transparent","background":"transparent","color":"var(--color_brand)"},"header":{"fontSize":"20em"}},"input":{"fontSize":"var(--text_fontSize)","height":"auto","color":"var(--text_color)","preBgColor":"255,255,255","background":"rgb(var(--input_preBgColor))","borderWidth":"1px","borderColor":"#cccccc","borderRadius":0,"textTransform":"none","textarea":{"fontSize":"var(--input_fontSize)","height":"140px","color":"var(--input_color)","background":"var(--input_background)","borderWidth":"var(--input_borderWidth)","borderColor":"var(--input_borderColor)","borderRadius":"var(--input_borderRadius)","textTransform":"var(--input_textTransform)"},"select":{"fontSize":"var(--input_fontSize)","height":"var(--input_height)","color":"var(--input_color)","background":"var(--input_background)","borderWidth":"var(--input_borderWidth)","borderColor":"var(--input_borderColor)","borderRadius":"var(--input_borderRadius)","textTransform":"var(--input_textTransform)"},"radio":{"fontSize":"var(--input_fontSize)","color":"var(--input_color)","borderColor":"var(--input_borderColor)","textTransform":"var(--input_textTransform)"}},"function":{"darkenBrand":[10,15,50],"rgbaBrand":[3,5,6,7,8,9],"link":{"rgba":[1,2]},"button":{"primary":{"darken":[10,15]},"secondary":{"darken":[10,15]},"borderPrimary":{"darken":[10,15]},"borderSecondary":{"darken":[10,15]}}}},"planType":"paid","project":{"_id":"906f5482-77b5-495a-a33f-2607df6b833f","updatedAt":"2019-02-11T03:48:32.927Z","createdAt":"2019-02-11T03:48:32.817Z","userId":"1394765","name":"Mortgage","template":{"src":{"name":"template_preview/mortgage.png","path":"/assets/image"}},"resellerId":"4","migrated":false,"screenshotsDone":true,"updatesCounter":0,"hasChangesAt":"2020-01-29T05:33:39.212Z","deletedAt":null,"deleted":false,"firstPublishedAt":"2019-05-30T14:49:22.166Z","publishedAt":"2019-05-30T14:49:22.166Z","published":true,"hasChanges":true,"num":1,"domains":["acd9d905-d238-4bd2-bae2-15796460996c","2755e456-4e04-4e21-a70a-49badd9b071f","2755e456-4e04-4e21-a70a-49badd9b071f"],"projectTemplate":"da5d76a2-50cc-49bb-8b00-a7bd4fefb854","__v":0,"eCommerce":{}},"faviconsSizes":[],"googleAnalytics":{"id":""},"googleTagManager":{"id":""},"gdprEnable":false,"pageId":"1ed0dc8f-0a18-454c-adcf-b484ba0f6a6e","page":{"sections":[{"type":"section","name":"builder/default","options":{"static":{"staticClass":["section_404-02"],"size":12},"dynamic":{"rowMiddle":true},"style":{"paddingTop":200,"paddingBottom":200},"hash":"ff5784dc-77d5-4dc4-8bb2-0a91488daec4"},"elements":[{"type":"block","name":"row_block","elements":[{"type":"block","name":"row_item","options":{"static":{"size":3},"hash":"c10b3d9702d866ab"},"elements":[]},{"type":"block","name":"row_item","options":{"static":{"size":2},"hash":"ff2495644dc50613"},"elements":[{"name":"shape","options":{"style":{"paddingTop":42,"paddingBottom":42,"background":"var(--color_brand)"},"hash":"57f1e66d3669b877"},"elements":[{"type":"component","name":"redactor","options":{"type":"header-two","blocks":[{"text":"404","blockInlineStyle":{"color":"var(--color_textAlt)","textAlign":"center"}}],"blocksBackup":[{"color":"var(--color_textAlt)","textAlign":"center"}],"hash":"346028ff5b8e194a"}}]}]},{"type":"block","name":"row_item","options":{"static":{"size":7},"hash":"4bd2129f26b32898"},"elements":[{"type":"component","name":"redactor","options":{"type":"header-two","blocks":[{"text":"Page Not Found","blockInlineStyle":{"color":"var(--color_text)"}}],"hash":"0e5b23bd6e912b32"}},{"type":"component","name":"redactor","options":{"type":"text","blocks":[{"text":"We couldn't find the page you were looking for."}],"hash":"744a07ec5df05650"}}]}],"options":{"hash":"52ed7dbff2275866"}}]}]}};
</script>
<script type="text/javascript">
  window['API_URLS'] = {
  "static": "https://static.siteplus.com",
  "staticService": "https://static-cdn.edit.site",
  "memberApi": "https://rest.siteplus.com/member-api/1.1",
  "blogApi": "https://rest.siteplus.com/blog-api/1.1",
  "ecommerceFilestorageService": "https://rest.siteplus.com/ecommerce-filestorage-service/1.0",
  "memberApiService": "https://rest.siteplus.com/member-api-service",
  "fileStorageService": "https://rest.siteplus.com/filestorage-api-service",
  "imageApiService": "https://rest.siteplus.com/image-api-service",
  "ecommerceService": "https://rest.siteplus.com/ecommerce-api-service",
  "analyticApiService": "https://rest.siteplus.com/member-analytics-service",
  "embedApiService": "https://rest.siteplus.com/embed-api-service",
  "geoipService": "https://rest.siteplus.com/geoip-service",
  "instagramProxyService": "https://rest.siteplus.com/insta-re-proxy"
};
  window['STATIC'] = {};
</script>
<script crossorigin="anonymous" src="https://cdn.ravenjs.com/3.17.0/raven.min.js"></script>
<script src="/assets/vendor.js?v=1580278883264" type="text/javascript"></script>
<script src="/assets/publish.js?v=1580278883264" type="text/javascript"></script>
<!-- published at: Wed Jan 29 2020 06:21:23 GMT+0000 (UTC) -->
</body>
</html>
