<!DOCTYPE HTML PUBLIC "-//W3C//DTD HTML 4.01 Transitional//EN">
<html>
<head>
<title>EMU-Russia - Ошибка!</title>
<meta content="text/html; charset=utf-8" http-equiv="Content-Type"/>
<link href="/emu-russia.css" rel="stylesheet" type="text/css"/>
</head>
<body>
<div align="center">
<table border="0" width="760">
<tr>
<td> </td>
</tr>
<tr>
<td> </td>
</tr>
<tr>
<td> </td>
</tr>
<tr>
<td> </td>
</tr>
<tr>
<td><div align="CENTER"><strong><font size="+2">Error!</font></strong></div></td>
</tr>
<tr>
<td><div align="center"><font size="2">Sorry, requested file is not found!<br/>Try to find it via site's main page: <a href="http://emu-russia.net">emu-russia.net</a><br/><br/>or use Google search:</font></div></td>
</tr>
<tr>
<td> </td>
</tr>
<tr><td>
<div align="center">
<form action="/en/search/" id="cse-search-box">
<div>
<input name="cx" type="hidden" value="partner-pub-4437795278684095:798g2o-ec1h"/>
<input name="cof" type="hidden" value="FORID:10"/>
<input name="ie" type="hidden" value="UTF-8"/>
<input name="q" size="55" title="Site and forum search" type="text" value=" br dl_files emus eefc8427e7b0e2bfd85567fb34b528e2 mame0182b_32bit.exe	
"/>
<input name="sa" type="submit" value="Search"/>
<input name="hl" type="hidden" value="en"/>
</div>
</form>
<script src="http://www.google.com/coop/cse/brand?form=cse-search-box&amp;lang=en" type="text/javascript"></script>
</div>
</td></tr></table>
</div>
</body>
</html>
