<!DOCTYPE html>
<html lang="zh_tw">
<head>
<meta charset="utf-8"/>
<title>85小說網 | 免費小說線上看 | 免費小說網</title>
<meta content="85小說網,85度C小說網,小說線上看" name="keywords"/>
<meta content="85度C小說網是一個免費的繁體小說網,提供言情小說線上看,穿越小說線上看,玄幻小說線上看,網遊小說線上看。7-24小時不間斷同步更新。85度c的咖啡,85度c的小說,任君品嘗。" name="description"/>
<meta content="all" name="robots"/>
<meta content="UFgO5lv3sup0jCIDvhwm_s6I4YiALfZ9p27tPnNgNCs" name="google-site-verification"/>
<meta content="zh_tw" http-equiv="content-language"/>
<meta content="IE=Edge,chrome=1" http-equiv="X-UA-Compatible"/>
<meta content="webkit" name="renderer"/>
<meta content="no-siteapp" http-equiv="Cache-Control"/>
<meta content="no-transform " http-equiv="Cache-Control"/>
<link href="/favicon.ico" rel="shortcut icon"/>
<link href="/css/main.css?20200819" rel="stylesheet" type="text/css"/>
<script src="/js/jquery-2.1.4.min.js" type="text/javascript"></script>
<script src="/js/layer.js" type="text/javascript"></script>
<script src="/js/jquery.cookie.js" type="text/javascript"></script>
<script src="/js/jquery-ui.min.js" type="text/javascript"></script>
<script src="/js/jquery.lazyload.min.js" type="text/javascript"></script>
<script src="/js/common.js" type="text/javascript"></script></head>
<body class="index">
<div class="novel-header">
<div class="container clearfix">
<a href="/"><img alt="85度c小說網" class="logo-home" src="/images/logo-home.png" title="85小說網免費小說線上看"/></a>
<ul class="">
<li><a href="https://www.85novel.com/" title="85小說網免費小說線上看">首頁</a></li>
<li><a href="/list.php" title="最新免費小說">書庫</a></li>
<li><a href="/top.php" title="免費小說排行榜">排行</a></li>
<li><a href="/search.php" title="搜免費線上小說">搜書</a></li>
<!--<li><a href="/mall/index.php" style="color: #ff5500;" title="領紅包再購買,淘寶更優惠">淘折扣</a></li>-->
</ul>
<div class="header-right">
<div class="lang">
<a href="https://www.85novel.com/?layoutType=phone">行動版</a><em>|</em>
<a href="https://www.85novel.com/?charset=gb" title="85小說網簡體版">85小說網簡體版</a>
</div>
<div class="search">
<form action="/search.php" class="search-form" method="get" style="padding-bottom: 0px;padding-top:0px;">
<input id="k" name="k" placeholder="找書、找作者" type="text" value=""/>
<input class="submit-input" id="topSearchSubmit1" type="submit"/>
<label class="search-btn" for="topSearchSubmit1" id="pin-search"><em class="iconfont icon-search2"></em></label>
</form>
</div>
</div>
</div>
</div>
<div class="novel-home-body-header ">
<div class="container clearfix">
<div class="vip">
<em class="iconfont icon-volume-m"></em>
<div id="marqueeBox" onmouseout="marqueeInterval[0]=setInterval('startMarquee()',marqueeDelay)" onmouseover="clearInterval(marqueeInterval[0])"></div>
<script language="javascript">
                var marqueeContent=new Array();
                marqueeContent[0]='<a href="/updatelogs.php" target="_blank">[2020-02-02] <span>利用春節休假期間, 85啟用了新的小說搜索引擎, 穩定性,更新速度和更新數量皆有很大程度之提升</span></a>';
                marqueeContent[1]='<a href="/updatelogs.php" target="_blank">[2020-02-02] <span>搜索引擎目前處於beta階段, 站點偶爾可能會出現例如沒有內容之類的問題, 請耐心稍後, 很快會解決</span></a>';
                marqueeContent[2]='<a href="/updatelogs.php" target="_blank">[2018-03-12] <span>致讀者 - 感謝有您, 一路相伴, 85小說網全新改版, 還有許多地方需要完善, 但先趕在5周年之前上線吧</span></a>';
                marqueeContent[3]='<a href="/updatelogs.php" target="_blank">[2013-03-20] <span>85的咖啡,85的小說,任君品嘗</span></a>';
                var marqueeInterval=new Array();
                var marqueeId=0;
                var marqueeDelay=3000;
                var marqueeHeight=0;
                var marqueeBox;
                function initMarquee() {
                    marqueeHeight=$("#marqueeBox").height();
                    marqueeBox = document.getElementById('marqueeBox');
                    var str=marqueeContent[marqueeId];
                    $("#marqueeBox").html('<div>'+str+'</div>');
                    marqueeId++;
                    marqueeInterval[0]=setInterval("startMarquee()",marqueeDelay);
                }
                function startMarquee() {
                    var str=marqueeContent[marqueeId];
                    marqueeId++;
                    if(marqueeId>=marqueeContent.length) marqueeId=0;
                    if(marqueeBox.childNodes.length==1) {
                        var nextLine=document.createElement('div');
                        nextLine.innerHTML=str;
                        marqueeBox.appendChild(nextLine);
                    }
                    else {
                        marqueeBox.childNodes[0].innerHTML=str;
                        marqueeBox.appendChild(marqueeBox.childNodes[0]);
                        marqueeBox.scrollTop=0;
                    }
                    clearInterval(marqueeInterval[1]);
                    marqueeInterval[1]=setInterval("scrollMarquee()",20);
                }
                function scrollMarquee() {
                    marqueeBox.scrollTop++;
                    if(marqueeBox.scrollTop%marqueeHeight==(marqueeHeight-1)){
                        clearInterval(marqueeInterval[1]);
                    }
                }
                initMarquee();
            </script>
</div>
<div id="Header1_login"><a class="header-right" href="javascript:showLogin();">用戶登錄</a>
<div class="login_other fr">
<!-- <a href="/user/auth/weibo/index.aspx" class="weibo"></a> -->
<!-- <a href="/user/auth/wechat/index.aspx" class="weixin"></a> -->
</div>
<script>var uid=0;var _mybk=new Array();var _mybkc=new Array();</script></div>
</div>
</div>
<div class="novel-home-body-container">
<div class="container container-box-shadow">
<div class="clearfix">
<div class="container-left"> <div class="clearfix imgs">
<a class="big-img" href="/book/45741.html"><img alt="炮灰修真指南" src="/cover/45741.jpg?s=2tm=dVYI"/></a>
<a class="small-img" href="/book/45741.html"><img alt="炮灰修真指南" lcsrc="/cover/45741.jpg?s=2tm=dVYI" src="/cover/45741.jpg?s=2tm=dVYI"/></a>
<a class="small-img" href="/book/48858.html"><img alt="大魔王嬌養指南" lcsrc="/cover/48858.jpg?s=Xtm=ZNdg" src="/cover/48858.jpg?s=Xtm=ZNdg"/></a>
<a class="small-img" href="/book/76570.html"><img alt="箏愛一心人" lcsrc="/cover/76570.jpg?s=Xwm3ZZYJ" src="/cover/76570.jpg?s=Xwm3ZZYJ"/></a>
<a class="small-img" href="/book/46942.html"><img alt="快穿之女配功德無量" lcsrc="/cover/46942.jpg?s=3t2=dZdI" src="/cover/46942.jpg?s=3t2=dZdI"/></a>
<a class="small-img" href="/book/50685.html"><img alt="影后的嘴開過光" lcsrc="/cover/50685.jpg?s=Wtm=b9d8" src="/cover/50685.jpg?s=Wtm=b9d8"/></a>
</div>
<div class="left-bot" style="">
<h4>
<a class="c-333" href="/book/45741.html" title="炮灰修真指南">炮灰修真指南</a></h4>
<p class="c-666">最牛修真指南三大秘訣:活著、好好活著、長長久久好好活著!
成為出場三章就將身死道消的炮灰女配,張依依果斷開啟自救模式。
這是一個小姑娘從億億萬炮灰中拼殺而出,最終證道飛升踏破虛空的故事。……
	<a class="c-orange" href="/book/45741.html">去閱讀&gt;&gt;</a></p>
</div>
<div class="left-bot" style="display: none;">
<h4>
<a class="c-333" href="/book/48858.html" title="大魔王嬌養指南">大魔王嬌養指南</a></h4>
<p class="c-666">曾經叱吒風雲冷血無情的千歲大人,一朝淪為小叫花的精神導師。
不行,她請求換人!她還有遠大前程,她的目標是星辰大海!……
	<a class="c-orange" href="/book/48858.html">去閱讀&gt;&gt;</a></p>
</div>
<div class="left-bot" style="display: none;">
<h4>
<a class="c-333" href="/book/76570.html" title="箏愛一心人">箏愛一心人</a></h4>
<p class="c-666">雲箏大師覃川離世，箏界震動，海外漂泊十年的孫子覃小津回國奔喪，風雨夜邂逅了寒門箏童劉浪和他的母親白荷……
在藍花塢打造國內首個「古箏小鎮」是雲箏世家傳承人覃山海的夢想，但藍花塢有著覃小津不能被鉤機剷平的記憶，為了比父親更早拿到藍花塢的繼承權，他不惜使出殺手鐧：走進一段契約婚姻……
青梅竹馬的經紀人向清說：契約婚姻讓我來！
覃小津卻對箏童劉浪伸出手：我來當你的繼父，可好？
某不知名網路女寫手白荷掐了自己大腿一把：這劇情敢不是她自己編的吧？
覃小津看向面容清秀的小姐姐：怎麼？姐弟戀，你不會？
白荷羞恥地點了頭：嗯，沒談過。
雲箏世家第三代傳人覃小津：我來教你啊！……
	<a class="c-orange" href="/book/76570.html">去閱讀&gt;&gt;</a></p>
</div>
<div class="left-bot" style="display: none;">
<h4>
<a class="c-333" href="/book/46942.html" title="快穿之女配功德無量">快穿之女配功德無量</a></h4>
<p class="c-666">從混沌中醒來的蘇離沒有記憶,身上也沒有系統,只是按照冥冥之中的指引,淡然的過好每一次的輪迴的生活
慢慢的她發現,她每一世的身份均是下場不太好的炮灰.....
百世輪迴,積累了無量的功德金光的蘇離才發現,事情遠不是她認為的那樣簡單……
	<a class="c-orange" href="/book/46942.html">去閱讀&gt;&gt;</a></p>
</div>
<div class="left-bot" style="display: none;">
<h4>
<a class="c-333" href="/book/50685.html" title="影后的嘴開過光">影后的嘴開過光</a></h4>
<p class="c-666">「江小白的嘴,害人的鬼!」
大符師江白研製靈運符時被炸死,一睜眼就成了十八線小明星江小白,意外喜提「烏鴉嘴」技能。
好的不靈壞的靈?影后的嘴大約是開過光!
娛樂圈一眾人瑟瑟發抖——
「影后,求別開口!」
——————
無男主文嗷~……
	<a class="c-orange" href="/book/50685.html">去閱讀&gt;&gt;</a></p>
</div>
</div>
<div class="container-middle">
<div class="container-middle-article">
<li class="article-c1 ells"><h2><span>[<a class="c-666" href="/list.php?cat=667" title="玄幻奇幻小說線上看">玄幻奇幻</a>]</span>
<a class="c-orange" href="/book/45168.html" title="漫威之怪物獵人大世界">漫威之怪物獵人大世界</a></h2></li>
<li class="article-content ells"><span>[<a class="c-666" href="/list.php?cat=675" title="幻想時空小說線上看">幻想時空</a>]</span>
<a class="c-orange" href="/book/52822.html" title="百兵圖">百兵圖</a></li>
<li class="article-content ells"><span>[<a class="c-666" href="/list.php?cat=669" title="都市娛樂小說線上看">都市娛樂</a>]</span>
<a class="c-orange" href="/book/52325.html" title="全職國醫">全職國醫</a></li>
<li class="article-content ells"><span>[<a class="c-666" href="/list.php?cat=671" title="遊戲競技小說線上看">遊戲競技</a>]</span>
<a class="c-orange" href="/book/64412.html" title="虧成首富從遊戲開始">虧成首富從遊戲開始</a></li>
<li class="article-content ells"><span>[<a class="c-666" href="/list.php?cat=670" title="歷史軍事小說線上看">歷史軍事</a>]</span>
<a class="c-orange" href="/book/63969.html" title="諜海王牌">諜海王牌</a></li>
<li class="article-c1 ells"><h2><span>[<a class="c-666" href="/list.php?cat=667" title="玄幻奇幻小說線上看">玄幻奇幻</a>]</span>
<a class="c-orange" href="/book/47905.html" title="天啟預報">天啟預報</a></h2></li>
<li class="article-content ells"><span>[<a class="c-666" href="/list.php?cat=675" title="幻想時空小說線上看">幻想時空</a>]</span>
<a class="c-orange" href="/book/50111.html" title="巫女的時空旅行">巫女的時空旅行</a></li>
<li class="article-content ells"><span>[<a class="c-666" href="/list.php?cat=669" title="都市娛樂小說線上看">都市娛樂</a>]</span>
<a class="c-orange" href="/book/31976.html" title="美食供應商">美食供應商</a></li>
<li class="article-content ells"><span>[<a class="c-666" href="/list.php?cat=669" title="都市娛樂小說線上看">都市娛樂</a>]</span>
<a class="c-orange" href="/book/50087.html" title="你跑不過我吧">你跑不過我吧</a></li>
<li class="article-content ells"><span>[<a class="c-666" href="/list.php?cat=667" title="玄幻奇幻小說線上看">玄幻奇幻</a>]</span>
<a class="c-orange" href="/book/33583.html" title="聖墟">聖墟</a></li>
<li class="article-c1 ells"><h2><span>[<a class="c-666" href="/list.php?cat=675" title="幻想時空小說線上看">幻想時空</a>]</span>
<a class="c-orange" href="/book/48671.html" title="快穿之雷劫我來了">快穿之雷劫我來了</a></h2></li>
<li class="article-content ells"><span>[<a class="c-666" href="/list.php?cat=669" title="都市娛樂小說線上看">都市娛樂</a>]</span>
<a class="c-orange" href="/book/41754.html" title="近戰狂兵">近戰狂兵</a></li>
<li class="article-content ells"><span>[<a class="c-666" href="/list.php?cat=673" title="古裝言情小說線上看">古裝言情</a>]</span>
<a class="c-orange" href="/book/74896.html" title="鳳花錦">鳳花錦</a></li>
<li class="article-content ells"><span>[<a class="c-666" href="/list.php?cat=669" title="都市娛樂小說線上看">都市娛樂</a>]</span>
<a class="c-orange" href="/book/50229.html" title="高齡巨星">高齡巨星</a></li>
<li class="article-content ells"><span>[<a class="c-666" href="/list.php?cat=667" title="玄幻奇幻小說線上看">玄幻奇幻</a>]</span>
<a class="c-orange" href="/book/57596.html" title="在霍格沃茨讀書的日子">在霍格沃茨讀書的日子</a></li>
<li class="article-c1 ells"><h2><span>[<a class="c-666" href="/list.php?cat=673" title="古裝言情小說線上看">古裝言情</a>]</span>
<a class="c-orange" href="/book/74952.html" title="問丹朱">問丹朱</a></h2></li>
<li class="article-content ells"><span>[<a class="c-666" href="/list.php?cat=733" title="青春情感小說線上看">青春情感</a>]</span>
<a class="c-orange" href="/book/64592.html" title="沐沐你別鬧">沐沐你別鬧</a></li>
<li class="article-content ells"><span>[<a class="c-666" href="/list.php?cat=673" title="古裝言情小說線上看">古裝言情</a>]</span>
<a class="c-orange" href="/book/51420.html" title="女學霸在古代">女學霸在古代</a></li>
<li class="article-content ells"><span>[<a class="c-666" href="/list.php?cat=670" title="歷史軍事小說線上看">歷史軍事</a>]</span>
<a class="c-orange" href="/book/63798.html" title="從士兵突擊開始的征程">從士兵突擊開始的征程</a></li>
<li class="article-content ells"><span>[<a class="c-666" href="/list.php?cat=675" title="幻想時空小說線上看">幻想時空</a>]</span>
<a class="c-orange" href="/book/47538.html" title="淚女仙">淚女仙</a></li>
</div>
</div>
<div class="container-right">
<div class="rank-top">
<div class="rank-header">免費推薦</div>
<ul> <li>
<span class="cir cir01">1</span>
<div class="li-img clearfix" style="display:block">
<img src="/cover/6856.jpg?s=2wm=dJdg"/>
<div class="li-img-right">
<h4>
<a class="c-666" href="/book/6856.html" title="玉堂金閨">玉堂金閨</a></h4>
<p class="author">閑聽落花</p>
<div class="content">
<span class="ells">李恬這一生目標明確：有錢，有閑，沒煩惱，尋個沒本事沒脾氣......</span></div>
</div>
</div>
</li>
<li>
<a href="/book/16556.html" title="重生之嫡女妖嬈">
<span class="cir cir02">2</span>
<div class="li-article clearfix">
<span class="fl article-left">重生之嫡女妖嬈</span>
<span class="fr article-right">簾霜</span></div>
</a>
</li>
<li>
<a href="/book/38477.html" title="嫡女有毒">
<span class="cir cir02">3</span>
<div class="li-article clearfix">
<span class="fl article-left">嫡女有毒</span>
<span class="fr article-right">簾霜</span></div>
</a>
</li>
<li>
<a href="/book/6918.html" title="林家有女初修仙">
<span class="cir cir02">4</span>
<div class="li-article clearfix">
<span class="fl article-left">林家有女初修仙</span>
<span class="fr article-right">寶妝成</span></div>
</a>
</li>
<li>
<a href="/book/38492.html" title="奉子閃婚：鮮妻不準逃">
<span class="cir cir02">5</span>
<div class="li-article clearfix">
<span class="fl article-left">奉子閃婚：鮮妻不準逃</span>
<span class="fr article-right">唐小涵</span></div>
</a>
</li>
<li>
<a href="/book/38489.html" title="相門腹黑女">
<span class="cir cir02">6</span>
<div class="li-article clearfix">
<span class="fl article-left">相門腹黑女</span>
<span class="fr article-right">清淺邊緣</span></div>
</a>
</li>
<li>
<a href="/book/38485.html" title="重生千金歸來">
<span class="cir cir02">7</span>
<div class="li-article clearfix">
<span class="fl article-left">重生千金歸來</span>
<span class="fr article-right">天蠶雪靈芝</span></div>
</a>
</li>
<li>
<a href="/book/38475.html" title="豪門逃嫁101次">
<span class="cir cir02">8</span>
<div class="li-article clearfix">
<span class="fl article-left">豪門逃嫁101次</span>
<span class="fr article-right">唐小涵</span></div>
</a>
</li>
<li>
<a href="/book/38486.html" title="惹霍成婚">
<span class="cir cir02">9</span>
<div class="li-article clearfix">
<span class="fl article-left">惹霍成婚</span>
<span class="fr article-right">陌上遲歸</span></div>
</a>
</li>
<li>
<a href="/book/44516.html" title="繼女榮華">
<span class="cir cir02">10</span>
<div class="li-article clearfix">
<span class="fl article-left">繼女榮華</span>
<span class="fr article-right">繁朵</span></div>
</a>
</li>
</ul>
<div class="more"><a href="/list.php?sort=6&amp;finish=0&amp;size=0&amp;tag=0" title="85小說網免費小說推薦">更多&gt;&gt;</a></div>
</div>
</div>
</div>
<div class="clearfix">
<div class="selection-courier fl" style="width: 1092px">
<div class="title-header clearfix">
<div class="header-common-left ">流行風向</div>
</div>
<div class="selection-courier-content">
<ul class="clearfix">
<li>
<a href="/book/55028.html" title="執魔">
<img class="lazy" data-original="/cover/55028.jpg?s=32H=bdac"/>
<h4>執魔</h4>
<p>我是墨水</p>
</a>
</li>
<li>
<a href="/book/81180.html" title="阿炳的諸天生活">
<img class="lazy" data-original="/cover/81180.jpg?s=X3nzcBYZ"/>
<h4>阿炳的諸天生活</h4>
<p>白痴口香糖</p>
</a>
</li>
<li>
<a href="/book/49140.html" title="無垠">
<img class="lazy" data-original="/cover/49140.jpg?s=Wtm=cJYI"/>
<h4>無垠</h4>
<p>醉虎</p>
</a>
</li>
<li>
<a href="/book/3419.html" title="凡人修仙傳">
<img class="lazy" data-original="/cover/3419.jpg?s=W=cU"/>
<h4>凡人修仙傳</h4>
<p>忘語</p>
</a>
</li>
<li>
<a href="/book/69848.html" title="我真不是大佬">
<img class="lazy" data-original="/cover/69848.jpg?s=HomwaZY1"/>
<h4>我真不是大佬</h4>
<p>快餐店</p>
</a>
</li>
</ul>
</div>
</div>
</div>
<div class="clearfix">
<div class="editor-chief fl w827">
<div class="title-header clearfix">
<div class="header-common-left ">主編推薦</div>
</div>
<ul class="editor-ul clearfix">
<li class="li-ml-10">
<a href="/book/62721.html" title="陽壽已欠費">
<div class="clearfix">
<img class="lazy" data-original="/cover/62721.jpg?s=m22=dhd8"/>
<div class="li-content">
<h4>陽壽已欠費</h4>
<p class="li-content-all">臨死前,李聞得到了一個可以續命的APP。
領取任務,換來陽壽,還可以提高自身。
隨著一個個任務做下去,李聞發現自己升華了,釋然了,膽子越來越大了。
敢打熊孩子了,敢罵插隊的老大媽了!
我陽壽欠費了我怕誰?
群:522198786...</p>
<p class="li-content-author">作者：西西弗斯CC</p></div>
</div>
</a>
</li>
<li class="li-ml-10">
<a href="/book/50170.html" title="滄元圖">
<div class="clearfix">
<img class="lazy" data-original="/cover/50170.jpg?s=XtW=bZcI"/>
<div class="li-content">
<h4>滄元圖</h4>
<p class="li-content-all">我叫孟川,今年十五歲,是東寧府「鏡湖道院」的當代大師兄。...</p>
<p class="li-content-author">作者：我吃西紅柿</p></div>
</div>
</a>
</li>
<li class="li-ml-10">
<a href="/book/47821.html" title="半是秋聲半酒痕">
<div class="clearfix">
<img class="lazy" data-original="/cover/47821.jpg?s=2w3=d9dM"/>
<div class="li-content">
<h4>半是秋聲半酒痕</h4>
<p class="li-content-all">生命能夠繼續下去的原因就是，存在許多無法去除的事。這是一本接近現實，成長類的小說，裡面的每一個故事都貼近生活，可能你也經歷過，迷茫過，彷徨過，希望這本書可以帶給你共鳴和感悟，青春稍縱即逝，望我們都能珍惜。我是新人作家，沒有強力的文字功底，沒有華麗的辭藻，故事中也沒有跌宕起伏的穿越和異能幻術，希望小夥伴們看累了饕餮盛宴，能來到這裡品嘗一下素味小炒，也不失一種享受，希望大家多多鼓勵，你們的支持就是我創作的動力，我會每天抽出時間更新幾千字，不足之處請盡指出，本人悉心改正，謝謝大家。...</p>
<p class="li-content-author">作者：雲隱松濤</p></div>
</div>
</a>
</li>
<li class="li-ml-10">
<a href="/book/48792.html" title="NBA最強主教">
<div class="clearfix">
<img class="lazy" data-original="/cover/48792.jpg?s=WtX=cJZY"/>
<div class="li-content">
<h4>NBA最強主教</h4>
<p class="li-content-all">穿越到了2007年的NBA選秀大會上,還變成了手握狀元簽的開拓者主教練,現在擺在我面前的有兩個選項。
一,選擇眾望所歸的天才中鋒奧登。
二,選擇當時並不被人所看好的杜蘭特。
貌似全隊上到老闆下到廁所的掃地大媽,都覺得奧登才是全村人復興的希望,只有穿越來的我才知道他其實是個廢物。
額......其實我已經背著老闆選了杜蘭特,我想問的是,被球隊老闆和總經理拿刀追著砍該怎麼辦。
在線等,急!
（注,簡介僅供參考,請以內容為準。）...</p>
<p class="li-content-author">作者：升伯</p></div>
</div>
</a>
</li>
</ul>
<ul class="editor-article clearfix">
<li><span>[<a class="c-green" href="/list.php?cat=668" title="仙俠武俠小說線上看">仙俠武俠</a>]</span>
<a href="/book/61166.html" title="修仙從沙漠開始線上看">修仙從沙漠開始</a></li>
<li><span>[<a class="c-green" href="/list.php?cat=728" title="懸疑靈異小說線上看">懸疑靈異</a>]</span>
<a href="/book/50340.html" title="我的細胞遊戲線上看">我的細胞遊戲</a></li>
<li><span>[<a class="c-green" href="/list.php?cat=667" title="玄幻奇幻小說線上看">玄幻奇幻</a>]</span>
<a href="/book/51027.html" title="最初進化線上看">最初進化</a></li>
<li><span>[<a class="c-green" href="/list.php?cat=675" title="幻想時空小說線上看">幻想時空</a>]</span>
<a href="/book/74514.html" title="老祖渡劫失敗之後線上看">老祖渡劫失敗之後</a></li>
<li><span>[<a class="c-green" href="/list.php?cat=667" title="玄幻奇幻小說線上看">玄幻奇幻</a>]</span>
<a href="/book/48256.html" title="咫尺之間人盡敵國線上看">咫尺之間人盡敵國</a></li>
<li><span>[<a class="c-green" href="/list.php?cat=671" title="遊戲競技小說線上看">遊戲競技</a>]</span>
<a href="/book/88623.html" title="我投籃實在太准了線上看">我投籃實在太准了</a></li>
<li><span>[<a class="c-green" href="/list.php?cat=674" title="都市言情小說線上看">都市言情</a>]</span>
<a href="/book/66380.html" title="我的生活能開掛線上看">我的生活能開掛</a></li>
<li><span>[<a class="c-green" href="/list.php?cat=667" title="玄幻奇幻小說線上看">玄幻奇幻</a>]</span>
<a href="/book/44276.html" title="萬古最強宗線上看">萬古最強宗</a></li>
<li><span>[<a class="c-green" href="/list.php?cat=670" title="歷史軍事小說線上看">歷史軍事</a>]</span>
<a href="/book/19657.html" title="大清隱龍線上看">大清隱龍</a></li>
<li><span>[<a class="c-green" href="/list.php?cat=670" title="歷史軍事小說線上看">歷史軍事</a>]</span>
<a href="/book/62705.html" title="浴血逃兵線上看">浴血逃兵</a></li>
</ul>
</div>
<div class="rank-top fr" style="margin-top:19px;">
<div class="rank-header clearfix">人氣推薦</div>
<ul> <li>
<span class="cir cir01">1</span>
<div class="li-img clearfix" style="display:block">
<img src="/cover/54405.jpg?s=3onxdFYF"/>
<div class="li-img-right">
<h4>
<a class="c-666" href="/book/54405.html" title="我有一個特種兵系統">我有一個特種兵系統</a></h4>
<p class="author">鬼術妖姬</p>
<div class="content">
<span class="ells">穿越到《我是特種兵》的世界,得到特種兵系統輔助,他是當之......</span></div>
</div>
</div>
</li>
<li>
<a href="/book/47895.html" title="疾控檔案">
<span class="cir cir02">2</span>
<div class="li-article clearfix">
<span class="fl article-left">疾控檔案</span>
<span class="fr article-right">華胥雲</span></div>
</a>
</li>
<li>
<a href="/book/51287.html" title="玩家請自重">
<span class="cir cir02">3</span>
<div class="li-article clearfix">
<span class="fl article-left">玩家請自重</span>
<span class="fr article-right">余雲飛</span></div>
</a>
</li>
<li>
<a href="/book/61223.html" title="圍棋傳奇">
<span class="cir cir02">4</span>
<div class="li-article clearfix">
<span class="fl article-left">圍棋傳奇</span>
<span class="fr article-right">七死八活</span></div>
</a>
</li>
<li>
<a href="/book/50646.html" title="我有一群地球玩家">
<span class="cir cir02">5</span>
<div class="li-article clearfix">
<span class="fl article-left">我有一群地球玩家</span>
<span class="fr article-right">第七個魔方</span></div>
</a>
</li>
<li>
<a href="/book/63986.html" title="蓋世雙諧">
<span class="cir cir02">6</span>
<div class="li-article clearfix">
<span class="fl article-left">蓋世雙諧</span>
<span class="fr article-right">三天兩覺</span></div>
</a>
</li>
<li>
<a href="/book/50767.html" title="大良醫">
<span class="cir cir02">7</span>
<div class="li-article clearfix">
<span class="fl article-left">大良醫</span>
<span class="fr article-right">雪兒格格</span></div>
</a>
</li>
<li>
<a href="/book/57272.html" title="我願為你多錯一道題">
<span class="cir cir02">8</span>
<div class="li-article clearfix">
<span class="fl article-left">我願為你多錯一道題</span>
<span class="fr article-right">呦呦呦呦呦鹿</span></div>
</a>
</li>
<li>
<a href="/book/50284.html" title="綠茵傻腰">
<span class="cir cir02">9</span>
<div class="li-article clearfix">
<span class="fl article-left">綠茵傻腰</span>
<span class="fr article-right">金印</span></div>
</a>
</li>
<li>
<a href="/book/54664.html" title="低維革命">
<span class="cir cir02">10</span>
<div class="li-article clearfix">
<span class="fl article-left">低維革命</span>
<span class="fr article-right">肥瓜</span></div>
</a>
</li>
</ul>
<div class="more"><a href="/list.php?sort=1&amp;finish=0&amp;size=0&amp;tag=0" title="85小說網熱門免費小說推薦">更多&gt;&gt;</a></div>
</div>
</div>
<div class="clearfix" style="margin-top: 20px;">
<div class="editor-chief fl w827">
<div class="title-header clearfix">
<div class="header-common-left ">精品推薦</div>
</div>
<ul class="editor-ul clearfix">
<li class="li-ml-10">
<a href="/book/64647.html" title="漫威之電影大破壞">
<div class="clearfix">
<img class="lazy" data-original="/cover/64647.jpg?s=33nxdZYN"/>
<div class="li-content">
<h4>漫威之電影大破壞</h4>
<p class="li-content-all">開局撿到一隻緋紅,順便跟鋼鐵俠成為了生死仇敵,這畫風貌似有些不對啊?
好在自帶金手指,但是這個系統好像也有些不正常啊?
我要做個好人,為什麼全世界都在逼我?
漫威世界為主的單人無限流。...</p>
<p class="li-content-author">作者：永恆的恆星</p></div>
</div>
</a>
</li>
<li class="li-ml-10">
<a href="/book/79030.html" title="識謊者">
<div class="clearfix">
<img class="lazy" data-original="/cover/79030.jpg?s=moniYJYF"/>
<div class="li-content">
<h4>識謊者</h4>
<p class="li-content-all">年輕的心理學女教授韓泠悅，在一次外出旅遊的機會，結識了正在當地辦案的刑警隊長晏寒笙，因為她的睿智和專業得到了欣賞和肯定，於是攜手晏寒笙，和他所帶領的特案組，通過微表情的分析識破犯罪份子的謊言。
涼山之旅結束後，回到所在的城市，三個月後，又因為一場玫瑰花的葬禮，二人再次見面。
正式加入特案組之後，韓泠悅和晏寒笙通過自身的專業知識和睿智的頭腦，在一同查案，分析，審訊中，兩個人的感情也漸漸升溫。
韓泠悅對於晏寒笙的過往也漸漸的了解，並且深深的陷入其中，但他的身世，卻成了最大的秘密。
昔日伴隨著他成長的人和事，也成了他要破獲的最大的案子。
韓泠悅也用自己的溫暖來融化了晏寒笙心上的冰凍……
【一個可以識破謊言的少女，一個正直的警隊之星，他們攜手破獲了一個又一個案子……】...</p>
<p class="li-content-author">作者：南宮小主</p></div>
</div>
</a>
</li>
<li class="li-ml-10">
<a href="/book/74627.html" title="以契為證">
<div class="clearfix">
<img class="lazy" data-original="/cover/74627.jpg?s=H2n2aNYd"/>
<div class="li-content">
<h4>以契為證</h4>
<p class="li-content-all">在下莫問橙契約少女一枚，我有一把寶劍，雖然不會變大變小變漂亮，但裡面卻住著一位劍靈！
這讓我很害怕，因為我父母雙全還有個哥哥，沒系統不開掛這讓我如何控制劍靈？
壞了，我莫不是成了天選之人？要五弊三缺倒霉至極了？與其等他動手滅我，不如我先下手為強賣他！
御劍心:孩子，你想多了，我只是劍又不是凶劍！找個普通人養老而已你怕啥？咱們有契約為證，我萬萬不能反噬你全家，最多是在你賣我的時候微笑著替你數錢。
（前傳主探險＋兄妹日常，有完整故事鏈，正文主破案＋單元劇形式。）...</p>
<p class="li-content-author">作者：上善又水</p></div>
</div>
</a>
</li>
<li class="li-ml-10">
<a href="/book/76704.html" title="我有一個大世界">
<div class="clearfix">
<img class="lazy" data-original="/cover/76704.jpg?s=Gxnza9YN"/>
<div class="li-content">
<h4>我有一個大世界</h4>
<p class="li-content-all">高景意外得到了一枚銅錨。
這枚神奇的銅錨能夠將他傳送到另外一個世界。
一個大世界，所有的東西都要大十倍的世界。
高景的人生由此發生了翻天覆地的變化！...</p>
<p class="li-content-author">作者：沉入太平洋</p></div>
</div>
</a>
</li>
</ul>
<ul class="editor-article clearfix">
<li><span>[<a class="c-green" href="/list.php?cat=670" title="歷史軍事小說線上看">歷史軍事</a>]</span>
<a href="/book/51410.html" title="即鹿">即鹿</a></li>
<li><span>[<a class="c-green" href="/list.php?cat=675" title="幻想時空小說線上看">幻想時空</a>]</span>
<a href="/book/65392.html" title="敬酒不吃吃罰酒">敬酒不吃吃罰酒</a></li>
<li><span>[<a class="c-green" href="/list.php?cat=734" title="二次元小說線上看">二次元</a>]</span>
<a href="/book/72158.html" title="我真的不是氣運之子">我真的不是氣運之子</a></li>
<li><span>[<a class="c-green" href="/list.php?cat=667" title="玄幻奇幻小說線上看">玄幻奇幻</a>]</span>
<a href="/book/82272.html" title="狩魔獵人的煉金工房">狩魔獵人的煉金工房</a></li>
<li><span>[<a class="c-green" href="/list.php?cat=728" title="懸疑靈異小說線上看">懸疑靈異</a>]</span>
<a href="/book/76715.html" title="我在聊齋寫小說">我在聊齋寫小說</a></li>
<li><span>[<a class="c-green" href="/list.php?cat=672" title="科幻末世小說線上看">科幻末世</a>]</span>
<a href="/book/49411.html" title="龍城">龍城</a></li>
<li><span>[<a class="c-green" href="/list.php?cat=670" title="歷史軍事小說線上看">歷史軍事</a>]</span>
<a href="/book/50612.html" title="漢闕">漢闕</a></li>
<li><span>[<a class="c-green" href="/list.php?cat=668" title="仙俠武俠小說線上看">仙俠武俠</a>]</span>
<a href="/book/48976.html" title="仙道長青">仙道長青</a></li>
<li><span>[<a class="c-green" href="/list.php?cat=670" title="歷史軍事小說線上看">歷史軍事</a>]</span>
<a href="/book/76916.html" title="戰地醫生秦恩">戰地醫生秦恩</a></li>
<li><span>[<a class="c-green" href="/list.php?cat=671" title="遊戲競技小說線上看">遊戲競技</a>]</span>
<a href="/book/42937.html" title="最強妖鋒">最強妖鋒</a></li>
</ul>
</div>
<div class="rank-top fr" style="margin-top:19px;">
<div class="rank-header clearfix">讀者推薦</div>
<ul> <li>
<span class="cir cir01">1</span>
<div class="li-img clearfix" style="display:block">
<img src="/cover/64455.jpg?s=33n3ddYZ"/>
<div class="li-img-right">
<h4>
<a class="c-666" href="/book/64455.html" title="阿拉德的不正經救世主">阿拉德的不正經救世主</a></h4>
<p class="author">想吃大魚的貓</p>
<div class="content">
<span class="ells">別稱【教賽麗亞騙錢】【赫頓瑪爾熱心市民】【我已經看穿你了......</span></div>
</div>
</div>
</li>
<li>
<a href="/book/52585.html" title="董鏘鏘留德記">
<span class="cir cir02">2</span>
<div class="li-article clearfix">
<span class="fl article-left">董鏘鏘留德記</span>
<span class="fr article-right">Heiko</span></div>
</a>
</li>
<li>
<a href="/book/69483.html" title="你們練武我種田">
<span class="cir cir02">3</span>
<div class="li-article clearfix">
<span class="fl article-left">你們練武我種田</span>
<span class="fr article-right">哎喲啊</span></div>
</a>
</li>
<li>
<a href="/book/46545.html" title="諸天萬界神龍系統">
<span class="cir cir02">4</span>
<div class="li-article clearfix">
<span class="fl article-left">諸天萬界神龍系統</span>
<span class="fr article-right">維斯特帕列</span></div>
</a>
</li>
<li>
<a href="/book/50122.html" title="我的混沌城">
<span class="cir cir02">5</span>
<div class="li-article clearfix">
<span class="fl article-left">我的混沌城</span>
<span class="fr article-right">凌虛月影</span></div>
</a>
</li>
<li>
<a href="/book/40328.html" title="遊戲之狩魔獵人">
<span class="cir cir02">6</span>
<div class="li-article clearfix">
<span class="fl article-left">遊戲之狩魔獵人</span>
<span class="fr article-right">阡之陌一</span></div>
</a>
</li>
<li>
<a href="/book/53896.html" title="從道果開始">
<span class="cir cir02">7</span>
<div class="li-article clearfix">
<span class="fl article-left">從道果開始</span>
<span class="fr article-right">妖僧花無缺</span></div>
</a>
</li>
<li>
<a href="/book/49222.html" title="我，中國隊長">
<span class="cir cir02">8</span>
<div class="li-article clearfix">
<span class="fl article-left">我，中國隊長</span>
<span class="fr article-right">大頭文</span></div>
</a>
</li>
<li>
<a href="/book/63939.html" title="極夜玩家">
<span class="cir cir02">9</span>
<div class="li-article clearfix">
<span class="fl article-left">極夜玩家</span>
<span class="fr article-right">哇哦安度因</span></div>
</a>
</li>
<li>
<a href="/book/1335.html" title="慶余年">
<span class="cir cir02">10</span>
<div class="li-article clearfix">
<span class="fl article-left">慶余年</span>
<span class="fr article-right">貓膩</span></div>
</a>
</li>
</ul>
<div class="more"><a href="/list.php?sort=4&amp;finish=0&amp;size=0&amp;tag=0" title="85小說網小說推薦榜">更多&gt;&gt;</a></div>
</div>
</div>
<div class="clearfix" style="margin-top: 20px;">
<div class="editor-chief fl w827">
<div class="title-header clearfix">
<div class="header-common-left ">最新更新</div>
</div>
<ul class="least-update clearfix"> <li class="clearfix">
<span class="sort fl">[<a href="/list.php?cat=734" title="二次元小說線上看">二次元</a>]</span>
<a class="name fl" href="/book/90213.html" title="從海賊開始轉動磁場線上看">從海賊開始轉動磁場</a>
<a class="chapter fl" href="/book/90213/36079580.html" title="從海賊開始轉動磁場 178 大將就這水平？">178 大將就這水平？</a>
<span class="author fl">過喬s</span>
<span class="lastupdate fr">2021-01-13 09:03</span>
</li>
<li class="clearfix">
<span class="sort fl">[<a href="/list.php?cat=733" title="青春情感小說線上看">青春情感</a>]</span>
<a class="name fl" href="/book/90210.html" title="小青梅超萌噠線上看">小青梅超萌噠</a>
<a class="chapter fl" href="/book/90210/36077615.html" title="小青梅超萌噠 第883章 上來，哥哥帶你去海上浪">第883章 上來，哥哥帶你去海上浪</a>
<span class="author fl">梨萌魚</span>
<span class="lastupdate fr">2021-01-13 09:03</span>
</li>
<li class="clearfix">
<span class="sort fl">[<a href="/list.php?cat=673" title="古裝言情小說線上看">古裝言情</a>]</span>
<a class="name fl" href="/book/90174.html" title="鳳門嫡女線上看">鳳門嫡女</a>
<a class="chapter fl" href="/book/90174/36060146.html" title="鳳門嫡女 第1699章 合巹酒">第1699章 合巹酒</a>
<span class="author fl">意千重</span>
<span class="lastupdate fr">2021-01-13 09:03</span>
</li>
<li class="clearfix">
<span class="sort fl">[<a href="/list.php?cat=733" title="青春情感小說線上看">青春情感</a>]</span>
<a class="name fl" href="/book/90218.html" title="愛你是我最美的遇見線上看">愛你是我最美的遇見</a>
<a class="chapter fl" href="/book/90218/36081326.html" title="愛你是我最美的遇見 第一百二十章 真為她好？">第一百二十章 真為她好？</a>
<span class="author fl">簡雅萍</span>
<span class="lastupdate fr">2021-01-13 09:03</span>
</li>
<li class="clearfix">
<span class="sort fl">[<a href="/list.php?cat=675" title="幻想時空小說線上看">幻想時空</a>]</span>
<a class="name fl" href="/book/90217.html" title="絕色丹藥師線上看">絕色丹藥師</a>
<a class="chapter fl" href="/book/90217/36081010.html" title="絕色丹藥師 第249章 表裡不一師兄算計（1）">第249章 表裡不一師兄算計（1）</a>
<span class="author fl">水靈妖十二</span>
<span class="lastupdate fr">2021-01-13 09:03</span>
</li>
<li class="clearfix">
<span class="sort fl">[<a href="/list.php?cat=675" title="幻想時空小說線上看">幻想時空</a>]</span>
<a class="name fl" href="/book/90216.html" title="我其實很弱的線上看">我其實很弱的</a>
<a class="chapter fl" href="/book/90216/36080632.html" title="我其實很弱的 第一百七十八章 凌">第一百七十八章 凌</a>
<span class="author fl">是雙人徐啊</span>
<span class="lastupdate fr">2021-01-13 09:03</span>
</li>
<li class="clearfix">
<span class="sort fl">[<a href="/list.php?cat=669" title="都市娛樂小說線上看">都市娛樂</a>]</span>
<a class="name fl" href="/book/90214.html" title="開局一座動物園線上看">開局一座動物園</a>
<a class="chapter fl" href="/book/90214/36079950.html" title="開局一座動物園 第二百三十三章、紋身">第二百三十三章、紋身</a>
<span class="author fl">你的粥糊了</span>
<span class="lastupdate fr">2021-01-13 09:03</span>
</li>
<li class="clearfix">
<span class="sort fl">[<a href="/list.php?cat=667" title="玄幻奇幻小說線上看">玄幻奇幻</a>]</span>
<a class="name fl" href="/book/90215.html" title="絕代千寵之嬌女傾城線上看">絕代千寵之嬌女傾城</a>
<a class="chapter fl" href="/book/90215/36080100.html" title="絕代千寵之嬌女傾城 第27章 天有異象">第27章 天有異象</a>
<span class="author fl">系糖糖啊</span>
<span class="lastupdate fr">2021-01-13 09:03</span>
</li>
<li class="clearfix">
<span class="sort fl">[<a href="/list.php?cat=674" title="都市言情小說線上看">都市言情</a>]</span>
<a class="name fl" href="/book/90175.html" title="江太太恃寵而驕線上看">江太太恃寵而驕</a>
<a class="chapter fl" href="/book/90175/36062915.html" title="江太太恃寵而驕 第1225章 試著接受！">第1225章 試著接受！</a>
<span class="author fl">晴空舞</span>
<span class="lastupdate fr">2021-01-13 09:03</span>
</li>
<li class="clearfix">
<span class="sort fl">[<a href="/list.php?cat=671" title="遊戲競技小說線上看">遊戲競技</a>]</span>
<a class="name fl" href="/book/86842.html" title="失憶後總有大佬想娶我線上看">失憶後總有大佬想娶我</a>
<a class="chapter fl" href="/book/86842/36080073.html" title="失憶後總有大佬想娶我 464、護花使者">464、護花使者</a>
<span class="author fl">簾半卷</span>
<span class="lastupdate fr">2021-01-13 08:52</span>
</li>
<li class="clearfix">
<span class="sort fl">[<a href="/list.php?cat=667" title="玄幻奇幻小說線上看">玄幻奇幻</a>]</span>
<a class="name fl" href="/book/90212.html" title="實習除魔人線上看">實習除魔人</a>
<a class="chapter fl" href="/book/90212/36079397.html" title="實習除魔人 第二百四十章 柳無心">第二百四十章 柳無心</a>
<span class="author fl">月下對酌</span>
<span class="lastupdate fr">2021-01-13 08:52</span>
</li>
<li class="clearfix">
<span class="sort fl">[<a href="/list.php?cat=674" title="都市言情小說線上看">都市言情</a>]</span>
<a class="name fl" href="/book/90173.html" title="大佬你還有多少馬甲啊線上看">大佬你還有多少馬甲啊</a>
<a class="chapter fl" href="/book/90173/36058368.html" title="大佬你還有多少馬甲啊 第962章奇奇怪怪">第962章奇奇怪怪</a>
<span class="author fl">瀟灑大姐姐</span>
<span class="lastupdate fr">2021-01-13 08:42</span>
</li>
<li class="clearfix">
<span class="sort fl">[<a href="/list.php?cat=675" title="幻想時空小說線上看">幻想時空</a>]</span>
<a class="name fl" href="/book/81557.html" title="快穿之跟神仙談戀愛線上看">快穿之跟神仙談戀愛</a>
<a class="chapter fl" href="/book/81557/36080037.html" title="快穿之跟神仙談戀愛 撿只又又帶回家（23）">撿只又又帶回家（23）</a>
<span class="author fl">阿刁不刁呀</span>
<span class="lastupdate fr">2021-01-13 08:42</span>
</li>
<li class="clearfix">
<span class="sort fl">[<a href="/list.php?cat=675" title="幻想時空小說線上看">幻想時空</a>]</span>
<a class="name fl" href="/book/79983.html" title="電競大神是妻奴線上看">電競大神是妻奴</a>
<a class="chapter fl" href="/book/79983/36079981.html" title="電競大神是妻奴 375.不會是不敢了吧">375.不會是不敢了吧</a>
<span class="author fl">葉琉茶</span>
<span class="lastupdate fr">2021-01-13 08:42</span>
</li>
<li class="clearfix">
<span class="sort fl">[<a href="/list.php?cat=668" title="仙俠武俠小說線上看">仙俠武俠</a>]</span>
<a class="name fl" href="/book/64436.html" title="我家妹妹絕對不是普通人線上看">我家妹妹絕對不是普通人</a>
<a class="chapter fl" href="/book/64436/36079985.html" title="我家妹妹絕對不是普通人 第九百五十二章 輕而易舉～！">第九百五十二章 輕而易舉～！</a>
<span class="author fl">短髮女鬼</span>
<span class="lastupdate fr">2021-01-13 08:42</span>
</li>
</ul>
</div>
<div class="rank-top fr" style="margin-top:19px;">
<div class="rank-header clearfix">最新入庫</div>
<ul> <li>
<span class="cir cir01">1</span>
<div class="li-img clearfix" style="display:block">
<img src="/cover/90218.jpg?s=GlHlaJaF"/>
<div class="li-img-right">
<h4>
<a class="c-666" href="/book/90218.html" title="愛你是我最美的遇見">愛你是我最美的遇見</a></h4>
<p class="author">簡雅萍</p>
<div class="content">
<span class="ells">白天的他有多溫柔，夜晚的他就有多殘暴。
一步步的靠近，卻......</span></div>
</div>
</div>
</li>
<li>
<a href="/book/90216.html" title="我其實很弱的">
<span class="cir cir02">2</span>
<div class="li-article clearfix">
<span class="fl article-left">我其實很弱的</span>
<span class="fr article-right">是雙人徐啊</span></div>
</a>
</li>
<li>
<a href="/book/90217.html" title="絕色丹藥師">
<span class="cir cir02">3</span>
<div class="li-article clearfix">
<span class="fl article-left">絕色丹藥師</span>
<span class="fr article-right">水靈妖十二</span></div>
</a>
</li>
<li>
<a href="/book/90215.html" title="絕代千寵之嬌女傾城">
<span class="cir cir02">4</span>
<div class="li-article clearfix">
<span class="fl article-left">絕代千寵之嬌女傾城</span>
<span class="fr article-right">系糖糖啊</span></div>
</a>
</li>
<li>
<a href="/book/90214.html" title="開局一座動物園">
<span class="cir cir02">5</span>
<div class="li-article clearfix">
<span class="fl article-left">開局一座動物園</span>
<span class="fr article-right">你的粥糊了</span></div>
</a>
</li>
<li>
<a href="/book/90213.html" title="從海賊開始轉動磁場">
<span class="cir cir02">6</span>
<div class="li-article clearfix">
<span class="fl article-left">從海賊開始轉動磁場</span>
<span class="fr article-right">過喬s</span></div>
</a>
</li>
<li>
<a href="/book/90212.html" title="實習除魔人">
<span class="cir cir02">7</span>
<div class="li-article clearfix">
<span class="fl article-left">實習除魔人</span>
<span class="fr article-right">月下對酌</span></div>
</a>
</li>
<li>
<a href="/book/90211.html" title="原來我是隱世仙人">
<span class="cir cir02">8</span>
<div class="li-article clearfix">
<span class="fl article-left">原來我是隱世仙人</span>
<span class="fr article-right">悟音子</span></div>
</a>
</li>
<li>
<a href="/book/90210.html" title="小青梅超萌噠">
<span class="cir cir02">9</span>
<div class="li-article clearfix">
<span class="fl article-left">小青梅超萌噠</span>
<span class="fr article-right">梨萌魚</span></div>
</a>
</li>
<li>
<a href="/book/90209.html" title="全球神祇之無限提取">
<span class="cir cir02">10</span>
<div class="li-article clearfix">
<span class="fl article-left">全球神祇之無限提取</span>
<span class="fr article-right">十連抽</span></div>
</a>
</li>
</ul>
<div class="more"><a href="/list.php?sort=7&amp;finish=0&amp;size=0&amp;tag=0" title="85小說網最新小說推薦榜">更多&gt;&gt;</a></div>
</div>
</div>
</div>
</div>
<div class="index-footer" style="color:wheat;">
<div class="container">
<span>友情鏈接：</span>
</div>
</div>
<div class="pin-nav-wrap " id="pin-nav">
<div class="box-center cf">
<a href="/"><img alt="85度c小說網" class="logo-home" src="/images/logo-2.png" title="85小說網免費小說線上看"/></a>
<div class="nav-list site-nav fl">
<ul>
<li><a href="/list.php" title="最新免費小說">書庫</a></li>
<li><a href="/top.php" title="免費小說排行榜">排行</a></li>
<!--<li><a href="/mall/index.php" style="color: #fff900;" title="領紅包再購買,淘寶更優惠">淘折扣</a></li>-->
</ul>
</div>
<div class="nav-list min-user fr">
<ul>
<li id="min-search">
<form action="/search.php" id="formUrl" method="get" target="_blank">
<label for="topSearchSubmit" id="pin-search"><em class="iconfont icon-search2"></em></label>
<input class="pin-input hide" name="k" placeholder="找書、找作者" type="text"/>
<input class="submit-input" id="topSearchSubmit" type="submit"/></form>
</li>
<li class="sign-out"><a class="header-right" href="javascript:showLogin();">用戶登錄</a>
<div class="login_other fr">
<!-- <a href="/user/auth/weibo/index.aspx" class="weibo"></a> -->
<!-- <a href="/user/auth/wechat/index.aspx" class="weixin"></a> -->
</div>
<script>var uid=0;var _mybk=new Array();var _mybkc=new Array();</script></li>
</ul>
</div>
</div>
</div>
<div class="novel-footer">
<div class="container clearfix">
<div class="fl">
<div class="link">
<p>
                    Copyright (C) 2013-2020 <a href="https://www.85novel.com/" title="85小說網免費小說線上看">85小說</a> All Rights Reserved <br/>
                    本站所收錄作品、小區話題、書庫評論及本站所做之廣告均屬其個人行為，與本站立場無關
                </p>
</div>
</div>
<div class="link fr text-right">
<p>
                客服郵箱：3311985783#qq.com        
                客服QQ：3311985783 <br/>
<a href="/updatelogs.php" target="_blank">更新日誌</a>
</p>
</div>
<div style="display: none"><script language="JavaScript" src="https://s9.cnzz.com/z_stat.php?id=5122129&amp;web_id=5122129"></script></div>
</div>
</div>
<script type="text/javascript">
    $(function () {
        $("img.lazy,img.lazy-original").lazyload({effect: "fadeIn"});
    });
</script><script type="text/javascript">
    $(function () {
        $(document).on("click", "#subscription .js-click-date,#newBook .js-click-date,#finerecommendation .js-click-date,#headerlist .js-list", function () {
            $(this).addClass("on").siblings().removeClass("on");
        });
        $(".imgs a.small-img").mouseover(function () {
            var i = $(this).index() - 1;
            var src = $(this).find("img").attr("lcsrc");
            var alt = $(this).find("img").attr("alt");
            var href = $(this).attr("href");
            $(this).addClass("on").siblings("a").removeClass("on");
            $(this).parents(".container-left").find(".left-bot").eq(i).show().siblings(".left-bot").hide();
            $(".imgs a.big-img img").attr("src", src);
            $(".imgs a.big-img img").attr("alt", alt);
            $(".imgs a.big-img").attr("href", href)
        })
    });
</script>
</body>
</html>
