<html><head><script language="JavaScript">
<!--
button1= new Image();
button1.src = "Grafik/B-GC.png"
button2= new Image();
button2.src = "Grafik/B-GC-on.png"
button3= new Image();
button3.src = "Grafik/B-Modellbau.png"
button4= new Image();
button4.src = "Grafik/B-Modellbau-on.png"
button5= new Image();
button5.src = "Grafik/B-Fahrzeuge.png"
button6= new Image();
button6.src = "Grafik/B-Fahrzeuge-on.png"
//-->
</script>
<meta content="text/html; charset=utf-8" http-equiv="Content-Type"/>
<meta content="Tue, 01 feb 1999 0:0:3 GMT" http-equiv="expires"/>
<meta content="Microsoft FrontPage 5.0" name="GENERATOR"/>
<meta content="Stefan Kern" name="author"/>
<meta content="Stefan's Homepage" name="description"/>
<meta content="GC Geocaching Bodensee Oberschwaben Eisenbahn Modellbau Harley " name="keywords"/>
<meta content="INDEX,FOLLOW" name="robots"/>
<title>Stefan's Homepage</title>
<style type="text/css">


.user #guest_form div strong {
	font-family: Tahoma, Geneva, sans-serif;
	font-size: 12px;
	color: #CCC;
}

body {
	background-color: #4E5869;
    background-image: url(Grafik/wall.jpg);
	background-repeat: no-repeat;
	background-attachment: fixed;
	background-position: center;
	font-size: 11px;
	font-family: Tahoma, Geneva, sans-serif;
	color: #CCC;
	       }
	  
* {
  margin: 0;
  padding: 0;
}

img { border:0;
}

</style>
</head><body>
<div align="center">
<table border="0" width="1000">
<tr>
<td colspan="3">
<p align="center"><a href="index.html"><img height="410" src="Grafik/avatar.png" width="475"/></a></p>
</td>
</tr>
<tr>
<td width="334">
<p align="Top"></p></td>
<td height="140" width="328"><p align="top"><img align="middle" height="140" src="Grafik/Update.png" width="330"/>
</p><p align="top"></p></td>
<td width="324"><p align="top"></p></td>
</tr>
<tr>
<td width="334">
<p align="center"><a href="Fahrzeuge.html" onmouseout="austausch3.src='Grafik/B-Fahrzeuge.png';" onmouseover="austausch3.src='Grafik/B-Fahrzeuge-on.png';"><img alt="" border="0" name="austausch3" src="Grafik/B-Fahrzeuge.png"/></a></p></td>
<td width="328"><p align="center"><a href="gc.html" onmouseout="austausch1.src='Grafik/B-GC.png';" onmouseover="austausch1.src='Grafik/B-GC-on.png';"><img alt="" border="0" name="austausch1" src="Grafik/B-GC.png"/></a></p></td>
<td width="324"><p align="center"><a href="modellbau.html" onmouseout="austausch2.src='Grafik/B-Modellbau.png';" onmouseover="austausch2.src='Grafik/B-Modellbau-on.png';"><img alt="" border="0" name="austausch2" src="Grafik/B-Modellbau.png"/></a></p></td>
</tr>
<tr>
<td width="334"></td>
<td width="328"></td>
<td width="324"></td>&gt;
  </tr>
<tr>
<td width="334">
<p align="center"></p></td>
<td width="328"><p align="center"></p></td>
<td width="324"><p align="center"></p></td>&gt;
  </tr>
</table>
</div>
</body></html>