<!DOCTYPE html>
<html>
<head>
<meta charset="utf-8"/>
<meta content="initial-scale=1.0, user-scalable=0, minimum-scale=1.0, maximum-scale=1.0" name="viewport"/>
<meta content="pc,mobile" name="applicable-device"/>
<meta content="no-transform" http-equiv="Cache-Control"/>
<meta content="no-siteapp" http-equiv="Cache-Control"/>
<meta content="æåº§ãæåº§æ¸¬è©¦ãæåº§ç¶²ãæåº§éç¨ãæåº§å åãå¿çæ¸¬è©¦ãæåº§éå¢" name="keywords"/>
<meta content="å°æ¥­çæåº§è³è¨ç«é»,åè²»çºæ¨æä¾åäºæåº§ãæåº§æ¸¬è©¦ãæåº§ç©èªãæåº§æç·£ãåäºçèãæåº§è¡åãå¡ç¾çå åãå¨å¬è§£å¤¢ãæåº§åçç­æåº§è³è¨ï¼åæå¥½çæåº§å¿çæ¸¬è©¦ãæåº§æ¥è©¢ãæåº§éå°ãæ¯æ¥åäºæåº§éç¨æ¥è©¢æåº§ç¶²ç«ã" name="description"/>
<title>æåº§æ´¾å°,åäºæåº§ç¶²,æåº§æ¥è©¢,æåº§éå°,12æåº§æ¸¬è©¦,æåº§éå¢-å°æ¥­å ææåå³æ­ç¶²ï¼</title>
<link href="/v2018/css/v2018_global.css" rel="stylesheet" type="text/css"/>
<link href="/v2018/css/suit_li3.css" rel="stylesheet" type="text/css"/>
<script src="/v2018/js/v2018_global.js" type="text/javascript"></script>
</head>
<body>
<div class="paiduis">
<div class="xingzuo_top">
<div class="top_1">
<div class="logo">
<a href="/">æåº§ç¶²</a>
</div>
<div class="map">
<a href="/tag.php">ç¶²ç«å°å</a>
</div>
</div>
<div class="top_2">
<ul>
<li><a href="/">è¿åé¦é </a></li>
<li><a href="/xingzuo/12xingzuo/">åäºæåº§</a></li>
<li><a href="/xingzuo/xingzuowuyu/">æåº§ç©èª</a></li>
<li><a href="/hdjr.php">é»æ­·æ¥è©¢</a></li>
</ul>
<ul>
<li><a href="/xingzuo/xingzuoqingyuan/">æåº§æç·£</a></li>
<li><a href="/xingzuo/12shengxiao/">åäºçè</a></li>
<li><a href="/xingzuo/xingzuoxuexing/">æåº§è¡å</a></li>
<script type="text/javascript">module_link_1();</script>
</ul>
</div>
<div class="top_3">
<h1>æåº§æ´¾å°</h1>
</div>
</div>
<div class="clear"></div>
<div class="xz_4">
<script type="text/javascript">module_xz_1();</script>
</div>
<div class="xz_2">
<div class="xz2_title">
<a href="/xingzuo/mianfeiqiming/35063.html"><strong>éå§çèå±¬è±¬å¯¶å¯¶èµ·åå¤§å¨ï¼éå§ å¯¶å¯¶</strong></a>
</div>
<div class="xz2_text">
<p><a href="/xingzuo/mianfeiqiming/35063.html"><strong>éå§çèå±¬è±¬å¯¶å¯¶èµ·åå¤§å¨ï¼éå§ å¯¶å¯¶</strong></a></p>
éèæ´éä¸å¹³éçè­éå¥æ­¥éæåéæ¥æµ·éäº¬æéè±ªåéçé¯éå­æéæ¿ééçªéæ¾¤é½éç¥è°éççéæ¶µçéå®ééééæ¶è¼éåè¼éå°å®¹éæ²éé£é£éç¥æ£éæçéåéèéæ¶µè°·éææ¯éå´ç·¯éæä¿¡éç´«å®¸éèèéæ¸¯éå¤§æ°éæè³¢éç¦¹ä¸éç¦çéèæéæ¯ééç§ç§é
		</div>
</div> <div class="xz_2">
<div class="xz2_title">
<a href="/xingzuo/baziqiming/35062.html"><strong>ä»å§ç·å­©ååï¼ä»å§çèå±¬è±¬å¯¶å¯¶èµ·å</strong></a>
</div>
<div class="xz2_text">
<p><a href="/xingzuo/baziqiming/35062.html"><strong>ä»å§ç·å­©ååï¼ä»å§çèå±¬è±¬å¯¶å¯¶èµ·å</strong></a></p>
ä»ç±³æ¬£ä»ç½ä»»ä»æ²»å·ä»é£å®ä»çè·ä»æ¯ç¿ä»é²ä»ç¾½æä»å½¥éä»ç¿å¤ä»æ¥èä»èè¼ä»çå¥³ä»è®ä»èä»ç§è»ä»è³èä»ç­ é¯ä»è¬¾å¸ä»æºæ¦®ä»æ°æ¶ä»ä¿è»ä»éå¤©ä»ä»¥é·ä»ç±åä»æå²ä»å­è°ä»å©æ ¹ä»ç©é£ä»å¢åä»å°æ¦®ä»æ± æ¯ä»æ¿æ­¦ä»æé¦ä»ç¾½æ¨ä»åæ¦®ä»å®¶äº¨ä»äºå¨ä»é®é«ä»æ·å©ä»
		</div>
</div> <div class="xz_2">
<div class="xz2_title">
<a href="/xingzuo/nvhaiqiming/35061.html"><strong>é¹¹å§ å¥½è½ï¼é¹¹å§å¯¶å¯¶åå</strong></a>
</div>
<div class="xz2_text">
<p><a href="/xingzuo/nvhaiqiming/35061.html"><strong>é¹¹å§ å¥½è½ï¼é¹¹å§å¯¶å¯¶åå</strong></a></p>
é¹¹æ¶µå©é¹¹å©å¦é¹¹åºå©§é¹¹ä½©ç´é¹¹æéé¹¹åæé¹¹æ°¸ç´é¹¹æçé¹¹æ·éé¹¹ææ½¼é¹¹æè¿ªé¹¹æ¡ä¹é¹¹æ¶åªé¹¹å©·é¹¹æ¢éªé¹¹ç´¹ç´é¹¹é£è·é¹¹ç²ä¿é¹¹èèé¹¹å©éé¹¹å¾ç³é¹¹ç»ç²é¹¹ç¿ èé¹¹çè³é¹¹éç¤é¹¹å¦å¯§é¹¹å©·å©·é¹¹è¶ç³é¹¹è©çé¹¹ç¾½åé¹¹ç¥ºå©·é¹¹å»ºæ¢é¹¹ç²ç¾é¹¹é«ç¤é¹¹ç§èé¹¹ä¹éé¹¹æè³é¹¹é¦¨å¦é¹¹æè·é¹¹é
		</div>
</div> <div class="xz_2">
<div class="xz2_title">
<a href="/xingzuo/qimingziku/35060.html"><strong>æå§ç·å­©å¥½åå­å¤§å¨ï¼å§æç·å­©èµ·åå¤§å¨</strong></a>
</div>
<div class="xz2_text">
<p><a href="/xingzuo/qimingziku/35060.html"><strong>æå§ç·å­©å¥½åå­å¤§å¨ï¼å§æç·å­©èµ·åå¤§å¨</strong></a></p>
æååæå®é«æåæææä»éæå¨æ³¢æå®æ¸ææ·»èª¼æå¿æ¦®æèæå­èæä½³å¯§æé·ºé¶¯ææ¨ææé»èæçå¤©æçå¿æéåæçèæåä¸æå°ç±³æç¥¥åææ¾æ¹æå±¹å®¸æèç©æç§ç½æååæççææææä½³éºæå¶åæèªè¥ææ²³ç£ææ´ªå®æè¯å®æèæå¿ è²´æéé´»æä½³ææç«è±ªææ¬£
		</div>
</div> <div class="xz_2">
<div class="xz2_title">
<a href="/xingzuo/qumingchaxun/35059.html"><strong>å§ç§çåå­ï¼ç§å§èµ·åå­åº«å¤§å¨</strong></a>
</div>
<div class="xz2_text">
<p><a href="/xingzuo/qumingchaxun/35059.html"><strong>å§ç§çåå­ï¼ç§å§èµ·åå­åº«å¤§å¨</strong></a></p>
ç§åµç§é¨é»ç§å±±å¯ç§æ°¸èç§æ»ç§èçç§çéç§å¸çç§åç§åæ´ªç§æ ç ç§åéç§æ¶é¯ç§æ©å¥ç§åå¿ç§åæ¤ç§è±è¯ç§æ¿è¾ç§æç¿ç§èæºªç§æ¥ä¸¹ç§æ æ¶µç§å´ ç§çè®ç§å±æ¹ç§ä¸æç§æ¸é¾ç§åå¢ç§ç«åªç§é¸å¡ç§å­éºç§ä½³è»ç§éºç§ååº·ç§è·èç§æ®¿åç§éºå¥ç§éªå¦ç§æ³³é´»ç§æ³³é´»ç§è¹å®
		</div>
</div> <div class="xz_2">
<div class="xz2_title">
<a href="/xingzuo/qimingziku/35058.html"><strong>é³å§å¯¶å¯¶ååå¤§å¨ï¼é³å§èµ·æº</strong></a>
</div>
<div class="xz2_text">
<p><a href="/xingzuo/qimingziku/35058.html"><strong>é³å§å¯¶å¯¶ååå¤§å¨ï¼é³å§èµ·æº</strong></a></p>
é³é¸æµ·é³æ¬ä¹é³é£æ­é³ç¨æ¨é³é³é³è³ç«¹é³åº­èé³é¨å¿»é³éé¾é³ç¾çé³è·ç¦§é³ç¥é³äº®é³ä¿ é³è£å¯é³å­å¼é³æ¸é²é³ç¾éºé³èè±é³å¹è´é³åç¬é³æ³ä¾é³æ±å¼·é³æ¼¾é³æ»å¤©é³é¨è²é³ç¾èé³æ°è¯é³æé«é³æ°ç¶é³ç´«çªé³æ·åé³æ°èªé³æ½¤ä¸é³åéé³ç¶­ä½³é³æç§¦é³å²è¤é³äºé³æ±ç¨é³é å³°é³
		</div>
</div> <div class="xz_2">
<div class="xz2_title">
<a href="/xingzuo/nanhaiqiming/35057.html"><strong>ç·´å§ç·å­©å¥½åå­å¤§å¨ï¼å§ç·´çèµ·ä»éº¼åå­å¥½</strong></a>
</div>
<div class="xz2_text">
<p><a href="/xingzuo/nanhaiqiming/35057.html"><strong>ç·´å§ç·å­©å¥½åå­å¤§å¨ï¼å§ç·´çèµ·ä»éº¼åå­å¥½</strong></a></p>
ç·´æºçç·´æå²ç·´èµ«åç·´æµ·åç·´å­å¯§ç·´æ°ç·´å©è¶ç·´ç«¥èªç·´ä¸æ¡ç·´æµ·ç·´é«é¾ç·´çéç·´å¯¬è¾°ç·´åç·´æ¦é²ç·´åç·´å»ºè¯ç·´èæ·¼ç·´æ·³æµ©ç·´å»ºæç·´ææ¡ç·´åæ°§ç·´å»ºé£ç·´å®ç¶ç·´é¦åµç·´å±æ¡ç·´å»¶éç·´åä¿ç·´æ¿æ¾¤ç·´æå®ç·´æ¥åç·´å²æºç·´é«é·ç·´æ¥åç·´å®åç·´å¹ç¥¥ç·´æç¥ç·´è£¡ä¸ç·´ç®ç·´é»¨åç·´ä½³æ¨
		</div>
</div> <div class="xz_2">
<div class="xz2_title">
<a href="/xingzuo/nanhaiqiming/35056.html"><strong>å§ä¼å¯¶å¯¶ååï¼ä¼å§ å¥½è½</strong></a>
</div>
<div class="xz2_text">
<p><a href="/xingzuo/nanhaiqiming/35056.html"><strong>å§ä¼å¯¶å¯¶ååï¼ä¼å§ å¥½è½</strong></a></p>
ä¼éªå¥ä¼æ½¤åä¼æ°¸æä¼å®¶æä¼æ°¸å±±ä¼æµ©å³»ä¼èåä¼æçä¼è¬éä¼å®¶æ·±ä¼ç¥æä¼è±åä¼çåä¼å¸å­¸ä¼èæ·ä¼å¹é³´ä¼æµ·ä¼å¤©ç¿ä¼è¥ä¼æµ©æµ·ä¼ç¿ ç¿ ä¼æ¨å«»ä¼é¸ä¼ç¾æ¨ä¼èçä¼è­è­ä¼æ¬éä¼å±¹æä¼æ¢å®£ä¼äº®äº®ä¼çä¼ç´«æ¶µä¼æå±ä¼åä¸ä¼ç¥ºç¥ºä¼é©ç¿°ä¼ç¿åä¼èª ä¼å¤©ç©ºä¼å¯¶çä¼é¨«å±±
		</div>
</div> <div class="xz_2">
<div class="xz2_title">
<a href="/xingzuo/zaixianqiming/35055.html"><strong>ç¿å§èµ·åå­åº«ï¼ç¿å§çèå±¬è±¬å¯¶å¯¶ååå¤§å¨</strong></a>
</div>
<div class="xz2_text">
<p><a href="/xingzuo/zaixianqiming/35055.html"><strong>ç¿å§èµ·åå­åº«ï¼ç¿å§çèå±¬è±¬å¯¶å¯¶ååå¤§å¨</strong></a></p>
ç¿éè³ç¿å»·æç¿æ¹ç³ç¿æ«»å©ç¿å­å¦ç¿å»ºéºç¿å©­èç¿æ·æç¿æ¡è¶ç¿èç¿ç¾å©·ç¿è¬ç²ç¿å®å¨¥ç¿åè·ç¿åè±ç¿éæ¡ç¿æ è±ç¿æ¸è³ç¿ç¹¼ç´ç¿éè¹ç¿åè³ç¿æ±èç¿åæ¢ç¿å»·çç¿æ§å¦ç¿èç§ç¿æ³æ¢ç¿çåç¿å©­èç¿å®å¨ç¿è¡è³ç¿æ¡å®¹ç¿ææç¿ä¿ç¾ç¿ææç¿æç´ç¿æ¸æ¡ç¿è¿¦æ¡ç¿é·çç¿æ
		</div>
</div> <div class="xz_2">
<div class="xz2_title">
<a href="/xingzuo/qumingchaxun/35054.html"><strong>å§å·«æå¥½è½çåå­ï¼å·«å§èµ·æº</strong></a>
</div>
<div class="xz2_text">
<p><a href="/xingzuo/qumingchaxun/35054.html"><strong>å§å·«æå¥½è½çåå­ï¼å·«å§èµ·æº</strong></a></p>
å·«å»ºèå·«é¢¯è±å·«å¿ç´å·«å©å¨å·«å¿æ¢å·«å­å©å·«å¤©æ¡å·«æ¥éå·«ä»¥è¬å·«ååªå·«å©è±å·«æ±å©·å·«çå©·å·«æç²å·«å¦å«£å·«è²ç³å·«ç´ ç´å·«æ´éªå·«èæ¥¹å·«æ å¨å·«ç¤«å¨å·«æ¡æ±å·«æ¡è·å·«éç´å·«èç¾å·«æ²åå·«ç±³å©§å·«ç©å¦å·«æ°¸ç´å·«æ´¥å¦å·«æ¶µæå·«æ¡èå·«åè±å·«æ°¸è·å·«å®¹çå·«æ°è³å·«å¿»æå·«ç³æå·«å»ºæå·«
		</div>
</div>
<div class="xz_2">
<div class="xz2_title">
<a href="/xingzuo/baobaoquming/31157.html"><strong>å§ç¥æå¥½è½çåå­ï¼ç¥å§ç·å­©èµ·åå­å¤§å¨</strong></a>
</div>
<div class="xz2_text">
<p><a href="/xingzuo/baobaoquming/31157.html"><strong>å§ç¥æå¥½è½çåå­ï¼ç¥å§ç·å­©èµ·åå­å¤§å¨</strong></a></p>
ç¥æç¥ç²ç¥æ¼¢ç¾©ç¥å¥ç¥ä½³æ·ç¥æ·ç¥æé³´ç¥å¥èªç¥æ¥é²ç¥éå®ç¥å¤æºç¥æ­£æµ©ç¥èç¥éºæµ·ç¥æ¶ç¥åéç¥éºäºç¥ç©æ³ ç¥åé½ç¥åè¯ç¥ä¸­ç¥å®¶ç¾ç¥å®å½¤ç¥åäº®ç¥çé³´ç¥å­£é¯ç¥å³»è±ªç¥æåç¥æ ©ç¥è¥æ°´ç¥ç¿°æç¥æ¸ç¥åæ³¢ç¥æ¢åç¥éµ¬èç¥ä¼å¡ç¥çæ¥ ç¥å¿èªç¥æ¦ä¹ç¥å®å·ç¥æ¯èç¥èèç¥
		</div>
</div> <div class="xz_2">
<div class="xz2_title">
<a href="/xingzuo/xingzuowuyu/11-2-1.htm"><strong>(éé­åº§,å¯è,Aåè¡)</strong></a>
</div>
<div class="xz2_text">
<p><a href="/xingzuo/xingzuowuyu/11-2-1.htm"><strong>(éé­åº§,å¯è,Aåè¡)</strong></a></p>
æº«åï¼ææè±å¯ï¼ä½ç¼ºä¹æµªæ¼«çæèª¿ãéé­çäººå¾é¨åï¼åè¡å¾æº«åï¼å°äººå¾åè¯ï¼ææä¸æèè±å¯çæ³åï¼é¨åèä¸æº«ææè®ä½ å¢æ·»è¨±å¤çç°æ§ç·£ï¼ä½å±¬èä¸æç½ææä¸­æèª¿çéè¦æ§ï¼ä¹ç¼ºä¹ä¸äºæµªæ¼«çæ³æ³ï¼èªçºæå°±æ¯æï¼ç¨å¿å»æå°±è¡äºï¼ä¸éè¦é£äºæµªæ¼«ä¾é»ç¶´
		</div>
</div> <div class="xz_2">
<div class="xz2_title">
<a href="/xingzuo/qumingchaxun/33605.html"><strong>æ°´å§ç·å­©å§åå¤§å¨ï¼å§æ°´çååå­</strong></a>
</div>
<div class="xz2_text">
<p><a href="/xingzuo/qumingchaxun/33605.html"><strong>æ°´å§ç·å­©å§åå¤§å¨ï¼å§æ°´çååå­</strong></a></p>
æ°´å®¶åµæ°´æå æ°´é£æ¡æ°´åçæ°´ç¹¹æ°´ææ°´ç§çæ°´éææ°´é¨æ°´ä¸é³´æ°´åæ°æ°´è¡æ°´é¨è¡¡æ°´å¡µå°æ°´éæ°´é¦¨èæ°´å¤©ä»æ°´æµ·å³°æ°´èéæ°´é¦¨é¨æ°´ä½³æ¯æ°´è±«åªæ°´èä»æ°´è©©éºæ°´èé¨æ°´ä¸æ°´å©åæ°´æ¥çæ°´æ­£ææ°´éé¿æ°´æ¢­å¹æ°´èçªæ°´è£çæ°´åå¼·æ°´äºæ°´æ·æ¿±æ°´å½¬æ·æ°´éææ°´æ¿æ¸æ°´å¬å¬æ°´å¼å¤§æ°´å¯¬
		</div>
</div> <div class="xz_2">
<div class="xz2_title">
<a href="/xingzuo/baobaoquming/26681.html"><strong>å²å§ç·å­©èµ·åå¤§å¨ï¼å²å§çç±ä¾</strong></a>
</div>
<div class="xz2_text">
<p><a href="/xingzuo/baobaoquming/26681.html"><strong>å²å§ç·å­©èµ·åå¤§å¨ï¼å²å§çç±ä¾</strong></a></p>
å²å®æ¾å²ä¸¹æ¥å²å¿è»å²å¯¶è¯å²å¿æ±å²æ¿°ç¿°å²å¤å²æ°ç³å²ææå²å¼çå²æº¶æ«»å²æ­å¸­å²é¦¨é½å²ç´«çå²å­éå²å¿å½ªå²é»æ³å²æéå²ååå²æ¬£æ¡å²æ·»é½å²å¤¢æ¬£å²çæ¾å²ä¼¶ä¿å²è¡¡å²å¤å²å±±å²çè³å²èæ»¿å²éµ¬é£å²ææ¡å²å¯å²è²ç¾å²ç¤«æµ¦å²èä»å²æµ·ç¿°å²é¶´æ¥å²ä¸æ·³å²å¤©è¯å²éå¼å²ç¶­è°
		</div>
</div> <div class="xz_2">
<div class="xz2_title">
<a href="/xingzuo/xingzuoqingyuan/xingzuogushi/3804.html"><strong>ä»éº¼æ¨£çäººå©å§»æå¤±æ</strong></a>
</div>
<div class="xz2_text">
<p><a href="/xingzuo/xingzuoqingyuan/xingzuogushi/3804.html"><strong>ä»éº¼æ¨£çäººå©å§»æå¤±æ</strong></a></p>
æå©å§»å°å®¶å°ä¸ç¾å°é¢ç°å¤«å¦»é²è¡äºèª¿æ¥ç ç©¶ï¼ç¼ç¾éæ¨£çäººå©å§»æå¤±æï¼ãéåº¦æµªæ¼«çäººãä»å¥¹åå°å©å§»çæ´»çææéé«ï¼å°ä¼´ä¾¶è¦æ±éé«ããéåä¾è³´ç¶æ¯çäººãéé¡äººå¨å¿æä¸å°æªæçï¼å©å§»çæ´»ä¸­ä¸åºç¾åé¡ï¼å°±åèªå·±çç¶æ¯æ±æ´ï¼ä¸æåä¼´ä¾¶ä¸èµ·è¨­æ³è§£æ±ºã
		</div>
</div> <div class="xz_2">
<div class="xz2_title">
<a href="/xingzuo/xingzuowuyu/8-20.htm"><strong>è»åå­èç³ï¼Cherry Leaf Cakeï¼ - 8æ20æ¥</strong></a>
</div>
<div class="xz2_text">
<p><a href="/xingzuo/xingzuowuyu/8-20.htm"><strong>è»åå­èç³ï¼Cherry Leaf Cakeï¼ - 8æ20æ¥</strong></a></p>
æ¥å­ï¼ææ¥å·§ååï¼è»åå­èç³ï¼ï¼æä»½ï¼æ¿å·§ååéè»åå­èèç³ç¹æ§ï¼åèèªæçæ¥å åï¼åçæ´»ç°å¢å½±é¿åä»¥å¾çç¶é©æè¨ï¼ä½ è®å¾è¶ä¾è¶ç´æ¥åæå¾æ§å¶èªå·±çæç·ï¼å°å¿äºéä¸åèèµ·ä¾ãå¼å¾ä¸æçæ¯ï¼ä½ å¶å¯¦æ¯åè »å¯æçäººï¼åªæ¯æäººä¸æå¦ä½æ¬£è³ä½ çé·
		</div>
</div> <div class="xz_2">
<div class="xz2_title">
<a href="/xingzuo/zaixianqiming/33832.html"><strong>å§é²èµ·åå­å¤§å¨ï¼é²å§èµ·åå¤§å¨</strong></a>
</div>
<div class="xz2_text">
<p><a href="/xingzuo/zaixianqiming/33832.html"><strong>å§é²èµ·åå­å¤§å¨ï¼é²å§èµ·åå¤§å¨</strong></a></p>
é²çæé²åå¨é²å­æé²éçé²é·çé²å¬ç²é²ç²å¹³é²æ²ç²é²èé²æé¯é²éªè¬é²é²èé²æ¸å¦é²é»æ¡é²ç§å½¤é²æç²é²å¦é¶é²ç¿ èé²ææ¡é²æ¡åé²ä»²è±é²æèé²åçé²æ§å¨é²å¦æé²çè³é²æç²é²å©§æ¥¹é²ç´ ç¾é²æ¦æé²æµ·èé²åè±é²ç®ç¤é²ç§éé²æ¨å©·é²å®å¨é²å©­çé²åç©é²æ§æ¡é²ä¸
		</div>
</div> <div class="xz_2">
<div class="xz2_title">
<a href="/xingzuo/zhougongjiemeng/17238.html"><strong>å¤¢è¦é©å²</strong></a>
</div>
<div class="xz2_text">
<p><a href="/xingzuo/zhougongjiemeng/17238.html"><strong>å¤¢è¦é©å²</strong></a></p>
é¡å¥ææå¤¢è¦å§å®¹é©å²è§£å¤¢å¦ä¸ï¼ç·äººå¤¢è¦èªå·±å®¶è³è¬è²«ï¼å èæ²¾æ²¾èªåï¼æé¢è¨ææåä¸å¹¸ãå¥³äººå¤¢è¦èªå·±å®¶è³è¬è²«ï¼ç¥ç¨ä¸åï¼ä¸ä¹æä¸å¤±å¥½å¹¾ååæ¥­é»ãæå­¸å·¥ä½èå¤¢è¦èªå·±å¾æé¢ï¼å èå¿ä¹æä»¥ï¼ç¶ç¥éäººæ°æ¯ä»æå¥½ä½åçè©è«å®¶ææå¤§åä¸é©ãæ®éäººå¤¢è¦èª
		</div>
</div> <div class="xz_2">
<div class="xz2_title">
<a href="/xingzuo/nvhaiqiming/28593.html"><strong>å§ç¦çåä»éº¼åå­å¥½ï¼ç¦å§çèå±¬è±¬å¯¶å¯¶èµ·åå¤§å¨</strong></a>
</div>
<div class="xz2_text">
<p><a href="/xingzuo/nvhaiqiming/28593.html"><strong>å§ç¦çåä»éº¼åå­å¥½ï¼ç¦å§çèå±¬è±¬å¯¶å¯¶èµ·åå¤§å¨</strong></a></p>
ç¦é»åªç¦ç¿ è±ç¦æè·ç¦å®æç¦ç¶­å¨ç¦è·éç¦äº¦è³ç¦é²çç¦æ§æç¦éæ¢ç¦æåº­ç¦èçç¦çç¤ç¦è¦½çç¦ç²ç¾ç¦ç³å¯ç¦åæ½ç¦æ¦®è³ç¦ç«¹æ¢ç¦æ¡å¹³ç¦æåç¦èèç¦é ç¾ç¦æç³ç¦å°ç´ç¦æ²æç¦æ£®å©ç¦çæ³¢ç¦èåªç¦æç©ç¦æ¨¹ç´ç¦ææç¦ç©çç¦èå©·ç¦ä»éºç¦ç¢§æ¡ç¦ä½³å©ç¦å¡å©ç¦é¯å¨ç¦
		</div>
</div> <div class="xz_2">
<div class="xz2_title">
<a href="/xingzuo/xingzuoqingyuan/xingzuogushi/5128.html"><strong>ç·£</strong></a>
</div>
<div class="xz2_text">
<p><a href="/xingzuo/xingzuoqingyuan/xingzuogushi/5128.html"><strong>ç·£</strong></a></p>
ä¹æ¾æéçåº­åè±éè±è¬ï¼æå¤©ä¸é²å·é²èçæ·¡ç¶ãç¶èï¼ç¸½æä¸ç¨®ææä¸è½éæ·ï¼ä½å®¶æäºãç·£èµ·ç·£æ»ãï¼åæå»ç¸½å¨å¥¢æç·£èµ·ä¸æ»çå¥è·¡ãæ²æç¶æ­·éæ¡ç°æ»æµ·çè®é·ï¼ä¹ä¸æå¾ç©¶ç«ä½çºãæ°¸é ãï¼åªç¥éå¨å¿ä¸­æä¸ç¨®è ¢è ¢æ¬²åçæ³æ³ï¼åå¦éåä¸éçææ°¸æï¼é£
		</div>
</div> <div class="xz_2">
<div class="xz2_title">
<strong>2021å¹´1æé»æè¡¨</strong>
</div>
<div class="xz2_li3">
<ul>
<li><a href="/xingzuo/2021/2021-1-1.html">1æ1æ¥é»æ</a></li> <li><a href="/xingzuo/2021/2021-1-2.html">1æ2æ¥é»æ</a></li> <li><a href="/xingzuo/2021/2021-1-3.html">1æ3æ¥é»æ</a></li> <li><a href="/xingzuo/2021/2021-1-4.html">1æ4æ¥é»æ</a></li> <li><a href="/xingzuo/2021/2021-1-5.html">1æ5æ¥é»æ</a></li> <li><a href="/xingzuo/2021/2021-1-6.html">1æ6æ¥é»æ</a></li> <li><a href="/xingzuo/2021/2021-1-7.html">1æ7æ¥é»æ</a></li> <li><a href="/xingzuo/2021/2021-1-8.html">1æ8æ¥é»æ</a></li> <li><a href="/xingzuo/2021/2021-1-9.html">1æ9æ¥é»æ</a></li> <li><a href="/xingzuo/2021/2021-1-10.html">1æ10æ¥é»æ</a></li> <li><a href="/xingzuo/2021/2021-1-11.html">1æ11æ¥é»æ</a></li> <li><a href="/xingzuo/2021/2021-1-12.html"><font color="red"><strong>1æ12æ¥é»æ</strong></font></a></li> <li><a href="/xingzuo/2021/2021-1-13.html">1æ13æ¥é»æ</a></li> <li><a href="/xingzuo/2021/2021-1-14.html">1æ14æ¥é»æ</a></li> <li><a href="/xingzuo/2021/2021-1-15.html">1æ15æ¥é»æ</a></li> <li><a href="/xingzuo/2021/2021-1-16.html">1æ16æ¥é»æ</a></li> <li><a href="/xingzuo/2021/2021-1-17.html">1æ17æ¥é»æ</a></li> <li><a href="/xingzuo/2021/2021-1-18.html">1æ18æ¥é»æ</a></li> <li><a href="/xingzuo/2021/2021-1-19.html">1æ19æ¥é»æ</a></li> <li><a href="/xingzuo/2021/2021-1-20.html">1æ20æ¥é»æ</a></li> <li><a href="/xingzuo/2021/2021-1-21.html">1æ21æ¥é»æ</a></li> <li><a href="/xingzuo/2021/2021-1-22.html">1æ22æ¥é»æ</a></li> <li><a href="/xingzuo/2021/2021-1-23.html">1æ23æ¥é»æ</a></li> <li><a href="/xingzuo/2021/2021-1-24.html">1æ24æ¥é»æ</a></li> <li><a href="/xingzuo/2021/2021-1-25.html">1æ25æ¥é»æ</a></li> <li><a href="/xingzuo/2021/2021-1-26.html">1æ26æ¥é»æ</a></li> <li><a href="/xingzuo/2021/2021-1-27.html">1æ27æ¥é»æ</a></li> <li><a href="/xingzuo/2021/2021-1-28.html">1æ28æ¥é»æ</a></li> <li><a href="/xingzuo/2021/2021-1-29.html">1æ29æ¥é»æ</a></li> <li><a href="/xingzuo/2021/2021-1-30.html">1æ30æ¥é»æ</a></li> <li><a href="/xingzuo/2021/2021-1-31.html">1æ31æ¥é»æ</a></li>
</ul>
</div>
</div>
<div class="xz_3">
<div class="xz3_title">
<strong>æåº§éå°ææ¸</strong>
</div>
<div class="xz3_form">
<form action="/xingzuochaxun.php?action=PeiduiZhiShu" method="POST" target="_blank">
<p> 
ç·çï¼
<select name="Boys">
<option selected="" value="1">ç½ç¾åº§</option>
<option value="2">éçåº§</option>
<option value="3">éå­åº§</option>
<option value="4">å·¨è¹åº§</option>
<option value="5">çå­åº§</option>
<option value="6">èå¥³åº§</option>
<option value="7">å¤©ç§¤åº§</option>
<option value="8">å¤©è åº§</option>
<option value="9">å°æåº§</option>
<option value="10">æ©ç¾¯åº§</option>
<option value="11">æ°´ç¶åº§</option>
<option value="12">éé­åº§</option>
</select>
</p>
<p> 
å¥³çï¼
<select name="Girls">
<option selected="" value="1">ç½ç¾åº§</option>
<option value="2">éçåº§</option>
<option value="3">éå­åº§</option>
<option value="4">å·¨è¹åº§</option>
<option value="5">çå­åº§</option>
<option value="6">èå¥³åº§</option>
<option value="7">å¤©ç§¤åº§</option>
<option value="8">å¤©è åº§</option>
<option value="9">å°æåº§</option>
<option value="10">æ©ç¾¯åº§</option>
<option value="11">æ°´ç¶åº§</option>
<option value="12">éé­åº§</option>
</select>
</p>
<p><input class="set_submit" name="submit" type="submit" value="æåº§éå°"/></p>
</form>
</div>
</div>
<div class="xz_3">
<div class="xz3_title">
<strong>æåº§éå°æ¥è©¢</strong>
</div>
<div class="xz3_form">
<form action="/xingzuochaxun.php?action=Marry" method="POST" target="_blank">
<p> 
ç·çï¼
<select name="Boys">
<option selected="selected" value="">è«é¸æ</option>
<option value="sheep">ç½ç¾åº§</option>
<option value="jin">éçåº§</option>
<option value="shuangzi">éå­åº§</option>
<option value="xie">å·¨è¹åº§</option>
<option value="shizi">çå­åº§</option>
<option value="chu">èå¥³åº§</option>
<option value="tianchen">å¤©ç§¤åº§</option>
<option value="tianxie">å¤©è åº§</option>
<option value="sheshou">å°æåº§</option>
<option value="moxie">æ©ç¾¯åº§</option>
<option value="shuipin">æ°´ç¶åº§</option>
<option value="fish">éé­åº§</option>
</select>
</p>
<p> 
å¥³çï¼
<select name="Girls">
<option selected="selected" value="">è«é¸æ</option>
<option value="0">ç½ç¾åº§</option>
<option value="1">éçåº§</option>
<option value="2">éå­åº§</option>
<option value="3">å·¨è¹åº§</option>
<option value="4">çå­åº§</option>
<option value="5">èå¥³åº§</option>
<option value="6">å¤©ç§¤åº§</option>
<option value="7">å¤©è åº§</option>
<option value="8">å°æåº§</option>
<option value="9">æ©ç¾¯åº§</option>
<option value="10">æ°´ç¶åº§</option>
<option value="11">éé­åº§</option>
</select>
</p>
<p>
<input class="set_submit" name="submit" type="submit" value="æåº§éå°"/>
</p><p>
</p></form>
</div>
</div>
<div class="xz_3">
<div class="xz3_title">
<strong>çæ¥å¯ç¢¼</strong>
</div>
<div class="xz3_form">
<form action="/xingzuochaxun.php?action=Birthday" method="POST" name="mima">
<p>
<select name="y">
<option value="1">1æ</option>
<option value="2">2æ</option>
<option value="3">3æ</option>
<option value="4">4æ</option>
<option value="5">5æ</option>
<option value="6">6æ</option>
<option value="7">7æ</option>
<option value="8">8æ</option>
<option value="9">9æ</option>
<option value="10">10æ</option>
<option value="11">11æ</option>
<option value="12">12æ</option>
</select>
<select name="r">
<option value="1">1æ¥</option>
<option value="2">2æ¥</option>
<option value="3">3æ¥</option>
<option value="4">4æ¥</option>
<option value="5">5æ¥</option>
<option value="6">6æ¥</option>
<option value="7">7æ¥</option>
<option value="8">8æ¥</option>
<option value="9">9æ¥</option>
<option value="10">10æ¥</option>
<option value="11">11æ¥</option>
<option value="12">12æ¥</option>
<option value="13">13æ¥</option>
<option value="14">14æ¥</option>
<option value="15">15æ¥</option>
<option value="16">16æ¥</option>
<option value="17">17æ¥</option>
<option value="18">18æ¥</option>
<option value="19">19æ¥</option>
<option value="20">20æ¥</option>
<option value="21">21æ¥</option>
<option value="22">22æ¥</option>
<option value="23">23æ¥</option>
<option value="24">24æ¥</option>
<option value="25">25æ¥</option>
<option value="26">26æ¥</option>
<option value="27">27æ¥</option>
<option value="28">28æ¥</option>
<option value="29">29æ¥</option>
<option value="30">30æ¥</option>
<option value="31">31æ¥</option>
</select>
</p>
<p><input class="set_submit" name="Submit" type="submit" value="çæ¥å¯ç¢¼"/></p>
</form>
</div>
</div>
<div class="xz_3">
<div class="xz3_title">
<strong>çæ¥è±èª</strong>
</div>
<div class="xz3_form">
<form action="/xingzuochaxun.php?action=Flower" method="POST" name="huayu">
<p>
<select name="y">
<option value="1">1æ</option>
<option value="2">2æ</option>
<option value="3">3æ</option>
<option value="4">4æ</option>
<option value="5">5æ</option>
<option value="6">6æ</option>
<option value="7">7æ</option>
<option value="8">8æ</option>
<option value="9">9æ</option>
<option value="10">10æ</option>
<option value="11">11æ</option>
<option value="12">12æ</option>
</select>
<select name="r">
<option value="1">1æ¥</option>
<option value="2">2æ¥</option>
<option value="3">3æ¥</option>
<option value="4">4æ¥</option>
<option value="5">5æ¥</option>
<option value="6">6æ¥</option>
<option value="7">7æ¥</option>
<option value="8">8æ¥</option>
<option value="9">9æ¥</option>
<option value="10">10æ¥</option>
<option value="11">11æ¥</option>
<option value="12">12æ¥</option>
<option value="13">13æ¥</option>
<option value="14">14æ¥</option>
<option value="15">15æ¥</option>
<option value="16">16æ¥</option>
<option value="17">17æ¥</option>
<option value="18">18æ¥</option>
<option value="19">19æ¥</option>
<option value="20">20æ¥</option>
<option value="21">21æ¥</option>
<option value="22">22æ¥</option>
<option value="23">23æ¥</option>
<option value="24">24æ¥</option>
<option value="25">25æ¥</option>
<option value="26">26æ¥</option>
<option value="27">27æ¥</option>
<option value="28">28æ¥</option>
<option value="29">29æ¥</option>
<option value="30">30æ¥</option>
<option value="31">31æ¥</option>
</select>
</p>
<p><input class="set_submit" name="submit" type="submit" value="çæ¥è±èª"/></p>
</form>
</div>
</div>
<div class="xz_3">
<div class="xz3_title">
<strong>æåæ¥è©¢</strong>
</div>
<div class="xz3_form">
<form action="/xingzuochaxun.php?action=XingQu" method="post" name="xingqu" target="_blank">
<p>
<select name="y" size="1">
<option value="1">1æ</option>
<option value="2">2æ</option>
<option value="3">3æ</option>
<option value="4">4æ</option>
<option value="5">5æ</option>
<option value="6">6æ</option>
<option value="7">7æ</option>
<option value="8">8æ</option>
<option value="9">9æ</option>
<option value="10">10æ</option>
<option value="11">11æ</option>
<option value="12">12æ</option>
</select>
<select name="r" size="1">
<option value="1">1æ¥</option>
<option value="2">2æ¥</option>
<option value="3">3æ¥</option>
<option value="4">4æ¥</option>
<option value="5">5æ¥</option>
<option value="6">6æ¥</option>
<option value="7">7æ¥</option>
<option value="8">8æ¥</option>
<option value="9">9æ¥</option>
<option value="10">10æ¥</option>
<option value="11">11æ¥</option>
<option value="12">12æ¥</option>
<option value="13">13æ¥</option>
<option value="14">14æ¥</option>
<option value="15">15æ¥</option>
<option value="16">16æ¥</option>
<option value="17">17æ¥</option>
<option value="18">18æ¥</option>
<option value="19">19æ¥</option>
<option value="20">20æ¥</option>
<option value="21">21æ¥</option>
<option value="22">22æ¥</option>
<option value="23">23æ¥</option>
<option value="24">24æ¥</option>
<option value="25">25æ¥</option>
<option value="26">26æ¥</option>
<option value="27">27æ¥</option>
<option value="28">28æ¥</option>
<option value="29">29æ¥</option>
<option value="30">30æ¥</option>
<option value="31">31æ¥</option>
</select>
</p>
<p><input class="set_submit" name="submit" type="submit" value="48æåæ¥è©¢"/></p>
</form>
</div>
</div>
<div class="xz_3">
<div class="xz3_title">
<strong>æåº§è¡å</strong>
</div>
<div class="xz3_form">
<form action="/xingzuochaxun.php?action=AstroBlood" method="POST" target="_blank">
<p>
<select name="a">
<option value="01">ç½ç¾åº§</option>
<option value="02">éçåº§</option>
<option value="03">éå­åº§</option>
<option value="04">å·¨è¹åº§</option>
<option value="05">çå­åº§</option>
<option value="06">èå¥³åº§</option>
<option value="07">å¤©ç§¤åº§</option>
<option value="08">å¤©è åº§</option>
<option value="09">å°æåº§</option>
<option value="10">æ©ç¾¯åº§</option>
<option value="11">æ°´ç¶åº§</option>
<option value="12">éé­åº§</option>
</select>
<select name="x">
<option value="0001">Aå</option>
<option value="0002">Bå</option>
<option value="0003">Oå</option>
<option value="0004">ABå</option>
</select>
</p>
<p><input class="set_submit" name="submit" type="submit" value="æåº§è¡å"/>
</p>
</form>
</div>
</div>
<div class="xz_4">
<script type="text/javascript">module_xz_2();</script>
</div>
<div class="clear"></div>
<div class="xz_map">
<div class="map_title">
<a href="/xingzuo/12xingzuo/"><strong>åäºæåº§</strong></a>
</div>
<div class="map_list">
<ul>
<li><a href="/xingzuo/12xingzuo/baiyangzuo/">ç½ç¾åº§</a></li>
<li><a href="/xingzuo/12xingzuo/jinniuzuo/">éçåº§</a></li>
<li><a href="/xingzuo/12xingzuo/shuangzizuo/">éå­åº§</a></li>
<li><a href="/xingzuo/12xingzuo/juxiezuo/">å·¨è¹åº§</a></li>
<li><a href="/xingzuo/12xingzuo/shizhizuo/">çå­åº§</a></li>
<li><a href="/xingzuo/12xingzuo/chunvzuo/">èå¥³åº§</a></li>
<li><a href="/xingzuo/12xingzuo/tianchengzuo/">å¤©ç§¤åº§</a></li>
<li><a href="/xingzuo/12xingzuo/tianxiezuo/">å¤©è åº§</a></li>
<li><a href="/xingzuo/12xingzuo/sheshouzuo/">å°æåº§</a></li>
<li><a href="/xingzuo/12xingzuo/mojiezuo/">é­ç¾¯åº§</a></li>
<li><a href="/xingzuo/12xingzuo/shuipingzuo/">æ°´ç¶åº§</a></li>
<li><a href="/xingzuo/12xingzuo/shuangyuzuo/">éé­åº§</a></li>
</ul>
</div>
<div class="map_title">
<a href="/xingzuo/xingzuoceshi/"><strong>æåº§æ¸¬è©¦</strong></a>
</div>
<div class="map_list">
<ul>
<li><a href="/xingzuo/xingzuoceshi/zongheceshi/">ç¶åæ¸¬è©¦</a></li>
<li><a href="/xingzuo/xingzuoceshi/zhishangceshi/">æºåæ¸¬è©¦</a></li>
<li><a href="/xingzuo/xingzuoceshi/aiqingceshi/">æææ¸¬è©¦</a></li>
<li><a href="/xingzuo/xingzuoceshi/zhiyeceshi/">è·æ¥­æ¸¬è©¦</a></li>
<li><a href="/xingzuo/xingzuoceshi/caifuceshi/">è²¡å¯æ¸¬è©¦</a></li>
<li><a href="/xingzuo/xingzuoceshi/gexingceshi/">åæ§æ¸¬è©¦</a></li>
<li><a href="/xingzuo/xingzuoceshi/shejiaoceshi/">ç¤¾äº¤æ¸¬è©¦</a></li>
<li><a href="/xingzuo/xingzuoceshi/quweiceshi/">è¶£å³æ¸¬è©¦</a></li>
</ul>
</div>
<div class="map_title">
<a href="/xingzuo/xingzuowuyu/"><strong>æåº§ç©èª</strong></a>
</div>
<div class="map_list">
<ul>
<li><a href="/xingzuo/xingzuowuyu/xingzuozhishi/">æåº§ç¥è­</a></li>
<li><a href="/xingzuo/xingzuowuyu/xingzuofenxi/">æåº§åæ</a></li>
<li><a href="/xingzuo/xingzuowuyu/xingzuoshishang/">æåº§æå°</a></li>
<li><a href="/xingzuo/xingzuowuyu/xingzuopaihang/">æåº§æè¡</a></li>
<li><a href="/xingzuo/xingzuowuyu/xingzuoguima/">æåº§é¬¼é¦¬</a></li>
<li><a href="/xingzuo/xingzuowuyu/xingzuomingpan/">æåº§å½ç¤</a></li>
<li><a href="/xingzuo/xingzuowuyu/xingzuomingren/">æåº§åäºº</a></li>
<li><a href="/xingzuo/xingzuowuyu/shengrimima/">çæ¥å¯ç¢¼</a></li>
</ul>
</div>
<div class="map_title">
<a href="/xingzuo/xingzuoqingyuan/"><strong>æåº§æç·£</strong></a>
</div>
<div class="map_list">
<ul>
<li><a href="/xingzuo/xingzuoqingyuan/xingzuoaiqing/">æåº§ææ</a></li>
<li><a href="/xingzuo/xingzuoqingyuan/xingzuogushi/">æåº§æäº</a></li>
<li><a href="/xingzuo/xingzuoqingyuan/xingzuonannv/">æåº§ç·å¥³</a></li>
<li><a href="/xingzuo/xingzuoqingyuan/xingzuomiyu/">æåº§ç§èª</a></li>
<li><a href="/xingzuo/xingzuoqingyuan/xingzuohunlian/">æåº§å©æ</a></li>
<li><a href="/xingzuo/xingzuoqingyuan/magic/">æåº§é­æ³</a></li>
</ul>
</div>
<div class="map_title">
<strong>æåº§ç¾ç§</strong>
</div>
<div class="map_list">
<ul>
<li><a href="/search.php">ææ°ç¼ä½</a></li>
<li><a href="/xingzuo/12shengxiao/">åäºçè</a></li>
<li><a href="/xingzuo/xingzuoxuexing/">æåº§è¡å</a></li>
<li><a href="/xingzuo/tarot/">å¡ç¾å å</a></li>
<li><a href="/xingzuo/zhougongjiemeng/">å¨å¬è§£å¤¢</a></li>
<li><a href="/xingzuo/xingzuotupian/">æåº§åç</a></li>
<li><a href="/xingzuo/english/">è±æè³æ</a></li>
<li><a href="/xingzuo/mianxiangshouxiang/">é¢ç¸æç¸</a></li>
<li><a href="/xingzuo/xingzuoaiqinggushi/">æææäº</a></li>
<li><a href="/xingzuo/zhanxingjiaocheng/">å ææç¨</a></li>
<li><a href="/xingzuo/mingyunzhanbu/">å½éå å</a></li>
<li><a href="/xingzuo/xingzuozhichang/">æåº§è·å ´</a></li>
<li><a href="/xingzuo/xingzuopeidui/">æåº§éå°</a></li>
<li><a href="/xingzuo/flower/">çæ¥è±èª</a></li>
</ul>
</div>
<div class="map_title">
<strong>æåº§æ¥è©¢</strong>
</div>
<div class="map_list">
<ul>
<li><a href="/xingzuo/xingzuochaxun.htm">æåº§æ¥è©¢</a></li>
<li><a href="/xingzuo/xingzuoyuncheng.php">æåº§éå¢</a></li>
<li><a href="/hdjr.php">é»æ­·æ¥è©¢</a></li>
<li><a href="/hdjr_1.php">åæ¥æ¥è©¢</a></li>
<li><a href="/xingzuo/xingzuochaxun.php">æåº§æ¥æ</a></li>
<li><a href="/cpcx.php">è»çåå¶</a></li>
<li><a href="/shoujihaomajixiong.php">ææ©åå¶</a></li>
<li><a href="/qqhaomajixiong.php">èç¢¼åå¶</a></li>
<li><a href="/jinyongrenwuceshi.php">éåº¸æ¸¬è©¦</a></li>
</ul>
</div>
<div class="map_title">
<strong>åè²»åå</strong>
</div>
<div class="map_list">
<ul>
<li><a href="/xingzuo/mianfeiqiming/">åè²»èµ·å</a></li>
<li><a href="/xingzuo/nanhaiqiming/">ç·å­©åå­</a></li>
<li><a href="/xingzuo/nvhaiqiming/">å¥³å­©åå­</a></li>
<li><a href="/xingzuo/qimingdaquan/">èµ·åå¤§å¨</a></li>
<li><a href="/xingzuo/baobaoquming/">å¯¶å¯¶åå</a></li>
<li><a href="/xingzuo/qumingbaodian/">ååå¯¶å¸</a></li>
<li><a href="/xingzuo/zaixianqiming/">å¨ç·èµ·å</a></li>
<li><a href="/xingzuo/qimingziku/">èµ·åå­åº«</a></li>
<li><a href="/xingzuo/qumingchaxun/">ååæ¥è©¢</a></li>
<li><a href="/xingzuo/baziqiming/">å«å­èµ·å</a></li>
</ul>
</div>
</div>
<div class="clear"></div>
<div class="xz_footer">
<p>© 2010-2020 <a href="/">æåº§æ´¾å°</a></p>
<p>è¯çµ¡å°åï¼å°åå¸ä¸­è¥¿åæ¨¹æè¡äºæ®µ334è</p>
<p>æå¾æ´æ°æ¥æï¼2021å¹´01æ12æ¥ 10:17:01</p>
</div>
</div>
<div class="clear"></div>
<script type="text/javascript">module_xz_9();</script>
<span class="hidden">
<script type="text/javascript">module_footer();</script>
</span>
</body>
</html>