<!DOCTYPE html>
<html class="no-js" lang="en-AU">
<head>
<meta charset="utf-8"/>
<meta content="width=device-width, initial-scale=1, maximum-scale=1, user-scalable=0" name="viewport"/><title>Nothing found for  Images</title>
<!-- All In One SEO Pack 3.6.2ob_start_detected [-1,-1] -->
<script class="aioseop-schema" type="application/ld+json">{"@context":"https://schema.org","@graph":[{"@type":"Organization","@id":"https://www.entero.com.au/#organization","url":"https://www.entero.com.au/","name":"Entero","sameAs":[]},{"@type":"WebSite","@id":"https://www.entero.com.au/#website","url":"https://www.entero.com.au/","name":"Entero","publisher":{"@id":"https://www.entero.com.au/#organization"},"potentialAction":{"@type":"SearchAction","target":"https://www.entero.com.au/?s={search_term_string}","query-input":"required name=search_term_string"}}]}</script>
<!-- All In One SEO Pack -->
<link href="//www.google.com" rel="dns-prefetch"/>
<link href="//fonts.googleapis.com" rel="dns-prefetch"/>
<link href="//s.w.org" rel="dns-prefetch"/>
<link href="https://www.entero.com.au/feed/" rel="alternate" title="Entero » Feed" type="application/rss+xml"/>
<!-- This site uses the Google Analytics by MonsterInsights plugin v7.10.4 - Using Analytics tracking - https://www.monsterinsights.com/ -->
<script data-cfasync="false" type="text/javascript">
	var mi_version         = '7.10.4';
	var mi_track_user      = true;
	var mi_no_track_reason = '';
	
	var disableStr = 'ga-disable-UA-149748508-1';

	/* Function to detect opted out users */
	function __gaTrackerIsOptedOut() {
		return document.cookie.indexOf(disableStr + '=true') > -1;
	}

	/* Disable tracking if the opt-out cookie exists. */
	if ( __gaTrackerIsOptedOut() ) {
		window[disableStr] = true;
	}

	/* Opt-out function */
	function __gaTrackerOptout() {
	  document.cookie = disableStr + '=true; expires=Thu, 31 Dec 2099 23:59:59 UTC; path=/';
	  window[disableStr] = true;
	}
	
	if ( mi_track_user ) {
		(function(i,s,o,g,r,a,m){i['GoogleAnalyticsObject']=r;i[r]=i[r]||function(){
			(i[r].q=i[r].q||[]).push(arguments)},i[r].l=1*new Date();a=s.createElement(o),
			m=s.getElementsByTagName(o)[0];a.async=1;a.src=g;m.parentNode.insertBefore(a,m)
		})(window,document,'script','//www.google-analytics.com/analytics.js','__gaTracker');

		__gaTracker('create', 'UA-149748508-1', 'auto');
		__gaTracker('set', 'forceSSL', true);
		__gaTracker('require', 'displayfeatures');
		__gaTracker('send','pageview','/404.html?page=' + document.location.pathname + document.location.search + '&from=' + document.referrer);
	} else {
		console.log( "" );
		(function() {
			/* https://developers.google.com/analytics/devguides/collection/analyticsjs/ */
			var noopfn = function() {
				return null;
			};
			var noopnullfn = function() {
				return null;
			};
			var Tracker = function() {
				return null;
			};
			var p = Tracker.prototype;
			p.get = noopfn;
			p.set = noopfn;
			p.send = noopfn;
			var __gaTracker = function() {
				var len = arguments.length;
				if ( len === 0 ) {
					return;
				}
				var f = arguments[len-1];
				if ( typeof f !== 'object' || f === null || typeof f.hitCallback !== 'function' ) {
					console.log( 'Not running function __gaTracker(' + arguments[0] + " ....) because you are not being tracked. " + mi_no_track_reason );
					return;
				}
				try {
					f.hitCallback();
				} catch (ex) {

				}
			};
			__gaTracker.create = function() {
				return new Tracker();
			};
			__gaTracker.getByName = noopnullfn;
			__gaTracker.getAll = function() {
				return [];
			};
			__gaTracker.remove = noopfn;
			window['__gaTracker'] = __gaTracker;
					})();
		}
</script>
<!-- / Google Analytics by MonsterInsights -->
<script type="text/javascript">
			window._wpemojiSettings = {"baseUrl":"https:\/\/s.w.org\/images\/core\/emoji\/12.0.0-1\/72x72\/","ext":".png","svgUrl":"https:\/\/s.w.org\/images\/core\/emoji\/12.0.0-1\/svg\/","svgExt":".svg","source":{"concatemoji":"https:\/\/www.entero.com.au\/wp-includes\/js\/wp-emoji-release.min.js?ver=5.4.4"}};
			/*! This file is auto-generated */
			!function(e,a,t){var r,n,o,i,p=a.createElement("canvas"),s=p.getContext&&p.getContext("2d");function c(e,t){var a=String.fromCharCode;s.clearRect(0,0,p.width,p.height),s.fillText(a.apply(this,e),0,0);var r=p.toDataURL();return s.clearRect(0,0,p.width,p.height),s.fillText(a.apply(this,t),0,0),r===p.toDataURL()}function l(e){if(!s||!s.fillText)return!1;switch(s.textBaseline="top",s.font="600 32px Arial",e){case"flag":return!c([127987,65039,8205,9895,65039],[127987,65039,8203,9895,65039])&&(!c([55356,56826,55356,56819],[55356,56826,8203,55356,56819])&&!c([55356,57332,56128,56423,56128,56418,56128,56421,56128,56430,56128,56423,56128,56447],[55356,57332,8203,56128,56423,8203,56128,56418,8203,56128,56421,8203,56128,56430,8203,56128,56423,8203,56128,56447]));case"emoji":return!c([55357,56424,55356,57342,8205,55358,56605,8205,55357,56424,55356,57340],[55357,56424,55356,57342,8203,55358,56605,8203,55357,56424,55356,57340])}return!1}function d(e){var t=a.createElement("script");t.src=e,t.defer=t.type="text/javascript",a.getElementsByTagName("head")[0].appendChild(t)}for(i=Array("flag","emoji"),t.supports={everything:!0,everythingExceptFlag:!0},o=0;o<i.length;o++)t.supports[i[o]]=l(i[o]),t.supports.everything=t.supports.everything&&t.supports[i[o]],"flag"!==i[o]&&(t.supports.everythingExceptFlag=t.supports.everythingExceptFlag&&t.supports[i[o]]);t.supports.everythingExceptFlag=t.supports.everythingExceptFlag&&!t.supports.flag,t.DOMReady=!1,t.readyCallback=function(){t.DOMReady=!0},t.supports.everything||(n=function(){t.readyCallback()},a.addEventListener?(a.addEventListener("DOMContentLoaded",n,!1),e.addEventListener("load",n,!1)):(e.attachEvent("onload",n),a.attachEvent("onreadystatechange",function(){"complete"===a.readyState&&t.readyCallback()})),(r=t.source||{}).concatemoji?d(r.concatemoji):r.wpemoji&&r.twemoji&&(d(r.twemoji),d(r.wpemoji)))}(window,document,window._wpemojiSettings);
		</script>
<style type="text/css">
img.wp-smiley,
img.emoji {
	display: inline !important;
	border: none !important;
	box-shadow: none !important;
	height: 1em !important;
	width: 1em !important;
	margin: 0 .07em !important;
	vertical-align: -0.1em !important;
	background: none !important;
	padding: 0 !important;
}
</style>
<link href="https://www.entero.com.au/wp-includes/css/dist/block-library/style.min.css?ver=5.4.4" id="wp-block-library-css" media="all" rel="stylesheet" type="text/css"/>
<link href="https://www.entero.com.au/wp-content/plugins/contact-form-7/includes/css/styles.css?ver=5.1.7" id="contact-form-7-css" media="all" rel="stylesheet" type="text/css"/>
<link href="https://www.entero.com.au/wp-content/plugins/html5-video-player/css/player-style.css?ver=3.5.10" id="h5vp-style-css" media="all" rel="stylesheet" type="text/css"/>
<link href="https://www.entero.com.au/wp-content/plugins/salient-social/css/style.css?ver=1.1" id="salient-social-css" media="all" rel="stylesheet" type="text/css"/>
<style id="salient-social-inline-css" type="text/css">

  .sharing-default-minimal .nectar-love.loved,
  body .nectar-social[data-color-override="override"].fixed > a:before, 
  body .nectar-social[data-color-override="override"].fixed .nectar-social-inner a,
  .sharing-default-minimal .nectar-social[data-color-override="override"] .nectar-social-inner a:hover {
    background-color: #3452ff;
  }
  .nectar-social.hover .nectar-love.loved,
  .nectar-social.hover > .nectar-love-button a:hover,
  .nectar-social[data-color-override="override"].hover > div a:hover,
  #single-below-header .nectar-social[data-color-override="override"].hover > div a:hover,
  .nectar-social[data-color-override="override"].hover .share-btn:hover,
  .sharing-default-minimal .nectar-social[data-color-override="override"] .nectar-social-inner a {
    border-color: #3452ff;
  }
  #single-below-header .nectar-social.hover .nectar-love.loved i,
  #single-below-header .nectar-social.hover[data-color-override="override"] a:hover,
  #single-below-header .nectar-social.hover[data-color-override="override"] a:hover i,
  #single-below-header .nectar-social.hover .nectar-love-button a:hover i,
  .nectar-love:hover i,
  .hover .nectar-love:hover .total_loves,
  .nectar-love.loved i,
  .nectar-social.hover .nectar-love.loved .total_loves,
  .nectar-social.hover .share-btn:hover, 
  .nectar-social[data-color-override="override"].hover .nectar-social-inner a:hover,
  .nectar-social[data-color-override="override"].hover > div:hover span,
  .sharing-default-minimal .nectar-social[data-color-override="override"] .nectar-social-inner a:not(:hover) i,
  .sharing-default-minimal .nectar-social[data-color-override="override"] .nectar-social-inner a:not(:hover) {
    color: #3452ff;
  }
</style>
<link href="https://www.entero.com.au/wp-content/uploads/useanyfont/uaf.css?ver=1586907763" id="uaf_client_css-css" media="all" rel="stylesheet" type="text/css"/>
<link href="https://www.entero.com.au/wp-content/themes/salient/css/font-awesome.min.css?ver=4.6.4" id="font-awesome-css" media="all" rel="stylesheet" type="text/css"/>
<link href="https://www.entero.com.au/wp-content/themes/salient/css/grid-system.css?ver=11.0.1" id="salient-grid-system-css" media="all" rel="stylesheet" type="text/css"/>
<link href="https://www.entero.com.au/wp-content/themes/salient/css/style.css?ver=11.0.1" id="main-styles-css" media="all" rel="stylesheet" type="text/css"/>
<link href="https://www.entero.com.au/wp-content/themes/salient/css/off-canvas/fullscreen.css?ver=11.0.1" id="nectar-ocm-fullscreen-css" media="all" rel="stylesheet" type="text/css"/>
<link href="https://www.entero.com.au/wp-content/themes/salient/css/plugins/jquery.fancybox.css?ver=3.3.1" id="fancyBox-css" media="all" rel="stylesheet" type="text/css"/>
<link href="https://fonts.googleapis.com/css?family=Open+Sans%3A300%2C400%2C600%2C700&amp;subset=latin%2Clatin-ext" id="nectar_default_font_open_sans-css" media="all" rel="stylesheet" type="text/css"/>
<link href="https://www.entero.com.au/wp-content/themes/salient/css/responsive.css?ver=11.0.1" id="responsive-css" media="all" rel="stylesheet" type="text/css"/>
<link href="https://www.entero.com.au/wp-content/themes/salient-child/style.css?ver=11.0.1" id="salient-child-style-css" media="all" rel="stylesheet" type="text/css"/>
<link href="https://www.entero.com.au/wp-content/themes/salient/css/skin-material.css?ver=11.0.1" id="skin-material-css" media="all" rel="stylesheet" type="text/css"/>
<!--[if lt IE 9]>
<link rel='stylesheet' id='vc_lte_ie9-css'  href='https://www.entero.com.au/wp-content/plugins/js_composer_salient/assets/css/vc_lte_ie9.min.css?ver=6.0.5' type='text/css' media='screen' />
<![endif]-->
<link href="https://www.entero.com.au/wp-content/themes/salient/css/salient-dynamic-styles.css?ver=29757" id="dynamic-css-css" media="all" rel="stylesheet" type="text/css"/>
<style id="dynamic-css-inline-css" type="text/css">
@media only screen and (min-width:1000px){body #ajax-content-wrap.no-scroll{min-height:calc(100vh - 86px);height:calc(100vh - 86px)!important;}}@media only screen and (min-width:1000px){#page-header-wrap.fullscreen-header,#page-header-wrap.fullscreen-header #page-header-bg,html:not(.nectar-box-roll-loaded) .nectar-box-roll > #page-header-bg.fullscreen-header,.nectar_fullscreen_zoom_recent_projects,#nectar_fullscreen_rows:not(.afterLoaded) > div{height:calc(100vh - 85px);}.wpb_row.vc_row-o-full-height.top-level,.wpb_row.vc_row-o-full-height.top-level > .col.span_12{min-height:calc(100vh - 85px);}html:not(.nectar-box-roll-loaded) .nectar-box-roll > #page-header-bg.fullscreen-header{top:86px;}.nectar-slider-wrap[data-fullscreen="true"]:not(.loaded),.nectar-slider-wrap[data-fullscreen="true"]:not(.loaded) .swiper-container{height:calc(100vh - 84px)!important;}.admin-bar .nectar-slider-wrap[data-fullscreen="true"]:not(.loaded),.admin-bar .nectar-slider-wrap[data-fullscreen="true"]:not(.loaded) .swiper-container{height:calc(100vh - 84px - 32px)!important;}}
</style>
<link href="https://fonts.googleapis.com/css?family=Muli%3A900&amp;ver=1610385414" id="redux-google-fonts-salient_redux-css" media="all" rel="stylesheet" type="text/css"/>
<script type="text/javascript">
/* <![CDATA[ */
var monsterinsights_frontend = {"js_events_tracking":"true","download_extensions":"doc,pdf,ppt,zip,xls,docx,pptx,xlsx","inbound_paths":"[{\"path\":\"\\\/go\\\/\",\"label\":\"affiliate\"},{\"path\":\"\\\/recommend\\\/\",\"label\":\"affiliate\"}]","home_url":"https:\/\/www.entero.com.au","hash_tracking":"false"};
/* ]]> */
</script>
<script src="https://www.entero.com.au/wp-content/plugins/google-analytics-for-wordpress/assets/js/frontend.min.js?ver=7.10.4" type="text/javascript"></script>
<script src="https://www.entero.com.au/wp-includes/js/jquery/jquery.js?ver=1.12.4-wp" type="text/javascript"></script>
<script src="https://www.entero.com.au/wp-includes/js/jquery/jquery-migrate.min.js?ver=1.4.1" type="text/javascript"></script>
<script src="https://www.entero.com.au/wp-content/plugins/html5-video-player/js/plyr.js?ver=3.5.10" type="text/javascript"></script>
<link href="https://www.entero.com.au/wp-json/" rel="https://api.w.org/"/>
<link href="https://www.entero.com.au/xmlrpc.php?rsd" rel="EditURI" title="RSD" type="application/rsd+xml"/>
<link href="https://www.entero.com.au/wp-includes/wlwmanifest.xml" rel="wlwmanifest" type="application/wlwmanifest+xml"/>
<meta content="WordPress 5.4.4" name="generator"/>
<script>
			document.documentElement.className = document.documentElement.className.replace( 'no-js', 'js' );
		</script>
<style>
			.no-js img.lazyload { display: none; }
			figure.wp-block-image img.lazyloading { min-width: 150px; }
							.lazyload, .lazyloading { opacity: 0; }
				.lazyloaded {
					opacity: 1;
					transition: opacity 400ms;
					transition-delay: 0ms;
				}
					</style>
<script type="text/javascript"> var root = document.getElementsByTagName( "html" )[0]; root.setAttribute( "class", "js" ); </script><script>
jQuery(document).ready(function ($) {
    $("img.team1").hover(
        function () {
            $("div.team1-text").show();
            $("div.team0-text").hide();
            $("img.team2").addClass("overlay");
            $("img.team3").addClass("overlay");
            $("img.team4").addClass("overlay");
            $("img.team5").addClass("overlay");
            $("img.team6").addClass("overlay");
        }, function () {
            $("div.team1-text").hide();
            $("div.team0-text").show();
            $("img.team2").removeClass("overlay");
            $("img.team3").removeClass("overlay");
            $("img.team4").removeClass("overlay");
            $("img.team5").removeClass("overlay");
            $("img.team6").removeClass("overlay");
        }
    );
    $("img.team2").hover(
        function () {
            $("div.team2-text").show();
            $("div.team0-text").hide();
            $("img.team1").addClass("overlay");
            $("img.team3").addClass("overlay");
            $("img.team4").addClass("overlay");
            $("img.team5").addClass("overlay");
            $("img.team6").addClass("overlay");
        }, function () {
            $("div.team2-text").hide();
            $("div.team0-text").show();
            $("img.team1").removeClass("overlay");
            $("img.team3").removeClass("overlay");
            $("img.team4").removeClass("overlay");
            $("img.team5").removeClass("overlay");
            $("img.team6").removeClass("overlay");
        }
    );
    $("img.team3").hover(
        function () {
            $("div.team3-text").show();
            $("div.team0-text").hide();
            $("img.team2").addClass("overlay");
            $("img.team1").addClass("overlay");
            $("img.team4").addClass("overlay");
            $("img.team5").addClass("overlay");
            $("img.team6").addClass("overlay");
        }, function () {
            $("div.team3-text").hide();
            $("div.team0-text").show();
            $("img.team2").removeClass("overlay");
            $("img.team1").removeClass("overlay");
            $("img.team4").removeClass("overlay");
            $("img.team5").removeClass("overlay");
            $("img.team6").removeClass("overlay");
        }
    );
    $("img.team4").hover(
        function () {
            $("div.team4-text").show();
            $("div.team0-text").hide();
            $("img.team2").addClass("overlay");
            $("img.team3").addClass("overlay");
            $("img.team1").addClass("overlay");
            $("img.team5").addClass("overlay");
            $("img.team6").addClass("overlay");
        }, function () {
            $("div.team4-text").hide();
            $("div.team0-text").show();
            $("img.team2").removeClass("overlay");
            $("img.team3").removeClass("overlay");
            $("img.team1").removeClass("overlay");
            $("img.team5").removeClass("overlay");
            $("img.team6").removeClass("overlay");
        }
    );
    $("img.team5").hover(
        function () {
            $("div.team5-text").show();
            $("div.team0-text").hide();
            $("img.team2").addClass("overlay");
            $("img.team3").addClass("overlay");
            $("img.team4").addClass("overlay");
            $("img.team1").addClass("overlay");
            $("img.team6").addClass("overlay");
        }, function () {
            $("div.team5-text").hide();
            $("div.team0-text").show();
            $("img.team2").removeClass("overlay");
            $("img.team3").removeClass("overlay");
            $("img.team4").removeClass("overlay");
            $("img.team1").removeClass("overlay");
            $("img.team6").removeClass("overlay");
        }
    );
    $("img.team6").hover(
        function () {
            $("div.team6-text").show();
            $("div.team0-text").hide();
            $("img.team2").addClass("overlay");
            $("img.team3").addClass("overlay");
            $("img.team4").addClass("overlay");
            $("img.team5").addClass("overlay");
            $("img.team1").addClass("overlay");
        }, function () {
            $("div.team6-text").hide();
            $("div.team0-text").show();
            $("img.team2").removeClass("overlay");
            $("img.team3").removeClass("overlay");
            $("img.team4").removeClass("overlay");
            $("img.team5").removeClass("overlay");
            $("img.team1").removeClass("overlay");
        }
    );
});
</script><meta content="Powered by WPBakery Page Builder - drag and drop page builder for WordPress." name="generator"/>
<link href="https://www.entero.com.au/wp-content/uploads/2019/10/cropped-Entero-logo-32x32.png" rel="icon" sizes="32x32"/>
<link href="https://www.entero.com.au/wp-content/uploads/2019/10/cropped-Entero-logo-192x192.png" rel="icon" sizes="192x192"/>
<link href="https://www.entero.com.au/wp-content/uploads/2019/10/cropped-Entero-logo-180x180.png" rel="apple-touch-icon"/>
<meta content="https://www.entero.com.au/wp-content/uploads/2019/10/cropped-Entero-logo-270x270.png" name="msapplication-TileImage"/>
<noscript><style> .wpb_animate_when_almost_visible { opacity: 1; }</style></noscript>
</head>
<body class="error404 material wpb-js-composer js-comp-ver-6.0.5 vc_responsive" data-aie="none" data-ajax-transitions="false" data-animated-anchors="true" data-apte="standard" data-bg-header="false" data-body-border="off" data-boxed-style="" data-button-style="slightly_rounded_shadow" data-cad="750" data-cae="easeOutCubic" data-cart="false" data-col-gap="default" data-dropdown-style="minimal" data-ext-responsive="true" data-fancy-form-rcs="default" data-flex-cols="true" data-footer-reveal="false" data-footer-reveal-shadow="none" data-force-header-trans-color="light" data-form-style="default" data-form-submit="regular" data-full-width-header="false" data-header-breakpoint="1000" data-header-color="custom" data-header-format="default" data-header-inherit-rc="false" data-header-resize="1" data-header-search="false" data-hhun="0" data-is="minimal" data-loading-animation="none" data-ls="fancybox" data-megamenu-width="contained" data-permanent-transparent="false" data-remove-m-parallax="" data-remove-m-video-bgs="" data-responsive="1" data-slide-out-widget-area="true" data-slide-out-widget-area-style="fullscreen" data-smooth-scrolling="0" data-transparent-header="false" data-user-account-button="false" data-user-set-ocm="off">
<script type="text/javascript"> if(navigator.userAgent.match(/(Android|iPod|iPhone|iPad|BlackBerry|IEMobile|Opera Mini)/)) { document.body.className += " using-mobile-browser "; } </script><div class="ocm-effect-wrap"><div class="ocm-effect-wrap-inner">
<div data-header-mobile-fixed="1" id="header-space"></div>
<div data-box-shadow="large" data-cart="false" data-condense="false" data-format="default" data-full-width="false" data-has-buttons="no" data-has-menu="true" data-header-resize="1" data-lhe="animated_underline" data-logo-height="30" data-m-logo-height="24" data-megamenu-rt="0" data-mobile-fixed="1" data-padding="28" data-permanent-transparent="false" data-ptnm="false" data-remove-fixed="0" data-shrink-num="6" data-transparency-option="0" data-user-set-bg="#ffffff" data-using-logo="1" data-using-pr-menu="false" data-using-secondary="0" id="header-outer">
<div class="nectar" id="search-outer">
<div id="search">
<div class="container">
<div id="search-box">
<div class="inner-wrap">
<div class="col span_12">
<form action="https://www.entero.com.au/" method="GET" role="search">
<input name="s" placeholder="Search" type="text" value=""/>
<span>Hit enter to search or ESC to close</span> </form>
</div><!--/span_12-->
</div><!--/inner-wrap-->
</div><!--/search-box-->
<div id="close"><a href="#">
<span class="close-wrap"> <span class="close-line close-line1"></span> <span class="close-line close-line2"></span> </span> </a></div>
</div><!--/container-->
</div><!--/search-->
</div><!--/search-outer-->
<header id="top">
<div class="container">
<div class="row">
<div class="col span_3">
<a data-supplied-ml="false" data-supplied-ml-starting="false" data-supplied-ml-starting-dark="false" href="https://www.entero.com.au" id="logo">
<img alt="Entero" class="stnd dark-version lazyload" data-src="https://www.entero.com.au/wp-content/uploads/2020/03/ENT001-black-logo.png" src="data:image/gif;base64,R0lGODlhAQABAAAAACH5BAEKAAEALAAAAAABAAEAAAICTAEAOw=="/><noscript><img alt="Entero" class="stnd dark-version" src="https://www.entero.com.au/wp-content/uploads/2020/03/ENT001-black-logo.png"/></noscript>
</a>
</div><!--/span_3-->
<div class="col span_9 col_last">
<div class="slide-out-widget-area-toggle mobile-icon fullscreen" data-icon-animation="simple-transform">
<div> <a aria-expanded="false" aria-label="Navigation Menu" class="closed" href="#sidewidgetarea">
<span aria-hidden="true"> <i class="lines-button x2"> <i class="lines"></i> </i> </span>
</a></div>
</div>
<nav>
<ul class="sf-menu">
<li class="menu-item menu-item-type-post_type menu-item-object-page menu-item-265" id="menu-item-265"><a href="https://www.entero.com.au/what-we-do/">What we do</a></li>
<li class="menu-item menu-item-type-post_type menu-item-object-page menu-item-264" id="menu-item-264"><a href="https://www.entero.com.au/our-team/">Our Team</a></li>
<li class="menu-item menu-item-type-post_type menu-item-object-page menu-item-338" id="menu-item-338"><a href="https://www.entero.com.au/projects/">Projects</a></li>
<li class="menu-item menu-item-type-post_type menu-item-object-page menu-item-337" id="menu-item-337"><a href="https://www.entero.com.au/contact/">Contact</a></li>
</ul>
<ul class="buttons sf-menu" data-user-set-ocm="off">
</ul>
</nav>
</div><!--/span_9-->
</div><!--/row-->
</div><!--/container-->
</header>
</div>
<div id="ajax-content-wrap">
<div class="blurred-wrap">
<div class="container-wrap">
<div class="container main-content">
<div class="row">
<div class="col span_12">
<div id="error-404">
<h1>404</h1>
<h2>Page Not Found</h2>
<a class="nectar-button large regular-button accent-color has-icon" data-color-override="false" data-hover-color-override="false" href="https://www.entero.com.au"><span>Back Home </span><i class="icon-button-arrow"></i></a>
</div>
</div><!--/span_12-->
</div><!--/row-->
</div><!--/container-->
</div><!--/container-wrap-->
<div data-bg-img-overlay="0.8" data-cols="4" data-copyright-line="false" data-custom-color="false" data-disable-copyright="false" data-full-width="false" data-link-hover="default" data-matching-section-color="true" data-midnight="light" data-using-bg-img="false" data-using-widget-area="true" id="footer-outer">
<div data-cols="4" data-has-widgets="true" id="footer-widgets">
<div class="container">
<div class="row">
<div class="col span_3">
<!-- Footer widget area 1 -->
<div class="widget widget_media_image" id="media_image-2"><a href="/"><img alt="" class="image wp-image-536 footer-logo attachment-145x50 size-145x50 lazyload" data-src="https://www.entero.com.au/wp-content/uploads/2020/04/ENT001-white-logo.png" height="50" src="data:image/gif;base64,R0lGODlhAQABAAAAACH5BAEKAAEALAAAAAABAAEAAAICTAEAOw==" style="max-width: 100%; height: auto;" width="145"/><noscript><img alt="" class="image wp-image-536 footer-logo attachment-145x50 size-145x50" height="50" src="https://www.entero.com.au/wp-content/uploads/2020/04/ENT001-white-logo.png" style="max-width: 100%; height: auto;" width="145"/></noscript></a></div> </div><!--/span_3-->
<div class="col span_3">
<!-- Footer widget area 2 -->
<div class="widget">
</div>
</div><!--/span_3-->
<div class="col span_3">
<!-- Footer widget area 3 -->
<div class="widget widget_text" id="text-2"> <div class="textwidget"><p><span style="font-family: sentinal-book-italic;
    font-size: 20px;
    color: rgb(90,90,90);">call darren</span><br/>
<a href="tel:0418657084"><span style="font-family: gilroy-black;
    color: white;
    font-size: 27px;
    line-height: 35px;">0418 657 084</span></a></p>
</div>
</div>
</div><!--/span_3-->
<div class="col span_3">
<!-- Footer widget area 4 -->
<div class="widget widget_text" id="text-3"> <div class="textwidget"><p><span style="font-family: sentinal-book-italic;
    font-size: 20px;
    color: rgb(90,90,90);">email us</span><br/>
<a href="mailto:hello@entero.com.au"><span style="font-family: gilroy-black;
    color: white;
    font-size: 27px;
    line-height: 35px;">hello@entero.com.au</span></a></p>
</div>
</div>
</div><!--/span_3-->
</div><!--/row-->
</div><!--/container-->
</div><!--/footer-widgets-->
<div class="row" data-layout="centered" id="copyright">
<div class="container">
<div class="col span_5">
<div class="widget">
</div>
<p>© 2021 Entero. 
					   			 </p>
</div><!--/span_5-->
<div class="col span_7 col_last">
<ul class="social">
</ul>
</div><!--/span_7-->
</div><!--/container-->
</div><!--/row-->
</div><!--/footer-outer-->
</div><!--blurred-wrap-->
<div class="fullscreen dark" id="slide-out-widget-area-bg">
</div>
<div class="fullscreen" data-back-txt="Back" data-dropdown-func="default" id="slide-out-widget-area">
<div class="inner-wrap">
<div class="inner" data-prepend-menu-mobile="false">
<a class="slide_out_area_close" href="#">
<span class="close-wrap"> <span class="close-line close-line1"></span> <span class="close-line close-line2"></span> </span> </a>
<div class="off-canvas-menu-container mobile-only">
<ul class="menu">
<li class="menu-item menu-item-type-post_type menu-item-object-page menu-item-265"><a href="https://www.entero.com.au/what-we-do/">What we do</a></li>
<li class="menu-item menu-item-type-post_type menu-item-object-page menu-item-264"><a href="https://www.entero.com.au/our-team/">Our Team</a></li>
<li class="menu-item menu-item-type-post_type menu-item-object-page menu-item-338"><a href="https://www.entero.com.au/projects/">Projects</a></li>
<li class="menu-item menu-item-type-post_type menu-item-object-page menu-item-337"><a href="https://www.entero.com.au/contact/">Contact</a></li>
</ul>
<ul class="menu secondary-header-items">
</ul>
</div>
</div>
<div class="bottom-meta-wrap"></div><!--/bottom-meta-wrap--></div> <!--/inner-wrap-->
</div>
</div> <!--/ajax-content-wrap-->
<a class=" " id="to-top"><i class="fa fa-angle-up"></i></a>
</div></div><!--/ocm-effect-wrap--><script type="text/javascript">
/* <![CDATA[ */
var wpcf7 = {"apiSettings":{"root":"https:\/\/www.entero.com.au\/wp-json\/contact-form-7\/v1","namespace":"contact-form-7\/v1"},"cached":"1"};
/* ]]> */
</script>
<script src="https://www.entero.com.au/wp-content/plugins/contact-form-7/includes/js/scripts.js?ver=5.1.7" type="text/javascript"></script>
<script type="text/javascript">
/* <![CDATA[ */
var nectarLove = {"ajaxurl":"https:\/\/www.entero.com.au\/wp-admin\/admin-ajax.php","postID":"0","rooturl":"https:\/\/www.entero.com.au","loveNonce":"0457deef79"};
/* ]]> */
</script>
<script src="https://www.entero.com.au/wp-content/plugins/salient-social/js/salient-social.js?ver=1.1" type="text/javascript"></script>
<script src="https://www.google.com/recaptcha/api.js?render=6LcHoukUAAAAANa-UQRkiykzfEPYCAtEtZAGVMGI&amp;ver=3.0" type="text/javascript"></script>
<script src="https://www.entero.com.au/wp-content/plugins/wp-smushit/app/assets/js/smush-lazy-load.min.js?ver=3.6.1" type="text/javascript"></script>
<script src="https://www.entero.com.au/wp-content/themes/salient/js/third-party/jquery.easing.js?ver=1.3" type="text/javascript"></script>
<script src="https://www.entero.com.au/wp-content/themes/salient/js/third-party/jquery.mousewheel.js?ver=3.1.13" type="text/javascript"></script>
<script src="https://www.entero.com.au/wp-content/themes/salient/js/priority.js?ver=11.0.1" type="text/javascript"></script>
<script src="https://www.entero.com.au/wp-content/themes/salient/js/third-party/transit.js?ver=0.9.9" type="text/javascript"></script>
<script src="https://www.entero.com.au/wp-content/themes/salient/js/third-party/waypoints.js?ver=4.0.1" type="text/javascript"></script>
<script src="https://www.entero.com.au/wp-content/themes/salient/js/third-party/modernizr.js?ver=2.6.2" type="text/javascript"></script>
<script src="https://www.entero.com.au/wp-content/plugins/salient-portfolio/js/third-party/imagesLoaded.min.js?ver=4.1.4" type="text/javascript"></script>
<script src="https://www.entero.com.au/wp-content/themes/salient/js/third-party/hoverintent.js?ver=1.9" type="text/javascript"></script>
<script src="https://www.entero.com.au/wp-content/themes/salient/js/third-party/jquery.fancybox.min.js?ver=3.3.1" type="text/javascript"></script>
<script src="https://www.entero.com.au/wp-content/themes/salient/js/third-party/superfish.js?ver=1.4.8" type="text/javascript"></script>
<script type="text/javascript">
/* <![CDATA[ */
var nectarLove = {"ajaxurl":"https:\/\/www.entero.com.au\/wp-admin\/admin-ajax.php","postID":"0","rooturl":"https:\/\/www.entero.com.au","disqusComments":"false","loveNonce":"0457deef79","mapApiKey":""};
/* ]]> */
</script>
<script src="https://www.entero.com.au/wp-content/themes/salient/js/init.js?ver=11.0.1" type="text/javascript"></script>
<script src="https://www.entero.com.au/wp-content/plugins/salient-core/js/third-party/touchswipe.min.js?ver=1.0" type="text/javascript"></script>
<script src="https://www.entero.com.au/wp-includes/js/wp-embed.min.js?ver=5.4.4" type="text/javascript"></script>
<script type="text/javascript">
( function( grecaptcha, sitekey, actions ) {

	var wpcf7recaptcha = {

		execute: function( action ) {
			grecaptcha.execute(
				sitekey,
				{ action: action }
			).then( function( token ) {
				var forms = document.getElementsByTagName( 'form' );

				for ( var i = 0; i < forms.length; i++ ) {
					var fields = forms[ i ].getElementsByTagName( 'input' );

					for ( var j = 0; j < fields.length; j++ ) {
						var field = fields[ j ];

						if ( 'g-recaptcha-response' === field.getAttribute( 'name' ) ) {
							field.setAttribute( 'value', token );
							break;
						}
					}
				}
			} );
		},

		executeOnHomepage: function() {
			wpcf7recaptcha.execute( actions[ 'homepage' ] );
		},

		executeOnContactform: function() {
			wpcf7recaptcha.execute( actions[ 'contactform' ] );
		},

	};

	grecaptcha.ready(
		wpcf7recaptcha.executeOnHomepage
	);

	document.addEventListener( 'change',
		wpcf7recaptcha.executeOnContactform, false
	);

	document.addEventListener( 'wpcf7submit',
		wpcf7recaptcha.executeOnHomepage, false
	);

} )(
	grecaptcha,
	'6LcHoukUAAAAANa-UQRkiykzfEPYCAtEtZAGVMGI',
	{"homepage":"homepage","contactform":"contactform"}
);
</script>
</body>
</html>