<!DOCTYPE HTML PUBLIC "-//W3C//DTD HTML 3.2 Final//EN">
<html>
<head>
<title>Index of /wp-includes/fonts</title>
</head>
<body>
<h1>Index of /wp-includes/fonts</h1>
<table>
<tr><th valign="top"> </th><th><a href="?C=N;O=D">Name</a></th><th><a href="?C=M;O=A">Last modified</a></th><th><a href="?C=S;O=A">Size</a></th><th><a href="?C=D;O=A">Description</a></th></tr>
<tr><th colspan="5"><hr/></th></tr>
<tr><td valign="top"> </td><td><a href="/wp-includes/">Parent Directory</a> </td><td> </td><td align="right">  - </td><td> </td></tr>
<tr><td valign="top"> </td><td><a href="dashicons.eot">dashicons.eot</a> </td><td align="right">2020-11-25 12:20  </td><td align="right"> 55K</td><td> </td></tr>
<tr><td valign="top"> </td><td><a href="dashicons.svg">dashicons.svg</a> </td><td align="right">2020-11-25 12:20  </td><td align="right">122K</td><td> </td></tr>
<tr><td valign="top"> </td><td><a href="dashicons.ttf">dashicons.ttf</a> </td><td align="right">2020-11-25 12:20  </td><td align="right"> 55K</td><td> </td></tr>
<tr><td valign="top"> </td><td><a href="dashicons.woff">dashicons.woff</a> </td><td align="right">2020-02-13 09:56  </td><td align="right"> 26K</td><td> </td></tr>
<tr><td valign="top"> </td><td><a href="dashicons.woff2">dashicons.woff2</a> </td><td align="right">2020-11-25 12:20  </td><td align="right"> 26K</td><td> </td></tr>
<tr><th colspan="5"><hr/></th></tr>
</table>
</body></html>
