<html><body><p>ï»¿<!DOCTYPE html PUBLIC "-//W3C//DTD XHTML 1.0 Transitional//EN" "http://www.w3.org/TR/xhtml1/DTD/xhtml1-transitional.dtd">

</p>
<meta content="text/html; charset=utf-8" http-equiv="Content-Type"/>
<title></title>
<link href="transit/css/index.css" rel="stylesheet" type="text/css"/>
<script src="mcrweb/js/jquery/jquery.min.js"></script>
<div class="menu-wrap">
<ul class="menu-top-nav">
<li><a class="mega-menu-link" href="#">é¦é¡µ</a></li>
<li><a class="mega-menu-link" href="https://www.gcable.com.cn/g-guide/">Gå¯¼è§</a></li>
<li><a class="mega-menu-link" href="https://www.gcable.com.cn/live-channel/">Uäºå¨</a></li>
<li><a class="mega-menu-link" href="https://www.gcable.com.cn/broadband-internet/">Uå®½é¢</a></li>
<li><a class="mega-menu-link" href="https://www.gcable.com.cn/goodo/">è°·è±</a></li>
<li><a class="mega-menu-link" href="https://www.gcable.com.cn/u-point/">Uç¹</a></li>
<li><a class="mega-menu-link" href="https://www.gcable.com.cn/package/">è®¢è´­</a></li>
<li><a class="mega-menu-link" href="https://www.gcable.com.cn/dia/">æ¿ä¼</a></li>
<li><a class="mega-menu-link" href="https://www.gcable.com.cn/about-us/gcn/">å³äºæä»¬</a></li>
</ul>
</div>
<div class="content-wrap">
<!--<div class="togcable"><span id="Time">3</span>sè·³è½¬</div>-->
<div class="content-box"><div class="content-img"><img src="transit/images/content.png"/></div></div>
<div class="btn-box"><a class="mega-menu-link" href="https://www.gcable.com.cn/about-us/gcn/"><div class="btn"></div></a></div>
</div>
<div class="footer">
<div class="center">
<div class="copyright clearfix">
<p class="p1 fl">Copyright Â© 2020 å¹¿ä¸çå¹¿æ­çµè§ç½ç»è¡ä»½æéå¬å¸ Gcable.com.cn çæææ</p>
<p class="fl"><a href="http://beian.miit.gov.cn/" target="_blank">ç²¤ICPå¤12040101å·</a><span class="split10">|</span></p>
<p class="fl">å¢å¼çµä¿¡ä¸å¡ç»è¥è®¸å¯è¯ç²¤B1.B2-20130067<span class="split10">|</span></p>
<p class="fl">ä¿¡æ¯ç½ç»ä¼ æ­è§å¬èç®è®¸å¯è¯1904046</p>
</div>
</div>
</div>
<script>
  function countDown(){
    var time = document.getElementById("Time");
    if(time.innerHTML == 0){
        window.location.href="https://www.gcable.com.cn";
     }else{
        time.innerHTML = time.innerHTML-1;
     }
    }
   //window.setInterval("countDown()",1000);
</script>
</body></html>