<!DOCTYPE html>
<html dir="rtl" lang="fa-IR">
<head>
<meta charset="utf-8"/>
<meta content="width=device-width, initial-scale=1" name="viewport"/>
<!-- This site is optimized with the Yoast SEO Premium plugin v15.5 - https://yoast.com/wordpress/plugins/seo/ -->
<title>دانلود آهنگ جدید - موزیک سال 99 - فول آلبوم ایرانی</title>
<meta content="98ایران بزرگترین رسانه موزیک - دانلود آهنگ ایرانی - دانلود گلچین آهنگ های شاد ایرانی - دانلود فول آلبوم و دانلود آهنگ سال 99" name="description"/>
<meta content="index, follow, max-snippet:-1, max-image-preview:large, max-video-preview:-1" name="robots"/>
<link href="https://98iran.org/" rel="canonical"/>
<link href="https://98iran.org/page/2/" rel="next"/>
<meta content="fa_IR" property="og:locale"/>
<meta content="website" property="og:type"/>
<meta content="دانلود آهنگ جدید - موزیک سال 99 - فول آلبوم ایرانی" property="og:title"/>
<meta content="98ایران بزرگترین رسانه موزیک - دانلود آهنگ ایرانی - دانلود گلچین آهنگ های شاد ایرانی - دانلود فول آلبوم و دانلود آهنگ سال 99" property="og:description"/>
<meta content="https://98iran.org/" property="og:url"/>
<meta content="دانلود آهنگ جدید - موزیک سال 99 - فول آلبوم ایرانی" property="og:site_name"/>
<meta content="summary" name="twitter:card"/>
<meta content="@98iran" name="twitter:site"/>
<script class="yoast-schema-graph" type="application/ld+json">{"@context":"https://schema.org","@graph":[{"@type":"WebSite","@id":"https://98iran.org/#website","url":"https://98iran.org/","name":"\u062f\u0627\u0646\u0644\u0648\u062f \u0622\u0647\u0646\u06af \u062c\u062f\u06cc\u062f - \u0645\u0648\u0632\u06cc\u06a9 \u0633\u0627\u0644 99 - \u0641\u0648\u0644 \u0622\u0644\u0628\u0648\u0645 \u0627\u06cc\u0631\u0627\u0646\u06cc","description":"\u0622\u0647\u0646\u06af \u0633\u0627\u0644 99 - 98\u0627\u06cc\u0631\u0627\u0646 \u0628\u0632\u0631\u06af\u062a\u0631\u06cc\u0646 \u0631\u0633\u0627\u0646\u0647 \u0645\u0648\u0632\u06cc\u06a9 - \u0622\u0647\u0646\u06af \u0627\u06cc\u0631\u0627\u0646\u06cc - \u062f\u0627\u0646\u0644\u0648\u062f \u0641\u0648\u0644 \u0622\u0644\u0628\u0648\u0645","potentialAction":[{"@type":"SearchAction","target":"https://98iran.org/?s={search_term_string}","query-input":"required name=search_term_string"}],"inLanguage":"fa-IR"},{"@type":"CollectionPage","@id":"https://98iran.org/#webpage","url":"https://98iran.org/","name":"\u062f\u0627\u0646\u0644\u0648\u062f \u0622\u0647\u0646\u06af \u062c\u062f\u06cc\u062f - \u0645\u0648\u0632\u06cc\u06a9 \u0633\u0627\u0644 99 - \u0641\u0648\u0644 \u0622\u0644\u0628\u0648\u0645 \u0627\u06cc\u0631\u0627\u0646\u06cc","isPartOf":{"@id":"https://98iran.org/#website"},"description":"98\u0627\u06cc\u0631\u0627\u0646 \u0628\u0632\u0631\u06af\u062a\u0631\u06cc\u0646 \u0631\u0633\u0627\u0646\u0647 \u0645\u0648\u0632\u06cc\u06a9 - \u062f\u0627\u0646\u0644\u0648\u062f \u0622\u0647\u0646\u06af \u0627\u06cc\u0631\u0627\u0646\u06cc - \u062f\u0627\u0646\u0644\u0648\u062f \u06af\u0644\u0686\u06cc\u0646 \u0622\u0647\u0646\u06af \u0647\u0627\u06cc \u0634\u0627\u062f \u0627\u06cc\u0631\u0627\u0646\u06cc - \u062f\u0627\u0646\u0644\u0648\u062f \u0641\u0648\u0644 \u0622\u0644\u0628\u0648\u0645 \u0648 \u062f\u0627\u0646\u0644\u0648\u062f \u0622\u0647\u0646\u06af \u0633\u0627\u0644 99","inLanguage":"fa-IR","potentialAction":[{"@type":"ReadAction","target":["https://98iran.org/"]}]}]}</script>
<meta content="2A0CE59FBBAAB940C88887C2CDF9DA19" name="msvalidate.01"/>
<meta content="P-fFvo-Abjn-P6QEdt85Rucvhz-eZeQK-7dKrislCuQ" name="google-site-verification"/>
<meta content="0cc27a435f638dae" name="yandex-verification"/>
<!-- / Yoast SEO Premium plugin. -->
<link href="//s.w.org" rel="dns-prefetch"/>
<link href="https://98iran.org/wp-content/plugins/contact-form-7/includes/css/styles-rtl.css" id="contact-form-7-rtl-css" media="all" rel="stylesheet" type="text/css"/>
<link href="https://98iran.org/wp-content/themes/98iran/style.css" id="style-css" media="all" rel="stylesheet" type="text/css"/>
<link href="https://98iran.org/wp-json/" rel="https://api.w.org/"/><link href="https://98iran.org/xmlrpc.php?rsd" rel="EditURI" title="RSD" type="application/rsd+xml"/>
<link href="https://98iran.org/wp-includes/wlwmanifest.xml" rel="wlwmanifest" type="application/wlwmanifest+xml"/>
<meta content="WordPress 5.6" name="generator"/>
<link href="https://98iran.org/wp-content/themes/98iran/favicon.png" rel="icon" type="image/png"/>
<meta content="#feb72f" name="theme-color"/>
<link href="https://98iran.org/wp-content/uploads/2017/01/cropped-98iran-32x32.png" rel="icon" sizes="32x32"/>
<link href="https://98iran.org/wp-content/uploads/2017/01/cropped-98iran-192x192.png" rel="icon" sizes="192x192"/>
<link href="https://98iran.org/wp-content/uploads/2017/01/cropped-98iran-180x180.png" rel="apple-touch-icon"/>
<meta content="https://98iran.org/wp-content/uploads/2017/01/cropped-98iran-270x270.png" name="msapplication-TileImage"/>
<meta content="Copyright 2019 98Iran. All Rights Reserved." name="copyright"/>
<meta content="98Iran" name="author"/>
<meta content="www.3eo.ir" name="seo"/>
<meta content="fa_IR" name="language"/>
<meta content="IR" name="geo.region"/>
<meta content="all" name="robots"/>
</head>
<body>
<header class="irhead">
<div class="rw flx">
<div class="logo flx">
<a href="https://98iran.org">دانلود آهنگ جدید – موزیک سال 99 – فول آلبوم ایرانی</a>
<h1 class="h1">دانلود آهنگ جدید – موزیک سال 99 – فول آلبوم ایرانی</h1>
</div>
<a class="insta flx" href="https://instagram.com/admin98iran" rel="nofollow" target="_blank" title="اینستاگرام ما"><span class="inico"></span><span class="intxt">اینستاگرام ما</span></a>
</div>
</header>
<nav class="irmenu">
<div class="rw flx">
<ul class="flx"><li class="current-menu-item"><a aria-current="page" href="https://98iran.org/">دانلود آهنگ جدید</a></li>
<li><a href="https://98iran.org/category/%d8%a2%d9%87%d9%86%da%af-%d8%a7%db%8c%d8%b1%d8%a7%d9%86%db%8c/">آهنگ ایرانی</a></li>
<li><a href="https://98iran.org/category/album-irani/">آلبوم ایرانی</a></li>
<li><a href="https://98iran.org/category/%d9%81%d9%88%d9%84-%d8%a2%d9%84%d8%a8%d9%88%d9%85/">فول آلبوم</a></li>
<li><a href="https://98iran.org/tablighat/">تبلیغات</a></li>
<li><a href="https://98iran.org/contactus/">تماس با ما</a></li>
</ul><form action="https://98iran.org" method="get">
<input name="s" oninput="setCustomValidity('')" oninvalid="this.setCustomValidity('لطفا متنی برای جستجو انتخاب کنید.')" placeholder="نام خواننده یا نام اثر را جستجو کنید ..." required="required" type="text" value=""/>
<button type="submit"></button>
</form>
</div>
</nav>
<nav class="irpub">
<div class="rw flx">
پخش موزیک شما در سایت 98ایران و سایر سایت های معتبر با قیمت مناسب <span> » تماس با شماره  <a href="tel://09330606707" target="_blank">09330606707</a> </span>
</div>
<div class="spmusics">
<ul class="rw flx">
<li><a href="https://98iran.org/hojat-ashrafzadeh-sakht-nagir/" title="آهنگ حجت اشرف زاده به نام سخت نگیر">
<figure>
<img alt="آهنگ حجت اشرف زاده به نام سخت نگیر" class="attachment-200 size-200 wp-post-image" height="450" loading="lazy" sizes="(max-width: 450px) 100vw, 450px" src="https://98iran.org/wp-content/uploads/2021/01/Hojat-Ashrafzadeh-Sakht-Nagir.jpg" srcset="https://98iran.org/wp-content/uploads/2021/01/Hojat-Ashrafzadeh-Sakht-Nagir.jpg 450w, https://98iran.org/wp-content/uploads/2021/01/Hojat-Ashrafzadeh-Sakht-Nagir-300x300.jpg 300w, https://98iran.org/wp-content/uploads/2021/01/Hojat-Ashrafzadeh-Sakht-Nagir-150x150.jpg 150w, https://98iran.org/wp-content/uploads/2021/01/Hojat-Ashrafzadeh-Sakht-Nagir-200x200.jpg 200w" title="آهنگ حجت اشرف زاده به نام سخت نگیر" width="450"/></figure>
<span>
<span class="artname">
<strong>حجت اشرف زاده</strong><small>سخت نگیر</small></span>
<i>موزیک</i>
</span>
</a>
</li>
<li><a href="https://98iran.org/hamid-hiraad-khoda-nakonad/" title="آهنگ حمید هیراد به نام خدا نکند">
<figure>
<img alt="آهنگ حمید هیراد به نام خدا نکند" class="attachment-200 size-200 wp-post-image" height="450" loading="lazy" sizes="(max-width: 450px) 100vw, 450px" src="https://98iran.org/wp-content/uploads/2021/01/Hamid-Hiraad-Khoda-Nakonad.jpg" srcset="https://98iran.org/wp-content/uploads/2021/01/Hamid-Hiraad-Khoda-Nakonad.jpg 450w, https://98iran.org/wp-content/uploads/2021/01/Hamid-Hiraad-Khoda-Nakonad-300x300.jpg 300w, https://98iran.org/wp-content/uploads/2021/01/Hamid-Hiraad-Khoda-Nakonad-150x150.jpg 150w, https://98iran.org/wp-content/uploads/2021/01/Hamid-Hiraad-Khoda-Nakonad-200x200.jpg 200w" title="آهنگ حمید هیراد به نام خدا نکند" width="450"/></figure>
<span>
<span class="artname">
<strong>حمید هیراد</strong><small>خدا نکند</small></span>
<i>موزیک</i>
</span>
</a>
</li>
<li><a href="https://98iran.org/pouya-bayati-bigharar/" title="آهنگ پویا بیاتی به نام بیقرار">
<figure>
<img alt="آهنگ پویا بیاتی به نام بیقرار" class="attachment-200 size-200 wp-post-image" height="450" loading="lazy" sizes="(max-width: 450px) 100vw, 450px" src="https://98iran.org/wp-content/uploads/2021/01/Pouya-Bayati-Bigharar.jpg" srcset="https://98iran.org/wp-content/uploads/2021/01/Pouya-Bayati-Bigharar.jpg 450w, https://98iran.org/wp-content/uploads/2021/01/Pouya-Bayati-Bigharar-300x300.jpg 300w, https://98iran.org/wp-content/uploads/2021/01/Pouya-Bayati-Bigharar-150x150.jpg 150w, https://98iran.org/wp-content/uploads/2021/01/Pouya-Bayati-Bigharar-200x200.jpg 200w" title="آهنگ پویا بیاتی به نام بیقرار" width="450"/></figure>
<span>
<span class="artname">
<strong>پویا بیاتی</strong><small>بیقرار</small></span>
<i>موزیک</i>
</span>
</a>
</li>
<li><a href="https://98iran.org/garsha-rezaei-baroon/" title="آهنگ گرشا رضایی به نام بارون">
<figure>
<img alt="آهنگ گرشا رضایی به نام بارون" class="attachment-200 size-200 wp-post-image" height="450" loading="lazy" sizes="(max-width: 450px) 100vw, 450px" src="https://98iran.org/wp-content/uploads/2021/01/Garsha-Rezaei-Baroon.jpg" srcset="https://98iran.org/wp-content/uploads/2021/01/Garsha-Rezaei-Baroon.jpg 450w, https://98iran.org/wp-content/uploads/2021/01/Garsha-Rezaei-Baroon-300x300.jpg 300w, https://98iran.org/wp-content/uploads/2021/01/Garsha-Rezaei-Baroon-150x150.jpg 150w, https://98iran.org/wp-content/uploads/2021/01/Garsha-Rezaei-Baroon-200x200.jpg 200w" title="آهنگ گرشا رضایی به نام بارون" width="450"/></figure>
<span>
<span class="artname">
<strong>گرشا رضایی</strong><small>بارون</small></span>
<i>موزیک</i>
</span>
</a>
</li>
<li><a href="https://98iran.org/fereydoun-asraei-jome-bi-shanbe/" title="آهنگ فریدون آسرایی به نام جمعه بی شنبه">
<figure>
<img alt="آهنگ فریدون آسرایی به نام جمعه بی شنبه" class="attachment-200 size-200 wp-post-image" height="450" loading="lazy" sizes="(max-width: 450px) 100vw, 450px" src="https://98iran.org/wp-content/uploads/2021/01/Fereydoun-Asraei-Jome-Bi-Shanbe.jpg" srcset="https://98iran.org/wp-content/uploads/2021/01/Fereydoun-Asraei-Jome-Bi-Shanbe.jpg 450w, https://98iran.org/wp-content/uploads/2021/01/Fereydoun-Asraei-Jome-Bi-Shanbe-300x300.jpg 300w, https://98iran.org/wp-content/uploads/2021/01/Fereydoun-Asraei-Jome-Bi-Shanbe-150x150.jpg 150w, https://98iran.org/wp-content/uploads/2021/01/Fereydoun-Asraei-Jome-Bi-Shanbe-200x200.jpg 200w" title="آهنگ فریدون آسرایی به نام جمعه بی شنبه" width="450"/></figure>
<span>
<span class="artname">
<strong>فریدون آسرایی</strong><small>جمعه بی شنبه</small></span>
<i>موزیک</i>
</span>
</a>
</li>
<li><a href="https://98iran.org/roozbeh-bemani-alaaj/" title="آهنگ روزبه بمانی به نام علاج">
<figure>
<img alt="آهنگ روزبه بمانی به نام علاج" class="attachment-200 size-200 wp-post-image" height="450" loading="lazy" sizes="(max-width: 450px) 100vw, 450px" src="https://98iran.org/wp-content/uploads/2020/12/Roozbeh-Bemani-Alaaj.jpg" srcset="https://98iran.org/wp-content/uploads/2020/12/Roozbeh-Bemani-Alaaj.jpg 450w, https://98iran.org/wp-content/uploads/2020/12/Roozbeh-Bemani-Alaaj-300x300.jpg 300w, https://98iran.org/wp-content/uploads/2020/12/Roozbeh-Bemani-Alaaj-150x150.jpg 150w, https://98iran.org/wp-content/uploads/2020/12/Roozbeh-Bemani-Alaaj-200x200.jpg 200w" title="آهنگ روزبه بمانی به نام علاج" width="450"/></figure>
<span>
<span class="artname">
<strong>روزبه بمانی</strong><small>علاج</small></span>
<i>موزیک</i>
</span>
</a>
</li>
</ul>
</div>
<div class="irmargin rw flxi">
<div class="irright flxi">
<div class="ircenter">
<div class="irbox toppost"><div class="posthead">سایت موزیک 98ایران</div><div class="isbody"> <div class="textwidget"><div style="text-align: center;"><a href="https://www.98iran.org/tablighat/" rel="noopener" target="_blank"><img alt="پخش سراسری آهنگ" class="wp-image-41423 size-full aligncenter" height="500" loading="lazy" src="https://98iran.org/wp-content/uploads/2020/08/Tabligh-99.jpg" width="500"/></a></div>
</div>
</div></div><article class="irbox posts">
<header class="posthead">
<h2 class="phd"><span class="cpicon"></span>
<a href="https://98iran.org/hojat-ashrafzadeh-sakht-nagir/" rel="bookmark" title="آهنگ حجت اشرف زاده به نام سخت نگیر">آهنگ حجت اشرف زاده به نام سخت نگیر</a></h2>
</header>
<div class="postcon">
<h2 style="text-align: center;">حجت اشرف زاده سخت نگیر</h2>
<p style="text-align: center;"><a href="https://98iran.org/tag/%D8%AF%D8%A7%D9%86%D9%84%D9%88%D8%AF-%D8%A2%D9%87%D9%86%DA%AF-%D8%AC%D8%AF%DB%8C%D8%AF/">دانلود آهنگ جدید</a> <a href="https://98iran.org/tag/%D8%AD%D8%AC%D8%AA-%D8%A7%D8%B4%D8%B1%D9%81-%D8%B2%D8%A7%D8%AF%D9%87/"><strong>حجت اشرف زاده</strong></a> به نام <strong>سخت نگیر</strong></p>
<p style="text-align: center;">برای <a href="https://98iran.org/hojat-ashrafzadeh/">دانلود فول آلبوم حجت اشرف زاده</a> اینجا کلیک کنید</p>
<p style="text-align: center;">
</p>
<p style="text-align: center;">
<img alt="آهنگ حجت اشرف زاده به نام سخت نگیر" class="attachment-full size-full wp-post-image" height="450" loading="lazy" sizes="(max-width: 450px) 100vw, 450px" src="https://98iran.org/wp-content/uploads/2021/01/Hojat-Ashrafzadeh-Sakht-Nagir.jpg" srcset="https://98iran.org/wp-content/uploads/2021/01/Hojat-Ashrafzadeh-Sakht-Nagir.jpg 450w, https://98iran.org/wp-content/uploads/2021/01/Hojat-Ashrafzadeh-Sakht-Nagir-300x300.jpg 300w, https://98iran.org/wp-content/uploads/2021/01/Hojat-Ashrafzadeh-Sakht-Nagir-150x150.jpg 150w, https://98iran.org/wp-content/uploads/2021/01/Hojat-Ashrafzadeh-Sakht-Nagir-200x200.jpg 200w" title="آهنگ حجت اشرف زاده به نام سخت نگیر" width="450"/></p>
</div>
<footer>
<ul class="postfoot flx">
<li class="pf1">آهنگ ایرانی, آهنگ های سال 1399</li>
<li class="pf2">23 دی 1399</li>
<li class="pf5">74,580 بازدید</li>
<li class="pf3">بدون نظر</li>
<li class="pf4"><a href="https://98iran.org/hojat-ashrafzadeh-sakht-nagir/" rel="bookmark" title="آهنگ حجت اشرف زاده به نام سخت نگیر">ادامه مطلب</a></li>
</ul>
</footer>
</article>
<article class="irbox posts">
<header class="posthead">
<h2 class="phd"><span class="cpicon"></span>
<a href="https://98iran.org/raad-to-injaee/" rel="bookmark" title="آهنگ راد به نام تو اینجایی">آهنگ راد به نام تو اینجایی</a></h2>
</header>
<div class="postcon">
<h2 style="text-align: center;">راد تو اینجایی</h2>
<p style="text-align: center;"><a href="https://98iran.org/tag/%D8%AF%D8%A7%D9%86%D9%84%D9%88%D8%AF-%D8%A2%D9%87%D9%86%DA%AF-%D8%AC%D8%AF%DB%8C%D8%AF/">دانلود آهنگ جدید</a> <a href="https://98iran.org/tag/%D8%B1%D8%A7%D8%AF/"><strong>راد</strong></a> به نام <strong>تو اینجایی</strong></p>
<p style="text-align: center;">
</p>
<p style="text-align: center;">
<img alt="آهنگ راد به نام تو اینجایی" class="attachment-full size-full wp-post-image" height="450" loading="lazy" sizes="(max-width: 450px) 100vw, 450px" src="https://98iran.org/wp-content/uploads/2021/01/Raad-To-Injaee.jpg" srcset="https://98iran.org/wp-content/uploads/2021/01/Raad-To-Injaee.jpg 450w, https://98iran.org/wp-content/uploads/2021/01/Raad-To-Injaee-300x300.jpg 300w, https://98iran.org/wp-content/uploads/2021/01/Raad-To-Injaee-150x150.jpg 150w, https://98iran.org/wp-content/uploads/2021/01/Raad-To-Injaee-200x200.jpg 200w" title="آهنگ راد به نام تو اینجایی" width="450"/></p>
</div>
<footer>
<ul class="postfoot flx">
<li class="pf1">آهنگ ایرانی, آهنگ های سال 1399</li>
<li class="pf2">23 دی 1399</li>
<li class="pf5">29,957 بازدید</li>
<li class="pf3">بدون نظر</li>
<li class="pf4"><a href="https://98iran.org/raad-to-injaee/" rel="bookmark" title="آهنگ راد به نام تو اینجایی">ادامه مطلب</a></li>
</ul>
</footer>
</article>
<article class="irbox posts">
<header class="posthead">
<h2 class="phd"><span class="cpicon"></span>
<a href="https://98iran.org/peyman-hosseinzadeh-cheshmanat/" rel="bookmark" title="آهنگ پیمان حسین زاده به نام چشمانت">آهنگ پیمان حسین زاده به نام چشمانت</a></h2>
</header>
<div class="postcon">
<h2 style="text-align: center;">پیمان حسین زاده چشمانت</h2>
<p style="text-align: center;"><a href="https://98iran.org/tag/%D8%AF%D8%A7%D9%86%D9%84%D9%88%D8%AF-%D8%A2%D9%87%D9%86%DA%AF-%D8%AC%D8%AF%DB%8C%D8%AF/">دانلود آهنگ جدید</a> <a href="https://98iran.org/tag/%D9%BE%DB%8C%D9%85%D8%A7%D9%86-%D8%AD%D8%B3%DB%8C%D9%86-%D8%B2%D8%A7%D8%AF%D9%87/"><strong>پیمان حسین زاده</strong></a> به نام <strong>چشمانت</strong></p>
<p style="text-align: center;">
</p>
<p style="text-align: center;">
<img alt="آهنگ پیمان حسین زاده به نام چشمانت" class="attachment-full size-full wp-post-image" height="450" loading="lazy" sizes="(max-width: 450px) 100vw, 450px" src="https://98iran.org/wp-content/uploads/2021/01/Peyman-Hosseinzadeh-Cheshmanat.jpg" srcset="https://98iran.org/wp-content/uploads/2021/01/Peyman-Hosseinzadeh-Cheshmanat.jpg 450w, https://98iran.org/wp-content/uploads/2021/01/Peyman-Hosseinzadeh-Cheshmanat-300x300.jpg 300w, https://98iran.org/wp-content/uploads/2021/01/Peyman-Hosseinzadeh-Cheshmanat-150x150.jpg 150w, https://98iran.org/wp-content/uploads/2021/01/Peyman-Hosseinzadeh-Cheshmanat-200x200.jpg 200w" title="آهنگ پیمان حسین زاده به نام چشمانت" width="450"/></p>
</div>
<footer>
<ul class="postfoot flx">
<li class="pf1">آهنگ ایرانی, آهنگ های سال 1399</li>
<li class="pf2">23 دی 1399</li>
<li class="pf5">30,077 بازدید</li>
<li class="pf3">بدون نظر</li>
<li class="pf4"><a href="https://98iran.org/peyman-hosseinzadeh-cheshmanat/" rel="bookmark" title="آهنگ پیمان حسین زاده به نام چشمانت">ادامه مطلب</a></li>
</ul>
</footer>
</article>
<article class="irbox posts">
<header class="posthead">
<h2 class="phd"><span class="cpicon"></span>
<a href="https://98iran.org/mehdi-mohammadi-khodanegahdar/" rel="bookmark" title="آهنگ مهدی محمدی به نام خدانگهدار">آهنگ مهدی محمدی به نام خدانگهدار</a></h2>
</header>
<div class="postcon">
<h2 style="text-align: center;">مهدی محمدی خدانگهدار</h2>
<p style="text-align: center;"><a href="https://98iran.org/tag/%D8%AF%D8%A7%D9%86%D9%84%D9%88%D8%AF-%D8%A2%D9%87%D9%86%DA%AF-%D8%AC%D8%AF%DB%8C%D8%AF/">دانلود آهنگ جدید</a> <a href="https://98iran.org/tag/%D9%85%D9%87%D8%AF%DB%8C-%D9%85%D8%AD%D9%85%D8%AF%DB%8C/"><strong>مهدی محمدی</strong></a> به نام <strong>خدانگهدار</strong></p>
<p style="text-align: center;">
</p>
<p style="text-align: center;">
<img alt="آهنگ مهدی محمدی به نام خدانگهدار" class="attachment-full size-full wp-post-image" height="450" loading="lazy" sizes="(max-width: 450px) 100vw, 450px" src="https://98iran.org/wp-content/uploads/2021/01/Mehdi-Mohammadi-Khodanegahdar.jpg" srcset="https://98iran.org/wp-content/uploads/2021/01/Mehdi-Mohammadi-Khodanegahdar.jpg 450w, https://98iran.org/wp-content/uploads/2021/01/Mehdi-Mohammadi-Khodanegahdar-300x300.jpg 300w, https://98iran.org/wp-content/uploads/2021/01/Mehdi-Mohammadi-Khodanegahdar-150x150.jpg 150w, https://98iran.org/wp-content/uploads/2021/01/Mehdi-Mohammadi-Khodanegahdar-200x200.jpg 200w" title="آهنگ مهدی محمدی به نام خدانگهدار" width="450"/></p>
</div>
<footer>
<ul class="postfoot flx">
<li class="pf1">آهنگ ایرانی, آهنگ های سال 1399</li>
<li class="pf2">23 دی 1399</li>
<li class="pf5">44,349 بازدید</li>
<li class="pf3">بدون نظر</li>
<li class="pf4"><a href="https://98iran.org/mehdi-mohammadi-khodanegahdar/" rel="bookmark" title="آهنگ مهدی محمدی به نام خدانگهدار">ادامه مطلب</a></li>
</ul>
</footer>
</article>
<article class="irbox posts">
<header class="posthead">
<h2 class="phd"><span class="cpicon"></span>
<a href="https://98iran.org/masoud-vala-doset-daram/" rel="bookmark" title="آهنگ مسعود والا به نام دوست دارم">آهنگ مسعود والا به نام دوست دارم</a></h2>
</header>
<div class="postcon">
<h2 style="text-align: center;">مسعود والا دوست دارم</h2>
<p style="text-align: center;"><a href="https://98iran.org/tag/%D8%AF%D8%A7%D9%86%D9%84%D9%88%D8%AF-%D8%A2%D9%87%D9%86%DA%AF-%D8%AC%D8%AF%DB%8C%D8%AF/">دانلود آهنگ جدید</a> <a href="https://98iran.org/tag/%D9%85%D8%B3%D8%B9%D9%88%D8%AF-%D9%88%D8%A7%D9%84%D8%A7/"><strong>مسعود والا</strong></a> به نام <strong>دوست دارم</strong></p>
<p style="text-align: center;">
</p>
<p style="text-align: center;">
<img alt="آهنگ مسعود والا به نام دوست دارم" class="attachment-full size-full wp-post-image" height="450" loading="lazy" sizes="(max-width: 450px) 100vw, 450px" src="https://98iran.org/wp-content/uploads/2021/01/Masoud-Vala-Doset-Daram.jpg" srcset="https://98iran.org/wp-content/uploads/2021/01/Masoud-Vala-Doset-Daram.jpg 450w, https://98iran.org/wp-content/uploads/2021/01/Masoud-Vala-Doset-Daram-300x300.jpg 300w, https://98iran.org/wp-content/uploads/2021/01/Masoud-Vala-Doset-Daram-150x150.jpg 150w, https://98iran.org/wp-content/uploads/2021/01/Masoud-Vala-Doset-Daram-200x200.jpg 200w" title="آهنگ مسعود والا به نام دوست دارم" width="450"/></p>
</div>
<footer>
<ul class="postfoot flx">
<li class="pf1">آهنگ ایرانی, آهنگ های سال 1399</li>
<li class="pf2">23 دی 1399</li>
<li class="pf5">40,944 بازدید</li>
<li class="pf3">بدون نظر</li>
<li class="pf4"><a href="https://98iran.org/masoud-vala-doset-daram/" rel="bookmark" title="آهنگ مسعود والا به نام دوست دارم">ادامه مطلب</a></li>
</ul>
</footer>
</article>
<article class="irbox posts">
<header class="posthead">
<h2 class="phd"><span class="cpicon"></span>
<a href="https://98iran.org/hossein-safaei-zibaye-khofteh/" rel="bookmark" title="آهنگ حسین صفایی به نام زیبای خفته">آهنگ حسین صفایی به نام زیبای خفته</a></h2>
</header>
<div class="postcon">
<h2 style="text-align: center;">حسین صفایی زیبای خفته</h2>
<p style="text-align: center;"><a href="https://98iran.org/tag/%D8%AF%D8%A7%D9%86%D9%84%D9%88%D8%AF-%D8%A2%D9%87%D9%86%DA%AF-%D8%AC%D8%AF%DB%8C%D8%AF/">دانلود آهنگ جدید</a> <a href="https://98iran.org/tag/%D8%AD%D8%B3%DB%8C%D9%86-%D8%B5%D9%81%D8%A7%DB%8C%DB%8C/"><strong>حسین صفایی</strong></a> به نام <strong>زیبای خفته</strong></p>
<p style="text-align: center;">
</p>
<p style="text-align: center;">
<img alt="آهنگ حسین صفایی به نام زیبای خفته" class="attachment-full size-full wp-post-image" height="450" loading="lazy" sizes="(max-width: 450px) 100vw, 450px" src="https://98iran.org/wp-content/uploads/2021/01/Hossein-Safaei-Zibaye-Khofteh.jpg" srcset="https://98iran.org/wp-content/uploads/2021/01/Hossein-Safaei-Zibaye-Khofteh.jpg 450w, https://98iran.org/wp-content/uploads/2021/01/Hossein-Safaei-Zibaye-Khofteh-300x300.jpg 300w, https://98iran.org/wp-content/uploads/2021/01/Hossein-Safaei-Zibaye-Khofteh-150x150.jpg 150w, https://98iran.org/wp-content/uploads/2021/01/Hossein-Safaei-Zibaye-Khofteh-200x200.jpg 200w" title="آهنگ حسین صفایی به نام زیبای خفته" width="450"/></p>
</div>
<footer>
<ul class="postfoot flx">
<li class="pf1">آهنگ ایرانی, آهنگ های سال 1399</li>
<li class="pf2">23 دی 1399</li>
<li class="pf5">40,688 بازدید</li>
<li class="pf3">بدون نظر</li>
<li class="pf4"><a href="https://98iran.org/hossein-safaei-zibaye-khofteh/" rel="bookmark" title="آهنگ حسین صفایی به نام زیبای خفته">ادامه مطلب</a></li>
</ul>
</footer>
</article>
<article class="irbox posts">
<header class="posthead">
<h2 class="phd"><span class="cpicon"></span>
<a href="https://98iran.org/hossein-mansourian-tanhaei/" rel="bookmark" title="آهنگ حسین منصوریان به نام تنهایی">آهنگ حسین منصوریان به نام تنهایی</a></h2>
</header>
<div class="postcon">
<h2 style="text-align: center;">حسین منصوریان تنهایی</h2>
<p style="text-align: center;"><a href="https://98iran.org/tag/%D8%AF%D8%A7%D9%86%D9%84%D9%88%D8%AF-%D8%A2%D9%87%D9%86%DA%AF-%D8%AC%D8%AF%DB%8C%D8%AF/">دانلود آهنگ جدید</a> <a href="https://98iran.org/tag/%D8%AD%D8%B3%DB%8C%D9%86-%D9%85%D9%86%D8%B5%D9%88%D8%B1%DB%8C%D8%A7%D9%86/"><strong>حسین منصوریان</strong></a> به نام <strong>تنهایی</strong></p>
<p style="text-align: center;">
</p>
<p style="text-align: center;">
<img alt="آهنگ حسین منصوریان به نام تنهایی" class="attachment-full size-full wp-post-image" height="450" loading="lazy" sizes="(max-width: 450px) 100vw, 450px" src="https://98iran.org/wp-content/uploads/2021/01/Hossein-Mansourian-Tanhaei.jpg" srcset="https://98iran.org/wp-content/uploads/2021/01/Hossein-Mansourian-Tanhaei.jpg 450w, https://98iran.org/wp-content/uploads/2021/01/Hossein-Mansourian-Tanhaei-300x300.jpg 300w, https://98iran.org/wp-content/uploads/2021/01/Hossein-Mansourian-Tanhaei-150x150.jpg 150w, https://98iran.org/wp-content/uploads/2021/01/Hossein-Mansourian-Tanhaei-200x200.jpg 200w" title="آهنگ حسین منصوریان به نام تنهایی" width="450"/></p>
</div>
<footer>
<ul class="postfoot flx">
<li class="pf1">آهنگ ایرانی, آهنگ های سال 1399</li>
<li class="pf2">23 دی 1399</li>
<li class="pf5">41,857 بازدید</li>
<li class="pf3">بدون نظر</li>
<li class="pf4"><a href="https://98iran.org/hossein-mansourian-tanhaei/" rel="bookmark" title="آهنگ حسین منصوریان به نام تنهایی">ادامه مطلب</a></li>
</ul>
</footer>
</article>
<article class="irbox posts">
<header class="posthead">
<h2 class="phd"><span class="cpicon"></span>
<a href="https://98iran.org/hadi-mehrabi-eshghe-man/" rel="bookmark" title="آهنگ هادی مهرابی به نام عشق من">آهنگ هادی مهرابی به نام عشق من</a></h2>
</header>
<div class="postcon">
<h2 style="text-align: center;">هادی مهرابی عشق من</h2>
<p style="text-align: center;"><a href="https://98iran.org/tag/%D8%AF%D8%A7%D9%86%D9%84%D9%88%D8%AF-%D8%A2%D9%87%D9%86%DA%AF-%D8%AC%D8%AF%DB%8C%D8%AF/">دانلود آهنگ جدید</a> <a href="https://98iran.org/tag/%D9%87%D8%A7%D8%AF%DB%8C-%D9%85%D9%87%D8%B1%D8%A7%D8%A8%DB%8C/"><strong>هادی مهرابی</strong></a> به نام <strong>عشق من</strong></p>
<p style="text-align: center;">
</p>
<p style="text-align: center;">
<img alt="آهنگ هادی مهرابی به نام عشق من" class="attachment-full size-full wp-post-image" height="450" loading="lazy" sizes="(max-width: 450px) 100vw, 450px" src="https://98iran.org/wp-content/uploads/2021/01/Hadi-Mehrabi-Eshghe-Man.jpg" srcset="https://98iran.org/wp-content/uploads/2021/01/Hadi-Mehrabi-Eshghe-Man.jpg 450w, https://98iran.org/wp-content/uploads/2021/01/Hadi-Mehrabi-Eshghe-Man-300x300.jpg 300w, https://98iran.org/wp-content/uploads/2021/01/Hadi-Mehrabi-Eshghe-Man-150x150.jpg 150w, https://98iran.org/wp-content/uploads/2021/01/Hadi-Mehrabi-Eshghe-Man-200x200.jpg 200w" title="آهنگ هادی مهرابی به نام عشق من" width="450"/></p>
</div>
<footer>
<ul class="postfoot flx">
<li class="pf1">آهنگ ایرانی, آهنگ های سال 1399</li>
<li class="pf2">23 دی 1399</li>
<li class="pf5">46,286 بازدید</li>
<li class="pf3">بدون نظر</li>
<li class="pf4"><a href="https://98iran.org/hadi-mehrabi-eshghe-man/" rel="bookmark" title="آهنگ هادی مهرابی به نام عشق من">ادامه مطلب</a></li>
</ul>
</footer>
</article>
<article class="irbox posts">
<header class="posthead">
<h2 class="phd"><span class="cpicon"></span>
<a href="https://98iran.org/hadi-hasanbeygi-mane-bi-ou/" rel="bookmark" title="آهنگ هادی حسن بیگی به نام من بی او">آهنگ هادی حسن بیگی به نام من بی او</a></h2>
</header>
<div class="postcon">
<h2 style="text-align: center;">هادی حسن بیگی من بی او</h2>
<p style="text-align: center;"><a href="https://98iran.org/tag/%D8%AF%D8%A7%D9%86%D9%84%D9%88%D8%AF-%D8%A2%D9%87%D9%86%DA%AF-%D8%AC%D8%AF%DB%8C%D8%AF/">دانلود آهنگ جدید</a> <a href="https://98iran.org/tag/%D9%87%D8%A7%D8%AF%DB%8C-%D8%AD%D8%B3%D9%86-%D8%A8%DB%8C%DA%AF%DB%8C/"><strong>هادی حسن بیگی</strong></a> به نام <strong>من بی او</strong></p>
<p style="text-align: center;">
</p>
<p style="text-align: center;">
<img alt="آهنگ هادی حسن بیگی به نام من بی او" class="attachment-full size-full wp-post-image" height="450" loading="lazy" sizes="(max-width: 450px) 100vw, 450px" src="https://98iran.org/wp-content/uploads/2021/01/Hadi-Hasanbeygi-Mane-Bi-Ou.jpg" srcset="https://98iran.org/wp-content/uploads/2021/01/Hadi-Hasanbeygi-Mane-Bi-Ou.jpg 450w, https://98iran.org/wp-content/uploads/2021/01/Hadi-Hasanbeygi-Mane-Bi-Ou-300x300.jpg 300w, https://98iran.org/wp-content/uploads/2021/01/Hadi-Hasanbeygi-Mane-Bi-Ou-150x150.jpg 150w, https://98iran.org/wp-content/uploads/2021/01/Hadi-Hasanbeygi-Mane-Bi-Ou-200x200.jpg 200w" title="آهنگ هادی حسن بیگی به نام من بی او" width="450"/></p>
</div>
<footer>
<ul class="postfoot flx">
<li class="pf1">آهنگ ایرانی, آهنگ های سال 1399</li>
<li class="pf2">23 دی 1399</li>
<li class="pf5">49,891 بازدید</li>
<li class="pf3">بدون نظر</li>
<li class="pf4"><a href="https://98iran.org/hadi-hasanbeygi-mane-bi-ou/" rel="bookmark" title="آهنگ هادی حسن بیگی به نام من بی او">ادامه مطلب</a></li>
</ul>
</footer>
</article>
<article class="irbox posts">
<header class="posthead">
<h2 class="phd"><span class="cpicon"></span>
<a href="https://98iran.org/ahmad-tadayyon-maghroor/" rel="bookmark" title="آهنگ احمد تدین به نام مغرور">آهنگ احمد تدین به نام مغرور</a></h2>
</header>
<div class="postcon">
<h2 style="text-align: center;">احمد تدین مغرور</h2>
<p style="text-align: center;"><a href="https://98iran.org/tag/%D8%AF%D8%A7%D9%86%D9%84%D9%88%D8%AF-%D8%A2%D9%87%D9%86%DA%AF-%D8%AC%D8%AF%DB%8C%D8%AF/">دانلود آهنگ جدید</a> <a href="https://98iran.org/tag/%D8%A7%D8%AD%D9%85%D8%AF-%D8%AA%D8%AF%DB%8C%D9%86/"><strong>احمد تدین</strong></a> به نام <strong>مغرور</strong></p>
<p style="text-align: center;">
</p>
<p style="text-align: center;">
<img alt="آهنگ احمد تدین به نام مغرور" class="attachment-full size-full wp-post-image" height="450" loading="lazy" sizes="(max-width: 450px) 100vw, 450px" src="https://98iran.org/wp-content/uploads/2021/01/Ahmad-Tadayyon-Maghroor.jpg" srcset="https://98iran.org/wp-content/uploads/2021/01/Ahmad-Tadayyon-Maghroor.jpg 450w, https://98iran.org/wp-content/uploads/2021/01/Ahmad-Tadayyon-Maghroor-300x300.jpg 300w, https://98iran.org/wp-content/uploads/2021/01/Ahmad-Tadayyon-Maghroor-150x150.jpg 150w, https://98iran.org/wp-content/uploads/2021/01/Ahmad-Tadayyon-Maghroor-200x200.jpg 200w" title="آهنگ احمد تدین به نام مغرور" width="450"/></p>
</div>
<footer>
<ul class="postfoot flx">
<li class="pf1">آهنگ ایرانی, آهنگ های سال 1399</li>
<li class="pf2">23 دی 1399</li>
<li class="pf5">42,498 بازدید</li>
<li class="pf3">بدون نظر</li>
<li class="pf4"><a href="https://98iran.org/ahmad-tadayyon-maghroor/" rel="bookmark" title="آهنگ احمد تدین به نام مغرور">ادامه مطلب</a></li>
</ul>
</footer>
</article>
<div class="irbox ibpagenum">
<span class="pages">صفحه 1 از 1,676</span>
<span class="current">1</span><a class="page" href="https://98iran.org/page/2/" title="2">2</a><a class="page" href="https://98iran.org/page/3/" title="3">3</a>
<a href="https://98iran.org/page/2/">&gt;</a>
<a class="page" href="https://98iran.org/page/10/" title="10">10</a><a class="page" href="https://98iran.org/page/20/" title="20">20</a><a class="page" href="https://98iran.org/page/30/" title="30">30</a><span class="extend">...</span><a class="last" href="https://98iran.org/page/1676/" title="»">»</a></div>
</div><!-- ctvcenter -->
<aside class="irside right">
<section class="irbox icat"><div class="h4"><i class="icn"></i><h4>موضوعات</h4></div><div class="isbody"><ul class="ctvcat">
<li class="cat-item cat-item-197057"><a href="https://98iran.org/category/archive-music/" title="آرشیو موزیک
آرشیو آهنگ
آرشیو موزیک های قدیمی

آرشیو موزیک های شاد

آرشیو موزیک های غمگین">آرشیو موزیک</a>
</li>
<li class="cat-item cat-item-8"><a href="https://98iran.org/category/album-irani/" title="آلبوم ایرانی
دانلود آلبوم در یک زیپ

آلبوم های ایرانی

آلبوم های جدید

 ">آلبوم ایرانی</a>
</li>
<li class="cat-item cat-item-2"><a href="https://98iran.org/category/%d8%a2%d9%87%d9%86%da%af-%d8%a7%db%8c%d8%b1%d8%a7%d9%86%db%8c/" title="دانلود آهنگ ایرانی
دانلود موزیک ایرانی">آهنگ ایرانی</a>
</li>
<li class="cat-item cat-item-231978"><a href="https://98iran.org/category/old-music/" title="آهنگ قدیمی">آهنگ قدیمی</a>
</li>
<li class="cat-item cat-item-234807"><a href="https://98iran.org/category/%d8%a2%d9%87%d9%86%da%af-%d9%87%d8%a7%db%8c-%d8%b3%d8%a7%d9%84-1398/" title="آهنگ جدید 98
موزیک جدید 98">آهنگ های سال 1398</a>
</li>
<li class="cat-item cat-item-235846"><a href="https://98iran.org/category/%d8%a2%d9%87%d9%86%da%af-%d9%87%d8%a7%db%8c-%d8%b3%d8%a7%d9%84-1399/" title="آهنگ های سال 99
موزیک های سال 99">آهنگ های سال 1399</a>
</li>
<li class="cat-item cat-item-228465"><a href="https://98iran.org/category/%d8%a7%d8%ae%d8%a8%d8%a7%d8%b1-%d9%85%d9%88%d8%b3%db%8c%d9%82%db%8c-%d8%a7%db%8c%d8%b1%d8%a7%d9%86/" title="اخبار موسیقی ایران">اخبار موسیقی ایران</a>
</li>
<li class="cat-item cat-item-203135"><a href="https://98iran.org/category/%d8%a8%d8%b2%d9%88%d8%af%db%8c/" title="بزودی">بزودی</a>
</li>
<li class="cat-item cat-item-167536"><a href="https://98iran.org/category/%d8%b3%d8%b1%db%8c%d8%a7%d9%84-%d8%a7%db%8c%d8%b1%d8%a7%d9%86%db%8c/" title="دانلود سریال ایرانی">سریال ایرانی</a>
</li>
<li class="cat-item cat-item-5"><a href="https://98iran.org/category/%d9%81%d9%88%d9%84-%d8%a2%d9%84%d8%a8%d9%88%d9%85/" title="فول آلبوم
فول آلبوم ایرانی
آرشیو کامل خوانندگان
فول آلبوم محسن چاوشی">فول آلبوم</a>
</li>
<li class="cat-item cat-item-167788"><a href="https://98iran.org/category/%d9%81%db%8c%d9%84%d9%85-%d8%a7%db%8c%d8%b1%d8%a7%d9%86%db%8c/" title="دانلود فیلم ایرانی">فیلم ایرانی</a>
</li>
<li class="cat-item cat-item-32932"><a href="https://98iran.org/category/%d9%85%d8%af%d8%a7%d8%ad%db%8c/" title="دانلود مداحی">مداحی</a>
</li>
<li class="cat-item cat-item-7"><a href="https://98iran.org/category/%d9%85%d9%88%d8%b2%db%8c%da%a9-%d9%88%db%8c%d8%af%d8%a6%d9%88/" title="موزیک ویدئو">موزیک ویدئو</a>
</li>
</ul>
</div></section><!-- irbox --><section class="irbox"><div class="h4"><i class="icn"></i><h4>فول آلبوم</h4></div><div class="isbody"> <div class="textwidget"><p><strong>الف</strong></p>
<p><a href="/ehsan-khajeh-amiri/" rel="noopener" target="_blank">فول آلبوم احسان خواجه امیری</a></p>
<p><a href="/ehsan-gheibi/" rel="noopener" target="_blank">فول آلبوم احسان غیبی</a></p>
<p><a href="/masih-and-arash-ap/" rel="noopener" target="_blank">فول آلبوم آرش ای پی</a></p>
<p><a href="/arash-delfan/" rel="noopener" target="_blank">فول آلبوم آرش دلفان</a></p>
<p><a href="/arash-yousefian/" rel="noopener" target="_blank">فول آلبوم آرش یوسفیان</a></p>
<p><a href="/armin-nosrati/" rel="noopener" target="_blank">فول آلبوم آرمین نصرتی</a></p>
<p><a href="/aron-afshar/" rel="noopener" target="_blank">فول آلبوم آرون افشار</a></p>
<p><a href="/aria/" rel="noopener" target="_blank">فول آلبوم آریا</a></p>
<p><a href="/arian-band/" rel="noopener" target="_blank">فول آلبوم گروه آریان</a></p>
<p><a href="/afshin-azari/" rel="noopener" target="_blank">فول آلبوم افشین آذری</a></p>
<p><a href="/omid-hajili/" rel="noopener" target="_blank">فول آلبوم امید حاجیلی</a></p>
<p><a href="/amir-hossein-taei/" rel="noopener" target="_blank">فول آلبوم امیرحسین طائی</a></p>
<p><a href="/فول-آلبوم-امیر-علی/" rel="noopener" target="_blank">فول آلبوم امیر علی</a></p>
<p><a href="/amin-bani/" rel="noopener" target="_blank">فول آلبوم امین بانی</a></p>
<p><a href="/amin-habibi/" rel="noopener" target="_blank">فول آلبوم امین حبیبی</a></p>
<p><a href="/فول-آلبوم-امین-فیاض/" rel="noopener" target="_blank">فول آلبوم امین فیاض</a></p>
<p><a href="/iraj/" rel="noopener" target="_blank">فول آلبوم ایرج</a></p>
<p><a href="/iraj-bastami/" rel="noopener" target="_blank">فول آلبوم ایرج بسطامی</a></p>
<p><a href="/iman-siahpooshan/" rel="noopener" target="_blank">فول آلبوم ایمان سیاهپوشان</a></p>
<p><strong>ب</strong></p>
<p><a href="/babak-jahanbakhsh/" rel="noopener" target="_blank">فول آلبوم بابک جهانبخش</a></p>
<p><a href="/benyamin-bahadori/" rel="noopener" target="_blank">فول آلبوم بنیامین بهادری</a></p>
<p><a href="/behnam-bani/" rel="noopener" target="_blank">فول آلبوم بهنام بانی</a></p>
<p><a href="/behnam-safavi/" rel="noopener" target="_blank">فول آلبوم بهنام صفوی</a></p>
<p><a href="/behnam-alamshahi/" rel="noopener" target="_blank">فول آلبوم بهنام علمشاهی</a></p>
<p><strong>پ</strong></p>
<p><a href="/parsa/" rel="noopener" target="_blank">فول آلبوم پارسا</a></p>
<p><a href="/puzzle-band/" rel="noopener" target="_blank">فول آلبوم پازل بند</a></p>
<p><a href="/sun-boys/" rel="noopener" target="_blank">فول آلبوم پسران آفتاب</a></p>
<p><a href="/pouya-bayati/" rel="noopener" target="_blank">فول آلبوم پویا بیاتی</a></p>
<p><a href="/peyvand/" rel="noopener" target="_blank">فول آلبوم پیوند</a></p>
<p><strong>ت</strong></p>
<p><a href="/tajik/" rel="noopener" target="_blank">فول آلبوم تاجیک</a></p>
<p><strong>چ</strong></p>
<p><a href="/changiz-habibian/" rel="noopener" target="_blank">فول آلبوم چنگیز حبیبیان</a></p>
<p><strong>ح</strong></p>
<p><a href="/hamed-hakan/" rel="noopener" target="_blank">فول آلبوم حامد هاکان</a></p>
<p><a href="/hamed-homayoun/" rel="noopener" target="_blank">فول آلبوم حامد همایون</a></p>
<p><a href="/hojat-ashrafzadeh/" rel="noopener" target="_blank">فول آلبوم حجت اشرف زاده</a></p>
<p><a href="/hossein-panahi/" rel="noopener" target="_blank">فول آلبوم حسین پناهی</a></p>
<p><a href="/full-album-hosein-salehi/" rel="noopener" target="_blank">فول آلبوم حسین صالحی</a></p>
<p><a href="/hossein-ghavami/" rel="noopener" target="_blank">فول آلبوم حسین قوامی</a></p>
<p><a href="/دانلود-فول-آلبوم-حمید-شاهی/" rel="noopener" target="_blank">فول آلبوم حمید شاهی</a></p>
<p><a href="/hamid-sefat/" rel="noopener" target="_blank">فول آلبوم حمید صفت</a></p>
<p><a href="/hamid-askari/" rel="noopener" target="_blank">فول آلبوم حمید عسکری</a></p>
<p><a href="/hamid-hiraad/" rel="noopener" target="_blank">فول آلبوم حمید هیراد</a></p>
<p><strong>خ</strong></p>
<p><a href="/khosro-shakibaei/" rel="noopener" target="_blank">فول آلبوم خسرو شکیبایی</a></p>
<p><strong>د</strong></p>
<p><a href="/فول-آلبوم-داوود-علیوردی/" rel="noopener" target="_blank">فول آلبوم داوود علیوردی</a></p>
<p><strong>ر</strong></p>
<p><a href="/فول-آلبوم-راد/" rel="noopener" target="_blank">فول آلبوم راد</a></p>
<p><a href="/ragheb/" rel="noopener" target="_blank">فول آلبوم راغب</a></p>
<p><a href="/reza-ahadi/" rel="noopener" target="_blank">فول آلبوم رضا احدی</a></p>
<p><a href="/reza-bahram/" rel="noopener" target="_blank">فول آلبوم رضا بهرام</a></p>
<p><a href="/reza-sadeghi/" rel="noopener" target="_blank">فول آلبوم رضا صادقی</a></p>
<p><a href="/reza-malekzadeh/" rel="noopener" target="_blank">فول آلبوم رضا ملک زاده</a></p>
<p><a href="/reza-yazdani/" rel="noopener" target="_blank">فول آلبوم رضا یزدانی</a></p>
<p><strong>ز</strong></p>
<p><a href="/xaniar/" rel="noopener" target="_blank">فول آلبوم زانیار</a></p>
<p><strong>س</strong></p>
<p><a href="/saman-jalili/" rel="noopener" target="_blank">فول آلبوم سامان جلیلی</a></p>
<p><a href="/saeed-aram/" rel="noopener" target="_blank">فول آلبوم سعید آرام</a></p>
<p><a href="/saeid-poursaeid/" rel="noopener" target="_blank">فول آلبوم سعید پورسعید</a></p>
<p><a href="/saeid-shahrouz/" rel="noopener" target="_blank">فول آلبوم سعید شهروز</a></p>
<p><a href="/saeed-kermani/" rel="noopener" target="_blank">فول آلبوم سعید کرمانی</a></p>
<p><a href="/sina-shabankhani/" rel="noopener" target="_blank">فول آلبوم سینا حجازی</a></p>
<p><a href="/sina-shabankhani/" rel="noopener" target="_blank">فول آلبوم سینا شعبانخانی</a></p>
<p><strong>ش</strong></p>
<p><a href="/sharareh-rokham/" rel="noopener" target="_blank">فول آلبوم شراره رخام</a></p>
<p><a href="/فول-آلبوم-شهاب-بخارایی/" rel="noopener" target="_blank">فول آلبوم شهاب بخارایی</a></p>
<p><a href="/shahab-mozaffari/" rel="noopener" target="_blank">فول آلبوم شهاب مظفری</a></p>
<p><a href="/shahram-shokoohi/" rel="noopener" target="_blank">فول آلبوم شهرام شکوهی</a></p>
<p><a href="/shahram-nazeri/" rel="noopener" target="_blank">فول آلبوم شهرام ناظری 1</a></p>
<p><a href="/shahram-nazeri-2/" rel="noopener" target="_blank">فول آلبوم شهرام ناظری 2</a></p>
<p><strong>ص</strong></p>
<p><a href="/فول-آلبوم-صادق-کشاورز/" rel="noopener" target="_blank">فول آلبوم صادق کشاورز</a></p>
<p><a href="/فول-آلبوم-صادق-نورانی/" rel="noopener" target="_blank">فول آلبوم صادق نورانی</a></p>
<p><strong>ع</strong></p>
<p><a href="/ali-atabaki/" rel="noopener" target="_blank">فول آلبوم علی اتابکی</a></p>
<p><a href="/ali-ashabi/" rel="noopener" target="_blank">فول آلبوم علی اصحابی</a></p>
<p><a href="/فول-آلبوم-علی-پیشتاز/" rel="noopener" target="_blank">فول آلبوم علی پیشتاز</a></p>
<p><a href="/ali-zand-vakili/" rel="noopener" target="_blank">فول آلبوم علی زند وکیلی</a></p>
<p><a href="/ali-abdolmaleki/" rel="noopener" target="_blank">فول آلبوم علی عبدالمالکی</a></p>
<p><a href="/alireza-roozegar/" rel="noopener" target="_blank">فول آلبوم علیرضا روزگار</a></p>
<p><a href="/alishmas/" rel="noopener" target="_blank">فول آلبوم علیشمس</a></p>
<p><a href="/emad-talebzadeh/" rel="noopener" target="_blank">فول آلبوم عماد طالب زاده</a></p>
<p><strong>غ</strong></p>
<p><a href="/فول-آلبوم-غلام-حسین-بنان/" rel="noopener" target="_blank">فول آلبوم غلام حسین بنان</a></p>
<p><strong>ف</strong></p>
<p><a href="/farzad-farokh/" rel="noopener" target="_blank">فول آلبوم فرزاد فرخ</a></p>
<p><a href="/farzad-farzin/" rel="noopener" target="_blank">فول آلبوم فرزاد فرزین</a></p>
<p><a href="/farhad/" rel="noopener" target="_blank">فول آلبوم فرهاد</a></p>
<p><strong>ک</strong></p>
<p><a href="/koroush-yaghmaei/" rel="noopener" target="_blank">فول آلبوم کوروش یغمایی</a></p>
<p><a href="/kianoosh-saeedi/" rel="noopener" target="_blank">فول آلبوم کیانوش سعیدی</a></p>
<p><a href="/koveyti-pour/" rel="noopener" target="_blank">فول آلبوم کویتی پور</a></p>
<p><strong>گ</strong></p>
<p><a href="/darkoob-band/" rel="noopener" target="_blank">فول آلبوم گروه دارکوب</a></p>
<p><strong>م</strong></p>
<p><a href="/maziar/" rel="noopener" target="_blank">فول آلبوم مازیار</a></p>
<p><a href="/mazyar-fallahi/" rel="noopener" target="_blank">فول آلبوم مازیار فلاحی</a></p>
<p><a href="/macan-band/" rel="noopener" target="_blank">فول آلبوم ماکان بند</a></p>
<p><a href="/majid-kharatha/" rel="noopener" target="_blank">فول آلبوم مجید خراطها</a></p>
<p><a href="/full-album-majid-aghebati/" rel="noopener" target="_blank">فول آلبوم مجید عاقبتی</a></p>
<p><a href="/majid-yahyaei/" rel="noopener" target="_blank">فول آلبوم مجید یحیایی</a></p>
<p><a href="/mohsen-ebrahimzadeh/" rel="noopener" target="_blank">فول آلبوم محسن ابراهیم زاده</a></p>
<p><a href="/mohsen-chavoshi/" rel="noopener" target="_blank">فول آلبوم محسن چاوشی</a></p>
<p><a href="/mohsen-yahaghi/" rel="noopener" target="_blank">فول آلبوم محسن یاحقی</a></p>
<p><a href="/mohsen-yeganeh/" rel="noopener" target="_blank">فول آلبوم محسن یگانه</a></p>
<p><a href="/mokhtabad/" rel="noopener" target="_blank">فول آلبوم مختاباد</a></p>
<p><a href="/mohammad-bibak/" rel="noopener" target="_blank">فول آلبوم محمد بی باک</a></p>
<p><a href="/mohammad-alizadeh/" rel="noopener" target="_blank">فول آلبوم محمد علیزاده</a></p>
<p><a href="/mohammad-kasiri/" rel="noopener" target="_blank">فول آلبوم محمد کثیری</a></p>
<p><a href="/mohammad-motamedi/" rel="noopener" target="_blank">فول آلبوم محمد معتمدی</a></p>
<p><a href="/morteza-pashaei/" rel="noopener" target="_blank">فول آلبوم مرتضی پاشایی</a></p>
<p><a href="/masoud-sadeghloo/" rel="noopener" target="_blank">فول آلبوم مسعود صادقلو</a></p>
<p><a href="/masih-and-arash-ap/" rel="noopener" target="_blank">فول آلبوم مسیح</a></p>
<p><a href="/فول-آلبوم-مصطفی-فتاحی/" rel="noopener" target="_blank">فول آلبوم مصطفی فتاحی</a></p>
<p><a href="/mehdi-ahmadvand/" rel="noopener" target="_blank">فول آلبوم مهدی احمدوند</a></p>
<p><a href="/mehdi-jahani/" rel="noopener" target="_blank">فول آلبوم مهدی جهانی</a></p>
<p><a href="/mehdi-moghaddam/" rel="noopener" target="_blank">فول آلبوم مهدی مقدم</a></p>
<p><a href="/mehdi-yarrahi/" rel="noopener" target="_blank">فول آلبوم مهدی یراحی</a></p>
<p><a href="/mehdi-yaghmaei/" rel="noopener" target="_blank">فول آلبوم مهدی یغمایی</a></p>
<p><a href="/mehraad-jam/" rel="noopener" target="_blank">فول آلبوم مهراد جم</a></p>
<p><a href="/meysam-ebrahimi/" rel="noopener" target="_blank">فول آلبوم میثم ابراهیمی</a></p>
<p><strong>ن</strong></p>
<p><a href="/فول-آلبوم-نریمان/" rel="noopener" target="_blank">فول آلبوم نریمان</a></p>
<p><strong>ه</strong></p>
<p><a href="/hoorosh-band/" rel="noopener" target="_blank">فول آلبوم هوروش بند</a></p>
<p><strong>ی</strong></p>
<p><a href="/yas/" rel="noopener" target="_blank">فول آلبوم یاس</a></p>
<p><a href="/yasin-ahmadi/" rel="noopener" target="_blank">فول آلبوم یاسین احمدی</a></p>
<p><a href="/yaser-reshadi/" rel="noopener" target="_blank">فول آلبوم یاسر رشادی</a></p>
<p><a href="/yousef-zamani/" rel="noopener" target="_blank">فول آلبوم یوسف زمانی</a></p>
</div>
</div></section><!-- irbox --></aside>
</div><!-- ctvright -->
<aside class="irside left">
<section class="irbox"><div class="h4"><i class="icn"></i><h4>فیلم های ایرانی</h4></div><div class="isbody"> <div class="textwidget"><p><strong>الف</strong></p>
<p><a href="/50-ghadame-akhar/" rel="noopener" target="_blank">فیلم ۵۰ قدم آخر</a></p>
<p><a href="/film-atash-bas-2/" rel="noopener" target="_blank">فیلم آتش بس ۲</a></p>
<p><a href="/azar-shahdokht-parviz-va-digaran/" rel="noopener" target="_blank">فیلم آذر شهدخت پرویز و دیگران</a></p>
<p><a href="/film-arayesh-ghaliz/" rel="noopener" target="_blank">فیلم آرایش غلیظ</a></p>
<p><a href="/ashnayi-ba-leila/" rel="noopener" target="_blank">فیلم آشنایی با لیلا</a></p>
<p><a href="/aftab-mahtab-zamin/" rel="noopener" target="_blank">فیلم آفتاب مهتاب زمین</a></p>
<p><a href="/anche-mardan-darbare-zanan-nemidanand/" rel="noopener" target="_blank">فیلم آنچه مردان درباره زنان نمی دانند</a></p>
<p><a href="/ersal-agahi-tasliat/" rel="noopener" target="_blank">فیلم ارسال آگهی تسلیت</a></p>
<p><a href="/emroz/" rel="noopener" target="_blank">فیلم امروز</a></p>
<p><strong>ب</strong></p>
<p><a href="/ba-digaran/" rel="noopener" target="_blank">فیلم با دیگران</a></p>
<p><a href="/bon-bast-yalda/" rel="noopener" target="_blank">فیلم بن بست یلدا</a></p>
<p><a href="/biganeh/" rel="noopener" target="_blank">فیلم بیگانه</a></p>
<p><strong>پ</strong></p>
<p><a href="/pashne-boland-2/" rel="noopener" target="_blank">فیلم پاشنه بلند ۲</a></p>
<p><a href="/film-pasgah-ejarehei/" rel="noopener" target="_blank">فیلم پاسگاه اجاره ای</a></p>
<p><strong>ت</strong></p>
<p><a href="http://98iran.org/takhteh-gaz/" rel="noopener" target="_blank">فیلم تخته گاز</a></p>
<p><a href="/tatilate-pirezan/" rel="noopener" target="_blank">فیلم تعطیلات پیرزن</a></p>
<p><strong>چ</strong></p>
<p><a href="/charsoo/" rel="noopener" target="_blank">فیلم چارسو</a></p>
<p><strong>خ</strong></p>
<p><a href="/khanoom/" rel="noopener" target="_blank">فیلم خانوم</a></p>
<p><a href="/khane-kaghazi/" rel="noopener" target="_blank">فیلم خانه کاغذی</a></p>
<p><a href="/khab-zadeh-ha/" rel="noopener" target="_blank">فیلم خواب زده ها</a></p>
<p><strong>د</strong></p>
<p><a href="/darbast-azadi/" rel="noopener" target="_blank">فیلم دربست آزادی</a></p>
<p><strong>ر</strong></p>
<p><a href="/rajab-artist-mishavad/" rel="noopener" target="_blank">فیلم رجب آرتیست میشود</a></p>
<p><a href="/redcarpet/" rel="noopener" target="_blank">فیلم ردکارپت</a></p>
<p><a href="/roozegari-eshgh-va-khianat/" rel="noopener" target="_blank">فیلم روزگاری عشق و خیانت</a></p>
<p><strong>س</strong></p>
<p><a href="/sayeh/" rel="noopener" target="_blank">فیلم سایه</a></p>
<p><a href="/movie-sadde-maabar/" rel="noopener" target="_blank">فیلم سد معبر</a></p>
<p><strong>ش</strong></p>
<p><a href="/shans-eshgh-tasadof/" rel="noopener" target="_blank">فیلم شانس عشق تصادف</a></p>
<p><a href="/shahr-moshha-2/" rel="noopener" target="_blank">فیلم شهر موشها</a></p>
<p><strong>ط</strong></p>
<p><a href="/tayeb/" rel="noopener" target="_blank">فیلم طیب</a></p>
<p><strong>ع</strong></p>
<p><a href="/arieh/" rel="noopener" target="_blank">فیلم عاریه</a></p>
<p><strong>ک</strong></p>
<p><a href="/kelashinkof/" rel="noopener" target="_blank">فیلم کلاشینکف</a></p>
<p><strong>ل</strong></p>
<p><a href="/film-lattari/" rel="noopener" target="_blank">فیلم لاتاری</a></p>
<p><strong>م</strong></p>
<p><a href="/فیلم-متری-شیش-و-نیم/" rel="noopener" target="_blank">فیلم متری شیش و نیم</a></p>
<p><a href="/mastaneh/" rel="noopener" target="_blank">فیلم مستانه</a></p>
<p><a href="/mosadereh/" rel="noopener" target="_blank">فیلم مصادره</a></p>
<p><strong>ن</strong></p>
<p><a href="/neshani/" rel="noopener" target="_blank">فیلم نشانی</a></p>
<p><strong>ه</strong></p>
<p><a href="/hotel-karton/" rel="noopener" target="_blank">فیلم هتل کارتن</a></p>
<p><strong>ی</strong></p>
<p><a href="/yek-shab/" rel="noopener" target="_blank">فیلم یک شب</a></p>
<p><a href="/yek-mard-yek-shahr/" rel="noopener" target="_blank">فیلم یک مرد یک شهر</a></p>
</div>
</div></section><!-- irbox --><section class="irbox"><div class="h4"><i class="icn"></i><h4>سریال های ایرانی</h4></div><div class="isbody"> <div class="textwidget"><a href="/tag/سریال-مانکن/" rel="noopener" target="_blank">سریال مانکن</a> <span style="color: #ff0000;">قسمت پنجم</span>
<br/>
<a href="/mahe-asal-93/" rel="noopener" target="_blank">برنامه تلویزیونی ماه عسل ۹۳</a>
<br/>
<a href="/serial-nofooz/" rel="noopener" target="_blank">سریال نفوذ</a>
<br/>
<a href="/serial-paytakht-3/" rel="noopener" target="_blank">سریال پایتخت ۳</a>
<br/>
<a href="/marde-hezar-chehreh/" rel="noopener" target="_blank">سریال مرد هزار چهره</a>
<br/>
<a href="/دانلود-سریال-مرد-2000-چهره/" rel="noopener" target="_blank">سریال مرد دو هزار چهره</a>
<br/>
<a href="/دانلود-سریال-دردسرهای-عظیم/" rel="noopener" target="_blank">سریال دردسرهای عظیم</a>
<br/>
<a href="/دانلود-سریال-همه-چیز-آنجاست/" rel="noopener" target="_blank">سریال همه چیز آنجاست</a>
<br/>
<a href="/دانلود-سریال-پرده-نشین/" rel="noopener" target="_blank">سریال پرده نشین</a>
<br/>
<a href="/دانلود-سریال-زخم/" rel="noopener" target="_blank">سریال زخم</a>
<br/>
<a href="/دانلود-سریال-رنگ-شک/" rel="noopener" target="_blank">سریال رنگ شک</a>
<br/>
<a href="/دانلود-سریال-سال-های-ابری/" rel="noopener" target="_blank">سریال سال های ابری</a>
<br/>
<a href="/دانلود-سریال-ابله/" rel="noopener" target="_blank">سریال ابله</a> <span style="color: #ff0000;">قسمت نهم</span>
<br/>
<a href="/دانلود-سریال-آخرین-بازی/" rel="noopener" target="_blank">سریال آخرین بازی</a>
<br/>
<a href="/دانلود-سریال-گذر-از-رنج-ها/" rel="noopener" target="_blank">سریال گذر از رنج ها</a>
<br/>
<a href="/دانلود-سریال-حانیه/" rel="noopener" target="_blank">سریال حانیه</a>
<br/>
<a href="/دانلود-سریال-سر-به-راه/" rel="noopener" target="_blank">سریال سر به راه</a>
<br/>
<a href="/سریال-عشق-تعطیل-نیست/" rel="noopener" target="_blank">سریال عشق تعطیل نیست</a> <span style="color: #ff0000;">قسمت چهارم</span>
<br/>
<a href="/دانلود-سریال-آسمان-من/" rel="noopener" target="_blank">سریال آسمان من</a> <span style="color: #ff0000;">قسمت یازدهم</span>
<br/>
<a href="/دانلود-سریال-فوق-سری/" rel="noopener" target="_blank">سریال فوق سری</a>
<br/>
<a href="/دانلود-سریال-کلاه-قرمزی/" rel="noopener" target="_blank">سریال کلاه قرمزی</a>
<br/>
<a href="/دانلود-سریال-در-حاشیه/" rel="noopener" target="_blank">سریال در حاشیه</a>
<br/>
<a href="/دانلود-سریال-خاتون/" rel="noopener" target="_blank">سریال خاتون</a> <span style="color: #ff0000;">قسمت چهاردهم</span>
<br/></div>
</div></section><!-- irbox --><section class="irbox"><div class="h4"><i class="icn"></i><h4>جدیدترین ها</h4></div><div class="isbody"><ul>
<li><a href="https://98iran.org/hojat-ashrafzadeh-sakht-nagir/" title="آهنگ حجت اشرف زاده به نام سخت نگیر">آهنگ حجت اشرف زاده به نام سخت نگیر</a></li>
<li><a href="https://98iran.org/raad-to-injaee/" title="آهنگ راد به نام تو اینجایی">آهنگ راد به نام تو اینجایی</a></li>
<li><a href="https://98iran.org/peyman-hosseinzadeh-cheshmanat/" title="آهنگ پیمان حسین زاده به نام چشمانت">آهنگ پیمان حسین زاده به نام چشمانت</a></li>
<li><a href="https://98iran.org/mehdi-mohammadi-khodanegahdar/" title="آهنگ مهدی محمدی به نام خدانگهدار">آهنگ مهدی محمدی به نام خدانگهدار</a></li>
<li><a href="https://98iran.org/masoud-vala-doset-daram/" title="آهنگ مسعود والا به نام دوست دارم">آهنگ مسعود والا به نام دوست دارم</a></li>
<li><a href="https://98iran.org/hossein-safaei-zibaye-khofteh/" title="آهنگ حسین صفایی به نام زیبای خفته">آهنگ حسین صفایی به نام زیبای خفته</a></li>
<li><a href="https://98iran.org/hossein-mansourian-tanhaei/" title="آهنگ حسین منصوریان به نام تنهایی">آهنگ حسین منصوریان به نام تنهایی</a></li>
<li><a href="https://98iran.org/hadi-mehrabi-eshghe-man/" title="آهنگ هادی مهرابی به نام عشق من">آهنگ هادی مهرابی به نام عشق من</a></li>
<li><a href="https://98iran.org/hadi-hasanbeygi-mane-bi-ou/" title="آهنگ هادی حسن بیگی به نام من بی او">آهنگ هادی حسن بیگی به نام من بی او</a></li>
<li><a href="https://98iran.org/ahmad-tadayyon-maghroor/" title="آهنگ احمد تدین به نام مغرور">آهنگ احمد تدین به نام مغرور</a></li>
</ul>
</div></section><!-- irbox --></aside>
</div>
<footer class="irfoot">
<div class="irmenu imf">
<div class="rw flx">
<ul class="flx"><li><a href="https://98iran.org/category/%d9%81%d9%88%d9%84-%d8%a2%d9%84%d8%a8%d9%88%d9%85/">فول آلبوم</a></li>
<li><a href="https://98iran.org/category/%d9%85%d8%af%d8%a7%d8%ad%db%8c/">مداحی</a></li>
<li><a href="https://98iran.org/category/%d9%81%db%8c%d9%84%d9%85-%d8%a7%db%8c%d8%b1%d8%a7%d9%86%db%8c/">فیلم ایرانی</a></li>
</ul></div>
</div>
<div class="foposts">
<div class="rw">
<div class="fosong">
<h5>آخرین آهنگ ها</h5>
<ul>
<li><a href="https://98iran.org/hojat-ashrafzadeh-sakht-nagir/" title="آهنگ حجت اشرف زاده به نام سخت نگیر">آهنگ حجت اشرف زاده به نام سخت نگیر</a></li>
<li><a href="https://98iran.org/raad-to-injaee/" title="آهنگ راد به نام تو اینجایی">آهنگ راد به نام تو اینجایی</a></li>
<li><a href="https://98iran.org/peyman-hosseinzadeh-cheshmanat/" title="آهنگ پیمان حسین زاده به نام چشمانت">آهنگ پیمان حسین زاده به نام چشمانت</a></li>
<li><a href="https://98iran.org/mehdi-mohammadi-khodanegahdar/" title="آهنگ مهدی محمدی به نام خدانگهدار">آهنگ مهدی محمدی به نام خدانگهدار</a></li>
<li><a href="https://98iran.org/masoud-vala-doset-daram/" title="آهنگ مسعود والا به نام دوست دارم">آهنگ مسعود والا به نام دوست دارم</a></li>
</ul>
</div>
<div class="fosong">
<h5>آخرین آلبوم ها</h5>
<ul>
<li><a href="https://98iran.org/album-reza-sadeghi-zendegi-kon/" title="آلبوم رضا صادقی به نام زندگی کن">آلبوم رضا صادقی به نام زندگی کن</a></li>
<li><a href="https://98iran.org/masih-and-arash-ap-darya-2/" title="آلبوم مسیح و آرش ای پی به نام دریا">آلبوم مسیح و آرش ای پی به نام دریا</a></li>
<li><a href="https://98iran.org/album-ali-jooya-and-saeid-pour-saeid-bachehaye-khiabooni/" title="آلبوم علی جویا و سعید پورسعید به نام بچه های خیابونی">آلبوم علی جویا و سعید پورسعید به نام بچه های خیابونی</a></li>
<li><a href="https://98iran.org/album-evan-band-alijenab/" title="آلبوم ایوان بند به نام عالیجناب">آلبوم ایوان بند به نام عالیجناب</a></li>
<li><a href="https://98iran.org/ehsan-khajeh-amiri-shahre-divooneh/" title="آلبوم احسان خواجه امیری به نام شهر دیوونه">آلبوم احسان خواجه امیری به نام شهر دیوونه</a></li>
</ul>
</div>
<div class="fosong">
<h5>آخرین موزیک ویدیو ها</h5>
<ul class="fslast">
<li><a href="https://98iran.org/music-video-reza-bahram-adame-sabegh/" title="موزیک ویدیو رضا بهرام به نام آدم سابق">موزیک ویدیو رضا بهرام به نام آدم سابق</a></li>
<li><a href="https://98iran.org/music-video-reza-sadeghi-ghatel/" title="موزیک ویدیو رضا صادقی به نام قاتل">موزیک ویدیو رضا صادقی به نام قاتل</a></li>
<li><a href="https://98iran.org/music-video-amirabbas-golab-doos-daram/" title="موزیک ویدیو امیرعباس گلاب به نام دوس دارم">موزیک ویدیو امیرعباس گلاب به نام دوس دارم</a></li>
<li><a href="https://98iran.org/music-video-dara-and-iraj-khajeh-amiri-khiyal-kardi/" title="موزیک ویدیو دارا و ایرج خواجه امیری به نام خیال کردی">موزیک ویدیو دارا و ایرج خواجه امیری به نام خیال کردی</a></li>
<li><a href="https://98iran.org/music-video-amir-mojoudi-goroobe-eshgh/" title="موزیک ویدیو امیر موجودی به نام غروب عشق">موزیک ویدیو امیر موجودی به نام غروب عشق</a></li>
</ul>
</div>
</div>
</div>
<div class="ircopy">
<div class="rw flx">
<div class="irct">
<p>تمامی حقوق مطالب برای سایت 98ایران می باشد و هر گونه کپی برداری بدون ذکر منبع ممنوع می باشد : <a href="http://98iran.org/" title="98iran.org">دانلود آهنگ جدید</a></p>
<p>طراحی و اجرا : <a href="http://pmgraphic.ir/" rel="nofollow" target="_blank">پی ام گرافیک</a> | <a href="http://98iran.org/" title="دانلود آهنگ ایرانی">دانلود آهنگ ایرانی</a></p>
</div>
<div class="irsocial flx">
<a class="tlg" href="https://telegram.org" rel="nofollow" title="تلگرام">تلگرام</a>
<a class="fb" href="https://facebook.com" rel="nofollow" target="_blank" title="فيسبوک">فيسبوک</a>
<a class="tw" href="https://twitter.com" rel="nofollow" target="_blank" title="تويتر">تويتر</a>
<a class="ld" href="https://twitter.com" rel="nofollow" target="_blank" title="لینکدین">لینکدین</a>
<a class="aprt" href="https://aparat.com" rel="nofollow" target="_blank" title="آپارات">آپارات</a>
</div>
</div>
</div>
</footer>
</nav></body>
</html>