<html><head><script type="text/javascript">
	var url = window.location.href;
	if(url.indexOf("?") >= 0){
		window.location.href = "https://www.01teacher.com/";
	}
</script>
<!DOCTYPE html>

<meta charset="utf-8"/>
<meta content="IE=Edge" http-equiv="X-UA-Compatible"/>
<meta content="webkit" name="renderer"/>
<meta content="英语外教,外教口语，外教一对一，口语外教培训，一对一外教，1对1外教" name="keywords"/>
<meta content="大嘴外教是国内英语外教领先品牌,大嘴采用外教上门、一对一的教学模式,为学员提供1对1外教口语培训，找外教就上大嘴外教网。" name="description"/>
<meta content="b8fc0a9065cd010b" property="wb:webmaster"/>
<meta content="I2LiYJCgdq" name="sogou_site_verification"/>
<meta content="ca263e3a01c49b0112a83f5ea1ce934e" name="360-site-verification"/>
<meta content="6zMpr0EKFy" name="baidu-site-verification"/>
<meta content="ca263e3a01c49b0112a83f5ea1ce934e" name="360-site-verification"/>
<meta content="RWBqovPjaK" name="baidu-site-verification"/>
<title>英语外教网_外教一对一培训_外教口语培训-大嘴外教官网</title>
<script type="text/javascript">
        if (screen.width && screen.width < 768) {
            var url = window.location.href;
		if(url.indexOf('service/child') >= 0){
		
		}else if(url.indexOf('tutor') >= 0){
		
		}else if(url.indexOf('cource/child') >= 0){
		
		}else if(url.indexOf('classmodel/online') >= 0){
		
		}else if(url.indexOf('wx/classgroup/index') >= 0){
		
		}else if(url.indexOf('about') >= 0){
		
		}else{
			location.href = "https://wap.01teacher.com/";	
		}
        }
    </script>
<!-- 核心样式 开始 -->
<link href="/Themes/V1/_misc/iconfont/iconfont.css?20170808153211" rel="stylesheet" type="text/css"/>
<link href="/Themes/V1/_misc/js/validate/css/jquery.validator.css?20170808153211" rel="stylesheet" type="text/css"/>
<!-- 页面样式 开始 -->
<link href="/Themes/V1/_misc/css/main.css?20190614133441" rel="stylesheet" type="text/css"/>
<!--[if lt IE 7]>
    <script type="text/javascript" src="/Themes/V1/_misc/js/versiontips.js?20170808153211" ></script>
    <![endif]-->
<!--[if lt IE 9]>
    <script type="text/javascript" src="/Themes/V1/_misc/js/html5shiv.js?20170808153211" ></script>
    <script type="text/javascript" src="/Themes/V1/_misc/js/respond.min.js?20170808153211" ></script>
    <![endif]-->
<link href="/Themes/V1/_misc/images/favicon.ico?20170808153211" rel="shortcut icon"/>
<script type="text/javascript">
	var s = document.createElement('script');
	s.src = '//terrier.adwetec.com/js/peiqi?wbid=11293148&type=1';
	document.getElementsByTagName('head')[0].appendChild(s);
	</script>
<script>
var _hmt = _hmt || [];
(function() {
  var hm = document.createElement("script");
  hm.src = "https://hm.baidu.com/hm.js?3baca84dd0b41e2c7c1449c62ac1750b";
  var s = document.getElementsByTagName("script")[0]; 
  s.parentNode.insertBefore(hm, s);
})();
	var w = document.documentElement.clientWidth||document.body.clientWidth;
	var h = document.documentElement.clientHeight||document.body.clientHeight;
	if(h > w){
		var url = window.location.href;
		if(url.indexOf('service/child') >= 0){
		
		}else if(url.indexOf('tutor') >= 0){
		
		}else if(url.indexOf('cource/child') >= 0){
		
		}else if(url.indexOf('classmodel/online') >= 0){
		
		}else if(url.indexOf('wx/classgroup/index') >= 0){
		
		}else if(url.indexOf('about') >= 0){

		}else if(url.indexOf('service/school') >= 0){

		}else if(url.indexOf('node/n') >= 0){
			var arr_url = url.split("/");
			location.href = "https://wap.01teacher.com/new.html?id="+arr_url[5];
		}else{
			
			location.href = "https://wap.01teacher.com/";
		}
	}
</script>
<style>
    .top-select-box-c {
	width:96px;
    }
    </style>
</head><body>
<div class="wraper" id="wraper">
<!-- 头部  -->
<header>
<div class="top-sns">
<div class="container">
<div class="pull-left">
<div class="top-select-box top-select-box-c">
<a href="http://www.linguateachers.com/">Linguateachers</a>
<ul class="top-select-list">
<li> <a href="/">中文网<!--<i class="iconfont">&#xe604;</i>--></a></li>
</ul>
</div>
<div class="top-select-box active">
<a class="oneCity" href="/city/switch?city=上海市">上海市<i class="iconfont"></i></a>
<ul class="top-select-list">
<li><a href="/city/switch?city=上海市" target="_blank">上海市</a></li>
<li><a href="/city/switch?city=成都市" target="_blank">成都市</a></li>
<li><a href="/city/switch?city=杭州市" target="_blank">杭州市</a></li>
<li><a href="/city/switch?city=深圳市" target="_blank">深圳市</a></li>
</ul>
</div>
</div>
<div class="pull-right">
<ul class="top-sns">
<!--  <li class="top-title">私人外教一对一　　全国领先　</li> -->
<li><a class="font-light" href="/passport/customerregister">注册</a></li>
<li class="active"><a href="/passport/login">登录</a></li>
<li class="top-qcCode-w"><a class="text-gary-light" href="javascript:void(0)"><i class="iconfont text-main"></i></a><div class="aside-qcCode"><img alt="关注我们" src="/Uploads/zh-cn/Wechat/201708/mmtfj4sf.pfj15152017085642.png?v=1"/>关注我们</div></li>
<li><a href="javascript:void(0)" style="padding-left:5px;"><i class="iconfont"></i><strong>400-680-9550</strong></a></li>
<!--  <li><a class="text-gary-light j_shangqiao_trigger" href="javascript:void(0)"><i class="iconfont">&#xe610;</i></a></li> -->
<!-- <li class="top-qcCode-w"><a class="text-gary-light" href="http://weibo.com/51870806" target="_blank"><i class="iconfont">&#xe60e;</i></a><div class="aside-qcCode"><img src="/Themes/V1/_misc/temp/weibo-code.png?20170808153211" alt="关注我们">关注我们</div></li> -->
<li style="float:left;"><!--为3-12岁孩子提供双语,国际学校课程外教到家辅导-->专注3-12岁个性化名校外教英语培优</li>
<li class="top-title" style="width:190px;float:right;top:-2px;">外教1对1    线上+线下融合<!--img src="/Themes/V1/_misc/images/one-one.png?20180419110509" style='width:97%;' alt="外教1对1  在线外教"--></li>
</ul>
</div>
</div>
</div>
<div class="top-nav">
<div class="container">
<div class="logo"><a href="/"><img alt="大嘴外教" src="/Themes/V1/_misc/images/logo.png?20171121130942"/><img alt="一岁啦" src="/Themes/V1/_misc/images/logo-info.png?20171121130943"/></a></div>
<ul class="menu">
<li class="active"><a href="/">首页</a></li>
<li>
<a href="/service/child">服务对象</a>
<div class="sub-menu-w">
<div class="container">
<ul class="sub-menu">
<li class="sub-menu-lbg1">
<a href="/service/child">
<div class="dk-list-img"><i class="iconfont"></i></div>
<div class="dk-list-title">幼少儿英语课程</div>
<div class="dk-list-en">ENGLISH  COURSE</div>
<div class="dk-list-age">3-12岁</div>
</a>
</li>
<li class="sub-menu-lbg2">
<a href="/service/teenager">
<div class="dk-list-img"><i class="iconfont"></i></div>
<div class="dk-list-title">青少年英语课程</div>
<div class="dk-list-en">JUNIOR ENGLISH  COURSE</div>
<div class="dk-list-age">13-18岁</div>
</a>
</li>
<li class="sub-menu-lbg3">
<!-- <a href="/service/adult"> -->
<a href="http://www1.01teacher.com/landingpage/INT_school/INT_school.aspx">
<div class="dk-list-img"><i class="iconfont"></i></div>
<div class="dk-list-title">幼升小辅导课程</div>
<div class="dk-list-en">PRESCHOOL COURSE</div>
<div class="dk-list-age">4-6岁</div>
</a>
</li>
<li class="sub-menu-lbg4">
<a href="/service/enterprise">
<div class="dk-list-img"><i class="iconfont"></i></div>
<div class="dk-list-title">小托福备考</div>
<div class="dk-list-en">ENGLISH  COURSE</div>
<div class="dk-list-age">不限</div>
</a>
</li>
<li class="sub-menu-lbg5">
<a href="/service/school">
<div class="dk-list-img"><i class="iconfont"></i></div>
<div class="dk-list-title">学校外教招聘</div>
<div class="dk-list-en">ENGLISH  COURSE</div>
<div class="dk-list-age">不限</div>
</a>
</li>
</ul>
</div>
</div>
</li>
<li><a href="javascript:void(0);" onclick="cli_tutor();">外教师资<i class="iconfont"></i></a></li>
<li><a href="/classgroup">外教拼班</a></li>
<li>
<a href="/cource/child">精选课程</a>
<div class="sub-menu-w">
<div class="container">
<ul class="sub-menu">
<li class="sub-menu-lbg">
<a href="/cource/child">
<div class="dk-list-img"><i class="iconfont"></i></div>
<div class="dk-list-title">语言课程</div>
<div class="dk-list-en">ENGLISH LANGUAGE</div>
</a>
</li>
<li class="sub-menu-lbg">
<a href="/cource/abroadtest">
<div class="dk-list-img"><i class="iconfont"></i></div>
<div class="dk-list-title">出国留学专区</div>
<div class="dk-list-en">STUDY ABROAD</div>
</a>
</li>
<li class="sub-menu-lbg">
<a href="/cource/language">
<div class="dk-list-img"><i class="iconfont"></i></div>
<div class="dk-list-title">小语种</div>
<div class="dk-list-en">MINORITY LANGUAGES</div>
</a>
</li>
<li class="sub-menu-lbg">
<a href="/cource/club">
<div class="dk-list-img"><i class="iconfont"></i></div>
<div class="dk-list-title">俱乐部活动</div>
<div class="dk-list-en">CLUB EVENTS</div>
</a>
</li>
<li class="sub-menu-lbg">
<a href="/cource/abroadstudy">
<div class="dk-list-img"><i class="iconfont"></i></div>
<div class="dk-list-title">游学</div>
<div class="dk-list-en">GLOBAL STUDY TOUR</div>
</a>
</li>
</ul>
</div>
</div>
</li>
<li><a href="/classmodel/offline">授课模式</a></li>
<li><a href="/about">关于大嘴</a></li>
</ul>
<div class="bespeak"><a class="btn-bespeak dx-alert-box123" href="javascript:void(0)"><i class="iconfont"></i>预约免费试听</a></div>
</div>
</div>
</header>
<!-- banner -->
<link href="Themes/V1/_misc/finishing/css/reset.css" rel="stylesheet" type="text/css"/>
<link href="Themes/V1/_misc/finishing/css/find.css?v=5" rel="stylesheet" type="text/css"/>
<style type="text/css">
	.xyjz{
		background: #f9f9f9;
		padding-bottom: 50px;
	}
	.wrapDiv{
	width: 1200px;
	margin: 0 auto;
}

.tits{
	width: 23%;
	margin: 0 auto;
	text-align: center;
	position: relative;
}
.tits img{
	width: 100%;
}





/*
.xyjzdivs{
	display: flex;
}
.xyjzdiv{
	flex: 1;
	margin: 50px 2.5px;
}
.xyjzdiv ul li img{
	width: 100%;
	border-top-left-radius: 23px;
	border-top-right-radius: 23px;
}
.xyjzdiv ul li{
	border-radius: 23px;
	background: white;
	margin: 10px 0;
}
.xyjztit{
	width: 100%;
	background: white;
	color: #20DA9B;
	font-size: 20px;
	text-align: center;
	padding: 20px 0;
	
	font-weight: bold;
}

.xyjz ul li p{
	font-size: 14px;
	padding: 15px 20px;
}
*/
</style>
<div class="banner">
<ul class="index-banner j_index-slide">
<li>
<a href="https://www.01teacher.com/service/enterprise" target='_blank"'><img alt="小托福" src="/Themes/V1/_misc/temp/corp-banner-two.jpg?20200721144550"/></a>
</li>
<li>
<a href="https://www.01teacher.com/tg/INT_school.html" target="_blank"><img alt="国际学校幼升小" src="https://www.01teacher.com//Uploads/zh-cn/zh-cn/V1/Image/201912/lvmx0530.qxg18182019120201.jpg?v=1"/></a>
</li>
<li>
<a href="https://www.01teacher.com/cource/juvenile" target="_blank"><img alt="外教开学季-上海" src="https://www.01teacher.com//Uploads/zh-cn/zh-cn/V1/Image/202006/uosom5k5.3xt14182020064812.jpg?v=1"/></a>
</li>
<li>
<a href="/service/child"><img alt="幼儿" src="https://www.01teacher.com//Uploads/zh-cn/zh-cn/V1/Image/201906/xc3d1ay3.ms014172019064625.jpg?v=1"/></a>
</li>
<li>
<a href="/service/teenager" target="_blank"><img alt="青少年" src="https://www.01teacher.com//Uploads/zh-cn/zh-cn/V1/Image/201704/nqzcm0qk.f3s17122017042649.jpg?v=1"/></a>
</li>
</ul>
<div class="notice">
<div class="container">
<div class="notice-t"><img alt="最新公告" src="/Themes/V1/_misc/images/notice-info-img.png?20170808153211"/>最新公告 <span class="font-light">:</span></div>
<div class="notice-list-w">
<ul class="notice-list j_notice">
<li><a href="/node/n/5661518079134464808" target="_blank"><span class="pull-right">2021-01-12</span>在线外教课程哪家好，口碑好在线外教课程</a></li>
<li><a href="/node/n/5289174489873522494" target="_blank"><span class="pull-right">2021-01-11</span>小学生上哪个线上外教英语好？推荐哪家？</a></li>
<li><a href="/node/n/5282637390619743508" target="_blank"><span class="pull-right">2021-01-09</span>线上外教机构有哪些家，哪家线上外教机构口碑好</a></li>
<li><a href="/node/n/5112028224222263809" target="_blank"><span class="pull-right">2021-01-08</span>在线外教机构哪家好，你知道哪几家？</a></li>
<li><a href="/node/n/5703342531490908542" target="_blank"><span class="pull-right">2021-01-07</span>线上外教一对一网课哪家便宜，要求母语外教教学的</a></li>
<li><a href="/node/n/5138292298211883835" target="_blank"><span class="pull-right">2021-01-06</span>线上外教课用什么教材，家长可以选教材吗？</a></li>
</ul>
</div>
</div>
</div>
</div>
<!--主体内容-->
<div class="content">
<div class="dk-row">
<div class="container">
<ul class="dk-lesson-list dk-list-five">
<li class="dk-list-bg1">
<a href="/service/child">
<div class="dk-list-img"><i class="iconfont"></i></div>
<div class="dk-list-title">幼少儿英语课程</div>
<div class="dk-list-en">ENGLISH  COURSE</div>
<div class="dk-list-age">3-12岁</div>
</a>
</li>
<li class="dk-list-bg2">
<a href="/service/teenager">
<div class="dk-list-img"><i class="iconfont"></i></div>
<div class="dk-list-title">英文精修 写作阅读</div>
<div class="dk-list-en">Intensive Reading and writing</div>
<div class="dk-list-age">8-15岁</div>
</a>
</li>
<li class="dk-list-bg3">
<a href="https://www.01teacher.com/tg/INT_school.html">
<div class="dk-list-img"><i class="iconfont"></i></div>
<div class="dk-list-title">幼升小辅导课程</div>
<div class="dk-list-en">PRESCHOOL COURSE</div>
<div class="dk-list-age">4-6岁</div>
</a>
</li>
<li class="dk-list-bg4">
<a href="/service/enterprise">
<div class="dk-list-img"><i class="iconfont"></i></div>
<div class="dk-list-title">小托福英语课程</div>
<div class="dk-list-en">English  Course</div>
<div class="dk-list-age">不限</div>
</a>
</li>
<li class="dk-list-bg5">
<a href="/service/school">
<div class="dk-list-img"><i class="iconfont"></i></div>
<div class="dk-list-title">学校外教服务</div>
<div class="dk-list-en">English  Course</div>
<div class="dk-list-age">不限</div>
</a>
</li>
</ul>
<div class="dk-row-title">
<span class="dk-zo">趣味学习 让孩子爱上英语</span>
</div>
<div class="pt-5 pb-5 do-v-slide-w">
<ul class="dk-list-three dk-list-video" id="j_video_slider">
<li>
<a class="j_play" data-url="/Uploads/zh-cn/zh-cn/V1/Video/201709/uvci0g1j.m0g14062017090433.mp4" href="javascript:void(0)">
<img alt="明星外教专访-Kate" src="https://www.01teacher.com//Uploads/zh-cn/zh-cn/V1/Thumb/201709/ikpykz43.yh014062017092131.png?v=1"/>
<span class="dk-list-info">
                                    明星外教专访-Kate
                                </span>
</a>
</li>
<li>
<a class="j_play" data-url="/Uploads/zh-cn/zh-cn/V1/Video/201707/gb4bh2op.gzk15192017073319.mp4" href="javascript:void(0)">
<img alt="优秀学员专访-Yaoyao" src="https://www.01teacher.com//Uploads/zh-cn/zh-cn/V1/Thumb/201709/yfvazlxb.aek14062017093529.png?v=1"/>
<span class="dk-list-info">
                                    优秀学员专访-Yaoyao
                                </span>
</a>
</li>
<li>
<a class="j_play" data-url="/Uploads/zh-cn/zh-cn/V1/Video/201709/qmuaebxl.jwa14062017093716.mp4" href="javascript:void(0)">
<img alt="明星外教专访-Olga" src="https://www.01teacher.com//Uploads/zh-cn/zh-cn/V1/Thumb/201709/ebfx3hly.bsw14062017095921.png?v=1"/>
<span class="dk-list-info">
                                    明星外教专访-Olga
                                </span>
</a>
</li>
</ul>
</div>
</div>
</div>
<div class="dk-row dk-animation-w">
<div class="" id="dk-animation">
<div class="dk-animation-img"><img alt="大嘴外教的优势" src="/Themes/V1/_misc/images/indeximg1.png?20170808153211"/></div>
<div class="dk-animation-t">
<div class="font-44 text-darker">大嘴外教的优势</div>
<div class="font-18">十二年外教磨炼形成高品质系统教学体系，累积庞大外教资源库+亲和用户的教学模式<br/>我们的成绩已有口皆碑</div>
</div>
<div class="dk-animation-f"></div>
<div class="dk-animation-1">
<img alt="线上线下完美结合" src="/Themes/V1/_misc/images/b-a1.png?20170808153211"/>
<div class="do-advantage-text">
<h4>线上线下完美结合</h4>
<p>开辟线上线下互动教学</p>
<p>灵活选择上课方式</p>
<p>合理安排上课时间</p>
<p>优势互补注重效果</p>
</div>
</div>
<div class="dk-animation-2">
<img alt="十年品牌信誉保证" src="/Themes/V1/_misc/images/b-a2.png?20170808153211"/>
<div class="do-advantage-text">
<h4>十二年品牌 信誉保证</h4>
<p>创办于2006年</p>
<p>国内专业外教平台</p>
<p>被评为上海优秀外语教育机构</p>
<p>12年历练口碑之选</p>
</div>
</div>
<div class="dk-animation-3">
<img alt="3对1外教保驾护航" src="/Themes/V1/_misc/images/b-a3.png?20170808153211"/>
<div class="do-advantage-text">
<h4>独创3对1全程辅导模式</h4>
<p>顾问随时优化学习方案</p>
<p>督导监督跟进学习效果</p>
<p>组合模式全面提升学习效果</p>
</div>
</div>
<div class="dk-animation-4">
<img alt="个性化定制您的课程" src="/Themes/V1/_misc/images/b-a4.png?20170808153211"/>
<div class="do-advantage-text">
<h4>个性化定制您的课程</h4>
<p>以需求、兴趣、水平测试为导向</p>
<p>专业中外教团队操刀</p>
<p>量身定制的课程方案</p>
</div>
</div>
<div class="dk-animation-5">
<img alt="实现多元化课程体验" src="/Themes/V1/_misc/images/b-a5.png?20170808153211"/>
<div class="do-advantage-text">
<h4>实现多元化课程体验</h4>
<p>精选语言课程及兴趣活动</p>
<p>精品游学真正体验西方文化</p>
<p>灵活运用外语交流游刃有余</p>
</div>
</div>
<div class="dk-animation-6">
<img alt="母语外教情景式教学" src="/Themes/V1/_misc/images/b-a6.png?20170808153211"/>
<div class="do-advantage-text">
<h4>母语外教情景式教学</h4>
<p>聚集全球优质外教</p>
<p>专家亲授品质保障</p>
<p>模拟教学重在应用</p>
</div>
</div>
</div>
</div>
<div class="dk-row dk-row-banner">
<img alt="申请免费试听课" src="/Themes/V1/_misc/images/indeximg2.jpg?20170808153211"/>
<div class="dk-img-info">
<div class="dk-img-info-t">我们帮助了超过5000名学员<br/>有效提高了英语能力</div>
<div class="dk-img-info-p">
<p>收到最多的评价：外教资质好、课程定制符合需求、</p>
<p>服务态度优、关心学员上课效果、像朋友一起相处、</p>
<p>提供好的学习意见</p>
</div>
<div>
<a class="btn-more-reverse j_order_trigger" href="javascript:void(0)">申请免费试听课&gt;</a>
</div>
</div>
</div>
<div class="dk-row">
<div class="dk-tab-w">
<div class="container">
<ul class="dk-tab j_tab">
<li class="dk-tab-bg1 active">
<a data-tab="tab1" href="javascript:void(0);">
<div class="dk-tab-img">
<i class="iconfont"></i>
</div>
<div class="dk-tab-cnt">
<div class="dk-tab-cn">幼少儿</div>
<div class="dk-tab-en">ENGLISH COURSE</div>
</div>
</a>
</li>
<li class="dk-tab-bg2">
<a data-tab="tab2" href="javascript:void(0);">
<div class="dk-tab-img">
<i class="iconfont"></i>
</div>
<div class="dk-tab-cnt">
<div class="dk-tab-cn">青少年</div>
<div class="dk-tab-en">ENGLISH COURSE</div>
</div>
</a>
</li>
<li class="dk-tab-bg3">
<a data-tab="tab3" href="javascript:void(0);">
<div class="dk-tab-img">
<i class="iconfont"></i>
</div>
<div class="dk-tab-cnt">
<div class="dk-tab-cn">幼升小</div>
<div class="dk-tab-en">ENGLISH COURSE</div>
</div>
</a>
</li>
<li class="dk-tab-bg4">
<a data-tab="tab4" href="javascript:void(0);">
<div class="dk-tab-img">
<i class="iconfont"></i>
</div>
<div class="dk-tab-cnt">
<div class="dk-tab-cn">企业团体</div>
<div class="dk-tab-en">ENGLISH COURSE</div>
</div>
</a>
</li>
<li class="dk-tab-bg5">
<a data-tab="tab5" href="javascript:void(0);">
<div class="dk-tab-img">
<i class="iconfont"></i>
</div>
<div class="dk-tab-cnt">
<div class="dk-tab-cn">学校服务</div>
<div class="dk-tab-en">ENGLISH COURSE</div>
</div>
</a>
</li>
</ul>
</div>
</div>
<div class="dk-pane active" id="tab1">
<div class="dk-img dk-img-bg1">
<div class="container">
<img alt="幼少儿英语课程" src="/Themes/V1/_misc/images/tab1-pimg1.jpg?20170808153211"/>
<div class="dk-img-introduction">
<div class="dk-img-introduction-h">
<div class="dk-img-introduction-t">幼少儿英语课程</div>
<div class="dk-img-introduction-st">
                                生动有趣的授课风格，日常口语、阅读写作、<br/>
                                自然拼读分层学
                            </div>
<div class="dk-img-introduction-p">
                                外教将游戏、故事、运动、文化等元素融入到课程中，帮助学生有效<br/>
                                提升语言能力，最终将学到的知识和技巧应用到实处。
                            </div>
</div>
<div>
<a class="btn-more-reverse" href="/service/child">查看更多&gt;</a>
</div>
</div>
<div class="dk-img-desc">
<img alt="desc" src="/Themes/V1/_misc/images/tab1-pimg-bg.jpg?20170808153211"/>
</div>
</div>
</div>
<div class="xyjz">
<div class="wrapDiv" style="padding-top:30px;">
<!--div class="tits">
					<img src="/Themes/V1/_misc/images/sasa.png?v=1" />
					<div style="position: absolute;bottom:20px;left: 0;right: 0;">
						<p style="color: #20DA9B;font-size: 30px; ">学员见证</p>
						<p style="font-size: 12px;color: #888;">Students witness</p>
					</div>	
				</div-->
<div class="container">
<div class="dk-img-title">
					学员见证
				    </div>
</div>
<div class="xyjzdivs" style="position:relative;width:930px;margin:0 auto;margin-top:0px;">
<aside class="fall-box grid">
</aside>
<!--div class="xyjzdiv">
						<div class="xyjztit"></div>
						<ul></ul>
					</div>
					<div class="xyjzdiv">
						<div class="xyjztit"></div>
						<ul></ul>
					</div>
					<div class="xyjzdiv">
						<div class="xyjztit"></div>
						<ul></ul>
					</div>
					<div class="xyjzdiv">
						<div class="xyjztit"></div>
						<ul></ul>
					</div>
					<div class="xyjzdiv">
						<div class="xyjztit"></div>
						<ul></ul>
					</div-->
</div>
</div>
</div>
<div class="dk-img">
<div class="container">
<img alt="生动有趣的授课风格" src="/Themes/V1/_misc/images/tab1-pimg2.jpg?20170808153211"/>
<img alt="生动有趣的授课风格" class="dk-img-ani" src="/Themes/V1/_misc/images/tab1-pimg2-t.png?20170808153211"/>
<div class="dk-img-title-w">
<div class="font-44 text-darker">生动有趣的授课风格</div>
<div class="font-18">激发英语学习兴趣</div>
</div>
</div>
</div>
<div class="dk-img dk-row-banner">
<img alt="纯母语学习环境" src="/Themes/V1/_misc/images/tab1-pimg3.jpg?20170808153211"/>
<div class="dk-img-info-w">
<div class="font-44 text-darker">纯母语学习环境</div>
<div class="font-34 text-darker">进口国际教材   丰富俱乐部活动</div>
<ul class="dk-img-info-l">
<li>采用多元智能理念，激发兴趣</li>
<li>引进国际优秀教材，循序渐进</li>
<li>定制化俱乐部课程，寓教于乐</li>
</ul>
<div><a class="btn-more-reverse j_order_trigger" href="javascript:void(0)">申请免费试听课&gt;</a></div>
</div>
</div>
<div class="dk-img dk-row-banner">
<div class="container">
<div class="dk-img-title pt-10">
                        放心把孩子的英语启蒙交给我们
                    </div>
</div>
<img alt="放心把孩子的英语启蒙交给我们" src="/Themes/V1/_misc/images/tab1-pimg4.jpg?20170808153211"/>
</div>
</div>
<div class="dk-pane" id="tab2">
<div class="dk-img dk-img-bg2">
<div class="container">
<img alt="严谨专业的课程体系" src="/Themes/V1/_misc/images/tab2-pimg1.jpg?20170808153211"/>
<div class="dk-img-introduction">
<div class="dk-img-introduction-h">
<div class="dk-img-introduction-t">严谨专业的课程体系</div>
<div class="dk-img-introduction-st">满足孩子每个阶段的学习需求</div>
<div class="dk-img-introduction-p">
                                日常口语、阅读写作、入学面试、留学准备、学科英语、<br/>
                                国际课程辅导、国际考试培训全覆盖，专属外教助学员<br/>
                                语言腾飞。
                            </div>
</div>
<div>
<a class="btn-more-reverse" href="/service/teenager">查看更多&gt;</a>
</div>
</div>
</div>
</div>
<div class="dk-img">
<div class="container">
<img alt="满足孩子每阶段的需求" src="/Themes/V1/_misc/images/tab2-pimg2.jpg?20170808153211"/>
<img alt="满足孩子每阶段的需求" class="dk-img-ani" src="/Themes/V1/_misc/images/tab2-pimg2-t.png?20170808153211"/>
<div class="dk-img-title-w">
<div class="font-44 text-darker">满足孩子每阶段的需求</div>
<div class="font-18">入学面试、留学准备、学科英语、日常口语</div>
</div>
</div>
</div>
<div class="dk-img dk-row-banner">
<img alt="严谨专业的课程体系" src="/Themes/V1/_misc/images/tab1-pimg3.jpg?20170808153211"/>
<div class="dk-img-info-w">
<div class="font-44 text-darker">严谨专业的课程体系</div>
<div class="font-34 text-darker">培养孩子对语言学习的终生热爱</div>
<ul class="dk-img-info-l">
<li>把青少年喜爱的话题融入教学中</li>
<li>帮助学生积累丰富的词汇量</li>
<li>精心设计留学课程、量身定制学习计划</li>
</ul>
<div><a class="btn-more-reverse j_order_trigger" href="javascript:void(0)">申请免费试听课&gt;</a></div>
</div>
</div>
<div class="dk-img dk-row-banner">
<div class="container">
<div class="dk-img-title pt-10">
                        资深外教团队
                    </div>
<div class="dk-img-stitle">让留学考试再无后顾之忧</div>
</div>
<img alt="资深外教团队" src="/Themes/V1/_misc/images/tab2-pimg4.jpg?20170808153211"/>
</div>
</div>
<div class="dk-pane" id="tab3">
<div class="dk-img dk-img-bg3">
<div class="container">
<img alt="轻松高效  个性定制" src="/Themes/V1/_misc/images/tab3-pimg1.png?20190428162652"/>
<div class="dk-img-introduction">
<div class="dk-img-introduction-h">
<div class="dk-img-introduction-t">助力国际双语学校幼升小择校</div>
<div class="dk-img-introduction-st">以知名双语国际校为目标，高效提升孩子通过幼升小备考技能</div>
<div class="dk-img-introduction-p">
                                三大课程，三套家辅，包括真题模拟，全面深入，助力孩子考上目标校<br/>
                                专业幼升小督导顾问，全方位指导，外教全真模拟，让孩子对考试了如指掌。<br/>
</div>
</div>
<div>
<a class="btn-more-reverse" href="http://www1.01teacher.com/landingpage/INT_school/INT_school.aspx">查看更多&gt;</a>
</div>
</div>
</div>
</div>
<div class="dk-img">
<div class="container">
<img alt="私人外教定制" src="/Themes/V1/_misc/images/tab3-pimg2.jpg?20170808153211"/>
<img alt="私人外教定制" class="dk-img-ani" src="/Themes/V1/_misc/images/tab3-pimg2-t.png?20170808153211"/>
<div class="dk-img-title-w mt--2">
<div class="font-44 text-darker">私人外教定制</div>
<div class="font-18">满足英语语言学习的各种需求</div>
</div>
</div>
</div>
<div class="dk-img dk-row-banner">
<img alt="把流利的英语融入生活与职场" src="/Themes/V1/_misc/images/tab3-pimg3.jpg?20170808153211"/>
<div class="dk-img-info-w">
<div class="font-44 text-darker">把流利的英语融入生活与职场</div>
<ul class="dk-img-info-l dk-img-info-l-c">
<li>教学经验丰富、积极热情的欧美教师</li>
<li>朋友式指点与沟通的互动教学法</li>
<li>专业的课程设置，详实的课程体系</li>
</ul>
<div><a class="btn-more-reverse j_order_trigger" href="javascript:void(0)">申请免费试听课&gt;</a></div>
</div>
</div>
<div class="dk-img dk-row-banner">
<div class="container">
<div class="dk-img-title pt-10">
                        分行业分领域的课程方案
                    </div>
<div class="dk-img-stitle">增强核心竞争力</div>
</div>
<img alt="把流利的英语融入生活与职场" src="/Themes/V1/_misc/images/tab3-pimg4.jpg?20170808153211"/>
</div>
</div>
<div class="dk-pane" id="tab4">
<div class="dk-img dk-img-bg4">
<div class="container">
<img alt="为企业规划专属的教学课程" src="/Themes/V1/_misc/images/tab4-pimg1.jpg?20170808153211"/>
<div class="dk-img-introduction">
<div class="dk-img-introduction-h">
<div class="dk-img-introduction-t">为企业规划专属的教学课程</div>
<div class="dk-img-introduction-st">快速提高员工英语水平</div>
<div class="dk-img-introduction-p">
                                严格筛选商务英语培训师，资深教学督导定期现场听课；多层次、<br/>
                                跨行业的商务英语课程，全面提升企业竞争力
                            </div>
</div>
<div>
<a class="btn-more-reverse" href="/service/enterprise">查看更多&gt;</a>
</div>
</div>
</div>
</div>
<div class="dk-img dk-row-banner"><img alt="为企业规划专属的教学课程" src="/Themes/V1/_misc/images/tab4-pimg2.jpg?20170808153211"/></div>
</div>
<div class="dk-pane" id="tab5">
<div class="dk-img dk-img-bg5">
<div class="container">
<img alt="只需提出需求" src="/Themes/V1/_misc/images/tab5-pimg1.jpg?20170808153211"/>
<div class="dk-img-introduction">
<div class="dk-img-introduction-h">
<div class="dk-img-introduction-t">只需提出需求</div>
<div class="dk-img-introduction-st">储备和管理外教的成本交给我们</div>
<div class="dk-img-introduction-p">
                                已为全国超过2000家学校机构客户提供专业的外籍教师人才<br/>
                                派遣以及管理服务，以专业的服务赢得了客户的一致好评
                            </div>
</div>
<div>
<a class="btn-more-reverse" href="/service/school">查看更多&gt;</a>
</div>
</div>
</div>
</div>
<div class="dk-img dk-row-banner">
<img alt="拥有资深外教管理团队" src="/Themes/V1/_misc/images/tab5-pimg2.jpg?20170808153211"/>
<div class="dk-img-info dk-img-info-c">
<div class="mb-4">
<div class="font-34 text-darker">拥有资深外教管理团队</div>
<div class="font-18">
<p>组建外教团队成本太高？</p>
<p>有外教团队不好管理的困扰？</p>
</div>
</div>
<div>
<div class="font-34 text-darker">专业的质量评估体系</div>
<div class="font-18">
<p>解决外教在授课中教学效果无法确保 </p>
<p>形式大于内容的困扰</p>
</div>
</div>
</div>
</div>
</div>
</div>
<div class="dk-row dk-row-bg1">
<div class="container">
<div class="dk-title">我们的外教团队</div>
<ul class="dk-list-four dk-num-list">
<li>
<div class="dk-num"><span class="animateNum" data-animatetarget="7">7</span><sub>%</sub></div>
<div class="dk-num-t">合格录取率</div>
<div class="dk-num-p">
                        从品德到资历严格筛选每个外教<br/>
                        仅7%录取率
                    </div>
</li>
<li>
<div class="dk-num"><span class="animateNum" data-animatetarget="100">100</span><sub>%</sub></div>
<div class="dk-num-t">外教专业度</div>
<div class="dk-num-p">
                        与美国TESOL培训中心战略合作<br/>
                        长期对外教进行定期学术培训
                    </div>
</li>
<li>
<div class="dk-num"><span class="animateNum" data-animatetarget="9000">9000</span><sub>+</sub></div>
<div class="dk-num-t">注册外教</div>
<div class="dk-num-p">
                        已建立全国范围内较大的<br/>
                        9000余名外教人才库
                    </div>
</li>
<li>
<div class="dk-num"><span class="animateNum" data-animatetarget="50000">50000</span><sub>+</sub></div>
<div class="dk-num-t">服务学员</div>
<div class="dk-num-p">
                        具备完善且成熟的外教管理体系<br/>
                        学员认可度高 确保课时完成质量
                    </div>
</li>
</ul>
<div class="text-center mt-7-5">
<a class="btn-more mr-5" href="/tutor">查看更多外教 <i class="iconfont"></i></a>
<a class="btn-more" href="javascript:void(0);">查看视频 <i class="iconfont font-24"></i></a>
</div>
</div>
</div>
<div class="dk-row dk-row-pb">
<div class="container">
<div class="dk-title">大嘴荣誉奖项<small>广受学员好评，获得权威教育部门的一致推荐</small></div>
<div class="dk-slide-w">
<ul class="dk-slide j_slide">
<li>
<div class="dk-slide-img">
<img alt="2016上海具特色外语机构" src="/Uploads/zh-cn/zh-cn/V1/Image/201704/gfn41v4k.dgl11072017041250.png?v=1"/>
</div>
<div class="dk-slide-info">
<p>2016上海具特色外语机构</p>
<p></p>
</div>
</li>
<li>
<div class="dk-slide-img">
<img alt="中国在线教育百强" src="/Uploads/zh-cn/zh-cn/V1/Image/201611/reatuipl.nu516012016114928.jpg?v=1"/>
</div>
<div class="dk-slide-info">
<p>中国在线教育百强</p>
<p>中国在线教育百强评选组委会颁发</p>
</div>
</li>
<li>
<div class="dk-slide-img">
<img alt="具品牌影响力外语教育机构" src="/Uploads/zh-cn/zh-cn/V1/Image/201611/kzqucxcl.sds16012016113531.jpg?v=1"/>
</div>
<div class="dk-slide-info">
<p>具品牌影响力外语教育机构</p>
<p>新浪网 新浪教育盛典</p>
</div>
</li>
<li>
<div class="dk-slide-img">
<img alt="美国TESOL外籍英语教师合作伙伴" src="/Uploads/zh-cn/zh-cn/V1/Image/201611/pvbu30et.jyo16012016114931.jpg?v=1"/>
</div>
<div class="dk-slide-info">
<p>美国TESOL外籍英语教师合作伙伴</p>
<p>美国TESOL中国总部颁发</p>
</div>
</li>
<li>
<div class="dk-slide-img">
<img alt="受欢迎专业培训机构" src="/Uploads/zh-cn/zh-cn/V1/Image/201611/mxsfb04g.0sg16012016113532.jpg?v=1"/>
</div>
<div class="dk-slide-info">
<p>受欢迎专业培训机构</p>
<p>2013-2014《培训》杂志社</p>
</div>
</li>
<li>
<div class="dk-slide-img">
<img alt="上海市优秀外语教育机构" src="/Uploads/zh-cn/zh-cn/V1/Image/201611/bbbnpivg.q1k16012016115632.jpg?v=1"/>
</div>
<div class="dk-slide-info">
<p>上海市优秀外语教育机构</p>
<p>新闻报社 腾讯大申网</p>
</div>
</li>
<li>
<div class="dk-slide-img">
<img alt="千万用户推荐品牌机构" src="/Uploads/zh-cn/zh-cn/V1/Image/201611/o4qfi52y.mgf16012016115133.jpg?v=1"/>
</div>
<div class="dk-slide-info">
<p>千万用户推荐品牌机构</p>
<p>沪江网外语教育评选榜</p>
</div>
</li>
</ul>
</div>
</div>
</div>
</div>
<!--<div class="new-float" style="display:none">
    <a class="float_end"><img src="/Themes/V1/_misc/images/float-end.png" alt=""></a>
    <a href="http://www1.01teacher.com/landingpage/New-pb/INT_school.aspx" target="_blank" class="new_float"><img src="/Themes/V1/_misc/images/new-float.png" alt=""></a>-->
</div>
<script src="Themes/V1/_misc/js/jquery-3.2.1.min.js"></script>
<script>
	$(function () {
		
		
		

		$(".float_end img").click(function () {
		    $(".new-float").animate({left:"-120px"},"fast");
		})
		  var test1 = $(".oneCity").clone();  //先克隆这个父标签
		
	    test1.children(".iconfont").remove(); //找到这个克隆后的父元素的特定标签然后remove
	    //console.log(test1.text()+"1111") //此时这个克隆的父标签里的内容就只是文本内容了
	    var cityName = test1.text();
	    if(cityName =="上海市" ||cityName =="深圳市"){
			<!-- console.log(cityName); -->
	       $(".new-float").show(1)
	    }

			
	    	//学员见证
		$.ajax({
			type:"get",
			url:"https://class.01teacher.com/website/student_lature",
			async:true,
			dataType:'jsonp',
			success:function(data){
				//console.log(data);
				var c = 0;
				data.msg.forEach(function(ele,i){
					c++;
					//console.log(ele.data[0].class_type);
					if(c == 2){
						var more = '<div style="width:100%;height:240px;background:#1c894f;margin-top:10px;border-radius:4px;">'+
								'<img src="Themes/V1/_misc/images/left_arrow.png" style="width:16%;margin-top:30px;margin-left:15%;cursor:pointer;" onclick=\'cli_type('+ele.type+');\' />'+
								'<div style="font-size: 30px;color:white;margin-left: 66%;margin-top: 56px;cursor:pointer;" onclick=\'cli_type('+ele.type+');\'>查看<br />更多</div>'+
							'</div>';
					}else{
						var more = '';
					}
					$('.grid').append('<div class="grid-item item item_'+c+'" style="width:290px;font-size:14px;border-radius:4px;overflow:hidden;">'+
								'<div style="width:100%;text-align:center;font-size:17px;height:100px;line-height:100px;background:#ffffff;">'+ele.data[0].class_type+'</div>'+
								'<div style="width:100%;margin-top:10px;background:#ffffff;padding-bottom:10px;">'+
									'<img src="'+ele.data[0].img_path+'" width="100%" />'+
									'<div style="font-weight: bold;padding: 15px 20px;">'+ele.data[0].content+'</div>'+
									'<div style="width:88%;margin-left:5%;height:1px;background:#dddddd;"></div>'+
									'<div style="width:80%;margin-left:10%;margin-top:10px;height:38px;line-height:38px;cursor:pointer;text-align:center;background:#f99f00;border-radius:4px;color:white;font-size:14px;" onclick=\'cli_type('+ele.type+');\'>查看更多 ></div>'+
								'</div>'+
								more+
							'</div>');
				});

				setTimeout(function(){
					var $grid = $('.grid').masonry({
						itemSelector : '.grid-item',
						gutter:23,
					});
				},1000);
				
				
				/*
				data.msg.forEach(function(ele,i){
					var str = ''
					var tit = ''
					ele.data.forEach(function(element,index){
						tit = element.class_type
						str+="<li><img src='"+element.img_path+"'/><p>"+element.content+"</p></li>"
					})
					$(".xyjzdivs .xyjzdiv:nth-child("+(Number(i)+1)+") .xyjztit").html(tit)
					$(".xyjzdivs .xyjzdiv:nth-child("+(Number(i)+1)+") ul").append(str)
				})
				*/
				
			},
			error:function(data){
				console.log(data)
			}
		});
	});

	function cli_type(type){
		window.location.href = "student_witness.html?type="+type;
	}
</script>
<div class="video-wrapper">
<video class="video-js vjs-default-skin" controls="" data-setup="{}" height="440" poster="/Uploads/zh-cn/zh-cn/V1/Thumb/201709/ikpykz43.yh014062017092131.png?v=1" preload="none" width="640">
<source src="/Uploads/zh-cn/zh-cn/V1/Video/201709/uvci0g1j.m0g14062017090433.mp4" type="video/mp4"/>
</video>
<i class="iconfont do-close-video j_close_video"></i>
</div>
<div class="video-wrapper">
<video class="video-js vjs-default-skin" controls="" data-setup="{}" height="440" poster="/Uploads/zh-cn/zh-cn/V1/Thumb/201709/yfvazlxb.aek14062017093529.png?v=1" preload="none" width="640">
<source src="/Uploads/zh-cn/zh-cn/V1/Video/201707/gb4bh2op.gzk15192017073319.mp4" type="video/mp4"/>
</video>
<i class="iconfont do-close-video j_close_video"></i>
</div>
<div class="video-wrapper">
<video class="video-js vjs-default-skin" controls="" data-setup="{}" height="440" poster="/Uploads/zh-cn/zh-cn/V1/Thumb/201709/ebfx3hly.bsw14062017095921.png?v=1" preload="none" width="640">
<source src="/Uploads/zh-cn/zh-cn/V1/Video/201709/qmuaebxl.jwa14062017093716.mp4" type="video/mp4"/>
</video>
<i class="iconfont do-close-video j_close_video"></i>
</div>
<!-- 底部  -->
<footer id="footer">
<div class="footer-collect fixed" id="footer-collect">
<div class="container">
<form action="/node/c/node" class="j_order">
<input name="Title" type="hidden" value=""/>
<input name="CategoryId" type="hidden" value="5452644987249272787"/>
<input name="field.Source" type="hidden" value="Bottom"/>
<input name="field.City" type="hidden" value="上海市"/>
<span class="dk-collect-t">免费领取试听课</span>
<div class="dk-form-box">
<input data-rule="姓名:required" id="do-name-2" name="field.Name" placeholder="姓名" type="text"/>
</div>
<div class="dk-form-box">
<input data-rule="区域:required" id="do-area-2" name="field.Area" placeholder="区域" type="text"/>
</div>
<div class="dk-form-box">
<select data-rule="年龄段:required;" id="do-object-2" name="field.Target">
<option value="">年龄段</option>
<option value="1">幼少儿（3-12岁）</option>
<option value="2">青少年（13-18岁）</option>
<option value="3">成人（18岁以上）</option>
</select>
</div>
<div class="dk-form-box">
<input data-rule="手机号码:required;mobile" id="do-tel-2" name="field.Cellphone" placeholder="您的手机号码" type="text"/>
</div>
<div class="dk-form-box">
<select data-rule="方便联系时间:required;" id="do-contact-2" name="field.ContactTime">
<option value="0">方便联系时间</option>
<option value="09:00~12:00">09:00~12:00</option>
<option value="13:00~16:00">13:00~16:00</option>
<option value="18:00~21:00">18:00~21:00</option>
</select>
</div>
<button class="btn-submit" style="display:none;" type="submit">立即体验 <i class="iconfont"></i></button>
<button class="btn-submit" onclick="cli_tr(2);" type="button">立即领取 <i class="iconfont"></i></button>
</form>
</div>
</div>
<div class="footer-nav">
<div class="container">
<div class="footer-sns">
<div class="font-18 text-darker"><strong>400-680-9550</strong></div>
<div class="font-12 mt-1">周一至周日 09:00-22:00<br/>(免收长途费)</div>
<div class="dk-sns mt-1-5">
<a class="do-wechat-qc" href="http://weibo.com/51870806" target="_blank">
<i class="iconfont"></i>
<div class="aside-qcCode"><img alt="关注我们" src="/Uploads/zh-cn/SinaCode/201708/mpzufoyc.aka15152017084342.png"/>关注我们
                                </div>
</a>
<a class="do-wechat-qc" href="javascript:void(0)">
<i class="iconfont"></i>
<div class="aside-qcCode"><img alt="关注我们" src="/Uploads/zh-cn/Wechat/201708/mmtfj4sf.pfj15152017085642.png"/>关注我们
                                </div>
</a>
</div>
<p style="margin-top: 15px;">地址：上海市长宁区长宁路1027号兆丰广场1903/1905室</p>
</div>
<ul class="footer-menu">
<li>
<div class="footer-menu-t">外教英语</div>
<ul class="footer-sub-menu">
<li><a href="http://www.01teacher.com/" target="_blank">英语外教</a></li>
<li><a href="http://www.01teacher.com/cource/juvenile" target="_blank">少儿英语外教</a></li>
<li><a href="http://www.01teacher.com/node/n/5532947649253805286" target="_blank">英语口语外教</a></li>
<li><a href="http://www.01teacher.com/node/n/4615086565003717901" target="_blank">英语口语培训</a></li>
<li><a href="http://www.01teacher.com/" target="_blank">外教</a></li>
<li><a href="http://www.01teacher.com/service/school" target="_blank">外教招聘</a></li>
</ul>
</li>
<li>
<div class="footer-menu-t">英语培训</div>
<ul class="footer-sub-menu">
<li><a href="http://www.01teacher.com/service/enterprise" target="_blank">企业英语培训</a></li>
<li><a href="http://www.01teacher.com/cource/child" target="_blank">幼儿英语培训</a></li>
<li><a href="http://www.01teacher.com/cource/juvenile" target="_blank">少儿英语培训</a></li>
<li><a href="http://www.01teacher.com/service/teenager" target="_blank">青少年英语培训</a></li>
<li><a href="http://www.01teacher.com/service/adult" target="_blank">成人英语培训</a></li>
<li><a href="http://www.01teacher.com/cource/business" target="_blank">商务英语培训</a></li>
</ul>
</li>
<li>
<div class="footer-menu-t">外教一对一</div>
<ul class="footer-sub-menu">
<li><a href="" target="_blank">上海外教一对一 </a></li>
<li><a href="/city/switch?city=深圳市" target="_blank">深圳外教一对一</a></li>
<li><a href="/city/switch?city=杭州市" target="_blank">杭州外教一对一</a></li>
<li><a href="/city/switch?city=成都市" target="_blank">成都外教一对一</a></li>
<li><a href="http://www.01teacher.com/node/n/5258488350055763367" target="_blank">外教口语一对一</a></li>
<li><a href="http://www.01teacher.com/node/n/5051911601529428328" target="_blank">英语外教一对一</a></li>
</ul>
</li>
<li>
<div class="footer-menu-t">关于大嘴</div>
<ul class="footer-sub-menu">
<li><a href="/about" target="_blank">了解大嘴</a></li>
<li><a href="/node/n/news/category/dazuixinwen" target="_blank">大嘴资讯</a></li>
<li><a href="/quiz" target="_blank">在线评测</a></li>
<li><a href="https://www.01teacher.com/node/n/News/Category/dazuizhaopin" target="_blank">大嘴招聘</a></li>
</ul>
</li>
<li>
<div class="footer-menu-t">关注我们</div>
<ul class="footer-sub-menu">
<li><a href="http://weibo.com/51870806" target="_blank">新浪微博</a></li>
<li><a href="#">官方微信</a></li>
</ul>
</li>
<li>
<div class="footer-menu-t">友情链接</div>
<ul class="footer-sub-menu">
<li><a href="http://sh.ganji.com/yingyupeixun/" target="_blank">上海赶集网</a></li>
<li><a href="http://uk.weilanliuxue.cn/" target="_blank">去英国留学</a></li>
<!--li><a href="http://www.shifansheng.net/" target=_blank>教师招聘网</a></li-->
<li><a href="http://www.linguakids.cn/" target="_blank">灵呱英语</a></li>
<li><a href="http://www.mbaschool.com.cn/" target="_blank">MBA培训班</a></li>
<li><a href="http://liuxue.hujiang.com/" target="_blank">沪江留学</a></li>
<li><a href="http://www.hjenglish.com/" target="_blank">沪江英语</a></li>
<li><a href="http://www.pinwaiyi.com/" target="_blank">外教招聘</a></li>
</ul>
</li>
</ul>
</div>
</div>
<div class="footer-copyright">
<div class="container">
<div class="pull-left">©01teacher.com   版权所有:上海大嘴商务咨询有限公司 4006809550 <a href="http://www.miitbeian.gov.cn" target="_blank">沪ICP备11006652号-2</a></div>
<div class="pull-right">
<div class="footer-other">
<a href="" target="_blank"><img alt="国际交流协会" src="/Uploads/zh-cn/zh-cn/V1/Image/201708/wlumku1h.olb14012017085838.png?v=1"/></a>
<a href="" target="_blank"><img alt="安全联盟" src="/Uploads/zh-cn/zh-cn/V1/Image/201608/r2iv0tok.rcy21122016082823.png?v=1"/></a>
<a href="" target="_blank"><img alt="中国品牌官网认证中心" src="/Uploads/zh-cn/zh-cn/V1/Image/201608/vik5opnd.shd21122016082522.png?v=1"/></a>
<a href="" target="_blank"><img alt="凭安信用" src="/Uploads/zh-cn/zh-cn/V1/Image/201608/2tisueob.ygl21122016084818.png?v=1"/></a>
</div>
</div>
</div>
</div>
</footer>
<!--社交-->
<ul class="menu-aside">
<li class="aside-phone-w">
<a href="javascript:void(0);" title="phone"><i class="iconfont"></i></a><div class="aside-phone">
<i class="iconfont">
                        
                    </i>400-680-9550
                </div>
</li>
<li class="aside-qcCode-w">
<a href="javascript:void(0);" title="二维码"><i class="iconfont"></i></a>
<div class="aside-qcCode"><img alt="关注我们" src="/Uploads/zh-cn/Wechat/201708/mmtfj4sf.pfj15152017085642.png?v=1"/>关注我们</div>
</li>
<li><a href="#wraper" id="j_anchor" title="返回顶部"><i class="iconfont"></i></a></li>
</ul>
<div id="orderdialog" style="display: none;">
<div class="dx-alert-box">
<div class="alert-l">
<form action="/node/c/node" class="do-form-sel do-form-child j_order">
<input name="Title" type="hidden" value=""/>
<input name="CategoryId" type="hidden" value="5452644987249272787"/>
<input name="field.Source" type="hidden" value="Dialog"/>
<input name="field.City" type="hidden" value="上海市"/>
<div class="do-form-title">
<i class="iconfont"></i>
                        预约免费试听课
                    </div>
<div class="do-form-box">
<label class="iconfont do-icon-fmtel" for="do-name"></label>
<input data-rule="姓名:required" id="do-name-1" name="field.Name" placeholder="姓名" type="text"/>
</div>
<div class="do-form-box">
<label class="iconfont do-icon-fmtel" for="do-area"></label>
<input data-rule="区域:required" id="do-area-1" name="field.Area" placeholder="区域" type="text"/>
</div>
<div class="do-form-box">
<label class="iconfont" for="do-object"></label>
<select data-rule="年龄段:required;" id="do-object-1" name="field.Target">
<option value="">年龄段</option>
<option value="1">幼少儿（3-12岁）</option>
<option value="2">青少年（13-18岁）</option>
<option value="3">成人（18岁以上）</option>
</select>
</div>
<div class="do-form-box">
<label class="iconfont do-icon-fmtel" for="do-tel"></label>
<input data-rule="手机号码:required;mobile" id="do-tel-1" name="field.Cellphone" placeholder="您的手机号码" type="text"/>
</div>
<div class="do-form-box">
<label class="iconfont" for="do-contact"></label>
<select data-rule="方便联系时间:required;" id="do-contact-1" name="field.ContactTime">
<option value="0">方便联系时间</option>
<option value="09:00~12:00">09:00~12:00</option>
<option value="13:00~16:00">13:00~16:00</option>
<option value="18:00~21:00">18:00~21:00</option>
</select>
</div>
<button class="do-btn-submit" style="display:none;" type="submit">立即体验 <i class="iconfont"></i></button>
<button class="do-btn-submit" onclick="cli_tr(1);" type="button">立即体验 <i class="iconfont"></i></button>
</form>
</div>
<div class="alert-r">
<div class="alert-r-logo"><img alt="大嘴外教" src="/Themes/V1/_misc/images/logo.png?20171121130942"/></div>
<div class="alert-r-wx"><img alt="微信" src="/Uploads/zh-cn/zh-cn/V1/Weixin/201609/ro1gdrni.cql17082016094152.png?v=1"/></div>
<div class="alert-r-info">
<p><span class="text-gary-l">微信扫描二维码</span></p>
<p><span class="text-main">预约免费试听课</span></p>
</div>
</div>
</div>
</div>
<a class="hide" href="http://wpa.qq.com/msgrd?v=3&amp;uin=1164587850&amp;site=qq&amp;menu=yes" id="QQService" target="_blank">QQ</a>
<!-- js插件 -->
<script src="/Themes/V1/_misc/js/dookayui.min.js?20170808153211" type="text/javascript"></script>
<script src="/Themes/V1/_misc/js/jquery.running.js?20170808153211" type="text/javascript"></script>
<script src="/Themes/V1/_misc/js/validate/jquery.validator.js?20170808153211" type="text/javascript"></script>
<script src="/Themes/V1/_misc/js/validate/zh_CN.js?20170808153211" type="text/javascript"></script>
<script src="/Themes/V1/_misc/js/layer/layer.js?20170808153211" type="text/javascript"></script>
<script src="/Themes/V1/_misc/js/city2/js/public.js?20190807174702" type="text/javascript"></script>
<script src="/Themes/V1/_misc/js/backend.js?20170808153211" type="text/javascript"></script>
<script src="/Themes/V1/_misc/js/main.js?20171024142659" type="text/javascript"></script>
<script src="/Themes/V1/_misc/finishing/js/imagesloaded.pkgd.min.js?20191103175857" type="text/javascript"></script>
<script src="/Themes/V1/_misc/finishing/js/masonry.pkgd.min.js?20191103175858" type="text/javascript"></script>
<!-- js页面-->
<script>
	var is_click = 0;
	function cli_tr(number){
		
		if(is_click == 1){
			return false;
		}
		
		is_click = 1;
		var url = window.location.href;
		var arr_url = url.split("?");
		if(arr_url[1] != null){
			var parameter = arr_url[1];
			var arr_parameter = parameter.split("&");
			
			var Source = "";
			var Medium = "";
			var Term = "";
			var Ucontent = "";
			var Campaign = "";
			for(var i=0;i<arr_parameter.length;i++){
				var pa = arr_parameter[i];
				var arr_pa = pa.split("=");
				if(arr_pa[0] == "utm_source"){
					if(arr_pa[1] != null){
						Source = arr_pa[1];
					}
				}

				if(arr_pa[0] == "utm_medium"){
					if(arr_pa[1] != null){
						Medium = arr_pa[1];
					}
				}

				if(arr_pa[0] == "utm_term"){
					if(arr_pa[1] != null){
						Term = arr_pa[1];
					}
				}

				if(arr_pa[0] == "utm_content"){
					if(arr_pa[1] != null){
						Ucontent = arr_pa[1];
					}
				}

				if(arr_pa[0] == "utm_campaign"){
					if(arr_pa[1] != null){
						Campaign = arr_pa[1];
					}
				}
			}
			var Page = url;
		}else{
			var Source = "";
			var Medium = "pc";
			var Term = "";
			var Ucontent = "";
			var Campaign = "";
			var Page = url;
		}

		$.ajax({
			type:'get',
			async:false,
			url:'https://class.01teacher.com/api/member_external',
			data:{utm_demand:'',
				utm_source:Source,
				utm_campaign:Campaign,
				utm_term:Term,
				utm_content:Ucontent,
				utm_medium:Medium,
				realname:$('#do-name-'+number).val(),
				telephone:$('#do-tel-'+number).val(),
				address:$('#do-area-'+number).val(),
				member_age:$('#do-object-'+number).val(),
				member_remark:"官网 方便联系时间："+$('#do-contact-'+number).val(),
				member_channel_id:7,
				Page:Page},
			dataType:'jsonp',
			jsonp:'callback',
			success:function(data){
				if(number == 1){
					//call_wetec_event(142437033466, {}, 0);
				}

				if(number == 2){
					//call_wetec_event(79827338838, {}, 0);
				}
				
				is_click = 0;
				if(data.msg == 0){
					alert("提交成功");
				}else{
					alert(data.msg);
				}
			}
		});
	 }

	 function cli_tutor(){
		//call_wetec_event(28174359132, {}, 0);
		setTimeout(function(){
			window.location.href = "/tutor";
		},500);
		
	}




        $(function () {
            backendApp.init();
            commonApp.init();
            commonApp.dxjs();
            $('.j_qq_trigger').click(function (e) {
                e.preventDefault();
                $('#QQService')[0].click();
            });
            $('.j_shangqiao_trigger').click(function (e) {
                e.preventDefault();
                $('#qiao-icon-wrap a')[0].click();
            });
        });
    </script>
<script>
        var _hmt = _hmt || [];
        (function () {
            var hm = document.createElement("script");
            hm.src = "//hm.baidu.com/hm.js?323b1fdc376e6c477f179afebfbdb7d4";
            var s = document.getElementsByTagName("script")[0];
            s.parentNode.insertBefore(hm, s);
        })();
</script>
<script src="/Themes/V1/_misc/js/video.js?20170808153211" type="text/javascript"></script>
<script>
        $(function () {
            $('body').running();
            $('#dk-animation').waypoint(function () {
                $("#dk-animation").addClass('dk-animation');
            }, { offset: '70%' });
        })


    </script>
<script>
        (function () {
            var bp = document.createElement('script');
            var curProtocol = window.location.protocol.split(':')[0];
            if (curProtocol === 'https') {
                bp.src = 'https://zz.bdstatic.com/linksubmit/push.js';
            }
            else {
                bp.src = 'http://push.zhanzhang.baidu.com/push.js';
            }
            var s = document.getElementsByTagName("script")[0];
            s.parentNode.insertBefore(bp, s);
        })();
    </script>
<script src="//js.users.51.la/19884141.js" type="text/javascript">
</script>
</body></html>