<!DOCTYPE HTML PUBLIC "-//W3C//DTD HTML 4.01 Transitional//EN" "http://www.w3.org/TR/html4/loose.dtd">
<html>
<head>
<title>Untitled Document</title>
<meta content="text/html; charset=utf-8" http-equiv="Content-Type"/>
<style type="text/css">
<!--
.style1 {
        color: #FF0000;
        font-size: 24px;
}
-->
</style>
</head>
<body>
<span class="style1"> 404 - The page you've requested is not available on this server!
</span>
</body>
</html>
