<!DOCTYPE html>
<!--[if lt IE 7]><html class="no-js lt-ie9 lt-ie8 lt-ie7"> <![endif]--><!--[if IE 7]><html class="no-js lt-ie9 lt-ie8"> <![endif]--><!--[if IE 8]><html class="no-js lt-ie9"> <![endif]--><!--[if gt IE 8]><!--><html class="no-js"> <!--<![endif]-->
<head>
<meta charset="utf-8"/>
<meta content="IE=edge,chrome=1" http-equiv="X-UA-Compatible"/>
<title> REC | Festival Internacional de Cinema de Tarragona</title>
<meta content="" name="description"/>
<meta content="" name="author"/>
<meta content="width=device-width" name="viewport"/>
<link href="https://www.festivalrec.com/xmlrpc.php" rel="pingback"/>
<link href="https://www.festivalrec.com" hreflang="ca" rel="alternate"/>
<link href="https://www.festivalrec.com/es/" hreflang="es" rel="alternate"/>
<link href="https://www.festivalrec.com/en/" hreflang="en" rel="alternate"/>
<link href="//s.w.org" rel="dns-prefetch"/>
<!-- This site uses the Google Analytics by MonsterInsights plugin v7.13.0 - Using Analytics tracking - https://www.monsterinsights.com/ -->
<script class="ginger-script" data-cfasync="false" type="text/plain">
    (window.gaDevIds=window.gaDevIds||[]).push("dZGIzZG");
	var mi_version         = '7.13.0';
	var mi_track_user      = true;
	var mi_no_track_reason = '';
	
	var disableStr = 'ga-disable-UA-62891046-1';

	/* Function to detect opted out users */
	function __gaTrackerIsOptedOut() {
		return document.cookie.indexOf(disableStr + '=true') > -1;
	}

	/* Disable tracking if the opt-out cookie exists. */
	if ( __gaTrackerIsOptedOut() ) {
		window[disableStr] = true;
	}

	/* Opt-out function */
	function __gaTrackerOptout() {
	  document.cookie = disableStr + '=true; expires=Thu, 31 Dec 2099 23:59:59 UTC; path=/';
	  window[disableStr] = true;
	}

	if ( 'undefined' === typeof gaOptout ) {
		function gaOptout() {
			__gaTrackerOptout();
		}
	}
	
	if ( mi_track_user ) {
		(function(i,s,o,g,r,a,m){i['GoogleAnalyticsObject']=r;i[r]=i[r]||function(){
			(i[r].q=i[r].q||[]).push(arguments)},i[r].l=1*new Date();a=s.createElement(o),
			m=s.getElementsByTagName(o)[0];a.async=1;a.src=g;m.parentNode.insertBefore(a,m)
		})(window,document,'script','//www.google-analytics.com/analytics.js','__gaTracker');

		__gaTracker('create', 'UA-62891046-1', 'auto');
		__gaTracker('set', 'forceSSL', true);
		__gaTracker('require', 'displayfeatures');
		__gaTracker('send','pageview');
	} else {
		console.log( "" );
		(function() {
			/* https://developers.google.com/analytics/devguides/collection/analyticsjs/ */
			var noopfn = function() {
				return null;
			};
			var noopnullfn = function() {
				return null;
			};
			var Tracker = function() {
				return null;
			};
			var p = Tracker.prototype;
			p.get = noopfn;
			p.set = noopfn;
			p.send = noopfn;
			var __gaTracker = function() {
				var len = arguments.length;
				if ( len === 0 ) {
					return;
				}
				var f = arguments[len-1];
				if ( typeof f !== 'object' || f === null || typeof f.hitCallback !== 'function' ) {
					console.log( 'Not running function __gaTracker(' + arguments[0] + " ....) because you are not being tracked. " + mi_no_track_reason );
					return;
				}
				try {
					f.hitCallback();
				} catch (ex) {

				}
			};
			__gaTracker.create = function() {
				return new Tracker();
			};
			__gaTracker.getByName = noopnullfn;
			__gaTracker.getAll = function() {
				return [];
			};
			__gaTracker.remove = noopfn;
			window['__gaTracker'] = __gaTracker;
					})();
		}
</script>
<!-- / Google Analytics by MonsterInsights -->
<script type="text/javascript">
			window._wpemojiSettings = {"baseUrl":"https:\/\/s.w.org\/images\/core\/emoji\/13.0.1\/72x72\/","ext":".png","svgUrl":"https:\/\/s.w.org\/images\/core\/emoji\/13.0.1\/svg\/","svgExt":".svg","source":{"concatemoji":"https:\/\/www.festivalrec.com\/wp-includes\/js\/wp-emoji-release.min.js?ver=5.6"}};
			!function(e,a,t){var r,n,o,i,p=a.createElement("canvas"),s=p.getContext&&p.getContext("2d");function c(e,t){var a=String.fromCharCode;s.clearRect(0,0,p.width,p.height),s.fillText(a.apply(this,e),0,0);var r=p.toDataURL();return s.clearRect(0,0,p.width,p.height),s.fillText(a.apply(this,t),0,0),r===p.toDataURL()}function l(e){if(!s||!s.fillText)return!1;switch(s.textBaseline="top",s.font="600 32px Arial",e){case"flag":return!c([127987,65039,8205,9895,65039],[127987,65039,8203,9895,65039])&&(!c([55356,56826,55356,56819],[55356,56826,8203,55356,56819])&&!c([55356,57332,56128,56423,56128,56418,56128,56421,56128,56430,56128,56423,56128,56447],[55356,57332,8203,56128,56423,8203,56128,56418,8203,56128,56421,8203,56128,56430,8203,56128,56423,8203,56128,56447]));case"emoji":return!c([55357,56424,8205,55356,57212],[55357,56424,8203,55356,57212])}return!1}function d(e){var t=a.createElement("script");t.src=e,t.defer=t.type="text/javascript",a.getElementsByTagName("head")[0].appendChild(t)}for(i=Array("flag","emoji"),t.supports={everything:!0,everythingExceptFlag:!0},o=0;o<i.length;o++)t.supports[i[o]]=l(i[o]),t.supports.everything=t.supports.everything&&t.supports[i[o]],"flag"!==i[o]&&(t.supports.everythingExceptFlag=t.supports.everythingExceptFlag&&t.supports[i[o]]);t.supports.everythingExceptFlag=t.supports.everythingExceptFlag&&!t.supports.flag,t.DOMReady=!1,t.readyCallback=function(){t.DOMReady=!0},t.supports.everything||(n=function(){t.readyCallback()},a.addEventListener?(a.addEventListener("DOMContentLoaded",n,!1),e.addEventListener("load",n,!1)):(e.attachEvent("onload",n),a.attachEvent("onreadystatechange",function(){"complete"===a.readyState&&t.readyCallback()})),(r=t.source||{}).concatemoji?d(r.concatemoji):r.wpemoji&&r.twemoji&&(d(r.twemoji),d(r.wpemoji)))}(window,document,window._wpemojiSettings);
		</script>
<style type="text/css">
img.wp-smiley,
img.emoji {
	display: inline !important;
	border: none !important;
	box-shadow: none !important;
	height: 1em !important;
	width: 1em !important;
	margin: 0 .07em !important;
	vertical-align: -0.1em !important;
	background: none !important;
	padding: 0 !important;
}
</style>
<link href="https://www.festivalrec.com/wp-includes/css/dist/block-library/style.min.css?ver=5.6" id="wp-block-library-css" media="all" rel="stylesheet" type="text/css"/>
<link href="https://www.festivalrec.com/wp-content/plugins/ginger/front/css/cookies-enabler.css?ver=5.6" id="ginger-style-css" media="all" rel="stylesheet" type="text/css"/>
<link href="//www.festivalrec.com/wp-content/plugins/sitepress-multilingual-cms/templates/language-switchers/legacy-list-horizontal/style.css?ver=1" id="wpml-legacy-horizontal-list-0-css" media="all" rel="stylesheet" type="text/css"/>
<link href="https://www.festivalrec.com/wp-content/plugins/google-analytics-for-wordpress/assets/css/frontend.min.css?ver=7.13.0" id="monsterinsights-popular-posts-style-css" media="all" rel="stylesheet" type="text/css"/>
<link href="https://www.festivalrec.com/wp-content/themes/rec3/css/bootstrap.min.css?ver=5.6" id="bootstrap-css" media="all" rel="stylesheet" type="text/css"/>
<link href="https://www.festivalrec.com/wp-content/themes/rec3/style.css?ver=5.6" id="core-css" media="all" rel="stylesheet" type="text/css"/>
<script id="jquery-core-js" src="https://www.festivalrec.com/wp-includes/js/jquery/jquery.min.js?ver=3.5.1" type="text/javascript"></script>
<script id="jquery-migrate-js" src="https://www.festivalrec.com/wp-includes/js/jquery/jquery-migrate.min.js?ver=3.3.2" type="text/javascript"></script>
<script id="monsterinsights-frontend-script-js-extra" type="text/javascript">
/* <![CDATA[ */
var monsterinsights_frontend = {"js_events_tracking":"true","download_extensions":"doc,pdf,ppt,zip,xls,docx,pptx,xlsx","inbound_paths":"[]","home_url":"https:\/\/www.festivalrec.com","hash_tracking":"false"};
/* ]]> */
</script>
<script id="monsterinsights-frontend-script-js" src="https://www.festivalrec.com/wp-content/plugins/google-analytics-for-wordpress/assets/js/frontend.min.js?ver=7.13.0" type="text/javascript"></script>
<script id="ginger-analytics_script-js" src="https://www.festivalrec.com/wp-content/plugins/ginger/addon/analytics/gingeranalytics.min.js?ver=5.6" type="text/javascript"></script>
<script id="ginger-cookies-enabler-js" src="https://www.festivalrec.com/wp-content/plugins/ginger/front/js/cookies-enabler.min.js?ver=5.6" type="text/javascript"></script>
<script id="bootstrap-js" src="https://www.festivalrec.com/wp-content/themes/rec3/js/bootstrap.bundle.min.js?ver=5.6" type="text/javascript"></script>
<link href="https://www.festivalrec.com/wp-json/" rel="https://api.w.org/"/><link href="https://www.festivalrec.com/wp-json/wp/v2/pages/3708" rel="alternate" type="application/json"/><link href="https://www.festivalrec.com/xmlrpc.php?rsd" rel="EditURI" title="RSD" type="application/rsd+xml"/>
<link href="https://www.festivalrec.com/wp-includes/wlwmanifest.xml" rel="wlwmanifest" type="application/wlwmanifest+xml"/>
<meta content="WordPress 5.6" name="generator"/>
<link href="https://www.festivalrec.com/es/" rel="canonical"/>
<link href="https://www.festivalrec.com/" rel="shortlink"/>
<link href="https://www.festivalrec.com/wp-json/oembed/1.0/embed?url=https%3A%2F%2Fwww.festivalrec.com%2F" rel="alternate" type="application/json+oembed"/>
<link href="https://www.festivalrec.com/wp-json/oembed/1.0/embed?url=https%3A%2F%2Fwww.festivalrec.com%2F&amp;format=xml" rel="alternate" type="text/xml+oembed"/>
<meta content="WPML ver:4.4.3 stt:8,1,2;" name="generator"/>
<script type="text/javascript">
        var ginger_logger = "Y";
        var ginger_logger_url = "https://www.festivalrec.com";
        var current_url = "https://www.festivalrec.com/";

        function gingerAjaxLogTime(status) {
            var xmlHttp = new XMLHttpRequest();
            var parameters = "ginger_action=time";
            var url= ginger_logger_url + "?" + parameters;
            xmlHttp.open("GET", url, true);

            //Black magic paragraph
            xmlHttp.setRequestHeader("Content-type", "application/x-www-form-urlencoded");

            xmlHttp.onreadystatechange = function() {
                if(xmlHttp.readyState == 4 && xmlHttp.status == 200) {
                    var time = xmlHttp.responseText;
                    gingerAjaxLogger(time, status);
                }
            }

            xmlHttp.send(parameters);
        }

        function gingerAjaxLogger(ginger_logtime, status) {
            console.log(ginger_logtime);
            var xmlHttp = new XMLHttpRequest();
            var parameters = "ginger_action=log&time=" + ginger_logtime + "&url=" + current_url + "&status=" + status;
            var url= ginger_logger_url + "?" + parameters;
            //console.log(url);
            xmlHttp.open("GET", url, true);

            //Black magic paragraph
            xmlHttp.setRequestHeader("Content-type", "application/x-www-form-urlencoded");

            xmlHttp.send(parameters);
        }

    </script>
</head>
<body class="home page-template page-template-template-home page-template-template-home-php page page-id-3708">
<div class="container">
<div class="nav-scroller lang-selector-container py-0">
<div class="row">
<div class="col align-self-end">
<div class="wpml-ls-statics-shortcode_actions wpml-ls wpml-ls-legacy-list-horizontal">
<ul><li class="wpml-ls-slot-shortcode_actions wpml-ls-item wpml-ls-item-ca wpml-ls-current-language wpml-ls-first-item wpml-ls-item-legacy-list-horizontal">
<a class="wpml-ls-link" href="https://www.festivalrec.com"><img alt="Català" class="wpml-ls-flag" src="https://www.festivalrec.com/wp-content/plugins/sitepress-multilingual-cms/res/flags/ca.png"/></a>
</li><li class="wpml-ls-slot-shortcode_actions wpml-ls-item wpml-ls-item-es wpml-ls-item-legacy-list-horizontal">
<a class="wpml-ls-link" href="https://www.festivalrec.com/es/"><img alt="Spanish" class="wpml-ls-flag" src="https://www.festivalrec.com/wp-content/plugins/sitepress-multilingual-cms/res/flags/es.png"/></a>
</li><li class="wpml-ls-slot-shortcode_actions wpml-ls-item wpml-ls-item-en wpml-ls-last-item wpml-ls-item-legacy-list-horizontal">
<a class="wpml-ls-link" href="https://www.festivalrec.com/en/"><img alt="English" class="wpml-ls-flag" src="https://www.festivalrec.com/wp-content/plugins/sitepress-multilingual-cms/res/flags/en.png"/></a>
</li></ul>
</div>
</div>
</div>
</div>
<header class="blog-header pb-3 pt-2">
<div class="row justify-content-between align-items-center">
<div class="col-lg-2 col-md-3 col-sm-6 col-12 pt-1 pr-0 logo">
<a class="navbar-brand py-0" href="https://www.festivalrec.com">
<img class="img-fluid" src="https://www.festivalrec.com/wp-content/uploads/2020/11/reclogo_adapt20.jpg"/>
</a>
</div>
<div class="col-lg-8 col-md-9 col-sm-6 col-12 justify-content-start align-items-center head pt-3">
<!--<a class="text-muted" href="#" aria-label="Search">
			<svg xmlns="http://www.w3.org/2000/svg" width="20" height="20" fill="none" stroke="currentColor" stroke-linecap="round" stroke-linejoin="round" stroke-width="2" class="mx-3" role="img" viewBox="0 0 24 24" focusable="false"><title>Search</title><circle cx="10.5" cy="10.5" r="7.5"></circle><path d="M21 21l-5.2-5.2"></path></svg>
		</a>-->
<p class="mb-2">XX Edició: del 2 al 8 de desembre de 2020</p>
<p class="mb-2">Edició Física: Teatre Tarragona // Edició online a Filmin del 26/11 al 16/12</p>
<p class="mb-2">Projeccions prèvies al CaixaForum Tarragona del 3/11 al 24/11</p>
</div>
<div class="col-lg-2 col-md-12 col-sm-12 col-12 pl-0 social">
<ul class="mb-0"><li><a href="https://www.flickr.com/photos/festivalrec" target="_blank"><img alt="Flickr" src="https://www.festivalrec.com/wp-content/uploads/2012/09/fl.png"/></a></li><li><a href="https://www.facebook.com/festivalrectgn" target="_blank"><img alt="Facebook" src="https://www.festivalrec.com/wp-content/uploads/2012/09/fb.png"/></a></li><li><a href="https://vimeo.com/festivalrectgn" target="_blank"><img alt="Vimeo" src="https://www.festivalrec.com/wp-content/uploads/2012/09/vi.png"/></a></li><li><a href="https://twitter.com/RECtgn" target="_blank"><img alt="Twitter" src="https://www.festivalrec.com/wp-content/uploads/2012/11/tw1.png"/></a></li><li><a href="https://www.instagram.com/recfestival/" target="_blank"><img alt="Instagram" src="https://www.festivalrec.com/wp-content/uploads/2017/08/instagram_318-136131.jpg"/></a></li></ul> </div>
</div> </header>
<div class="nav-scroller py-1 mb-3">
<nav class="navbar navbar-expand-md py-0"><!-- navbar-dark fixed-top bg-dark -->
<!--<a class="navbar-brand" href="#">-->
<!--</a>-->
<div class="row">
<div class="col-md-9">
<button aria-controls="bs-navbar-collapse" aria-expanded="false" aria-label="Toggle navigation" class="navbar-toggler" data-hover="dropdown" data-target="#bs-navbar-collapse" data-toggle="collapse" type="button">
<span class="navbar-toggler-icon"></span> Menu    	</button>
<div class="collapse navbar-collapse" id="bs-navbar-collapse"><ul class="navbar-nav mr-auto" id="menu-menu"><li class="menu-item menu-item-type-custom menu-item-object-custom menu-item-has-children dropdown menu-item-2858 nav-item" id="menu-item-2858" itemscope="itemscope" itemtype="https://www.schema.org/SiteNavigationElement"><a aria-expanded="false" aria-haspopup="true" class="dropdown-toggle nav-link" data-toggle="dropdown" href="#" id="menu-item-dropdown-2858" title="Informació">Informació</a>
<ul aria-labelledby="menu-item-dropdown-2858" class="dropdown-menu" role="menu">
<li class="menu-item menu-item-type-post_type menu-item-object-page menu-item-9516 nav-item" id="menu-item-9516" itemscope="itemscope" itemtype="https://www.schema.org/SiteNavigationElement"><a class="dropdown-item" href="https://www.festivalrec.com/qui-som/" title="Qui som">Qui som</a></li>
<li class="menu-item menu-item-type-post_type menu-item-object-page menu-item-2856 nav-item" id="menu-item-2856" itemscope="itemscope" itemtype="https://www.schema.org/SiteNavigationElement"><a class="dropdown-item" href="https://www.festivalrec.com/com-arribar/" title="Com arribar">Com arribar</a></li>
<li class="menu-item menu-item-type-post_type menu-item-object-page menu-item-2855 nav-item" id="menu-item-2855" itemscope="itemscope" itemtype="https://www.schema.org/SiteNavigationElement"><a class="dropdown-item" href="https://www.festivalrec.com/allotjament/" title="Allotjament">Allotjament</a></li>
<li class="menu-item menu-item-type-post_type menu-item-object-page menu-item-2857 nav-item" id="menu-item-2857" itemscope="itemscope" itemtype="https://www.schema.org/SiteNavigationElement"><a class="dropdown-item" href="https://www.festivalrec.com/espais/" title="Espais">Espais</a></li>
</ul>
</li>
<li class="menu-item menu-item-type-custom menu-item-object-custom menu-item-has-children dropdown menu-item-9170 nav-item" id="menu-item-9170" itemscope="itemscope" itemtype="https://www.schema.org/SiteNavigationElement"><a aria-expanded="false" aria-haspopup="true" class="dropdown-toggle nav-link" data-toggle="dropdown" href="#" id="menu-item-dropdown-9170" title="Seccions">Seccions</a>
<ul aria-labelledby="menu-item-dropdown-9170" class="dropdown-menu" role="menu">
<li class="menu-item menu-item-type-post_type menu-item-object-page menu-item-5993 nav-item" id="menu-item-5993" itemscope="itemscope" itemtype="https://www.schema.org/SiteNavigationElement"><a class="dropdown-item" href="https://www.festivalrec.com/seccions/opera-prima/" title="Opera prima">Opera prima</a></li>
<li class="menu-item menu-item-type-post_type menu-item-object-page menu-item-8504 nav-item" id="menu-item-8504" itemscope="itemscope" itemtype="https://www.schema.org/SiteNavigationElement"><a class="dropdown-item" href="https://www.festivalrec.com/seccions/focus-in/" title="Close Encounters">Close Encounters</a></li>
<li class="menu-item menu-item-type-post_type menu-item-object-page menu-item-6130 nav-item" id="menu-item-6130" itemscope="itemscope" itemtype="https://www.schema.org/SiteNavigationElement"><a class="dropdown-item" href="https://www.festivalrec.com/seccions/inauguracion/" title="Inauguració">Inauguració</a></li>
<li class="menu-item menu-item-type-post_type menu-item-object-page menu-item-10027 nav-item" id="menu-item-10027" itemscope="itemscope" itemtype="https://www.schema.org/SiteNavigationElement"><a class="dropdown-item" href="https://www.festivalrec.com/projeccions-especials/" title="Projeccions especials">Projeccions especials</a></li>
<li class="menu-item menu-item-type-post_type menu-item-object-page menu-item-5992 nav-item" id="menu-item-5992" itemscope="itemscope" itemtype="https://www.schema.org/SiteNavigationElement"><a class="dropdown-item" href="https://www.festivalrec.com/sessions-vermut/" title="Sessions Vermut">Sessions Vermut</a></li>
<li class="menu-item menu-item-type-post_type menu-item-object-page menu-item-5995 nav-item" id="menu-item-5995" itemscope="itemscope" itemtype="https://www.schema.org/SiteNavigationElement"><a class="dropdown-item" href="https://www.festivalrec.com/minirec/" title="MiniREC">MiniREC</a></li>
<li class="menu-item menu-item-type-post_type menu-item-object-page menu-item-6545 nav-item" id="menu-item-6545" itemscope="itemscope" itemtype="https://www.schema.org/SiteNavigationElement"><a class="dropdown-item" href="https://www.festivalrec.com/seccions/primertest/" title="Primer Test">Primer Test</a></li>
<li class="menu-item menu-item-type-post_type menu-item-object-page menu-item-6137 nav-item" id="menu-item-6137" itemscope="itemscope" itemtype="https://www.schema.org/SiteNavigationElement"><a class="dropdown-item" href="https://www.festivalrec.com/seccions/autors-de-tarragona/" title="Autors de Tarragona">Autors de Tarragona</a></li>
<li class="menu-item menu-item-type-post_type menu-item-object-page menu-item-6392 nav-item" id="menu-item-6392" itemscope="itemscope" itemtype="https://www.schema.org/SiteNavigationElement"><a class="dropdown-item" href="https://www.festivalrec.com/miram-el-rec-va-a-la-universitat/" title="Mira’m // El REC va a la universitat">Mira’m // El REC va a la universitat</a></li>
</ul>
</li>
<li class="menu-item menu-item-type-post_type menu-item-object-page menu-item-10584 nav-item" id="menu-item-10584" itemscope="itemscope" itemtype="https://www.schema.org/SiteNavigationElement"><a class="nav-link" href="https://www.festivalrec.com/palmares/" title="Palmarès REC 2020">Palmarès REC 2020</a></li>
<li class="menu-item menu-item-type-custom menu-item-object-custom menu-item-has-children dropdown menu-item-9997 nav-item" id="menu-item-9997" itemscope="itemscope" itemtype="https://www.schema.org/SiteNavigationElement"><a aria-expanded="false" aria-haspopup="true" class="dropdown-toggle nav-link" data-toggle="dropdown" href="#" id="menu-item-dropdown-9997" title="Pel·lícules">Pel·lícules</a>
<ul aria-labelledby="menu-item-dropdown-9997" class="dropdown-menu" role="menu">
<li class="menu-item menu-item-type-post_type menu-item-object-page menu-item-9996 nav-item" id="menu-item-9996" itemscope="itemscope" itemtype="https://www.schema.org/SiteNavigationElement"><a class="dropdown-item" href="https://www.festivalrec.com/josep/" title="Josep">Josep</a></li>
<li class="menu-item menu-item-type-post_type menu-item-object-page menu-item-9998 nav-item" id="menu-item-9998" itemscope="itemscope" itemtype="https://www.schema.org/SiteNavigationElement"><a class="dropdown-item" href="https://www.festivalrec.com/afterlife/" title="Afterlife">Afterlife</a></li>
<li class="menu-item menu-item-type-post_type menu-item-object-page menu-item-9999 nav-item" id="menu-item-9999" itemscope="itemscope" itemtype="https://www.schema.org/SiteNavigationElement"><a class="dropdown-item" href="https://www.festivalrec.com/buio/" title="Buio">Buio</a></li>
<li class="menu-item menu-item-type-post_type menu-item-object-page menu-item-10000 nav-item" id="menu-item-10000" itemscope="itemscope" itemtype="https://www.schema.org/SiteNavigationElement"><a class="dropdown-item" href="https://www.festivalrec.com/yung/" title="Yung">Yung</a></li>
<li class="menu-item menu-item-type-post_type menu-item-object-page menu-item-10001 nav-item" id="menu-item-10001" itemscope="itemscope" itemtype="https://www.schema.org/SiteNavigationElement"><a class="dropdown-item" href="https://www.festivalrec.com/chico-ventana-tambien-quisiera-tener-un-submarino/" title="Chico ventana también quisiera tener un submarino">Chico ventana también quisiera tener un submarino</a></li>
<li class="menu-item menu-item-type-post_type menu-item-object-page menu-item-10002 nav-item" id="menu-item-10002" itemscope="itemscope" itemtype="https://www.schema.org/SiteNavigationElement"><a class="dropdown-item" href="https://www.festivalrec.com/les-dues-nits-dahir/" title="Les Dues Nits d’Ahir">Les Dues Nits d’Ahir</a></li>
<li class="menu-item menu-item-type-post_type menu-item-object-page menu-item-10003 nav-item" id="menu-item-10003" itemscope="itemscope" itemtype="https://www.schema.org/SiteNavigationElement"><a class="dropdown-item" href="https://www.festivalrec.com/mogul-mowgli/" title="Mogul Mowgli">Mogul Mowgli</a></li>
<li class="menu-item menu-item-type-post_type menu-item-object-page menu-item-10004 nav-item" id="menu-item-10004" itemscope="itemscope" itemtype="https://www.schema.org/SiteNavigationElement"><a class="dropdown-item" href="https://www.festivalrec.com/las-ninas/" title="Las niñas">Las niñas</a></li>
<li class="menu-item menu-item-type-post_type menu-item-object-page menu-item-10005 nav-item" id="menu-item-10005" itemscope="itemscope" itemtype="https://www.schema.org/SiteNavigationElement"><a class="dropdown-item" href="https://www.festivalrec.com/irma/" title="Irmã">Irmã</a></li>
<li class="menu-item menu-item-type-post_type menu-item-object-page menu-item-10006 nav-item" id="menu-item-10006" itemscope="itemscope" itemtype="https://www.schema.org/SiteNavigationElement"><a class="dropdown-item" href="https://www.festivalrec.com/slalom/" title="Slalom">Slalom</a></li>
<li class="menu-item menu-item-type-post_type menu-item-object-page menu-item-10007 nav-item" id="menu-item-10007" itemscope="itemscope" itemtype="https://www.schema.org/SiteNavigationElement"><a class="dropdown-item" href="https://www.festivalrec.com/mes-jours-de-gloire/" title="Mes Jours de Gloire">Mes Jours de Gloire</a></li>
<li class="menu-item menu-item-type-post_type menu-item-object-page menu-item-10008 nav-item" id="menu-item-10008" itemscope="itemscope" itemtype="https://www.schema.org/SiteNavigationElement"><a class="dropdown-item" href="https://www.festivalrec.com/el-arte-de-volver/" title="El arte de volver">El arte de volver</a></li>
<li class="menu-item menu-item-type-post_type menu-item-object-page menu-item-10009 nav-item" id="menu-item-10009" itemscope="itemscope" itemtype="https://www.schema.org/SiteNavigationElement"><a class="dropdown-item" href="https://www.festivalrec.com/in-between-dying/" title="In Between Dying">In Between Dying</a></li>
<li class="menu-item menu-item-type-post_type menu-item-object-page menu-item-10012 nav-item" id="menu-item-10012" itemscope="itemscope" itemtype="https://www.schema.org/SiteNavigationElement"><a class="dropdown-item" href="https://www.festivalrec.com/lua-vermella/" title="Lúa vermella">Lúa vermella</a></li>
<li class="menu-item menu-item-type-post_type menu-item-object-page menu-item-10013 nav-item" id="menu-item-10013" itemscope="itemscope" itemtype="https://www.schema.org/SiteNavigationElement"><a class="dropdown-item" href="https://www.festivalrec.com/gagarine/" title="Gagarine">Gagarine</a></li>
<li class="menu-item menu-item-type-post_type menu-item-object-page menu-item-10015 nav-item" id="menu-item-10015" itemscope="itemscope" itemtype="https://www.schema.org/SiteNavigationElement"><a class="dropdown-item" href="https://www.festivalrec.com/strike/" title="Strike">Strike</a></li>
<li class="menu-item menu-item-type-post_type menu-item-object-page menu-item-10016 nav-item" id="menu-item-10016" itemscope="itemscope" itemtype="https://www.schema.org/SiteNavigationElement"><a class="dropdown-item" href="https://www.festivalrec.com/the-best-is-yet-to-come/" title="The Best Is Yet to Come">The Best Is Yet to Come</a></li>
<li class="menu-item menu-item-type-post_type menu-item-object-page menu-item-10017 nav-item" id="menu-item-10017" itemscope="itemscope" itemtype="https://www.schema.org/SiteNavigationElement"><a class="dropdown-item" href="https://www.festivalrec.com/el-alma-quiere-volar/" title="El alma quiere volar">El alma quiere volar</a></li>
<li class="menu-item menu-item-type-post_type menu-item-object-page menu-item-10018 nav-item" id="menu-item-10018" itemscope="itemscope" itemtype="https://www.schema.org/SiteNavigationElement"><a class="dropdown-item" href="https://www.festivalrec.com/apples/" title="Apples">Apples</a></li>
<li class="menu-item menu-item-type-post_type menu-item-object-page menu-item-10021 nav-item" id="menu-item-10021" itemscope="itemscope" itemtype="https://www.schema.org/SiteNavigationElement"><a class="dropdown-item" href="https://www.festivalrec.com/ma-famille-et-le-loup/" title="Ma famille et le loup">Ma famille et le loup</a></li>
<li class="menu-item menu-item-type-post_type menu-item-object-page menu-item-10025 nav-item" id="menu-item-10025" itemscope="itemscope" itemtype="https://www.schema.org/SiteNavigationElement"><a class="dropdown-item" href="https://www.festivalrec.com/best-summer-ever/" title="Best summer ever">Best summer ever</a></li>
<li class="menu-item menu-item-type-post_type menu-item-object-page menu-item-10026 nav-item" id="menu-item-10026" itemscope="itemscope" itemtype="https://www.schema.org/SiteNavigationElement"><a class="dropdown-item" href="https://www.festivalrec.com/beginning/" title="Beginning">Beginning</a></li>
</ul>
</li>
<li class="menu-item menu-item-type-post_type menu-item-object-page menu-item-8792 nav-item" id="menu-item-8792" itemscope="itemscope" itemtype="https://www.schema.org/SiteNavigationElement"><a class="nav-link" href="https://www.festivalrec.com/graella/" title="Graella">Graella</a></li>
<li class="menu-item menu-item-type-post_type menu-item-object-page menu-item-2987 nav-item" id="menu-item-2987" itemscope="itemscope" itemtype="https://www.schema.org/SiteNavigationElement"><a class="nav-link" href="https://www.festivalrec.com/sponsors/" title="Sponsors">Sponsors</a></li>
<li class="menu-item menu-item-type-post_type menu-item-object-page menu-item-4264 nav-item" id="menu-item-4264" itemscope="itemscope" itemtype="https://www.schema.org/SiteNavigationElement"><a class="nav-link" href="https://www.festivalrec.com/noticias/" title="Notícies">Notícies</a></li>
<li class="menu-item menu-item-type-custom menu-item-object-custom menu-item-has-children dropdown menu-item-2729 nav-item" id="menu-item-2729" itemscope="itemscope" itemtype="https://www.schema.org/SiteNavigationElement"><a aria-expanded="false" aria-haspopup="true" class="dropdown-toggle nav-link" data-toggle="dropdown" href="#" id="menu-item-dropdown-2729" title="Edicions">Edicions</a>
<ul aria-labelledby="menu-item-dropdown-2729" class="dropdown-menu" role="menu">
<li class="menu-item menu-item-type-custom menu-item-object-custom menu-item-9014 nav-item" id="menu-item-9014" itemscope="itemscope" itemtype="https://www.schema.org/SiteNavigationElement"><a class="dropdown-item" href="http://rec19.festivalrec.com" title="REC 2019">REC 2019</a></li>
<li class="menu-item menu-item-type-custom menu-item-object-custom menu-item-8311 nav-item" id="menu-item-8311" itemscope="itemscope" itemtype="https://www.schema.org/SiteNavigationElement"><a class="dropdown-item" href="http://rec18.festivalrec.com/" title="REC 2018">REC 2018</a></li>
<li class="menu-item menu-item-type-custom menu-item-object-custom menu-item-6568 nav-item" id="menu-item-6568" itemscope="itemscope" itemtype="https://www.schema.org/SiteNavigationElement"><a class="dropdown-item" href="http://rec17.festivalrec.com/" title="REC 2017">REC 2017</a></li>
<li class="menu-item menu-item-type-custom menu-item-object-custom menu-item-4238 nav-item" id="menu-item-4238" itemscope="itemscope" itemtype="https://www.schema.org/SiteNavigationElement"><a class="dropdown-item" href="http://rec16.festivalrec.com" title="REC 2016">REC 2016</a></li>
<li class="menu-item menu-item-type-custom menu-item-object-custom menu-item-4237 nav-item" id="menu-item-4237" itemscope="itemscope" itemtype="https://www.schema.org/SiteNavigationElement"><a class="dropdown-item" href="http://rec15.festivalrec.com" title="REC 2015">REC 2015</a></li>
<li class="menu-item menu-item-type-custom menu-item-object-custom menu-item-2740 nav-item" id="menu-item-2740" itemscope="itemscope" itemtype="https://www.schema.org/SiteNavigationElement"><a class="dropdown-item" href="http://rec14.festivalrec.com" title="REC 2014">REC 2014</a></li>
<li class="menu-item menu-item-type-custom menu-item-object-custom menu-item-2739 nav-item" id="menu-item-2739" itemscope="itemscope" itemtype="https://www.schema.org/SiteNavigationElement"><a class="dropdown-item" href="http://rec13.festivalrec.com/" title="REC 2013">REC 2013</a></li>
<li class="menu-item menu-item-type-custom menu-item-object-custom menu-item-2738 nav-item" id="menu-item-2738" itemscope="itemscope" itemtype="https://www.schema.org/SiteNavigationElement"><a class="dropdown-item" href="http://rec12.festivalrec.com/" title="REC 2012">REC 2012</a></li>
<li class="menu-item menu-item-type-custom menu-item-object-custom menu-item-2737 nav-item" id="menu-item-2737" itemscope="itemscope" itemtype="https://www.schema.org/SiteNavigationElement"><a class="dropdown-item" href="http://rec11.festivalrec.com/" title="REC 2011">REC 2011</a></li>
<li class="menu-item menu-item-type-custom menu-item-object-custom menu-item-2736 nav-item" id="menu-item-2736" itemscope="itemscope" itemtype="https://www.schema.org/SiteNavigationElement"><a class="dropdown-item" href="http://www.festivalrec.com/rec10/inter_rec10.html" title="REC 2010">REC 2010</a></li>
<li class="menu-item menu-item-type-custom menu-item-object-custom menu-item-2735 nav-item" id="menu-item-2735" itemscope="itemscope" itemtype="https://www.schema.org/SiteNavigationElement"><a class="dropdown-item" href="http://www.festivalrec.com/rec09/cast/inter_rec09.html" title="REC 2009">REC 2009</a></li>
<li class="menu-item menu-item-type-custom menu-item-object-custom menu-item-2734 nav-item" id="menu-item-2734" itemscope="itemscope" itemtype="https://www.schema.org/SiteNavigationElement"><a class="dropdown-item" href="http://www.festivalrec.com/rec08/cat/inter_rec08.html" title="REC 2008">REC 2008</a></li>
<li class="menu-item menu-item-type-custom menu-item-object-custom menu-item-2733 nav-item" id="menu-item-2733" itemscope="itemscope" itemtype="https://www.schema.org/SiteNavigationElement"><a class="dropdown-item" href="http://www.festivalrec.com/rec07/cat/home_cat.html" title="REC 2007">REC 2007</a></li>
<li class="menu-item menu-item-type-custom menu-item-object-custom menu-item-2732 nav-item" id="menu-item-2732" itemscope="itemscope" itemtype="https://www.schema.org/SiteNavigationElement"><a class="dropdown-item" href="http://www.festivalrec.com/rec06/inter_rec06_cat.html" title="REC 2006">REC 2006</a></li>
<li class="menu-item menu-item-type-custom menu-item-object-custom menu-item-2731 nav-item" id="menu-item-2731" itemscope="itemscope" itemtype="https://www.schema.org/SiteNavigationElement"><a class="dropdown-item" href="http://www.festivalrec.com/rec05/site.html" title="REC 2005">REC 2005</a></li>
<li class="menu-item menu-item-type-custom menu-item-object-custom menu-item-2730 nav-item" id="menu-item-2730" itemscope="itemscope" itemtype="https://www.schema.org/SiteNavigationElement"><a class="dropdown-item" href="http://www.festivalrec.com/rec04/site.html" title="REC 2004">REC 2004</a></li>
</ul>
</li>
<li class="menu-item menu-item-type-custom menu-item-object-custom menu-item-has-children dropdown menu-item-9517 nav-item" id="menu-item-9517" itemscope="itemscope" itemtype="https://www.schema.org/SiteNavigationElement"><a aria-expanded="false" aria-haspopup="true" class="dropdown-toggle nav-link" data-toggle="dropdown" href="#" id="menu-item-dropdown-9517" title="Contacta'ns">Contacta'ns</a>
<ul aria-labelledby="menu-item-dropdown-9517" class="dropdown-menu" role="menu">
<li class="menu-item menu-item-type-post_type menu-item-object-page menu-item-2716 nav-item" id="menu-item-2716" itemscope="itemscope" itemtype="https://www.schema.org/SiteNavigationElement"><a class="dropdown-item" href="https://www.festivalrec.com/contacto/" title="Contacte">Contacte</a></li>
<li class="menu-item menu-item-type-post_type menu-item-object-page menu-item-8244 nav-item" id="menu-item-8244" itemscope="itemscope" itemtype="https://www.schema.org/SiteNavigationElement"><a class="dropdown-item" href="https://www.festivalrec.com/newsletter/" title="Newsletter">Newsletter</a></li>
<li class="menu-item menu-item-type-post_type menu-item-object-page menu-item-10104 nav-item" id="menu-item-10104" itemscope="itemscope" itemtype="https://www.schema.org/SiteNavigationElement"><a class="dropdown-item" href="https://www.festivalrec.com/acreditacions/" title="Acreditacions REC 2020">Acreditacions REC 2020</a></li>
</ul>
</li>
</ul></div>
</div>
<div class="col-md-3">
<form action="https://www.festivalrec.com/" class="searchform" id="searchform" method="get" role="search">
<div class="input-group ">
<input class="form-control px-2" id="s" name="s" placeholder="Cerca..." type="text" value=""/>
</div>
</form> </div>
</div>
</nav>
</div><div class="row">
<div class="col-lg-9 col-md-9 col-sm-12 main">
<div class="row">
<div class="col mx-2">
<div class="embed-responsive embed-responsive-16by9">
<iframe allowfullscreen="" class="ginger-iframe embed-responsive-item" data-ce-src="https://player.vimeo.com/video/489361402?title=0&amp;loop=1&amp;byline=0&amp;portrait=0&amp;badge=0&amp;" frameborder="0" mozallowfullscreen="" webkitallowfullscreen=""></iframe>
</div>
</div>
</div>
<div class="row mt-3">
<div class="col-lg-4 col-md-4 col-12 widget widget-pastilla">
<a class="pastilla" href="https://www.festivalrec.com/seccions/opera-prima/">
<img alt="Opera prima" class="img-fluid" src="https://www.festivalrec.com/wp-content/uploads/2020/10/Opera-Prima.png"/>
</a>
</div>
<div class="col-lg-4 col-md-4 col-12 widget widget-pastilla">
<a class="pastilla" href="https://www.festivalrec.com/sessions-vermut/">
<img alt="Sessions vermut" class="img-fluid" src="https://www.festivalrec.com/wp-content/uploads/2020/10/Rec-Botons-web_Rec-Botons-web-7-e1603207656731.jpg"/>
</a>
</div>
<div class="col-lg-4 col-md-4 col-12 widget widget-pastilla">
<a class="pastilla" href="https://www.festivalrec.com/seccions/focus-in/">
<img alt="Close Encounters" class="img-fluid" src="https://www.festivalrec.com/wp-content/uploads/2020/10/Rec-Botons-web_Rec-Botons-web-3-e1603208007498.jpg"/>
</a>
</div>
<div class="col-lg-4 col-md-4 col-12 widget widget-pastilla">
<a class="pastilla" href="https://www.festivalrec.com/seccions/primertest/">
<img alt="Primer Test" class="img-fluid" src="https://www.festivalrec.com/wp-content/uploads/2020/10/Rec-Botons-web_Rec-Botons-web-4-e1603208037881.jpg"/>
</a>
</div>
<div class="col-lg-4 col-md-4 col-12 widget widget-pastilla">
<a class="pastilla" href="https://www.festivalrec.com/seccions/autors-de-tarragona/">
<img alt="Autors de Tarragona" class="img-fluid" src="https://www.festivalrec.com/wp-content/uploads/2020/10/Rec-Botons-web_Rec-Botons-web-8-e1603208251283.jpg"/>
</a>
</div>
<div class="col-lg-4 col-md-4 col-12 widget widget-pastilla">
<a class="pastilla" href="https://www.festivalrec.com/minirec/">
<img alt="MiniREC" class="img-fluid" src="https://www.festivalrec.com/wp-content/uploads/2020/10/Rec-Botons-web_Rec-Botons-web-9-e1603208171415.jpg"/>
</a>
</div>
</div>
</div>
<div class="col-lg-3 col-md-3 col-sm-12 sidebar">
<!-- fixed widgets -->
<!-- widget1: lateral sections program-->
<div class="widget widget-pdf mb-3">
<a class="pdf" href="https://www.festivalrec.com/wp-content/uploads/2020/12/Rec-Programa-de-m%C3%A0-DIGITAL_compressed_.pdf" target="_blank">
<img alt="Descarrega el programa del REC 2020 en .PDF" class="img-fluid" src="https://www.festivalrec.com/wp-content/uploads/2020/11/Rec-%E2%80%93-Fons-de-pantalla-2-scaled.jpg"/>
<span>Descarrega el programa del REC 2020 en .PDF</span>
</a>
</div>
<!-- widget2: last new with image thumbnail-->
<div class="widget widget-recent-news">
<h3 class="widget-title py-1">Last news</h3>
<ul class="pl-0 mb-0">
<li class="clearfix">
<a class="clearfix" href="https://www.festivalrec.com/2020/12/el-festival-rec-clou-aquesta-setmana-ledicio-del-20-aniversari-amb-mes-de-60-000-espectadors/">
<div class="article-featured"><img class="img-fluid mb-2" src="https://www.festivalrec.com/wp-content/uploads/2020/12/IMG_6288-118x118.jpg"/></div>				El Festival REC clou aquesta setmana l’edició del 20 aniversari amb més de 60.000 espectadors				</a>
</li>
<li class="clearfix">
<a class="clearfix" href="https://www.festivalrec.com/2020/12/el-xx-rec-continua-a-filmin-amb-noves-estrenes-i-grans-titols/">
<div class="article-featured"><img class="img-fluid mb-2" src="https://www.festivalrec.com/wp-content/uploads/2020/12/Captura-de-pantalla-2020-12-14-a-les-18.14.40-copia-118x118.png"/></div>				El XX REC continua a Filmin amb noves estrenes i grans títols				</a>
</li>
<li class="clearfix">
<a class="clearfix" href="https://www.festivalrec.com/2020/12/la-programacio-del-cicle-close-encounters-es-repren-a-caixaforum-tarragona/">
<div class="article-featured"><img class="img-fluid mb-2" src="https://www.festivalrec.com/wp-content/uploads/2020/12/BABYTEETH-118x118.jpg"/></div>				La programació del cicle Close Encounters es reprèn a CaixaForum Tarragona				</a>
</li>
<li class="clearfix">
<a class="clearfix" href="https://www.festivalrec.com/2020/12/el-premi-del-jurat-internacional-del-festival-rec-2020-recau-en-la-pellicula-mogul-mowgli/">
<div class="article-featured"><img class="img-fluid mb-2" src="https://www.festivalrec.com/wp-content/uploads/2020/12/IMG_7497-118x118.jpg"/></div>				El premi del Jurat Internacional del Festival REC 2020 recau en la pel·lícula ‘Mogul Mowgli’				</a>
</li>
<li class="clearfix">
<a class="clearfix" href="https://www.festivalrec.com/2020/12/el-primer-test-2020-lliura-el-premi-eclair-projeccio-internacional-a-destello-bravio-de-ainoha-rodriguez/">
<div class="article-featured"><img class="img-fluid mb-2" src="https://www.festivalrec.com/wp-content/uploads/2020/12/IMG_5681-118x118.jpg"/></div>				El Primer Test 2020 lliura el Premi Eclair Projecció Internacional a ‘Destello Bravío’ de Ainoha Rodríguez				</a>
</li>
</ul>
<div class="mb-3 d-block text-right">
<a class="more-news-link" href="noticias">More news</a>
</div>
</div>
<!-- end widget 2 -->
<div class="widget widget_text" id="text-2"><h3 class="widget-title py-1">Newsletter</h3> <div class="textwidget"><p><a href="http://eepurl.com/bmgJXD" rel="noopener" target="_blank">Omple aquest formulari per subscriure’t / Rellena este formulario para suscribirte</a></p>
</div>
</div><div class="widget_text widget widget_custom_html" id="custom_html-2"><h3 class="widget-title py-1">Segueix-nos al Facebook</h3><div class="textwidget custom-html-widget"><iframe allow="autoplay; clipboard-write; encrypted-media; picture-in-picture; web-share" allowfullscreen="true" class="ginger-iframe " data-ce-src="https://www.facebook.com/plugins/like.php?href=https%3A%2F%2Ffacebook.com%2Ffestivalrectgn&amp;width=159&amp;layout=button_count&amp;action=like&amp;size=large&amp;share=true&amp;height=46&amp;appId" frameborder="0" height="46" scrolling="no" style="border:none;overflow:hidden" width="100%"></iframe></div></div></div></div>
<footer class="container-fluid footer pt-2 mb-5 mt-3">
<div class="row">
<div class="col-lg-6 col-md-6 col-sm-12">
<div class="widget widget_text sidefooter" id="text-5"> <div class="textwidget"><p><a href="http://festivalrec.com/avis-legal" title="Avís legal">Avís legal</a> | <a href="http://festivalrec.com/politica-de-privacitat" title="Privacitat">Política de privacitat</a> | <a href="https://www.festivalrec.com/politica-de-cookies/" title="Cookies">Cookies</a></p>
</div>
</div></div>
<div class="col-lg-6 col-md-6 col-sm-12">
<div class="widget widget_text sidefooter" id="text-6"> <div class="textwidget"><p>Web per <a href="http://www.marbv.com" rel="noopener" target="_blank" title="Mar Borrajo">Mar Borrajo</a> i <a href="http://www.mensula.cat" rel="noopener" target="_blank" title="Mènsula STUDIO">Mènsula STUDIO</a>. Mantinguda i actualitzada per <a href="https://studi7.com">Studi7</a></p>
</div>
</div></div> </div>
<div class="copyright">
			© 2021 REC | Festival Internacional de Cinema de Tarragona	
		</div>
</footer>
<script id="wp-embed-js" src="https://www.festivalrec.com/wp-includes/js/wp-embed.min.js?ver=5.6" type="text/javascript"></script>
<!-- Init the script -->
<script>
        COOKIES_ENABLER.init({
            scriptClass: 'ginger-script',
            iframeClass: 'ginger-iframe',
            acceptClass: 'ginger-accept',
            disableClass: 'ginger-disable',
            dismissClass: 'ginger-dismiss',
            bannerClass: 'ginger_banner-wrapper',
            bannerHTML:
                document.getElementById('ginger-banner-html') !== null ?
                    document.getElementById('ginger-banner-html').innerHTML :
                    '<div class="ginger_banner bottom dark ginger_container ginger_container--open">'
                                                            + '<a href="#" class="ginger_btn ginger-disable ginger_btn_accept_all">'
                    + 'Desactivar Cookie'
                    + '<\/a>'
                                        + '<a href="#" class="ginger_btn ginger-accept ginger_btn_accept_all">'
                    + 'Acceptar Cookie'
                    + '<\/a>'
                    + '<p class="ginger_message">'
                    + 'Aquest lloc utilitza cookies per a que vost&egrave; tingui una millor experi&egrave;ncia d\'usuari. Faci click a l\'enlla&ccedil; per a major informaci&oacute;:  <a href="https://www.festivalrec.com/politica-de-privacitat/">Pol&iacute;tica de privacitat<\/a>'
                    + ''
                                        + '<\/div>',
                        forceEnable: true,
            forceBannerClass: 'ginger-banner bottom dialog force dark ginger_container',
            forceEnableText:
            '<p class="ginger_message">'
            + 'Aquest lloc utilitza cookies per a que vost&egrave; tingui una millor experi&egrave;ncia d\'usuari. Faci click a l\'enlla&ccedil; per a major informaci&oacute;:  <a href="https://www.festivalrec.com/politica-de-privacitat/">Pol&iacute;tica de privacitat<\/a>'
            + ''
            + '<a href="#" class="ginger_btn ginger-accept ginger_btn_accept_all">'
            + 'Acceptar Cookie'
            + '<\/a>',
                                    eventScroll: false,
            scrollOffset: 20,
            clickOutside: false,
            cookieName: 'ginger-cookie',
            forceReload: false,
            iframesPlaceholder: true,
            iframesPlaceholderClass: 'ginger-iframe-placeholder',
            iframesPlaceholderHTML:
                document.getElementById('ginger-iframePlaceholder-html') !== null ?
                    document.getElementById('ginger-iframePlaceholder-html').innerHTML :
                    '<p>Aquesta web utilitza cookies.'
                    + '<a href="#" class="ginger_btn ginger-accept">Acceptar Cookie'
                    + '<\/p>'
        });
    </script>
<!-- End Ginger Script -->
</div> <!-- end container -->
</body>
</html>
