<!DOCTYPE html PUBLIC "-//W3C//DTD XHTML 1.0 Transitional//EN" "http://www.w3.org/TR/xhtml1/DTD/xhtml1-transitional.dtd">
<html>
<head>
<meta content="text/html; charset=utf-8" http-equiv="Content-Type"/>
<title>ä¸­å¤®çºªå§å½å®¶çå§ä¸¾æ¥ç½ç«</title>
<meta content="IE=edge,chrome=1" http-equiv="X-UA-Compatible"/>
<link href="./css/index.css" rel="stylesheet" type="text/css"/>
<link href="./css/public.css" rel="stylesheet" type="text/css"/>
<link href="./css/head.css" rel="stylesheet" type="text/css"/>
<link href="./css/foot.css" rel="stylesheet" type="text/css"/>
<script src="./js/jquery/jquery.js" type="text/javascript"></script>
<script src="./js/jquery/jquery-migrate.min.js" type="text/javascript"></script>
<script src="./js/common.js"></script>
<script src="./js/uaredirect.js"></script>
<script type="text/javascript">uaredirect("/mx/");</script>
<script type="text/javascript">
			$(function(){
				$("#IFrame120").bind("load",function(){
					var $page_main=$(".page_main",this.contentWindow.document);
					function reszieWindow(win,obj){
						var h=obj.height()+5;
						h=h<150? 150:h;
						win.height(h);
					}
					reszieWindow($(this),$page_main);
				}).attr("src","html/jbxz.html");
			});
		</script>
</head>
<body>
<div class="page">
<div class="left head">
<div class="left banner"></div>
<div class="left nav_bg3">
<div class="left nav_bg_L3">
</div>
<div class="left nav_bg_M3">
<div class="left nav_def3" id="index">
<a href="./html/jbxz.html" target="IFrame120">é¦      é¡µ</a>
</div>
<div class="left nav_def3" id="rule">
<a href="./html/law_list.html" target="IFrame120">ç¸å³æ³å¾æ³è§</a>
</div>
<div class="left nav_def3" id="notice">
<a href="./html/jbxz.html" target="IFrame120">ç½ä¸ä¸¾æ¥é¡»ç¥</a>
</div>
<div class="left nav_def3" id="search">
<a href="https://www.12388.gov.cn/index_search.html" target="_parent">ä¸¾ æ¥ æ¥ è¯¢</a>
</div>
<div class="left nav_def3" id="example">
<a href="./html/example_list.html" target="IFrame120">ç¸ å³ æ¡ ä¾</a>
</div>
<div class="left nav_def3" id="example">
<a href="./html/other.html" target="IFrame120">å¶ä»ä¸¾æ¥æ¹å¼</a>
</div>
</div>
<div class="left nav_bg_R3">
</div>
</div>
</div>
<!------iframe--------begin-->
<iframe allowtransparency="true" class="left iframe_style" frameborder="0" id="IFrame120" marginheight="5" marginwidth="0" name="IFrame120" scrolling="NO" style="background-color: #ffffff;">
</iframe>
<!------iframe--------end-->
<div class="left foot_bg">
<div class="left foot_con">
					çæææ © ä¸­å±ä¸­å¤®çºªå¾æ£æ¥å§åä¼ ä¸­åäººæ°å±åå½å½å®¶çå¯å§åä¼
					<br/>
<a href="https://beian.miit.gov.cn" style="color: #ffffff;" target="_blank">äº¬ICPå¤ 18029465-1</a>
</div>
</div>
</div>
</body>
</html>
