<html><head>
<title>Access Denied</title>
</head><body>
<h1>Access Denied</h1>
 
You don't have permission to access "http://www.accuweather.com/canada-city-list.asp?" on this server.<p>
Reference #18.b7da1cb8.1610586555.12345450
</p></body>
</html>
