<!DOCTYPE html PUBLIC "-//W3C//DTD XHTML 1.0 Transitional//EN" "http://www.w3.org/TR/xhtml1/DTD/xhtml1-transitional.dtd">
<html xmlns="http://www.w3.org/1999/xhtml">
<head>
<script type="text/javascript">
	    	function checkStaticAssetLoaded() {
	    		CFTracker && CFTracker.event('error_cdn_not_available');
			var xmlhttp;
			xmlhttp = new XMLHttpRequest();
			xmlhttp.onreadystatechange = function(){
			    if (xmlhttp.readyState == 4 && xmlhttp.status == 200){
				var currentLocation = window.location.href;
				window.location.href = currentLocation;
			    }
			}
			xmlhttp.open("GET", '/ajax_disable_cdn.php', true);
			xmlhttp.send();
	    }

	    window.tidAssetLoaded = setTimeout(checkStaticAssetLoaded, 6000);
	    var img = new Image;
	    img.src = 'https://cdn.123formbuilder.com/images3/cdn_checker.png?min=' + Math.floor( Date.now() / (1000 * 60) );
	    img.onload = function() {
	    	clearTimeout(window.tidAssetLoaded);
	    }
	    </script>
<script type="text/javascript">
                window.CFTracker = false;
                window.CFTracking = {
                                    };
            </script>
<script src="https://cdn.123formbuilder.com/modules/custom-components/js/custom-components.js?v6.4.1" type="text/javascript"></script>
<meta content="noindex,nofollow" name="robots"/>
<title>SUSPENDED FORM</title>
<script src="//cdn.123formbuilder.com/includes/jquery/1.10.2/jquery.min.js"></script><meta content="text/html; charset=utf-8" http-equiv="Content-Type"/>
<meta content="en" name="language"/>
<meta content="IE=Edge" http-equiv="X-UA-Compatible"/>
<meta content="width=device-width, user-scalable=0" name="viewport"/>
<link href="https://forms.123formbuilder.io/form-2443797/SUSPENDED-FORM" rel="canonical"/>
<script src="https://cdn.123formbuilder.com/modules/tracker/js/error_catcher.js?v6.4.1"></script>
<link href="https://cdn.123formbuilder.com/styles/form.css.minified.css?v6.4.1" rel="stylesheet" type="text/css"/>
<link href="https://cdn.123formbuilder.com/styles/normalize.css.minified.css?v6.4.1" rel="stylesheet" type="text/css"/>
<link href="https://cdn.123formbuilder.com/styles/bootstrap.css.minified.css?v6.4.1" rel="stylesheet" type="text/css"/>
<link href="https://cdn.123formbuilder.com/styles/main.min.css.minified.css?v6.4.1" rel="stylesheet" type="text/css"/>
<link href="https://cdn.123formbuilder.com/styles/main.modern.css.minified.css?v6.4.1" rel="stylesheet" type="text/css"/>
<!--[if IE]>
<link href="https://cdn.123formbuilder.com/styles/ie-only.css.minified.css?v6.4.1" rel="stylesheet" type="text/css"  />
<![endif]-->
<link href="https://cdn.123formbuilder.com/styles/printstyle-main.css.minified.css?v6.4.1" media="print" rel="stylesheet" type="text/css"/>
<link href="https://cdn.123formbuilder.com/styles/printstyle-form.css.minified.css?v6.4.1" media="print" rel="stylesheet" type="text/css"/>
<link href="https://cdn.123formbuilder.com/styles/calendar.css.minified.css?v6.4.1" rel="stylesheet" type="text/css"/>
<link href="https://cdn.123formbuilder.com/images3/logos/123-favicon@2x.png" rel="shortcut icon"/>
<script>
		var digital_sign_cids = new Array();
		$(window).load(function(){
			setTimeout(function(){
				for (var i=0; i < digital_sign_cids.length; i++) {
					eval('window.sign'+digital_sign_cids[i]+'= new signature(\'id123-control-'+digital_sign_cids[i]+'\');');
				}}, 500);
		});
	</script>
<script src="https://cdn.123formbuilder.com/includes/tooltip-script.js?v6.4.1" type="text/javascript"></script>
<script type="text/javascript">
            $(document).ready(function() {
                if (typeof(Wix) !== 'undefined') {
                    $('[id^="goNextPage"]').click(function(){
                        Wix.getBoundingRectAndOffsets(function(data){ // DANI - scroll to form header
                            var y = data.offsets.y;
                            var x = data.offsets.x;
                            Wix.scrollTo(x,y);
                        });
                    });
                    $('[id^="id123-pbrev"]').click(function(){
                        Wix.getBoundingRectAndOffsets(function(data){ // DANI - scroll to form header
                            var y = data.offsets.y;
                            var x = data.offsets.x;
                            Wix.scrollTo(x,y);
                        });
                    });

                    Wix.addEventListener(Wix.Events.COMPONENT_DELETED, function(e) {
                        $.ajax({
                            type: 'POST',
                            url: '/ajax_call.php',
                            data: { 'module': 'modules/wixNew/class.WixFunctions.php', 'class': 'wixFunctions', 'function': 'deleteWixInstance',  'iframeInstance': Wix.Utils.getInstanceId(), theToken: '0bd1814d5b51787f536c58174', 'iframeInstanceCompid': Wix.Utils.getCompId(),  'iframeInstanceUserID': Wix.Utils.getUid(),  'iframeInstanceSiteOwnerId': Wix.Utils.getSiteOwnerId() }
                        })
                    });

                    Wix.addEventListener(Wix.Events.EDIT_MODE_CHANGE, function(e) {
                      if(e.editMode == 'preview')
                        $('.warning-wix-box-new-design').hide();
                      else if(e.editMode == 'editor')
                        $('.warning-wix-box-new-design').show();
                  });
                }
            });
            </script>
<script src="https://cdn.123formbuilder.com/api/lang/main/js/languages-en.js?v6.4.1" type="text/javascript"></script>
<script src="https://cdn.123formbuilder.com/includes/jquery/confirm/jquery.confirm.js?v6.4.1" type="text/javascript"></script>
<link href="https://cdn.123formbuilder.com/includes/jquery/confirm/css/jquery.confirm.css.minified.css?v6.4.1" rel="stylesheet" type="text/css"/>
<link href="//fonts.googleapis.com/css?family=Open+Sans:400,300,300italic,600?" rel="stylesheet" type="text/css"/>
<style>

	body {
	    background-color: #ECECEC !important;
	    background-image: inherit /** Property "form_background_image_css" not found in current form theme */ !important;
	    background-size: cover;
	    background-position: center;
	    background-attachment: scroll;
	    background-repeat: no-repeat;
	    color: #4C4C4C !important;
	    font-family: 'Open Sans', sans-serif !important;
	    font-size: 16px !important;
        margin: 0 auto;
        box-sizing: border-box;
        overflow-x: hidden;
        padding-top: 40px;
        padding-bottom: 40px;
	}
	
	.tdmain {
	  padding:0 !important;
	  background: transparent !important;
	}
	
	#header-content .header-text-container,
	.form-header,
	#header-text,
	#header-content .row,
	#header-content .col-md-12 {
	    padding:0 !important;
	}
	
	.big-container:not(.user-own-css) .btn {
	    padding:0;
	}
	
	#header-content,
	#header-content h1,
	#header-content .row{
	    margin: 0 !important;
	}
	
	.form-header p{
	    margin: 1em 0 !important;
	    color: #4C4C4C ;
	}

	
	#offline-form-summary *,
	#offline-form-summary,
	.form-container .paymdatatitle,
	#merchants-box .merchants-box-title{
	    font-family: 'Open Sans', sans-serif !important;
        font-size: 16px !important;
	}
	
	#id123-thankyou,
	#id123-thankyou *,
	.tdmain-thankyou font b#id123-thankyou {
		font-family: inherit /** Property "thankYouPage_font_family" not found in current form theme */ !important;
		margin-top: 0 !important;
		margin-bottom: 0 !important;
		padding-bottom: 0 !important;
		font-size: inherit /** Property "thankYouPage_font_size" not found in current form theme */ !important;
        font-weight: inherit /** Property "thankYouPage_font_weight" not found in current form theme */;
        font-style: inherit /** Property "thankYouPage_font_style" not found in current form theme */;
        line-height: inherit /** Property "thankYouPage_font_line_height" not found in current form theme */;
        padding-top: 10px;
        color: inherit /** Property "thankYouPage_color" not found in current form theme */;
	}
	
	.headline * {
	    color: #4c4c4c;
	}
	
	.tdmain-thankyou font b#id123-thankyou {
	    margin-top:50px !important;
        font-size: 24px !important;
	}
	
	.form-container h2 {
	    color: #4c4c4c;
	}
	
	.form-container #merchants-box .merchants-box-title,
    #checkout_form_con #checkout_form .credit-card-form,
    #checkout_form_con label,
    #merchants-box #merc-select *,
    #merchants-box #merc-select-container .merchant-powered,
    .paymdatatitle{
        font-family: 'Open Sans', sans-serif !important;
        color: #4C4C4C !important;
    }
	
	.form-container {
	
	    background-color: #FFFFFF;
	    background-image: inherit /** Property "page_background_image_css" not found in current form theme */ !important;
	    background-size: cover;
	    background-position: center;
	    background-attachment: scroll;
	    background-repeat: no-repeat;
	    
	    width: calc( 650px + 0px + 0px ) !important;
        padding: 20px 20px 20px 20px;
	    border-color: #4c4c4c;
	    border-style: none;
	    border-width: 0px;
	    box-shadow: 0 0 10px 0 rgba(0,0,0,.1);
	    margin: 0 auto !important;
	}
	
	.form-container #merchants-box .merchants-inner {
	    background-color: #FFFFFF;
	}
	
	.form-container #merchants-box .merchants-inner .payment-item input[type=radio]:not(old) + label > .outside {
	    border-width: 1px;
        border-style: solid;
        background-color: #ffffff;
        border-color: #cccccc;	    
	}
    
    .form-container #merchants-box #merc-select-container .select2-container,
    #checkout_form_con #checkout_form .credit-card-form .select2-container {
        outline: none !important;
    }
    
    #checkout_form_con #checkout_form .credit-card-form .form-item label{ 
        color: #4C4C4C;
    }
    
    .form-container #merchants-box #merc-select-container .select2-container a,
    #checkout_form_con #checkout_form .credit-card-form .select2-container a,
    #checkout_form_con #checkout_form .credit-card-form .form-item input[type=text]{
        background-color: #ffffff;
        border-color: #cccccc;
        color: #4c4c4c;
        padding: 8px 8px;
        border-width: 1px !important;
        border-style: solid !important;
        border-radius: 3px !important;
        font-family: 'Open Sans', sans-serif;
        font-size: 14px;
        font-weight: normal;
        font-style: normal;
        line-height: 1.2em;
    }
    
    .form-container #merchants-box #merc-select-container .select2-container a:hover,
    #checkout_form_con #checkout_form .credit-card-form .select2-container a:hover,
    #checkout_form_con #checkout_form .credit-card-form .form-item input[type=text]:hover {
        background-color: #ffffff;
        border-color: #46B7F9;
    }
    
    #checkout_form_con #checkout_form .credit-card-form .form-item input[type=text]:focus {
        background-color: rgba(70,183,249,0.1);
        border-color: #46B7F9;
    }
	
	.form-container input[type=submit],
	.form-container input[type=button].submit,
	.form-row .form-item input[type=submit],
	.form-row .form-item input[type=button].submit,
	.form-row .form-item button[type="submit"],
    .form-row .form-item button.btn.after-click-btn--disable,
	#payment-submit
	 {
	
	    vertical-align: middle;
	    font-family: 'Open Sans', sans-serif !important;
	    background-color: #46B7F9 !important;
        border-color: transparent !important;
        color: #ffffff !important;
        
        font-size: 14px !important;
        font-weight: normal;
        font-style: normal;
        line-height: 2em;
        padding: 0 40px !important;
        border-width: 1px  !important;
        border-style: solid  !important;
        border-radius: 3px  !important;
        height: calc( 8px + 2em + 8px );
        margin-top: 8px  !important;
        
        display: inline-block;
        box-sizing: content-box;
	}
	
	.form-row .form-item button.btn.after-click-btn--disable{
	    background-color: #b4b4b4!important;
	}
	
	body:not([data-mouse-gesture-type]) #formwrapper input[type=submit]:not([disabled]):hover,
	body:not([data-mouse-gesture-type]) .form-container input[type=submit]:not([disabled]):hover
	 {
        background-color: #707070 !important;
        border-color: transparent;
        color: #ffffff;
    }
    
    div.form-header {
        padding: 8px 8px !important;
    }
    
    #header-content #header-text {
        color: #4c4c4c !important;
    }
     
    #header-content .header-text-container h1 span{
        background-color: transparent !important;
        border-color: transparent !important;
        width: 100%;
        border-width: 0px;
        border-style: none;
        border-radius: 0px;
        color: #4c4c4c;
    }
    
    .undiv h2 {
        display: none;
    }
    
    .full-height {
        padding: 0 !important;
    }
    
    .widgettitle {
        max-width: 100%;    
    }
    
    #header-content,
    body > div > div.form-container > .full-height {
        overflow-x: hidden;
        overflow-y: hidden;
    }
	
</style><script type="text/javascript">$("body").addClass("new-view-form"); </script></head>
<body style="background-color:#ECECEC; ">
<div>
<div class="form-container big-container not-preview" id="AutoNumber1" style="margin:10px auto;width:650px; ">
<div class="full-height">
<style type="text/css">
                        .tdmain {
                        margin:0 auto;width:650px;;background-color:#FFFFFF;border:none;                        }
                    </style>
<div class="tdmain tdmain-limited-phishing">
<div class="selector-off">
<center>
<a href="/" target="_self"><img border="0" height="44" src="//cdn-main.123contactform.com/images3/logos/123FormBuilder-27px@2x.png" width="160"/></a>
</center>
<h3><font face="Verdana" size="3">This form is <font color="#ff0000">suspended</font> for breaching 123FormBuilder's <a href="/termsofservice.html" target="_self">T.O.S.</a>
</font></h3>
<p><font face="Verdana" size="2">The form you visited was used by its owner  a free 123FormBuilder user  in violation of our terms of service. 123FormBuilder has a strict "no abuse" policy. We apologize for the inconvenience caused to you by this user.</font></p>
<p><font face="Verdana" size="2">We use human review and automated abuse detection for the forms created by users of our service. We provide user registration details, logs and IP addresses of abusing accounts to the qualified authorities who take legal action against online criminal activity.</font></p>
<p><font face="Verdana" size="2">Violation of our terms of service refers, most often, to phishing attempts. These include the forms created to:
<ul>
<li>collect email addresses for spamming purposes;</li>
<li>request account passwords fraudulously;</li>
<li>demand sensitive data, like credit card information.</li>
</ul>
</font></p>
<p><font face="Verdana" size="2">If you are the <font color="#ff0000">owner</font> of this form and believe you have respected our TOS, please <a href="/contactus.html" target="_self">contact us</a> to clarify this issue. If your aim is to abuse our service, don't waste your time. The smallest <a href="/termsofservice.html" target="_self">TOS</a> violation will suspend and ban your account.
</font></p>
<h3><font face="Verdana" size="3">About 123FormBuilder</font></h3>
<p><font face="Verdana" size="2">123FormBuilder is an online form and survey builder that allows users to create any type of web form as easy as 1-2-3. To learn more about 123FormBuilder, please visit our home page: <a href="/" target="_self">www.123formbuilder.com</a></font></p>
<!--
<p><font size="2" face="Verdana">
<img align="left" style="margin:15px;" src="//www.123formbuilder.com/images/exclamationy.png">We use human review checking and automated abuse checks for all forms created with our services. The smallest TOS violation will suspend and ban your account. Don't waste your time with our service if you aim to abuse it.
</font></p>

<p><font size="2" face="Verdana">
All <b>phishing, fraud, scam and hacking forms</b> will be promptly suspended. We provide registration details, logs and IP addresses of abusing accounts to the qualified authorities who take legal action against online criminal activity.
</font></p>
--><!-- Will set cache for www_9f403b3547f5ff855157a4d36024a05d with some bytes: 16587
Will set cache for www_form-2443797 with some bytes: 16587 --></div></div></div></div></div></body></html>