<html><head>
<title>Access Denied</title>
</head><body>
<h1>Access Denied</h1>
 
You don't have permission to access "http://www.meuacesso.com.br/" on this server.<p>
Reference #18.1e7a19b8.1610586779.ff56fa4
</p></body>
</html>
