<!DOCTYPE html>
<html lang="en" xmlns="http://www.w3.org/1999/xhtml">
<head>
<meta content="IE=edge" http-equiv="X-UA-Compatible"/>
<meta content="webkit" name="renderer"/>
<meta charset="utf-8"/>
<meta content="width=device-width, initial-scale=1.0, minimum-scale=1, maximum-scale=1, user-scalable=no" name="viewport"/>
<meta content="acura,讴歌,讴歌官方网站,讴歌汽车，讴歌suv，讴歌概念车，讴歌品牌" name="Keywords"/>
<meta content="欢迎访问讴歌官方网站。在这里您可以查看到讴歌全系车型、查询讴歌特约店、金融服务、了解讴歌最新资讯及核心技术等。" name="Description"/>
<meta content="" name="author"/>
<title>ACURA | 讴歌官方网站</title>
<link href="/asset/Acura/css/swiper-3.4.2.min.css" rel="stylesheet"/>
<link href="/asset/Acura/css/jquery.mCustomScrollbar.min.css" rel="stylesheet"/>
<link href="/asset/Acura/style/base.css" rel="stylesheet"/>
<style>
        a {
            color: inherit;
            text-decoration: none;
        }
    </style>
<link href="/asset/Acura/style/main.css" rel="stylesheet"/>
<!--[if !IE]><!-->
<link href="/asset/Acura/css/swiper-3.4.2.min.css" rel="stylesheet"/>
<!--<![endif]-->
<!--[if IE]>
    <link rel="stylesheet" href="/asset/Acura/css/idangerous.swiper.css">
    <![endif]-->
<!-- sitecore Event -->
<script src="/ClientEventTracker/ClientEventTracker.js" type="text/javascript"></script>
<!--[if IE 8 ]>
        <script src="/asset/Acura/js/ie8/es5-shim.min.js"></script>
        <script src="/asset/Acura/js/ie8/es5-sham.min.js"></script>
    <![endif]-->
<script src="/asset/Acura/js/jquery-1.11.3.min.js" type="text/javascript"></script>
<script src="/asset/Acura/pc/js/common.js"></script>
<script src="/asset/Acura/pc/js/PageEvents.js"></script>
<script type="text/javascript">
	$(function(){
		$('.nav-list').mouseenter(function (e){
	   $("select").hide() 
	})
	$(".nav-list").mouseleave(function(e){
		$("select").show()
	})
	})
		
</script>
<script type="text/javascript">
          var _paq = window._paq || [];
          /* tracker methods like "setCustomDimension" should be called before "trackPageView" */
          _paq.push(['trackPageView']);
          _paq.push(['enableLinkTracking']);
          (function() {
            var u="//piwik.acura.com.cn/piwik/";
            _paq.push(['setTrackerUrl', u+'matomo.php']);
            _paq.push(['setSiteId', '1']);
            var d=document, g=d.createElement('script'), s=d.getElementsByTagName('script')[0];
            g.type='text/javascript'; g.async=true; g.defer=true; g.src=u+'matomo.js'; s.parentNode.insertBefore(g,s);
          })();
    </script>
<!-- Piwik -->
<!--<script type="text/javascript">
        var _paq = _paq || [];
        /* tracker methods like "setCustomDimension" should be called before "trackPageView" */
        _paq.push(['trackPageView']);
        _paq.push(['enableLinkTracking']);
        (function () {
            var u = "//piwik-vm01.chinaeast2.cloudapp.chinacloudapi.cn/piwik/";
            _paq.push(['setTrackerUrl', u + 'piwik.php']);
            _paq.push(['setSiteId', '1']);
            var d = document, g = d.createElement('script'), s = d.getElementsByTagName('script')[0];
            g.type = 'text/javascript'; g.async = true; g.defer = true; g.src = u + 'piwik.js'; s.parentNode.insertBefore(g, s);
        })();
    </script>-->
<!-- End Piwik Code -->
<!--
    <script>
        (function (a, e, f, g, b, c, d) {
            a.ClickiTrackerName = b;
            a[b] = a[b] || function () { (a[b].queue = a[b].queue || []).push(arguments) };
            a[b].start = +new Date; c = e.createElement(f); d = e.getElementsByTagName(f)[0];
            c.async = 1; c.src = g; d.parentNode.insertBefore(c, d)
        })(window, document, 'script', '//stm-cdn.cn.miaozhen.com/clicki.min.js?v=' + Math.round(new Date().getTime() / 1000 / 300), 'stm_clicki');
        stm_clicki('create', 'dc-2752', 'auto');
        stm_clicki('send', 'pageview');
    </script>
    <script>

        var stm_clicki = stm_clicki || function () { };

        function StmClick(category, label, value) {
            if (value || value === 0) {
                stm_clicki('send', 'event', category, '点击', label, value);
            } else {
                stm_clicki('send', 'event', category, '点击', label);
            }
        }

        window.console = window.console || (function () {
            var c = {}; c.log = c.warn = c.debug = c.info = c.error = c.time = c.dir = c.profile
                = c.clear = c.exception = c.trace = c.assert = function () { };
            return c;
        })();
    </script>
	-->
<!-- Gridsum tracking code begin. -->
<script type="text/javascript">
var _gsq = _gsq || [];
    (function () {
        var s = document.createElement('script');
        s.type = 'text/javascript';
        s.async = true;
        s.src = 'https://static.gridsumdissector.com/js/Clients/GWD-005756-FD5934/gs.js';
        var firstScript = document.getElementsByTagName('script')[0];
        firstScript.parentNode.insertBefore(s,firstScript);
    })();
</script>
<!--Gridsum tracking code end. -->
</head>
<body class="chrome">
<script>
        if (!!window.ActiveXObject || "ActiveXObject" in window) {
            // 如果是ie
            window.document.body.className = "ie8";
        }
    </script>
<div class="container boxsize full">
<div class="content-box">
<!-- 头部 -->
<style>

    #nav-modal a {
        text-decoration: none;
    }

    #nav-modal .content-name-box {
        height: 23px;
    }

    .popwindow .modal .header-bottom-nav .bottom-nav-box .header-bottom-left .header-left-list .header-list-content .content-list-box .content-list .content-name-box img {
        width: 90px;
        height: auto !important;
    }

    .content-header .header-right-box .test-drive {
        border-bottom: 1px solid #041E42;
    }

    /* 导航  车型描述 */
    .popwindow .modal .header-bottom-nav .bottom-nav-box .header-bottom-left .header-left-list .header-list-content .content-list-box .content-list .content-list-desc {
        display: inline-block;
    }
</style>
<div class="content-header big-content-header" id="PageHeader">
<div class="header-left-box">
<div class="header-left">
<a href="/" onclick="_gsq.push(['GWD-005756', 'trackEvent', 'click', '导航按钮-首页', 'pv1', 1, {}])">
<img alt="" src="/-/media/Acura/pc/logo/logo-left.ashx?la=zh-CN&amp;hash=4A183C763A11214864A35A4C230B3DFB4B35F8F1"/>
</a>
</div>
</div>
<div class="header-nav-box">
<div class="nav-list nav-list1" data-index="0">
<a target="_self">
<span class="nav-about">车型总览</span>
</a>
<span class="nav-img">
<img class="" src="/asset/Acura/images/pc/down-arrow.png"/>
</span>
</div>
<div class="nav-list nav-list2" data-index="1">
<a target="_self">
<span class="nav-about">品牌天地</span>
</a>
<span class="nav-img">
<img class="" src="/asset/Acura/images/pc/down-arrow.png"/>
</span>
<div class="nav-select-down" style="display: none;">
<div class="select-nav-list">
<a class="stm" href="/brand/activity" onclick="_gsq.push(['GWD-005756', 'trackEvent', 'click', '导航按钮-品牌天地', 'pv1', 1, { }])" target="_self" title="品牌活动">
                                            品牌活动
                                            </a>
</div>
<div class="select-nav-list">
<a class="stm" href="/brand/history" onclick="_gsq.push(['GWD-005756', 'trackEvent', 'click', '导航按钮-品牌天地', 'pv1', 1, { }])" target="_self" title="品牌历史">
                                            品牌历史
                                            </a>
</div>
<div class="select-nav-list">
<a class="stm" href="/brand/precision" onclick="_gsq.push(['GWD-005756', 'trackEvent', 'click', '导航按钮-品牌天地', 'pv1', 1, { }])" target="_self" title="精确不凡">
                                            精确 不凡
                                            </a>
</div>
<div class="select-nav-list">
<a class="stm" href="/Technology/Technology" onclick="_gsq.push(['GWD-005756', 'trackEvent', 'click', '导航按钮-品牌天地', 'pv1', 1, { }])" target="_self" title="核心技术">
                                            核心技术
                                            </a>
</div>
</div>
</div>
<div class="nav-list nav-list3" data-index="2">
<a class="stm" href="/news/index" onclick="_gsq.push(['GWD-005756', 'trackEvent', 'click', '导航按钮-新闻中心', 'pv1', 1, { }])" target="_self" title="新闻中心">
<span class="nav-about">新闻中心</span>
</a>
</div>
<div class="nav-list nav-list4" data-index="3">
<a class="stm" href="/brand/experience" onclick="_gsq.push(['GWD-005756', 'trackEvent', 'click', '导航按钮-精·诚体验', 'pv1', 1, { }])" target="_self" title="精诚体验">
<span class="nav-about">精·诚体验</span>
</a>
</div>
<div class="nav-list nav-list5" data-index="4">
<a target="_self">
<span class="nav-about">金融服务</span>
</a>
<span class="nav-img">
<img class="" src="/asset/Acura/images/pc/down-arrow.png"/>
</span>
<div class="nav-select-down" style="display: none;">
<div class="select-nav-list">
<a class="stm" href="/Financial_services/financial_product" onclick="_gsq.push(['GWD-005756', 'trackEvent', 'click', '导航按钮-金融服务', 'pv1', 1, { }])" target="_self" title="金融产品介绍">
                                            金融产品介绍
                                            </a>
</div>
<div class="select-nav-list">
<a class="stm" href="/Financial_services/financial_calculator" onclick="_gsq.push(['GWD-005756', 'trackEvent', 'click', '导航按钮-金融服务', 'pv1', 1, { }])" target="_self" title="金融计算器">
                                            金融计算器
                                            </a>
</div>
</div>
</div>
<div class="nav-list nav-list6" data-index="5">
<a target="_self">
<span class="nav-about">网点查询</span>
</a>
<span class="nav-img">
<img class="" src="/asset/Acura/images/pc/down-arrow.png"/>
</span>
<div class="nav-select-down" style="display: none;">
<div class="select-nav-list">
<a class="stm" href="/dealer/dealers" onclick="_gsq.push(['GWD-005756', 'trackEvent', 'click', '导航按钮-网点查询', 'pv1', 1, { }])" target="_self" title="新闻中心">
                                            特约店查询
                                            </a>
</div>
<div class="select-nav-list">
<a class="stm" href="/dealer/service" onclick="_gsq.push(['GWD-005756', 'trackEvent', 'click', '导航按钮-网点查询', 'pv1', 1, { }])" target="_self" title="新闻中心">
                                            售后网点查询
                                            </a>
</div>
</div>
</div>
<div class="nav-list nav-list7" data-index="6">
<a class="stm" href="/car_tools/comparison" onclick="_gsq.push(['GWD-005756', 'trackEvent', 'click', '导航按钮-车型对比', 'pv1', 1, { }])" target="_self" title="车型对比">
<span class="nav-about">车型对比</span>
</a>
</div>
<div class="nav-list nav-list8" data-index="7">
<a class="stm" href="/Onlineappreciation" onclick="_gsq.push(['GWD-005756', 'trackEvent', 'click', '导航按钮-在线赏车', 'pv1', 1, { }])" target="_self" title="在线赏车">
<span class="nav-about">在线赏车</span>
</a>
</div>
<div class="nav-list nav-list9" data-index="8">
<a class="stm" href="/imdifferent" onclick="_gsq.push(['GWD-005756', 'trackEvent', 'click', '导航按钮-异行者Club', 'pv1', 1, { }])" target="_self" title="车型对比">
<span class="nav-about">异行者Club</span>
</a>
</div>
</div>
<div class="header-right-box">
<a class="stm" href="/test_drive/test_drive?source=8565B3C1-1E6D-4506-9B90-59DF7907424F" onclick="_gsq.push(['GWD-005756', 'trackEvent', 'click', '导航按钮-预约试驾', 'pv1', 1, { }])" style="text-decoration: none; color: #ffffff; font-size: 14px" target="_self" title="预约试驾">
<div class="test-drive">预约试驾</div>
</a>
<div class="search-icon">
<img src="/asset/Acura/images/pc/search.png"/>
</div>
</div>
</div>
<div class="popwindow">
<div class="modal-mask"></div>
<div class="modal nav-modal" id="nav-modal">
<div class="header-bottom-nav">
<div class="bottom-nav-box">
<div class="header-bottom-left">
<div class="header-left-list left-list1">
<div class="header-list-title">
<div class="list-title-line">
</div>
<div class="list-title-about">
                                            SUV
                                        </div>
</div>
<div class="header-list-content">
<div class="content-list-box">
<div class="content-list">
<a class="stm" href="/CDX" onclick="_gsq.push(['GWD-005756', 'trackEvent', 'click', '导航按钮-车型总览-SUVCDX', 'pv1', 1, { }])" title="CDX">
<img alt="" src="/-/media/Acura/pc/Car/45Image/cdx-22-1.ashx?la=zh-CN&amp;hash=F119D519EC0F234AF9AFB20DE5ECF29EF898FD95"/>
<div class="content-name-box">
<img alt="" src="/-/media/Acura/pc/CarLogo/Nav/cdx-nav.ashx?la=zh-CN&amp;hash=46F4134FD6899F29CD2FA9098056FBD927F4CCB5"/>
</div>
<div class="content-list-desc">
<div class="desc-about">
                                                            高性能运动豪华SUV
                                                        </div>
</div>
<div class="content-list-price">
<div class="price-about">
<span class="price-number">229,800 元 起</span>
</div>
</div>
</a>
</div>
<div class="content-list">
<a class="stm" href="/RDX" onclick="_gsq.push(['GWD-005756', 'trackEvent', 'click', '导航按钮-车型总览-SUVRDX', 'pv1', 1, { }])" title="RDX">
<img alt="" src="/-/media/Acura/pc/Home/VehicleDisplay/RDX-2.ashx?la=zh-CN&amp;hash=B17DC5A0E7BB6F21D7AD4E02362A3F4661019702"/>
<div class="content-name-box">
<img alt="" src="/-/media/Acura/pc/CarLogo/Nav/RDX-nav.ashx?la=zh-CN&amp;hash=987F71460F3106E151D77C8B54D061817BD2CC62"/>
</div>
<div class="content-list-desc">
<div class="desc-about">
                                                            全天候飞航SUV
                                                        </div>
</div>
<div class="content-list-price">
<div class="price-about">
<span class="price-number">328,000 元 起</span>
</div>
</div>
</a>
</div>
<div class="content-list">
<a class="stm" href="/CDX_SPORT_HYBRID" onclick="_gsq.push(['GWD-005756', 'trackEvent', 'click', '导航按钮-车型总览-SUVCDX SPORT HYBRID', 'pv1', 1, { }])" title="CDX_SPORT_HYBRID">
<img alt="" src="/-/media/Acura/pc/Home/VehicleDisplay/cdx-hybrid-1.ashx?la=zh-CN&amp;hash=62BAD51DFBFAC4E68D6E6C69EA133EC79D4A7EE8"/>
<div class="content-name-box">
<img alt="" src="/-/media/Acura/pc/CarLogo/Nav/CDX-H-Nav.ashx?la=zh-CN&amp;hash=747BE84665647611A82FAA24701E11BE643309A3"/>
</div>
<div class="content-list-desc">
<div class="desc-about">
                                                            高端动能混动SUV
                                                        </div>
</div>
<div class="content-list-price">
<div class="price-about">
<span class="price-number">299,800 元 起</span>
</div>
</div>
</a>
</div>
<div class="content-list">
<a class="stm" href="/MDX_SPORT_HYBRID" onclick="_gsq.push(['GWD-005756', 'trackEvent', 'click', '导航按钮-车型总览-SUVMDX SPORT HYBRID', 'pv1', 1, { }])" title="MDX_SPORT_HYBRID">
<img alt="" src="/-/media/Acura/pc/Home/VehicleDisplay/mdx-2-1.ashx?la=zh-CN&amp;hash=DF27A487C01F359ECA60C1AE07B5463F3956F076"/>
<div class="content-name-box">
<img alt="" src="/-/media/Acura/pc/CarLogo/Nav/MDX-H-nav.ashx?la=zh-CN&amp;hash=51DE3F14C261568A5861487DDFB557877BE40796"/>
</div>
<div class="content-list-desc">
<div class="desc-about">
                                                            多擎超控旗舰SUV
                                                        </div>
</div>
<div class="content-list-price">
<div class="price-about">
<span class="price-number">698,000 元 起</span>
</div>
</div>
</a>
</div>
</div>
</div>
</div>
<div class="header-left-list left-list2">
<div class="header-list-title">
<div class="list-title-line">
</div>
<div class="list-title-about">
                                            轿车
                                        </div>
</div>
<div class="header-list-content">
<div class="content-list-box">
<div class="content-list">
<a class="stm" href="/TLX_L" onclick="_gsq.push(['GWD-005756', 'trackEvent', 'click', '导航按钮-车型总览-轿车TLX-L', 'pv1', 1, { }])" title="TLX_L">
<img alt="" src="/-/media/Acura/pc/Home/VehicleDisplay/TLX-2-1.ashx?la=zh-CN&amp;hash=BEE22A4FBC0294D18644730EDD8658D39D62BE7A"/>
<div class="content-name-box">
<img alt="" src="/-/media/Acura/pc/CarLogo/Nav/TLX-L-nav.ashx?la=zh-CN&amp;hash=DCA900EF1B3B371A24DF9C7F1B69D3391D6CE4FA"/>
</div>
<div class="content-list-desc">
<div class="desc-about">
                                                            四轮精准转向<br/>
长轴距运动轿车
                                                        </div>
</div>
<div class="content-list-price">
<div class="price-about">
<span class="price-number">279,800 元 起</span>
</div>
</div>
</a>
</div>
</div>
</div>
</div>
<div class="header-left-list left-list3">
<div class="header-list-title">
<div class="list-title-line">
</div>
<div class="list-title-about">
                                            超级跑车
                                        </div>
</div>
<div class="header-list-content">
<div class="content-list-box">
<div class="content-list">
<a class="stm" href="/NSX" onclick="_gsq.push(['GWD-005756', 'trackEvent', 'click', '导航按钮-车型总览-超级跑车NSX', 'pv1', 1, { }])" title="NSX">
<img alt="" src="/-/media/Acura/pc/Home/VehicleDisplay/NSX-2-1.ashx?la=zh-CN&amp;hash=89C0D238C55ADC4B576C67E12C4845EF4F398F36"/>
<div class="content-name-box">
<img alt="" src="/-/media/Acura/pc/CarLogo/Nav/nsx-nav.ashx?la=zh-CN&amp;hash=FD8B04F4EBB7ED6B7EE29A90C7E8CFED7420C886"/>
</div>
<div class="content-list-desc">
<div class="desc-about">
                                                            超动力智驾跑车
                                                        </div>
</div>
<div class="content-list-price">
<div class="price-about">
<span class="price-number">2,890,000 元 起</span>
</div>
</div>
</a>
</div>
</div>
</div>
</div>
</div>
<div class="header-bottom-right">
<a class="stm" href="/Financial_services/financial_product" onclick="_gsq.push(['GWD-005756', 'trackEvent', 'click', '导航按钮-车型总览-金融服务', 'pv1', 1, { }])" target="_self" title="金融服务">
<div class="bottom-right-list right-list1">
<div class="right-mask">
</div>
<div class="right-list-box">
<img src="/asset/Acura/images/pc/header-right-icon2.png"/>
</div>
<div class="right-about">
                                金融服务
                            </div>
</div>
</a>
<a class="stm" href="/car_download/index" onclick="_gsq.push(['GWD-005756', 'trackEvent', 'click', '导航按钮-车型总览-型录下载', 'pv1', 1, { }])" target="_self" title="型录下载">
<div class="bottom-right-list right-list2">
<div class="right-mask">
</div>
<div class="right-list-box">
<img src="/asset/Acura/images/pc/header-right-icon1.png"/>
</div>
<div class="right-about">
                                型录下载
                            </div>
</div>
</a>
</div>
</div>
</div>
</div>
<div class="modal" id="search-modal">
<div class="header-search-box">
<div class="search-left-icon">
<img src="/asset/Acura/images/pc/search.png"/>
</div>
<div class="search-input-box">
<input id="search" placeholder="搜索您想要了解的内容" type="text"/>
</div>
<div class="search-right-close">
<img src="/asset/Acura/images/pc/search-close.png"/>
</div>
</div>
</div>
</div>
<!-- 内容 -->
<div class="header-back-box">
<div class="swiper-container" id="header-back">
<div class="swiper-wrapper">
<div class="swiper-slide">
<div class="silde-img-box">
<a href="/CDX">
<img alt="" src="/-/media/Acura/pc/Brand/2020626/CDXkv-1920x864px.ashx?la=zh-CN&amp;hash=74E912391A70254960BB2BFF259B46C1BEFE633E"/>
</a>
</div>
</div>
<div class="swiper-slide">
<div class="silde-img-box">
<a href="/CDX_SPORT_HYBRID">
<img alt="" src="/-/media/Acura/pc/Brand/2020626/CDX_hev_kv-1920x864px.ashx?la=zh-CN&amp;hash=BFA1E058B33782AE63D9B7F48B2DD934BCC3FFE1"/>
</a>
</div>
</div>
<div class="swiper-slide">
<div class="silde-img-box">
<a href="/RDX">
<img alt="" src="/-/media/Acura/pc/Home/Banner/RDX.ashx?la=zh-CN&amp;hash=D884ED21141041FA2911446248D0852012DD5C01"/>
</a>
</div>
</div>
<div class="swiper-slide">
<div class="silde-img-box">
<a href="/MDX_SPORT_HYBRID">
<img alt="" src="/-/media/Acura/pc/Home/Banner/mdx.ashx?la=zh-CN&amp;hash=E9010641DCEF5FBB6D416E470A909F2E996A8F21"/>
</a>
</div>
</div>
<div class="swiper-slide">
<div class="silde-img-box">
<a href="/NSX">
<img alt="" src="/-/media/Acura/pc/Home/Banner/NSX.ashx?la=zh-CN&amp;hash=B91B61E7D7C297E8192E5C4804DCC6838D8C13B1"/>
</a>
</div>
</div>
<div class="swiper-slide">
<div class="silde-img-box">
<a href="/TLX_L">
<img alt="" src="/-/media/Acura/pc/Home/Banner/tlx-l.ashx?la=zh-CN&amp;hash=23264D6C8670E2D0983A898E6B99C0B8C8468A66"/>
</a>
</div>
</div>
</div>
<div class="handler-arrow handler-left"></div>
<div class="handler-arrow handler-right"></div>
<div class="pagination" id="header-pagination"></div>
</div>
</div>
<style>

    .swiper-bottom-list .slide-pic-over {
        display: none;
    }

    .swiper-bottom-list:hover .slide-pic, .hoverList .slide-pic {
        display: none;
    }

    .swiper-bottom-list:hover .slide-pic-over, .hoverList .slide-pic-over {
        display: block;
    }

    .slid-left img {
        cursor: pointer;
    }
</style>
<div class="step-content">
<div class="step-title">
<img src="/asset/Acura/images/pc/step-title1.png"/>
</div>
<div class="step-slider-box">
<div class="swiper-container" id="step-slider">
<div class="swiper-wrapper">
<div class="swiper-slide">
<div class="slid-left">
<a href="/CDX">
<img alt="" src="/-/media/Acura/pc/Car/45Image/cdx-22-1.ashx?la=zh-CN&amp;hash=F119D519EC0F234AF9AFB20DE5ECF29EF898FD95"/>
</a>
</div>
<div class="slid-right">
<div class="slid-title">
<img alt="" src="/-/media/Acura/pc/CarLogo/Nav/cdx-nav.ashx?la=zh-CN&amp;hash=46F4134FD6899F29CD2FA9098056FBD927F4CCB5"/>
</div>
<div class="slid-price">
                                建议零售价：229,800 元 起
                            </div>
<div class="slid-desc">
                                CDX 性能异类，给你异乎寻常的驾驭本色。
                            </div>
<div class="slid-btn-box">
<div class="slid-btn">
<a href="/CDX">
                                    探索更多
                                    </a>
</div>
<div class="slid-btn">
<a href="/car_tools/comparison?vid=550790B2-5A61-48EB-BDE0-547802CF7426">
                                        车型对比
                                        </a>
</div>
</div>
</div>
</div>
<div class="swiper-slide">
<div class="slid-left">
<a href="/RDX">
<img alt="" src="/-/media/Acura/pc/Car/RDX/RDX-45-1.ashx?la=zh-CN&amp;hash=9D817F4030DCB187E64D7770469E9DBD5B20727E"/>
</a>
</div>
<div class="slid-right">
<div class="slid-title">
<img alt="" src="/-/media/Acura/pc/CarLogo/Nav/RDX-nav.ashx?la=zh-CN&amp;hash=987F71460F3106E151D77C8B54D061817BD2CC62"/>
</div>
<div class="slid-price">
                                建议零售价：328,000 元 起
                            </div>
<div class="slid-desc">
                                全新RDX经过重新设计，不但更加豪华，还提供了更震撼人心的驾驶体验。
                            </div>
<div class="slid-btn-box">
<div class="slid-btn">
<a href="/RDX">
                                    探索更多
                                    </a>
</div>
<div class="slid-btn">
<a href="/car_tools/comparison?vid=CF40D393-57C3-40BD-A42D-AD41EF5CC4BC">
                                        车型对比
                                        </a>
</div>
</div>
</div>
</div>
<div class="swiper-slide">
<div class="slid-left">
<a href="/CDX_SPORT_HYBRID">
<img alt="" src="/-/media/Acura/pc/Home/VehicleDisplay/cdx-hybrid-1.ashx?la=zh-CN&amp;hash=62BAD51DFBFAC4E68D6E6C69EA133EC79D4A7EE8"/>
</a>
</div>
<div class="slid-right">
<div class="slid-title">
<img alt="" src="/-/media/Acura/pc/CarLogo/Nav/CDX-H-Nav.ashx?la=zh-CN&amp;hash=747BE84665647611A82FAA24701E11BE643309A3"/>
</div>
<div class="slid-price">
                                建议零售价：299,800 元 起
                            </div>
<div class="slid-desc">
                                气质不彰自显，格调与生自带，是CDX SPORT HYBRID，更是你。
                            </div>
<div class="slid-btn-box">
<div class="slid-btn">
<a href="/CDX_SPORT_HYBRID">
                                    探索更多
                                    </a>
</div>
<div class="slid-btn">
<a href="/car_tools/comparison?vid=4DB7847E-8E8C-4EA8-A622-52CA181E341C">
                                        车型对比
                                        </a>
</div>
</div>
</div>
</div>
<div class="swiper-slide">
<div class="slid-left">
<a href="/MDX_SPORT_HYBRID">
<img alt="" src="/-/media/Acura/pc/Home/VehicleDisplay/mdx-2-1.ashx?la=zh-CN&amp;hash=DF27A487C01F359ECA60C1AE07B5463F3956F076"/>
</a>
</div>
<div class="slid-right">
<div class="slid-title">
<img alt="" src="/-/media/Acura/pc/CarLogo/Nav/MDX-H-nav.ashx?la=zh-CN&amp;hash=51DE3F14C261568A5861487DDFB557877BE40796"/>
</div>
<div class="slid-price">
                                建议零售价：698,000 元 起
                            </div>
<div class="slid-desc">
                                多擎超控旗舰SUV，属于你的高端之选。
                            </div>
<div class="slid-btn-box">
<div class="slid-btn">
<a href="/MDX_SPORT_HYBRID">
                                    探索更多
                                    </a>
</div>
<div class="slid-btn">
<a href="/car_tools/comparison?vid=2763C96D-A5A8-4687-9938-DFD13C887948">
                                        车型对比
                                        </a>
</div>
</div>
</div>
</div>
<div class="swiper-slide">
<div class="slid-left">
<a href="/TLX_L">
<img alt="" src="/-/media/Acura/pc/Home/VehicleDisplay/TLX-2-1.ashx?la=zh-CN&amp;hash=BEE22A4FBC0294D18644730EDD8658D39D62BE7A"/>
</a>
</div>
<div class="slid-right">
<div class="slid-title">
<img alt="" src="/-/media/Acura/pc/CarLogo/Nav/TLX-L-nav.ashx?la=zh-CN&amp;hash=DCA900EF1B3B371A24DF9C7F1B69D3391D6CE4FA"/>
</div>
<div class="slid-price">
                                建议零售价：279,800 元 起
                            </div>
<div class="slid-desc">
                                适，则随心所欲。型，则出众不凡。
                            </div>
<div class="slid-btn-box">
<div class="slid-btn">
<a href="/TLX_L">
                                    探索更多
                                    </a>
</div>
<div class="slid-btn">
<a href="/car_tools/comparison?vid=6367A4B3-92E6-4F0A-BFE1-716BAF63725D">
                                        车型对比
                                        </a>
</div>
</div>
</div>
</div>
<div class="swiper-slide">
<div class="slid-left">
<a href="/NSX">
<img alt="" src="/-/media/Acura/pc/Home/VehicleDisplay/NSX-2-1.ashx?la=zh-CN&amp;hash=89C0D238C55ADC4B576C67E12C4845EF4F398F36"/>
</a>
</div>
<div class="slid-right">
<div class="slid-title">
<img alt="" src="/-/media/Acura/pc/CarLogo/Nav/nsx-nav.ashx?la=zh-CN&amp;hash=FD8B04F4EBB7ED6B7EE29A90C7E8CFED7420C886"/>
</div>
<div class="slid-price">
                                建议零售价：2,890,000 元 起
                            </div>
<div class="slid-desc">
                                继承历代NSX极致运动基因，带来真正人车一体的久违快感。
                            </div>
<div class="slid-btn-box">
<div class="slid-btn">
<a href="/NSX">
                                    探索更多
                                    </a>
</div>
</div>
</div>
</div>
</div>
<div class="handler-arrow handler-left"></div>
<div class="handler-arrow handler-right"></div>
</div>
<div class="swiper-bottom-box">
<div class="swiper-bottom-list" data-index="0">
<img alt="" class="slide-pic" src="/-/media/Acura/pc/Car/45LittleImage/cdx-1-1.ashx?la=zh-CN&amp;hash=57504BA5F20656FDE543756FB96CA0A2ED74CB27"/>
<img alt="" class="slide-pic-over" src="/-/media/Acura/pc/Car/45LittleImage/cdx-2-1.ashx?la=zh-CN&amp;hash=A74E28A4FD6EA8CA6144860FC632F3F364F682EA"/>
</div>
<div class="swiper-bottom-list" data-index="1">
<img alt="" class="slide-pic" src="/-/media/Acura/pc/Home/VehicleDisplay/LittleImage/rdx-1-1.ashx?la=zh-CN&amp;hash=1C06BC2344AAD8BBE3CC9FE68AE73B0B96671000"/>
<img alt="" class="slide-pic-over" src="/-/media/Acura/pc/Home/VehicleDisplay/LittleImage/rdx-2-2.ashx?la=zh-CN&amp;hash=EA539E66DA44E275C03478A042E3FD85B86575CB"/>
</div>
<div class="swiper-bottom-list" data-index="2">
<img alt="" class="slide-pic" src="/-/media/Acura/pc/Home/VehicleDisplay/LittleImage/cdx-hybrid-1.ashx?la=zh-CN&amp;hash=BF1A85CA074FD77BA5E5FE0769072C430AFAFD3D"/>
<img alt="" class="slide-pic-over" src="/-/media/Acura/pc/Home/VehicleDisplay/LittleImage/cdx-hybrid-1.ashx?la=zh-CN&amp;hash=BF1A85CA074FD77BA5E5FE0769072C430AFAFD3D"/>
</div>
<div class="swiper-bottom-list" data-index="3">
<img alt="" class="slide-pic" src="/-/media/Acura/pc/Home/VehicleDisplay/LittleImage/mdx-1-1.ashx?la=zh-CN&amp;hash=C1CD3531E94E4D1DD2FA1F80A26B31D2004969CD"/>
<img alt="" class="slide-pic-over" src="/-/media/Acura/pc/Home/VehicleDisplay/LittleImage/mdx-2-1.ashx?la=zh-CN&amp;hash=30D6690A2CE3A87EFECE44C13B1DFFE5CDA0FA08"/>
</div>
<div class="swiper-bottom-list" data-index="4">
<img alt="" class="slide-pic" src="/-/media/Acura/pc/Home/VehicleDisplay/LittleImage/TLX-1-1.ashx?la=zh-CN&amp;hash=C38B3F2DDC828AA36F5CBA0FB1CEAD4806D13CD3"/>
<img alt="" class="slide-pic-over" src="/-/media/Acura/pc/Home/VehicleDisplay/LittleImage/TLX-2-1.ashx?la=zh-CN&amp;hash=D211928637D54FC2C74C74B6149D0C1B9BF6EB83"/>
</div>
<div class="swiper-bottom-list" data-index="5">
<img alt="" class="slide-pic" src="/-/media/Acura/pc/Home/VehicleDisplay/LittleImage/NSX-1.ashx?la=zh-CN&amp;hash=D65E54B1B114B4D5B298E192338FF87A9AAE713F"/>
<img alt="" class="slide-pic-over" src="/-/media/Acura/pc/Home/VehicleDisplay/LittleImage/NSX-2-1.ashx?la=zh-CN&amp;hash=6FDDD73D17BCEA0131FDECC19FF36E879F985C2E"/>
</div>
</div>
</div>
</div>
<style>
    .bottom-arrow-btn .arrow-btn {
        font-weight: bold;
    }
</style>
<div class="picture-box">
<div class="picture-content-box">
<div class="picture-title">
<img src="/asset/Acura/images/pc/step-title2.png"/>
</div>
<div class="picture-top-box">
<div class="picture-top-list picture1">
<a href="/brand/history">
<div class="picture-list-back">
<img alt="" src="/-/media/Acura/pc/Home/BrandWorld/step3-1-1.ashx?la=zh-CN&amp;hash=2E7CEC7EDC61BE8C52C98B95FBEC5CA5C7C6FD0B"/>
</div>
<div class="bottom-arrow-btn">
<div class="arrow-img">
<img alt="" src="/-/media/Acura/pc/Home/BrandWorld/bottom-arrow.ashx?la=zh-CN&amp;hash=1F77A7A71937B7A551A8D7383968237771A08F6A"/>
</div>
<div class="arrow-btn">
                            品牌历史
                        </div>
</div>
</a>
</div>
<div class="picture-top-list picture2">
<a href="/Technology/Technology">
<div class="picture-list-back">
<img alt="" src="/-/media/Acura/pc/Home/BrandWorld/step3-2-1.ashx?la=zh-CN&amp;hash=98942A706A3E9D9C012E9B45D4DFB31EF247E27E"/>
</div>
<div class="bottom-arrow-btn">
<div class="arrow-img">
<img alt="" src="/-/media/Acura/pc/Home/BrandWorld/bottom-arrow.ashx?la=zh-CN&amp;hash=1F77A7A71937B7A551A8D7383968237771A08F6A"/>
</div>
<div class="arrow-btn">
                            核心技术
                        </div>
</div>
</a>
</div>
<div class="picture-top-list picture3">
<a href="/brand/precision">
<div class="picture-list-back">
<img alt="" src="/-/media/Acura/pc/Home/BrandWorld/step3-3-1.ashx?la=zh-CN&amp;hash=8F3E2C1DBC2F5F9F1FB07D29D6AA82D7BA9AD07C"/>
</div>
<div class="bottom-arrow-btn">
<div class="arrow-img">
<img alt="" src="/-/media/Acura/pc/Home/BrandWorld/bottom-arrow.ashx?la=zh-CN&amp;hash=1F77A7A71937B7A551A8D7383968237771A08F6A"/>
</div>
<div class="arrow-btn">
                            PRECISION CRAFTED PERFORMANCE<br/>
精确 不凡
                        </div>
</div>
</a>
</div>
</div>
<div class="picture-bottom-box">
<div class="picture-top-list picture4">
<a href="/news/index">
<div class="picture-list-back">
<img alt="" src="/-/media/Acura/pc/Home/BrandWorld/step3-4-1.ashx?la=zh-CN&amp;hash=855255BC4785AA00CAAA46E81B7B4ACF7F75EE30"/>
</div>
<div class="bottom-arrow-btn">
<div class="arrow-img">
<img alt="" src="/-/media/Acura/pc/Home/BrandWorld/bottom-arrow.ashx?la=zh-CN&amp;hash=1F77A7A71937B7A551A8D7383968237771A08F6A"/>
</div>
<div class="arrow-btn">
                            新闻动态
                        </div>
</div>
</a>
</div>
<div class="picture-top-list picture5">
<a href="/brand/experience">
<div class="picture-list-back">
<img alt="" src="/-/media/Acura/pc/Home/BrandWorld/step3-5-1.ashx?la=zh-CN&amp;hash=6E8EEAB561F52CA6323B6D0018BB5AA9A0833710"/>
</div>
<div class="bottom-arrow-btn">
<div class="arrow-img">
<img alt="" src="/-/media/Acura/pc/Home/BrandWorld/bottom-arrow.ashx?la=zh-CN&amp;hash=1F77A7A71937B7A551A8D7383968237771A08F6A"/>
</div>
<div class="arrow-btn">
                            精·诚体验
                        </div>
</div>
</a>
</div>
</div>
</div>
</div>
<link href="/asset/Acura/js/video-js-5.20.5/video-js.css" rel="stylesheet"/>
<script src="/asset/Acura/js/video-js-5.20.5/ie8/videojs-ie8.min.js"></script>
<script src="/asset/Acura/js/video-js-5.20.5/video.min.js"></script>
<link href="/asset/Acura/index/images/pup-video.css" rel="stylesheet"/>
<!-- PC端html -->
<div class="pup-video" id="pup-video">
<div class="video-box">
<img alt="" class="video-img-btn video-btns" data-src="/asset/Acura/cdx/landing/video/rdxlanding.mp4" src="/asset/Acura/index/images/poste-img.jpg"/>
<div class="close-btn">
<img alt="" class="img100" src="/asset/Acura/index/images/close-pup.png"/>
</div>
<div class="video-active video-js">
<video id="video-1" src=""></video>
</div>
</div>
</div>
<script>
	
       // js PC自动播放的js
$(document).ready(function() {
	var video_state = sessionStorage.getItem("videoKey");
	if(video_state != "true") {
		setTimeout(function() {
			sessionStorage.setItem("videoKey", "true");
			$(".pup-video").show()
			videoFun()
		}, 1000)
		// 想要几秒就 time x 1000
	} else {
		$(".pup-video").hide();
		// $("#pup-video").show()
		//     videoFun()
	}

	function videoFun() {
		var vj = "";
		// 打开视频
		var $this = $('.video-btns'),
			videoSrc = $this.data("src");

		$('.video-active').show().stop(true).animate({
			display: 'block',
			opacity: 1
		}, 500);
		var options = {
			width: "100%",
			height: "100%",
			controls: "true"
		};
		vj = videojs('video-1', options);
		vj.src(videoSrc);
		vj.play();

		// 关闭视频
		$('.close-btn').click(function() {

			$('.pup-video').stop(true).animate({
				display: 'none',
				opacity: 0
			}, 500, function() {
				$(this).hide();
			});

			videojs('video-1').pause(); // 暂停
		});
	}

})
    </script>
<!-- 尾部 -->
<style>
    /*#PageFooter a {
        color: inherit;
        text-decoration: none;
    }

    #PageFooter .bottom-top-box {
        display: flex;
        flex-direction: row;
    }

        #PageFooter .bottom-top-box .bottom-top-list {
            flex: 1;
            margin: 0 auto;
        }*/

    .content-bottom-box .bottom-top-box, .content-bottom-box .bottom-box {
        width: 1100px;
    }
</style>
<div class="content-bottom-box" id="PageFooter">
<div class="bottom-line"></div>
<div class="bottom-top-box">
<div class="bottom-top-list">
<div class="top-list header">车型</div>
<div class="top-list">
<a class="stm" href="/CDX" onclick="_gsq.push(['GWD-005756', 'trackEvent', 'click', '页脚按钮-站内链接CDX', 'pv1', 1, {}]);" title="CDX">
                        CDX
                        </a>
</div>
<div class="top-list">
<a class="stm" href="/RDX" onclick="_gsq.push(['GWD-005756', 'trackEvent', 'click', '页脚按钮-站内链接RDX', 'pv1', 1, {}]);" title="RDX">
                        RDX
                        </a>
</div>
<div class="top-list">
<a class="stm" href="/TLX_L" onclick="_gsq.push(['GWD-005756', 'trackEvent', 'click', '页脚按钮-站内链接TLX-L', 'pv1', 1, {}]);" title="TLX_L">
                        TLX-L
                        </a>
</div>
<div class="top-list">
<a class="stm" href="/NSX" onclick="_gsq.push(['GWD-005756', 'trackEvent', 'click', '页脚按钮-站内链接NSX', 'pv1', 1, {}]);" title="NSX">
                        NSX
                        </a>
</div>
<div class="top-list">
<a class="stm" href="/CDX_SPORT_HYBRID" onclick="_gsq.push(['GWD-005756', 'trackEvent', 'click', '页脚按钮-站内链接CDX SPORT HYBRID', 'pv1', 1, {}]);" title="CDX SPORT HYBRID">
                        CDX SPORT HYBRID
                        </a>
</div>
<div class="top-list">
<a class="stm" href="/MDX_SPORT_HYBRID" onclick="_gsq.push(['GWD-005756', 'trackEvent', 'click', '页脚按钮-站内链接MDX SPORT HYBRID', 'pv1', 1, {}]);" title="MDX_SPORT_HYBRID">
                        MDX SPORT HYBRID
                        </a>
</div>
</div>
<div class="bottom-top-list">
<div class="top-list header">购车指南</div>
<div class="top-list">
<a class="stm" href="/test_drive/test_drive?source=20F03C86-A907-4E4F-9D04-5A776061BFDF" onclick="_gsq.push(['GWD-005756', 'trackEvent', 'click', '页脚按钮-站内链接预约试驾', 'pv1', 1, {}]);" title="预约试驾">
                        预约试驾
                        </a>
</div>
<div class="top-list">
<a class="stm" href="/car_tools/comparison" onclick="_gsq.push(['GWD-005756', 'trackEvent', 'click', '页脚按钮-站内链接车型对比', 'pv1', 1, {}]);" title="车型对比">
                        车型对比
                        </a>
</div>
<div class="top-list">
<a class="stm" href="/dealer/dealers" onclick="_gsq.push(['GWD-005756', 'trackEvent', 'click', '页脚按钮-站内链接特约店查询', 'pv1', 1, {}]);" title="特约店查询">
                        特约店查询
                        </a>
</div>
</div>
<div class="bottom-top-list">
<div class="top-list header">关于Acura</div>
<div class="top-list">
<a class="stm" href="/brand/precision" onclick="_gsq.push(['GWD-005756', 'trackEvent', 'click', '页脚按钮-站内链接精确 不凡', 'pv1', 1, {}]);" title="精确不凡">
                        精确 不凡
                        </a>
</div>
<div class="top-list">
<a class="stm" href="/brand/history" onclick="_gsq.push(['GWD-005756', 'trackEvent', 'click', '页脚按钮-站内链接品牌历史', 'pv1', 1, {}]);" title="品牌历史">
                        品牌历史
                        </a>
</div>
<div class="top-list">
<a class="stm" href="/Technology/Technology" onclick="_gsq.push(['GWD-005756', 'trackEvent', 'click', '页脚按钮-站内链接核心技术', 'pv1', 1, {}]);" title="核心技术">
                        核心技术
                        </a>
</div>
</div>
<div class="bottom-top-list">
<div class="top-list header">客户服务</div>
<div class="top-list">
<a class="stm" href="/brand/experience" onclick="_gsq.push(['GWD-005756', 'trackEvent', 'click', '页脚按钮-站内链接精·诚体验', 'pv1', 1, {}]);" title="精诚体验">
                        精·诚体验
                        </a>
</div>
<div class="top-list">
<a class="stm" href="/Financial_services/financial_product" onclick="_gsq.push(['GWD-005756', 'trackEvent', 'click', '页脚按钮-站内链接金融服务', 'pv1', 1, {}]);" title="金融方案产品">
                        金融服务
                        </a>
</div>
<div class="top-list">
<a class="stm" href="/Financial_services/financial_calculator" onclick="_gsq.push(['GWD-005756', 'trackEvent', 'click', '页脚按钮-站内链接金融计算器', 'pv1', 1, {}]);" title="金融计算器">
                        金融计算器
                        </a>
</div>
</div>
<div class="bottom-top-list">
<div class="top-list header">互动中心</div>
<div class="top-list">
<a class="stm" href="/car_download/index" onclick="_gsq.push(['GWD-005756', 'trackEvent', 'click', '页脚按钮-站内链接型录下载', 'pv1', 1, {}]);" title="型录下载">
                        型录下载
                        </a>
</div>
<div class="top-list">
<a class="stm" href="/news/index" onclick="_gsq.push(['GWD-005756', 'trackEvent', 'click', '页脚按钮-站内链接新闻中心', 'pv1', 1, {}]);" title="新闻中心">
                        新闻中心
                        </a>
</div>
<div class="top-list">
<a class="stm" href="/brand/activity" onclick="_gsq.push(['GWD-005756', 'trackEvent', 'click', '页脚按钮-站内链接品牌活动', 'pv1', 1, {}]);" title="品牌活动">
                        品牌活动
                        </a>
</div>
</div>
</div>
<div class="bottom-line"></div>
<div class="bottom-box">
<div class="bottom-left">
<div class="bottom-list-box">
<div class="bottom-list">
<a href="/SiteMap">
                        网站地图
                        </a>
</div>
<div class="bottom-list list-border"></div>
<div class="bottom-list">
<a href="/statement">
                        网站申明
                        </a>
</div>
<div class="bottom-list list-border"></div>
<div class="bottom-list">
<a href="/join">
                        建店申请
                        </a>
</div>
<div class="bottom-list list-border"></div>
<div class="bottom-list">
<a href="/environment/environment">
                        环保信息公开
                        </a>
</div>
</div>
<div class="bottom-about">
                Copyright <sup>©</sup> 2020 广汽本田汽车销售有限公司 All Rights Reserved.  <a href="http://www.beian.miit.gov.cn">粤ICP备18107860号</a><img alt="" height="20" src="/-/media/Acura/AppSetting/gaz.ashx?la=zh-CN&amp;hash=99106A61B01AE9200C055EA68EDEE25031A01D1D" width="20"/>   <a href="http://www.beian.gov.cn/portal/registerSystemInfo?recordcode=11010502032449">京公网安备 11010502032449号</a>
</div>
</div>
<div class="bottom-right">
<div class="right-lis lis-weixin">
<img src="/asset/Acura/images/pc/wexin.png"/>
<div class="lis-hover-box">
<div class="lis-hover">
<div class="hover-left">
<img alt="" src="/-/media/Acura/AppSetting/PC-code1.ashx?la=zh-CN&amp;hash=CFD532936B1AC77270BCA16BFCBAA012E9F26FCF"/>
<div class="img-about">
                                广汽ACURA服务号
                            </div>
</div>
<div class="hover-right">
<img alt="" src="/-/media/Acura/AppSetting/PC-code2.ashx?la=zh-CN&amp;hash=74DC0953EBDFA45EE1260CD666E552DEC672F784"/>
<div class="img-about">
                                广汽ACURA
                            </div>
</div>
<div class="arrow-bottom">
</div>
</div>
</div>
</div>
<div class="right-lis">
<a href="https://weibo.com/acuradivision" target="_blank">
<img src="/asset/Acura/images/pc/weibo.png"/>
</a>
</div>
<div class="right-lis">
<img src="/asset/Acura/images/pc/phone.png"/>
</div>
</div>
</div>
</div>
</div>
</div>
<!-- 插件 -->
<script src="/asset/Acura/js/jquery.cookie.js"></script>
<script src="/asset/Acura/js/jquery.mCustomScrollbar.concat.min.js"></script>
<script src="/asset/Acura/js/jquery.placeholder.min.js"></script>
<!--[if gte IE 9]>
        <script src="/asset/Acura/js/polyfill.min.js"></script>
    <![endif]-->
<script src="/asset/Acura/script/base.js" type="text/javascript"></script>
<!--[if !IE]><!-->
<script src="/asset/Acura/js/swiper-3.4.2.jquery.min.js"></script>
<!--<![endif]-->
<!--[if IE]>
    <script type="text/javascript" src="/asset/Acura/js/idangerous.swiper.min.js"></script>
    <![endif]-->
<script src="/asset/Acura/script/main.js" type="text/javascript"></script>
<script src="/bundle/beacon"></script>
</body>
</html>