<!DOCTYPE html>
<html lang="en">
<head>
<meta charset="utf-8"/>
<meta content="width=device-width, initial-scale=1, maximum-scale=5, user-scalable=yes" name="viewport"/>
<meta content="Acura Parts Warehouse is your source for OEM Acura Parts and accessories. We sell Genuine Acura Parts at discount prices. Up to 32% OFF MSRP." data-react-helmet="true" name="description"/>
<title data-react-helmet="true">Acura Parts - Genuine OEM Acura Parts and Accessories Online</title>
<link data-react-helmet="true" href="https://www.acurapartswarehouse.com/" rel="canonical"/>
<link as="script" data-chunk="main" href="/js/manifest.js?v=2021010613" rel="preload"/>
<link as="style" data-chunk="main" href="/css/vendor.css?v=2021010613" rel="preload"/>
<link as="script" data-chunk="main" href="/js/vendor.js?v=2021010613" rel="preload"/>
<link as="style" data-chunk="main" href="/css/main.css?v=2021010613" rel="preload"/>
<link as="script" data-chunk="main" href="/js/main.js?v=2021010613" rel="preload"/>
<link as="style" data-chunk="CaliforniaHeader" href="/css/CaliforniaHeader.css?v=2021010613" rel="preload"/>
<link as="script" data-chunk="CaliforniaHeader" href="/js/CaliforniaHeader.js?v=2021010613" rel="preload"/>
<link as="script" data-chunk="pages-BaseHome" href="/js/pages-BaseHome.js?v=2021010613" rel="preload"/>
<link as="style" data-chunk="views-CalHome" href="/css/views-CalHome.css?v=2021010613" rel="preload"/>
<link as="script" data-chunk="views-CalHome" href="/js/views-CalHome.js?v=2021010613" rel="preload"/>
<link as="style" data-chunk="CaliforniaCustomersReviews" href="/css/CaliforniaCustomersReviews.css?v=2021010613" rel="preload"/>
<link as="script" data-chunk="CaliforniaCustomersReviews" href="/js/CaliforniaCustomersReviews.js?v=2021010613" rel="preload"/>
<link as="style" data-chunk="CaliforniaFooter" href="/css/CaliforniaFooter.css?v=2021010613" rel="preload"/>
<link as="script" data-chunk="CaliforniaFooter" href="/js/CaliforniaFooter.js?v=2021010613" rel="preload"/>
<link as="style" data-chunk="extraLink" href="/css/extraLink.css?v=2021010613" rel="preload"/>
<link as="script" data-chunk="extraLink" href="/js/extraLink.js?v=2021010613" rel="preload"/>
<link data-chunk="main" href="/css/vendor.css?v=2021010613" rel="stylesheet"/>
<link data-chunk="main" href="/css/main.css?v=2021010613" rel="stylesheet"/>
<link data-chunk="CaliforniaHeader" href="/css/CaliforniaHeader.css?v=2021010613" rel="stylesheet"/>
<link data-chunk="views-CalHome" href="/css/views-CalHome.css?v=2021010613" rel="stylesheet"/>
<link data-chunk="CaliforniaCustomersReviews" href="/css/CaliforniaCustomersReviews.css?v=2021010613" rel="stylesheet"/>
<link data-chunk="CaliforniaFooter" href="/css/CaliforniaFooter.css?v=2021010613" rel="stylesheet"/>
<link data-chunk="extraLink" href="/css/extraLink.css?v=2021010613" rel="stylesheet"/>
<script>
           window.API_SERVICE_URL = 'https://www.acurapartswarehouse.com';
           window.CURRENT_HOST = 'www.acurapartswarehouse.com';
           window.CURRENT_PATHNAME = '/';
           window.ASSET_WWW_URL = '/wwwasset';
           window.ASSET_COMMON_UI_URL = '/common-uiasset';
           window.ASSET_SUPPORT_WEBP = '0';
           window.CURRENT_SITE = 'APW';
           window.CURRENT_GUID = '205e9280-5685-11eb-86be-3d44ade0d601';
           window.PERFORMANCE_MIN_FID = '100';
           window.PERFORMANCE_MIN_LCP = '2500';
           window.PERFORMANCE_MIN_CLS = '0.1';
        </script>
<script data-react-helmet="true" type="application/ld+json">
             {
                "@context": "http://schema.org",
                "@type": "WebSite",
                "url": "https://www.acurapartswarehouse.com"
              }
            </script><script data-react-helmet="true" type="application/ld+json">
             {
               "@context": "http://schema.org",
               "@type": "AutoPartsStore",
               "url": "https://www.acurapartswarehouse.com",
               "name": "AcuraPartsWarehouse.com",
               "telephone": "1-888-505-1906",
               "image": "https://www.acurapartswarehouse.com/common-uiasset/images/APW/header_logo.png",
               "sameAs": ["https://www.facebook.com/acurapartswarehouse"],
               "contactPoint":
                 { "@type": "ContactPoint",
                   "telephone": "+1-888-505-1906",
                   "contactType": "customer service"
                 }
              }
          </script>
</head>
<body class="california" data-id="UA-10801806-1">
<div id="root"><div class="ab-fed-ex"><div class="ab-fed-ex-wrap"><img alt="fedex logo" class="ab-fed-ex-logo" src="/common-uiasset/images/header_large_banner.png"/><div class="ab-fed-ex-tip">International Shipping is Available at Checkout,<div><span class="ab-fed-ex-text-gray">provided by</span> FedEx CrossBorder.<!-- --> </div></div><div class="ab-fed-ex-learn-more">Learn More</div></div><div class="ab-fed-ex-close">×</div></div><header class="ab-cal-header"><div class="ab-cal-header-container container"><div class="ab-cal-header-top"><a class="ab-cal-header-logo" href="/"><img alt="AcuraPartsWarehouse.com - Genuine Acura Parts" src="/common-uiasset/images/APW/header_logo.png"/></a><div class="ab-cal-header-customer-support"><strong class="ab-cal-header-customer-title">Customer Support:</strong><span class="ab-cal-header-live-chat"><span class="ab-icon" style="width:0.24rem;min-width:0.24rem;max-width:0.24rem;height:0.24rem;min-height:0.24rem;max-height:0.24rem"></span>Live Chat</span><span class="ab-cal-header-or">or</span><span class="ab-cal-header-tel"><span class="ab-icon" style="width:0.24rem;min-width:0.24rem;max-width:0.24rem;height:0.24rem;min-height:0.24rem;max-height:0.24rem"></span>1-888-505-1906</span></div></div><div class="ab-cal-header-nav"><ul class="ab-cal-header-channel-list"><li><a href="/" title="Acura Parts">Acura Parts</a></li><li><a href="/acura-accessories.html" title="Acura Accessories">Acura Accessories</a></li></ul><ul class="ab-cal-header-link-navs"><li>Login/Register</li><li>My Account</li><li>Track Order</li><li>Help Center</li></ul></div><div class="ab-cal-header-bottom"><div class="ab-cal-header-search"><input autocomplete="off" class="ab-cal-header-search-input" maxlength="250" placeholder="Search by Part Number or Keywords" title="Search by Part Number or Keywords" type="text"/><div class="ab-cal-header-search-wrap"><span class="ab-icon ab-cal-header-search-btn" style="width:0.24rem;min-width:0.24rem;max-width:0.24rem;height:0.24rem;min-height:0.24rem;max-height:0.24rem"></span></div></div><div class="ab-cal-header-cart"><div class="ab-header-cart-wrap"><span class="ab-icon" style="width:0.24rem;min-width:0.24rem;max-width:0.24rem;height:0.24rem;min-height:0.24rem;max-height:0.24rem"></span></div><strong class="ab-cal-header-cart-text">My Cart</strong></div></div></div></header><div style="min-height:5rem"><div class="container"><div class="cal-home-banner"><div class="ab-cv-c"><div class="ab-cv-c-title"><strong><h1 class="cal-home-main-title">Shop for Acura Parts</h1></strong></div><div class="ab-cv-c-content-wrap ab-loading-container"><div class="ab-skeleton ab-skeleton-active"><div class="ab-skeleton-item" style="width:auto;height:.23rem;margin:.1rem"></div><div class="ab-skeleton-item" style="width:auto;height:.23rem;margin:.1rem"></div><div class="ab-skeleton-item" style="width:auto;height:.23rem;margin:.1rem"></div><div class="ab-skeleton-item" style="width:auto;height:.23rem;margin:.1rem"></div><div class="ab-skeleton-item" style="width:auto;height:.23rem;margin:.1rem"></div></div></div></div><div class="ab-carousel ab-cal-carousel"><div class="ab-carousel-list"><div class="ab-carousel-track" style="height:2.15rem"><div class="ab-carousel-slider"><div class="ab-cal-carousel-item ab-cal-carousel-link"><img alt="Genuine Acura parts, Guaranteed low prices" src="/wwwasset/banner/APW/parts-banner-home.jpg"/></div></div><div class="ab-carousel-slider"><div class="ab-cal-carousel-item ab-cal-carousel-link"><img alt="Popular Acura accessories to meet your needs" src="/wwwasset/banner/APW/parts-banner-acc.jpg"/></div></div></div></div><div class="ab-cal-carousel-icons"><i class="ab-cal-carousel-icon ab-cal-carousel-active" data-index="1"></i><i class="ab-cal-carousel-icon" data-index="2"></i></div></div></div></div><div class="cal-home cal-home-wrap container"><aside class="cal-home-aside"><div class="home-word-side-title"><div class="home-word-side-title-text">Why choose <span class="home-word-side-title-highlight">Acura Parts Warehouse</span></div></div><ul class="home-word-side-list flex-col"><li class="home-word-side-item"><div class="home-word-side-subtitle flex-row"><span class="ab-icon" style="width:0.24rem;min-width:0.24rem;max-width:0.24rem;height:0.24rem;min-height:0.24rem;max-height:0.24rem"></span><span class="home-word-side-tip">Dedicated Service</span></div><p class="home-word-side-text">Marketed as a luxury and high-performance vehicle, Acura was first introduced in the United States in 1986. Embracing the mindset and commitment of "Precision Crafted Performance," Acura has been among the best-selling luxury marques in the US. With our experienced customer service associates, we pride ourselves on dedicated customer service via phone or online chat, and technical questions by email.</p></li><li class="home-word-side-item"><div class="home-word-side-subtitle flex-row"><span class="ab-icon" style="width:0.24rem;min-width:0.24rem;max-width:0.24rem;height:0.24rem;min-height:0.24rem;max-height:0.24rem"></span><span class="home-word-side-tip">Lowest Prices</span></div><p class="home-word-side-text">Acura features a bold sense of innovation, elegant aesthetics, and precision Japanese manufacturing. The luxury brand is backed by Honda's reputation for reliability and low cost of ownership. Acura Parts Warehouse is the right online store for you to get the genuine Acura parts and <a href="https://www.acurapartswarehouse.com/acura-accessories.html" target="blank">accessories</a> that you need. High quality parts and discounted prices come together here.</p></li><li class="home-word-side-item"><div class="home-word-side-subtitle flex-row"><span class="ab-icon" style="width:0.24rem;min-width:0.24rem;max-width:0.24rem;height:0.24rem;min-height:0.24rem;max-height:0.24rem"></span><span class="home-word-side-tip">Fast Delivery</span></div><p class="home-word-side-text">Acura utilizes science and technology to make innovation fly. Acura creates and uses advanced technology to give you a closer connection to the road. At the same time, Acura Parts Warehouse partners with national major carriers to make OEM Acura auto parts available for you in an expedited fashion.</p></li></ul></aside><article class="cal-home-article"><h2 class="cal-home-list-title">Popular Genuine Acura Parts and Accessories</h2><ul class="cal-home-list"><li class="home-part-list"><div class="home-part-head home-part-head-wrap"><a class="home-part-head-category" href="/category/acura-engine.html" title="Popular Engine Parts">Popular Engine Parts</a><a class="home-part-head-show-all" href="/category/acura-engine.html" title="Popular Engine Parts">View More &gt;</a></div><ul class="home-part-list-content"><li><a class="home-part-list-item-link" href="/oem-acura-water_pump.html" title="Water Pump"><img alt="Water Pump" class="ab-lazy-image home-part-list-img ab-lazy-image-loading ab-lazy-image-active" data-src="/resources/part-image/featured/cal/small/Default/water-pump.jpg" src="/common-uiasset/svg/empty.svg"/><p class="home-part-list-desc"><span class="ab-ellipsis" style="-webkit-line-clamp:3;max-height:0.54rem">Acura<!-- --> <!-- -->Water Pump</span></p></a></li><li><a class="home-part-list-item-link" href="/oem-acura-oil_filter.html" title="Oil Filter"><img alt="Oil Filter" class="ab-lazy-image home-part-list-img ab-lazy-image-loading ab-lazy-image-active" data-src="/resources/part-image/featured/cal/small/Default/oil-filter.jpg" src="/common-uiasset/svg/empty.svg"/><p class="home-part-list-desc"><span class="ab-ellipsis" style="-webkit-line-clamp:3;max-height:0.54rem">Acura<!-- --> <!-- -->Oil Filter</span></p></a></li><li><a class="home-part-list-item-link" href="/oem-acura-oxygen_sensor.html" title="Oxygen Sensor"><img alt="Oxygen Sensor" class="ab-lazy-image home-part-list-img ab-lazy-image-loading ab-lazy-image-active" data-src="/resources/part-image/featured/cal/small/Default/oxygen-sensor.jpg" src="/common-uiasset/svg/empty.svg"/><p class="home-part-list-desc"><span class="ab-ellipsis" style="-webkit-line-clamp:3;max-height:0.54rem">Acura<!-- --> <!-- -->Oxygen Sensor</span></p></a></li><li><a class="home-part-list-item-link" href="/oem-acura-timing_belt.html" title="Timing Belt"><img alt="Timing Belt" class="ab-lazy-image home-part-list-img ab-lazy-image-loading ab-lazy-image-active" data-src="/resources/part-image/featured/cal/small/Default/timing-belt.jpg" src="/common-uiasset/svg/empty.svg"/><p class="home-part-list-desc"><span class="ab-ellipsis" style="-webkit-line-clamp:3;max-height:0.54rem">Acura<!-- --> <!-- -->Timing Belt</span></p></a></li><li><a class="home-part-list-item-link" href="/oem-acura-valve_cover_gasket.html" title="Valve Cover Gasket"><img alt="Valve Cover Gasket" class="ab-lazy-image home-part-list-img ab-lazy-image-loading ab-lazy-image-active" data-src="/resources/part-image/featured/cal/small/Default/valve-cover-gasket.jpg" src="/common-uiasset/svg/empty.svg"/><p class="home-part-list-desc"><span class="ab-ellipsis" style="-webkit-line-clamp:3;max-height:0.54rem">Acura<!-- --> <!-- -->Valve Cover Gasket</span></p></a></li><li><a class="home-part-list-item-link" href="/oem-acura-alternator.html" title="Alternator"><img alt="Alternator" class="ab-lazy-image home-part-list-img ab-lazy-image-loading ab-lazy-image-active" data-src="/resources/part-image/featured/cal/small/Default/alternator.jpg" src="/common-uiasset/svg/empty.svg"/><p class="home-part-list-desc"><span class="ab-ellipsis" style="-webkit-line-clamp:3;max-height:0.54rem">Acura<!-- --> <!-- -->Alternator</span></p></a></li><li><a class="home-part-list-item-link" href="/oem-acura-drive_belt.html" title="Drive Belt"><img alt="Drive Belt" class="ab-lazy-image home-part-list-img ab-lazy-image-loading ab-lazy-image-active" data-src="/resources/part-image/featured/cal/small/Default/drive-belt.jpg" src="/common-uiasset/svg/empty.svg"/><p class="home-part-list-desc"><span class="ab-ellipsis" style="-webkit-line-clamp:3;max-height:0.54rem">Acura<!-- --> <!-- -->Drive Belt</span></p></a></li><li><a class="home-part-list-item-link" href="/oem-acura-ignition_coil.html" title="Ignition Coil"><img alt="Ignition Coil" class="ab-lazy-image home-part-list-img ab-lazy-image-loading ab-lazy-image-active" data-src="/resources/part-image/featured/cal/small/Default/ignition-coil.jpg" src="/common-uiasset/svg/empty.svg"/><p class="home-part-list-desc"><span class="ab-ellipsis" style="-webkit-line-clamp:3;max-height:0.54rem">Acura<!-- --> <!-- -->Ignition Coil</span></p></a></li></ul></li><li class="home-part-list"><div class="home-part-head home-part-head-wrap"><a class="home-part-head-category" href="/category/acura-electrical_exhaust_heater_fuel.html" title="Popular Electrical / Exhaust / Heater / Fuel Parts">Popular Electrical / Exhaust / Heater / Fuel Parts</a><a class="home-part-head-show-all" href="/category/acura-electrical_exhaust_heater_fuel.html" title="Popular Electrical / Exhaust / Heater / Fuel Parts">View More &gt;</a></div><ul class="home-part-list-content"><li><a class="home-part-list-item-link" href="/oem-acura-air_filter.html" title="Air Filter"><img alt="Air Filter" class="ab-lazy-image home-part-list-img ab-lazy-image-loading ab-lazy-image-active" data-src="/resources/part-image/featured/cal/small/Default/air-filter.jpg" src="/common-uiasset/svg/empty.svg"/><p class="home-part-list-desc"><span class="ab-ellipsis" style="-webkit-line-clamp:3;max-height:0.54rem">Acura<!-- --> <!-- -->Air Filter</span></p></a></li><li><a class="home-part-list-item-link" href="/oem-acura-wiper_blade.html" title="Wiper Blade"><img alt="Wiper Blade" class="ab-lazy-image home-part-list-img ab-lazy-image-loading ab-lazy-image-active" data-src="/resources/part-image/featured/cal/small/Default/wiper-blade.jpg" src="/common-uiasset/svg/empty.svg"/><p class="home-part-list-desc"><span class="ab-ellipsis" style="-webkit-line-clamp:3;max-height:0.54rem">Acura<!-- --> <!-- -->Wiper Blade</span></p></a></li><li><a class="home-part-list-item-link" href="/oem-acura-cabin_air_filter.html" title="Cabin Air Filter"><img alt="Cabin Air Filter" class="ab-lazy-image home-part-list-img ab-lazy-image-loading ab-lazy-image-active" data-src="/resources/part-image/featured/cal/small/Default/cabin-air-filter.jpg" src="/common-uiasset/svg/empty.svg"/><p class="home-part-list-desc"><span class="ab-ellipsis" style="-webkit-line-clamp:3;max-height:0.54rem">Acura<!-- --> <!-- -->Cabin Air Filter</span></p></a></li><li><a class="home-part-list-item-link" href="/oem-acura-catalytic_converter.html" title="Catalytic Converter"><img alt="Catalytic Converter" class="ab-lazy-image home-part-list-img ab-lazy-image-loading ab-lazy-image-active" data-src="/resources/part-image/featured/cal/small/Default/catalytic-converter.jpg" src="/common-uiasset/svg/empty.svg"/><p class="home-part-list-desc"><span class="ab-ellipsis" style="-webkit-line-clamp:3;max-height:0.54rem">Acura<!-- --> <!-- -->Catalytic Converter</span></p></a></li><li><a class="home-part-list-item-link" href="/oem-acura-engine_control_module.html" title="Engine Control Module"><img alt="Engine Control Module" class="ab-lazy-image home-part-list-img ab-lazy-image-loading ab-lazy-image-active" data-src="/resources/part-image/featured/cal/small/Default/engine-control-module.jpg" src="/common-uiasset/svg/empty.svg"/><p class="home-part-list-desc"><span class="ab-ellipsis" style="-webkit-line-clamp:3;max-height:0.54rem">Acura<!-- --> <!-- -->Engine Control Module</span></p></a></li><li><a class="home-part-list-item-link" href="/oem-acura-headlight.html" title="Headlight"><img alt="Headlight" class="ab-lazy-image home-part-list-img ab-lazy-image-loading ab-lazy-image-active" data-src="/resources/part-image/featured/cal/small/Default/headlight.jpg" src="/common-uiasset/svg/empty.svg"/><p class="home-part-list-desc"><span class="ab-ellipsis" style="-webkit-line-clamp:3;max-height:0.54rem">Acura<!-- --> <!-- -->Headlight</span></p></a></li><li><a class="home-part-list-item-link" href="/oem-acura-radiator.html" title="Radiator"><img alt="Radiator" class="ab-lazy-image home-part-list-img ab-lazy-image-loading ab-lazy-image-active" data-src="/resources/part-image/featured/cal/small/Default/radiator.jpg" src="/common-uiasset/svg/empty.svg"/><p class="home-part-list-desc"><span class="ab-ellipsis" style="-webkit-line-clamp:3;max-height:0.54rem">Acura<!-- --> <!-- -->Radiator</span></p></a></li><li><a class="home-part-list-item-link" href="/oem-acura-wiper_arm.html" title="Wiper Arm"><img alt="Wiper Arm" class="ab-lazy-image home-part-list-img ab-lazy-image-loading ab-lazy-image-active" data-src="/resources/part-image/featured/cal/small/Default/wiper-arm.jpg" src="/common-uiasset/svg/empty.svg"/><p class="home-part-list-desc"><span class="ab-ellipsis" style="-webkit-line-clamp:3;max-height:0.54rem">Acura<!-- --> <!-- -->Wiper Arm</span></p></a></li></ul></li><li class="home-part-list"><div class="home-part-head home-part-head-wrap"><a class="home-part-head-category" href="/category/acura-chassis.html" title="Popular Chassis Parts">Popular Chassis Parts</a><a class="home-part-head-show-all" href="/category/acura-chassis.html" title="Popular Chassis Parts">View More &gt;</a></div><ul class="home-part-list-content"><li><a class="home-part-list-item-link" href="/oem-acura-brake_pad_set.html" title="Brake Pad Set"><img alt="Brake Pad Set" class="ab-lazy-image home-part-list-img ab-lazy-image-loading ab-lazy-image-active" data-src="/resources/part-image/featured/cal/small/Default/brake-pad-set.jpg" src="/common-uiasset/svg/empty.svg"/><p class="home-part-list-desc"><span class="ab-ellipsis" style="-webkit-line-clamp:3;max-height:0.54rem">Acura<!-- --> <!-- -->Brake Pad Set</span></p></a></li><li><a class="home-part-list-item-link" href="/oem-acura-axle_shaft.html" title="Axle Shaft"><img alt="Axle Shaft" class="ab-lazy-image home-part-list-img ab-lazy-image-loading ab-lazy-image-active" data-src="/resources/part-image/featured/cal/small/Default/axle-shaft.jpg" src="/common-uiasset/svg/empty.svg"/><p class="home-part-list-desc"><span class="ab-ellipsis" style="-webkit-line-clamp:3;max-height:0.54rem">Acura<!-- --> <!-- -->Axle Shaft</span></p></a></li><li><a class="home-part-list-item-link" href="/oem-acura-control_arm.html" title="Control Arm"><img alt="Control Arm" class="ab-lazy-image home-part-list-img ab-lazy-image-loading ab-lazy-image-active" data-src="/resources/part-image/featured/cal/small/Default/control-arm.jpg" src="/common-uiasset/svg/empty.svg"/><p class="home-part-list-desc"><span class="ab-ellipsis" style="-webkit-line-clamp:3;max-height:0.54rem">Acura<!-- --> <!-- -->Control Arm</span></p></a></li><li><a class="home-part-list-item-link" href="/oem-acura-brake_disc.html" title="Brake Disc"><img alt="Brake Disc" class="ab-lazy-image home-part-list-img ab-lazy-image-loading ab-lazy-image-active" data-src="/resources/part-image/featured/cal/small/Default/brake-disc.jpg" src="/common-uiasset/svg/empty.svg"/><p class="home-part-list-desc"><span class="ab-ellipsis" style="-webkit-line-clamp:3;max-height:0.54rem">Acura<!-- --> <!-- -->Brake Disc</span></p></a></li><li><a class="home-part-list-item-link" href="/oem-acura-sway_bar_link.html" title="Sway Bar Link"><img alt="Sway Bar Link" class="ab-lazy-image home-part-list-img ab-lazy-image-loading ab-lazy-image-active" data-src="/resources/part-image/featured/cal/small/Default/sway-bar-link.jpg" src="/common-uiasset/svg/empty.svg"/><p class="home-part-list-desc"><span class="ab-ellipsis" style="-webkit-line-clamp:3;max-height:0.54rem">Acura<!-- --> <!-- -->Sway Bar Link</span></p></a></li><li><a class="home-part-list-item-link" href="/oem-acura-steering_wheel.html" title="Steering Wheel"><img alt="Steering Wheel" class="ab-lazy-image home-part-list-img ab-lazy-image-loading ab-lazy-image-active" data-src="/resources/part-image/featured/cal/small/Default/steering-wheel.jpg" src="/common-uiasset/svg/empty.svg"/><p class="home-part-list-desc"><span class="ab-ellipsis" style="-webkit-line-clamp:3;max-height:0.54rem">Acura<!-- --> <!-- -->Steering Wheel</span></p></a></li><li><a class="home-part-list-item-link" href="/oem-acura-power_steering_hose.html" title="Power Steering Hose"><img alt="Power Steering Hose" class="ab-lazy-image home-part-list-img ab-lazy-image-loading ab-lazy-image-active" data-src="/resources/part-image/featured/cal/small/Default/power-steering-hose.jpg" src="/common-uiasset/svg/empty.svg"/><p class="home-part-list-desc"><span class="ab-ellipsis" style="-webkit-line-clamp:3;max-height:0.54rem">Acura<!-- --> <!-- -->Power Steering Hose</span></p></a></li><li><a class="home-part-list-item-link" href="/oem-acura-tie_rod_end.html" title="Tie Rod End"><img alt="Tie Rod End" class="ab-lazy-image home-part-list-img ab-lazy-image-loading ab-lazy-image-active" data-src="/resources/part-image/featured/cal/small/Default/tie-rod-end.jpg" src="/common-uiasset/svg/empty.svg"/><p class="home-part-list-desc"><span class="ab-ellipsis" style="-webkit-line-clamp:3;max-height:0.54rem">Acura<!-- --> <!-- -->Tie Rod End</span></p></a></li></ul></li><li class="home-part-list"><div class="home-part-head home-part-head-wrap"><a class="home-part-head-category" href="/category/acura-interior_bumper.html" title="Popular Interior / Bumper Parts">Popular Interior / Bumper Parts</a><a class="home-part-head-show-all" href="/category/acura-interior_bumper.html" title="Popular Interior / Bumper Parts">View More &gt;</a></div><ul class="home-part-list-content"><li><a class="home-part-list-item-link" href="/oem-acura-emblem.html" title="Emblem"><img alt="Emblem" class="ab-lazy-image home-part-list-img ab-lazy-image-loading ab-lazy-image-active" data-src="/resources/part-image/featured/cal/small/Difference/acura-emblem.jpg" src="/common-uiasset/svg/empty.svg"/><p class="home-part-list-desc"><span class="ab-ellipsis" style="-webkit-line-clamp:3;max-height:0.54rem">Acura<!-- --> <!-- -->Emblem</span></p></a></li><li><a class="home-part-list-item-link" href="/oem-acura-power_window_switch.html" title="Power Window Switch"><img alt="Power Window Switch" class="ab-lazy-image home-part-list-img ab-lazy-image-loading ab-lazy-image-active" data-src="/resources/part-image/featured/cal/small/Default/power-window-switch.jpg" src="/common-uiasset/svg/empty.svg"/><p class="home-part-list-desc"><span class="ab-ellipsis" style="-webkit-line-clamp:3;max-height:0.54rem">Acura<!-- --> <!-- -->Power Window Switch</span></p></a></li><li><a class="home-part-list-item-link" href="/oem-acura-steering_column_cover.html" title="Steering Column Cover"><img alt="Steering Column Cover" class="ab-lazy-image home-part-list-img ab-lazy-image-loading ab-lazy-image-active" data-src="/resources/part-image/featured/cal/small/Default/steering-column-cover.jpg" src="/common-uiasset/svg/empty.svg"/><p class="home-part-list-desc"><span class="ab-ellipsis" style="-webkit-line-clamp:3;max-height:0.54rem">Acura<!-- --> <!-- -->Steering Column Cover</span></p></a></li><li><a class="home-part-list-item-link" href="/oem-acura-mirror_switch.html" title="Mirror Switch"><img alt="Mirror Switch" class="ab-lazy-image home-part-list-img ab-lazy-image-loading ab-lazy-image-active" data-src="/resources/part-image/featured/cal/small/Default/mirror-switch.jpg" src="/common-uiasset/svg/empty.svg"/><p class="home-part-list-desc"><span class="ab-ellipsis" style="-webkit-line-clamp:3;max-height:0.54rem">Acura<!-- --> <!-- -->Mirror Switch</span></p></a></li><li><a class="home-part-list-item-link" href="/oem-acura-seat_switch.html" title="Seat Switch"><img alt="Seat Switch" class="ab-lazy-image home-part-list-img ab-lazy-image-loading ab-lazy-image-active" data-src="/resources/part-image/featured/cal/small/Default/seat-switch.jpg" src="/common-uiasset/svg/empty.svg"/><p class="home-part-list-desc"><span class="ab-ellipsis" style="-webkit-line-clamp:3;max-height:0.54rem">Acura<!-- --> <!-- -->Seat Switch</span></p></a></li><li><a class="home-part-list-item-link" href="/oem-acura-seat_motor.html" title="Seat Motor"><img alt="Seat Motor" class="ab-lazy-image home-part-list-img ab-lazy-image-loading ab-lazy-image-active" data-src="/resources/part-image/featured/cal/small/Default/seat-motor.jpg" src="/common-uiasset/svg/empty.svg"/><p class="home-part-list-desc"><span class="ab-ellipsis" style="-webkit-line-clamp:3;max-height:0.54rem">Acura<!-- --> <!-- -->Seat Motor</span></p></a></li><li><a class="home-part-list-item-link" href="/oem-acura-armrest.html" title="Armrest"><img alt="Armrest" class="ab-lazy-image home-part-list-img ab-lazy-image-loading ab-lazy-image-active" data-src="/resources/part-image/featured/cal/small/Default/armrest.jpg" src="/common-uiasset/svg/empty.svg"/><p class="home-part-list-desc"><span class="ab-ellipsis" style="-webkit-line-clamp:3;max-height:0.54rem">Acura<!-- --> <!-- -->Armrest</span></p></a></li><li><a class="home-part-list-item-link" href="/oem-acura-bumper.html" title="Bumper"><img alt="Bumper" class="ab-lazy-image home-part-list-img ab-lazy-image-loading ab-lazy-image-active" data-src="/resources/part-image/featured/cal/small/Default/bumper.jpg" src="/common-uiasset/svg/empty.svg"/><p class="home-part-list-desc"><span class="ab-ellipsis" style="-webkit-line-clamp:3;max-height:0.54rem">Acura<!-- --> <!-- -->Bumper</span></p></a></li></ul></li><li class="home-part-list"><div class="home-part-head home-part-head-wrap"><a class="home-part-head-category" href="/category/acura-body_air_conditioning.html" title="Popular Body / Air Conditioning Parts">Popular Body / Air Conditioning Parts</a><a class="home-part-head-show-all" href="/category/acura-body_air_conditioning.html" title="Popular Body / Air Conditioning Parts">View More &gt;</a></div><ul class="home-part-list-content"><li><a class="home-part-list-item-link" href="/oem-acura-door_lock_actuator.html" title="Door Lock Actuator"><img alt="Door Lock Actuator" class="ab-lazy-image home-part-list-img ab-lazy-image-loading ab-lazy-image-active" data-src="/resources/part-image/featured/cal/small/Default/door-lock-actuator.jpg" src="/common-uiasset/svg/empty.svg"/><p class="home-part-list-desc"><span class="ab-ellipsis" style="-webkit-line-clamp:3;max-height:0.54rem">Acura<!-- --> <!-- -->Door Lock Actuator</span></p></a></li><li><a class="home-part-list-item-link" href="/oem-acura-window_regulator.html" title="Window Regulator"><img alt="Window Regulator" class="ab-lazy-image home-part-list-img ab-lazy-image-loading ab-lazy-image-active" data-src="/resources/part-image/featured/cal/small/Default/window-regulator.jpg" src="/common-uiasset/svg/empty.svg"/><p class="home-part-list-desc"><span class="ab-ellipsis" style="-webkit-line-clamp:3;max-height:0.54rem">Acura<!-- --> <!-- -->Window Regulator</span></p></a></li><li><a class="home-part-list-item-link" href="/oem-acura-door_lock_cylinder.html" title="Door Lock Cylinder"><img alt="Door Lock Cylinder" class="ab-lazy-image home-part-list-img ab-lazy-image-loading ab-lazy-image-active" data-src="/resources/part-image/featured/cal/small/Default/door-lock-cylinder.jpg" src="/common-uiasset/svg/empty.svg"/><p class="home-part-list-desc"><span class="ab-ellipsis" style="-webkit-line-clamp:3;max-height:0.54rem">Acura<!-- --> <!-- -->Door Lock Cylinder</span></p></a></li><li><a class="home-part-list-item-link" href="/oem-acura-hood_latch.html" title="Hood Latch"><img alt="Hood Latch" class="ab-lazy-image home-part-list-img ab-lazy-image-loading ab-lazy-image-active" data-src="/resources/part-image/featured/cal/small/Default/hood-latch.jpg" src="/common-uiasset/svg/empty.svg"/><p class="home-part-list-desc"><span class="ab-ellipsis" style="-webkit-line-clamp:3;max-height:0.54rem">Acura<!-- --> <!-- -->Hood Latch</span></p></a></li><li><a class="home-part-list-item-link" href="/oem-acura-tailgate_lock.html" title="Tailgate Lock"><img alt="Tailgate Lock" class="ab-lazy-image home-part-list-img ab-lazy-image-loading ab-lazy-image-active" data-src="/resources/part-image/featured/cal/small/Default/tailgate-lock.jpg" src="/common-uiasset/svg/empty.svg"/><p class="home-part-list-desc"><span class="ab-ellipsis" style="-webkit-line-clamp:3;max-height:0.54rem">Acura<!-- --> <!-- -->Tailgate Lock</span></p></a></li><li><a class="home-part-list-item-link" href="/oem-acura-tailgate_latch.html" title="Tailgate Latch"><img alt="Tailgate Latch" class="ab-lazy-image home-part-list-img ab-lazy-image-loading ab-lazy-image-active" data-src="/resources/part-image/featured/cal/small/Default/tailgate-latch.jpg" src="/common-uiasset/svg/empty.svg"/><p class="home-part-list-desc"><span class="ab-ellipsis" style="-webkit-line-clamp:3;max-height:0.54rem">Acura<!-- --> <!-- -->Tailgate Latch</span></p></a></li><li><a class="home-part-list-item-link" href="/oem-acura-a_c_clutch.html" title="A/C Clutch"><img alt="A/C Clutch" class="ab-lazy-image home-part-list-img ab-lazy-image-loading ab-lazy-image-active" data-src="/resources/part-image/featured/cal/small/Default/a-c-clutch.jpg" src="/common-uiasset/svg/empty.svg"/><p class="home-part-list-desc"><span class="ab-ellipsis" style="-webkit-line-clamp:3;max-height:0.54rem">Acura<!-- --> <!-- -->A/C Clutch</span></p></a></li><li><a class="home-part-list-item-link" href="/oem-acura-trunk_latch.html" title="Trunk Latch"><img alt="Trunk Latch" class="ab-lazy-image home-part-list-img ab-lazy-image-loading ab-lazy-image-active" data-src="/resources/part-image/featured/cal/small/Default/trunk-latch.jpg" src="/common-uiasset/svg/empty.svg"/><p class="home-part-list-desc"><span class="ab-ellipsis" style="-webkit-line-clamp:3;max-height:0.54rem">Acura<!-- --> <!-- -->Trunk Latch</span></p></a></li></ul></li><li class="home-part-list"><div class="home-part-head home-part-head-wrap"><a class="home-part-head-category" href="/category/acura-transmission.html" title="Popular Transmission Parts">Popular Transmission Parts</a><a class="home-part-head-show-all" href="/category/acura-transmission.html" title="Popular Transmission Parts">View More &gt;</a></div><ul class="home-part-list-content"><li><a class="home-part-list-item-link" href="/oem-acura-speed_sensor.html" title="Speed Sensor"><img alt="Speed Sensor" class="ab-lazy-image home-part-list-img ab-lazy-image-loading ab-lazy-image-active" data-src="/resources/part-image/featured/cal/small/Default/speed-sensor.jpg" src="/common-uiasset/svg/empty.svg"/><p class="home-part-list-desc"><span class="ab-ellipsis" style="-webkit-line-clamp:3;max-height:0.54rem">Acura<!-- --> <!-- -->Speed Sensor</span></p></a></li><li><a class="home-part-list-item-link" href="/oem-acura-differential.html" title="Differential"><img alt="Differential" class="ab-lazy-image home-part-list-img ab-lazy-image-loading ab-lazy-image-active" data-src="/resources/part-image/featured/cal/small/Default/differential.jpg" src="/common-uiasset/svg/empty.svg"/><p class="home-part-list-desc"><span class="ab-ellipsis" style="-webkit-line-clamp:3;max-height:0.54rem">Acura<!-- --> <!-- -->Differential</span></p></a></li><li><a class="home-part-list-item-link" href="/oem-acura-release_bearing.html" title="Release Bearing"><img alt="Release Bearing" class="ab-lazy-image home-part-list-img ab-lazy-image-loading ab-lazy-image-active" data-src="/resources/part-image/featured/cal/small/Default/release-bearing.jpg" src="/common-uiasset/svg/empty.svg"/><p class="home-part-list-desc"><span class="ab-ellipsis" style="-webkit-line-clamp:3;max-height:0.54rem">Acura<!-- --> <!-- -->Release Bearing</span></p></a></li><li><a class="home-part-list-item-link" href="/oem-acura-automatic_transmission_filter.html" title="Automatic Transmission Filter"><img alt="Automatic Transmission Filter" class="ab-lazy-image home-part-list-img ab-lazy-image-loading ab-lazy-image-active" data-src="/resources/part-image/featured/cal/small/Default/automatic-transmission-filter.jpg" src="/common-uiasset/svg/empty.svg"/><p class="home-part-list-desc"><span class="ab-ellipsis" style="-webkit-line-clamp:3;max-height:0.54rem">Acura<!-- --> <!-- -->Automatic Transmission Filter</span></p></a></li><li><a class="home-part-list-item-link" href="/oem-acura-bellhousing.html" title="Bellhousing"><img alt="Bellhousing" class="ab-lazy-image home-part-list-img ab-lazy-image-loading ab-lazy-image-active" data-src="/resources/part-image/featured/cal/small/Default/bellhousing.jpg" src="/common-uiasset/svg/empty.svg"/><p class="home-part-list-desc"><span class="ab-ellipsis" style="-webkit-line-clamp:3;max-height:0.54rem">Acura<!-- --> <!-- -->Bellhousing</span></p></a></li><li><a class="home-part-list-item-link" href="/oem-acura-valve_body.html" title="Valve Body"><img alt="Valve Body" class="ab-lazy-image home-part-list-img ab-lazy-image-loading ab-lazy-image-active" data-src="/resources/part-image/featured/cal/small/Default/valve-body.jpg" src="/common-uiasset/svg/empty.svg"/><p class="home-part-list-desc"><span class="ab-ellipsis" style="-webkit-line-clamp:3;max-height:0.54rem">Acura<!-- --> <!-- -->Valve Body</span></p></a></li><li><a class="home-part-list-item-link" href="/oem-acura-clutch_fork.html" title="Clutch Fork"><img alt="Clutch Fork" class="ab-lazy-image home-part-list-img ab-lazy-image-loading ab-lazy-image-active" data-src="/resources/part-image/featured/cal/small/Default/clutch-fork.jpg" src="/common-uiasset/svg/empty.svg"/><p class="home-part-list-desc"><span class="ab-ellipsis" style="-webkit-line-clamp:3;max-height:0.54rem">Acura<!-- --> <!-- -->Clutch Fork</span></p></a></li><li><a class="home-part-list-item-link" href="/oem-acura-neutral_safety_switch.html" title="Neutral Safety Switch"><img alt="Neutral Safety Switch" class="ab-lazy-image home-part-list-img ab-lazy-image-loading ab-lazy-image-active" data-src="/resources/part-image/featured/cal/small/Default/neutral-safety-switch.jpg" src="/common-uiasset/svg/empty.svg"/><p class="home-part-list-desc"><span class="ab-ellipsis" style="-webkit-line-clamp:3;max-height:0.54rem">Acura<!-- --> <!-- -->Neutral Safety Switch</span></p></a></li></ul></li><li class="home-part-list"><div class="home-part-head home-part-head-wrap"><a class="home-part-head-category" href="/accessories-category/acura-interior_accessories.html" title="Popular Interior Accessories">Popular Interior Accessories</a><a class="home-part-head-show-all" href="/accessories-category/acura-interior_accessories.html" title="Popular Interior Accessories">View More &gt;</a></div><ul class="home-part-list-content"><li><a class="home-part-list-item-link" href="/accessories/acura-steering_wheel.html" title="Steering Wheel"><img alt="Steering Wheel" class="ab-lazy-image home-part-list-img ab-lazy-image-loading ab-lazy-image-active" data-src="/resources/accessory-image/apw/small/19_accthumb_rlx_2017_rlx0017010_steeringwheelwoodgrainlook.jpg" src="/common-uiasset/svg/empty.svg"/><p class="home-part-list-desc"><span class="ab-ellipsis" style="-webkit-line-clamp:3;max-height:0.54rem">Acura<!-- --> <!-- -->Steering Wheel</span></p></a></li><li><a class="home-part-list-item-link" href="/accessories/acura-shift_knob.html" title="Shift Knob"><img alt="Shift Knob" class="ab-lazy-image home-part-list-img ab-lazy-image-loading ab-lazy-image-active" data-src="/resources/accessory-image/apw/small/08u92-stx-230b_thumb_shift_knob.jpg" src="/common-uiasset/svg/empty.svg"/><p class="home-part-list-desc"><span class="ab-ellipsis" style="-webkit-line-clamp:3;max-height:0.54rem">Acura<!-- --> <!-- -->Shift Knob</span></p></a></li><li><a class="home-part-list-item-link" href="/accessories/acura-all_season_floor_mats.html" title="All-Season Floor Mats"><img alt="All-Season Floor Mats" class="ab-lazy-image home-part-list-img ab-lazy-image-loading ab-lazy-image-active" data-src="/resources/accessory-image/apw/small/18_08p13-tx6-410a.jpg" src="/common-uiasset/svg/empty.svg"/><p class="home-part-list-desc"><span class="ab-ellipsis" style="-webkit-line-clamp:3;max-height:0.54rem">Acura<!-- --> <!-- -->All-Season Floor Mats</span></p></a></li><li><a class="home-part-list-item-link" href="/accessories/acura-cargo_cover.html" title="Cargo Cover"><img alt="Cargo Cover" class="ab-lazy-image home-part-list-img ab-lazy-image-loading ab-lazy-image-active" data-src="/resources/accessory-image/apw/small/20_2018_mdx_int_acc_cargo_cover_thumb.jpg" src="/common-uiasset/svg/empty.svg"/><p class="home-part-list-desc"><span class="ab-ellipsis" style="-webkit-line-clamp:3;max-height:0.54rem">Acura<!-- --> <!-- -->Cargo Cover</span></p></a></li><li><a class="home-part-list-item-link" href="/accessories/acura-cargo_liner.html" title="Cargo Liner"><img alt="Cargo Liner" class="ab-lazy-image home-part-list-img ab-lazy-image-loading ab-lazy-image-active" data-src="/resources/accessory-image/apw/small/20_2018_mdx_int_acc_cargo_liner_thumb.jpg" src="/common-uiasset/svg/empty.svg"/><p class="home-part-list-desc"><span class="ab-ellipsis" style="-webkit-line-clamp:3;max-height:0.54rem">Acura<!-- --> <!-- -->Cargo Liner</span></p></a></li><li><a class="home-part-list-item-link" href="/accessories/acura-cargo_tray.html" title="Cargo Tray"><img alt="Cargo Tray" class="ab-lazy-image home-part-list-img ab-lazy-image-loading ab-lazy-image-active" data-src="/resources/accessory-image/apw/small/20_2018_mdx_int_acc_cargo_tray_folding_thumb.jpg" src="/common-uiasset/svg/empty.svg"/><p class="home-part-list-desc"><span class="ab-ellipsis" style="-webkit-line-clamp:3;max-height:0.54rem">Acura<!-- --> <!-- -->Cargo Tray</span></p></a></li><li><a class="home-part-list-item-link" href="/accessories/acura-first_aid_kit.html" title="First Aid Kit"><img alt="First Aid Kit" class="ab-lazy-image home-part-list-img ab-lazy-image-loading ab-lazy-image-active" data-src="/resources/accessory-image/apw/small/20_accthumb_rdx_2020_rdx0020018_first_aid_kit.jpg" src="/common-uiasset/svg/empty.svg"/><p class="home-part-list-desc"><span class="ab-ellipsis" style="-webkit-line-clamp:3;max-height:0.54rem">Acura<!-- --> <!-- -->First Aid Kit</span></p></a></li><li><a class="home-part-list-item-link" href="/accessories/acura-cargo_mat.html" title="Cargo Mat"><img alt="Cargo Mat" class="ab-lazy-image home-part-list-img ab-lazy-image-loading ab-lazy-image-active" data-src="/resources/accessory-image/apw/small/intaccessorypic_mdx_2009_mdx0009025_cargomat.jpg" src="/common-uiasset/svg/empty.svg"/><p class="home-part-list-desc"><span class="ab-ellipsis" style="-webkit-line-clamp:3;max-height:0.54rem">Acura<!-- --> <!-- -->Cargo Mat</span></p></a></li></ul></li><li class="home-part-list"><div class="home-part-head home-part-head-wrap"><a class="home-part-head-category" href="/accessories-category/acura-exterior_accessories.html" title="Popular Exterior Accessories">Popular Exterior Accessories</a><a class="home-part-head-show-all" href="/accessories-category/acura-exterior_accessories.html" title="Popular Exterior Accessories">View More &gt;</a></div><ul class="home-part-list-content"><li><a class="home-part-list-item-link" href="/accessories/acura-touch_up_paint.html" title="Touch Up Paint"><img alt="Touch Up Paint" class="ab-lazy-image home-part-list-img ab-lazy-image-loading ab-lazy-image-active" data-src="/resources/accessory-image/apw/small/20_08703_thumb.jpg" src="/common-uiasset/svg/empty.svg"/><p class="home-part-list-desc"><span class="ab-ellipsis" style="-webkit-line-clamp:3;max-height:0.54rem">Acura<!-- --> <!-- -->Touch Up Paint</span></p></a></li><li><a class="home-part-list-item-link" href="/accessories/acura-sunshade.html" title="Sunshade"><img alt="Sunshade" class="ab-lazy-image home-part-list-img ab-lazy-image-loading ab-lazy-image-active" data-src="/resources/accessory-image/apw/small/20_accthumb_ilx_2018_ilx0018034_sunshade.jpg" src="/common-uiasset/svg/empty.svg"/><p class="home-part-list-desc"><span class="ab-ellipsis" style="-webkit-line-clamp:3;max-height:0.54rem">Acura<!-- --> <!-- -->Sunshade</span></p></a></li><li><a class="home-part-list-item-link" href="/accessories/acura-trailer_hitch.html" title="Trailer Hitch"><img alt="Trailer Hitch" class="ab-lazy-image home-part-list-img ab-lazy-image-loading ab-lazy-image-active" data-src="/resources/accessory-image/apw/small/00-trailer-hitch.jpg" src="/common-uiasset/svg/empty.svg"/><p class="home-part-list-desc"><span class="ab-ellipsis" style="-webkit-line-clamp:3;max-height:0.54rem">Acura<!-- --> <!-- -->Trailer Hitch</span></p></a></li><li><a class="home-part-list-item-link" href="/accessories/acura-car_cover.html" title="Car Cover"><img alt="Car Cover" class="ab-lazy-image home-part-list-img ab-lazy-image-loading ab-lazy-image-active" data-src="/resources/accessory-image/apw/small/19_accthumb_rlx_2017_rlx0017015_carcover.jpg" src="/common-uiasset/svg/empty.svg"/><p class="home-part-list-desc"><span class="ab-ellipsis" style="-webkit-line-clamp:3;max-height:0.54rem">Acura<!-- --> <!-- -->Car Cover</span></p></a></li><li><a class="home-part-list-item-link" href="/accessories/acura-fog_lights.html" title="Fog Lights"><img alt="Fog Lights" class="ab-lazy-image home-part-list-img ab-lazy-image-loading ab-lazy-image-active" data-src="/resources/accessory-image/apw/small/08v31-tx6-200-thumb.jpg" src="/common-uiasset/svg/empty.svg"/><p class="home-part-list-desc"><span class="ab-ellipsis" style="-webkit-line-clamp:3;max-height:0.54rem">Acura<!-- --> <!-- -->Fog Lights</span></p></a></li><li><a class="home-part-list-item-link" href="/accessories/acura-running_boards.html" title="Running Boards"><img alt="Running Boards" class="ab-lazy-image home-part-list-img ab-lazy-image-loading ab-lazy-image-active" data-src="/resources/accessory-image/apw/small/18_ext-acc-running-boards---advance-thumb.jpg" src="/common-uiasset/svg/empty.svg"/><p class="home-part-list-desc"><span class="ab-ellipsis" style="-webkit-line-clamp:3;max-height:0.54rem">Acura<!-- --> <!-- -->Running Boards</span></p></a></li><li><a class="home-part-list-item-link" href="/accessories/acura-splash_guards.html" title="Splash Guards"><img alt="Splash Guards" class="ab-lazy-image home-part-list-img ab-lazy-image-loading ab-lazy-image-active" data-src="/resources/accessory-image/apw/small/18_08p09-tx6-240a.jpg" src="/common-uiasset/svg/empty.svg"/><p class="home-part-list-desc"><span class="ab-ellipsis" style="-webkit-line-clamp:3;max-height:0.54rem">Acura<!-- --> <!-- -->Splash Guards</span></p></a></li><li><a class="home-part-list-item-link" href="/accessories/acura-body_side_molding.html" title="Body Side Molding"><img alt="Body Side Molding" class="ab-lazy-image home-part-list-img ab-lazy-image-loading ab-lazy-image-active" data-src="/resources/accessory-image/apw/small/19_accthumb_rlx_2017_rlx0017001_bodysidemolding.jpg" src="/common-uiasset/svg/empty.svg"/><p class="home-part-list-desc"><span class="ab-ellipsis" style="-webkit-line-clamp:3;max-height:0.54rem">Acura<!-- --> <!-- -->Body Side Molding</span></p></a></li></ul></li><li class="home-part-list"><div class="home-part-head home-part-head-wrap"><span class="home-part-head-category">Other Popular Acura Accessories</span></div><ul class="home-part-list-content"><li><a class="home-part-list-item-link" href="/accessories/acura-wheel_locks.html" title="Wheel Locks"><img alt="Wheel Locks" class="ab-lazy-image home-part-list-img ab-lazy-image-loading ab-lazy-image-active" data-src="/resources/accessory-image/apw/small/20_2018_mdx_ext_wheel_locks_thumb.jpg" src="/common-uiasset/svg/empty.svg"/><p class="home-part-list-desc"><span class="ab-ellipsis" style="-webkit-line-clamp:3;max-height:0.54rem">Acura<!-- --> <!-- -->Wheel Locks</span></p></a></li><li><a class="home-part-list-item-link" href="/accessories/acura-roof_rack.html" title="Roof Rack"><img alt="Roof Rack" class="ab-lazy-image home-part-list-img ab-lazy-image-loading ab-lazy-image-active" data-src="/resources/accessory-image/apw/small/extaccessorypic_rdx_2007_rdx0007004_roofrack.jpg" src="/common-uiasset/svg/empty.svg"/><p class="home-part-list-desc"><span class="ab-ellipsis" style="-webkit-line-clamp:3;max-height:0.54rem">Acura<!-- --> <!-- -->Roof Rack</span></p></a></li><li><a class="home-part-list-item-link" href="/accessories/acura-spare_tire_kit.html" title="Spare Tire Kit"><img alt="Spare Tire Kit" class="ab-lazy-image home-part-list-img ab-lazy-image-loading ab-lazy-image-active" data-src="/resources/accessory-image/apw/small/08w18-stx-201_thumb_spare_wheel.jpg" src="/common-uiasset/svg/empty.svg"/><p class="home-part-list-desc"><span class="ab-ellipsis" style="-webkit-line-clamp:3;max-height:0.54rem">Acura<!-- --> <!-- -->Spare Tire Kit</span></p></a></li><li><a class="home-part-list-item-link" href="/accessories/acura-roof_rails.html" title="Roof Rails"><img alt="Roof Rails" class="ab-lazy-image home-part-list-img ab-lazy-image-loading ab-lazy-image-active" data-src="/resources/accessory-image/apw/small/18_08l02-tx4-200a.jpg" src="/common-uiasset/svg/empty.svg"/><p class="home-part-list-desc"><span class="ab-ellipsis" style="-webkit-line-clamp:3;max-height:0.54rem">Acura<!-- --> <!-- -->Roof Rails</span></p></a></li><li><a class="home-part-list-item-link" href="/accessories/acura-alloy_wheels.html" title="Alloy Wheels"><img alt="Alloy Wheels" class="ab-lazy-image home-part-list-img ab-lazy-image-loading ab-lazy-image-active" data-src="/resources/accessory-image/apw/small/18_08w18-tz3-200a.jpg" src="/common-uiasset/svg/empty.svg"/><p class="home-part-list-desc"><span class="ab-ellipsis" style="-webkit-line-clamp:3;max-height:0.54rem">Acura<!-- --> <!-- -->Alloy Wheels</span></p></a></li><li><a class="home-part-list-item-link" href="/accessories/acura-center_cap.html" title="Center Cap"><img alt="Center Cap" class="ab-lazy-image home-part-list-img ab-lazy-image-loading ab-lazy-image-active" data-src="/resources/accessory-image/apw/small/extaccessorypic_tsx_2004_tsx0004221_chromeaemblems.jpg" src="/common-uiasset/svg/empty.svg"/><p class="home-part-list-desc"><span class="ab-ellipsis" style="-webkit-line-clamp:3;max-height:0.54rem">Acura<!-- --> <!-- -->Center Cap</span></p></a></li><li><a class="home-part-list-item-link" href="/accessories/acura-roof_box.html" title="Roof Box"><img alt="Roof Box" class="ab-lazy-image home-part-list-img ab-lazy-image-loading ab-lazy-image-active" data-src="/resources/accessory-image/apw/small/18_ext-acc-short-roof-box-thumb.jpg" src="/common-uiasset/svg/empty.svg"/><p class="home-part-list-desc"><span class="ab-ellipsis" style="-webkit-line-clamp:3;max-height:0.54rem">Acura<!-- --> <!-- -->Roof Box</span></p></a></li><li><a class="home-part-list-item-link" href="/accessories/acura-xm_radio.html" title="XM Radio"><img alt="XM Radio" class="ab-lazy-image home-part-list-img ab-lazy-image-loading ab-lazy-image-active" data-src="/resources/accessory-image/apw/small/18_08b15-tx6-200.jpg" src="/common-uiasset/svg/empty.svg"/><p class="home-part-list-desc"><span class="ab-ellipsis" style="-webkit-line-clamp:3;max-height:0.54rem">Acura<!-- --> <!-- -->XM Radio</span></p></a></li><li><a class="home-part-list-item-link" href="/accessories/acura-engine_block_heater.html" title="Engine Block Heater"><img alt="Engine Block Heater" class="ab-lazy-image home-part-list-img ab-lazy-image-loading ab-lazy-image-active" data-src="/resources/accessory-image/apw/small/08t44-sja-200-thumb.jpg" src="/common-uiasset/svg/empty.svg"/><p class="home-part-list-desc"><span class="ab-ellipsis" style="-webkit-line-clamp:3;max-height:0.54rem">Acura<!-- --> <!-- -->Engine Block Heater</span></p></a></li><li><a class="home-part-list-item-link" href="/accessories/acura-rear_view_camera.html" title="Rear View Camera"><img alt="Rear View Camera" class="ab-lazy-image home-part-list-img ab-lazy-image-loading ab-lazy-image-active" data-src="/resources/accessory-image/apw/small/extaccessorypic_rl_2006_rl00006023_rearviewcamera.jpg" src="/common-uiasset/svg/empty.svg"/><p class="home-part-list-desc"><span class="ab-ellipsis" style="-webkit-line-clamp:3;max-height:0.54rem">Acura<!-- --> <!-- -->Rear View Camera</span></p></a></li><li><a class="home-part-list-item-link" href="/accessories/acura-ski_attachment.html" title="Ski Attachment"><img alt="Ski Attachment" class="ab-lazy-image home-part-list-img ab-lazy-image-loading ab-lazy-image-active" data-src="/resources/accessory-image/apw/small/18_ext-acc-ski-attachment-thumb.jpg" src="/common-uiasset/svg/empty.svg"/><p class="home-part-list-desc"><span class="ab-ellipsis" style="-webkit-line-clamp:3;max-height:0.54rem">Acura<!-- --> <!-- -->Ski Attachment</span></p></a></li><li><a class="home-part-list-item-link" href="/accessories/acura-wiring_harness.html" title="Wiring Harness"><img alt="Wiring Harness" class="ab-lazy-image home-part-list-img ab-lazy-image-loading ab-lazy-image-active" data-src="/resources/accessory-image/apw/small/20_08a31_0f1_000_thumb.jpg" src="/common-uiasset/svg/empty.svg"/><p class="home-part-list-desc"><span class="ab-ellipsis" style="-webkit-line-clamp:3;max-height:0.54rem">Acura<!-- --> <!-- -->Wiring Harness</span></p></a></li><li><a class="home-part-list-item-link" href="/accessories/acura-atf_cooler.html" title="ATF Cooler"><img alt="ATF Cooler" class="ab-lazy-image home-part-list-img ab-lazy-image-loading ab-lazy-image-active" data-src="/resources/accessory-image/apw/small/extaccessorypic_mdx_2005_mdx0005069_trailerhitch.jpg" src="/common-uiasset/svg/empty.svg"/><p class="home-part-list-desc"><span class="ab-ellipsis" style="-webkit-line-clamp:3;max-height:0.54rem">Acura<!-- --> <!-- -->ATF Cooler</span></p></a></li><li><a class="home-part-list-item-link" href="/accessories/acura-automatic_dimming_mirror_attachment.html" title="Automatic Dimming Mirror Attachment"><img alt="Automatic Dimming Mirror Attachment" class="ab-lazy-image home-part-list-img ab-lazy-image-loading ab-lazy-image-active" data-src="/resources/accessory-image/apw/small/18_08v03-tx6-200.jpg" src="/common-uiasset/svg/empty.svg"/><p class="home-part-list-desc"><span class="ab-ellipsis" style="-webkit-line-clamp:3;max-height:0.54rem">Acura<!-- --> <!-- -->Automatic Dimming Mirror Attachment</span></p></a></li><li><a class="home-part-list-item-link" href="/accessories/acura-back_up_sensor_attachment.html" title="Back Up Sensor Attachment"><img alt="Back Up Sensor Attachment" class="ab-lazy-image home-part-list-img ab-lazy-image-loading ab-lazy-image-active" data-src="/resources/accessory-image/apw/small/08v67-tk4-200b-thumb.jpg" src="/common-uiasset/svg/empty.svg"/><p class="home-part-list-desc"><span class="ab-ellipsis" style="-webkit-line-clamp:3;max-height:0.54rem">Acura<!-- --> <!-- -->Back Up Sensor Attachment</span></p></a></li><li><a class="home-part-list-item-link" href="/accessories/acura-back_up_sensors.html" title="Back Up Sensors"><img alt="Back Up Sensors" class="ab-lazy-image home-part-list-img ab-lazy-image-loading ab-lazy-image-active" data-src="/resources/accessory-image/apw/small/20_2018_mdx_acc_back_up_sensors_thumb.jpg" src="/common-uiasset/svg/empty.svg"/><p class="home-part-list-desc"><span class="ab-ellipsis" style="-webkit-line-clamp:3;max-height:0.54rem">Acura<!-- --> <!-- -->Back Up Sensors</span></p></a></li></ul></li></ul><div class="html-show-more html-sm-text"><div class="html-show-more-content" style="height:auto;max-height:68px"><h2 class="mc_title">About Acura</h2><div class="mc_context">Acura is the luxury vehicle marque of Japanese automaker Honda. The brand was launched in the United States and Canada in March 1986, marketing luxury, performance, and high-performance vehicles. The first two vehicles Acura offered initially are the Legend, a sporty luxury sedan, and the Integra, a more economical three-door or five-door hatchback. The 1990 launch of the NSX, a mid-ship V6 powered, rear-wheel-drive sports car, offered a reliable and practical alternative to exotic European sports cars. Despite a strong start in market acceptance for the Acura brand, sales suffered in the mid-to-late 1990s. In response to that Acura started an era of drastic redesigns and the introductions of new models with RL replacing the Legend and the RSX and TSX eventually replacing the Integra. In 2001, MDX, the first crossover SUV to have a third row of seating, regained a critical success for Acura.<br/>Acura Parts Warehouse offers you a full catalog of Genuine OEM Acura parts and accessories. Find the exact parts and accessories for your Acura to maximize its performance.</div></div></div><div class="ab-link-list cal-home-link"><div class="ab-link-list-title"><h2 class="cal-home-link-title">Featured Acura Models</h2></div><div class="ab-collapse"><div class="ab-collapse-content"><div class="ab-link-list-content"><ul class="ab-link-list-column" style="min-width:calc(25% + 0.04rem);max-width:calc(25% + 0.04rem);padding-right:.16rem"><li><a href="/acura-cl-parts.html" target="_self">CL</a></li><li><a href="/acura-ilx-parts.html" target="_self">ILX</a></li><li><a href="/acura-ilx_hybrid-parts.html" target="_self">ILX Hybrid</a></li><li><a href="/acura-integra-parts.html" target="_self">Integra</a></li><li><a href="/acura-legend-parts.html" target="_self">Legend</a></li></ul><ul class="ab-link-list-column" style="min-width:calc(25% + 0.04rem);max-width:calc(25% + 0.04rem);padding-right:.16rem"><li><a href="/acura-mdx-parts.html" target="_self">MDX</a></li><li><a href="/acura-nsx-parts.html" target="_self">NSX</a></li><li><a href="/acura-rdx-parts.html" target="_self">RDX</a></li><li><a href="/acura-rl-parts.html" target="_self">RL</a></li></ul><ul class="ab-link-list-column" style="min-width:calc(25% + 0.04rem);max-width:calc(25% + 0.04rem);padding-right:.16rem"><li><a href="/acura-rlx-parts.html" target="_self">RLX</a></li><li><a href="/acura-rsx-parts.html" target="_self">RSX</a></li><li><a href="/acura-slx-parts.html" target="_self">SLX</a></li><li><a href="/acura-tl-parts.html" target="_self">TL</a></li></ul><ul class="ab-link-list-column" style="min-width:calc(25% + 0.04rem);max-width:calc(25% + 0.04rem);padding-right:.16rem"><li><a href="/acura-tlx-parts.html" target="_self">TLX</a></li><li><a href="/acura-tsx-parts.html" target="_self">TSX</a></li><li><a href="/acura-vigor-parts.html" target="_self">Vigor</a></li><li><a href="/acura-zdx-parts.html" target="_self">ZDX</a></li></ul></div></div></div></div></article></div></div><div><div class="container ab-customers-reviews-wrap"><div class="ab-customers-reviews-left"><strong class="ab-customers-reviews-left-title">Our Customers Reviews</strong><div class="ab-customers-reviews-slider-wrap"><div class="ab-skeleton ab-skeleton-active"><div class="cus-review-skeleton"><div class="ab-skeleton-item cus-review-skeleton-user"></div><div style="width:100%"><div class="ab-skeleton-item cus-review-skeleton-bar"></div><div class="ab-skeleton-item cus-review-skeleton-bar"></div><div class="ab-skeleton-item cus-review-skeleton-bar"></div></div></div></div></div><div class="ab-customers-reviews-btns"><i class="ab-customers-reviews-prev"></i><i class="ab-customers-reviews-next"></i><a class="ab-customers-reviews-read-more" href="/service/acura-customer_reviews.html">Read More &gt;</a></div></div><div class="ab-customers-reviews-right"><strong class="ab-customers-reviews-right-title">Award Winning Customer Service</strong><div class="ab-customers-reviews-img"><img alt="seal" class="ab-lazy-image ab-customers-reviews-seal ab-lazy-image-loading ab-lazy-image-active" data-src="//seals.resellerratings.com/seal.php?seller=816602" src="/common-uiasset/svg/empty.svg"/><div class="ab-bbb-logo ab-customers-reviews-bbb"><img alt="Genuine Parts Giant, Inc., New Auto Parts, South El Monte, CA" class="ab-lazy-image ab-lazy-image-loading ab-lazy-image-active" data-src="https://seal-sanjose.bbb.org/logo/ruhzbus/genuine-parts-giant-717972.png" src="/common-uiasset/svg/empty.svg"/></div></div></div></div><footer class="ab-cal-footer container"><ul class="ab-cal-footer-inner-links"><li class="ab-cal-footer-website"><strong class="ab-cal-footer-link-title">Website Info</strong><ul class="ab-cal-footer-link-content"><li>About Us</li><li><a href="/online/contact/us">Contact Us</a></li><li>Help Center</li><li>Testimonials</li></ul></li><li><strong class="ab-cal-footer-link-title">Policies</strong><ul class="ab-cal-footer-link-content"><li>Sales Policy</li><li>Acura Warranty</li><li>Return Policy</li><li>Privacy Policy</li><li>International Policy</li></ul></li><li><strong class="ab-cal-footer-link-title">Tools</strong><ul class="ab-cal-footer-link-content"><li>My Account</li><li>Track Order</li><li>Shopping Cart</li></ul></li><li><strong class="ab-cal-footer-link-title">Links</strong><ul class="ab-cal-footer-link-content"><li><a href="/acura-accessories.html">Acura<!-- --> Accessories</a></li><li><a href="/sitemap.html">Site Map</a></li></ul></li><li class="ab-cal-footer-payment-logo"><strong class="ab-cal-footer-payment-title">Payment Options</strong><div class="ab-cal-footer-payment-content"><img alt="Flexible Payment Options: PayPal, Visa, MasterCard, Discover, American Express" class="ab-lazy-image ab-cal-footer-support-payment ab-lazy-image-loading ab-lazy-image-active" data-src="/common-uiasset/images/footer_payment_options.png" src="/common-uiasset/svg/empty.svg"/><div class="ab-pp-logo ab-cal-footer-pp" id="ab-cal-footer-pp"></div><div class="ab-cal-footer-other-logo"><img alt="Sectigo - Security (SSL Certificates) Provider" class="ab-lazy-image ab-footer-comodo-img ab-lazy-image-loading ab-lazy-image-active" data-src="/common-uiasset/images/sectigo_trust_seal_md.png" src="/common-uiasset/svg/empty.svg"/><div class="ab-cal-footer-follow-us"><strong>Follow Us:</strong><img alt="Become a Fan on Facebook" class="ab-lazy-image ab-cal-footer-facebook-logo ab-lazy-image-loading ab-lazy-image-active" data-src="/common-uiasset/images/footer_facebook.png" src="/common-uiasset/svg/empty.svg"/></div></div></div></li></ul><div class="ext-link"><p class="ext-link-title">Recommended sites for genuine OEM parts with great savings:</p><ul class="ext-link-list"><li class="ext-link-content"><a href="https://www.hondapartsnow.com" rel="noopener noreferrer nofollow" target="_blank">HondaPartsNow.com</a><p class="ext-link-text">Genuine Honda Parts</p></li><li class="ext-link-content"><a href="https://www.toyotapartsdeal.com" rel="noopener noreferrer nofollow" target="_blank">ToyotaPartsDeal.com</a><p class="ext-link-text">Genuine Toyota Parts</p></li><li class="ext-link-content"><a href="https://www.lexuspartsnow.com" rel="noopener noreferrer nofollow" target="_blank">LexusPartsNow.com</a><p class="ext-link-text">Genuine Lexus Parts</p></li><li class="ext-link-content"><a href="https://www.nissanpartsdeal.com" rel="noopener noreferrer nofollow" target="_blank">NissanPartsDeal.com</a><p class="ext-link-text">Genuine Nissan Parts</p></li><li class="ext-link-content"><a href="https://www.infinitipartsdeal.com" rel="noopener noreferrer nofollow" target="_blank">InfinitiPartsDeal.com</a><p class="ext-link-text">Genuine Infiniti Parts</p></li><li class="ext-link-content"><a href="https://www.fordpartsgiant.com" rel="noopener noreferrer nofollow" target="_blank">FordPartsGiant.com</a><p class="ext-link-text">Genuine Ford Parts</p></li><li class="ext-link-content"><a href="https://www.hyundaipartsdeal.com" rel="noopener noreferrer nofollow" target="_blank">HyundaiPartsDeal.com</a><p class="ext-link-text">Genuine Hyundai Parts</p></li><li class="ext-link-content"><a href="https://www.kiapartsnow.com" rel="noopener noreferrer nofollow" target="_blank">KiaPartsNow.com</a><p class="ext-link-text">Genuine Kia Parts</p></li><li class="ext-link-content"><a href="https://www.moparpartsgiant.com" rel="noopener noreferrer nofollow" target="_blank">MoparPartsGiant.com</a><p class="ext-link-text">Genuine Mopar Parts</p></li><li class="ext-link-content"><a href="https://www.subarupartsdeal.com" rel="noopener noreferrer nofollow" target="_blank">SubaruPartsDeal.com</a><p class="ext-link-text">Genuine Subaru Parts</p></li></ul></div><div class="ab-cal-footer-copy-wrap"><p class="ab-cal-footer-copy">© 2006-2021, AcuraPartsWarehouse.com by Genuine Parts Giant, Inc.</p><div class="ab-cal-footer-disclaimer">This site is not owned, operated by, or affiliated with <!-- -->American Honda Motor Co.<!-- -->, Inc.<a href="/disclaimer.html" rel="noopener noreferrer nofollow" target="_blank">Disclaimer</a></div></div></footer></div></div>
<script id="initialState">
           window.__INITIAL_STORE__ = {"initApp":{"redirectUrl":"","currentSite":"APW","siteInfo":{"NavList":[{"name":"Acura Parts","href":"\u002F"},{"name":"Acura Accessories","href":"\u002Facura-accessories.html"}],"DrawerNavList":[{"name":"Acura Parts","href":"\u002F"},{"name":"Acura Accessories","href":"\u002Facura-accessories.html"}],"Brand":"Acura","Phone":"1-888-505-1906","PlanBtn":"5983bd2b","WebsiteNameLower":"acurapartswarehouse","WebsiteNameCamel":"AcuraPartsWarehouse","WebsiteNameCapital":"Acurapartswarehouse","WebsiteNameSplit":"Acura Parts Warehouse","WebsiteNameAbbr":"APW","BrandCompany":"American Honda Motor Co.","WarrantyText":"Acura Warranty","AboutUsUrl":"\u002Fservice\u002Facura-about_us.html","HelpUrl":"\u002Fservice\u002Facura-help_center.html","WarrantyUrl":"\u002Fservice\u002Facura-warranty.html","ReturnUrl":"\u002Fservice\u002Facura-return_policy.html","PrivacyUrl":"\u002Fservice\u002Facura-privacy_policy.html","VinNumberUrl":"\u002Fservice\u002Facura-vin_number.html","TermsConditionsLink":"\u002Fservice\u002Facura-terms_and_conditions.html","CustomReviewUrl":"\u002Fservice\u002Facura-customer_reviews.html","ResourceLinkUrl":"\u002Fservice\u002Facura-resources_and_links.html","InternationalUrl":"\u002Fservice\u002Facura-international_policy.html","AccHomeUrl":"\u002Facura-accessories.html","SalesUrl":"\u002Fservice\u002Facura-sales_policy.html","FacebookLink":"https:\u002F\u002Fwww.facebook.com\u002Facurapartswarehouse","ComodoUrl":"https:\u002F\u002Fwww.trustlogo.com\u002Fttb_searcher\u002Ftrustlogo?v_querytype=W&v_shortname=CL1&v_search=https:\u002F\u002Fwww.acurapartswarehouse.com&x=6&y=5","RRSellerID":816602,"PncAlias":"Ref No.","NSRecommendList":[{"name":"Keywords","desc":"Oil Filter;Brake Pad"},{"name":"PartNumber","desc":"43022-STX-A00;15400-PLM-A01"},{"name":"Vehicle","desc":"2014 Acura MDX"},{"name":"Vehicle + KeyWord","desc":"2014 Acura MDX Oil Filter"}],"MSRP":"32%","CoreUrl":"\u002Fservice\u002Facura-core_policy.html","ColorUrl":"\u002Fservice\u002Facura-color_code.html","FooterChain":["HPN","TPD","LPN","NPD","IPD","FPG","HPD","KPN","MPG","SPD"]},"cookies":{"GuidNew":"205e9280-5685-11eb-86be-3d44ade0d601"},"clientIp":"210.75.253.169","isMobile":false,"isPrime":false,"decodeInfo":{"pageType":1,"year":undefined,"isUnDecode":false},"searchInfo":{},"decodeVehicleInfo":{"redirectUrl":null,"vin":null,"vehicleId":0,"make":null,"model":null,"year":undefined,"submodel":null,"extra1":null,"extra2":null,"filter":null,"decodeType":1,"hasUserVehicle":false,"isConflict":false,"mappingSite":null},"serverMatch":{"query":{},"host":"www.acurapartswarehouse.com","origin":"http:\u002F\u002Fwww.acurapartswarehouse.com","pathname":"\u002F"},"isOutLandsIp":true,"isServerRendering":true,"matchSeoInfo":{"home":{"AccCategoryMainTitle":"${year} ${make} ${model} Accessories","AccCategoryTitle":"${make} ${model} Accessories - ${websiteNameCamel}.com","AccModelMainTitle":"Genuine ${make} ${model} Accessories","AccModelDesc":"Genuine ${make} ${model} accessories from ${websiteNameCamel}.com. Guaranteed Genuine, Best Price, Fast Delivery and Dedicated Service.","AccModelTitle":"${make} ${model} Accessories - ${websiteNameCamel}.com","AccBrandOrMakeMainTitle":"Popular Genuine ${brandOrMake} Accessories","AccBrandOrMakeDesc":"${websiteNameCamel} offers best price and fast delivery for Genuine OEM ${brandOrMake} Accessories online. Choose from our selection of interior and exterior accessories!","AccBrandOrMakeTitle":"${brandOrMake} Accessories | Best Genuine ${brandOrMake} Accessories Online","AccRelatedTitle":"Maintenance Parts","AccModelLinkTitle":"Browse by Model","AccCategoryBannerAlt":"Genuine ${brand} accessories, Guaranteed lowest prices","AccBannerAlt":"Genuine ${brandOrMakeOrModel} accessories, Guaranteed lowest prices","ModelLinkTitle":"Featured ${brandOrMake} Models","OtherAccTitle":"Other Popular ${brandOrMakeModel} Accessories","AccItemTitle":"Popular ${category} Accessories","OtherPartTitle":"Other Popular ${brandOrMakeModel} Parts","PartItemTitle":"Popular ${category} Parts","ListTopTitle":"Popular Genuine ${brandOrMakeModel} Parts and Accessories","VehicleTitle":"Shop for ${brandOrMakeModel} Parts","ModelDesc2":"${make} ${model} Parts at ${websiteNameCamel}. We will ship all Genuine OEM ${model} Parts fast.","ModelDescWithClasses":"${make} ${model} Parts at ${websiteNameCamel}. Find the right Genuine OEM ${model} (${classes}) Parts from the full catalog we offer.","ModelDesc":"${make} ${model} Parts at ${websiteNameCamel}. Find the right Genuine OEM ${model} Parts from the full catalog we offer.","ModelTitle":"${make} ${model} Parts and Accessories at ${websiteNameCamel}","MakeChevroletDesc":"Lowest-priced genuine Chevy parts with fast delivery can be found at GMPartsGiant.com. Get up to ${msrp} off MSRP on OEM Chevrolet parts.","MakeDesc":"Lowest-priced genuine ${make} parts with fast delivery can be found at ${websiteNameCamel}.com. Get up to ${msrp} off MSRP on OEM ${make} parts.","MakeTitle":"${make} Parts - Genuine ${make} Parts at ${websiteNameCamel}","HomeDesc":"${websiteNameSplit} is your source for OEM ${brand} Parts and accessories. We sell Genuine ${brand} Parts at discount prices. Up to ${msrp} OFF MSRP.","HomeTitle":"${brand} Parts - Genuine OEM ${brand} Parts and Accessories Online","AccCategoryImgAlt":"${make} ${model} ${name}","AccRelatedPdAlt":"${brandOrMakeModel} ${name}","AccImgAlt":"${brandOrMakeModel} ${name}","AccPdNoResultMainTitle":"${year} ${make} ${model} Accessories","YearLinkTitle":"Select Year for ${brandOrMakeModel} Parts","PartsListAlt":"${name}","PartsAccBannerAlt":"Popular ${brandOrMakeOrModel} accessories to meet your needs","PartsBannerAlt":"Genuine ${brandOrMakeOrModel} parts, Guaranteed low prices"}},"serverConfig":{"extraLinkFollow":false,"filterAsExtra":true,"hasPopupCart":true,"isIncludeFedEx":true,"isOpenTestimonials":true,"isRestrict":true,"isSpecialRestrict":true,"hasPQ":true,"partNoInListUseSeoPartNumber":false,"isSingleMake":true,"showMakeTabs":false,"displayChain":true},"customView":false},"userInfo":{"isLoggedIn":false,"shoppingCount":0,"clientId":""},"home":{"partList":[{"name":"Engine","url":"\u002Fcategory\u002Facura-engine.html","picList":[{"aliasName2":null,"imgPath":"\u002Fresources\u002Fpart-image\u002Ffeatured\u002Fcal\u002Fsmall\u002FDefault\u002Fwater-pump.jpg","name":"Water Pump","url":"\u002Foem-acura-water_pump.html","imgAlt":"Water Pump"},{"aliasName2":null,"imgPath":"\u002Fresources\u002Fpart-image\u002Ffeatured\u002Fcal\u002Fsmall\u002FDefault\u002Foil-filter.jpg","name":"Oil Filter","url":"\u002Foem-acura-oil_filter.html","imgAlt":"Oil Filter"},{"aliasName2":null,"imgPath":"\u002Fresources\u002Fpart-image\u002Ffeatured\u002Fcal\u002Fsmall\u002FDefault\u002Foxygen-sensor.jpg","name":"Oxygen Sensor","url":"\u002Foem-acura-oxygen_sensor.html","imgAlt":"Oxygen Sensor"},{"aliasName2":null,"imgPath":"\u002Fresources\u002Fpart-image\u002Ffeatured\u002Fcal\u002Fsmall\u002FDefault\u002Ftiming-belt.jpg","name":"Timing Belt","url":"\u002Foem-acura-timing_belt.html","imgAlt":"Timing Belt"},{"aliasName2":null,"imgPath":"\u002Fresources\u002Fpart-image\u002Ffeatured\u002Fcal\u002Fsmall\u002FDefault\u002Fvalve-cover-gasket.jpg","name":"Valve Cover Gasket","url":"\u002Foem-acura-valve_cover_gasket.html","imgAlt":"Valve Cover Gasket"},{"aliasName2":null,"imgPath":"\u002Fresources\u002Fpart-image\u002Ffeatured\u002Fcal\u002Fsmall\u002FDefault\u002Falternator.jpg","name":"Alternator","url":"\u002Foem-acura-alternator.html","imgAlt":"Alternator"},{"aliasName2":null,"imgPath":"\u002Fresources\u002Fpart-image\u002Ffeatured\u002Fcal\u002Fsmall\u002FDefault\u002Fdrive-belt.jpg","name":"Drive Belt","url":"\u002Foem-acura-drive_belt.html","imgAlt":"Drive Belt"},{"aliasName2":null,"imgPath":"\u002Fresources\u002Fpart-image\u002Ffeatured\u002Fcal\u002Fsmall\u002FDefault\u002Fignition-coil.jpg","name":"Ignition Coil","url":"\u002Foem-acura-ignition_coil.html","imgAlt":"Ignition Coil"}]},{"name":"Electrical \u002F Exhaust \u002F Heater \u002F Fuel","url":"\u002Fcategory\u002Facura-electrical_exhaust_heater_fuel.html","picList":[{"aliasName2":null,"imgPath":"\u002Fresources\u002Fpart-image\u002Ffeatured\u002Fcal\u002Fsmall\u002FDefault\u002Fair-filter.jpg","name":"Air Filter","url":"\u002Foem-acura-air_filter.html","imgAlt":"Air Filter"},{"aliasName2":null,"imgPath":"\u002Fresources\u002Fpart-image\u002Ffeatured\u002Fcal\u002Fsmall\u002FDefault\u002Fwiper-blade.jpg","name":"Wiper Blade","url":"\u002Foem-acura-wiper_blade.html","imgAlt":"Wiper Blade"},{"aliasName2":null,"imgPath":"\u002Fresources\u002Fpart-image\u002Ffeatured\u002Fcal\u002Fsmall\u002FDefault\u002Fcabin-air-filter.jpg","name":"Cabin Air Filter","url":"\u002Foem-acura-cabin_air_filter.html","imgAlt":"Cabin Air Filter"},{"aliasName2":null,"imgPath":"\u002Fresources\u002Fpart-image\u002Ffeatured\u002Fcal\u002Fsmall\u002FDefault\u002Fcatalytic-converter.jpg","name":"Catalytic Converter","url":"\u002Foem-acura-catalytic_converter.html","imgAlt":"Catalytic Converter"},{"aliasName2":null,"imgPath":"\u002Fresources\u002Fpart-image\u002Ffeatured\u002Fcal\u002Fsmall\u002FDefault\u002Fengine-control-module.jpg","name":"Engine Control Module","url":"\u002Foem-acura-engine_control_module.html","imgAlt":"Engine Control Module"},{"aliasName2":null,"imgPath":"\u002Fresources\u002Fpart-image\u002Ffeatured\u002Fcal\u002Fsmall\u002FDefault\u002Fheadlight.jpg","name":"Headlight","url":"\u002Foem-acura-headlight.html","imgAlt":"Headlight"},{"aliasName2":null,"imgPath":"\u002Fresources\u002Fpart-image\u002Ffeatured\u002Fcal\u002Fsmall\u002FDefault\u002Fradiator.jpg","name":"Radiator","url":"\u002Foem-acura-radiator.html","imgAlt":"Radiator"},{"aliasName2":null,"imgPath":"\u002Fresources\u002Fpart-image\u002Ffeatured\u002Fcal\u002Fsmall\u002FDefault\u002Fwiper-arm.jpg","name":"Wiper Arm","url":"\u002Foem-acura-wiper_arm.html","imgAlt":"Wiper Arm"}]},{"name":"Chassis","url":"\u002Fcategory\u002Facura-chassis.html","picList":[{"aliasName2":null,"imgPath":"\u002Fresources\u002Fpart-image\u002Ffeatured\u002Fcal\u002Fsmall\u002FDefault\u002Fbrake-pad-set.jpg","name":"Brake Pad Set","url":"\u002Foem-acura-brake_pad_set.html","imgAlt":"Brake Pad Set"},{"aliasName2":null,"imgPath":"\u002Fresources\u002Fpart-image\u002Ffeatured\u002Fcal\u002Fsmall\u002FDefault\u002Faxle-shaft.jpg","name":"Axle Shaft","url":"\u002Foem-acura-axle_shaft.html","imgAlt":"Axle Shaft"},{"aliasName2":null,"imgPath":"\u002Fresources\u002Fpart-image\u002Ffeatured\u002Fcal\u002Fsmall\u002FDefault\u002Fcontrol-arm.jpg","name":"Control Arm","url":"\u002Foem-acura-control_arm.html","imgAlt":"Control Arm"},{"aliasName2":null,"imgPath":"\u002Fresources\u002Fpart-image\u002Ffeatured\u002Fcal\u002Fsmall\u002FDefault\u002Fbrake-disc.jpg","name":"Brake Disc","url":"\u002Foem-acura-brake_disc.html","imgAlt":"Brake Disc"},{"aliasName2":null,"imgPath":"\u002Fresources\u002Fpart-image\u002Ffeatured\u002Fcal\u002Fsmall\u002FDefault\u002Fsway-bar-link.jpg","name":"Sway Bar Link","url":"\u002Foem-acura-sway_bar_link.html","imgAlt":"Sway Bar Link"},{"aliasName2":null,"imgPath":"\u002Fresources\u002Fpart-image\u002Ffeatured\u002Fcal\u002Fsmall\u002FDefault\u002Fsteering-wheel.jpg","name":"Steering Wheel","url":"\u002Foem-acura-steering_wheel.html","imgAlt":"Steering Wheel"},{"aliasName2":null,"imgPath":"\u002Fresources\u002Fpart-image\u002Ffeatured\u002Fcal\u002Fsmall\u002FDefault\u002Fpower-steering-hose.jpg","name":"Power Steering Hose","url":"\u002Foem-acura-power_steering_hose.html","imgAlt":"Power Steering Hose"},{"aliasName2":null,"imgPath":"\u002Fresources\u002Fpart-image\u002Ffeatured\u002Fcal\u002Fsmall\u002FDefault\u002Ftie-rod-end.jpg","name":"Tie Rod End","url":"\u002Foem-acura-tie_rod_end.html","imgAlt":"Tie Rod End"}]},{"name":"Interior \u002F Bumper","url":"\u002Fcategory\u002Facura-interior_bumper.html","picList":[{"aliasName2":null,"imgPath":"\u002Fresources\u002Fpart-image\u002Ffeatured\u002Fcal\u002Fsmall\u002FDifference\u002Facura-emblem.jpg","name":"Emblem","url":"\u002Foem-acura-emblem.html","imgAlt":"Emblem"},{"aliasName2":null,"imgPath":"\u002Fresources\u002Fpart-image\u002Ffeatured\u002Fcal\u002Fsmall\u002FDefault\u002Fpower-window-switch.jpg","name":"Power Window Switch","url":"\u002Foem-acura-power_window_switch.html","imgAlt":"Power Window Switch"},{"aliasName2":null,"imgPath":"\u002Fresources\u002Fpart-image\u002Ffeatured\u002Fcal\u002Fsmall\u002FDefault\u002Fsteering-column-cover.jpg","name":"Steering Column Cover","url":"\u002Foem-acura-steering_column_cover.html","imgAlt":"Steering Column Cover"},{"aliasName2":null,"imgPath":"\u002Fresources\u002Fpart-image\u002Ffeatured\u002Fcal\u002Fsmall\u002FDefault\u002Fmirror-switch.jpg","name":"Mirror Switch","url":"\u002Foem-acura-mirror_switch.html","imgAlt":"Mirror Switch"},{"aliasName2":null,"imgPath":"\u002Fresources\u002Fpart-image\u002Ffeatured\u002Fcal\u002Fsmall\u002FDefault\u002Fseat-switch.jpg","name":"Seat Switch","url":"\u002Foem-acura-seat_switch.html","imgAlt":"Seat Switch"},{"aliasName2":null,"imgPath":"\u002Fresources\u002Fpart-image\u002Ffeatured\u002Fcal\u002Fsmall\u002FDefault\u002Fseat-motor.jpg","name":"Seat Motor","url":"\u002Foem-acura-seat_motor.html","imgAlt":"Seat Motor"},{"aliasName2":null,"imgPath":"\u002Fresources\u002Fpart-image\u002Ffeatured\u002Fcal\u002Fsmall\u002FDefault\u002Farmrest.jpg","name":"Armrest","url":"\u002Foem-acura-armrest.html","imgAlt":"Armrest"},{"aliasName2":null,"imgPath":"\u002Fresources\u002Fpart-image\u002Ffeatured\u002Fcal\u002Fsmall\u002FDefault\u002Fbumper.jpg","name":"Bumper","url":"\u002Foem-acura-bumper.html","imgAlt":"Bumper"}]},{"name":"Body \u002F Air Conditioning","url":"\u002Fcategory\u002Facura-body_air_conditioning.html","picList":[{"aliasName2":null,"imgPath":"\u002Fresources\u002Fpart-image\u002Ffeatured\u002Fcal\u002Fsmall\u002FDefault\u002Fdoor-lock-actuator.jpg","name":"Door Lock Actuator","url":"\u002Foem-acura-door_lock_actuator.html","imgAlt":"Door Lock Actuator"},{"aliasName2":null,"imgPath":"\u002Fresources\u002Fpart-image\u002Ffeatured\u002Fcal\u002Fsmall\u002FDefault\u002Fwindow-regulator.jpg","name":"Window Regulator","url":"\u002Foem-acura-window_regulator.html","imgAlt":"Window Regulator"},{"aliasName2":null,"imgPath":"\u002Fresources\u002Fpart-image\u002Ffeatured\u002Fcal\u002Fsmall\u002FDefault\u002Fdoor-lock-cylinder.jpg","name":"Door Lock Cylinder","url":"\u002Foem-acura-door_lock_cylinder.html","imgAlt":"Door Lock Cylinder"},{"aliasName2":null,"imgPath":"\u002Fresources\u002Fpart-image\u002Ffeatured\u002Fcal\u002Fsmall\u002FDefault\u002Fhood-latch.jpg","name":"Hood Latch","url":"\u002Foem-acura-hood_latch.html","imgAlt":"Hood Latch"},{"aliasName2":null,"imgPath":"\u002Fresources\u002Fpart-image\u002Ffeatured\u002Fcal\u002Fsmall\u002FDefault\u002Ftailgate-lock.jpg","name":"Tailgate Lock","url":"\u002Foem-acura-tailgate_lock.html","imgAlt":"Tailgate Lock"},{"aliasName2":null,"imgPath":"\u002Fresources\u002Fpart-image\u002Ffeatured\u002Fcal\u002Fsmall\u002FDefault\u002Ftailgate-latch.jpg","name":"Tailgate Latch","url":"\u002Foem-acura-tailgate_latch.html","imgAlt":"Tailgate Latch"},{"aliasName2":null,"imgPath":"\u002Fresources\u002Fpart-image\u002Ffeatured\u002Fcal\u002Fsmall\u002FDefault\u002Fa-c-clutch.jpg","name":"A\u002FC Clutch","url":"\u002Foem-acura-a_c_clutch.html","imgAlt":"A\u002FC Clutch"},{"aliasName2":null,"imgPath":"\u002Fresources\u002Fpart-image\u002Ffeatured\u002Fcal\u002Fsmall\u002FDefault\u002Ftrunk-latch.jpg","name":"Trunk Latch","url":"\u002Foem-acura-trunk_latch.html","imgAlt":"Trunk Latch"}]},{"name":"Transmission","url":"\u002Fcategory\u002Facura-transmission.html","picList":[{"aliasName2":null,"imgPath":"\u002Fresources\u002Fpart-image\u002Ffeatured\u002Fcal\u002Fsmall\u002FDefault\u002Fspeed-sensor.jpg","name":"Speed Sensor","url":"\u002Foem-acura-speed_sensor.html","imgAlt":"Speed Sensor"},{"aliasName2":null,"imgPath":"\u002Fresources\u002Fpart-image\u002Ffeatured\u002Fcal\u002Fsmall\u002FDefault\u002Fdifferential.jpg","name":"Differential","url":"\u002Foem-acura-differential.html","imgAlt":"Differential"},{"aliasName2":null,"imgPath":"\u002Fresources\u002Fpart-image\u002Ffeatured\u002Fcal\u002Fsmall\u002FDefault\u002Frelease-bearing.jpg","name":"Release Bearing","url":"\u002Foem-acura-release_bearing.html","imgAlt":"Release Bearing"},{"aliasName2":null,"imgPath":"\u002Fresources\u002Fpart-image\u002Ffeatured\u002Fcal\u002Fsmall\u002FDefault\u002Fautomatic-transmission-filter.jpg","name":"Automatic Transmission Filter","url":"\u002Foem-acura-automatic_transmission_filter.html","imgAlt":"Automatic Transmission Filter"},{"aliasName2":null,"imgPath":"\u002Fresources\u002Fpart-image\u002Ffeatured\u002Fcal\u002Fsmall\u002FDefault\u002Fbellhousing.jpg","name":"Bellhousing","url":"\u002Foem-acura-bellhousing.html","imgAlt":"Bellhousing"},{"aliasName2":null,"imgPath":"\u002Fresources\u002Fpart-image\u002Ffeatured\u002Fcal\u002Fsmall\u002FDefault\u002Fvalve-body.jpg","name":"Valve Body","url":"\u002Foem-acura-valve_body.html","imgAlt":"Valve Body"},{"aliasName2":null,"imgPath":"\u002Fresources\u002Fpart-image\u002Ffeatured\u002Fcal\u002Fsmall\u002FDefault\u002Fclutch-fork.jpg","name":"Clutch Fork","url":"\u002Foem-acura-clutch_fork.html","imgAlt":"Clutch Fork"},{"aliasName2":null,"imgPath":"\u002Fresources\u002Fpart-image\u002Ffeatured\u002Fcal\u002Fsmall\u002FDefault\u002Fneutral-safety-switch.jpg","name":"Neutral Safety Switch","url":"\u002Foem-acura-neutral_safety_switch.html","imgAlt":"Neutral Safety Switch"}]}],"otherPartList":[],"accList":[{"name":"Interior Accessories","url":"\u002Faccessories-category\u002Facura-interior_accessories.html","picList":[{"aliasName2":null,"imgPath":"\u002Fresources\u002Faccessory-image\u002Fapw\u002Fsmall\u002F19_accthumb_rlx_2017_rlx0017010_steeringwheelwoodgrainlook.jpg","name":"Steering Wheel","url":"\u002Faccessories\u002Facura-steering_wheel.html","imgAlt":"Steering Wheel"},{"aliasName2":null,"imgPath":"\u002Fresources\u002Faccessory-image\u002Fapw\u002Fsmall\u002F08u92-stx-230b_thumb_shift_knob.jpg","name":"Shift Knob","url":"\u002Faccessories\u002Facura-shift_knob.html","imgAlt":"Shift Knob"},{"aliasName2":null,"imgPath":"\u002Fresources\u002Faccessory-image\u002Fapw\u002Fsmall\u002F18_08p13-tx6-410a.jpg","name":"All-Season Floor Mats","url":"\u002Faccessories\u002Facura-all_season_floor_mats.html","imgAlt":"All-Season Floor Mats"},{"aliasName2":null,"imgPath":"\u002Fresources\u002Faccessory-image\u002Fapw\u002Fsmall\u002F20_2018_mdx_int_acc_cargo_cover_thumb.jpg","name":"Cargo Cover","url":"\u002Faccessories\u002Facura-cargo_cover.html","imgAlt":"Cargo Cover"},{"aliasName2":null,"imgPath":"\u002Fresources\u002Faccessory-image\u002Fapw\u002Fsmall\u002F20_2018_mdx_int_acc_cargo_liner_thumb.jpg","name":"Cargo Liner","url":"\u002Faccessories\u002Facura-cargo_liner.html","imgAlt":"Cargo Liner"},{"aliasName2":null,"imgPath":"\u002Fresources\u002Faccessory-image\u002Fapw\u002Fsmall\u002F20_2018_mdx_int_acc_cargo_tray_folding_thumb.jpg","name":"Cargo Tray","url":"\u002Faccessories\u002Facura-cargo_tray.html","imgAlt":"Cargo Tray"},{"aliasName2":null,"imgPath":"\u002Fresources\u002Faccessory-image\u002Fapw\u002Fsmall\u002F20_accthumb_rdx_2020_rdx0020018_first_aid_kit.jpg","name":"First Aid Kit","url":"\u002Faccessories\u002Facura-first_aid_kit.html","imgAlt":"First Aid Kit"},{"aliasName2":null,"imgPath":"\u002Fresources\u002Faccessory-image\u002Fapw\u002Fsmall\u002Fintaccessorypic_mdx_2009_mdx0009025_cargomat.jpg","name":"Cargo Mat","url":"\u002Faccessories\u002Facura-cargo_mat.html","imgAlt":"Cargo Mat"}]},{"name":"Exterior Accessories","url":"\u002Faccessories-category\u002Facura-exterior_accessories.html","picList":[{"aliasName2":null,"imgPath":"\u002Fresources\u002Faccessory-image\u002Fapw\u002Fsmall\u002F20_08703_thumb.jpg","name":"Touch Up Paint","url":"\u002Faccessories\u002Facura-touch_up_paint.html","imgAlt":"Touch Up Paint"},{"aliasName2":null,"imgPath":"\u002Fresources\u002Faccessory-image\u002Fapw\u002Fsmall\u002F20_accthumb_ilx_2018_ilx0018034_sunshade.jpg","name":"Sunshade","url":"\u002Faccessories\u002Facura-sunshade.html","imgAlt":"Sunshade"},{"aliasName2":null,"imgPath":"\u002Fresources\u002Faccessory-image\u002Fapw\u002Fsmall\u002F00-trailer-hitch.jpg","name":"Trailer Hitch","url":"\u002Faccessories\u002Facura-trailer_hitch.html","imgAlt":"Trailer Hitch"},{"aliasName2":null,"imgPath":"\u002Fresources\u002Faccessory-image\u002Fapw\u002Fsmall\u002F19_accthumb_rlx_2017_rlx0017015_carcover.jpg","name":"Car Cover","url":"\u002Faccessories\u002Facura-car_cover.html","imgAlt":"Car Cover"},{"aliasName2":null,"imgPath":"\u002Fresources\u002Faccessory-image\u002Fapw\u002Fsmall\u002F08v31-tx6-200-thumb.jpg","name":"Fog Lights","url":"\u002Faccessories\u002Facura-fog_lights.html","imgAlt":"Fog Lights"},{"aliasName2":null,"imgPath":"\u002Fresources\u002Faccessory-image\u002Fapw\u002Fsmall\u002F18_ext-acc-running-boards---advance-thumb.jpg","name":"Running Boards","url":"\u002Faccessories\u002Facura-running_boards.html","imgAlt":"Running Boards"},{"aliasName2":null,"imgPath":"\u002Fresources\u002Faccessory-image\u002Fapw\u002Fsmall\u002F18_08p09-tx6-240a.jpg","name":"Splash Guards","url":"\u002Faccessories\u002Facura-splash_guards.html","imgAlt":"Splash Guards"},{"aliasName2":null,"imgPath":"\u002Fresources\u002Faccessory-image\u002Fapw\u002Fsmall\u002F19_accthumb_rlx_2017_rlx0017001_bodysidemolding.jpg","name":"Body Side Molding","url":"\u002Faccessories\u002Facura-body_side_molding.html","imgAlt":"Body Side Molding"}]}],"otherAccList":[{"name":"OtherAccessory","url":null,"picList":[{"aliasName2":null,"imgPath":"\u002Fresources\u002Faccessory-image\u002Fapw\u002Fsmall\u002F20_2018_mdx_ext_wheel_locks_thumb.jpg","name":"Wheel Locks","url":"\u002Faccessories\u002Facura-wheel_locks.html","imgAlt":"Wheel Locks"},{"aliasName2":null,"imgPath":"\u002Fresources\u002Faccessory-image\u002Fapw\u002Fsmall\u002Fextaccessorypic_rdx_2007_rdx0007004_roofrack.jpg","name":"Roof Rack","url":"\u002Faccessories\u002Facura-roof_rack.html","imgAlt":"Roof Rack"},{"aliasName2":null,"imgPath":"\u002Fresources\u002Faccessory-image\u002Fapw\u002Fsmall\u002F08w18-stx-201_thumb_spare_wheel.jpg","name":"Spare Tire Kit","url":"\u002Faccessories\u002Facura-spare_tire_kit.html","imgAlt":"Spare Tire Kit"},{"aliasName2":null,"imgPath":"\u002Fresources\u002Faccessory-image\u002Fapw\u002Fsmall\u002F18_08l02-tx4-200a.jpg","name":"Roof Rails","url":"\u002Faccessories\u002Facura-roof_rails.html","imgAlt":"Roof Rails"},{"aliasName2":null,"imgPath":"\u002Fresources\u002Faccessory-image\u002Fapw\u002Fsmall\u002F18_08w18-tz3-200a.jpg","name":"Alloy Wheels","url":"\u002Faccessories\u002Facura-alloy_wheels.html","imgAlt":"Alloy Wheels"},{"aliasName2":null,"imgPath":"\u002Fresources\u002Faccessory-image\u002Fapw\u002Fsmall\u002Fextaccessorypic_tsx_2004_tsx0004221_chromeaemblems.jpg","name":"Center Cap","url":"\u002Faccessories\u002Facura-center_cap.html","imgAlt":"Center Cap"},{"aliasName2":null,"imgPath":"\u002Fresources\u002Faccessory-image\u002Fapw\u002Fsmall\u002F18_ext-acc-short-roof-box-thumb.jpg","name":"Roof Box","url":"\u002Faccessories\u002Facura-roof_box.html","imgAlt":"Roof Box"},{"aliasName2":null,"imgPath":"\u002Fresources\u002Faccessory-image\u002Fapw\u002Fsmall\u002F18_08b15-tx6-200.jpg","name":"XM Radio","url":"\u002Faccessories\u002Facura-xm_radio.html","imgAlt":"XM Radio"},{"aliasName2":null,"imgPath":"\u002Fresources\u002Faccessory-image\u002Fapw\u002Fsmall\u002F08t44-sja-200-thumb.jpg","name":"Engine Block Heater","url":"\u002Faccessories\u002Facura-engine_block_heater.html","imgAlt":"Engine Block Heater"},{"aliasName2":null,"imgPath":"\u002Fresources\u002Faccessory-image\u002Fapw\u002Fsmall\u002Fextaccessorypic_rl_2006_rl00006023_rearviewcamera.jpg","name":"Rear View Camera","url":"\u002Faccessories\u002Facura-rear_view_camera.html","imgAlt":"Rear View Camera"},{"aliasName2":null,"imgPath":"\u002Fresources\u002Faccessory-image\u002Fapw\u002Fsmall\u002F18_ext-acc-ski-attachment-thumb.jpg","name":"Ski Attachment","url":"\u002Faccessories\u002Facura-ski_attachment.html","imgAlt":"Ski Attachment"},{"aliasName2":null,"imgPath":"\u002Fresources\u002Faccessory-image\u002Fapw\u002Fsmall\u002F20_08a31_0f1_000_thumb.jpg","name":"Wiring Harness","url":"\u002Faccessories\u002Facura-wiring_harness.html","imgAlt":"Wiring Harness"},{"aliasName2":null,"imgPath":"\u002Fresources\u002Faccessory-image\u002Fapw\u002Fsmall\u002Fextaccessorypic_mdx_2005_mdx0005069_trailerhitch.jpg","name":"ATF Cooler","url":"\u002Faccessories\u002Facura-atf_cooler.html","imgAlt":"ATF Cooler"},{"aliasName2":null,"imgPath":"\u002Fresources\u002Faccessory-image\u002Fapw\u002Fsmall\u002F18_08v03-tx6-200.jpg","name":"Automatic Dimming Mirror Attachment","url":"\u002Faccessories\u002Facura-automatic_dimming_mirror_attachment.html","imgAlt":"Automatic Dimming Mirror Attachment"},{"aliasName2":null,"imgPath":"\u002Fresources\u002Faccessory-image\u002Fapw\u002Fsmall\u002F08v67-tk4-200b-thumb.jpg","name":"Back Up Sensor Attachment","url":"\u002Faccessories\u002Facura-back_up_sensor_attachment.html","imgAlt":"Back Up Sensor Attachment"},{"aliasName2":null,"imgPath":"\u002Fresources\u002Faccessory-image\u002Fapw\u002Fsmall\u002F20_2018_mdx_acc_back_up_sensors_thumb.jpg","name":"Back Up Sensors","url":"\u002Faccessories\u002Facura-back_up_sensors.html","imgAlt":"Back Up Sensors"}]}],"showPartList":false,"showOtherPartList":false,"showAccList":false,"showOtherAccList":false,"sideTextList":[{"title":"Dedicated Service","text":"Marketed as a luxury and high-performance vehicle, Acura was first introduced in the United States in 1986. Embracing the mindset and commitment of \"Precision Crafted Performance,\" Acura has been among the best-selling luxury marques in the US. With our experienced customer service associates, we pride ourselves on dedicated customer service via phone or online chat, and technical questions by email.","seoType":"service"},{"title":"Lowest Prices","text":"Acura features a bold sense of innovation, elegant aesthetics, and precision Japanese manufacturing. The luxury brand is backed by Honda's reputation for reliability and low cost of ownership. Acura Parts Warehouse is the right online store for you to get the genuine Acura parts and \u003Ca href=\"https:\u002F\u002Fwww.acurapartswarehouse.com\u002Facura-accessories.html\" target=\"blank\"\u003Eaccessories\u003C\u002Fa\u003E that you need. High quality parts and discounted prices come together here.","seoType":"prices"},{"title":"Fast Delivery","text":"Acura utilizes science and technology to make innovation fly. Acura creates and uses advanced technology to give you a closer connection to the road. At the same time, Acura Parts Warehouse partners with national major carriers to make OEM Acura auto parts available for you in an expedited fashion.","seoType":"delivery"}],"isSpecial":false,"hasAcc":true,"linkList":[{"name":"CL","url":"\u002Facura-cl-parts.html"},{"name":"ILX","url":"\u002Facura-ilx-parts.html"},{"name":"ILX Hybrid","url":"\u002Facura-ilx_hybrid-parts.html"},{"name":"Integra","url":"\u002Facura-integra-parts.html"},{"name":"Legend","url":"\u002Facura-legend-parts.html"},{"name":"MDX","url":"\u002Facura-mdx-parts.html"},{"name":"NSX","url":"\u002Facura-nsx-parts.html"},{"name":"RDX","url":"\u002Facura-rdx-parts.html"},{"name":"RL","url":"\u002Facura-rl-parts.html"},{"name":"RLX","url":"\u002Facura-rlx-parts.html"},{"name":"RSX","url":"\u002Facura-rsx-parts.html"},{"name":"SLX","url":"\u002Facura-slx-parts.html"},{"name":"TL","url":"\u002Facura-tl-parts.html"},{"name":"TLX","url":"\u002Facura-tlx-parts.html"},{"name":"TSX","url":"\u002Facura-tsx-parts.html"},{"name":"Vigor","url":"\u002Facura-vigor-parts.html"},{"name":"ZDX","url":"\u002Facura-zdx-parts.html"}],"isShowLinkList":true,"yearLinkList":[],"isShowYearLinkList":false,"bottomText":"\u003Ch2 class=\"mc_title\"\u003EAbout Acura\u003C\u002Fh2\u003E\u003Cdiv class=\"mc_context\"\u003EAcura is the luxury vehicle marque of Japanese automaker Honda. The brand was launched in the United States and Canada in March 1986, marketing luxury, performance, and high-performance vehicles. The first two vehicles Acura offered initially are the Legend, a sporty luxury sedan, and the Integra, a more economical three-door or five-door hatchback. The 1990 launch of the NSX, a mid-ship V6 powered, rear-wheel-drive sports car, offered a reliable and practical alternative to exotic European sports cars. Despite a strong start in market acceptance for the Acura brand, sales suffered in the mid-to-late 1990s. In response to that Acura started an era of drastic redesigns and the introductions of new models with RL replacing the Legend and the RSX and TSX eventually replacing the Integra. In 2001, MDX, the first crossover SUV to have a third row of seating, regained a critical success for Acura.\u003Cbr \u002F\u003EAcura Parts Warehouse offers you a full catalog of Genuine OEM Acura parts and accessories. Find the exact parts and accessories for your Acura to maximize its performance.\u003C\u002Fdiv\u003E","isShowWordBottom":true,"classes":null}}
        </script>
<script async="" crossorigin="" src="https://www.googletagmanager.com/gtag/js?id=UA-10801806-1"></script>
<script>
          window.dataLayer = window.dataLayer || [];
          window.gtag = function(){window.dataLayer.push(arguments);}
        </script>
<script id="__LOADABLE_REQUIRED_CHUNKS__" type="application/json">[6,52,96,4,5,44]</script>
<script async="" data-chunk="main" src="/js/manifest.js?v=2021010613"></script>
<script async="" data-chunk="main" src="/js/vendor.js?v=2021010613"></script>
<script async="" data-chunk="main" src="/js/main.js?v=2021010613"></script>
<script async="" data-chunk="CaliforniaHeader" src="/js/CaliforniaHeader.js?v=2021010613"></script>
<script async="" data-chunk="pages-BaseHome" src="/js/pages-BaseHome.js?v=2021010613"></script>
<script async="" data-chunk="views-CalHome" src="/js/views-CalHome.js?v=2021010613"></script>
<script async="" data-chunk="CaliforniaCustomersReviews" src="/js/CaliforniaCustomersReviews.js?v=2021010613"></script>
<script async="" data-chunk="CaliforniaFooter" src="/js/CaliforniaFooter.js?v=2021010613"></script>
<script async="" data-chunk="extraLink" src="/js/extraLink.js?v=2021010613"></script>
</body>
</html>
