<!DOCTYPE html PUBLIC "-//W3C//DTD XHTML 1.0 Strict//EN" "http://www.w3.org/TR/xhtml1/DTD/xhtml1-strict.dtd">
<html xmlns="http://www.w3.org/1999/xhtml">
<head>
<meta content="text/html; charset=utf-8" http-equiv="Content-Type"/>
<title>IIS Windows Server</title>
<style type="text/css">
<!--
body {
	color:#000000;
	background-color:#0072C6;
	margin:0;
}

#container {
	margin-left:auto;
	margin-right:auto;
	text-align:center;
	}

a img {
	border:none;
}

-->
</style>
</head>
<body>
<div id="container">
<a href="http://go.microsoft.com/fwlink/?linkid=66138&amp;clcid=0x409"><img alt="IIS" height="600" src="iisstart.png" width="960"/></a>
</div>
</body>
</html>