<!DOCTYPE html>
<html class="no-js" lang="en-us">
<head>
<meta charset="utf-8"/>
<meta content="width=device-width, initial-scale=1.0" name="viewport"/>
<meta content="" name="description"/>
<meta content="" name="author"/>
<!--[if IE]>
        <meta http-equiv="cleartype" content="on"/>
    <![endif]-->
<!-- Touch Icons - iOS and Android -->
<link href="//d3pvk6fxma45f7.cloudfront.net/assets/media/images/apple-touch-icon-57x57.png?=2020091501" rel="apple-touch-icon" sizes="57x57"/>
<link href="//d3pvk6fxma45f7.cloudfront.net/assets/media/images/apple-touch-icon-60x60.png?=2020091501" rel="apple-touch-icon" sizes="60x60"/>
<link href="//d3pvk6fxma45f7.cloudfront.net/assets/media/images/apple-touch-icon-72x72.png?v=2020091501" rel="apple-touch-icon" sizes="72x72"/>
<link href="//d3pvk6fxma45f7.cloudfront.net/assets/media/images/apple-touch-icon-76x76.png?v=2020091501" rel="apple-touch-icon" sizes="76x76"/>
<link href="//d3pvk6fxma45f7.cloudfront.net/assets/media/images/apple-touch-icon-114x114.png?v=2020091501" rel="apple-touch-icon" sizes="114x114"/>
<link href="//d3pvk6fxma45f7.cloudfront.net/assets/media/images/apple-touch-icon-120x120.png?v=2020091501" rel="apple-touch-icon" sizes="120x120"/>
<link href="//d3pvk6fxma45f7.cloudfront.net/assets/media/images/apple-touch-icon-144x144.png?v=2020091501" rel="apple-touch-icon" sizes="144x144"/>
<link href="//d3pvk6fxma45f7.cloudfront.net/assets/media/images/apple-touch-icon-152x152.png?v=2020091501" rel="apple-touch-icon" sizes="152x152"/>
<link href="//d3pvk6fxma45f7.cloudfront.net/assets/media/images/apple-touch-icon-180x180.png?v=2020091501" rel="apple-touch-icon" sizes="180x180"/>
<link href="//d3pvk6fxma45f7.cloudfront.net/assets/media/images/apple-touch-icon-196x196.png?v=2020091501" rel="apple-touch-icon" sizes="196x196"/>
<!-- For IE 9 and below. ICO should be 32x32 pixels in size generated from http://www.xiconeditor.com/ or might not work  -->
<!--[if lte IE 9]>
    <link rel="shortcut icon" href="//d3pvk6fxma45f7.cloudfront.net/assets/media/images/favicon-32x32.ico?v=2020091501" type="image/x-icon">
    <![endif]-->
<!-- All other browsers -->
<link href="//d3pvk6fxma45f7.cloudfront.net/assets/media/images/favicon-196x196.png?v=2020091501" rel="icon" sizes="196x196" type="image/png"/>
<link href="//d3pvk6fxma45f7.cloudfront.net/assets/media/images/favicon-192x192.png?v=2020091501" rel="icon" sizes="192x192" type="image/png"/>
<link href="//d3pvk6fxma45f7.cloudfront.net/assets/media/images/favicon-160x160.png?v=2020091501" rel="icon" sizes="160x160" type="image/png"/>
<link href="//d3pvk6fxma45f7.cloudfront.net/assets/media/images/favicon-96x96.png?v=2020091501" rel="icon" sizes="96x96" type="image/png"/>
<link href="//d3pvk6fxma45f7.cloudfront.net/assets/media/images/favicon-32x32.png?v=2020091501" rel="icon" sizes="32x32" type="image/png"/>
<link href="//d3pvk6fxma45f7.cloudfront.net/assets/media/images/favicon-16x16.png?v=2020091501" rel="icon" sizes="16x16" type="image/png"/>
<!-- IE 11+ on Windows 8.1+ -->
<meta content="//d3pvk6fxma45f7.cloudfront.net/assets/media/images/mstile-144x144.png?v=2020091501" name="msapplication-TileImage"/>
<meta content="#ffffff" name="msapplication-TileColor"/>
<link href="https://fonts.googleapis.com/css?family=Just+Another+Hand" rel="stylesheet"/>
<link href="//d3pvk6fxma45f7.cloudfront.net/assets/styles/main.css?v=2020091501" rel="stylesheet"/>
<script>
        window.GLOBAL = {
            RECAPTCHA: {
                SITE_KEY: '6LfYpSAUAAAAAOBW78EuZx79m9ATjxZI_HP2z627'
            },
            GA: {
                KEY: 'UA-90563876-3',
                DISABLE_COOKIE: 'ga-disable'
            }
        };

                (function() {
            window['ga-disable-' + GLOBAL.GA.KEY] =
                document.cookie.indexOf(GLOBAL.GA.DISABLE_COOKIE + '=true') > -1;
        })();
    </script>
<script charset="UTF-8" data-domain-script="5a2a8e88-5d33-4103-a762-dca93c472769" src="https://cdn.cookielaw.org/scripttemplates/otSDKStub.js" type="text/javascript"></script>
<script type="text/javascript">
        function OptanonWrapper() { }
    </script>
<!-- Meta -->
<!-- BEGIN SEOmatic rendered SEO Meta -->
<title>Unlocking Nature. Enriching Life.  | ADM</title>
<!-- Standard SEO -->
<meta content="text/html; charset=utf-8" http-equiv="Content-Type"/>
<meta content="no-referrer-when-downgrade" name="referrer"/>
<meta content="default,global,comma-separated,keywords" name="keywords"/>
<meta content="SEOmatic" name="generator"/>
<link href="https://www.adm.com" rel="canonical"/>
<link href="https://www.adm.com" hreflang="x-default" rel="alternate"/>
<meta content="ADM" name="geo.placename"/>
<!-- Dublin Core basic info -->
<meta content="https://www.adm.com" name="dcterms.Identifier"/>
<meta content="text/html" name="dcterms.Format"/>
<meta content="ADM" name="dcterms.Relation"/>
<meta content="en" name="dcterms.Language"/>
<meta content="ADM" name="dcterms.Publisher"/>
<meta content="text/html" name="dcterms.Type"/>
<meta content="https://www.adm.com/" name="dcterms.Coverage"/>
<meta content="Copyright ©2021 ADM." name="dcterms.Rights"/>
<meta content="Unlocking Nature. Enriching Life. " name="dcterms.Title"/>
<meta content="default,global,comma-separated,keywords" name="dcterms.Subject"/>
<meta content="ADM" name="dcterms.Contributor"/>
<meta content="2021-01-12" name="dcterms.Date"/>
<meta content="" name="dcterms.Description"/>
<!-- Facebook OpenGraph -->
<meta content="website" property="og:type"/>
<meta content="en_us" property="og:locale"/>
<meta content="https://www.adm.com" property="og:url"/>
<meta content="Unlocking Nature. Enriching Life.  | ADM" property="og:title"/>
<meta content="https://assets.adm.com/adm.com/ADM-Primary-Logo-Twitter-2.png?mtime=20200106172238" property="og:image"/>
<meta content="image/png" property="og:image:type"/>
<meta content="120" property="og:image:width"/>
<meta content="153" property="og:image:height"/>
<meta content="ADM" property="og:site_name"/>
<meta content="https://twitter.com/@admupdates" property="og:see_also"/>
<meta content="https://www.linkedin.com/company/5553" property="og:see_also"/>
<meta content="https://www.youtube.com/user/adm" property="og:see_also"/>
<!-- Twitter Card -->
<meta content="summary_large_image" name="twitter:card"/>
<meta content="@admupdates" name="twitter:site"/>
<meta content="@admupdates" name="twitter:creator"/>
<meta content="Unlocking Nature. Enriching Life.  | ADM" name="twitter:title"/>
<meta content="https://assets.adm.com/adm.com/ADM-Primary-Twitter-Large-Summary-Card.png?mtime=20200106171833" name="twitter:image"/>
<!-- Humans.txt authorship http://humanstxt.org -->
<link href="/humans.txt" rel="author" type="text/plain"/>
<!-- Domain verification -->
<meta content="aptIfyzwoJyANn2LFTniVE-tkb_GB1biuuBMe2hUf4k" name="google-site-verification"/>
<!-- Identity -->
<script type="application/ld+json">
{
    "@context": "http://schema.org",
    "@type": "Corporation",
    "name": "ADM",
    "alternateName": "Archer Daniels Midland Company",
    "description": "One of the world’s largest agricultural processors and food ingredient providers, with approximately 32,000 employees serving customers in more than 160 countries. With a global value chain that includes approximately 500 crop procurement locations, 250 ingredient manufacturing facilities, 38 innovation centers and the world’s premier crop transportation network, we connect the harvest to the home, making products for food, animal feed, industrial and energy uses.",
    "url": "https://www.adm.com",
    "sameAs": ["https://twitter.com/@admupdates","https://www.linkedin.com/company/5553","https://www.youtube.com/user/adm"],
    "location": {
        "@type": "Place",
        "name": "ADM",
        "alternateName": "Archer Daniels Midland Company",
        "description": "One of the world’s largest agricultural processors and food ingredient providers, with approximately 32,000 employees serving customers in more than 160 countries. With a global value chain that includes approximately 500 crop procurement locations, 250 ingredient manufacturing facilities, 38 innovation centers and the world’s premier crop transportation network, we connect the harvest to the home, making products for food, animal feed, industrial and energy uses.",
        "url": "https://www.adm.com",
        "sameAs": ["https://twitter.com/@admupdates","https://www.linkedin.com/company/5553","https://www.youtube.com/user/adm"] 
    },
    "tickerSymbol": "ADM" 
}
</script>
<!-- WebSite -->
<script type="application/ld+json">
{
    "@context": "http://schema.org",
    "@type": "WebSite",
    "name": "ADM",
    "url": "https://www.adm.com",
    "image": "https://assets.adm.com/adm.com/_cta_1up/ADM-Primary-Logo-Twitter-2.png?mtime=20200106172238",
    "sameAs": ["https://twitter.com/@admupdates","https://www.linkedin.com/company/5553","https://www.youtube.com/user/adm"],
    "copyrightHolder": {
        "@type": "Corporation",
        "name": "ADM",
        "alternateName": "Archer Daniels Midland Company",
        "description": "One of the world’s largest agricultural processors and food ingredient providers, with approximately 32,000 employees serving customers in more than 160 countries. With a global value chain that includes approximately 500 crop procurement locations, 250 ingredient manufacturing facilities, 38 innovation centers and the world’s premier crop transportation network, we connect the harvest to the home, making products for food, animal feed, industrial and energy uses.",
        "url": "https://www.adm.com",
        "sameAs": ["https://twitter.com/@admupdates","https://www.linkedin.com/company/5553","https://www.youtube.com/user/adm"],
        "location": {
            "@type": "Place",
            "name": "ADM",
            "alternateName": "Archer Daniels Midland Company",
            "description": "One of the world’s largest agricultural processors and food ingredient providers, with approximately 32,000 employees serving customers in more than 160 countries. With a global value chain that includes approximately 500 crop procurement locations, 250 ingredient manufacturing facilities, 38 innovation centers and the world’s premier crop transportation network, we connect the harvest to the home, making products for food, animal feed, industrial and energy uses.",
            "url": "https://www.adm.com",
            "sameAs": ["https://twitter.com/@admupdates","https://www.linkedin.com/company/5553","https://www.youtube.com/user/adm"] 
        },
        "tickerSymbol": "ADM" 
    },
    "author": {
        "@type": "Corporation",
        "name": "ADM",
        "alternateName": "Archer Daniels Midland Company",
        "description": "One of the world’s largest agricultural processors and food ingredient providers, with approximately 32,000 employees serving customers in more than 160 countries. With a global value chain that includes approximately 500 crop procurement locations, 250 ingredient manufacturing facilities, 38 innovation centers and the world’s premier crop transportation network, we connect the harvest to the home, making products for food, animal feed, industrial and energy uses.",
        "url": "https://www.adm.com",
        "sameAs": ["https://twitter.com/@admupdates","https://www.linkedin.com/company/5553","https://www.youtube.com/user/adm"],
        "location": {
            "@type": "Place",
            "name": "ADM",
            "alternateName": "Archer Daniels Midland Company",
            "description": "One of the world’s largest agricultural processors and food ingredient providers, with approximately 32,000 employees serving customers in more than 160 countries. With a global value chain that includes approximately 500 crop procurement locations, 250 ingredient manufacturing facilities, 38 innovation centers and the world’s premier crop transportation network, we connect the harvest to the home, making products for food, animal feed, industrial and energy uses.",
            "url": "https://www.adm.com",
            "sameAs": ["https://twitter.com/@admupdates","https://www.linkedin.com/company/5553","https://www.youtube.com/user/adm"] 
        },
        "tickerSymbol": "ADM" 
    },
    "creator": {
        "@type": "Organization" 
    } 
}
</script>
<!-- Place -->
<script type="application/ld+json">
{
    "@context": "http://schema.org",
    "@type": "Place",
    "name": "ADM",
    "alternateName": "Archer Daniels Midland Company",
    "description": "One of the world’s largest agricultural processors and food ingredient providers, with approximately 32,000 employees serving customers in more than 160 countries. With a global value chain that includes approximately 500 crop procurement locations, 250 ingredient manufacturing facilities, 38 innovation centers and the world’s premier crop transportation network, we connect the harvest to the home, making products for food, animal feed, industrial and energy uses.",
    "url": "https://www.adm.com",
    "sameAs": ["https://twitter.com/@admupdates","https://www.linkedin.com/company/5553","https://www.youtube.com/user/adm"] 
}
</script>
<!-- Main Entity of Page -->
<!-- Breadcrumbs -->
<script type="application/ld+json">
{
    "@context": "http://schema.org",
    "@type": "BreadcrumbList",
    "itemListElement": [
        {
            "@type": "ListItem",
            "position": "1",
            "item": {
                "@id": "https://www.adm.com",
                "name": "New Homepage" 
            } 
        }
    ] 
}
</script>
<!-- Google Tag Manager -->
<script>
  dataLayer = [];
  (function(w,d,s,l,i){w[l]=w[l]||[];w[l].push({'gtm.start':
  new Date().getTime(),event:'gtm.js'});var f=d.getElementsByTagName(s)[0],
  j=d.createElement(s),dl=l!='dataLayer'?'&l='+l:'';j.async=true;j.src=
  '//www.googletagmanager.com/gtm.js?id='+i+dl;f.parentNode.insertBefore(j,f);
  })(window,document,'script','dataLayer','GTM-WCF6CRM');
</script>
<!-- Google Analytics -->
<!-- END SEOmatic rendered SEO Meta -->
<title>ADM </title>
</head>
<body>
<svg class="u-isVisuallyHidden">
<symbol id="icon_angleRight" viewbox="0 0 582 998"><title>angle-right</title>
<path d="M582 499q0 13-10 23L106 988q-10 10-23 10t-23-10l-50-50Q0 928 0 915t10-23l393-393L10 106Q0 96 0 83t10-23l50-50Q70 0 83 0t23 10l466 466q10 10 10 23z"></path>
</symbol>
<symbol id="icon_dismiss" viewbox="0 0 33.4 34.4">
<style>.st0 {fill: #908e88}</style>
<path class="st0" d="M33.4 33.4l-1 1-16.2-16.3L1 33.4l-1-1 15.3-15.3L0 1.9l1-1 15.3 15.3L32.5 0l1 1-16.3 16.2 16.2 16.2z"></path>
</symbol>
<symbol id="icon_logoMain" viewbox="0 0 107.3 137.1"><title>logo-primary</title>
<path d="M54.3 129.7c-2.7 2.3-6.2 2.5-8.9 2.5h-4.2v-23.1h3.5c2.9 0 6.8.2 9.8 3a11.4 11.4 0 0 1 3.6 8.4c0 3.4-1.2 7-3.7 9.2m1.5-23.3a21.1 21.1 0 0 0-9.6-1.9H35V137h11.1a19.8 19.8 0 0 0 9.6-1.9c5.9-3 8.5-8.9 8.5-14.7s-2.5-11.2-8.3-14M99.5 104.5h-6l-8.4 18.9-8.5-19h-6.2l-3.5 32.4h5.7l2.3-23.7 9.1 21c.3.8.8 1 1.2 1s.9-.3 1.2-1l8.5-20.7 2.3 23.6h6zM20.7 126.3h-9.1v-.3s3-6.8 4.8-11.3c1.6 4.6 4.1 11.3 4.1 11.3zm-2.5-22.2c-.4-.9-.7-1.2-1.3-1.2s-1 .3-1.4 1.2L1.1 137H7l2.4-5.6h13.2l2.2 5.6h6.4zM18.7 95c.1-1.7 1.3-6.5 3.8-13.7 4.9-13.3 15-32.8 33.7-38.8v5.3S38.1 53.5 24.3 82c-2.8 5.7-4.7 11.7-5.4 13zm25.8-4.5c19.7-4.8 23.9-27.6 23.9-46.2A142.9 142.9 0 0 0 66 18.9c-44 17-53.9 33.2-54 44.2a17.3 17.3 0 0 0 2.1 8.8h.1a21.9 21.9 0 0 1-.8-5.3c-.1-9.8 8.3-24.1 47.7-39.4a127 127 0 0 1 2.1 22.5c0 15.9-3.2 35.1-19 40.7z"></path>
<path d="M67.9 15.5c-16.8 6.4-29.5 12.8-38.8 19.3S13.9 47.9 11.2 55a22 22 0 0 0-1.5 6.5l-3.6-3C3.2 56.1 0 53.2 0 48.7s3.2-7.4 6.1-9.9L51.5 1a2.8 2.8 0 0 1 3.9-.4l.4.4 45.3 37.8c3 2.5 6.1 5.3 6.1 9.9s-3.2 7.4-6.1 9.9L55.8 96.3a2.8 2.8 0 0 1-3.9.4l-.4-.4-4.6-3.9c9.1-2.8 15.6-9.6 19.5-19.3 3-7.7 4.6-17.4 4.6-28.8a137.9 137.9 0 0 0-3-28.8M72.7 91.3h.6c.5 0 1 0 1-.6s-.4-.6-.8-.6h-.8zm.7-3a3.2 3.2 0 1 1-.1 0h.1m0 6a2.7 2.7 0 1 0-2.7-2.8 2.7 2.7 0 0 0 2.7 2.7m-1.2-4.6h1.4c.9 0 1.3.3 1.3 1.1a1 1 0 0 1-1 1l1.1 1.6h-.6l-1-1.6h-.7v1.6h-.5z"></path>
</symbol>
<symbol id="icon_magnifyingGlass" viewbox="0 0 511.9 512"><title>magnifying-glass</title>
<path d="M507.4 485.9L383 361.5a217.4 217.4 0 0 0 53.6-143.2C436.6 97.9 338.6 0 218.3 0S0 98 0 218.3s97.9 218.3 218.3 218.3A217.4 217.4 0 0 0 361.4 383l124.4 124.5a15.4 15.4 0 0 0 10.8 4.5 15 15 0 0 0 10.8-4.5 15.3 15.3 0 0 0 0-21.6zM30.5 218.3c0-103.5 84.2-187.7 187.7-187.7s187.7 84.2 187.7 187.7-84.2 187.8-187.7 187.8S30.5 321.8 30.5 218.3z" fill="#918f88"></path>
</symbol>
<symbol id="icon_play" viewbox="0 0 60 60"><title>play-button</title>
<path d="M45.56 29.17l-22-15A1 1 0 0 0 22 15v30a1 1 0 0 0 1.56.83l22-15a1 1 0 0 0 0-1.65zM24 43.11V16.89L43.22 30z"></path>
<path d="M30 0a30 30 0 1 0 30 30A30 30 0 0 0 30 0zm0 58a28 28 0 1 1 28-28 28 28 0 0 1-28 28z"></path>
</symbol>
</svg>
<div style="background-color: #ffffff">
<div class="o-container-fullwidth o-masthead-container">
<a aria-hidden="true" href="#"></a>
<a class="c-skippy" href="#mainContent">Skip to Content</a>
<div class="o-site-fullwidth ">
<div class="o-site-fullwidth-hd" role="banner">
<div class="o-masthead o-wrapper" data-view="MobileNavView">
<div class="o-masthead-inner">
<div class="o-masthead-branding">
<a href="/" title="Return to the ADM.com Home Page">
<svg viewbox="0 0 517.68 388.02" xmlns="http://www.w3.org/2000/svg" xmlns:xlink="http://www.w3.org/1999/xlink"><defs><style>.cls-1{fill:#27245f;}.cls-2{fill:url(#linear-gradient);}</style><lineargradient gradientunits="userSpaceOnUse" id="linear-gradient" x1="74.89" x2="452.17" y1="100.45" y2="100.45"><stop offset="0" stop-color="#a6ce39"></stop><stop offset="1" stop-color="#11b04b"></stop></lineargradient></defs><title>ADM Logo Primary</title><g data-name="Layer 2" id="Layer_2"><g data-name="Layer 1" id="Layer_1-2"><path class="cls-1" d="M109.61,361.9H53.17L42.68,388H0L55.87,242.45a15.54,15.54,0,0,1,14.51-10h33.4L162.31,388H119.17ZM98.88,331.12,81.39,280.75l-17,50.37ZM165,366.27V232.48H217.9c15.63,0,41.75,2.09,61.8,21.45,18.19,17.49,21.69,39.88,21.69,56.67,0,20.52-5.13,38.71-20.29,53.87C268.74,376.83,248,388,221.4,388H186.72A21.75,21.75,0,0,1,165,366.27Zm40.35-12.53h8.16c9.8,0,23.55-.93,34.05-11.19,5.13-4.9,11.89-14.69,11.89-31.95,0-14.46-4.43-26.82-12.12-34.05-9.57-8.86-22.16-9.79-32.19-9.79h-9.79ZM301.47,388l26.35-155.54H367.7l31.48,70,33.35-70h27a15.53,15.53,0,0,1,15.37,13.23L496.2,388H455.85l-11.42-89.55-35.52,64.62a11,11,0,0,1-19,0l-35-64.57L341.58,388Z"></path><path class="cls-2" d="M441.71,0H270.47c-73.2,0-135.56,33.12-161.19,100.25L75.45,188.84c-2.18,5.7,2.33,12.07,8.54,12.07H258c72.69,0,136.17-43.12,161.62-109.78l31.92-77.27C454,7.32,448.85,0,441.71,0ZM387.38,77c-20.74,54.32-72.43,89.43-131.66,89.43H138a142.23,142.23,0,0,1,107.48-48.47h23.84c19.07,0,45.7-11.14,52.68-34.54H243.67A175.61,175.61,0,0,0,140.94,116l.74-1.94C162.5,59.5,212.85,34.53,272.31,34.53H406Z"></path><path class="cls-1" d="M507.69,241.84a1.68,1.68,0,0,0-.8-1.61,3.53,3.53,0,0,0-1.56-.24h-1.64v3.74h2.16a1.8,1.8,0,0,0,1.36-.49,1.93,1.93,0,0,0,.48-1.4m.69,3.8,2.73,5a.42.42,0,0,1,0,.42.37.37,0,0,1-.36.21h-2a.37.37,0,0,1-.37-.23l-2.58-4.86h-2.07v4.66a.41.41,0,0,1-.12.31.41.41,0,0,1-.3.12h-1.79a.41.41,0,0,1-.3-.12.39.39,0,0,1-.13-.31V238a.39.39,0,0,1,.13-.31.41.41,0,0,1,.3-.12h3.92a7.57,7.57,0,0,1,2.53.32,3.48,3.48,0,0,1,1.78,1.45,4.39,4.39,0,0,1,.66,2.4,4.27,4.27,0,0,1-.57,2.2,3.55,3.55,0,0,1-1.54,1.46Zm-2.64-11a9.55,9.55,0,0,0-3.81.78,9.68,9.68,0,0,0-5.21,5.21,9.7,9.7,0,0,0,0,7.62,9.74,9.74,0,0,0,5.21,5.22,9.81,9.81,0,0,0,7.62,0,9.72,9.72,0,0,0,5.22-5.22,9.7,9.7,0,0,0,0-7.62,9.66,9.66,0,0,0-5.22-5.21A9.48,9.48,0,0,0,505.74,234.61Zm11.94,9.8a11.71,11.71,0,0,1-.95,4.64,11.67,11.67,0,0,1-6.35,6.35,11.78,11.78,0,0,1-9.27,0,11.94,11.94,0,0,1-3.81-2.54,12.19,12.19,0,0,1-2.55-3.81,11.9,11.9,0,0,1,0-9.27A12,12,0,0,1,497.3,236a11.8,11.8,0,0,1,3.81-2.55,11.9,11.9,0,0,1,9.27,0,11.73,11.73,0,0,1,6.35,6.36A11.63,11.63,0,0,1,517.68,244.41Z"></path></g></g></svg>
</a>
</div>
<div class="o-masthead-actions u-isHiddenPrint">
<div class="o-masthead-utility">
<ul class="o-hList o-hList_piped u-showAboveMedium u-showAboveMedium_flex">
<li>
<a class="c-txt c-txt_wayfinding" href="http://www.e-adm.com/" target="_blank">Customer Login</a>
</li>
<li>
<a class="c-txt c-txt_wayfinding" href="https://www.adm.com/adm-worldwide">ADM Worldwide</a>
</li>
<li>
<a class="c-txt c-txt_wayfinding" href="https://www.adm.com/contact-us">Contact Us</a>
</li>
</ul>
<div class="o-masthead-search u-showAboveSmall u-showAboveSmall_flex">
<form action="https://www.adm.com/search" class="o-form" method="get" novalidate="" role="search">
<div class="o-form-item o-form-item_grouped">
<label class="u-isVisuallyHidden">Search the Site</label>
<input class="c-field c-field_text c-field_text_grouped c-mix-field_romanPlaceholder" id="mastSearch" name="q" placeholder="Search" type="search"/>
<button class="c-field c-field_companionAction" type="submit">
<span class="u-isVisuallyHidden">Search</span>
<svg aria-labeledby=" " class="icon icon_magnifyingGlass icon_search" role="img">
<use xlink:href="#icon_magnifyingGlass"></use>
</svg>
</button>
</div>
</form>
</div>
<div aria-controls="mobileSearch" aria-expanded="false" class="o-masthead-searchTrigger u-hideAboveSmall js-mobileNavTrigger">
<button class="c-btn c-btn_cylon">
<svg aria-labeledby=" " class="icon icon_magnifyingGlass icon_lg" role="img">
<use xlink:href="#icon_magnifyingGlass"></use>
</svg>
</button>
<button class="c-btn c-btn_cylon">
<span class="c-dynamicDismissal"></span>
</button>
</div>
<div class="o-masthead-trigger u-hideAboveMedium">
<button aria-controls="mobileNav" aria-expanded="false" class="c-btn c-btn_cylon js-mobileNavTrigger">
<span class="c-dynamicBars">
<span class="u-isVisuallyHidden">Show Menu</span>
<span class="c-dynamicBars-display"></span>
</span>
</button>
</div>
</div>
<div aria-label="Main Menu" class="o-masthead-navigation u-showAboveMediumPlus" role="navigation">
<ul class="c-primaryNav js-primaryNavView" data-view="PrimaryNavView">
<li>
<a class="c-txt c-txt_primaryAction" href="https://www.adm.com/our-company">Our Company</a>
<ul class="o-vList o-vList_proximate">
<li>
<a class="c-txt c-txt_subAction c-mix-txt_blocked" href="https://www.adm.com/our-company">
<span>Overview</span>
</a>
</li>
<li>
<a class="c-txt c-txt_subAction c-mix-txt_blocked" href="https://www.adm.com/our-company/senior-leadership">
<span>Senior Leadership</span>
</a>
</li>
<li>
<a class="c-txt c-txt_subAction c-mix-txt_blocked" href="https://www.adm.com/our-company/history">
<span>History</span>
</a>
</li>
<li>
<a class="c-txt c-txt_subAction c-mix-txt_blocked" href="https://www.adm.com/our-company/adm-facts">
<span>ADM Facts</span>
</a>
</li>
<li>
<a class="c-txt c-txt_subAction c-mix-txt_blocked" href="https://www.adm.com/our-company/the-adm-way/code-of-conduct">
<span>Code of Conduct</span>
</a>
</li>
<li>
<a class="c-txt c-txt_subAction c-mix-txt_blocked" href="https://www.adm.com/our-company/procurement">
<span>Procurement</span>
</a>
</li>
<li>
<a class="c-txt c-txt_subAction c-mix-txt_blocked" href="https://www.adm.com/our-company/us-political-contributions">
<span>U.S. Political Contributions</span>
</a>
</li>
<li>
<a class="c-txt c-txt_subAction c-mix-txt_blocked" href="https://www.adm.com/our-company/associations">
<span>Associations</span>
</a>
</li>
</ul>
</li>
<li>
<a class="c-txt c-txt_primaryAction" href="https://www.adm.com/products-services">Products &amp; Services</a>
<ul class="o-vList o-vList_proximate">
<li>
<a class="c-txt c-txt_subAction c-txt_subAction_bold c-mix-txt_blocked" href="https://www.adm.com/products-services">
<span>Overview</span>
</a>
</li>
<li>
<div class="c-txt c-txt_subAction c-txt_subAction_bold">
						Industries
					</div>
<ul>
<li><a class="c-txt c-txt_subAction c-txt_subAction_secondary c-mix-txt_blocked" href="https://www.adm.com/products-services/food"><span>Food &amp; Beverage</span></a></li>
<li><a class="c-txt c-txt_subAction c-txt_subAction_secondary c-mix-txt_blocked" href="https://www.adm.com/products-services/animal-nutrition"><span>Animal Nutrition</span></a></li>
<li><a class="c-txt c-txt_subAction c-txt_subAction_secondary c-mix-txt_blocked" href="https://www.adm.com/products-services/industrials"><span>Industrials</span></a></li>
<li><a class="c-txt c-txt_subAction c-txt_subAction_secondary c-mix-txt_blocked" href="https://www.adm.com/products-services/fuel"><span>Fuel</span></a></li>
</ul>
</li>
<li>
<div class="c-txt c-txt_subAction c-txt_subAction_bold">
						Innovation
					</div>
<ul>
<li><a class="c-txt c-txt_subAction c-txt_subAction_secondary c-mix-txt_blocked" href="https://www.adm.com/products-services/sparkhub"><span>SparkHub</span></a></li>
<li><a class="c-txt c-txt_subAction c-txt_subAction_secondary c-mix-txt_blocked" href="https://www.adm.com/products-services/sparkhub/ennospark"><span>e-nnoSpark</span></a></li>
<li><a class="c-txt c-txt_subAction c-txt_subAction_secondary c-mix-txt_blocked" href="https://www.adm.com/products-services/sparkhub/innosprint-program"><span>InnoSprint</span></a></li>
</ul>
</li>
<li>
<div class="c-txt c-txt_subAction c-txt_subAction_bold">
						Services
					</div>
<ul>
<li><a class="c-txt c-txt_subAction c-txt_subAction_secondary c-mix-txt_blocked" href="https://www.adm.com/products-services/farmer-services"><span>Farmer Services</span></a></li>
<li><a class="c-txt c-txt_subAction c-txt_subAction_secondary c-mix-txt_blocked" href="https://www.adm.com/products-services/financial-services"><span>Financial Services</span></a></li>
<li><a class="c-txt c-txt_subAction c-txt_subAction_secondary c-mix-txt_blocked" href="https://www.adm.com/products-services/adm-logistics"><span>Logistics</span></a></li>
</ul>
</li>
</ul>
</li>
<li>
<a class="c-txt c-txt_primaryAction" href="https://www.adm.com/sustainability">Sustainability</a>
<ul class="o-vList o-vList_proximate">
<li>
<a class="c-txt c-txt_subAction c-mix-txt_blocked" href="https://www.adm.com/sustainability">
<span>Overview</span>
</a>
</li>
<li>
<a class="c-txt c-txt_subAction c-mix-txt_blocked" href="https://www.adm.com/sustainability/responsible-sourcing">
<span>Responsible Sourcing</span>
</a>
</li>
<li>
<a class="c-txt c-txt_subAction c-mix-txt_blocked" href="https://www.adm.com/sustainability/adm-cares">
<span>ADM Cares</span>
</a>
</li>
<li>
<a class="c-txt c-txt_subAction c-mix-txt_blocked" href="https://www.adm.com/sustainability/compliance-and-ethics">
<span>Compliance and Ethics</span>
</a>
</li>
<li>
<a class="c-txt c-txt_subAction c-mix-txt_blocked" href="https://www.adm.com/sustainability/innovating-sustainable-materials">
<span>Innovating Sustainable Materials</span>
</a>
</li>
<li>
<a class="c-txt c-txt_subAction c-mix-txt_blocked" href="https://www.adm.com/sustainability/sustainability-progress-tracker">
<span>Sustainability Progress Tracker</span>
</a>
</li>
<li>
<a class="c-txt c-txt_subAction c-mix-txt_blocked" href="https://www.adm.com/sustainability/downloads">
<span>Downloads</span>
</a>
</li>
</ul>
</li>
<li>
<a class="c-txt c-txt_primaryAction" href="https://investors.adm.com/home/default.aspx">Investors</a>
<ul class="o-vList o-vList_proximate">
<li>
<a class="c-txt c-txt_subAction c-mix-txt_blocked" href="https://investors.adm.com/home/default.aspx">
<span>Overview</span>
</a>
</li>
<li>
<a class="c-txt c-txt_subAction c-mix-txt_blocked" href="https://investors.adm.com/governance/board-of-directors/default.aspx">
<span>Governance</span>
</a>
</li>
<li>
<a class="c-txt c-txt_subAction c-mix-txt_blocked" href="https://investors.adm.com/events-and-presentations/default.aspx">
<span>Events &amp; Presentations</span>
</a>
</li>
<li>
<a class="c-txt c-txt_subAction c-mix-txt_blocked" href="https://investors.adm.com/news/default.aspx">
<span>News</span>
</a>
</li>
<li>
<a class="c-txt c-txt_subAction c-mix-txt_blocked" href="https://investors.adm.com/stock-information/default.aspx">
<span>Stock Information</span>
</a>
</li>
<li>
<a class="c-txt c-txt_subAction c-mix-txt_blocked" href="https://investors.adm.com/financials/quarterly-results/default.aspx">
<span>Financials</span>
</a>
</li>
<li>
<a class="c-txt c-txt_subAction c-mix-txt_blocked" href="https://investors.adm.com/financials/annual-reports/default.aspx">
<span>Annual Reports</span>
</a>
</li>
<li>
<a class="c-txt c-txt_subAction c-mix-txt_blocked" href="https://investors.adm.com/resources/information-request-form/default.aspx">
<span>Resources</span>
</a>
</li>
</ul>
</li>
<li>
<a class="c-txt c-txt_primaryAction" href="https://www.adm.com/news">News</a>
<ul class="o-vList o-vList_proximate">
<li>
<a class="c-txt c-txt_subAction c-mix-txt_blocked" href="https://www.adm.com/news">
<span>Overview</span>
</a>
</li>
<li>
<a class="c-txt c-txt_subAction c-mix-txt_blocked" href="https://www.adm.com/news/news-releases">
<span>News Releases</span>
</a>
</li>
<li>
<a class="c-txt c-txt_subAction c-mix-txt_blocked" href="https://www.adm.com/news/stories">
<span>Stories</span>
</a>
</li>
<li>
<a class="c-txt c-txt_subAction c-mix-txt_blocked" href="https://www.adm.com/news/awards-recognition">
<span>Awards and Recognition</span>
</a>
</li>
<li>
<a class="c-txt c-txt_subAction c-mix-txt_blocked" href="https://www.adm.com/news/images-graphics">
<span>Images and Graphics</span>
</a>
</li>
<li>
<a class="c-txt c-txt_subAction c-mix-txt_blocked" href="https://www.adm.com/news/media-relations-contacts">
<span>Media Relations Contacts</span>
</a>
</li>
<li>
<a class="c-txt c-txt_subAction c-mix-txt_blocked" href="https://www.adm.com/news/social-media">
<span>Social Media</span>
</a>
</li>
</ul>
</li>
<li>
<a class="c-txt c-txt_primaryAction" href="https://www.adm.com/careers">Careers</a>
<ul class="o-vList o-vList_proximate">
<li>
<a class="c-txt c-txt_subAction c-mix-txt_blocked" href="https://www.adm.com/careers">
<span>Overview</span>
</a>
</li>
<li>
<a class="c-txt c-txt_subAction c-mix-txt_blocked" href="https://www.adm.com/careers/jobs">
<span>Jobs</span>
</a>
</li>
<li>
<a class="c-txt c-txt_subAction c-mix-txt_blocked" href="https://www.adm.com/careers/including-you">
<span>Including You</span>
</a>
</li>
<li>
<a class="c-txt c-txt_subAction c-mix-txt_blocked" href="https://www.adm.com/careers/total-rewards">
<span>Total Rewards</span>
</a>
</li>
<li>
<a class="c-txt c-txt_subAction c-mix-txt_blocked" href="https://www.adm.com/careers/meet-team-adm">
<span>Meet Team ADM</span>
</a>
</li>
<li>
<a class="c-txt c-txt_subAction c-mix-txt_blocked" href="https://www.adm.com/careers/training-development">
<span>Learning &amp; Development</span>
</a>
</li>
</ul>
</li>
</ul>
</div></div></div>
<div aria-hidden="true" class="o-masthead-drawer u-hideAboveMediumPlus js-mobileNavViewport" id="mobileNav">
<div class="c-navDrawer">
<div class="c-navDrawer-section">
<ul class="o-vList">
<li class="u-isCollapsed" data-view="CollapsibleView">
<a class="c-txt c-txt_primaryAction" data-collapsible-role="trigger" href="https://www.adm.com/our-company">Our
						                        Company</a>
<div data-collapsible-role="panel">
<ul class="o-vList o-vList_compressed o-mix-vList_offsetTop">
<li>
<a class="c-txt c-txt_subAction c-mix-txt_blocked" href="https://www.adm.com/our-company">
<span>Overview</span>
</a>
</li>
<li>
<a class="c-txt c-txt_subAction c-mix-txt_blocked" href="https://www.adm.com/our-company/senior-leadership">
<span>Senior Leadership</span>
</a>
</li>
<li>
<a class="c-txt c-txt_subAction c-mix-txt_blocked" href="https://www.adm.com/our-company/history">
<span>History</span>
</a>
</li>
<li>
<a class="c-txt c-txt_subAction c-mix-txt_blocked" href="https://www.adm.com/our-company/adm-facts">
<span>ADM Facts</span>
</a>
</li>
<li>
<a class="c-txt c-txt_subAction c-mix-txt_blocked" href="https://www.adm.com/our-company/the-adm-way/code-of-conduct">
<span>Code of Conduct</span>
</a>
</li>
<li>
<a class="c-txt c-txt_subAction c-mix-txt_blocked" href="https://www.adm.com/our-company/procurement">
<span>Procurement</span>
</a>
</li>
<li>
<a class="c-txt c-txt_subAction c-mix-txt_blocked" href="https://www.adm.com/our-company/us-political-contributions">
<span>U.S. Political Contributions</span>
</a>
</li>
<li>
<a class="c-txt c-txt_subAction c-mix-txt_blocked" href="https://www.adm.com/our-company/associations">
<span>Associations</span>
</a>
</li>
</ul>
</div>
</li>
<li class="u-isCollapsed" data-view="CollapsibleView">
<a class="c-txt c-txt_primaryAction" data-collapsible-role="trigger" href="https://www.adm.com/products-services">Products
						                        &amp; Services</a>
<div data-collapsible-role="panel">
<ul class="o-vList o-vList_compressed o-mix-vList_offsetTop">
<li>
<a class="c-txt c-txt_subAction c-txt_subAction_bold c-mix-txt_blocked" href="https://www.adm.com/products-services">Overview</a>
</li>
<li>
<div class="c-txt c-txt_subAction c-txt_subAction_bold c-mix-txt_blocked">Industries</div>
</li>
<li>
<a class="c-txt c-txt_subAction c-txt_subAction_secondary c-mix-txt_blocked" href="https://www.adm.com/products-services/food">Food &amp; Beverage</a>
</li>
<li>
<a class="c-txt c-txt_subAction c-txt_subAction_secondary c-mix-txt_blocked" href="https://www.adm.com/products-services/animal-nutrition">Animal Nutrition</a>
</li>
<li>
<a class="c-txt c-txt_subAction c-txt_subAction_secondary c-mix-txt_blocked" href="https://www.adm.com/products-services/industrials">Industrials</a>
</li>
<li>
<a class="c-txt c-txt_subAction c-txt_subAction_secondary c-mix-txt_blocked" href="https://www.adm.com/products-services/fuel">Fuel</a>
</li>
<li>
<div class="c-txt c-txt_subAction c-txt_subAction_bold c-mix-txt_blocked">Innovation</div>
</li>
<li>
<a class="c-txt c-txt_subAction c-txt_subAction_secondary c-mix-txt_blocked" href="https://www.adm.com/products-services/sparkhub">SparkHub</a>
</li>
<li>
<a class="c-txt c-txt_subAction c-txt_subAction_secondary c-mix-txt_blocked" href="https://www.adm.com/products-services/sparkhub/ennospark">e-nnoSpark</a>
</li>
<li>
<a class="c-txt c-txt_subAction c-txt_subAction_secondary c-mix-txt_blocked" href="https://www.adm.com/products-services/sparkhub/innosprint-program">InnoSprint</a>
</li>
s							<li>
<div class="c-txt c-txt_subAction c-txt_subAction_bold c-mix-txt_blocked">Services</div>
</li>
<li>
<a class="c-txt c-txt_subAction c-txt_subAction_secondary c-mix-txt_blocked" href="https://www.adm.com/products-services/farmer-services">Farmer Services</a>
</li>
<li>
<a class="c-txt c-txt_subAction c-txt_subAction_secondary c-mix-txt_blocked" href="https://www.adm.com/products-services/financial-services">Financial Services
							</a></li>
<li>
<a class="c-txt c-txt_subAction c-txt_subAction_secondary c-mix-txt_blocked" href="https://www.adm.com/products-services/adm-logistics">Logistics</a>
</li>
</ul>
</div>
</li>
<li class="u-isCollapsed" data-view="CollapsibleView">
<a class="c-txt c-txt_primaryAction" data-collapsible-role="trigger" href="https://www.adm.com/sustainability">Sustainability</a>
<div data-collapsible-role="panel">
<ul class="o-vList o-vList_compressed o-mix-vList_offsetTop">
<li>
<a class="c-txt c-txt_subAction c-mix-txt_blocked" href="https://www.adm.com/sustainability">
<span>Overview</span>
</a>
</li>
<li>
<a class="c-txt c-txt_subAction c-mix-txt_blocked" href="https://www.adm.com/sustainability/responsible-sourcing">
<span>Responsible Sourcing</span>
</a>
</li>
<li>
<a class="c-txt c-txt_subAction c-mix-txt_blocked" href="https://www.adm.com/sustainability/adm-cares">
<span>ADM Cares</span>
</a>
</li>
<li>
<a class="c-txt c-txt_subAction c-mix-txt_blocked" href="https://www.adm.com/sustainability/compliance-and-ethics">
<span>Compliance and Ethics</span>
</a>
</li>
<li>
<a class="c-txt c-txt_subAction c-mix-txt_blocked" href="https://www.adm.com/sustainability/innovating-sustainable-materials">
<span>Innovating Sustainable Materials</span>
</a>
</li>
<li>
<a class="c-txt c-txt_subAction c-mix-txt_blocked" href="https://www.adm.com/sustainability/sustainability-progress-tracker">
<span>Sustainability Progress Tracker</span>
</a>
</li>
<li>
<a class="c-txt c-txt_subAction c-mix-txt_blocked" href="https://www.adm.com/sustainability/downloads">
<span>Downloads</span>
</a>
</li>
</ul>
</div>
</li>
<li class="u-isCollapsed" data-view="CollapsibleView">
<a class="c-txt c-txt_primaryAction" data-collapsible-role="trigger" href="https://investors.adm.com/home/default.aspx">Investors</a>
<div data-collapsible-role="panel">
<ul class="o-vList o-vList_compressed o-mix-vList_offsetTop">
<li>
<a class="c-txt c-txt_subAction c-mix-txt_blocked" href="https://investors.adm.com/home/default.aspx">
<span>Overview</span>
</a>
</li>
<li>
<a class="c-txt c-txt_subAction c-mix-txt_blocked" href="https://investors.adm.com/governance/board-of-directors/default.aspx">
<span>Governance</span>
</a>
</li>
<li>
<a class="c-txt c-txt_subAction c-mix-txt_blocked" href="https://investors.adm.com/events-and-presentations/default.aspx">
<span>Events &amp; Presentations</span>
</a>
</li>
<li>
<a class="c-txt c-txt_subAction c-mix-txt_blocked" href="https://investors.adm.com/news/default.aspx">
<span>News</span>
</a>
</li>
<li>
<a class="c-txt c-txt_subAction c-mix-txt_blocked" href="https://investors.adm.com/stock-information/default.aspx">
<span>Stock Information</span>
</a>
</li>
<li>
<a class="c-txt c-txt_subAction c-mix-txt_blocked" href="https://investors.adm.com/financials/quarterly-results/default.aspx">
<span>Financials</span>
</a>
</li>
<li>
<a class="c-txt c-txt_subAction c-mix-txt_blocked" href="https://investors.adm.com/financials/annual-reports/default.aspx">
<span>Annual Reports</span>
</a>
</li>
<li>
<a class="c-txt c-txt_subAction c-mix-txt_blocked" href="https://investors.adm.com/resources/information-request-form/default.aspx">
<span>Resources</span>
</a>
</li>
</ul>
</div>
</li>
<li class="u-isCollapsed" data-view="CollapsibleView">
<a class="c-txt c-txt_primaryAction" data-collapsible-role="trigger" href="https://www.adm.com/news">News</a>
<div data-collapsible-role="panel">
<ul class="o-vList o-vList_compressed o-mix-vList_offsetTop">
<li>
<a class="c-txt c-txt_subAction c-mix-txt_blocked" href="https://www.adm.com/news">
<span>Overview</span>
</a>
</li>
<li>
<a class="c-txt c-txt_subAction c-mix-txt_blocked" href="https://www.adm.com/news/news-releases">
<span>News Releases</span>
</a>
</li>
<li>
<a class="c-txt c-txt_subAction c-mix-txt_blocked" href="https://www.adm.com/news/stories">
<span>Stories</span>
</a>
</li>
<li>
<a class="c-txt c-txt_subAction c-mix-txt_blocked" href="https://www.adm.com/news/awards-recognition">
<span>Awards and Recognition</span>
</a>
</li>
<li>
<a class="c-txt c-txt_subAction c-mix-txt_blocked" href="https://www.adm.com/news/images-graphics">
<span>Images and Graphics</span>
</a>
</li>
<li>
<a class="c-txt c-txt_subAction c-mix-txt_blocked" href="https://www.adm.com/news/media-relation-contacts">
<span>Media Relation Contacts</span>
</a>
</li>
<li>
<a class="c-txt c-txt_subAction c-mix-txt_blocked" href="https://www.adm.com/news/social-media">
<span>Social Media</span>
</a>
</li>
</ul>
</div>
</li>
<li class="u-isCollapsed" data-view="CollapsibleView">
<a class="c-txt c-txt_primaryAction" data-collapsible-role="trigger" href="https://www.adm.com/careers">Careers</a>
<div data-collapsible-role="panel">
<ul class="o-vList o-vList_compressed o-mix-vList_offsetTop">
<li>
<a class="c-txt c-txt_subAction c-mix-txt_blocked" href="https://www.adm.com/careers">
<span>Overview</span>
</a>
</li>
<li>
<a class="c-txt c-txt_subAction c-mix-txt_blocked" href="https://www.adm.com/careers/jobs">
<span>Jobs</span>
</a>
</li>
<li>
<a class="c-txt c-txt_subAction c-mix-txt_blocked" href="https://www.adm.com/careers/including-you">
<span>Including You</span>
</a>
</li>
<li>
<a class="c-txt c-txt_subAction c-mix-txt_blocked" href="https://www.adm.com/careers/total-rewards">
<span>Total Rewards</span>
</a>
</li>
<li>
<a class="c-txt c-txt_subAction c-mix-txt_blocked" href="https://www.adm.com/careers/meet-team-adm">
<span>Meet Team ADM</span>
</a>
</li>
<li>
<a class="c-txt c-txt_subAction c-mix-txt_blocked" href="https://www.adm.com/careers/training-development">
<span>Learning &amp; Development</span>
</a>
</li>
</ul>
</div>
</li>
</ul></div><div class="c-navDrawer-section">
<ul class="o-vList">
<li>
<a class="c-txt c-txt_wayfinding" href="http://www.e-adm.com/" target="_blank">Customer Login</a>
</li>
<li>
<a class="c-txt c-txt_wayfinding" href="https://www.adm.com/adm-worldwide">ADM Worldwide</a>
</li>
<li>
<a class="c-txt c-txt_wayfinding" href="https://www.adm.com/contact-us">Contact Us</a>
</li>
</ul></div></div></div><div aria-hidden="true" class="o-masthead-drawer u-hideAboveMediumPlus js-mobileNavViewport" id="mobileSearch"><div class="c-navDrawer"><div class="c-navDrawer-section">
<form action="/search" class="o-form" method="" novalidate="" role="search">
<div class="o-form-item o-form-item_grouped">
<label class="u-isVisuallyHidden">Search the Site</label>
<input class="c-field c-field_text c-field_text_grouped" id="mastSearch" name="q" placeholder="Search" type="search"/>
<button class="c-field c-field_companionAction" type="submit">
<span class="u-isVisuallyHidden">Search</span>
<svg aria-labeledby=" " class="icon icon_magnifyingGlass icon_search" role="img">
<use xlink:href="#icon_magnifyingGlass"></use>
</svg>
</button>
</div>
</form></div></div></div>
</div>
</div>
</div>
</div>
<div class="o-container-fullwidth">
<div class="" data-view="ScrollShellView" id="mainContent" role="main" tabindex="-1">
<div class="c-hero">
<div class="c-hero-video_fullWidth">
<video autoplay="" loop="" muted="" poster="https://assets.adm.com/adm.com/Homepage/2021-Images/Video-Still.JPG?mtime=20210104094001">
<source src="https://assets.adm.com/adm.com/Homepage/2021-Images/ADM-Homepage-Video-Loop-Q1-2020-FIN_1.mp4?mtime=20210104093844" type="video/mp4">
</source></video>
</div>
<div class="c-hero-media_portrait u-hideAboveMedium">
<img alt="" src="https://assets.adm.com/adm.com/Homepage/2020/_750xAUTO_fit_top-center/Option2.png?mtime=20200113091336"/>
</div>
<div class="c-hero-media_landscape u-hideAboveMedium">
<img alt="" src="https://assets.adm.com/adm.com/Homepage/2020/_400xAUTO_fit_top-center/homepage-mobile-2020.jpg?mtime=20200211142356"/>
</div>
<!--- hero content -->
<div class="c-hero-content">
<div class="c-hero-textblock-container">
<div class="c-hero-textblock">
<h1 class="c-hero-hdg c-hero-hdg_1 c-hero-text">Food is fundamental.</h1>
<div class="c-matrix-item">
<div class="c-userContent c-hero-text">
<p>It sustains us, fulfills us and fuels our wellbeing. ADM is devoted to that impact every single day. Unlocking Nature. Enriching Life. </p>
</div>
</div>
</div>
</div>
</div>
<!-- /hero content -->
</div>
<div class="c-tier">
<section class="c-caseStudy o-flexCol-container">
<div class="o-flexCol o-flexCol_mt0 o-flexCol_2Up">
<div class="c-caseStudy-image c-caseStudy-image-mobile" style="background-image: url(https://assets.adm.com/adm.com/Homepage/2021-Images/_320xAUTO_fit_top-center/mosaic-320-x-200.jpg?mtime=20210104094507)">
</div>
<div class="c-caseStudy-image c-caseStudy-image-lg" style="background-image: url(https://assets.adm.com/adm.com/Homepage/2021-Images/_720xAUTO_fit_top-center/Mosaic.jpg?mtime=20210104093930)">
</div>
</div>
<div class="o-flexCol o-flexCol_2Up c-caseStudy-textContainer ">
<div class="c-caseStudy-content">
<h2 class="c-titleBloc c-titleBloc_2">Growth Trends to Spark Innovation.</h2>
<div class="c-titleBloc c-rule_left c-titleBloc_rule"></div>
<p class="c-titleBloc c-titleBloc_lead"></p><p>To succeed — and win — in today's evolving landscape, you need to know what’s next. ADM’s new proprietary research and extensive network of trend spotters across the world have identified the top global growth trends that will impact consumer culture and drive emerging market opportunities.</p>
<div class="o-flexCol-footer">
<a class="c-txt c-txt_cta " href="https://www.adm.com/products-services/sparkhub/trend-sparks">
                                         Discover what's next                                         <svg class="icon icon_ctaArrowRight" role="presentation">
<path d="M6.156.056l5.5 5.5-5.5 5.5-.972-.972 3.837-3.853H.656v-1.35h8.365L5.184 1.028z" fill-rule="nonzero"></path>
</svg>
</a>
</div>
</div>
</div>
</section>
</div>
<div class="o-wrapper c-prodShowcase">
<div class="c-tier c-tier_baseOffset">
<div class="o-grid-col o-grid-col_12of12@small">
<div class="c-feature c-mix-feature_ctr">
<div class="c-titleBloc c-titleBloc_rule">
<h2 class="c-titleBloc c-titleBloc_2">Drive Future-Forward Innovation Ideas.</h2>
</div>
<p class="c-titleBloc c-titleBloc_lead"></p><p>Recognizing, understanding and pursuing global trends is necessary to ensure sustainable growth in today’s rapidly changing environment. ADM is at the forefront of global trend insights, to help inspire new ideas and solutions that propel your business to the next level.</p>
</div>
</div>
</div>
<div class="c-tier c-tier_baseOffset">
<ul class="o-flexCol-container ">
<li class="o-flexCol o-flexCol_4Up">
<span class="o-flexCol-content c-prodShowcase-item o-vr o-vr_1x">
<img alt="" src="https://assets.adm.com/adm.com/Homepage/2021-Images/_220xAUTO_fit_top-center/Nourishment.jpg?mtime=20210104093933"/>
<p class="c-txt_contentinfo">Nourishment for Body, Mind and Emotional Health</p>
</span>
<a class="c-txt c-txt_cta" href="https://assets.adm.com/Products-And-Services/Food-Ingredients/SparkHub/Trend-Sparks/20ADM775_TrendCards_FNU_Mailshot_R3.pdf">
                                         Discover more here                                         <svg class="icon icon_ctaArrowRight" role="presentation">
<path d="M6.156.056l5.5 5.5-5.5 5.5-.972-.972 3.837-3.853H.656v-1.35h8.365L5.184 1.028z" fill-rule="nonzero"></path>
</svg>
</a>
</li>
<li class="o-flexCol o-flexCol_4Up">
<span class="o-flexCol-content c-prodShowcase-item o-vr o-vr_1x">
<img alt="" src="https://assets.adm.com/adm.com/Homepage/2021-Images/_220xAUTO_fit_top-center/Microbiome.jpg?mtime=20210104093927"/>
<p class="c-txt_contentinfo">Microbiome as the Root of Wellness</p>
</span>
<a class="c-txt c-txt_cta" href="https://assets.adm.com/Products-And-Services/Food-Ingredients/SparkHub/Trend-Sparks/20ADM775_TrendCards_FNU_Mailshot_R3.pdf">
                                         Discover more here                                         <svg class="icon icon_ctaArrowRight" role="presentation">
<path d="M6.156.056l5.5 5.5-5.5 5.5-.972-.972 3.837-3.853H.656v-1.35h8.365L5.184 1.028z" fill-rule="nonzero"></path>
</svg>
</a>
</li>
<li class="o-flexCol o-flexCol_4Up">
<span class="o-flexCol-content c-prodShowcase-item o-vr o-vr_1x">
<img alt="" src="https://assets.adm.com/adm.com/Homepage/2021-Images/_220xAUTO_fit_top-center/EverythingProtein.jpg?mtime=20210104093924"/>
<p class="c-txt_contentinfo">Plant-Based Protein and Everything!</p>
</span>
<a class="c-txt c-txt_cta" href="https://assets.adm.com/Products-And-Services/Food-Ingredients/SparkHub/Trend-Sparks/20ADM775_TrendCards_FNU_Mailshot_R3.pdf">
                                         Discover more here                                         <svg class="icon icon_ctaArrowRight" role="presentation">
<path d="M6.156.056l5.5 5.5-5.5 5.5-.972-.972 3.837-3.853H.656v-1.35h8.365L5.184 1.028z" fill-rule="nonzero"></path>
</svg>
</a>
</li>
<li class="o-flexCol o-flexCol_4Up">
<span class="o-flexCol-content c-prodShowcase-item o-vr o-vr_1x">
<img alt="" src="https://assets.adm.com/adm.com/Homepage/2021-Images/_220xAUTO_fit_top-center/Pet.jpg?mtime=20210104093936"/>
<p class="c-txt_contentinfo">Humanization of Pets</p>
</span>
<a class="c-txt c-txt_cta" href="https://assets.adm.com/Products-And-Services/Food-Ingredients/SparkHub/Trend-Sparks/20ADM775_TrendCards_FNU_Mailshot_R3.pdf">
                                         Discover more here                                         <svg class="icon icon_ctaArrowRight" role="presentation">
<path d="M6.156.056l5.5 5.5-5.5 5.5-.972-.972 3.837-3.853H.656v-1.35h8.365L5.184 1.028z" fill-rule="nonzero"></path>
</svg>
</a>
</li>
</ul>
</div>
</div>
<div class="c-story">
<div class="c-story-media">
<picture>
<source media="(min-width: 640px)" srcset="https://assets.adm.com/adm.com/Homepage/2021-Images/_1440xAUTO_fit_top-center/Sustainability-Section-Image-1662x789.jpg?mtime=20210104094001"/>
<img alt="" src="https://assets.adm.com/adm.com/Homepage/2021-Images/_1440xAUTO_fit_top-center/Sustainability-Section-Image-1662x789.jpg?mtime=20210104094001"/>
</picture>
</div>
<div class="c-story-content">
<div class="c-story-card-container c-story-card-container_leftAlign">
<div class="o-grid-col_12of12 o-grid-col_8of12@large">
<div class="c-story-card c-story-card-tertiary">
<div class="c-story-card-hd">
<h2 class="c-story-hdg_2">Sourcing Responsibly.</h2>
<div class="c-titleBloc_rule c-light_left"></div>
</div>
<div class="c-story-card-bd">
<p>We’re not farmers, but we’re committed to helping farmers around the world grow crops more sustainably.</p>
</div>
<div class="c-story-card-button">
</div>
<div class="c-story-card-ctaArrow">
<a class="c-txt c-txt_cta" href="https://www.adm.com/sustainability/responsible-sourcing">Learn more
                                    <svg class="icon icon_ctaArrowRight" role="presentation">
<path d="M6.156.056l5.5 5.5-5.5 5.5-.972-.972 3.837-3.853H.656v-1.35h8.365L5.184 1.028z" fill-rule="nonzero"></path>
</svg>
</a>
</div>
</div>
</div>
</div>
</div>
</div>
<div class="o-wrapper c-corporate-citizen">
<div class="o-grid ">
<div class="o-grid-col o-grid-col_7of12@medium o-verticalRule">
<div class="c-tier c-tier_baseOffset">
<div class="c-objectives">
<h2 class="c-titleBloc c-titleBloc_2">Contributing to the greater good. Making a lasting impact. </h2>
<span class="c-rule_left c-titleBloc_rule"></span>
<p class="c-titleBloc c-titleBloc_lead"></p><p>Through ADM Cares, we partner with organizations to solve challenges in three key areas:</p>
</div>
</div>
<div class="c-objectives-container">
<div class="c-objective">
<div class="c-objective-iconContainer">
<a href="https://www.adm.com/sustainability/adm-cares/advancing-sustainable-agriculture">
<img alt="" src="https://assets.adm.com/adm.com/Homepage/2019-Production/_100xAUTO_fit_top-center/agriculture.png?mtime=20191009142004"/>
</a>
</div>
<div class="c-objective-iconTag">
<p class="c-txt_tag">Sustainable Agriculture</p>
</div>
</div>
<div class="c-objective">
<div class="c-objective-iconContainer">
<a href="https://www.adm.com/sustainability/adm-cares/increasing-food-security">
<img alt="" class="c-matrix-image" src="https://assets.adm.com/adm.com/Homepage/2019-Production/_100xAUTO_fit_top-center/hunger.png?mtime=20191009142011"/>
</a>
</div>
<div class="c-objective-iconTag">
<p class="c-txt_tag">Hunger Relief</p>
</div>
</div>
<div class="c-objective">
<div class="c-objective-iconContainer">
<a href="https://www.adm.com/sustainability/adm-cares/investing-in-education">
<img alt="" class="c-matrix-image" src="https://assets.adm.com/adm.com/Homepage/2019-Production/_100xAUTO_fit_top-center/education.png?mtime=20191009142159"/>
</a>
</div>
<div class="c-objective-iconTag">
<p class="c-txt_tag">Education</p>
</div>
</div>
</div>
</div>
<div class="o-grid-col o-grid-col_5of12@medium">
<div class="c-awards">
<div class="c-tier c-tier_baseOffset">
<div class="c-objectives">
<h2 class="c-titleBloc c-titleBloc_2">Our global footprint.</h2>
<span class="c-rule_left c-titleBloc_rule"></span>
<p class="c-titleBloc c-titleBloc_lead"></p><p>With unparalleled size and scale, ADM is uniquely capable of managing every part of the nutrition supply chain, creating value at every step.</p>
</div>
</div>
<div class="c-tier c-tier_baseOffset">
<img src="https://assets.adm.com/adm.com/Homepage/2019-Production/_300xAUTO_fit_top-center/World-Map.jpg?mtime=20191009141950"/>
</div>
<div class="c-tier">
<div class="c-txt c-txt_cta">
<a class="c-txt c-txt_cta" href="https://www.adm.com/adm-worldwide">  Explore Our Worldwide Reach                                         <svg class="icon icon_ctaArrowRight" role="presentation">
<path d="M6.156.056l5.5 5.5-5.5 5.5-.972-.972 3.837-3.853H.656v-1.35h8.365L5.184 1.028z" fill-rule="nonzero"></path>
</svg>
</a>
</div>
</div>
</div>
</div>
</div>
</div>
<div class="c-story">
<div class="c-story-media">
<picture>
<source media="(min-width: 640px)" srcset="https://assets.adm.com/adm.com/Homepage/2021-Images/_1440xAUTO_fit_top-center/Careers-Section-Image-1662x789-copy.jpg?mtime=20210104093921"/>
<img alt="" src="https://assets.adm.com/adm.com/Homepage/2021-Images/_1440xAUTO_fit_top-center/Careers-Section-Image-1662x789-copy.jpg?mtime=20210104093921"/>
</picture>
</div>
<div class="c-story-content">
<div class="c-story-card-container">
<div class="o-grid-col_12of12 o-grid-col_8of12@large">
<div class="c-story-card c-story-card-quaternary">
<div class="c-story-card-hd">
<h2 class="c-story-hdg_2">Unlock your potential. Enrich lives around the world. </h2>
<div class="c-titleBloc_rule c-light_left"> </div>
</div>
<div class="c-story-card-bd">
<p>We know the only way we can deliver on the monumental challenge of feeding the world's growing population is with an exceptional, diverse team of employees. We're 38,000 strong. And we're looking for forward-thinking professionals who are ready to make a difference.</p>
</div>
<div class="c-tier_baseOffset ">
<a href="https://sjobs.brassring.com/TGnewUI/Search/Home/Home?partnerid=25416&amp;siteid=5998#home" target="">
<button class="c-btn-rounded ">View Job Openings</button>
</a>
</div>
<div class="c-story-card-ctaArrow">
<a class="c-txt c-txt_cta" href="https://www.adm.com/careers" target="">Learn more about working with us
                                <svg class="icon icon_ctaArrowRight" role="presentation">
<path d="M6.156.056l5.5 5.5-5.5 5.5-.972-.972 3.837-3.853H.656v-1.35h8.365L5.184 1.028z" fill-rule="nonzero"></path>
</svg>
</a>
</div>
</div>
</div>
</div>
</div>
</div>
<div class="o-wrapper c-newsPosts">
<div class="c-tier c-tier_baseOffset">
<div class="o-grid-col o-grid-col_12of12@small">
<div class="c-feature c-mix-feature_ctr">
<div class="c-titleBloc c-titleBloc_rule">
<h2 class="c-titleBloc c-titleBloc_2">What's new at ADM? A lot.</h2>
</div>
<p class="c-titleBloc c-titleBloc_lead"></p><p>See what's happening now.</p>
<span class="c-feature-footer"><a class="c-txt c-txt_cta" href="https://www.adm.com/news/media-relations-contacts">
                                 Media Contacts                             <svg class="icon icon_ctaArrowRight" role="presentation">
<path d="M6.156.056l5.5 5.5-5.5 5.5-.972-.972 3.837-3.853H.656v-1.35h8.365L5.184 1.028z" fill-rule="nonzero"></path>
</svg>
</a></span>
</div>
</div>
</div>
<div class="c-tier_baseOffset">
<ul class="o-flexCol-container">
<li class="o-flexCol o-flexCol_3Up">
<span class="o-flexCol-content ">
<div class="c-newsPosts-image" style="background-image:url(https://assets.adm.com/adm.com/_602xAUTO_fit_top-center/Twitter-logo-post-05.jpg?mtime=20200107093325)">
</div>
<h3 class="c-hdg_3">ADM's Top 5 Stories of 2020 </h3>
<p class="c-txt_contentinfo overflow"></p><p>Team ADM has accomplished so much together, as we work to fulfill our purpose. We share our top 5 most-read stories of 2020.</p>
</span>
<span class="o-flexCol-footer">
<a class="c-txt c-txt_cta " href="https://www.adm.com/news/stories/adms-top-5-stories-of-2020">
                        READ MORE
                        <svg class="icon icon_ctaArrowRight" role="presentation">
<path d="M6.156.056l5.5 5.5-5.5 5.5-.972-.972 3.837-3.853H.656v-1.35h8.365L5.184 1.028z" fill-rule="nonzero"></path>
</svg>
</a>
</span>
</li>
<li class="o-flexCol o-flexCol_3Up">
<span class="o-flexCol-content ">
<div class="c-newsPosts-image" style="background-image:url(https://assets.adm.com/adm.com/1ba11d583c8cec68cddb9d103387ffbe-1-500x281.png?mtime=20201207113958)">
</div>
<h3 class="c-hdg_3">ADM, InnovaFeed Announce Construction of Insect Protein Facility </h3>
<p class="c-txt_contentinfo overflow"></p><p>We're planning to collaborate on the construction and operation of the world’s largest insect protein production site in Decatur, Illinois.</p>
</span>
<span class="o-flexCol-footer">
<a class="c-txt c-txt_cta " href="https://www.adm.com/news/news-releases/adm-innovafeed-announce-construction-of-worlds-largest-insect-protein-facility-in-decatur-illinois">
                        READ MORE
                        <svg class="icon icon_ctaArrowRight" role="presentation">
<path d="M6.156.056l5.5 5.5-5.5 5.5-.972-.972 3.837-3.853H.656v-1.35h8.365L5.184 1.028z" fill-rule="nonzero"></path>
</svg>
</a>
</span>
</li>
<li class="o-flexCol o-flexCol_3Up">
<span class="o-flexCol-content ">
<div class="c-newsPosts-image" style="background-image: url(https://assets.adm.com/adm.com/_602xAUTO_fit_top-center/Air-Protein-HI-RES-Hero-Image.jpg?mtime=20210107103806)">
</div>
<h3 class="c-hdg_3">New Protein Out of Thin Air?</h3>
<p class="c-txt_contentinfo overflow"></p><p>ADM Ventures, the venture capital arm of ADM, is one of the key initial investors in Air Protein, a new company producing meat made from elements of the air—yes, air. </p>
</span>
<span class="o-flexCol-footer">
<a class="c-txt c-txt_cta " href="https://www.adm.com/news/stories/new-year-new-protein">
                        READ MORE
                        <svg class="icon icon_ctaArrowRight" role="presentation">
<path d="M6.156.056l5.5 5.5-5.5 5.5-.972-.972 3.837-3.853H.656v-1.35h8.365L5.184 1.028z" fill-rule="nonzero"></path>
</svg>
</a>
</span>
</li>
</ul>
</div>
</div>
</div>
</div>
<div class="o-site-ft">
<div class="o-footer">
<div class="o-footer-left" role="contentinfo">
<span class="c-txt">© 2021 ADM</span>
</div>
<div class="o-footer-right u-isHiddenPrint">
<ul class="o-hList o-hList_piped o-mix-hList_wrappy">
<li>
<a class="c-txt c-txt_wayfinding" href="https://www.adm.com/privacy-statement">Online Privacy Statement</a>
</li>
<li>
<a class="c-txt c-txt_wayfinding" href="https://www.adm.com/terms-of-use">Terms of Use</a>
</li>
<li>
<!-- OneTrust Cookies Settings button to be implemented in footer -->
<a class="ot-sdk-show-settings c-txt c-txt_wayfinding" href="#">Cookie Settings</a>
<!-- OneTrust Cookies Settings button end -->
</li>
<li>
<a class="c-txt c-txt_wayfinding" href="https://www.adm.com/compliance">Compliance</a>
</li>
<li>
<a class="c-txt c-txt_wayfinding" href="https://www.adm.com/sitemap">Sitemap</a>
</li>
</ul>
</div>
</div>
</div><!-- end .site -->
</div>
<script src="https://assets.adm.com/assets/scripts/vendor.js?v=2020091501"></script>
<script src="https://assets.adm.com/assets/scripts/main.js?v=2020091501"></script>
<script type="text/javascript">
        var MTIProjectId='1fea81b1-37cb-4b1d-95e5-09a898e3fab9';
        (function() {
            var mtiTracking = document.createElement('script');
            mtiTracking.type='text/javascript';
            mtiTracking.async='true';
            mtiTracking.src='//d3pvk6fxma45f7.cloudfront.net/assets/media/fonts/mtiFontTrackingCode.js';
            (document.getElementsByTagName('head')[0]||document.getElementsByTagName('body')[0]).appendChild( mtiTracking );
        })();
    </script>
<!-- Salesforce Analytics -->
<script class="optanon-category-C0004" type="text/javascript">
        piAId = '605541';
        piCId = '2247';
        piHostname = 'pi.pardot.com';

        (function() {
         function async_load(){
          var s = document.createElement('script'); s.type = 'text/javascript';
          s.src = ('https:' == document.location.protocol ? 'https://pi' : 'http://cdn') + '.pardot.com/pd.js';
          var c = document.getElementsByTagName('script')[0]; c.parentNode.insertBefore(s, c);
         }
         if(window.attachEvent) { window.attachEvent('onload', async_load); }
         else { window.addEventListener('load', async_load, false); }
        })();
    </script>
<!-- deploy test -->
</body>
</html>
