<!DOCTYPE html>
<html lang="en"><head><meta charset="utf-8"/><meta content="@adultswim" name="twitter:site"/><meta content="width=device-width,initial-scale=1" name="viewport"/><meta content="222143901136511" property="fb:app_id"/><meta content="Adult Swim" property="og:site_name"/><link href="https://static.cdn.adultswim.com/tools/global/styles.css" rel="stylesheet"/><link href="https://fonts.googleapis.com/css?family=Montserrat:700" rel="stylesheet"/><link href="https://d2gg02c3xr550i.cloudfront.net/assets/asvp.9f55f1c30506c012eead8b6e4314627a.css" rel="stylesheet"/><script></script>
<link href="//fastlane.rubiconproject.com" rel="dns-prefetch"/>
<link href="//optimized-by.rubiconproject.com" rel="dns-prefetch"/>
<link href="//ads.rubiconproject.com" rel="dns-prefetch"/>
<link href="//aax.amazon-adsystem.com" rel="dns-prefetch"/>
<link href="//c.amazon-adsystem.com" rel="dns-prefetch"/>
<link href="//bidder.criteo.com" rel="dns-prefetch"/>
<link href="//static.criteo.net" rel="dns-prefetch"/>
<link href="//ib.adnxs.com" rel="dns-prefetch"/>
<link href="//prebid.adnxs.com" rel="dns-prefetch"/><script></script><meta class="next-head" content="width=device-width,minimum-scale=1,initial-scale=1" name="viewport"/><meta charset="utf-8" class="next-head"/><title class="next-head">Adult Swim Shows</title><meta class="next-head" content="Watch free full episodes, online videos, clips and web exclusives at AdultSwim.com." name="description"/><meta class="next-head" content="Adult Swim Shows" property="og:title"/><meta class="next-head" content="Watch free full episodes, online videos, clips and web exclusives at AdultSwim.com." property="og:description"/><meta class="next-head" content="https://i.cdn.turner.com/adultswim/big/img/2019/05/08/adult-swim_3.jpg" property="og:image"/><meta class="next-head" content="website" property="og:type"/><meta class="next-head" content="https://www.adultswim.com/videos" property="og:url"/><script class="next-head">var strPageName = 'Index'; var strSectionName = 'Video'; var strSubSectionName = '';</script><link as="script" href="https://static.cdn.adultswim.com/shows-www/_next/static/Pei3nzzPTWzk77UAQnMfJ/pages/videos.js" rel="preload"/><link as="script" href="https://static.cdn.adultswim.com/shows-www/_next/static/Pei3nzzPTWzk77UAQnMfJ/pages/_app.js" rel="preload"/><link as="script" href="https://static.cdn.adultswim.com/shows-www/_next/static/runtime/webpack-8ed9452df514b4d17d80.js" rel="preload"/><link as="script" href="https://static.cdn.adultswim.com/shows-www/_next/static/chunks/commons.61bfd16e064b86573902.js" rel="preload"/><link as="script" href="https://static.cdn.adultswim.com/shows-www/_next/static/chunks/styles.6adc550cc109e3c9a90a.js" rel="preload"/><link as="script" href="https://static.cdn.adultswim.com/shows-www/_next/static/runtime/main-541f01c65744a5c2c60b.js" rel="preload"/><link href="https://static.cdn.adultswim.com/shows-www/_next/static/css/styles.14fec920.chunk.css" rel="stylesheet"/></head><body><div class="as"><div>
<!-- edge dub dub dub -->
<!-- BEGIN [as] global nav -->
<div class="asnav" id="global-nav" role="banner">
<div class="asnav-logo-and-control">
<div class="asnav-logo">
<a aria-label="Adult Swim Home Page" href="https://www.adultswim.com/">
<div class="asnav-logo-image">
<svg aria-hidden="true" fill="none" height="17" id="desktop-logo" viewbox="0 0 94 17" width="94" xmlns="http://www.w3.org/2000/svg">
<path d="M0.792 0.147999V16.258H5.652V13.99H3.816V2.416H5.652V0.147999H0.792ZM9.83616 11.074C9.59616 11.074 9.40416 10.978 9.26016 10.786C9.11616 10.594 9.04416 10.336 9.04416 10.012C9.04416 9.688 9.09216 9.43 9.18816 9.238C9.28416 9.034 9.45816 8.872 9.71016 8.752C9.95016 8.644 10.1662 8.578 10.3582 8.554C10.5622 8.518 10.7122 8.434 10.8082 8.302H10.8442V9.472C10.8442 10.012 10.7662 10.414 10.6102 10.678C10.4542 10.942 10.1962 11.074 9.83616 11.074ZM11.0422 13H14.1742C14.0422 12.748 13.9582 12.448 13.9222 12.1C13.8862 11.752 13.8682 11.35 13.8682 10.894V6.142C13.8682 5.506 13.7722 4.99 13.5802 4.594C13.4002 4.186 13.1362 3.868 12.7882 3.64C12.4522 3.4 12.0442 3.238 11.5642 3.154C11.0962 3.058 10.5802 3.01 10.0162 3.01C9.64416 3.01 9.24216 3.052 8.81016 3.136C8.37816 3.208 7.97616 3.364 7.60416 3.604C7.23216 3.832 6.92016 4.162 6.66816 4.594C6.41616 5.014 6.29016 5.578 6.29016 6.286H9.09816C9.11016 5.77 9.18816 5.428 9.33216 5.26C9.47616 5.08 9.70416 4.99 10.0162 4.99C10.5682 4.99 10.8442 5.29 10.8442 5.89C10.8442 6.19 10.7722 6.424 10.6282 6.592C10.4842 6.748 10.2382 6.868 9.89016 6.952L8.61216 7.258C8.09616 7.378 7.66416 7.528 7.31616 7.708C6.96816 7.876 6.69216 8.086 6.48816 8.338C6.28416 8.578 6.13416 8.866 6.03816 9.202C5.95416 9.538 5.91216 9.934 5.91216 10.39C5.91216 10.81 5.96016 11.194 6.05616 11.542C6.15216 11.89 6.30816 12.19 6.52416 12.442C6.74016 12.694 7.01616 12.88 7.35216 13C7.70016 13.132 8.12016 13.198 8.61216 13.198C9.11616 13.198 9.56016 13.09 9.94416 12.874C10.3402 12.658 10.6282 12.334 10.8082 11.902H10.8442C10.8682 12.106 10.8922 12.298 10.9162 12.478C10.9402 12.658 10.9822 12.832 11.0422 13ZM18.2602 8.14C18.2602 7.612 18.2722 7.174 18.2962 6.826C18.3202 6.478 18.3622 6.202 18.4222 5.998C18.4942 5.782 18.5902 5.632 18.7102 5.548C18.8302 5.464 18.9862 5.422 19.1782 5.422C19.3582 5.422 19.5082 5.464 19.6282 5.548C19.7482 5.632 19.8382 5.782 19.8982 5.998C19.9702 6.202 20.0182 6.478 20.0422 6.826C20.0662 7.174 20.0782 7.612 20.0782 8.14C20.0782 8.656 20.0662 9.088 20.0422 9.436C20.0182 9.784 19.9702 10.066 19.8982 10.282C19.8382 10.486 19.7482 10.63 19.6282 10.714C19.5082 10.798 19.3582 10.84 19.1782 10.84C18.9862 10.84 18.8302 10.798 18.7102 10.714C18.5902 10.63 18.4942 10.486 18.4222 10.282C18.3622 10.066 18.3202 9.784 18.2962 9.436C18.2722 9.088 18.2602 8.656 18.2602 8.14ZM20.0782 0.147999V4.36H20.0422C19.8742 3.856 19.6042 3.508 19.2322 3.316C18.8722 3.112 18.4642 3.01 18.0082 3.01C17.5642 3.01 17.1562 3.094 16.7842 3.262C16.4122 3.43 16.0942 3.706 15.8302 4.09C15.5782 4.474 15.3802 4.978 15.2362 5.602C15.0922 6.226 15.0202 7 15.0202 7.924C15.0202 9.736 15.2362 11.068 15.6682 11.92C16.1002 12.772 16.8562 13.198 17.9362 13.198C18.5122 13.198 18.9742 13.078 19.3222 12.838C19.6702 12.598 19.9462 12.208 20.1502 11.668H20.1862V13H23.3182V0.147999H20.0782ZM24.6597 3.262V10.606C24.6597 11.122 24.7257 11.554 24.8577 11.902C24.9897 12.238 25.1697 12.508 25.3977 12.712C25.6257 12.904 25.8897 13.03 26.1897 13.09C26.5017 13.162 26.8377 13.198 27.1977 13.198C28.3617 13.198 29.1477 12.736 29.5557 11.812H29.5917V13H32.7237V3.262H29.4837V9.688C29.4837 10.096 29.4237 10.39 29.3037 10.57C29.1837 10.75 28.9797 10.84 28.6917 10.84C28.4037 10.84 28.1997 10.75 28.0797 10.57C27.9597 10.39 27.8997 10.096 27.8997 9.688V3.262H24.6597ZM34.0653 0.147999V13H37.3053V0.147999H34.0653ZM38.0399 3.262V5.44H39.1199V10.624C39.1199 11.164 39.1679 11.602 39.2639 11.938C39.3719 12.262 39.5339 12.508 39.7499 12.676C39.9779 12.844 40.2659 12.952 40.6139 13C40.9619 13.036 41.3819 13.054 41.8739 13.054C42.1499 13.054 42.4379 13.042 42.7379 13.018C43.0379 13.006 43.3379 13 43.6379 13V10.84H43.1339C42.8699 10.84 42.6719 10.786 42.5399 10.678C42.4199 10.558 42.3599 10.36 42.3599 10.084V5.44H43.6379V3.262H42.3599V0.399999H39.1199V3.262H38.0399ZM51.5074 9.976H48.6634C48.6634 11.044 48.9574 11.848 49.5454 12.388C50.1454 12.928 51.1234 13.198 52.4794 13.198C53.0914 13.198 53.6374 13.126 54.1174 12.982C54.6094 12.838 55.0174 12.622 55.3414 12.334C55.6774 12.046 55.9354 11.704 56.1154 11.308C56.2954 10.912 56.3854 10.474 56.3854 9.994C56.3854 9.37 56.2654 8.872 56.0254 8.5C55.7974 8.116 55.5094 7.816 55.1614 7.6C54.8134 7.372 54.4354 7.198 54.0274 7.078C53.6314 6.958 53.2594 6.844 52.9114 6.736C52.5634 6.628 52.2694 6.508 52.0294 6.376C51.8014 6.232 51.6874 6.022 51.6874 5.746C51.6874 5.506 51.7654 5.32 51.9214 5.188C52.0774 5.056 52.2754 4.99 52.5154 4.99C52.7914 4.99 53.0014 5.068 53.1454 5.224C53.3014 5.368 53.3794 5.65 53.3794 6.07H56.1874C56.1874 4.03 54.9694 3.01 52.5334 3.01C51.8734 3.01 51.2974 3.088 50.8054 3.244C50.3254 3.4 49.9234 3.616 49.5994 3.892C49.2874 4.168 49.0534 4.492 48.8974 4.864C48.7414 5.224 48.6634 5.62 48.6634 6.052C48.6634 6.664 48.7774 7.162 49.0054 7.546C49.2454 7.918 49.5394 8.218 49.8874 8.446C50.2354 8.674 50.6074 8.854 51.0034 8.986C51.4114 9.118 51.7894 9.244 52.1374 9.364C52.4854 9.484 52.7734 9.622 53.0014 9.778C53.2414 9.934 53.3614 10.156 53.3614 10.444C53.3614 10.708 53.2654 10.912 53.0734 11.056C52.8934 11.2 52.6774 11.272 52.4254 11.272C52.1254 11.272 51.8974 11.158 51.7414 10.93C51.6574 10.822 51.5974 10.684 51.5614 10.516C51.5254 10.348 51.5074 10.168 51.5074 9.976ZM56.6895 3.262L58.6695 13H62.3415L63.3315 6.106H63.3675L64.3575 13H68.0295L70.0095 3.262H66.8775L66.0675 10.264H66.0315L65.0775 3.262H61.6215L60.6675 10.264H60.6315L59.8215 3.262H56.6895ZM70.7157 0.147999V2.56H73.9557V0.147999H70.7157ZM70.7157 3.262V13H73.9557V3.262H70.7157ZM80.0363 6.574V13H83.2763V6.574C83.2763 6.166 83.3363 5.872 83.4563 5.692C83.5763 5.512 83.7803 5.422 84.0683 5.422C84.3563 5.422 84.5603 5.512 84.6803 5.692C84.8003 5.872 84.8603 6.166 84.8603 6.574V13H88.1003V5.656C88.1003 5.128 88.0343 4.696 87.9023 4.36C87.7703 4.024 87.5903 3.754 87.3623 3.55C87.1343 3.346 86.8643 3.208 86.5523 3.136C86.2523 3.052 85.9223 3.01 85.5623 3.01C85.0583 3.01 84.5843 3.124 84.1403 3.352C83.7083 3.568 83.3663 3.952 83.1143 4.504C82.9103 4 82.6283 3.628 82.2683 3.388C81.9203 3.136 81.4103 3.01 80.7383 3.01C79.5863 3.01 78.8003 3.49 78.3803 4.45H78.3443V3.262H75.2123V13H78.4523V6.574C78.4523 6.166 78.5123 5.872 78.6323 5.692C78.7523 5.512 78.9563 5.422 79.2443 5.422C79.5323 5.422 79.7363 5.512 79.8563 5.692C79.9763 5.872 80.0363 6.166 80.0363 6.574ZM90.5001 2.416V13.99H88.6641V16.258H93.5241V0.147999H88.6641V2.416H90.5001Z" fill="white"></path>
</svg>
<svg aria-hidden="true" id="mobile-logo" style="enable-background:new 0 0 149.18 92.34;" version="1.1" viewbox="0 0 149.18 92.34" x="0px" xml:space="preserve" xmlns="http://www.w3.org/2000/svg" xmlns:xlink="http://www.w3.org/1999/xlink" y="0px">
<g>
<path d="M43.96,56.4c0-3.08,0.82-4.83,2.57-6.17c1.54-1.23,3.81-1.34,9.05-4.11c0,2.26-0.1,5.14-0.1,9.77
                                c0,5.55-3.19,7.61-6.68,7.61C45.71,63.5,43.96,60.83,43.96,56.4z M44.27,35.02c0.1-4.83,1.44-7.61,6.07-7.61
                                c3.7,0,5.24,2.16,5.24,5.55c0,4.21-0.93,5.04-5.96,6.37c-4.63,1.24-10.8,2.26-14.91,4.52c-4.11,2.26-6.79,7.71-6.79,14.19
                                c0,12.03,5.45,16.97,14.81,16.97c5.55,0,10.8-2.88,13.06-7.82h0.21c0.1,2.16,0.31,4.42,0.93,6.38h16.04C71,71.11,71,65.76,71,61.55
                                V32.96c0-11.72-6.07-16.45-19.74-16.45c-6.89,0-11.62,0.92-15.53,3.6c-3.91,2.67-6.17,7.3-6.27,14.91H44.27z" style="fill:#fff"></path>
<path d="M95.69,55.89c0.1,2.47,0.31,4.63,1.13,6.27c0.93,1.54,2.47,2.57,5.14,2.57c3.91,0,5.96-2.47,5.96-5.66
                                c0-2.57-1.24-5.04-6.38-6.79c-13.68-4.63-20.26-7.3-20.26-19.02c0-11.11,7.81-16.76,21.18-16.76c15.63,0,20.15,7.61,20.15,15.63
                                v1.85h-14.81v-1.03c0-4.83-1.95-6.17-5.45-6.17c-4.42,0-5.65,2.16-5.65,5.14c0,9.87,26.63,3.29,26.63,24.88
                                c0,11.21-7.51,18.2-21.28,18.2c-14.91,0-21.18-5.55-21.18-16.66v-2.47H95.69z" style="fill:#fff"></path>
<path d="M0,0h26.01v11.52H15.42v69.3h10.59v11.52H0V0z" style="fill:#fff"></path>
<path d="M123.16,80.82h10.59V11.52h-10.59V0h26.02v92.34h-26.02V80.82z" style="fill:#fff"></path>
</g>
</svg>
</div>
<div aria-hidden="true" class="asnav-logo-rollover">
<img alt="" src="https://i.cdn.turner.com/adultswim/big/img/2018/03/26/headV3_1.gif"/>
</div>
</a>
</div>
<div class="asnav-control">
<button aria-controls="global-nav-content" aria-expanded="false" aria-haspopup="true" aria-label="Toggle navigation" class="asnav-control__handle">
<img alt="Open" aria-hidden="true" class="asnav-control__open-svg" src="https://i.cdn.turner.com/adultswim/big/img/home/ham.svg"/>
<img alt="Close" aria-hidden="true" class="asnav-control__close-svg" src="https://i.cdn.turner.com/adultswim/big/img/home/x.svg"/>
</button>
</div>
</div>
<div class="asnav-content" id="global-nav-content">
<nav aria-label="Global" class="asnav-content__nav">
<ul class="asnav-content__links">
<li>
<a href="https://www.adultswim.com/videos/" id="global-nav__shows">Shows</a>
</li>
<li>
<a href="https://www.adultswim.com/streams/" id="global-nav__streams">Streams &amp; Marathons</a>
</li>
<li>
<a href="https://www.adultswim.com/toonami/" id="global-nav__toonami">Toonami</a>
</li>
<li>
<a href="https://www.adultswim.com/music/" id="global-nav__music">Music</a>
</li>
<li>
<a href="https://www.adultswim.com/smalls" id="global-nav__smalls">Smalls</a>
</li>
<li>
<a href="https://www.adultswim.com/games/" id="global-nav__games">Games</a>
</li>
<li>
<a href="https://www.adultswim.com/schedule/" id="global-nav__schedule">Schedule</a>
</li>
<li>
<a href="https://www.adultswim.com/podcast/" id="global-nav__podcast">Podcast</a>
</li>
<li>
<a href="https://www.adultswim.com/comics/" id="global-nav__comics">Comics</a>
</li>
<li>
<a href="https://www.adultswim.com/apps/" id="global-nav__apps">Apps</a>
</li>
<li>
<a href="https://www.adultswim.com/simulcast/" id="global-nav__simulcast">Live Simulcast</a>
</li>
</ul>
</nav>
<div class="asnav-content__search" id="global-nav-search">
<form action="https://www.adultswim.com/search" method="get" role="search">
<input aria-labelledby="global-nav-search__button" autocomplete="off" minlength="1" name="q" placeholder="Search" spellcheck="false" type="text"/>
<button aria-label="search" id="global-nav-search__button" tabindex="-1" type="submit">
<svg height="20" viewbox="0 0 20 20" width="20" xmlns="http://www.w3.org/2000/svg">
<path d="M19.7,18.3L16,14.6A9.1,9.1,0,0,0,18,9a9,9,0,1,0-9,9,8.53,8.53,0,0,0,5.6-2l3.7,3.7a1,1,0,0,0,1.4,0A1,1,0,0,0,19.7,18.3ZM2,9A7,7,0,0,1,16,9a7,7,0,0,1-2,4.9h0a6.8,6.8,0,0,1-4.9,2A6.84,6.84,0,0,1,2,9Z"></path>
</svg>
</button>
</form>
</div>
<div class="asnav-content__login" data-asnav="login"></div>
</div>
<script>
        var NAV_ROLLOVER_IMAGES = ["https://i.cdn.turner.com/adultswim/big/img/2018/11/07/rick%26mortyRotateSized_1.gif", "https://i.cdn.turner.com/adultswim/big/img/2018/11/02/squirting-compressor.gif", "https://i.cdn.turner.com/adultswim/big/img/2018/09/25/harv_2.gif", "https://i.cdn.turner.com/adultswim/big/img/2018/07/30/BROCK.gif", "https://i.cdn.turner.com/adultswim/big/img/2018/07/10/rollover_swerl2.gif", "https://i.cdn.turner.com/adultswim/big/img/2018/05/15/templateMid_GATO.gif", "https://i.cdn.turner.com/adultswim/big/img/2018/04/27/halftomz_1.gif", "https://i.cdn.turner.com/adultswim/big/img/2018/04/27/claps.gif", "https://i.cdn.turner.com/adultswim/big/img/2018/04/27/harrigan-compressor.gif", "https://i.cdn.turner.com/adultswim/big/img/2018/04/26/dogManX.gif", "https://i.cdn.turner.com/adultswim/big/img/2018/04/20/eye.gif"];
        var NAV_KEITH_TEXT = ["Keith"];
    </script>
</div>
<!-- END [as] global nav -->
</div><div id="__next"><div class="_3BghO" role="main"><div class="_2HBmP"><div class="fcJIw _2Dl7u"><div class="ad _2wqW5 ad--bnr" id="ad_bnr_atf_01"></div></div></div><section class="MZl24"><a class="_2PE6L _1iJXM whrq8" href="/videos/the-eric-andre-show" style="background-color:#fff001"><img alt="The Eric Andre Show" class="_1wRfZ" src="https://media.cdn.adultswim.com/uploads/20201013/201013175573-ericandreshowS5_Hero_fff200.png"/></a></section><section class="_34RLa _2t_Tk"><h2 class="_22lkv"><a class="CceRa" href="/streams/the-eric-andre-show"><span>The Eric Andre Show</span></a></h2><div class="_3hVbF"><div class="_1ou0a _1Ebz5 dark-mode"><video autoplay="" id="_1Ebz5" muted="" playsinline="" src="https://pmd.cdn.turner.com/xslo/cvp/assets/video/blank.mp4"></video></div></div><h2 class="_22lkv" id="_2_38H__heading">[as] Stream Shows</h2><div aria-labelledby="_2_38H__heading" class="_2_38H" role="region"><button aria-label="scroll left" class="_25kjX" data-direction="left" disabled=""><svg aria-hidden="true" class="_3cJg4 Ma8xd _24JpQ" viewbox="0 0 73 73" xmlns="http://www.w3.org/2000/svg"><path d="M13,73,49.09,36.5,13,0h10.9L60,36.5,23.91,73Z"></path></svg></button><button aria-label="scroll right" class="_25kjX" data-direction="right" disabled=""><svg aria-hidden="true" class="_3cJg4 _1SNl3 _24JpQ" viewbox="0 0 73 73" xmlns="http://www.w3.org/2000/svg"><path d="M13,73,49.09,36.5,13,0h10.9L60,36.5,23.91,73Z"></path></svg></button><div class="_3wtvE"><ul><li><a class="_39bM9 rlObi _2NdTs" href="/videos/as-seen-on-adult-swim"><div class="lazyload-placeholder"></div><span class="_1WkqK">As Seen On Adult Swim</span></a></li><li><a class="_39bM9 rlObi _2NdTs" href="/videos/last-stream-on-the-left"><div class="lazyload-placeholder"></div><span class="_1WkqK">Last Stream on the Left</span></a></li><li><a class="_39bM9 rlObi _2NdTs" href="/videos/development-meeting"><div class="lazyload-placeholder"></div><span class="_1WkqK">Development Meeting</span></a></li><li><a class="_39bM9 rlObi _2NdTs" href="/videos/block-or-charge"><div class="lazyload-placeholder"></div><span class="_1WkqK">Block or Charge</span></a></li><li><a class="_39bM9 rlObi _2NdTs" href="/videos/fishcenter-live"><div class="lazyload-placeholder"></div><span class="_1WkqK">Fishcenter</span></a></li><li><a class="_39bM9 rlObi _2NdTs" href="/videos/truthpoint"><div class="lazyload-placeholder"></div><span class="_1WkqK">Truthpoint</span></a></li><li><a class="_39bM9 rlObi _2NdTs" href="/videos/bloodfeast"><div class="lazyload-placeholder"></div><span class="_1WkqK">Bloodfeast</span></a></li><li><a class="_39bM9 rlObi _2NdTs" href="/videos/williams-street-swap-shop"><div class="lazyload-placeholder"></div><span class="_1WkqK">Williams Street Swap Shop</span></a></li><li><a class="_39bM9 rlObi _2NdTs" href="/videos/the-perfect-women"><div class="lazyload-placeholder"></div><span class="_1WkqK">The Perfect Women</span></a></li><li><a class="_39bM9 rlObi _2NdTs" href="/videos/assembly-line-yeah"><div class="lazyload-placeholder"></div><span class="_1WkqK">Assembly Line Yeah!</span></a></li><li><a class="_39bM9 rlObi _2NdTs" href="/videos/bottom-text"><div class="lazyload-placeholder"></div><span class="_1WkqK">Bottom Text</span></a></li><li><a class="_39bM9 rlObi _2NdTs" href="/videos/fan-fiction-showdown"><div class="lazyload-placeholder"></div><span class="_1WkqK">Fan Fiction Showdown</span></a></li><li><a class="_39bM9 rlObi _2NdTs" href="/videos/toonami"><div class="lazyload-placeholder"></div><span class="_1WkqK">Toonami Pre-Flight</span></a></li><li><a class="_39bM9 rlObi _2NdTs" href="/videos/stupid-morning-bullshit"><div class="lazyload-placeholder"></div><span class="_1WkqK">Stupid Morning Bullshit</span></a></li><li><a class="_39bM9 rlObi _2NdTs" href="/videos/digikiss"><div class="lazyload-placeholder"></div><span class="_1WkqK">Digikiss Presents: Quarantine Valentine</span></a></li><li><a class="_39bM9 rlObi _2NdTs" href="/videos/tato-chat"><div class="lazyload-placeholder"></div><span class="_1WkqK">Tato Chat</span></a></li></ul></div></div></section><section class="_1iQG2 _2t_Tk"><h1 class="_2uAUm">All Shows</h1><div class="_3WbY5 _1QJv9"><ul class="LRpbJ"><li class="_1PmR6"><button aria-pressed="false" class="_6uyQ8" role="button"><span class="_1JiFF">#</span></button></li><li class="_1PmR6"><button aria-pressed="false" class="_6uyQ8" role="button"><span class="_1JiFF">A</span></button></li><li class="_1PmR6"><button aria-pressed="false" class="_6uyQ8" role="button"><span class="_1JiFF">B</span></button></li><li class="_1PmR6"><button aria-pressed="false" class="_6uyQ8" role="button"><span class="_1JiFF">C</span></button></li><li class="_1PmR6"><button aria-pressed="false" class="_6uyQ8" role="button"><span class="_1JiFF">D</span></button></li><li class="_1PmR6"><button aria-pressed="false" class="_6uyQ8" role="button"><span class="_1JiFF">E</span></button></li><li class="_1PmR6"><button aria-pressed="false" class="_6uyQ8" role="button"><span class="_1JiFF">F</span></button></li><li class="_1PmR6"><button aria-pressed="false" class="_6uyQ8" role="button"><span class="_1JiFF">G</span></button></li><li class="_1PmR6"><button aria-pressed="false" class="_6uyQ8" role="button"><span class="_1JiFF">H</span></button></li><li class="_1PmR6"><button aria-pressed="false" class="_6uyQ8" role="button"><span class="_1JiFF">I</span></button></li><li class="_1PmR6"><button aria-pressed="false" class="_6uyQ8" role="button"><span class="_1JiFF">J</span></button></li><li class="_1PmR6"><button aria-pressed="false" class="_6uyQ8" role="button"><span class="_1JiFF">K</span></button></li><li class="_1PmR6"><button aria-pressed="false" class="_6uyQ8" role="button"><span class="_1JiFF">L</span></button></li><li class="_1PmR6"><button aria-pressed="false" class="_6uyQ8" role="button"><span class="_1JiFF">M</span></button></li><li class="_1PmR6"><button aria-pressed="false" class="_6uyQ8" role="button"><span class="_1JiFF">N</span></button></li><li class="_1PmR6"><button aria-pressed="false" class="_6uyQ8" role="button"><span class="_1JiFF">O</span></button></li><li class="_1PmR6"><button aria-pressed="false" class="_6uyQ8" role="button"><span class="_1JiFF">P</span></button></li><li class="_1PmR6"><button aria-pressed="false" class="_6uyQ8" role="button"><span class="_1JiFF">R</span></button></li><li class="_1PmR6"><button aria-pressed="false" class="_6uyQ8" role="button"><span class="_1JiFF">S</span></button></li><li class="_1PmR6"><button aria-pressed="false" class="_6uyQ8" role="button"><span class="_1JiFF">T</span></button></li><li class="_1PmR6"><button aria-pressed="false" class="_6uyQ8" role="button"><span class="_1JiFF">U</span></button></li><li class="_1PmR6"><button aria-pressed="false" class="_6uyQ8" role="button"><span class="_1JiFF">V</span></button></li><li class="_1PmR6"><button aria-pressed="false" class="_6uyQ8" role="button"><span class="_1JiFF">W</span></button></li><li class="_1PmR6"><button aria-pressed="false" class="_6uyQ8" role="button"><span class="_1JiFF">X</span></button></li><li class="_1PmR6"><button aria-pressed="false" class="_6uyQ8" role="button"><span class="_1JiFF">Y</span></button></li></ul></div><ul class="tK3iu"><li><a class="_39bM9" href="/videos/12-oz-mouse"><div class="lazyload-placeholder"></div><span class="_1WkqK">12 oz Mouse</span></a></li><li><a class="_39bM9" href="/videos/adult-swim-celebrity-poker-tournament-royale"><div class="lazyload-placeholder"></div><span class="_1WkqK">Adult Swim Celebrity Poker Tournament Royale</span></a></li><li><a class="_39bM9" href="/videos/specials/the-adult-swim-golf-classic-extended"><div class="lazyload-placeholder"></div><span class="_1WkqK">The Adult Swim Golf Classic</span></a></li><li><a class="_39bM9" href="/videos/adult-swim-summer-showdown"><div class="lazyload-placeholder"></div><span class="_1WkqK">Adult Swim Summer Showdown</span></a></li><li><a class="_39bM9" href="/videos/american-dad"><div class="lazyload-placeholder"></div><span class="_1WkqK">American Dad</span></a></li><li><a class="_39bM9" href="/videos/apollo-gauntlet"><div class="lazyload-placeholder"></div><span class="_1WkqK">Apollo Gauntlet</span></a></li><li><a class="_39bM9" href="/videos/aqua-teen-hunger-force"><div class="lazyload-placeholder"></div><span class="_1WkqK">Aqua Teen Hunger Force</span></a></li><li><a class="_39bM9" href="/videos/as-seen-on-adult-swim"><div class="lazyload-placeholder"></div><span class="_1WkqK">As Seen On Adult Swim</span></a></li><li><a class="_39bM9" href="/videos/assassination-classroom"><div class="lazyload-placeholder"></div><span class="_1WkqK">Assassination Classroom</span></a></li><li><a class="_39bM9" href="/videos/assembly-line-yeah"><div class="lazyload-placeholder"></div><span class="_1WkqK">Assembly Line Yeah</span></a></li><li><a class="_39bM9" href="/videos/assy-mc-gee"><div class="lazyload-placeholder"></div><span class="_1WkqK">Assy McGee</span></a></li><li><a class="_39bM9" href="/videos/attack-on-titan"><div class="lazyload-placeholder"></div><span class="_1WkqK">Attack on Titan</span></a></li><li><a class="_39bM9" href="/videos/ballmastrz-9009"><div class="lazyload-placeholder"></div><span class="_1WkqK">Ballmastrz: 9009</span></a></li><li><a class="_39bM9" href="/videos/beef-house"><div class="lazyload-placeholder"></div><span class="_1WkqK">Beef House</span></a></li><li><a class="_39bM9" href="/videos/specials/the-best-of-totally-4-teens"><div class="lazyload-placeholder"></div><span class="_1WkqK">The Best of Totally 4 Teens</span></a></li><li><a class="_39bM9" href="/videos/black-clover"><div class="lazyload-placeholder"></div><span class="_1WkqK">Black Clover</span></a></li><li><a class="_39bM9" href="/videos/black-dynamite"><div class="lazyload-placeholder"></div><span class="_1WkqK">Black Dynamite</span></a></li><li><a class="_39bM9" href="/videos/black-jesus"><div class="lazyload-placeholder"></div><span class="_1WkqK">Black Jesus</span></a></li><li><a class="_39bM9" href="/videos/block-or-charge"><div class="lazyload-placeholder"></div><span class="_1WkqK">Block or Charge</span></a></li><li><a class="_39bM9" href="/videos/bloodfeast"><div class="lazyload-placeholder"></div><span class="_1WkqK">Bloodfeast</span></a></li><li><a class="_39bM9" href="/videos/bobs-burgers"><div class="lazyload-placeholder"></div><span class="_1WkqK">Bob's Burgers</span></a></li><li><a class="_39bM9" href="/videos/the-boondocks"><div class="lazyload-placeholder"></div><span class="_1WkqK">The Boondocks</span></a></li><li><a class="_39bM9" href="/videos/bottom-text"><div class="lazyload-placeholder"></div><span class="_1WkqK">Bottom Text</span></a></li><li><a class="_39bM9" href="/videos/brad-neelys-harg-nallin-sclopio-peepio"><div class="lazyload-placeholder"></div><span class="_1WkqK">Brad Neely's Harg Nallin' Sclopio Peepio</span></a></li><li><a class="_39bM9" href="/videos/the-brak-show"><div class="lazyload-placeholder"></div><span class="_1WkqK">The Brak Show</span></a></li><li><a class="_39bM9" href="/videos/brett-gelmans-dinner-in-america"><div class="lazyload-placeholder"></div><span class="_1WkqK">Brett Gelman's Dinner in America</span></a></li><li><a class="_39bM9" href="/videos/specials/bushworld-adventures"><div class="lazyload-placeholder"></div><span class="_1WkqK">Bushworld Adventures</span></a></li><li><a class="_39bM9" href="/videos/the-call-of-warr"><div class="lazyload-placeholder"></div><span class="_1WkqK">The Call of Warr</span></a></li><li><a class="_39bM9" href="/videos/check-it-out-with-dr-steve-brule"><div class="lazyload-placeholder"></div><span class="_1WkqK">Check It Out! with Dr. Steve Brule</span></a></li><li><a class="_39bM9" href="/videos/china-il"><div class="lazyload-placeholder"></div><span class="_1WkqK">China, IL</span></a></li><li><a class="_39bM9" href="/videos/commencement-speaker-series"><div class="lazyload-placeholder"></div><span class="_1WkqK">Commencement Speaker Series</span></a></li><li><a class="_39bM9" href="/videos/convention-panels"><div class="lazyload-placeholder"></div><span class="_1WkqK">Convention Panels</span></a></li><li><a class="_39bM9" href="/videos/cowboy-bebop"><div class="lazyload-placeholder"></div><span class="_1WkqK">Cowboy Bebop</span></a></li><li><a class="_39bM9" href="/videos/the-cry-of-mann-a-trool-day-holiday-spectacular-in-eight-parts"><div class="lazyload-placeholder"></div><span class="_1WkqK">THE CRY OF MANN: A TROOL Day Holiday Spectacular in Eight Parts</span></a></li><li><a class="_39bM9" href="/videos/daytime-fighting-league"><div class="lazyload-placeholder"></div><span class="_1WkqK">Daytime Fighting League</span></a></li><li><a class="_39bM9" href="/videos/decker"><div class="lazyload-placeholder"></div><span class="_1WkqK">Decker</span></a></li><li><a class="_39bM9" href="/videos/delocated"><div class="lazyload-placeholder"></div><span class="_1WkqK">Delocated</span></a></li><li><a class="_39bM9" href="/videos/demon-slayer"><div class="lazyload-placeholder"></div><span class="_1WkqK">Demon Slayer</span></a></li><li><a class="_39bM9" href="/videos/development-meeting"><div class="lazyload-placeholder"></div><span class="_1WkqK">Development Meeting</span></a></li><li><a class="_39bM9" href="/videos/digikiss"><div class="lazyload-placeholder"></div><span class="_1WkqK">Digikiss Presents: Quarantine Valentine</span></a></li><li><a class="_39bM9" href="/videos/dragon-ball-super"><div class="lazyload-placeholder"></div><span class="_1WkqK">Dragon Ball Super</span></a></li><li><a class="_39bM9" href="/videos/dream-corp-llc"><div class="lazyload-placeholder"></div><span class="_1WkqK">DREAM CORP LLC</span></a></li><li><a class="_39bM9" href="/videos/the-drinky-crow-show"><div class="lazyload-placeholder"></div><span class="_1WkqK">The Drinky Crow Show</span></a></li><li><a class="_39bM9" href="/videos/eagleheart"><div class="lazyload-placeholder"></div><span class="_1WkqK">Eagleheart</span></a></li><li><a class="_39bM9" href="/videos/electronic-game-information"><div class="lazyload-placeholder"></div><span class="_1WkqK">Electronic Game Information</span></a></li><li><a class="_39bM9" href="/videos/the-eric-andre-show"><div class="lazyload-placeholder"></div><span class="_1WkqK">The Eric Andre Show</span></a></li><li><a class="_39bM9" href="/videos/family-guy"><div class="lazyload-placeholder"></div><span class="_1WkqK">Family Guy</span></a></li><li><a class="_39bM9" href="/videos/fan-fiction-showdown"><div class="lazyload-placeholder"></div><span class="_1WkqK">Fan Fiction Showdown</span></a></li><li><a class="_39bM9" href="/videos/fat-guy-stuck-in-internet"><div class="lazyload-placeholder"></div><span class="_1WkqK">Fat Guy Stuck In Internet</span></a></li><li><a class="_39bM9" href="/videos/final-space"><div class="lazyload-placeholder"></div><span class="_1WkqK">Final Space</span></a></li><li><a class="_39bM9" href="/videos/fire-force"><div class="lazyload-placeholder"></div><span class="_1WkqK">Fire Force</span></a></li><li><a class="_39bM9" href="/videos/fishcenter-live"><div class="lazyload-placeholder"></div><span class="_1WkqK">Fishcenter Live</span></a></li><li><a class="_39bM9" href="/videos/flcl"><div class="lazyload-placeholder"></div><span class="_1WkqK">FLCL</span></a></li><li><a class="_39bM9" href="/videos/frisky-dingo"><div class="lazyload-placeholder"></div><span class="_1WkqK">Frisky Dingo</span></a></li><li><a class="_39bM9" href="/videos/gemusetto"><div class="lazyload-placeholder"></div><span class="_1WkqK">Gemusetto</span></a></li><li><a class="_39bM9" href="/videos/ghost-in-the-shell"><div class="lazyload-placeholder"></div><span class="_1WkqK">Ghost in the Shell</span></a></li><li><a class="_39bM9" href="/videos/specials/gigglefudge-u-s-a"><div class="lazyload-placeholder"></div><span class="_1WkqK">Gigglefudge U.S.A.</span></a></li><li><a class="_39bM9" href="/videos/infomercials/giles-vanderhoot"><div class="lazyload-placeholder"></div><span class="_1WkqK">Giles Vanderhoot</span></a></li><li><a class="_39bM9" href="/videos/the-greatest-event-in-television-history"><div class="lazyload-placeholder"></div><span class="_1WkqK">The Greatest Event in Television History</span></a></li><li><a class="_39bM9" href="/videos/harvey-birdman-attorney-at-law"><div class="lazyload-placeholder"></div><span class="_1WkqK">Harvey Birdman, Attorney at Law</span></a></li><li><a class="_39bM9" href="/videos/the-heart-she-holler"><div class="lazyload-placeholder"></div><span class="_1WkqK">The Heart, She Holler</span></a></li><li><a class="_39bM9" href="/videos/home-movies"><div class="lazyload-placeholder"></div><span class="_1WkqK">Home Movies</span></a></li><li><a class="_39bM9" href="/videos/hot-package"><div class="lazyload-placeholder"></div><span class="_1WkqK">Hot Package</span></a></li><li><a class="_39bM9" href="/videos/hot-streets"><div class="lazyload-placeholder"></div><span class="_1WkqK">Hot Streets</span></a></li><li><a class="_39bM9" href="/videos/i-love-david"><div class="lazyload-placeholder"></div><span class="_1WkqK">I Love David</span></a></li><li><a class="_39bM9" href="/videos/infomercials"><div class="lazyload-placeholder"></div><span class="_1WkqK">Infomercials</span></a></li><li><a class="_39bM9" href="/videos/the-jellies"><div class="lazyload-placeholder"></div><span class="_1WkqK">The Jellies</span></a></li><li><a class="_39bM9" href="/videos/jj-villards-fairy-tales"><div class="lazyload-placeholder"></div><span class="_1WkqK">JJ Villard's Fairy Tales</span></a></li><li><a class="_39bM9" href="/videos/joe-pera-talks-with-you"><div class="lazyload-placeholder"></div><span class="_1WkqK">Joe Pera Talks With You</span></a></li><li><a class="_39bM9" href="/videos/jo-jos-bizarre-adventure"><div class="lazyload-placeholder"></div><span class="_1WkqK">JoJo's Bizarre Adventure</span></a></li><li><a class="_39bM9" href="/videos/king-star-king"><div class="lazyload-placeholder"></div><span class="_1WkqK">King Star King</span></a></li><li><a class="_39bM9" href="/videos/last-stream-on-the-left"><div class="lazyload-placeholder"></div><span class="_1WkqK">Last Stream on the Left</span></a></li><li><a class="_39bM9" href="/videos/lazor-wulf"><div class="lazyload-placeholder"></div><span class="_1WkqK">Lazor Wulf</span></a></li><li><a class="_39bM9" href="/simulcast"><div class="lazyload-placeholder"></div><span class="_1WkqK">Live Simulcast</span></a></li><li><a class="_39bM9" href="/videos/loiter-squad"><div class="lazyload-placeholder"></div><span class="_1WkqK">Loiter Squad</span></a></li><li><a class="_39bM9" href="/videos/lucy-the-daughter-of-the-devil"><div class="lazyload-placeholder"></div><span class="_1WkqK">Lucy, The Daughter of the Devil</span></a></li><li><a class="_39bM9" href="/videos/lupin-the-3rd-part-5"><div class="lazyload-placeholder"></div><span class="_1WkqK">Lupin the 3rd Part 5</span></a></li><li><a class="_39bM9" href="/videos/specials/m-o-p-z"><div class="lazyload-placeholder"></div><span class="_1WkqK">M.O.P.Z.</span></a></li><li><a class="_39bM9" href="/videos/mary-shelleys-frankenhole"><div class="lazyload-placeholder"></div><span class="_1WkqK">Mary Shelley's Frankenhole</span></a></li><li><a class="_39bM9" href="/videos/metalocalypse"><div class="lazyload-placeholder"></div><span class="_1WkqK">Metalocalypse</span></a></li><li><a class="_39bM9" href="/videos/mike-tyson-mysteries"><div class="lazyload-placeholder"></div><span class="_1WkqK">Mike Tyson Mysteries</span></a></li><li><a class="_39bM9" href="/videos/momma-named-me-sheriff"><div class="lazyload-placeholder"></div><span class="_1WkqK">Momma Named Me Sheriff</span></a></li><li><a class="_39bM9" href="/videos/mongo-wrestling-alliance"><div class="lazyload-placeholder"></div><span class="_1WkqK">Mongo Wrestling Alliance</span></a></li><li><a class="_39bM9" href="/videos/moral-orel"><div class="lazyload-placeholder"></div><span class="_1WkqK">Moral Orel</span></a></li><li><a class="_39bM9" href="/videos/mostly-4-millennials"><div class="lazyload-placeholder"></div><span class="_1WkqK">Mostly 4 Millennials</span></a></li><li><a class="_39bM9" href="/videos/specials/mother-may-i-dance-with-mary-janes-fist-a-lifetone-original-movie"><div class="lazyload-placeholder"></div><span class="_1WkqK">Mother May I Dance With Mary Jane's Fist?</span></a></li><li><a class="_39bM9" href="/videos/mr-neighbors-house"><div class="lazyload-placeholder"></div><span class="_1WkqK">Mr. Neighbor's House</span></a></li><li><a class="_39bM9" href="/videos/mr-pickles"><div class="lazyload-placeholder"></div><span class="_1WkqK">Mr. Pickles</span></a></li><li><a class="_39bM9" href="/videos/music-videos"><div class="lazyload-placeholder"></div><span class="_1WkqK">Music Videos</span></a></li><li><a class="_39bM9" href="/videos/naruto-shippuden"><div class="lazyload-placeholder"></div><span class="_1WkqK">Naruto: Shippuden</span></a></li><li><a class="_39bM9" href="/videos/neon-joe"><div class="lazyload-placeholder"></div><span class="_1WkqK">Neon Joe</span></a></li><li><a class="_39bM9" href="/videos/ntsf-sd-suv"><div class="lazyload-placeholder"></div><span class="_1WkqK">NTSF:SD:SUV::</span></a></li><li><a class="_39bM9" href="/videos/off-the-air"><div class="lazyload-placeholder"></div><span class="_1WkqK">Off The Air</span></a></li><li><a class="_39bM9" href="/videos/on-cinema-at-the-cinema"><div class="lazyload-placeholder"></div><span class="_1WkqK">On Cinema At The Cinema</span></a></li><li><a class="_39bM9" href="/videos/one-punch-man"><div class="lazyload-placeholder"></div><span class="_1WkqK">One-Punch Man</span></a></li><li><a class="_39bM9" href="/videos/our-bodies"><div class="lazyload-placeholder"></div><span class="_1WkqK">Our Bodies</span></a></li><li><a class="_39bM9" href="/videos/perfect-hair-forever"><div class="lazyload-placeholder"></div><span class="_1WkqK">Perfect Hair Forever</span></a></li><li><a class="_39bM9" href="/videos/the-perfect-women"><div class="lazyload-placeholder"></div><span class="_1WkqK">The Perfect Women</span></a></li><li><a class="_39bM9" href="/videos/primal"><div class="lazyload-placeholder"></div><span class="_1WkqK">Primal</span></a></li><li><a class="_39bM9" href="/videos/promos"><div class="lazyload-placeholder"></div><span class="_1WkqK">Promos</span></a></li><li><a class="_39bM9" href="/videos/specials/ranger-smith-boo-boo-runs-wild"><div class="lazyload-placeholder"></div><span class="_1WkqK">Ranger Smith –  Boo Boo Runs Wild</span></a></li><li><a class="_39bM9" href="/videos/the-restless-bell"><div class="lazyload-placeholder"></div><span class="_1WkqK">The Restless Bell</span></a></li><li><a class="_39bM9" href="/videos/rick-and-morty"><div class="lazyload-placeholder"></div><span class="_1WkqK">Rick and Morty</span></a></li><li><a class="_39bM9" href="/videos/the-rising-son"><div class="lazyload-placeholder"></div><span class="_1WkqK">The Rising Son</span></a></li><li><a class="_39bM9" href="/videos/robot-chicken"><div class="lazyload-placeholder"></div><span class="_1WkqK">Robot Chicken</span></a></li><li><a class="_39bM9" href="/videos/samurai-jack"><div class="lazyload-placeholder"></div><span class="_1WkqK">Samurai Jack</span></a></li><li><a class="_39bM9" href="/videos/sand-whale-and-me"><div class="lazyload-placeholder"></div><span class="_1WkqK">Sand Whale and Me</span></a></li><li><a class="_39bM9" href="/videos/saul-of-the-mole-men"><div class="lazyload-placeholder"></div><span class="_1WkqK">Saul of the Mole Men</span></a></li><li><a class="_39bM9" href="/videos/scum"><div class="lazyload-placeholder"></div><span class="_1WkqK">SCUM</span></a></li><li><a class="_39bM9" href="/videos/sealab-2021"><div class="lazyload-placeholder"></div><span class="_1WkqK">Sealab 2021</span></a></li><li><a class="_39bM9" href="/videos/the-shivering-truth"><div class="lazyload-placeholder"></div><span class="_1WkqK">The Shivering Truth</span></a></li><li><a class="_39bM9" href="/videos/smalls"><div class="lazyload-placeholder"></div><span class="_1WkqK">Smalls</span></a></li><li><a class="_39bM9" href="/videos/smiling-friends"><div class="lazyload-placeholder"></div><span class="_1WkqK">Smiling Friends</span></a></li><li><a class="_39bM9" href="/videos/soft-focus-with-jena-friedman"><div class="lazyload-placeholder"></div><span class="_1WkqK">Soft Focus with Jena Friedman</span></a></li><li><a class="_39bM9" href="/videos/soul-quest-overdrive"><div class="lazyload-placeholder"></div><span class="_1WkqK">Soul Quest Overdrive</span></a></li><li><a class="_39bM9" href="/videos/space-ghost-coast-to-coast"><div class="lazyload-placeholder"></div><span class="_1WkqK">Space Ghost Coast to Coast</span></a></li><li><a class="_39bM9" href="/videos/specials"><div class="lazyload-placeholder"></div><span class="_1WkqK">Specials</span></a></li><li><a class="_39bM9" href="/videos/squidbillies"><div class="lazyload-placeholder"></div><span class="_1WkqK">Squidbillies</span></a></li><li><a class="_39bM9" href="/videos/ssss-gridman"><div class="lazyload-placeholder"></div><span class="_1WkqK">SSSS Gridman</span></a></li><li><a class="_39bM9" href="/videos/stroker-and-hoop"><div class="lazyload-placeholder"></div><span class="_1WkqK">Stroker and Hoop</span></a></li><li><a class="_39bM9" href="/videos/stupid-morning-bullshit"><div class="lazyload-placeholder"></div><span class="_1WkqK">Stupid Morning Bullshit</span></a></li><li><a class="_39bM9" href="/videos/superjail"><div class="lazyload-placeholder"></div><span class="_1WkqK">Superjail!</span></a></li><li><a class="_39bM9" href="/videos/sword-art-online-alicization-war-of-underworld"><div class="lazyload-placeholder"></div><span class="_1WkqK">Sword Art Online: Alicization - War of Underworld</span></a></li><li><a class="_39bM9" href="/videos/tato-chat"><div class="lazyload-placeholder"></div><span class="_1WkqK">Tato Chat</span></a></li><li><a class="_39bM9" href="/videos/tender-touches"><div class="lazyload-placeholder"></div><span class="_1WkqK">Tender Touches</span></a></li><li><a class="_39bM9" href="/videos/infomercials/this-house-has-people-in-it"><div class="lazyload-placeholder"></div><span class="_1WkqK">This House Has People In It</span></a></li><li><a class="_39bM9" href="/videos/three-busy-debras"><div class="lazyload-placeholder"></div><span class="_1WkqK">Three Busy Debras</span></a></li><li><a class="_39bM9" href="/videos/tigtone"><div class="lazyload-placeholder"></div><span class="_1WkqK">Tigtone</span></a></li><li><a class="_39bM9" href="/videos/tim-erics-bedtime-stories"><div class="lazyload-placeholder"></div><span class="_1WkqK">Tim &amp; Eric's Bedtime Stories</span></a></li><li><a class="_39bM9" href="/videos/tim-and-eric-awesome-show-great-job"><div class="lazyload-placeholder"></div><span class="_1WkqK">Tim and Eric Awesome Show Great Job!</span></a></li><li><a class="_39bM9" href="/videos/tim-and-eric-qu-z"><div class="lazyload-placeholder"></div><span class="_1WkqK">Tim and Eric Qu?z</span></a></li><li><a class="_39bM9" href="/videos/titan-maximum"><div class="lazyload-placeholder"></div><span class="_1WkqK">Titan Maximum</span></a></li><li><a class="_39bM9" href="/videos/tom-goes-to-the-mayor"><div class="lazyload-placeholder"></div><span class="_1WkqK">Tom Goes To The Mayor</span></a></li><li><a class="_39bM9" href="/videos/infomercials/too-many-cooks"><div class="lazyload-placeholder"></div><span class="_1WkqK">Too Many Cooks</span></a></li><li><a class="_39bM9" href="/videos/toonami"><div class="lazyload-placeholder"></div><span class="_1WkqK">Toonami</span></a></li><li><a class="_39bM9" href="/videos/tropical-cop-tales"><div class="lazyload-placeholder"></div><span class="_1WkqK">Tropical Cop Tales</span></a></li><li><a class="_39bM9" href="/videos/truthpoint"><div class="lazyload-placeholder"></div><span class="_1WkqK">Truthpoint</span></a></li><li><a class="_39bM9" href="/videos/tuca-bertie"><div class="lazyload-placeholder"></div><span class="_1WkqK">Tuca &amp; Bertie</span></a></li><li><a class="_39bM9" href="/videos/uzumaki"><div class="lazyload-placeholder"></div><span class="_1WkqK">Uzumaki</span></a></li><li><a class="_39bM9" href="/videos/the-venture-bros"><div class="lazyload-placeholder"></div><span class="_1WkqK">The Venture Bros.</span></a></li><li><a class="_39bM9" href="/videos/williams-street-swap-shop"><div class="lazyload-placeholder"></div><span class="_1WkqK">Williams Street Swap Shop</span></a></li><li><a class="_39bM9" href="/videos/xavier-renegade-angel"><div class="lazyload-placeholder"></div><span class="_1WkqK">Xavier: Renegade Angel</span></a></li><li><a class="_39bM9" href="/videos/yolo-crystal-fantasy"><div class="lazyload-placeholder"></div><span class="_1WkqK">YOLO Crystal Fantasy</span></a></li><li><a class="_39bM9" href="/videos/youre-whole"><div class="lazyload-placeholder"></div><span class="_1WkqK">You're Whole</span></a></li><li><a class="_39bM9" href="/videos/young-persons-guide-to-history"><div class="lazyload-placeholder"></div><span class="_1WkqK">Young Person's Guide to History</span></a></li><li><a class="_39bM9" href="/videos/your-pretty-face-is-going-to-hell"><div class="lazyload-placeholder"></div><span class="_1WkqK">Your Pretty Face is Going to Hell</span></a></li></ul></section></div></div><footer><!-- BEGIN [as] global footer -->
<div id="global-as-footer">
<ul style="margin-bottom:12px;text-transform:uppercase;">
<li>
<a href="https://www.adultswim.com/misc/newsletter">Sign up for the Adult Swim Newsletter</a>
</li>
</ul>
<div class="footer-container" id="legal-footer">
<div id="legal-links">
<ul>
<li id="as-legal-links-privacy-policy">
<a href="http://policies.warnerbros.com/privacy/">Privacy Policy</a>
</li>
<li id="as-legal-links-ad-choice">
<span class="ad-choice-area" id="adultswim_ad_choices">
<strong>
<script async="" src="//consent.truste.com/notice?domain=turner.com&amp;c=adultswim_ad_choices&amp;text=true&amp;country=us"></script>
</strong>
</span>
<img alt="AdChoices icon" aria-hidden="true" height="12" src="https://i.cdn.turner.com/adultswim/big/img/footer/ad-choices.png" style="margin:0 0 0 6px; vertical-align:middle;" width="12"/>
</li>
<li class="as-legal-preference-center-toggles" id="as-legal-preference-center">
<a class="ot-sdk-show-settings" href="#dns" role="button">Cookie Settings</a>
</li>
<li id="as-legal-links-terms">
<a href="https://policies.warnerbros.com/terms/en-us/">Terms of Use</a>
</li>
<li id="as-legal-links-parental-controls">
<a href="http://www.tvguidelines.org/" rel="noopener noreferrer" target="_blank">Parental Controls</a>
</li>
<li id="as-legal-links-cc">
<a href="https://www.adultswim.com/footer/legal/closed-captioning.html">Closed Captioning</a>
</li>
<li id="as-legal-links-contact">
<a href="https://www.adultswim.com/footer/contact/">Contact Us</a>
</li>
<li id="as-legal-links-press">
<a href="http://news.turner.com/section_display.cfm?section_id=82" rel="noopener noreferrer" target="_blank">Press Room</a>
</li>
<li id="as-legal-links-help">
<a href="https://www.adultswim.com/footer/help/">Help</a>
</li>
<li id="as-legal-links-sitemap">
<a href="http://www.adultswim.com/sitemap/">Site Map</a>
</li>
</ul>
</div>
<p id="tbs-info">
            TM &amp; © <span id="tbs-info-year">2021</span> <a href="https://www.turner.com/" rel="noopener noreferrer" target="_blank">Turner Broadcasting System, Inc.</a> A WarnerMedia Company. All Rights Reserved.
        </p>
<p id="adultswim-info">
<a href="https://www.turner.com/" rel="noopener noreferrer" target="_blank">
<svg data-name="turner" height="10px" id="957821a5-b1ef-4daf-87a3-2e154248521b" style="margin:0 4px 0 0;" viewbox="0 0 57.25 10" width="57.25px" xmlns="http://www.w3.org/2000/svg">
<title>turner</title>
<path d="M48.17,6a7.7,7.7,0,0,0,.26-1.83A4,4,0,0,0,44.2,0a5.77,5.77,0,0,0-5.65,5,4,4,0,0,0,4.2,5,5.66,5.66,0,0,0,5.11-3.18H44.39a1.88,1.88,0,0,1-1.5.55A1.33,1.33,0,0,1,41.42,6h6.75ZM44,2.54a1.29,1.29,0,0,1,1.43,1.38H41.92A2.19,2.19,0,0,1,44,2.54Z" transform="translate(-0.38)"></path>
<path d="M55.46,0a2.17,2.17,0,1,0,2.16,2.16A2.17,2.17,0,0,0,55.46,0Z" transform="translate(-0.38)"></path>
<path d="M35.08,0a4.17,4.17,0,0,0-3,1.52L32.4,0.24H29.31L27.62,9.76h3.3l1-5.39a1.75,1.75,0,0,1,1.69-1.52,1.12,1.12,0,0,1,1,1.52l-1,5.39H37l1-5.84C38.43,1.52,37.27,0,35.08,0Z" transform="translate(-0.38)"></path>
<polygon points="0.55 0.24 9.26 0.24 8.72 3.3 6.08 3.3 4.94 9.76 1.61 9.76 2.75 3.3 0 3.3 0.55 0.24"></polygon>
<path d="M10.4,0.24h3.3l-0.93,5.3A1.06,1.06,0,0,0,13.85,7a1.66,1.66,0,0,0,1.64-1.45l0.93-5.3h3.3l-0.9,5.08A5.11,5.11,0,0,1,13.42,10C10.59,10,9,8.46,9.52,5.32Z" transform="translate(-0.38)"></path>
<polygon points="18.5 9.76 21.83 9.76 23.49 0.24 20.19 0.24 18.5 9.76"></polygon>
<path d="M26.08,0a2.17,2.17,0,1,0,2.16,2.16A2.14,2.14,0,0,0,26.08,0Z" transform="translate(-0.38)"></path>
<polygon points="47.89 9.76 51.19 9.76 52.87 0.24 49.55 0.24 47.89 9.76"></polygon>
</svg>
</a>
<span>
                AdultSwim.com is part of Turner Entertainment Digital which is part of the Turner Sports &amp;
                Entertainment Digital Network.
            </span>
<a href="http://www.tourgeorgiafilm.com/" rel="noopener noreferrer" target="_blank">
<img alt="Georgia" height="20px" src="https://i.cdn.turner.com/adultswim/big/img/footer/georgia.png" style="margin:0 0px 0px 4px;"/>
</a>
</p>
</div>
<div class="footer-container" id="mobile-legal-footer">
<ul>
<li>
<a href="https://policies.warnerbros.com/terms/en-us/">Terms of Use</a>
</li>
<li>
<a href="http://policies.warnerbros.com/privacy/">Privacy Policy</a>
</li>
<li class="as-legal-preference-center-toggles">
<a class="ot-sdk-show-settings" href="#dns" role="button">Cookie Settings</a>
</li>
<li id="as-legal-links-ad-choice">
<a href="https://policies.warnerbros.com/privacy/en-us/html/privacy_en-us_1.2.0.html#adchoices">Ad Choices</a>
</li>
</ul>
</div>
</div>
<!-- END [as] global footer -->
<script src="https://static.cdn.adultswim.com/tools/global/user-consent-3.0.3.min.js"></script>
<script>
    var AS_ONE_TRUST_DOM_ID = 'ebf65019-5047-4aa0-8f81-c2eb4dcb9536';
    var AS_ONE_TRUST_URL = 'https://cdn.cookielaw.org/scripttemplates/otSDKStub.js';
    var AS_PRISM_APP_ID = '5f034237775427dcb8e3d4b9';
</script>
<script src="https://i.cdn.turner.com/ads/adfuel/ais/2.1/as-ais.min.js"></script>
<script src="https://i.cdn.turner.com/ads/adfuel/adfuel-2.1.min.js"></script>
<script src="https://acdn.adnxs.com/dmp/firstpartyuid/uidsync.js"></script>
<script async="" src="https://lightning.adultswim.com/launch/7be62238e4c3/22d196a3e151/launch-2fa6614adbd9.min.js"></script>
</footer></div><script src="https://static.cdn.adultswim.com/tools/global/scripts.js"></script><script src="https://d2gg02c3xr550i.cloudfront.net/assets/runtime.708f6b13c78262c41f0e.bundle.js"></script><script src="https://d2gg02c3xr550i.cloudfront.net/assets/vendor.7cb121289b3219610cfd.bundle.js"></script><script src="https://d2gg02c3xr550i.cloudfront.net/assets/asvp.f71489365ca7803d716f.bundle.js"></script><script id="__NEXT_DATA__" type="application/json">{"dataManager":"[]","props":{"pageProps":{"description":"Watch free full episodes, online videos, clips and web exclusives at AdultSwim.com.","featuredStream":{"title":"The Eric Andre Show","url":"/streams/the-eric-andre-show","video":"xlnak2rLSJmBf3FH8WF3GA"},"shows":[{"title":"12 oz Mouse","slug":"12-oz-mouse","poster":"https://media.cdn.adultswim.com/uploads/20210105/2115185529-12ozMouseS03_posterimage.jpg","url":"/videos/12-oz-mouse","fullSeasons":false},{"title":"Adult Swim Celebrity Poker Tournament Royale","slug":"adult-swim-celebrity-poker-tournament-royale","poster":"https://media.cdn.adultswim.com/uploads/20201005/201051711238-CelebPoker.png","url":"/videos/adult-swim-celebrity-poker-tournament-royale","fullSeasons":false},{"title":"Adult Swim Summer Showdown","slug":"adult-swim-summer-showdown","poster":"https://media.cdn.adultswim.com/uploads/20200602/20621659434-adultswimsummershowdown_posterimage.jpg","url":"/videos/adult-swim-summer-showdown","fullSeasons":false},{"title":"American Dad","slug":"american-dad","poster":"https://i.cdn.turner.com/adultswim/big/img/2019/01/16/AmericanDad_Posterimage.jpg","url":"/videos/american-dad","fullSeasons":false},{"title":"Apollo Gauntlet","slug":"apollo-gauntlet","poster":"https://media.cdn.adultswim.com/uploads/20191016/191016167267-ApolloGauntlet_Thumbnail.jpg","url":"/videos/apollo-gauntlet","fullSeasons":false},{"title":"Aqua Teen Hunger Force","slug":"aqua-teen-hunger-force","poster":"https://media.cdn.adultswim.com/uploads/20200527/205271324100-AquaTeenHungerForce_PosterImage.jpg","url":"/videos/aqua-teen-hunger-force","fullSeasons":false},{"title":"As Seen On Adult Swim","slug":"as-seen-on-adult-swim","poster":"https://i.cdn.turner.com/adultswim/big/img/2018/06/27/AsSeenOn_PosterImage.jpg","url":"/videos/as-seen-on-adult-swim","fullSeasons":false},{"title":"Assassination Classroom","slug":"assassination-classroom","poster":"https://media.cdn.adultswim.com/uploads/20200821/208211711215-ac_posterimage.jpg","url":"/videos/assassination-classroom","fullSeasons":false},{"title":"Assembly Line Yeah","slug":"assembly-line-yeah","poster":"https://i.cdn.turner.com/adultswim/big/img/2019/02/11/aly_posterimage.jpg","url":"/videos/assembly-line-yeah","fullSeasons":false},{"title":"Assy McGee","slug":"assy-mc-gee","poster":"https://media.cdn.adultswim.com/uploads/20191016/19101616802-AssyMcGee_Thumbnail.jpg","url":"/videos/assy-mc-gee","fullSeasons":false},{"title":"Attack on Titan","slug":"attack-on-titan","poster":"https://media.cdn.adultswim.com/uploads/20210105/2115132150-AOT_s4_posterimage.jpg","url":"/videos/attack-on-titan","fullSeasons":false},{"title":"Ballmastrz: 9009","slug":"ballmastrz-9009","poster":"https://media.cdn.adultswim.com/uploads/20200901/20911230180-ballmasterz9009S2_posterimage.jpg","url":"/videos/ballmastrz-9009","fullSeasons":false},{"title":"Beef House","slug":"beef-house","poster":"https://media.cdn.adultswim.com/uploads/20200311/20311172362-beefhouse_posterimage.jpg","url":"/videos/beef-house","fullSeasons":false},{"title":"Black Clover","slug":"black-clover","poster":"https://i.cdn.turner.com/adultswim/big/img/2018/07/18/BlackClover_PosterImage.jpg","url":"/videos/black-clover","fullSeasons":false},{"title":"Black Dynamite","slug":"black-dynamite","poster":"https://media.cdn.adultswim.com/uploads/20200901/20911232121-BlackDynamite_posterImage.png","url":"/videos/black-dynamite","fullSeasons":false},{"title":"Black Jesus","slug":"black-jesus","poster":"https://media.cdn.adultswim.com/uploads/20190912/199121118532-blackjesus3_posterimage.jpg","url":"/videos/black-jesus","fullSeasons":false},{"title":"Block or Charge","slug":"block-or-charge","poster":"https://media.cdn.adultswim.com/uploads/20191204/191241511557-BlockOrCharge_posterimage.jpg","url":"/videos/block-or-charge","fullSeasons":false},{"title":"Bloodfeast","slug":"bloodfeast","poster":"https://i.cdn.turner.com/adultswim/big/img/2018/06/27/bloodfeast_PosterImage.jpg","url":"/videos/bloodfeast","fullSeasons":false},{"title":"Bob's Burgers","slug":"bobs-burgers","poster":"https://i.cdn.turner.com/adultswim/big/img/2018/07/05/BobsBurgers_PosterImage.jpg","url":"/videos/bobs-burgers","fullSeasons":false},{"title":"Bottom Text","slug":"bottom-text","poster":"https://media.cdn.adultswim.com/uploads/20200224/20224164189-bt_posterimage55.jpg","url":"/videos/bottom-text","fullSeasons":false},{"title":"Brad Neely's Harg Nallin' Sclopio Peepio","slug":"brad-neelys-harg-nallin-sclopio-peepio","poster":"https://media.cdn.adultswim.com/uploads/20200327/203271013414-hargnallinFull.jpg","url":"/videos/brad-neelys-harg-nallin-sclopio-peepio","fullSeasons":false},{"title":"Brett Gelman's Dinner in America","slug":"brett-gelmans-dinner-in-america","poster":"https://media.cdn.adultswim.com/uploads/20191016/1910161650364-dinner.jpg","url":"/videos/brett-gelmans-dinner-in-america","fullSeasons":false},{"title":"Check It Out! with Dr. Steve Brule","slug":"check-it-out-with-dr-steve-brule","poster":"https://media.cdn.adultswim.com/uploads/20210105/21152022410-CheckItOut_Posterimage.jpg","url":"/videos/check-it-out-with-dr-steve-brule","fullSeasons":false},{"title":"China, IL","slug":"china-il","poster":"https://media.cdn.adultswim.com/uploads/20191016/1910161615171-ChinaIL_Thumbnail.jpg","url":"/videos/china-il","fullSeasons":false},{"title":"Commencement Speaker Series","slug":"commencement-speaker-series","poster":"https://media.cdn.adultswim.com/uploads/20200513/20513211389-commencementspeakerseries_posterimage.jpg","url":"/videos/commencement-speaker-series","fullSeasons":false},{"title":"Convention Panels","slug":"convention-panels","poster":"https://i.cdn.turner.com/adultswim/big/img/2018/07/05/ConventionImages_Posterimages.jpg","url":"/videos/convention-panels","fullSeasons":false},{"title":"Cowboy Bebop","slug":"cowboy-bebop","poster":"https://media.cdn.adultswim.com/uploads/20200408/20481437314-fullseasonCOWBOYBEBOP2.jpg","url":"/videos/cowboy-bebop","fullSeasons":false},{"title":"Daytime Fighting League","slug":"daytime-fighting-league","poster":"https://i.cdn.turner.com/adultswim/big/img/2018/07/05/DaytimeFightingLeague_Posterimages.jpg","url":"/videos/daytime-fighting-league","fullSeasons":false},{"title":"Decker","slug":"decker","poster":"https://media.cdn.adultswim.com/uploads/20191016/1910161615531-Decker_Thumbnail.jpg","url":"/videos/decker","fullSeasons":false},{"title":"Delocated","slug":"delocated","poster":"https://media.cdn.adultswim.com/uploads/20210105/21152116554-Delocated_Posterimage.jpg","url":"/videos/delocated","fullSeasons":false},{"title":"Demon Slayer","slug":"demon-slayer","poster":"https://media.cdn.adultswim.com/uploads/20191002/191021710348-DemonSlayer__posterimage.jpg","url":"/videos/demon-slayer","fullSeasons":false},{"title":"Development Meeting","slug":"development-meeting","poster":"https://i.cdn.turner.com/adultswim/big/img/2019/02/11/dm_posterimage.jpg","url":"/videos/development-meeting","fullSeasons":false},{"title":"Digikiss Presents: Quarantine Valentine","slug":"digikiss","poster":"https://media.cdn.adultswim.com/uploads/20200601/2061196328-DKQT_posterimagev2.jpg","url":"/videos/digikiss","fullSeasons":false},{"title":"Dragon Ball Super","slug":"dragon-ball-super","poster":"https://i.cdn.turner.com/adultswim/big/img/2018/07/05/DragonBallSuper_Posterimages.jpg","url":"/videos/dragon-ball-super","fullSeasons":false},{"title":"DREAM CORP LLC","slug":"dream-corp-llc","poster":"https://i.cdn.turner.com/adultswim/big/img/2018/10/16/dreamcorpllc2v2_posterimage.jpg","url":"/videos/dream-corp-llc","fullSeasons":false},{"title":"Eagleheart","slug":"eagleheart","poster":"https://media.cdn.adultswim.com/uploads/20210108/2118188149-EAGLEHEART.jpg","url":"/videos/eagleheart","fullSeasons":false},{"title":"Electronic Game Information","slug":"electronic-game-information","poster":"https://i.cdn.turner.com/adultswim/big/img/2019/02/14/egi_posterimage.jpg","url":"/videos/electronic-game-information","fullSeasons":false},{"title":"Family Guy","slug":"family-guy","poster":"https://i.cdn.turner.com/adultswim/big/img/2018/07/05/FamilyGuy_PosterImage.jpg","url":"/videos/family-guy","fullSeasons":false},{"title":"Fan Fiction Showdown","slug":"fan-fiction-showdown","poster":"https://media.cdn.adultswim.com/uploads/20200504/2054158140-ffs_posterimage.jpg","url":"/videos/fan-fiction-showdown","fullSeasons":false},{"title":"Fat Guy Stuck In Internet","slug":"fat-guy-stuck-in-internet","poster":"https://media.cdn.adultswim.com/uploads/20200408/2048168482-fullseasonFATGUY.jpg","url":"/videos/fat-guy-stuck-in-internet","fullSeasons":false},{"title":"Final Space","slug":"final-space","poster":"https://i.cdn.turner.com/adultswim/big/img/2019/04/10/finalspace_posterimage.jpg","url":"/videos/final-space","fullSeasons":false},{"title":"Fire Force","slug":"fire-force","poster":"https://media.cdn.adultswim.com/uploads/20190722/19722173364-FireForce__poster.jpg","url":"/videos/fire-force","fullSeasons":false},{"title":"Fishcenter Live","slug":"fishcenter-live","poster":"https://i.cdn.turner.com/adultswim/big/img/2018/07/05/FishCenter_posterImages.jpg","url":"/videos/fishcenter-live","fullSeasons":false},{"title":"FLCL","slug":"flcl","poster":"https://media.cdn.adultswim.com/uploads/20191016/191016161810-FLCL_Thumbnail.jpg","url":"/videos/flcl","fullSeasons":false},{"title":"Frisky Dingo","slug":"frisky-dingo","poster":"https://media.cdn.adultswim.com/uploads/20210105/21152056468-FriskyDingo_PosterImages.jpg","url":"/videos/frisky-dingo","fullSeasons":false},{"title":"Gemusetto","slug":"gemusetto","poster":"https://media.cdn.adultswim.com/uploads/20201007/201071729155-gsmp_posterimagev2.jpg","url":"/videos/gemusetto","fullSeasons":false},{"title":"Ghost in the Shell","slug":"ghost-in-the-shell","poster":"https://media.cdn.adultswim.com/uploads/20200408/2048144023-fullseasonGHOSTINTHESHELL.jpg","url":"/videos/ghost-in-the-shell","fullSeasons":false},{"title":"Harvey Birdman, Attorney at Law","slug":"harvey-birdman-attorney-at-law","poster":"https://media.cdn.adultswim.com/uploads/20200901/20911234561-HarveyBirdman_Posterimages.png","url":"/videos/harvey-birdman-attorney-at-law","fullSeasons":false},{"title":"Home Movies","slug":"home-movies","poster":"https://media.cdn.adultswim.com/uploads/20200527/205271329138-HomeMovie_PosterImage.jpg","url":"/videos/home-movies","fullSeasons":false},{"title":"Hot Package","slug":"hot-package","poster":"https://media.cdn.adultswim.com/uploads/20200408/2048167125-fullseasonHOTPACKAGE.jpg","url":"/videos/hot-package","fullSeasons":false},{"title":"Hot Streets","slug":"hot-streets","poster":"https://media.cdn.adultswim.com/uploads/20210108/2118184343-hotstreetsS2_posterimage.jpg","url":"/videos/hot-streets","fullSeasons":false},{"title":"I Love David","slug":"i-love-david","poster":"https://i.cdn.turner.com/adultswim/big/img/2019/07/11/iLoveDavid_posterimage.jpg","url":"/videos/i-love-david","fullSeasons":false},{"title":"Infomercials","slug":"infomercials","poster":"https://media.cdn.adultswim.com/uploads/20200901/20911235495-Infomercials_PosterImage.png","url":"/videos/infomercials","fullSeasons":false},{"title":"JJ Villard's Fairy Tales","slug":"jj-villards-fairy-tales","poster":"https://media.cdn.adultswim.com/uploads/20200409/20491418281-fairytales_posterimage.jpg","url":"/videos/jj-villards-fairy-tales","fullSeasons":false},{"title":"JoJo's Bizarre Adventure","slug":"jo-jos-bizarre-adventure","poster":"https://media.cdn.adultswim.com/uploads/20191018/1910181550332-JoJo_GW_posterimage.jpg","url":"/videos/jo-jos-bizarre-adventure","fullSeasons":false},{"title":"Joe Pera Talks With You","slug":"joe-pera-talks-with-you","poster":"https://media.cdn.adultswim.com/uploads/20200901/2091123857-20911236422-JoePeraTalksWithYou_PosterImage.jpg","url":"/videos/joe-pera-talks-with-you","fullSeasons":false},{"title":"King Star King","slug":"king-star-king","poster":"https://media.cdn.adultswim.com/uploads/20191016/1910161622370-KingStarKing_Thumbnail.jpg","url":"/videos/king-star-king","fullSeasons":false},{"title":"Last Stream on the Left","slug":"last-stream-on-the-left","poster":"https://i.cdn.turner.com/adultswim/big/img/2019/02/07/laststreamposter2.jpg","url":"/videos/last-stream-on-the-left","fullSeasons":false},{"title":"Lazor Wulf","slug":"lazor-wulf","poster":"https://media.cdn.adultswim.com/uploads/20201120/201120145660-lazer-wulf-season-2_posterimage.jpg","url":"/videos/lazor-wulf","fullSeasons":false},{"title":"Loiter Squad","slug":"loiter-squad","poster":"https://media.cdn.adultswim.com/uploads/20210105/2115212352-LoiterSquad_PosterImage.jpg","url":"/videos/loiter-squad","fullSeasons":false},{"title":"Lucy, The Daughter of the Devil","slug":"lucy-the-daughter-of-the-devil","poster":"https://media.cdn.adultswim.com/uploads/20210105/21152122436-LucyDOTD_PosterImage.jpg","url":"/videos/lucy-the-daughter-of-the-devil","fullSeasons":false},{"title":"Lupin the 3rd Part 5","slug":"lupin-the-3rd-part-5","poster":"https://i.cdn.turner.com/adultswim/big/img/2019/06/04/LPN3__poster.jpg","url":"/videos/lupin-the-3rd-part-5","fullSeasons":false},{"title":"Mary Shelley's Frankenhole","slug":"mary-shelleys-frankenhole","poster":"https://media.cdn.adultswim.com/uploads/20191016/191016162459-MaryShelleyFrankenhole_Thumbnail.jpg","url":"/videos/mary-shelleys-frankenhole","fullSeasons":false},{"title":"Metalocalypse","slug":"metalocalypse","poster":"https://media.cdn.adultswim.com/uploads/20200527/205271331323-Metalocalypse_posterimage.jpg","url":"/videos/metalocalypse","fullSeasons":false},{"title":"Mike Tyson Mysteries","slug":"mike-tyson-mysteries","poster":"https://i.cdn.turner.com/adultswim/big/img/2019/06/17/mtm4_posterimage.jpg","url":"/videos/mike-tyson-mysteries","fullSeasons":false},{"title":"Momma Named Me Sheriff","slug":"momma-named-me-sheriff","poster":"https://media.cdn.adultswim.com/uploads/20200114/20114113620-momma.jpg","url":"/videos/momma-named-me-sheriff","fullSeasons":false},{"title":"Mongo Wrestling Alliance","slug":"mongo-wrestling-alliance","poster":"https://media.cdn.adultswim.com/uploads/20191016/1910161626261-MongosWrestling_Thumbnail.jpg","url":"/videos/mongo-wrestling-alliance","fullSeasons":false},{"title":"Moral Orel","slug":"moral-orel","poster":"https://media.cdn.adultswim.com/uploads/20200901/20911251399-MoralOrel_Posterimage.jpg","url":"/videos/moral-orel","fullSeasons":false},{"title":"Mostly 4 Millennials","slug":"mostly-4-millennials","poster":"https://media.cdn.adultswim.com/uploads/20210105/2115195238-M4M_Poster.jpg","url":"/videos/mostly-4-millennials","fullSeasons":false},{"title":"Mr. Neighbor's House","slug":"mr-neighbors-house","poster":"https://media.cdn.adultswim.com/uploads/20191016/191016162789-MrNeighbor_Thumbnail.jpg","url":"/videos/mr-neighbors-house","fullSeasons":false},{"title":"Mr. Pickles","slug":"mr-pickles","poster":"https://media.cdn.adultswim.com/uploads/20191113/1911131710449-pickles.jpg","url":"/videos/mr-pickles","fullSeasons":false},{"title":"Music Videos","slug":"music-videos","poster":"https://i.cdn.turner.com/adultswim/big/img/2018/07/05/MusicVideos_PosterImage.jpg","url":"/videos/music-videos","fullSeasons":false},{"title":"Naruto: Shippuden","slug":"naruto-shippuden","poster":"https://i.cdn.turner.com/adultswim/big/img/2018/07/05/NarutoShippuden_Posterimage.jpg","url":"/videos/naruto-shippuden","fullSeasons":false},{"title":"Neon Joe","slug":"neon-joe","poster":"https://media.cdn.adultswim.com/uploads/20191125/1911251643562-NeonJoe_Posterimage.jpg","url":"/videos/neon-joe","fullSeasons":false},{"title":"NTSF:SD:SUV::","slug":"ntsf-sd-suv","poster":"https://media.cdn.adultswim.com/uploads/20200507/20571430394-NTSFSDSUV_PosterImage_FS.jpg","url":"/videos/ntsf-sd-suv","fullSeasons":false},{"title":"Off The Air","slug":"off-the-air","poster":"https://media.cdn.adultswim.com/uploads/20200901/20911252125-OffTheAir_PosterImage.png","url":"/videos/off-the-air","fullSeasons":false},{"title":"On Cinema At The Cinema","slug":"on-cinema-at-the-cinema","poster":"https://media.cdn.adultswim.com/uploads/20190904/19941127581-oc11_posterimage.jpg","url":"/videos/on-cinema-at-the-cinema","fullSeasons":false},{"title":"One-Punch Man","slug":"one-punch-man","poster":"https://media.cdn.adultswim.com/uploads/20191001/191011426184-OnePunchManSeason2__posterimage.jpg","url":"/videos/one-punch-man","fullSeasons":false},{"title":"Our Bodies","slug":"our-bodies","poster":"https://i.cdn.turner.com/adultswim/big/img/2019/07/11/OurBodies_posterimage.jpg","url":"/videos/our-bodies","fullSeasons":false},{"title":"Perfect Hair Forever","slug":"perfect-hair-forever","poster":"https://media.cdn.adultswim.com/uploads/20191016/1910161627450-PHF_Thumbnail.jpg","url":"/videos/perfect-hair-forever","fullSeasons":false},{"title":"Primal","slug":"primal","poster":"https://media.cdn.adultswim.com/uploads/20200918/209181715309-primalS2_posterimage.jpg","url":"/videos/primal","fullSeasons":false},{"title":"Promos","slug":"promos","poster":"https://i.cdn.turner.com/adultswim/big/img/2018/07/05/Promos2_Posterimage.jpg","url":"/videos/promos","fullSeasons":false},{"title":"Rick and Morty","slug":"rick-and-morty","poster":"https://media.cdn.adultswim.com/uploads/20191004/191041328479-r\u0026m4_posterimage.jpg","url":"/videos/rick-and-morty","fullSeasons":false},{"title":"Robot Chicken","slug":"robot-chicken","poster":"https://media.cdn.adultswim.com/uploads/20200527/205271349534-RoChMarathon_PosterImage.jpg","url":"/videos/robot-chicken","fullSeasons":false},{"title":"Samurai Jack","slug":"samurai-jack","poster":"https://media.cdn.adultswim.com/uploads/20200527/205271334235-samurai_jack_poster.jpg","url":"/videos/samurai-jack","fullSeasons":false},{"title":"Sand Whale and Me","slug":"sand-whale-and-me","poster":"https://media.cdn.adultswim.com/uploads/20191016/191016163593-SandWhaleAndMe_Thumbnail.jpg","url":"/videos/sand-whale-and-me","fullSeasons":false},{"title":"Saul of the Mole Men","slug":"saul-of-the-mole-men","poster":"https://media.cdn.adultswim.com/uploads/20191016/1910161635256-SaulMoleMen_Thumbnail.jpg","url":"/videos/saul-of-the-mole-men","fullSeasons":false},{"title":"SCUM","slug":"scum","poster":"https://i.cdn.turner.com/adultswim/big/img/2019/07/11/SCUM_posterimage.jpg","url":"/videos/scum","fullSeasons":false},{"title":"Sealab 2021","slug":"sealab-2021","poster":"https://media.cdn.adultswim.com/uploads/20200901/20911252486-Sealab2021_PosterImages.png","url":"/videos/sealab-2021","fullSeasons":false},{"title":"Smalls","slug":"smalls","poster":"https://i.cdn.turner.com/adultswim/big/img/2019/05/24/smalls2_poster.jpg","url":"/videos/smalls","fullSeasons":false},{"title":"Smiling Friends","slug":"smiling-friends","poster":"https://media.cdn.adultswim.com/uploads/20200403/2043124358-SmilingFriends_posterimage.jpg","url":"/videos/smiling-friends","fullSeasons":false},{"title":"Soft Focus with Jena Friedman","slug":"soft-focus-with-jena-friedman","poster":"https://i.cdn.turner.com/adultswim/big/img/2018/12/17/SoftFocus_Posterimage.jpg","url":"/videos/soft-focus-with-jena-friedman","fullSeasons":false},{"title":"Soul Quest Overdrive","slug":"soul-quest-overdrive","poster":"https://media.cdn.adultswim.com/uploads/20200309/2039131415-soulquestoverdrive_posterimage.jpg","url":"/videos/soul-quest-overdrive","fullSeasons":false},{"title":"Space Ghost Coast to Coast","slug":"space-ghost-coast-to-coast","poster":"https://media.cdn.adultswim.com/uploads/20200131/2013111998-SpaceGhost_PosterImage.jpg","url":"/videos/space-ghost-coast-to-coast","fullSeasons":false},{"title":"Specials","slug":"specials","poster":"https://media.cdn.adultswim.com/uploads/20191016/191016163824-specials.jpg","url":"/videos/specials","fullSeasons":false},{"title":"Squidbillies","slug":"squidbillies","poster":"https://media.cdn.adultswim.com/uploads/20200901/20911253313-Squidbillies_posterimage.png","url":"/videos/squidbillies","fullSeasons":false},{"title":"SSSS Gridman","slug":"ssss-gridman","poster":"https://media.cdn.adultswim.com/uploads/20210104/21141443129-ssssGridman_posterimage.jpg","url":"/videos/ssss-gridman","fullSeasons":false},{"title":"Stroker and Hoop","slug":"stroker-and-hoop","poster":"https://media.cdn.adultswim.com/uploads/20191016/191016163914-StrokerAndHoop_Thumbnail.jpg","url":"/videos/stroker-and-hoop","fullSeasons":false},{"title":"Stupid Morning Bullshit","slug":"stupid-morning-bullshit","poster":"https://i.cdn.turner.com/adultswim/big/img/2018/07/05/SMB_PosterImage.jpg","url":"/videos/stupid-morning-bullshit","fullSeasons":false},{"title":"Superjail!","slug":"superjail","poster":"https://media.cdn.adultswim.com/uploads/20200901/2091125444-SuperJail_PosterImage.png","url":"/videos/superjail","fullSeasons":false},{"title":"Sword Art Online: Alicization - War of Underworld","slug":"sword-art-online-alicization-war-of-underworld","poster":"https://media.cdn.adultswim.com/uploads/20200114/201141210251-SAO__posterimage.jpg","url":"/videos/sword-art-online-alicization-war-of-underworld","fullSeasons":false},{"title":"Tato Chat","slug":"tato-chat","poster":"https://i.cdn.turner.com/adultswim/big/img/2019/02/11/tc_posterimage.jpg","url":"/videos/tato-chat","fullSeasons":false},{"title":"Tender Touches","slug":"tender-touches","poster":"https://media.cdn.adultswim.com/uploads/20200603/2063175366-tendertouchesS3_posterimage.jpg","url":"/videos/tender-touches","fullSeasons":false},{"title":"The Boondocks","slug":"the-boondocks","poster":"https://i.cdn.turner.com/adultswim/big/img/2018/07/05/Boondocks2_Posterimages.jpg","url":"/videos/the-boondocks","fullSeasons":false},{"title":"The Brak Show","slug":"the-brak-show","poster":"https://media.cdn.adultswim.com/uploads/20200901/2091123333-Brak_PosterImage.png","url":"/videos/the-brak-show","fullSeasons":false},{"title":"The Call of Warr","slug":"the-call-of-warr","poster":"https://media.cdn.adultswim.com/uploads/20191016/191016161210-CallOfWar_Thumbnail.jpg","url":"/videos/the-call-of-warr","fullSeasons":false},{"title":"THE CRY OF MANN: A TROOL Day Holiday Spectacular in Eight Parts","slug":"the-cry-of-mann-a-trool-day-holiday-spectacular-in-eight-parts","poster":"https://media.cdn.adultswim.com/uploads/20191016/191016164191-CryOfMann_Thumbnail.jpg","url":"/videos/the-cry-of-mann-a-trool-day-holiday-spectacular-in-eight-parts","fullSeasons":false},{"title":"The Drinky Crow Show","slug":"the-drinky-crow-show","poster":"https://media.cdn.adultswim.com/uploads/20191016/1910161641283-DrinkyCrowShow_Thumbnail.jpg","url":"/videos/the-drinky-crow-show","fullSeasons":false},{"title":"The Eric Andre Show","slug":"the-eric-andre-show","poster":"https://media.cdn.adultswim.com/uploads/20201013/2010131751560-ericandreshowS5_posterimage.jpg","url":"/videos/the-eric-andre-show","fullSeasons":false},{"title":"The Greatest Event in Television History","slug":"the-greatest-event-in-television-history","poster":"https://i.cdn.turner.com/adultswim/big/img/2018/07/05/GEITH_PosterImage.jpg","url":"/videos/the-greatest-event-in-television-history","fullSeasons":false},{"title":"The Heart, She Holler","slug":"the-heart-she-holler","poster":"https://media.cdn.adultswim.com/uploads/20210105/21152126551-TheHeartSheHoller_poster_image.jpg","url":"/videos/the-heart-she-holler","fullSeasons":false},{"title":"The Jellies","slug":"the-jellies","poster":"https://media.cdn.adultswim.com/uploads/20210105/21152018581-thejelliesS02_posterimage.jpg","url":"/videos/the-jellies","fullSeasons":false},{"title":"The Perfect Women","slug":"the-perfect-women","poster":"https://media.cdn.adultswim.com/uploads/20191024/1910241521238-TPW_posterimage.jpg","url":"/videos/the-perfect-women","fullSeasons":false},{"title":"The Restless Bell","slug":"the-restless-bell","poster":"https://media.cdn.adultswim.com/uploads/20191016/1910161644174-RestlessBell_Thumbnail.jpg","url":"/videos/the-restless-bell","fullSeasons":false},{"title":"The Rising Son","slug":"the-rising-son","poster":"https://media.cdn.adultswim.com/uploads/20191016/1910161644429-TheRisingSon_Thumbnail.jpg","url":"/videos/the-rising-son","fullSeasons":false},{"title":"The Shivering Truth","slug":"the-shivering-truth","poster":"https://media.cdn.adultswim.com/uploads/20200508/20581458449-theshiveringtruth_posterimage.jpg","url":"/videos/the-shivering-truth","fullSeasons":false},{"title":"The Venture Bros.","slug":"the-venture-bros","poster":"https://i.cdn.turner.com/adultswim/big/img/2018/07/05/VentureBros_posterimages.jpg","url":"/videos/the-venture-bros","fullSeasons":false},{"title":"Three Busy Debras","slug":"three-busy-debras","poster":"https://media.cdn.adultswim.com/uploads/20200309/20391658142-threebusydebras_posterimage.jpg","url":"/videos/three-busy-debras","fullSeasons":false},{"title":"Tigtone","slug":"tigtone","poster":"https://media.cdn.adultswim.com/uploads/20200904/20941238420-tigtoneS2_posterimage.jpg","url":"/videos/tigtone","fullSeasons":false},{"title":"Tim and Eric Awesome Show Great Job!","slug":"tim-and-eric-awesome-show-great-job","poster":"https://media.cdn.adultswim.com/uploads/20200901/20911254593-TimAndEric_PosterImage.png","url":"/videos/tim-and-eric-awesome-show-great-job","fullSeasons":false},{"title":"Tim and Eric Qu?z","slug":"tim-and-eric-qu-z","poster":"https://i.cdn.turner.com/adultswim/big/img/2019/07/11/quizshowCh5_posterimage.jpg","url":"/videos/tim-and-eric-qu-z","fullSeasons":false},{"title":"Tim \u0026 Eric's Bedtime Stories","slug":"tim-erics-bedtime-stories","poster":"https://i.cdn.turner.com/adultswim/big/img/2018/07/05/TimandEricBedtimeStories_PosterImage.jpg","url":"/videos/tim-erics-bedtime-stories","fullSeasons":false},{"title":"Titan Maximum","slug":"titan-maximum","poster":"https://media.cdn.adultswim.com/uploads/20191016/1910161645439-TitanMaximum_Thumbnail.jpg","url":"/videos/titan-maximum","fullSeasons":false},{"title":"Tom Goes To The Mayor","slug":"tom-goes-to-the-mayor","poster":"https://media.cdn.adultswim.com/uploads/20210105/2115212602-TomGoesToTheMayor_posterimage.jpg","url":"/videos/tom-goes-to-the-mayor","fullSeasons":false},{"title":"Toonami","slug":"toonami","poster":"https://media.cdn.adultswim.com/uploads/20191210/1912101618355-Toonami_posterimage.jpg","url":"/videos/toonami","fullSeasons":false},{"title":"Tropical Cop Tales","slug":"tropical-cop-tales","poster":"https://media.cdn.adultswim.com/uploads/20210108/2118193651-tropicalcoptales_posterimage.jpg","url":"/videos/tropical-cop-tales","fullSeasons":false},{"title":"Truthpoint","slug":"truthpoint","poster":"https://media.cdn.adultswim.com/uploads/20191014/1910141445430-truthpoint_posterimage.jpg","url":"/videos/truthpoint","fullSeasons":false},{"title":"Tuca \u0026 Bertie","slug":"tuca-bertie","poster":"https://media.cdn.adultswim.com/uploads/20200521/2052117379-tuca\u0026bertie_posterimage.jpg","url":"/videos/tuca-bertie","fullSeasons":false},{"title":"Uzumaki","slug":"uzumaki","poster":"https://media.cdn.adultswim.com/uploads/20190903/19931242102-Uzumaki_poster.jpg","url":"/videos/uzumaki","fullSeasons":false},{"title":"Williams Street Swap Shop","slug":"williams-street-swap-shop","poster":"https://i.cdn.turner.com/adultswim/big/img/2018/07/05/WilliamsStSwapShop_PosterImages.jpg","url":"/videos/williams-street-swap-shop","fullSeasons":false},{"title":"Xavier: Renegade Angel","slug":"xavier-renegade-angel","poster":"https://media.cdn.adultswim.com/uploads/20210105/21152127372-Xavier_PosterImage.jpg","url":"/videos/xavier-renegade-angel","fullSeasons":false},{"title":"YOLO Crystal Fantasy","slug":"yolo-crystal-fantasy","poster":"https://media.cdn.adultswim.com/uploads/20200731/207311213451-yolo_posterimage.jpg","url":"/videos/yolo-crystal-fantasy","fullSeasons":false},{"title":"Young Person's Guide to History","slug":"young-persons-guide-to-history","poster":"https://i.cdn.turner.com/adultswim/big/img/2018/07/05/YoungPersonsGuideToHistory_PosterImage.jpg","url":"/videos/young-persons-guide-to-history","fullSeasons":false},{"title":"Your Pretty Face is Going to Hell","slug":"your-pretty-face-is-going-to-hell","poster":"https://i.cdn.turner.com/adultswim/big/img/2019/04/18/ypfS4_posterimage.jpg","url":"/videos/your-pretty-face-is-going-to-hell","fullSeasons":false},{"title":"You're Whole","slug":"youre-whole","poster":"https://media.cdn.adultswim.com/uploads/20191016/1910161647195-YoureWhole_Thumbnail.jpg","url":"/videos/youre-whole","fullSeasons":false},{"poster":"https://i.cdn.turner.com/adultswim/big/img/2018/06/27/AdultswimGolf_PosterImage_1.jpg","title":"The Adult Swim Golf Classic","url":"/videos/specials/the-adult-swim-golf-classic-extended"},{"poster":"https://i.cdn.turner.com/adultswim/big/img/2018/07/05/BushworldAdventures_Posterimages.jpg","title":"Bushworld Adventures","url":"/videos/specials/bushworld-adventures"},{"poster":"https://i.cdn.turner.com/adultswim/big/img/2018/07/05/GigglefudgeUSA_Posterimage.jpg","title":"Gigglefudge U.S.A.","url":"/videos/specials/gigglefudge-u-s-a"},{"poster":"https://i.cdn.turner.com/adultswim/big/img/2018/07/05/GilesVanderhoot_Posterimage.jpg","title":"Giles Vanderhoot","url":"/videos/infomercials/giles-vanderhoot"},{"poster":"https://i.cdn.turner.com/adultswim/big/img/2018/07/05/LiveTelevisionSimulcast_PosterImage.jpg","title":"Live Simulcast","url":"/simulcast"},{"poster":"https://i.cdn.turner.com/adultswim/big/img/2018/07/05/MOPZ_Posterimage.jpg","title":"M.O.P.Z.","url":"/videos/specials/m-o-p-z"},{"poster":"https://i.cdn.turner.com/adultswim/big/img/2018/07/05/MotherMayIDance_Posterimage.jpg","title":"Mother May I Dance With Mary Jane's Fist?","url":"/videos/specials/mother-may-i-dance-with-mary-janes-fist-a-lifetone-original-movie"},{"poster":"https://i.cdn.turner.com/adultswim/big/img/2018/07/05/RangerSmith_Posterimage.jpg","title":"Ranger Smith –  Boo Boo Runs Wild","url":"/videos/specials/ranger-smith-boo-boo-runs-wild"},{"poster":"https://i.cdn.turner.com/adultswim/big/img/2018/07/05/TooManyCooks_Posterimage.jpg","title":"Too Many Cooks","url":"/videos/infomercials/too-many-cooks"},{"poster":"https://i.cdn.turner.com/adultswim/big/img/2018/07/05/Totally4Teens_Posterimage.jpg","title":"The Best of Totally 4 Teens","url":"/videos/specials/the-best-of-totally-4-teens"},{"poster":"https://i.cdn.turner.com/adultswim/big/img/2018/07/05/thishousehaspeople_Posterimage.jpg","title":"This House Has People In It","url":"/videos/infomercials/this-house-has-people-in-it"}],"streams":[{"poster":"http://i.cdn.turner.com/adultswim/big/img/2017/05/31/thumb.jpg","slug":"as-seen-on-adult-swim","title":"As Seen On Adult Swim","url":"/videos/as-seen-on-adult-swim"},{"poster":"https://i.cdn.turner.com/adultswim/big/img/2019/02/20/ALY.jpg","slug":"assembly-line-yeah","title":"Assembly Line Yeah!","url":"/videos/assembly-line-yeah"},{"poster":"https://media.cdn.adultswim.com/uploads/20200211/202111714206-BlockOrCharge_posterimage.jpg","slug":"block-or-charge","title":"Block or Charge","url":"/videos/block-or-charge"},{"poster":"https://i.cdn.turner.com/adultswim/big/img/2019/01/16/Bloodfeast_archive_600x600.jpg","slug":"bloodfeast","title":"Bloodfeast","url":"/videos/bloodfeast"},{"poster":"https://media.cdn.adultswim.com/uploads/20191112/1911121056273-bt_square3.jpg","slug":"bottom-text","title":"Bottom Text","url":"/videos/bottom-text"},{"poster":"https://i.cdn.turner.com/adultswim/big/img/2019/02/20/DevMeeting_archive_600x6002.jpg","slug":"development-meeting","title":"Development Meeting","url":"/videos/development-meeting"},{"poster":"https://media.cdn.adultswim.com/uploads/20200601/2061197306-DKQT_squarev2.jpg","slug":"digikiss","title":"Digikiss Presents: Quarantine Valentine","url":"/videos/digikiss"},{"poster":"https://media.cdn.adultswim.com/uploads/20200504/2054145586-ffs_square.jpg","slug":"fan-fiction-showdown","title":"Fan Fiction Showdown","url":"/videos/fan-fiction-showdown"},{"poster":"https://i.cdn.turner.com/adultswim/big/img/2019/01/16/Fishcenter_archive_600x600.jpg","slug":"fishcenter-live","title":"Fishcenter","url":"/videos/fishcenter-live"},{"poster":"https://i.cdn.turner.com/adultswim/big/img/2019/02/20/LastStream_archive_600x600_2.jpg","slug":"last-stream-on-the-left","title":"Last Stream on the Left","url":"/videos/last-stream-on-the-left"},{"poster":"https://i.cdn.turner.com/adultswim/big/img/2019/01/16/SMB_archive_600x600.jpg","slug":"stupid-morning-bullshit","title":"Stupid Morning Bullshit","url":"/videos/stupid-morning-bullshit"},{"poster":"https://i.cdn.turner.com/adultswim/big/img/2019/01/16/TatoChat_archive_600x600.jpg","slug":"tato-chat","title":"Tato Chat","url":"/videos/tato-chat"},{"poster":"https://media.cdn.adultswim.com/uploads/20191024/1910241522419-TPW_Postersquare.jpg","slug":"the-perfect-women","title":"The Perfect Women","url":"/videos/the-perfect-women"},{"poster":"https://i.cdn.turner.com/adultswim/big/img/2019/02/20/Toonami_archive_600x600_2.jpg","slug":"toonami","title":"Toonami Pre-Flight","url":"/videos/toonami"},{"poster":"https://media.cdn.adultswim.com/uploads/20191014/191014145081-truthpoint_square.jpg","slug":"truthpoint","title":"Truthpoint","url":"/videos/truthpoint"},{"poster":"https://i.cdn.turner.com/adultswim/big/img/2019/02/20/SwapShop_archive_600x600_2.jpg","slug":"williams-street-swap-shop","title":"Williams Street Swap Shop","url":"/videos/williams-street-swap-shop"}],"streamsHeading":"[as] Stream Shows","streamsOrder":["as-seen-on-adult-swim","last-stream-on-the-left","development-meeting","block-or-charge","fishcenter-live","truthpoint","bloodfeast","williams-street-swap-shop","the-perfect-women","assembly-line-yeah","bottom-text","fan-fiction-showdown","how-to-draw","toonami","stupid-morning-bullshit"],"thumbnail":"https://i.cdn.turner.com/adultswim/big/img/2019/05/08/adult-swim_3.jpg","title":"Adult Swim Shows","featuredShow":{"title":"The Eric Andre Show","slug":"the-eric-andre-show","poster":"https://media.cdn.adultswim.com/uploads/20201013/2010131751560-ericandreshowS5_posterimage.jpg","url":"/videos/the-eric-andre-show","fullSeasons":false,"id":"the-eric-andre-show","alignment":"bottom","color":"#fff001","image":"https://media.cdn.adultswim.com/uploads/20201013/201013175573-ericandreshowS5_Hero_fff200.png"}},"__REDUX_STATE__":{"ui":{"letter":"","userTabbing":false}}},"page":"/videos","query":{},"buildId":"Pei3nzzPTWzk77UAQnMfJ","dynamicBuildId":false,"assetPrefix":"https://static.cdn.adultswim.com/shows-www"}</script><script async="" id="__NEXT_PAGE__/videos" src="https://static.cdn.adultswim.com/shows-www/_next/static/Pei3nzzPTWzk77UAQnMfJ/pages/videos.js"></script><script async="" id="__NEXT_PAGE__/_app" src="https://static.cdn.adultswim.com/shows-www/_next/static/Pei3nzzPTWzk77UAQnMfJ/pages/_app.js"></script><script async="" src="https://static.cdn.adultswim.com/shows-www/_next/static/runtime/webpack-8ed9452df514b4d17d80.js"></script><script async="" src="https://static.cdn.adultswim.com/shows-www/_next/static/chunks/commons.61bfd16e064b86573902.js"></script><script async="" src="https://static.cdn.adultswim.com/shows-www/_next/static/chunks/styles.6adc550cc109e3c9a90a.js"></script><script async="" src="https://static.cdn.adultswim.com/shows-www/_next/static/runtime/main-541f01c65744a5c2c60b.js"></script></body></html>