<!DOCTYPE html>
<html lang="en-US">
<head>
<meta content="AEG Presents, the live-entertainment division of Los Angeles-based AEG, is dedicated to all aspects of live contemporary music performance: touring, one-offs, broadcasts, sponsorship, festivals, special events with seventeen regional offices and thirty-one state-of the-art venues." name="description"/>
<meta content="AEG Presents, ticket, concert, music festival, music venues, concert tickets, concert listings, concert tour dates, VIP tickets, hot tickets, buy tickets" name="keywords"/>
<meta charset="utf-8"/>
<meta content="width=device-width, initial-scale=1.0" name="viewport"/>
<title>AEG Presents  </title>
<link href="/favicon.ico?1538513344" rel="icon" type="image/x-icon"/>
<link href="/apple-touch-icon.png?1538513344" rel="apple-touch-icon"/>
<link href="/fonts/MyFontsWebfontsKit.css?1538513344" rel="stylesheet" type="text/css"/>
<link href="/js/lib/jquery-ui/jquery-ui.min.css?1538513344" rel="stylesheet" type="text/css"/>
<link href="/css/style.css?1538513344" rel="stylesheet" type="text/css"/>
<script>
              <!-- Start Universal Pixel Snippet -->
              !function(e,t,n,a,i,l,o,s,r){e[i]||(o=e[i]=function(){o.process?o.process.apply(o,arguments):o.queue.push(arguments)},o.queue=[],o.t=1*new Date,s=t.createElement(n),s.async=1,s.src=a+"?t="+Math.ceil(new Date/l)*l,r=t.getElementsByTagName(n)[0],r.parentNode.insertBefore(s,r))}(window,document,"script","//tracking.aegpresents.com/universalpixel/universalpixel.js","kl",864e5),kl("event","pageload");
              <!-- End Universal Pixel Snippet -->
            </script>
<script type="text/javascript">
if (AntiMattr == null || typeof(AntiMattr) != 'object') { var AntiMattr = window.AntiMattr = {}; }
AntiMattr.GoogleAnalytics = {};

AntiMattr.GoogleAnalytics.onGatLoad = function(callback) {
    if (typeof _gat != "undefined") {
        callback();
    } else {
        var listener = this;
        setTimeout(function(){
            listener.onGatLoad(callback);					
        },100);
    }
};

AntiMattr.GoogleAnalytics.notifyEvent = function(tracker, category, action, label, value) {
    var event = [tracker + '_trackEvent', category, action];
    if (typeof label != 'undefined') {
        event.push(label);
        if (typeof value != 'undefined') {
            event.push(value);
        }
    }
    _gaq.push(event);
};

if ( _gaq == null || typeof(_gaq) != 'array') { var _gaq = window._gaq = []; }

    _gaq.push(['aegpresents._setAccount', 'UA-92780504-1']);

            _gaq.push(['aegpresents._setDomainName', '.aegpresents.com']);

                    _gaq.push(['aegpresents._setAllowAnchor', false ]);
        
                    _gaq.push(['aegpresents._setAllowLinker', true ]);
        
                    _gaq.push(['aegpresents._setAllowHash', false ]);
            
    

    
        
    
            if (window.location.hash) {
            _gaq.push(['aegpresents._trackPageview', "\/" + window.location.hash]);
        } else {
            _gaq.push(['aegpresents._trackPageview', "\/"]);
        }
    
    
    

(function() {
    var ga = document.createElement('script'); ga.type = 'text/javascript'; ga.async = true;
    ga.src = ('https:' == document.location.protocol ? 'https://ssl' : 'http://www') + '.google-analytics.com/ga.js';
    var s = document.getElementsByTagName('script')[0]; s.parentNode.insertBefore(ga, s);
})();
</script>
</head>
<body>
<div class="page" id="page">
<header class="header" role="banner">
<div class="header-background">
<div class="header-max">
<div class="header-max-background">
<div class="header-inner no-gutter">
<div class="row">
<div class="col-xs-12">
<div class="header-absolute header-gutter">
<div class="header-left-mobile">
<a class="nav-toggle nav-toggle-menu" href="#nav"><span class="icon-open"><span class="svg-container"><svg viewbox="0 0 38 28" xmlns="http://www.w3.org/2000/svg"><path d="M0 27.906v-3h38v3H0zm0-14.968h38v2.999H0v-2.999zM0 .969h38v3H0v-3z"></path></svg></span></span><span class="is-vishidden">Mobile Menu</span><span class="icon-close"><span class="svg-container"><svg viewbox="0 0 30 29" xmlns="http://www.w3.org/2000/svg"><path d="M29.998 2.128L17.376 14.75l12.122 12.122-2.126 2.126L15.25 16.876 3.128 28.998l-2.126-2.126L13.124 14.75.502 2.128 2.628.002 15.25 12.624 27.872.002l2.126 2.126z"></path></svg></span></span></a> </div>
<a class="logo" href="/"><span class="svg-container"><svg viewbox="0 0 161.9 74.74" xmlns="http://www.w3.org/2000/svg"><title>AEG Presents Logo</title><g><path d="M40.6 69.58a1.57 1.57 0 0 0 1.76-1.53c0-1-.69-1.53-1.81-1.53h-1.72v3.09zm-4-5.1h4.13c2.41 0 3.87 1.43 3.87 3.5 0 2.34-1.82 3.55-4.09 3.55h-1.68v3h-2.22zM52.36 69.4c1.08 0 1.7-.58 1.7-1.43 0-1-.66-1.44-1.75-1.44h-2.2v2.9zm-4.48-4.91h4.62a4 4 0 0 1 2.95 1 3.17 3.17 0 0 1 .86 2.31 3.14 3.14 0 0 1-2.16 3.2l2.47 3.61H54l-2.17-3.24h-1.72v3.23h-2.22z"></path></g><path d="M60.04 64.48V74.6h7.7v-1.98h-5.49v-2.13h4.77v-1.97h-4.77v-2.06h5.42v-1.98h-7.63zM70.87 73.12l1.31-1.57a4.64 4.64 0 0 0 3 1.23c.91 0 1.46-.36 1.46-1 0-.56-.35-.85-2-1.28-2-.52-3.35-1.08-3.35-3.09 0-1.83 1.47-3 3.54-3a5.86 5.86 0 0 1 3.76 1.29l-1.17 1.6a4.76 4.76 0 0 0-2.63-1c-.85 0-1.3.39-1.3.88 0 .66.43.88 2.18 1.33 2 .53 3.21 1.27 3.21 3 0 2-1.53 3.13-3.71 3.13a6.44 6.44 0 0 1-4.29-1.62M82.34 64.48V74.6h7.69v-1.98h-5.48v-2.13h4.76v-1.97h-4.76v-2.06h5.41v-1.98h-7.62zM100.41 64.48v6.23l-4.74-6.23h-2.04V74.6h2.19v-6.43l4.9 6.43h1.89V64.48h-2.2zM105.88 64.48v2.06h3.08v8.05h2.23v-8.05h3.07v-2.06h-8.38z"></path><g><path d="M117.26 73.12l1.31-1.57a4.64 4.64 0 0 0 3 1.23c.91 0 1.46-.36 1.46-1 0-.56-.35-.85-2-1.28-2-.52-3.35-1.08-3.35-3.09 0-1.83 1.47-3 3.54-3a5.85 5.85 0 0 1 3.78 1.22l-1.15 1.67a4.76 4.76 0 0 0-2.63-1c-.85 0-1.3.39-1.3.88 0 .66.43.88 2.18 1.33 2.05.53 3.21 1.27 3.21 3 0 2-1.53 3.13-3.71 3.13a6.44 6.44 0 0 1-4.29-1.62M141.18 21v10.08h9.49v6.52a16.72 16.72 0 0 1-9.54 2.67c-8.21 0-14.17-6.24-14.17-14.83v-.14A14.66 14.66 0 0 1 135 11.95a12.45 12.45 0 0 1 5.34-1.21A17 17 0 0 1 151 14.2l9.59-7-.86-.74A25.88 25.88 0 0 0 146.35.38a36.33 36.33 0 0 0-3.87-.38h-1.77a25.85 25.85 0 0 0-18.5 7.48 25.24 25.24 0 0 0-7.32 18v.14a25.13 25.13 0 0 0 7.2 18.1 26.26 26.26 0 0 0 18.69 7.2 31.7 31.7 0 0 0 21-7.76l.17-.14V21zM36.88.4H16.33L0 50.45h14.82l4.5-13.85L7.54 28H22.1l4.5-13.8L31.1 28h14.56l-11.78 8.6 4.5 13.85H53.2z"></path></g><path d="M66.43.4v50.05h35.95V40.33H78.5v-9.25h19.38V20.96H78.5V10.52h23.88V.4H66.43z"></path></svg></span></a> <div class="header-right-mobile">
<a class="nav-toggle nav-toggle-geolocation" href="#geolocation-form"><span class="icon-open"><span class="svg-container"><svg viewbox="0 0 19 28" xmlns="http://www.w3.org/2000/svg"><path d="M9.497-.001c-5.246 0-9.498 4.246-9.498 9.484a9.468 9.468 0 0 0 .552 3.191c2.026 6.65 8.946 15.325 8.946 15.325s6.92-8.674 8.947-15.325a9.43 9.43 0 0 0 .543-2.849c.006-.115.009-.229.009-.342 0-5.238-4.253-9.484-9.499-9.484zm0 14.129a4.649 4.649 0 0 1-4.652-4.645 4.648 4.648 0 0 1 4.652-4.644 4.648 4.648 0 0 1 4.653 4.644 4.65 4.65 0 0 1-4.653 4.645z"></path></svg></span></span><span class="is-vishidden">Mobile Set Location</span><span class="icon-close"><span class="svg-container"><svg viewbox="0 0 30 29" xmlns="http://www.w3.org/2000/svg"><path d="M29.998 2.128L17.376 14.75l12.122 12.122-2.126 2.126L15.25 16.876 3.128 28.998l-2.126-2.126L13.124 14.75.502 2.128 2.628.002 15.25 12.624 27.872.002l2.126 2.126z"></path></svg></span></span></a><a class="nav-toggle nav-toggle-search" href="#search-form"><span class="icon-open"><span class="svg-container"><svg viewbox="0 0 37 38" xmlns="http://www.w3.org/2000/svg"><path d="M37 34.445L25.206 22.67c1.619-2.077 2.544-4.847 2.544-7.848C27.75 7.204 21.506.971 13.875.971S0 7.204 0 14.822c0 7.618 6.244 13.851 13.875 13.851 3.006 0 5.781-.923 7.862-2.54l11.794 11.774L37 34.445zM13.875 24.057c-5.087 0-9.25-4.156-9.25-9.235s4.163-9.235 9.25-9.235 9.25 4.156 9.25 9.235-4.163 9.235-9.25 9.235z"></path></svg></span></span><span class="is-vishidden">Mobile Search</span><span class="icon-close"><span class="svg-container"><svg viewbox="0 0 30 29" xmlns="http://www.w3.org/2000/svg"><path d="M29.998 2.128L17.376 14.75l12.122 12.122-2.126 2.126L15.25 16.876 3.128 28.998l-2.126-2.126L13.124 14.75.502 2.128 2.628.002 15.25 12.624 27.872.002l2.126 2.126z"></path></svg></span></span></a> </div>
<div class="header-left">
<nav class="nav" id="nav"><ul class="nav-list"><li class="first"><a href="/artists">Artists</a></li><li><a href="/partners">Partners</a></li><li><a href="/venues">Venues</a></li><li><a href="/festivals">Festivals</a></li><li class="last"><a href="/press">Press</a></li></ul></nav> </div>
<div class="header-right">
<div class="header-geolocation" id="geolocation">
<div class="geolocation">
<div class="geolocation-label">
<span class="hide-medium hide-large">Showing events for All Locations</span>
<span class="hide-small">Showing events for <a class="geolocation-toggle" href="#" title="Click to Change Location">All Locations</a></span>
</div>
<div class="geolocation-modal">
<form action="/geo/locationForm" id="geolocation-form" method="post" name="geo_location">
<div id="geo_location"><input id="geo_location_redirect" name="geo_location[redirect]" type="hidden" value="/"/><div><label class="required" for="geo_location_location">City, State or Zip Code</label><input class="input-field geolocation-input-field" id="geo_location_location" name="geo_location[location]" placeholder="Enter City, State or Zip Code" required="required" title="Enter City, State or Zip Code" type="text"/></div><div><button class="btn btn-primary geolocation-button" id="geo_location_save" name="geo_location[save]" type="submit">Submit</button></div><div><button class="btn btn-secondary-invert geolocation-button" formnovalidate="formnovalidate" id="geo_location_all_locations" name="geo_location[all_locations]" type="submit">Show All Locations</button></div></div>
</form>
<button class="btn btn-close geolocation-close">Close Panel</button>
</div>
</div>
</div>
<div class="header-search">
<button class="header-search-toggle">
<span class="icon-open">
<span class="svg-container">
<svg viewbox="0 0 37 38" xmlns="http://www.w3.org/2000/svg"><path d="M37 34.445L25.206 22.67c1.619-2.077 2.544-4.847 2.544-7.848C27.75 7.204 21.506.971 13.875.971S0 7.204 0 14.822c0 7.618 6.244 13.851 13.875 13.851 3.006 0 5.781-.923 7.862-2.54l11.794 11.774L37 34.445zM13.875 24.057c-5.087 0-9.25-4.156-9.25-9.235s4.163-9.235 9.25-9.235 9.25 4.156 9.25 9.235-4.163 9.235-9.25 9.235z"></path></svg>
</span>
</span>
<span class="is-vishidden">Search</span>
<span class="icon-close">
<span class="svg-container">
<svg viewbox="0 0 30 29" xmlns="http://www.w3.org/2000/svg"><path d="M29.998 2.128L17.376 14.75l12.122 12.122-2.126 2.126L15.25 16.876 3.128 28.998l-2.126-2.126L13.124 14.75.502 2.128 2.628.002 15.25 12.624 27.872.002l2.126 2.126z"></path></svg>
</span>
</span>
</button>
<form action="/search/form" class="inline-form search-form" id="search-form" method="post" name="search-form">
<fieldset>
<legend class="is-vishidden">Search</legend>
<div><label class="is-vishidden required" for="search-form_term">Search</label><input class="search-field" id="search-form_term" name="search-form[term]" placeholder="Search" required="required" type="text"/></div>
<div><button class="search-submit icon-search" id="search-form_search" name="search-form[search]" title="Search" type="submit"> </button></div>
</fieldset>
</form>
</div>
</div>
</div>
</div>
</div>
</div>
</div>
</div>
</div>
</header>
<div class="precontent">
<div class="container no-gutter">
<div class="row">
<div class="col-xs-12">
<div class="container-narrow">
</div>
</div>
</div>
</div>
</div>
<div class="marquee">
<div class="container no-gutter">
<div class="row">
<div class="col-xs-12 marquee-col">
<div class="carousel">
</div>
</div>
</div>
</div>
</div>
<div role="main">
<div class="container no-gutter theme-white">
<div class="row">
<div style="padding: 40px;">
<p><b>AEG Presents will be offering ticketholders the opportunity to obtain refunds on shows that have been postponed due to the unprecedented impact of the coronavirus.</b> Refund requests will be honored for any postponed show, once the rescheduled date has been announced. Ticketholders will then have <b>30 DAYS</b> to request a refund on all rescheduled shows.</p>
<p><b>For shows that have already announced a rescheduled date, you will receive an email from the ticketing company starting on May 1 with instructions on how to refund your tickets.</b> You will have 30 DAYS from the time the email is sent to you to request your refund. Tickets purchased AFTER the rescheduled date has been announced will not be eligible for this refund.</p>
<p><b>If your show hasn’t announced a new date yet, please hold on to your tickets.</b> You will be receiving an email notification from the ticketing company when the show is rescheduled, along with information on how to request a refund should you choose not to attend the rescheduled event. Note that if you wish to attend the rescheduled show, your original tickets will remain valid for the new date.</p>
<p><b>An updated list of AEG Presents shows that have been rescheduled can be found <a href="https://rescheduled.aegpresents.com/" target="_blank">HERE</a>.</b> As a reminder, all original tickets will be valid for the rescheduled dates. As usual, for any canceled events, you will receive an automatic refund.</p>
<p><b>All AEG Presents shows through AXS ticketing are also giving concert ticketholders the ability to convert the full refund amount directly into a charitable donation to the United Way COVID-19 Relief Fund.</b> If your tickets were purchased through AXS, details can be found in both the email you receive when your show is rescheduled and when you log in to your AXS account. You can also find out more about United Way and the fund <a href="https://www.unitedway.org/recovery/covid19/luw-responses" target="_blank">HERE</a>.</p>
<p>We realize that a delay for refunds on shows that have yet to be rescheduled is an inconvenience, but this process enables us to provide refunds fairly, and hopefully without disruption.</p>
<p>We also know how frustrating it can be to wait for answers, so thanks for bearing with us. Stay well, stay safe, and we will see you all soon.</p>
</div>
<div class="col-xs-12 col-md-6">
<div class="social-follow social-follow--main"><ul class="social-follow-list social-follow-list--main"><li class="social-follow-list--main--facebook"><a href="http://www.facebook.com/aegpresents" target="_blank"><span class="svg-container"><svg viewbox="0 0 19 40" xmlns="http://www.w3.org/2000/svg"><path d="M18.953 7.499h-4.524c-1.449 0-2.534.631-2.534 2.223V12.5h7.058l-.563 7.499h-6.495V40H4.837V19.999H.132V12.5h4.705V7.692C4.837 2.637 7.34 0 12.98 0h5.973v7.499z"></path></svg></span><span class="social-follow-list-link-text">Follow <span class="is-vishidden">Facebook</span></span></a></li><li class="social-follow-list--main--twitter"><a href="http://www.twitter.com/aegpresents" target="_blank"><span class="svg-container"><svg viewbox="0 0 48 41" xmlns="http://www.w3.org/2000/svg"><path d="M43.086 10.773c.624 14.206-9.705 30.044-27.99 30.044-5.562 0-10.737-1.67-15.096-4.537 5.226.63 10.44-.856 14.58-4.182-4.311-.083-7.947-3.002-9.198-7.016a9.664 9.664 0 0 0 4.446-.172c-4.737-.975-8.004-5.35-7.899-10.03a9.607 9.607 0 0 0 4.458 1.264C2.004 13.138.762 7.2 3.339 2.658 8.196 8.769 15.453 12.79 23.637 13.212 22.2 6.896 26.874.812 33.231.812c2.832 0 5.391 1.225 7.188 3.191a19.425 19.425 0 0 0 6.255-2.45 10.088 10.088 0 0 1-4.329 5.588A19.319 19.319 0 0 0 48 5.55a20.433 20.433 0 0 1-4.914 5.223z"></path></svg></span><span class="social-follow-list-link-text">Follow <span class="is-vishidden">Twitter</span></span></a></li><li class="social-follow-list--main--instagram"><a href="http://www.instagram.com/aegpresents" target="_blank"><span class="svg-container"><svg viewbox="0 0 40 41" xmlns="http://www.w3.org/2000/svg"><path d="M26.667 20.406a6.668 6.668 0 1 1-13.335 0 6.668 6.668 0 0 1 13.335 0zm9.615-8.082c.095 2.108.115 2.74.115 8.082 0 5.341-.02 5.974-.115 8.084-.25 5.376-2.772 7.954-8.197 8.199-2.11.096-2.743.118-8.085.118-5.34 0-5.975-.02-8.08-.115-5.435-.248-7.952-2.831-8.198-8.199-.097-2.113-.12-2.746-.12-8.087 0-5.342.023-5.974.118-8.082.248-5.382 2.772-7.955 8.197-8.2 2.11-.096 2.743-.117 8.083-.117s5.975.021 8.082.115c5.42.247 7.95 2.82 8.2 8.202zm-6.012 8.082c0-5.674-4.6-10.273-10.27-10.273-5.673 0-10.27 4.599-10.27 10.273 0 5.674 4.6 10.272 10.27 10.272 5.672 0 10.27-4.598 10.27-10.272zm2.805-10.677a2.4 2.4 0 1 0-4.802 0 2.4 2.4 0 0 0 4.802 0zM40 20.406c0-5.432-.023-6.114-.12-8.247C39.552 4.903 35.517.857 28.248.524 26.113.424 25.433.402 20 .402s-6.11.022-8.245.12C4.49.854.455 4.885.12 12.156.022 14.292 0 14.974 0 20.406c0 5.434.022 6.114.12 8.246.335 7.267 4.365 11.306 11.635 11.638 2.135.097 2.812.12 8.245.12s6.113-.023 8.248-.12c7.254-.332 11.304-4.363 11.632-11.638.097-2.132.12-2.812.12-8.246z"></path></svg></span><span class="social-follow-list-link-text">Follow <span class="is-vishidden">Instagram</span></span></a></li></ul></div> </div>
<div class="col-xs-12 col-md-6">
<div class="newsletter-simple-form-wrapper">
<div class="newsletter-simple-form-icon">
<span class="svg-container">
<svg viewbox="0 0 73 77" xmlns="http://www.w3.org/2000/svg"><path d="M61.534 76.998l-51.163-.01-1.318-.134.006-.104c-7.457-.76-9.05-5.662-9.05-13.211L.003 15.675c0-3.089 2.539-5.603 5.659-5.603h8.89l-.001-4.355c0-3.155 2.591-5.72 5.776-5.72h46.9c3.182 0 5.772 2.566 5.772 5.72v54.907c0 4.9 0 16.374-11.465 16.374zM14.606 55.849l-.05-4.453H8.529v-3.762h6.027v-4.28H8.529V39.59h6.026l-.001-4.284H8.529v-3.763h6.025l-.001-4.283H8.529v-3.762h6.024l-.001-10.077h-8.89c-1.255 0-2.276 1.011-2.276 2.254l.006 47.865c0 7.398 1.4 9.674 6.626 9.945 3.103-.234 4.109-1.535 4.413-6.687H8.529v-3.761h6.016l.061-3.281H8.581v-3.907h6.025zM69.617 5.717a2.383 2.383 0 0 0-2.39-2.371H20.326c-1.32 0-2.393 1.063-2.393 2.371l.006 47.879c0 5.283 0 17.027-1.894 20.054h45.489c5.816 0 8.083-3.653 8.083-13.025V5.717zM24.569 64.904h38.27v3.763h-38.27v-3.763zm0-7.124h38.27v3.763h-38.27V57.78zm0-7.533h38.27v3.764h-38.27v-3.764zm0-7.953h38.27v3.764h-38.27v-3.764zm0-7.953h38.27v3.764h-38.27v-3.764zm28.96-7.94c.477.124.745.296.745.704v.007c0 .466-.355.728-.862.728-.355 0-.714-.124-.996-.376l.305-.366c.212.175.433.286.701.286.211 0 .339-.084.339-.222v-.007c0-.13-.081-.197-.473-.298-.473-.121-.778-.251-.778-.718v-.007c0-.425.342-.707.822-.707.342 0 .633.107.871.298l-.268.389c-.208-.144-.412-.231-.61-.231s-.302.091-.302.205v.006c0 .155.101.205.506.309zm4.345-4.103c-1.708 0-3.25-.594-4.34-1.671-1.078-1.066-1.672-2.559-1.672-4.204v-.032c0-1.588.603-3.07 1.7-4.171 1.115-1.119 2.64-1.736 4.296-1.736.141 0 .277.004.412.009.315.012.615.038.9.08 1.186.176 2.143.623 3.1 1.418l.199.173-2.225 1.617c-.683-.491-1.412-.803-2.466-.803-.44 0-.859.101-1.239.281-1.102.521-1.875 1.715-1.875 3.1v.032c0 1.996 1.384 3.445 3.29 3.445.862 0 1.627-.214 2.216-.619v-1.515h-2.203v-2.349h4.813v5.109l-.039.033c-1.415 1.196-3.052 1.803-4.867 1.803zm-6.87 5.508h-.516v-1.871h-.715v-.477h1.945v.477h-.714v1.871zm-3.567-1.492v1.492h-.51v-2.347h.476l1.1 1.445v-1.445h.51v2.347h-.439l-1.137-1.492zm-1.343 1.033v.459h-1.788v-2.347h1.771v.459h-1.258v.476h1.107v.46h-1.107v.493h1.275zm-3.336-.946c.476.124.745.296.745.704v.007c0 .466-.356.728-.862.728-.355 0-.714-.124-.996-.376l.305-.366c.211.175.433.286.701.286.211 0 .339-.084.339-.222v-.007c0-.13-.081-.197-.473-.298-.473-.121-.779-.251-.779-.718v-.007c0-.425.343-.707.822-.707.342 0 .634.107.872.298l-.268.389c-.208-.144-.412-.231-.61-.231s-.302.091-.302.205v.006c0 .155.1.205.506.309zm-2.145-15.824h8.346v2.35h-5.544v2.426h4.5v2.349h-4.5v2.146h5.544v2.35l-8.346.001V10.577zm.305 16.77v.459H39.13v-2.347h1.771v.459h-1.258v.476h1.107v.46h-1.107v.493h1.275zm-3.185.459l-.503-.751h-.406v.751h-.516v-2.348h1.073c.298 0 .53.084.684.239.131.13.201.315.201.536v.007a.729.729 0 0 1-.503.728l.574.838h-.604zm.01-1.546c0-.221-.154-.335-.406-.335h-.513v.674h.523c.252 0 .396-.134.396-.332v-.007zm-4.053 1.546v-2.348h.959c.559 0 .898.332.898.812v.007c0 .543-.422.825-.948.825h-.393v.704h-.516zm.925-1.163c.258 0 .409-.155.409-.356v-.007c0-.231-.161-.355-.419-.355h-.399v.718h.409zm-1.559-7.66l2.735-1.987H32.41l-1.044-3.215-1.045 3.215h-3.38l2.734 1.987-1.044 3.216-3.441-.001 3.79-11.621h4.771l3.791 11.622H34.1l-1.044-3.216z"></path></svg>
</span>
</div>
<form class="inline-form newsletter-simple-form" method="post" name="newsletter_form_homepage">
<fieldset>
<legend>Our newsletter is a great way to stay in touch</legend>
</fieldset>
<a href="https://newsletter.aegpresents.com">
<img src="https://aegwebprod.blob.core.windows.net/content/aegpresents/SubscribeNow-btn.jpg"/>
</a>
</form></div>
</div>
</div>
</div>
</div>
<footer class="footer" role="contentinfo">
<div class="footer-background">
<div class="footer-max">
<div class="footer-max-background">
<div class="footer-inner no-gutter">
<div class="row">
<div class="col-xs-12">
<div class="footer-upper footer-gutter">
<div class="footer-nav-group">
<div class="footer-nav-col">
<strong class="nav-footer-title">About</strong>
<ul class="nav-footer-list">
<li class="first"> <a href="/faq">FAQ</a>
</li>
<li> <a href="/venues">Our Venues</a>
</li>
<li> <a href="https://aegsev.com/" target="_blank">Special Events</a>
</li>
<li class="last"> <a href="http://aegworldwide.com/" target="_blank">AEG Worldwide</a>
</li>
</ul>
</div>
<div class="footer-nav-col">
<strong class="nav-footer-title">Get Involved</strong>
<ul class="nav-footer-list">
<li class="first"> <a href="https://newsletter.aegpresents.com/" target="_blank">Email Updates</a>
</li>
<li> <a href="http://aegworldwide.com/about/companyoverview/employment" target="_blank">Careers</a>
</li>
<li> <a href="https://musicfests.com/" target="_blank">Sponsorships</a>
</li>
<li class="last"> <a href="http://www.aegworldwide.com/about/companyoverview/aeg1source" target="_blank">Suppliers</a>
</li>
</ul>
</div>
<div class="footer-nav-col">
<strong class="nav-footer-title">Follow us</strong>
<ul class="nav-footer-list">
<li class="first"> <a href="http://www.instagram.com/aegpresents" target="_blank">Instagram</a>
</li>
<li> <a href="http://www.twitter.com/aegpresents" target="_blank">Twitter</a>
</li>
<li> <a href="http://www.facebook.com/aegpresents" target="_blank">Facebook</a>
</li>
<li class="last"> <a href="https://www.snapchat.com/add/aegpresents" target="_blank">Snapchat</a>
</li>
</ul>
</div>
<div class="footer-nav-col">
<strong class="nav-footer-title">Partners</strong>
<ul class="nav-footer-list">
<li class="first"> <a href="http://www.aegpresents.com/partners" target="_blank">Concerts West</a>
</li>
<li> <a href="https://www.facebook.com/TheMessinaGroupAustin/" target="_blank">Messina Touring Group</a>
</li>
<li> <a href="http://www.bowerypresents.com/" target="_blank">The Bowery Presents</a>
</li>
<li> <a href="http://fpi-no.com/index_1.html" target="_blank">Festival Productions Incorporated</a>
</li>
<li class="last"> <a href="https://marshall-arts.com/" target="_blank">Marshall Arts</a>
</li>
</ul>
</div>
<div class="footer-nav-col">
<strong class="nav-footer-title">AEG Presents Companies</strong>
<ul class="nav-footer-list">
<li class="first"> <a href="http://www.goldenvoice.com" target="_blank">Goldenvoice</a>
</li>
<li> <a href="http://www.madisonhousepresents.com/" target="_blank">Madison House Presents</a>
</li>
<li class="last"> <a href="http://wintercircleproductions.com/" target="_blank">Winter Circle Productions</a>
</li>
</ul>
</div>
</div>
</div>
</div>
</div>
<div class="row">
<div class="col-xs-12">
<div class="footer-lower footer-gutter">
<div class="copyright"><strong>© 2021 AEG Presents.</strong> All rights reserved.</div>
<ul class="nav-legal-list"><li class="first"><a href="https://www.aegworldwide.com/privacy-policy" target="_blank">Privacy Policy</a></li><li><a href="https://www.aegworldwide.com/privacy-request/" target="_blank">Do Not Sell My Info</a></li><li><a href="/terms">Terms &amp; Conditions</a></li><li class="last"><a href="/accessibility">Accessibility</a></li></ul> </div>
</div>
</div>
</div>
</div>
</div>
</div>
</footer>
</div>
<script src="/js/lib/jquery-3.1.1.min.js?1538513344" type="text/javascript"></script>
<script src="/js/lib/jquery-ui/jquery-ui.min.js?1538513344" type="text/javascript"></script>
<script src="/js/lib/jquery.debouncedresize.js?1538513344" type="text/javascript"></script>
<script src="/js/lib/jquery.blockUI.min.js?1538513344" type="text/javascript"></script>
<script src="/js/lib/slick.min.js?1538513344" type="text/javascript"></script>
<script src="/js/init.js?1538513344" type="text/javascript"></script>
<script type="text/javascript">
              var slick_settings = {
                "autoplay": true,
                "autoplaySpeed": 5000,
                "dots": true,
                "infinite": true
              };
          </script>
<script src="/js/site.js?1538513344" type="text/javascript"></script>
</body>
</html>
