<!DOCTYPE html PUBLIC "-//W3C//DTD XHTML 1.0 Transitional//EN" "http://www.w3.org/TR/xhtml1/DTD/xhtml1-transitional.dtd">
<html xmlns="http://www.w3.org/1999/xhtml">
<head>
<meta content="text/html; charset=utf-8" http-equiv="Content-Type"/>
<link href="styles.css?520" rel="stylesheet" type="text/css"/>
<title>空港駐車場情報</title>
</head>
<body>
<div id="wrapper">
<div id="wrap_header">
<div id="header">
<p><img alt="" src="img/ttl_top.png"/></p>
<!--/header--></div>
<!--/wrap_header--></div>
<div id="main">
<!--<dl id="important_news">
      <dt>重要なお知らせ</dt>
      <dd>ｘｘｘｘｘｘｘｘｘｘｘｘｘｘｘｘｘｘｘｘ</dd>
    </dl>-->
<div class="clear"></div>
<div class="APlist">
<table border="0">
<tr id="hokkaido">
<th>北海道</th>
</tr>
<tr>
<td><a href="kushiro/index.html" target="_blank">釧路空港</a></td>
</tr>
<tr>
<td><a href="hakodate/index.html" target="_blank">函館空港</a></td>
</tr>
<tr id="kantou_touhoku">
<th>関東・東北</th>
</tr>
<tr>
<td><a href="haneda/index.html" target="_blank">東京国際(羽田)空港</a></td>
</tr>
<tr id="chuubu">
<th>中部</th>
</tr>
<tr>
<td><a href="nigata/index.html" target="_blank">新潟空港</a></td>
</tr>
<tr>
<td><a href="komatsu/index.html" target="_blank">小松空港</a></td>
</tr>
<tr id="kinki_chuugoku">
<th>近畿・中国</th>
</tr>
<tr>
<td><a href="hiroshima/index.html" target="_blank">広島空港</a></td>
</tr>
<tr id="shikoku">
<th>四国</th>
</tr>
<tr>
<td><a href="tokushima/index.html" target="_blank">徳島空港</a></td>
</tr>
<tr>
<td><a href="matsuyama/index.html" target="_blank">松山空港</a></td>
</tr>
<tr>
<td><a href="kochiryoma/index.html" target="_blank">高知龍馬空港</a></td>
</tr>
<tr id="kyuushyuu">
<th>九州</th>
</tr>
<tr>
<td><a href="nagasaki/index.html" target="_blank">長崎空港</a></td>
</tr>
<tr>
<td><a href="oita/index.html" target="_blank">大分空港</a></td>
</tr>
<tr>
<td><a href="miyazaki/index.html" target="_blank">宮崎空港</a></td>
</tr>
</table>
<!--/ .APlist--></div>
<div id="map">
<div id="list_top">
<ul>
<li><img alt="北海道" src="img/h_hokkaido.png"/></li>
<li><a href="kushiro/index.html" target="_blank">釧路空港</a></li>
<li><a href="hakodate/index.html" target="_blank">函館空港</a></li>
</ul>
</div>
<div id="list_middle">
<ul>
<li><img alt="中部" src="img/h_chuubu.png"/></li>
<li><a href="nigata/index.html" target="_blank">新潟空港</a></li>
<li><a href="komatsu/index.html" target="_blank">小松空港</a></li>
</ul>
</div>
<div id="list_middle2">
<ul>
<li><img alt="近畿・中国" src="img/h_kinki.png"/></li>
<li><a href="hiroshima/index.html" target="_blank">広島空港</a></li>
</ul>
</div>
<div id="list_middle3">
<ul>
<li><img alt="関東・東北" src="img/h_kantouhoku.png"/></li>
<li><a href="haneda/index.html" target="_blank">東京国際（羽田）空港</a></li>
</ul>
</div>
<div id="list_bottom">
<ul>
<li><img alt="四国" src="img/h_shikoku.png"/></li>
<li><a href="tokushima/index.html" target="_blank">徳島空港</a></li>
<li><a href="matsuyama/index.html" target="_blank">松山空港</a></li>
<li><a href="kochiryoma/index.html" target="_blank">高知龍馬空港</a></li>
</ul>
</div>
<div id="list_bottom2">
<ul>
<li><img alt="九州" src="img/h_kyuusyuu.png"/></li>
<li><a href="nagasaki/index.html" target="_blank">長崎空港</a></li>
<li><a href="oita/index.html" target="_blank">大分空港</a></li>
<li><a href="miyazaki/index.html" target="_blank">宮崎空港</a></li>
</ul>
</div>
<!--/map--></div>
<!--/main--></div>
<div id="footer">
<div id="wrap_footer">
<div>
<h1>空港支援機構<span>（正式名：一般財団法人 空港振興・環境整備支援機構）</span></h1>
<p id="comments">※平成30年6月27日から現在の名称へ変更しました。（旧：一般財団法人 空港環境整備協会）</p>
</div>
<!--<p id="logo"><a href="http://www.aeif.jp/"><img src="img/banner02.jpg?618" alt="一般財団法人 空港振興・環境整備支援機構" /></a></p>-->
</div>
<!--/footer--></div>
<!--/wrapper--></div>
</body>
</html>
