<!DOCTYPE html>
<html lang="es">
<!--
========================================================================
 Nevada WordPress Theme by United Themes (http://www.unitedthemes.com)
 Marcel Moerkens & Matthew Nettekoven 
========================================================================
-->
<head>
<meta charset="utf-8"/>
<title>Nothing found for  Googledrives</title>
<!--[if lte IE 8]>
  <link rel="stylesheet" href="https://agoracanarias.com/wp-content/themes/nevada/css/ie8.css" media="screen" />
<![endif]-->
<!--[if IE]>
	<script src="https://html5shiv.googlecode.com/svn/trunk/html5.js"></script>
<![endif]-->
<!--[if IE 9]>
    <script src="https://css3-mediaqueries-js.googlecode.com/svn/trunk/css3-mediaqueries.js"></script>
<![endif]-->
<!-- Mobile Specific Metas
================================================== -->
<meta content="width=device-width, initial-scale=1, maximum-scale=1" name="viewport"/>
<!-- Favicons
================================================== -->
<link href="https://themeforest.unitedthemes.com/wpversions/nevada/xml/wp-content/uploads/2012/09/favicon.gif" rel="shortcut icon"/>
<link href="" rel="apple-touch-icon"/>
<link href="" rel="apple-touch-icon" sizes="72x72"/>
<link href="" rel="apple-touch-icon" sizes="114x114"/>
<link href="https://agoracanarias.com/xmlrpc.php" rel="pingback"/>
<!-- All in One SEO Pack 3.3.4 por Michael Torbert de Semper Fi Web Designob_start_detected [-1,-1] -->
<script class="aioseop-schema" type="application/ld+json">{"@context":"https://schema.org","@graph":[{"@type":"Organization","@id":"https://agoracanarias.com/#organization","url":"https://agoracanarias.com/","name":"\u00c1gora Canarias","sameAs":[]},{"@type":"WebSite","@id":"https://agoracanarias.com/#website","url":"https://agoracanarias.com/","name":"\u00c1gora Canarias","publisher":{"@id":"https://agoracanarias.com/#organization"},"potentialAction":{"@type":"SearchAction","target":"https://agoracanarias.com/?s={search_term_string}","query-input":"required name=search_term_string"}}]}</script>
<!-- All in One SEO Pack -->
<link href="//kit.fontawesome.com" rel="dns-prefetch"/>
<link href="//s.w.org" rel="dns-prefetch"/>
<link href="https://agoracanarias.com/feed/" rel="alternate" title="Ágora Canarias » Feed" type="application/rss+xml"/>
<link href="https://agoracanarias.com/comments/feed/" rel="alternate" title="Ágora Canarias » Feed de los comentarios" type="application/rss+xml"/>
<script type="text/javascript">
			window._wpemojiSettings = {"baseUrl":"https:\/\/s.w.org\/images\/core\/emoji\/12.0.0-1\/72x72\/","ext":".png","svgUrl":"https:\/\/s.w.org\/images\/core\/emoji\/12.0.0-1\/svg\/","svgExt":".svg","source":{"concatemoji":"https:\/\/agoracanarias.com\/wp-includes\/js\/wp-emoji-release.min.js?ver=5.3.4"}};
			!function(e,a,t){var r,n,o,i,p=a.createElement("canvas"),s=p.getContext&&p.getContext("2d");function c(e,t){var a=String.fromCharCode;s.clearRect(0,0,p.width,p.height),s.fillText(a.apply(this,e),0,0);var r=p.toDataURL();return s.clearRect(0,0,p.width,p.height),s.fillText(a.apply(this,t),0,0),r===p.toDataURL()}function l(e){if(!s||!s.fillText)return!1;switch(s.textBaseline="top",s.font="600 32px Arial",e){case"flag":return!c([127987,65039,8205,9895,65039],[127987,65039,8203,9895,65039])&&(!c([55356,56826,55356,56819],[55356,56826,8203,55356,56819])&&!c([55356,57332,56128,56423,56128,56418,56128,56421,56128,56430,56128,56423,56128,56447],[55356,57332,8203,56128,56423,8203,56128,56418,8203,56128,56421,8203,56128,56430,8203,56128,56423,8203,56128,56447]));case"emoji":return!c([55357,56424,55356,57342,8205,55358,56605,8205,55357,56424,55356,57340],[55357,56424,55356,57342,8203,55358,56605,8203,55357,56424,55356,57340])}return!1}function d(e){var t=a.createElement("script");t.src=e,t.defer=t.type="text/javascript",a.getElementsByTagName("head")[0].appendChild(t)}for(i=Array("flag","emoji"),t.supports={everything:!0,everythingExceptFlag:!0},o=0;o<i.length;o++)t.supports[i[o]]=l(i[o]),t.supports.everything=t.supports.everything&&t.supports[i[o]],"flag"!==i[o]&&(t.supports.everythingExceptFlag=t.supports.everythingExceptFlag&&t.supports[i[o]]);t.supports.everythingExceptFlag=t.supports.everythingExceptFlag&&!t.supports.flag,t.DOMReady=!1,t.readyCallback=function(){t.DOMReady=!0},t.supports.everything||(n=function(){t.readyCallback()},a.addEventListener?(a.addEventListener("DOMContentLoaded",n,!1),e.addEventListener("load",n,!1)):(e.attachEvent("onload",n),a.attachEvent("onreadystatechange",function(){"complete"===a.readyState&&t.readyCallback()})),(r=t.source||{}).concatemoji?d(r.concatemoji):r.wpemoji&&r.twemoji&&(d(r.twemoji),d(r.wpemoji)))}(window,document,window._wpemojiSettings);
		</script>
<style type="text/css">
img.wp-smiley,
img.emoji {
	display: inline !important;
	border: none !important;
	box-shadow: none !important;
	height: 1em !important;
	width: 1em !important;
	margin: 0 .07em !important;
	vertical-align: -0.1em !important;
	background: none !important;
	padding: 0 !important;
}
</style>
<link href="https://agoracanarias.com/wp-content/themes/nevada/style.css?ver=1.7.9" id="theme-css" media="screen, projection" rel="stylesheet" type="text/css"/>
<link href="https://agoracanarias.com/wp-content/themes/nevada/layout.css?ver=1.7.9" id="layout-css" media="screen, projection" rel="stylesheet" type="text/css"/>
<link href="https://agoracanarias.com/wp-content/themes/nevada/css/colors/greenapple.css?ver=1.7.9" id="color-css" media="screen, projection" rel="stylesheet" type="text/css"/>
<link href="https://agoracanarias.com/wp-content/themes/nevada/responsive.css?ver=1.7.9" id="responsive-css" media="screen, projection" rel="stylesheet" type="text/css"/>
<link href="https://agoracanarias.com/wp-content/themes/nevada/formalize.css?ver=1.7.9" id="formalize-css" media="screen, projection" rel="stylesheet" type="text/css"/>
<link href="https://agoracanarias.com/wp-content/themes/nevada/superfish.css?ver=1.7.9" id="superfish-css" media="screen, projection" rel="stylesheet" type="text/css"/>
<link href="https://agoracanarias.com/wp-content/themes/nevada/css/prettyPhoto.css?ver=1.7.9" id="prettyphoto-css" media="screen, projection" rel="stylesheet" type="text/css"/>
<link href="https://agoracanarias.com/wp-content/themes/nevada/css/nonverblaster.css?ver=1.7.9" id="nonverblaster-css" media="screen, projection" rel="stylesheet" type="text/css"/>
<link href="https://agoracanarias.com/wp-content/themes/nevada/css/flexslider.css?ver=1.0" id="flexslider-css" media="all" rel="stylesheet" type="text/css"/>
<link href="https://agoracanarias.com/wp-includes/css/dist/block-library/style.min.css?ver=5.3.4" id="wp-block-library-css" media="all" rel="stylesheet" type="text/css"/>
<link href="https://agoracanarias.com/wp-content/plugins/easy-facebook-likebox/easy-facebook-likebox/public/assets/css/public.css?ver=5.2.3" id="easy-facebook-likebox-plugin-styles-css" media="all" rel="stylesheet" type="text/css"/>
<link href="https://agoracanarias.com/wp-content/plugins/easy-facebook-likebox/easy-facebook-likebox/public/assets/css/animate.css?ver=5.2.3" id="easy-facebook-likebox-animate-css" media="all" rel="stylesheet" type="text/css"/>
<link href="https://agoracanarias.com/wp-content/plugins/easy-facebook-likebox/easy-facebook-likebox/public/assets/popup/magnific-popup.css?ver=5.2.3" id="easy-facebook-likebox-popup-styles-css" media="all" rel="stylesheet" type="text/css"/>
<link href="https://agoracanarias.com/wp-content/plugins/revslider/rs-plugin/css/settings.css?ver=4.6.5" id="rs-plugin-settings-css" media="all" rel="stylesheet" type="text/css"/>
<style id="rs-plugin-settings-inline-css" type="text/css">
.tp-caption a{color:#ff7302;text-shadow:none;-webkit-transition:all 0.2s ease-out;-moz-transition:all 0.2s ease-out;-o-transition:all 0.2s ease-out;-ms-transition:all 0.2s ease-out}.tp-caption a:hover{color:#ffa902}
</style>
<link href="https://agoracanarias.com/wp-content/plugins/simple-social-icons/css/style.css?ver=3.0.1" id="simple-social-icons-font-css" media="all" rel="stylesheet" type="text/css"/>
<link href="https://agoracanarias.com/wp-content/plugins/easy-facebook-likebox/assets/css/esf-custom-fonts.css?ver=5.3.4" id="esf-fonts-css" media="all" rel="stylesheet" type="text/css"/>
<link href="https://agoracanarias.com/wp-content/plugins/easy-facebook-likebox//my-instagram-feed/assets/css/font-awesome.min.css?ver=5.3.4" id="font-awesome.min-css" media="all" rel="stylesheet" type="text/css"/>
<link href="https://agoracanarias.com/wp-content/plugins/easy-facebook-likebox//my-instagram-feed/assets/css/mif_style.css?ver=5.3.4" id="mif_style-css" media="all" rel="stylesheet" type="text/css"/>
<script src="https://agoracanarias.com/wp-includes/js/jquery/jquery.js?ver=1.12.4-wp" type="text/javascript"></script>
<script src="https://agoracanarias.com/wp-includes/js/jquery/jquery-migrate.min.js?ver=1.4.1" type="text/javascript"></script>
<script src="https://agoracanarias.com/wp-includes/js/swfobject.js?ver=2.2-20120417" type="text/javascript"></script>
<script src="https://agoracanarias.com/wp-content/plugins/easy-facebook-likebox/easy-facebook-likebox/public/assets/popup/jquery.magnific-popup.min.js?ver=5.2.3" type="text/javascript"></script>
<script src="https://agoracanarias.com/wp-content/plugins/easy-facebook-likebox/easy-facebook-likebox/public/assets/js/jquery.cookie.js?ver=5.2.3" type="text/javascript"></script>
<script type="text/javascript">
/* <![CDATA[ */
var public_ajax = {"ajax_url":"https:\/\/agoracanarias.com\/wp-admin\/admin-ajax.php","efbl_is_fb_pro":""};
/* ]]> */
</script>
<script src="https://agoracanarias.com/wp-content/plugins/easy-facebook-likebox/easy-facebook-likebox/public/assets/js/public.js?ver=5.2.3" type="text/javascript"></script>
<script src="https://agoracanarias.com/wp-content/plugins/revslider/rs-plugin/js/jquery.themepunch.tools.min.js?ver=4.6.5" type="text/javascript"></script>
<script src="https://agoracanarias.com/wp-content/plugins/revslider/rs-plugin/js/jquery.themepunch.revolution.min.js?ver=4.6.5" type="text/javascript"></script>
<script src="https://agoracanarias.com/wp-content/plugins/simple-social-icons/svgxuse.js?ver=1.1.21" type="text/javascript"></script>
<script src="https://kit.fontawesome.com/aab9a11966.js?ver=5.3.4" type="text/javascript"></script>
<script type="text/javascript">
/* <![CDATA[ */
var mif = {"ajax_url":"https:\/\/agoracanarias.com\/wp-admin\/admin-ajax.php","version":"free"};
/* ]]> */
</script>
<script src="https://agoracanarias.com/wp-content/plugins/easy-facebook-likebox//my-instagram-feed/assets/js/mif-custom.js?ver=1" type="text/javascript"></script>
<link href="https://agoracanarias.com/wp-json/" rel="https://api.w.org/"/>
<link href="https://agoracanarias.com/xmlrpc.php?rsd" rel="EditURI" title="RSD" type="application/rsd+xml"/>
<link href="https://agoracanarias.com/wp-includes/wlwmanifest.xml" rel="wlwmanifest" type="application/wlwmanifest+xml"/>
<meta content="WordPress 5.3.4" name="generator"/>
<script type="text/javascript">
			jQuery(document).ready(function() {
				// CUSTOM AJAX CONTENT LOADING FUNCTION
				var ajaxRevslider = function(obj) {
				
					// obj.type : Post Type
					// obj.id : ID of Content to Load
					// obj.aspectratio : The Aspect Ratio of the Container / Media
					// obj.selector : The Container Selector where the Content of Ajax will be injected. It is done via the Essential Grid on Return of Content
					
					var content = "";

					data = {};
					
					data.action = 'revslider_ajax_call_front';
					data.client_action = 'get_slider_html';
					data.token = '9a7fa887ce';
					data.type = obj.type;
					data.id = obj.id;
					data.aspectratio = obj.aspectratio;
					
					// SYNC AJAX REQUEST
					jQuery.ajax({
						type:"post",
						url:"https://agoracanarias.com/wp-admin/admin-ajax.php",
						dataType: 'json',
						data:data,
						async:false,
						success: function(ret, textStatus, XMLHttpRequest) {
							if(ret.success == true)
								content = ret.data;								
						},
						error: function(e) {
							console.log(e);
						}
					});
					
					 // FIRST RETURN THE CONTENT WHEN IT IS LOADED !!
					 return content;						 
				};
				
				// CUSTOM AJAX FUNCTION TO REMOVE THE SLIDER
				var ajaxRemoveRevslider = function(obj) {
					return jQuery(obj.selector+" .rev_slider").revkill();
				};

				// EXTEND THE AJAX CONTENT LOADING TYPES WITH TYPE AND FUNCTION
				var extendessential = setInterval(function() {
					if (jQuery.fn.tpessential != undefined) {
						clearInterval(extendessential);
						if(typeof(jQuery.fn.tpessential.defaults) !== 'undefined') {
							jQuery.fn.tpessential.defaults.ajaxTypes.push({type:"revslider",func:ajaxRevslider,killfunc:ajaxRemoveRevslider,openAnimationSpeed:0.3});   
							// type:  Name of the Post to load via Ajax into the Essential Grid Ajax Container
							// func: the Function Name which is Called once the Item with the Post Type has been clicked
							// killfunc: function to kill in case the Ajax Window going to be removed (before Remove function !
							// openAnimationSpeed: how quick the Ajax Content window should be animated (default is 0.3)
						}
					}
				},30);
			});
		</script>
<style type="text/css">#wrap #content {float: left;}#wrap #sidebar {float: right;}#wrap #sidebar .widget-container {margin-left: 20px;margin-right: 0px;}#wrap #sidebar_second {float:left;}#wrap #sidebar_second .widget-container {margin-right: 20px;margin-left: 0px;}body {color:#666666;font-size:13px;font-family:"HelveticaNeue","Helvetica Neue",Helvetica,Arial,sans-serif;font-weight:normal;font-style:normal;}#navigation ul li a {color:#777777;font-size:13px !important;font-family:"HelveticaNeue","Helvetica Neue",Helvetica,Arial,sans-serif !important;font-weight:normal !important;font-style:normal !important;text-transform:capitalize !important;}#navigation ul.sub-menu li a {color:#ffffff;font-size:12px !important;font-family:"HelveticaNeue","Helvetica Neue",Helvetica,Arial,sans-serif !important;font-weight:normal !important;font-style:normal !important;text-transform:capitalize !important;}h1 { font-family: "Lucida Sans Unicode", "Lucida Grande", sans-serif; font-size: 24px;}h2 { font-family: "Lucida Sans Unicode", "Lucida Grande", sans-serif;font-size: 20px;}h3 { font-family: "Lucida Sans Unicode", "Lucida Grande", sans-serif;font-size: 18px;}h4 { font-family: "Lucida Sans Unicode", "Lucida Grande", sans-serif;font-size: 16px;}h5 { font-family: "Lucida Sans Unicode", "Lucida Grande", sans-serif;font-size: 14px;}h6 { font-family: "Lucida Sans Unicode", "Lucida Grande", sans-serif;font-size: 12px;}h1, h2, h3, h4, h5, h6 {color: #73A232;} h1, h2, h3, h4, h5, h6 {font-weight: 100;font-style: normal; }.tp-caption.themecolor_background {background-color: #75a405;}.tp-caption.themecolor_normal {color: #75a405;}.tp-caption.themecolor_small {color: #75a405;}</style><style type="text/css"> .mif_wrap .feed_type_video  .video_icon { background-image:url( https://agoracanarias.com/wp-includes/js/mediaelement/mejs-controls.svg); } .mif_wrap.mif_skin_795 .mif_feeds_holder .mif_grid_layout  { width: calc(92% / ); } .mif_wrap.mif_skin_795 .mif_feeds_holder .mif_grid_layout { height: 643px; } .mif_wrap.mif_skin_795 .mif_header_main { display: none; } .mif_wrap.mif_skin_795 .mif_posts { display: block; } .mif_wrap.mif_skin_795 .mif_followers { display: block; } .mif_wrap.mif_skin_795 .mif_bio { display: block; } .mif_wrap.mif_skin_795 .mif_follow_btn { display: inline-block; } .mif_wrap.mif_skin_795 .mif_load_feeds { display: inline-block; } .mif_wrap.mif_skin_795 .mif_dp_wrap { display: block; } .mif_wrap.mif_skin_795 .mif_header_main .mif_header_title { font-size: 16px; } .mif_wrap.mif_skin_795 .mif_header_main .mif_posts,.mif_wrap.mif_skin_795 .mif_header_main .mif_followers { font-size: 16px; } .mif_wrap.mif_skin_795 .mif_bio { font-size: 14px; }.mif_wrap.mif_skin_795 .mif_header_main { background-color: #fff; } .mif_wrap.mif_skin_795 .mif_header_main, .mif_wrap.mif_skin_795 .mif_header_main .mif_posts, .mif_wrap.mif_skin_795 .mif_header_main .mif_followers, .mif_wrap.mif_skin_795 .mif_header_main .mif_bio, .mif_wrap.mif_skin_795 .mif_header_main .mif_header_title { color: #000; } .mif_wrap.mif_skin_795 .mif_fulls .icon, .mif_wrap.mif_skin_795 .mif_single:hover .mif_fulls .icon,
                 .mif_wrap.mif_skin_795 .mif_feed_popup .icon{ color: #fff!important; } .mif_wrap.mif_skin_795 .mif_single .mif_overlay, .mif_wrap.mif_skin_795 .mif_single .mif_fulls{ background-color: rgba(0,0,0,0.5); } .mif_wrap.mif_skin_795 .mif_single { margin-top: 5px; } .mif_wrap.mif_skin_795 .mif_single { margin-bottom: 5px; } .mif_wrap.mif_skin_795 .mif_single { margin-left: 5px; } .mif_wrap.mif_skin_795 .mif_single { margin-right: 5px; } .mif_wrap.mif_skin_795 .mif_fulls .icon { color: #fff; } .mif_wrap.mif_skin_789 .mif_feeds_holder .mif_grid_layout  { width: calc(92% / ); } .mif_wrap.mif_skin_789 .mif_feeds_holder .mif_grid_layout { height: 643px; } .mif_wrap.mif_skin_789 .mif_header_main { display: none; } .mif_wrap.mif_skin_789 .mif_posts { display: block; } .mif_wrap.mif_skin_789 .mif_followers { display: block; } .mif_wrap.mif_skin_789 .mif_bio { display: block; } .mif_wrap.mif_skin_789 .mif_follow_btn { display: inline-block; } .mif_wrap.mif_skin_789 .mif_load_feeds { display: inline-block; } .mif_wrap.mif_skin_789 .mif_dp_wrap { display: block; } .mif_wrap.mif_skin_789 .mif_header_main .mif_header_title { font-size: 16px; } .mif_wrap.mif_skin_789 .mif_header_main .mif_posts,.mif_wrap.mif_skin_789 .mif_header_main .mif_followers { font-size: 16px; } .mif_wrap.mif_skin_789 .mif_bio { font-size: 14px; }.mif_wrap.mif_skin_789 .mif_header_main { background-color: #fff; } .mif_wrap.mif_skin_789 .mif_header_main, .mif_wrap.mif_skin_789 .mif_header_main .mif_posts, .mif_wrap.mif_skin_789 .mif_header_main .mif_followers, .mif_wrap.mif_skin_789 .mif_header_main .mif_bio, .mif_wrap.mif_skin_789 .mif_header_main .mif_header_title { color: #000; } .mif_wrap.mif_skin_789 .mif_fulls .icon, .mif_wrap.mif_skin_789 .mif_single:hover .mif_fulls .icon,
                 .mif_wrap.mif_skin_789 .mif_feed_popup .icon{ color: #fff!important; } .mif_wrap.mif_skin_789 .mif_single .mif_overlay, .mif_wrap.mif_skin_789 .mif_single .mif_fulls{ background-color: rgba(0,0,0,0.5); } .mif_wrap.mif_skin_789 .mif_single { margin-top: 5px; } .mif_wrap.mif_skin_789 .mif_single { margin-bottom: 5px; } .mif_wrap.mif_skin_789 .mif_single { margin-left: 5px; } .mif_wrap.mif_skin_789 .mif_single { margin-right: 5px; } .mif_wrap.mif_skin_789 .mif_fulls .icon { color: #fff; }</style><style type="text/css"> .efbl_feed_wraper.efbl_skin_797 .efbl_header { display: none; } .efbl_feed_wraper.efbl_skin_797 .efbl_header_meta .efbl_header_title { font-size: 16px; } .efbl_feed_wraper.efbl_skin_797  .efbl_likes,  .efbl_feed_wraper.efbl_skin_797  .efbl_story_meta .efbl_story_lnc_holder  .efbl_all_likes_wrap { display: inline-block; } .efbl_feed_wraper.efbl_skin_797  .efbl_shares { display: inline-block; } .efbl_feed_wraper.efbl_skin_797   .efbl_comments { display: inline-block; } .efbl_feed_wraper.efbl_skin_797 .mif_follow_btn { display: none; } .efbl_feed_wraper.efbl_skin_797 .efbl_fb_story#efblcf .efbl_story_text { display: block; } .efbl_feed_wraper.efbl_skin_797 .efbl_header .mif_header_title { font-size: 16px; } .efbl_feed_wraper.efbl_skin_797 .efbl_header .mif_posts,.efbl_feed_wraper.efbl_skin_797 .efbl_header .mif_followers { font-size: 16px; }.efbl_feed_wraper.efbl_skin_797 .efbl_header { background-color: transparent; } .efbl_feed_wraper.efbl_skin_797 .efbl_header, .efbl_feed_wraper.efbl_skin_797 .efbl_header .mif_posts, .efbl_feed_wraper.efbl_skin_797 .efbl_header .mif_followers, .efbl_feed_wraper.efbl_skin_797 .efbl_header .mif_bio, .efbl_feed_wraper.efbl_skin_797 .efbl_header .mif_header_title { color: #000; } .efbl_feed_wraper.efbl_skin_797 .efbl_read_more_link a { color: #000; } .efbl_feed_wraper.efbl_skin_797 .efbl_fb_story { background-color: transparent !important; } .efbl_feed_wraper.efbl_skin_797 .efbl_fb_story#efblcf { padding-top: 0px; } .efbl_feed_wraper.efbl_skin_797 .efbl_fb_story#efblcf {padding-bottom: 0px; } .efbl_feed_wraper.efbl_skin_797 .efbl_fb_story#efblcf { padding-left: 0px; } .efbl_feed_wraper.efbl_skin_797 .efbl_fb_story#efblcf {padding-right: 0px; } .efbl_feed_wraper.efbl_skin_797 .efbl_fb_story#efblcf { margin-top: 0px; } .efbl_feed_wraper.efbl_skin_797 .efbl_fb_story#efblcf { margin-bottom: 20px; } .efbl_feed_wraper.efbl_skin_797 .efbl_fb_story#efblcf { margin-left: 0px; } .efbl_feed_wraper.efbl_skin_797 .efbl_fb_story#efblcf {margin-right: 0px; } .efbl_feed_wraper.efbl_skin_798 .efbl_header { display: none; } .efbl_feed_wraper.efbl_skin_798 .efbl_header_meta .efbl_header_title { font-size: 16px; } .efbl_feed_wraper.efbl_skin_798  .efbl_likes,  .efbl_feed_wraper.efbl_skin_798  .efbl_story_meta .efbl_story_lnc_holder  .efbl_all_likes_wrap { display: inline-block; } .efbl_feed_wraper.efbl_skin_798  .efbl_shares { display: inline-block; } .efbl_feed_wraper.efbl_skin_798   .efbl_comments { display: inline-block; } .efbl_feed_wraper.efbl_skin_798 .mif_follow_btn { display: none; } .efbl_feed_wraper.efbl_skin_798 .efbl_fb_story#efblcf .efbl_story_text { display: block; } .efbl_feed_wraper.efbl_skin_798 .efbl_header .mif_header_title { font-size: 16px; } .efbl_feed_wraper.efbl_skin_798 .efbl_header .mif_posts,.efbl_feed_wraper.efbl_skin_798 .efbl_header .mif_followers { font-size: 16px; }.efbl_feed_wraper.efbl_skin_798 .efbl_header { background-color: transparent; } .efbl_feed_wraper.efbl_skin_798 .efbl_header, .efbl_feed_wraper.efbl_skin_798 .efbl_header .mif_posts, .efbl_feed_wraper.efbl_skin_798 .efbl_header .mif_followers, .efbl_feed_wraper.efbl_skin_798 .efbl_header .mif_bio, .efbl_feed_wraper.efbl_skin_798 .efbl_header .mif_header_title { color: #000; } .efbl_feed_wraper.efbl_skin_798 .efbl_read_more_link a { color: #000; } .efbl_feed_wraper.efbl_skin_798 .efbl_fb_story { background-color: transparent !important; } .efbl_feed_wraper.efbl_skin_798 .efbl_fb_story#efblcf { padding-top: 0px; } .efbl_feed_wraper.efbl_skin_798 .efbl_fb_story#efblcf {padding-bottom: 0px; } .efbl_feed_wraper.efbl_skin_798 .efbl_fb_story#efblcf { padding-left: 0px; } .efbl_feed_wraper.efbl_skin_798 .efbl_fb_story#efblcf {padding-right: 0px; } .efbl_feed_wraper.efbl_skin_798 .efbl_fb_story#efblcf { margin-top: 0px; } .efbl_feed_wraper.efbl_skin_798 .efbl_fb_story#efblcf { margin-bottom: 20px; } .efbl_feed_wraper.efbl_skin_798 .efbl_fb_story#efblcf { margin-left: 0px; } .efbl_feed_wraper.efbl_skin_798 .efbl_fb_story#efblcf {margin-right: 0px; } .efbl_feed_wraper.efbl_skin_799 .efbl_header { display: none; } .efbl_feed_wraper.efbl_skin_799 .efbl_header_meta .efbl_header_title { font-size: 16px; } .efbl_feed_wraper.efbl_skin_799  .efbl_likes,  .efbl_feed_wraper.efbl_skin_799  .efbl_story_meta .efbl_story_lnc_holder  .efbl_all_likes_wrap { display: inline-block; } .efbl_feed_wraper.efbl_skin_799  .efbl_shares { display: inline-block; } .efbl_feed_wraper.efbl_skin_799   .efbl_comments { display: inline-block; } .efbl_feed_wraper.efbl_skin_799 .mif_follow_btn { display: none; } .efbl_feed_wraper.efbl_skin_799 .efbl_fb_story#efblcf .efbl_story_text { display: block; } .efbl_feed_wraper.efbl_skin_799 .efbl_header .mif_header_title { font-size: 16px; } .efbl_feed_wraper.efbl_skin_799 .efbl_header .mif_posts,.efbl_feed_wraper.efbl_skin_799 .efbl_header .mif_followers { font-size: 16px; }.efbl_feed_wraper.efbl_skin_799 .efbl_header { background-color: transparent; } .efbl_feed_wraper.efbl_skin_799 .efbl_header, .efbl_feed_wraper.efbl_skin_799 .efbl_header .mif_posts, .efbl_feed_wraper.efbl_skin_799 .efbl_header .mif_followers, .efbl_feed_wraper.efbl_skin_799 .efbl_header .mif_bio, .efbl_feed_wraper.efbl_skin_799 .efbl_header .mif_header_title { color: #000; } .efbl_feed_wraper.efbl_skin_799 .efbl_read_more_link a { color: #000; } .efbl_feed_wraper.efbl_skin_799 .efbl_fb_story { background-color: transparent !important; } .efbl_feed_wraper.efbl_skin_799 .efbl_fb_story#efblcf { padding-top: 0px; } .efbl_feed_wraper.efbl_skin_799 .efbl_fb_story#efblcf {padding-bottom: 0px; } .efbl_feed_wraper.efbl_skin_799 .efbl_fb_story#efblcf { padding-left: 0px; } .efbl_feed_wraper.efbl_skin_799 .efbl_fb_story#efblcf {padding-right: 0px; } .efbl_feed_wraper.efbl_skin_799 .efbl_fb_story#efblcf { margin-top: 0px; } .efbl_feed_wraper.efbl_skin_799 .efbl_fb_story#efblcf { margin-bottom: 20px; } .efbl_feed_wraper.efbl_skin_799 .efbl_fb_story#efblcf { margin-left: 0px; } .efbl_feed_wraper.efbl_skin_799 .efbl_fb_story#efblcf {margin-right: 0px; } .efbl_feed_wraper.efbl_skin_791 .efbl_header { display: none; } .efbl_feed_wraper.efbl_skin_791 .efbl_header_meta .efbl_header_title { font-size: 16px; } .efbl_feed_wraper.efbl_skin_791  .efbl_likes,  .efbl_feed_wraper.efbl_skin_791  .efbl_story_meta .efbl_story_lnc_holder  .efbl_all_likes_wrap { display: inline-block; } .efbl_feed_wraper.efbl_skin_791  .efbl_shares { display: inline-block; } .efbl_feed_wraper.efbl_skin_791   .efbl_comments { display: inline-block; } .efbl_feed_wraper.efbl_skin_791 .mif_follow_btn { display: none; } .efbl_feed_wraper.efbl_skin_791 .efbl_fb_story#efblcf .efbl_story_text { display: block; } .efbl_feed_wraper.efbl_skin_791 .efbl_header .mif_header_title { font-size: 16px; } .efbl_feed_wraper.efbl_skin_791 .efbl_header .mif_posts,.efbl_feed_wraper.efbl_skin_791 .efbl_header .mif_followers { font-size: 16px; }.efbl_feed_wraper.efbl_skin_791 .efbl_header { background-color: transparent; } .efbl_feed_wraper.efbl_skin_791 .efbl_header, .efbl_feed_wraper.efbl_skin_791 .efbl_header .mif_posts, .efbl_feed_wraper.efbl_skin_791 .efbl_header .mif_followers, .efbl_feed_wraper.efbl_skin_791 .efbl_header .mif_bio, .efbl_feed_wraper.efbl_skin_791 .efbl_header .mif_header_title { color: #000; } .efbl_feed_wraper.efbl_skin_791 .efbl_read_more_link a { color: #000; } .efbl_feed_wraper.efbl_skin_791 .efbl_fb_story { background-color: transparent !important; } .efbl_feed_wraper.efbl_skin_791 .efbl_fb_story#efblcf { padding-top: 0px; } .efbl_feed_wraper.efbl_skin_791 .efbl_fb_story#efblcf {padding-bottom: 0px; } .efbl_feed_wraper.efbl_skin_791 .efbl_fb_story#efblcf { padding-left: 0px; } .efbl_feed_wraper.efbl_skin_791 .efbl_fb_story#efblcf {padding-right: 0px; } .efbl_feed_wraper.efbl_skin_791 .efbl_fb_story#efblcf { margin-top: 0px; } .efbl_feed_wraper.efbl_skin_791 .efbl_fb_story#efblcf { margin-bottom: 20px; } .efbl_feed_wraper.efbl_skin_791 .efbl_fb_story#efblcf { margin-left: 0px; } .efbl_feed_wraper.efbl_skin_791 .efbl_fb_story#efblcf {margin-right: 0px; } .efbl_feed_wraper.efbl_skin_792 .efbl_header { display: none; } .efbl_feed_wraper.efbl_skin_792 .efbl_header_meta .efbl_header_title { font-size: 16px; } .efbl_feed_wraper.efbl_skin_792  .efbl_likes,  .efbl_feed_wraper.efbl_skin_792  .efbl_story_meta .efbl_story_lnc_holder  .efbl_all_likes_wrap { display: inline-block; } .efbl_feed_wraper.efbl_skin_792  .efbl_shares { display: inline-block; } .efbl_feed_wraper.efbl_skin_792   .efbl_comments { display: inline-block; } .efbl_feed_wraper.efbl_skin_792 .mif_follow_btn { display: none; } .efbl_feed_wraper.efbl_skin_792 .efbl_fb_story#efblcf .efbl_story_text { display: block; } .efbl_feed_wraper.efbl_skin_792 .efbl_header .mif_header_title { font-size: 16px; } .efbl_feed_wraper.efbl_skin_792 .efbl_header .mif_posts,.efbl_feed_wraper.efbl_skin_792 .efbl_header .mif_followers { font-size: 16px; }.efbl_feed_wraper.efbl_skin_792 .efbl_header { background-color: transparent; } .efbl_feed_wraper.efbl_skin_792 .efbl_header, .efbl_feed_wraper.efbl_skin_792 .efbl_header .mif_posts, .efbl_feed_wraper.efbl_skin_792 .efbl_header .mif_followers, .efbl_feed_wraper.efbl_skin_792 .efbl_header .mif_bio, .efbl_feed_wraper.efbl_skin_792 .efbl_header .mif_header_title { color: #000; } .efbl_feed_wraper.efbl_skin_792 .efbl_read_more_link a { color: #000; } .efbl_feed_wraper.efbl_skin_792 .efbl_fb_story { background-color: transparent !important; } .efbl_feed_wraper.efbl_skin_792 .efbl_fb_story#efblcf { padding-top: 0px; } .efbl_feed_wraper.efbl_skin_792 .efbl_fb_story#efblcf {padding-bottom: 0px; } .efbl_feed_wraper.efbl_skin_792 .efbl_fb_story#efblcf { padding-left: 0px; } .efbl_feed_wraper.efbl_skin_792 .efbl_fb_story#efblcf {padding-right: 0px; } .efbl_feed_wraper.efbl_skin_792 .efbl_fb_story#efblcf { margin-top: 0px; } .efbl_feed_wraper.efbl_skin_792 .efbl_fb_story#efblcf { margin-bottom: 20px; } .efbl_feed_wraper.efbl_skin_792 .efbl_fb_story#efblcf { margin-left: 0px; } .efbl_feed_wraper.efbl_skin_792 .efbl_fb_story#efblcf {margin-right: 0px; } .efbl_feed_wraper.efbl_skin_793 .efbl_header { display: none; } .efbl_feed_wraper.efbl_skin_793 .efbl_header_meta .efbl_header_title { font-size: 16px; } .efbl_feed_wraper.efbl_skin_793  .efbl_likes,  .efbl_feed_wraper.efbl_skin_793  .efbl_story_meta .efbl_story_lnc_holder  .efbl_all_likes_wrap { display: inline-block; } .efbl_feed_wraper.efbl_skin_793  .efbl_shares { display: inline-block; } .efbl_feed_wraper.efbl_skin_793   .efbl_comments { display: inline-block; } .efbl_feed_wraper.efbl_skin_793 .mif_follow_btn { display: none; } .efbl_feed_wraper.efbl_skin_793 .efbl_fb_story#efblcf .efbl_story_text { display: block; } .efbl_feed_wraper.efbl_skin_793 .efbl_header .mif_header_title { font-size: 16px; } .efbl_feed_wraper.efbl_skin_793 .efbl_header .mif_posts,.efbl_feed_wraper.efbl_skin_793 .efbl_header .mif_followers { font-size: 16px; }.efbl_feed_wraper.efbl_skin_793 .efbl_header { background-color: transparent; } .efbl_feed_wraper.efbl_skin_793 .efbl_header, .efbl_feed_wraper.efbl_skin_793 .efbl_header .mif_posts, .efbl_feed_wraper.efbl_skin_793 .efbl_header .mif_followers, .efbl_feed_wraper.efbl_skin_793 .efbl_header .mif_bio, .efbl_feed_wraper.efbl_skin_793 .efbl_header .mif_header_title { color: #000; } .efbl_feed_wraper.efbl_skin_793 .efbl_read_more_link a { color: #000; } .efbl_feed_wraper.efbl_skin_793 .efbl_fb_story { background-color: transparent !important; } .efbl_feed_wraper.efbl_skin_793 .efbl_fb_story#efblcf { padding-top: 0px; } .efbl_feed_wraper.efbl_skin_793 .efbl_fb_story#efblcf {padding-bottom: 0px; } .efbl_feed_wraper.efbl_skin_793 .efbl_fb_story#efblcf { padding-left: 0px; } .efbl_feed_wraper.efbl_skin_793 .efbl_fb_story#efblcf {padding-right: 0px; } .efbl_feed_wraper.efbl_skin_793 .efbl_fb_story#efblcf { margin-top: 0px; } .efbl_feed_wraper.efbl_skin_793 .efbl_fb_story#efblcf { margin-bottom: 20px; } .efbl_feed_wraper.efbl_skin_793 .efbl_fb_story#efblcf { margin-left: 0px; } .efbl_feed_wraper.efbl_skin_793 .efbl_fb_story#efblcf {margin-right: 0px; }</style>
<style type="text/css">	
	
		#lambda-featured-header-wrap { background: url(https://agoracanarias.com/wp-content/themes/nevada/images/pattern/) repeat; }			
            #wrap {
                padding:0;
                margin:0;
                position:relative;
                width:100%;            
            }
            
            #lambda-featured-header { 
                 
                max-width:100%; 
                margin: 0 auto; 
            }
            
            body {
                background: #242424 !important;
            }
            
            
                        
                  #wrap {
                        width:100%;
                  }
            
                    
						
	</style>
</head>
<body class="error404" data-rsssl="1">
<!-- to top button -->
<div id="toTop">Go to Top</div>
<!-- end to top button -->
<div class="container clearfix" data-role="page" id="wrap">
<div class="container">
<div id="nevada-small-cart">
</div>
</div>
<header class="fluid clearfix" data-role="header" id="header">
<div class="container">
<div id="logo">
<a href="https://agoracanarias.com/" title="Ágora Canarias"><img id="sitelogo" src="https://agoracanarias.com/wp-content/uploads/2015/04/logo-prueba-canarias.png"/></a>
</div>
<div class="h-right" style="margin-top:0px">
<!-- Tagline -->
<span class="top-header-tagline">  
                        Llámanos +928 032 550						
                    </span><!-- Top Header Tagline -->
<!-- Social Icons -->
<div class="lw_social-2 lambda_widget_social clearfix">
<ul class="social-icons clearfix">
<li>
<a href="https://www.facebook.com/AcademiasAgora?fref=ts">
<img alt="Facebook" src="https://agoracanarias.com/wp-content/themes/nevada/images/icons/social/black/facebook.png" title="Facebook"/>
</a>
</li>
<li>
<a href="https://twitter.com/AcademiasAgora">
<img alt="Twitter" src="https://agoracanarias.com/wp-content/themes/nevada/images/icons/social/black/twitter_alt.png" title="Twitter"/>
</a>
</li>
<li>
<a href="https://plus.google.com/u/0/107565079167572598846/posts">
<img alt="Googleplus" src="https://agoracanarias.com/wp-content/themes/nevada/images/icons/social/black/google_plus.png" title="Googleplus"/>
</a>
</li>
<li>
<a href="https://www.youtube.com/channel/UCkVwIudKJk6gI0ywOyFg4Mw">
<img alt="Youtube" src="https://agoracanarias.com/wp-content/themes/nevada/images/icons/social/black/youtube.png" title="Youtube"/>
</a>
</li>
<li>
<a href="https://www.instagram.com/agoracanarias/?hl=es">
<img alt="Instagram" src="https://agoracanarias.com/wp-content/themes/nevada/images/icons/social/black/instagram.png" title="Instagram"/>
</a>
</li>
<li>
<a href="https://www.linkedin.com/in/%C3%A1gora-canarias-centro-de-formaci%C3%B3n-65b51956/">
<img alt="Linkedin" src="https://agoracanarias.com/wp-content/themes/nevada/images/icons/social/black/linkedin.png" title="Linkedin"/>
</a>
</li></ul>
</div>
<!-- /Social Icons -->
</div>
</div>
</header><!--/#header-->
<div class="clear"></div>
<div class="nav-wrap">
<div class="container">
<nav class="clearfix" id="navigation"><ul class="menu clearfix" id="menu-menu-canarias"><li class="menu-item menu-item-type-post_type menu-item-object-page menu-item-has-children" id="menu-item-43"><a href="https://agoracanarias.com/conoce-nuestras-instalaciones/">El Centro</a><span class="naviline"> </span>
<ul class="sub-menu">
<li class="menu-item menu-item-type-custom menu-item-object-custom" id="menu-item-73"><a href="https://www.instagram.com/agoracanarias/?hl=es">Imágenes</a></li>
</ul>
</li>
<li class="menu-item menu-item-type-custom menu-item-object-custom menu-item-has-children" id="menu-item-44"><a>Campus Virtual</a><span class="naviline"> </span>
<ul class="sub-menu">
<li class="menu-item menu-item-type-custom menu-item-object-custom" id="menu-item-88"><a href="https://formacion.agoracanarias.com/" target="_blank">Aula Virtual Ágora</a></li>
<li class="menu-item menu-item-type-custom menu-item-object-custom" id="menu-item-267"><a href="http://campus.agoracanarias.com">Plataforma Cursos Bonificados</a></li>
<li class="menu-item menu-item-type-custom menu-item-object-custom" id="menu-item-1388"><a href="https://master.agoracanarias.com/">Campus Másteres Profesionalizantes</a></li>
</ul>
</li>
<li class="menu-item menu-item-type-post_type menu-item-object-page menu-item-has-children" id="menu-item-109"><a href="https://agoracanarias.com/cursos/">Cursos</a><span class="naviline"> </span>
<ul class="sub-menu">
<li class="menu-item menu-item-type-post_type menu-item-object-page" id="menu-item-1524"><a href="https://agoracanarias.com/cuso-de-atencion-sociosanitaria-a-personas-dependientes-en-instituciones-sociales/">Cuso de atención sociosanitaria a personas dependientes en instituciones sociales</a></li>
<li class="menu-item menu-item-type-post_type menu-item-object-portfolio" id="menu-item-1268"><a href="https://agoracanarias.com/portfolio/ope-auxiliarestcae-scs-201819/">Preparación oposiciones SCS- Celador, TCAE y DU</a></li>
<li class="menu-item menu-item-type-post_type menu-item-object-portfolio menu-item-has-children" id="menu-item-911"><a href="https://agoracanarias.com/portfolio/cursos-con-acreditacion-cfc/" target="_blank">Cursos con acreditación CFC</a>
<ul class="sub-menu">
<li class="menu-item menu-item-type-post_type menu-item-object-page" id="menu-item-1181"><a href="https://agoracanarias.com/cursos-online-para-enfermeros/">Enfermería</a></li>
<li class="menu-item menu-item-type-post_type menu-item-object-page" id="menu-item-1183"><a href="https://agoracanarias.com/cursos-online-para-fisioteraeuta/">Fisioterapia</a></li>
<li class="menu-item menu-item-type-post_type menu-item-object-page" id="menu-item-1182"><a href="https://agoracanarias.com/cursos-online-para-auxiliares-de-enfermeria/">Auxiliar de enfermería</a></li>
<li class="menu-item menu-item-type-post_type menu-item-object-page" id="menu-item-1187"><a href="https://agoracanarias.com/cursos-multidisciplinares/">Cursos multidisciplinares</a></li>
</ul>
</li>
<li class="menu-item menu-item-type-post_type menu-item-object-portfolio" id="menu-item-907"><a href="https://agoracanarias.com/portfolio/temario-test-simulacros-trabajo-social-ope-2019-scs/">Preparación oposiciones Trabajadores Sociales</a></li>
<li class="menu-item menu-item-type-post_type menu-item-object-page" id="menu-item-1530"><a href="https://agoracanarias.com/preparacion-oposiciones-profesorado-de-secundaria-20-21/">Preparación oposiciones profesorado de Secundaria 20/21</a></li>
<li class="menu-item menu-item-type-post_type menu-item-object-portfolio" id="menu-item-909"><a href="https://agoracanarias.com/portfolio/cursos-acreditados-de-formacion-continua-para-el-profesorado/" target="_blank">Cursos acreditados de formación continuada para profesores</a></li>
<li class="menu-item menu-item-type-post_type menu-item-object-portfolio" id="menu-item-908"><a href="https://agoracanarias.com/portfolio/cursos-online-acreditados-de-todos-los-sectores/" target="_blank">Cursos online de todos los sectores</a></li>
<li class="menu-item menu-item-type-post_type menu-item-object-page" id="menu-item-1479"><a href="https://agoracanarias.com/preparacion-oposiciones-profesora-fp-2021/">Preparación oposiciones profesorado FP 2021</a></li>
<li class="menu-item menu-item-type-post_type menu-item-object-page" id="menu-item-1494"><a href="https://agoracanarias.com/preparacion-oposiciones-cuerpo-de-maestros/">Preparación oposiciones cuerpo de Maestros</a></li>
</ul>
</li>
<li class="menu-item menu-item-type-post_type menu-item-object-page menu-item-has-children" id="menu-item-895"><a href="https://agoracanarias.com/formacion-universitaria/" target="_blank">Formación Postgrado Universitario</a><span class="naviline"> </span>
<ul class="sub-menu">
<li class="menu-item menu-item-type-post_type menu-item-object-page menu-item-has-children" id="menu-item-923"><a href="https://agoracanarias.com/masteres/">Másteres Universitarios</a>
<ul class="sub-menu">
<li class="menu-item menu-item-type-post_type menu-item-object-page" id="menu-item-1400"><a href="https://agoracanarias.com/master-universitario-prevencion-y-deteccion-de-la-violencia-contra-ninos-ninas-y-adolescentes/">Máster universitario en prevención y detección de la violencia contra menores</a></li>
</ul>
</li>
<li class="menu-item menu-item-type-post_type menu-item-object-page menu-item-has-children" id="menu-item-1280"><a href="https://agoracanarias.com/masteres-universitarios-profesionalizantes/">Másteres universitarios profesionalizantes</a>
<ul class="sub-menu">
<li class="menu-item menu-item-type-post_type menu-item-object-page" id="menu-item-1281"><a href="https://agoracanarias.com/executive/">Másteres Executive</a></li>
<li class="menu-item menu-item-type-post_type menu-item-object-page" id="menu-item-1282"><a href="https://agoracanarias.com/masteres-en-competencias-digitales/">Másteres en Competencias digitales</a></li>
<li class="menu-item menu-item-type-post_type menu-item-object-page" id="menu-item-1283"><a href="https://agoracanarias.com/masteres-nuevas-tecnologias/">Másteres en Nuevas Energías</a></li>
</ul>
</li>
<li class="menu-item menu-item-type-post_type menu-item-object-page menu-item-has-children" id="menu-item-922"><a href="https://agoracanarias.com/postgrados-universitarios/expertos-universitarios/">Expertos Universitarios</a>
<ul class="sub-menu">
<li class="menu-item menu-item-type-post_type menu-item-object-page" id="menu-item-954"><a href="https://agoracanarias.com/experto-en-enfermeria-en-atencion-primaria-y-comunitaria/">Experto en Enfermería en atención primaria y comunitaria</a></li>
<li class="menu-item menu-item-type-post_type menu-item-object-page" id="menu-item-956"><a href="https://agoracanarias.com/experto-en-enfermeria-medico-quirurgica/">Experto en enfermería médico-quirúrgica</a></li>
<li class="menu-item menu-item-type-post_type menu-item-object-page" id="menu-item-955"><a href="https://agoracanarias.com/experto-en-enfermeria-nefrologica-y-terapia-renal-sustitutiva/">Experto en enfermería nefrológica y terapia renal sustitutiva</a></li>
<li class="menu-item menu-item-type-post_type menu-item-object-page" id="menu-item-957"><a href="https://agoracanarias.com/experto-en-rehabilitacion-respiratoria-y-cardiaca/">Experto en rehabilitación respiratoria y cardiaca</a></li>
<li class="menu-item menu-item-type-post_type menu-item-object-page" id="menu-item-958"><a href="https://agoracanarias.com/experto-en-fisioterapia-del-suelo-pelvico-embarazo-y-obstetricia/">Experto en Fisioterapia del suelo pélvico, embarazo y obstetricia</a></li>
</ul>
</li>
<li class="menu-item menu-item-type-post_type menu-item-object-page" id="menu-item-924"><a href="https://agoracanarias.com/cursos-de-extension-universitaria/">Cursos de extensión universitaria</a></li>
</ul>
</li>
<li class="menu-item menu-item-type-post_type menu-item-object-page" id="menu-item-839"><a href="https://agoracanarias.com/formacion-bonificada-gratuita-para-empresas/">Formación Empresas</a><span class="naviline"> </span></li>
<li class="menu-item menu-item-type-post_type menu-item-object-page" id="menu-item-42"><a href="https://agoracanarias.com/homologaciones/">Homologaciones</a><span class="naviline"> </span></li>
<li class="menu-item menu-item-type-post_type menu-item-object-page menu-item-has-children" id="menu-item-72"><a href="https://agoracanarias.com/contacto/">Contacto</a><span class="naviline"> </span>
<ul class="sub-menu">
<li class="menu-item menu-item-type-post_type menu-item-object-page" id="menu-item-861"><a href="https://agoracanarias.com/trabaja-con-nosotros/">Trabaja con Nosotros</a></li>
</ul>
</li>
</ul></nav>
<div class="mm-trigger">Ágora Canarias<button class="mm-button"></button></div><nav class="menu-menu-canarias-container" id="mobile-menu"><ul class="mm-menu" id="menu-menu-canarias-1"><li class="menu-item menu-item-type-post_type menu-item-object-page menu-item-has-children menu-item-43" id="menu-item-43"><a href="https://agoracanarias.com/conoce-nuestras-instalaciones/">El Centro</a>
<ul class="sub-menu">
<li class="menu-item menu-item-type-custom menu-item-object-custom menu-item-73" id="menu-item-73"><a href="https://www.instagram.com/agoracanarias/?hl=es">Imágenes</a></li>
</ul>
</li>
<li class="menu-item menu-item-type-custom menu-item-object-custom menu-item-has-children menu-item-44" id="menu-item-44"><a>Campus Virtual</a>
<ul class="sub-menu">
<li class="menu-item menu-item-type-custom menu-item-object-custom menu-item-88" id="menu-item-88"><a href="https://formacion.agoracanarias.com/" rel="noopener noreferrer" target="_blank">Aula Virtual Ágora</a></li>
<li class="menu-item menu-item-type-custom menu-item-object-custom menu-item-267" id="menu-item-267"><a href="http://campus.agoracanarias.com">Plataforma Cursos Bonificados</a></li>
<li class="menu-item menu-item-type-custom menu-item-object-custom menu-item-1388" id="menu-item-1388"><a href="https://master.agoracanarias.com/">Campus Másteres Profesionalizantes</a></li>
</ul>
</li>
<li class="menu-item menu-item-type-post_type menu-item-object-page menu-item-has-children menu-item-109" id="menu-item-109"><a href="https://agoracanarias.com/cursos/">Cursos</a>
<ul class="sub-menu">
<li class="menu-item menu-item-type-post_type menu-item-object-page menu-item-1524" id="menu-item-1524"><a href="https://agoracanarias.com/cuso-de-atencion-sociosanitaria-a-personas-dependientes-en-instituciones-sociales/">Cuso de atención sociosanitaria a personas dependientes en instituciones sociales</a></li>
<li class="menu-item menu-item-type-post_type menu-item-object-portfolio menu-item-1268" id="menu-item-1268"><a href="https://agoracanarias.com/portfolio/ope-auxiliarestcae-scs-201819/">Preparación oposiciones SCS- Celador, TCAE y DU</a></li>
<li class="menu-item menu-item-type-post_type menu-item-object-portfolio menu-item-has-children menu-item-911" id="menu-item-911"><a href="https://agoracanarias.com/portfolio/cursos-con-acreditacion-cfc/" rel="noopener noreferrer" target="_blank">Cursos con acreditación CFC</a></li>
<li class="menu-item menu-item-type-post_type menu-item-object-portfolio menu-item-907" id="menu-item-907"><a href="https://agoracanarias.com/portfolio/temario-test-simulacros-trabajo-social-ope-2019-scs/">Preparación oposiciones Trabajadores Sociales</a></li>
<li class="menu-item menu-item-type-post_type menu-item-object-page menu-item-1530" id="menu-item-1530"><a href="https://agoracanarias.com/preparacion-oposiciones-profesorado-de-secundaria-20-21/">Preparación oposiciones profesorado de Secundaria 20/21</a></li>
<li class="menu-item menu-item-type-post_type menu-item-object-portfolio menu-item-909" id="menu-item-909"><a href="https://agoracanarias.com/portfolio/cursos-acreditados-de-formacion-continua-para-el-profesorado/" rel="noopener noreferrer" target="_blank">Cursos acreditados de formación continuada para profesores</a></li>
<li class="menu-item menu-item-type-post_type menu-item-object-portfolio menu-item-908" id="menu-item-908"><a href="https://agoracanarias.com/portfolio/cursos-online-acreditados-de-todos-los-sectores/" rel="noopener noreferrer" target="_blank">Cursos online de todos los sectores</a></li>
<li class="menu-item menu-item-type-post_type menu-item-object-page menu-item-1479" id="menu-item-1479"><a href="https://agoracanarias.com/preparacion-oposiciones-profesora-fp-2021/">Preparación oposiciones profesorado FP 2021</a></li>
<li class="menu-item menu-item-type-post_type menu-item-object-page menu-item-1494" id="menu-item-1494"><a href="https://agoracanarias.com/preparacion-oposiciones-cuerpo-de-maestros/">Preparación oposiciones cuerpo de Maestros</a></li>
</ul>
</li>
<li class="menu-item menu-item-type-post_type menu-item-object-page menu-item-has-children menu-item-895" id="menu-item-895"><a href="https://agoracanarias.com/formacion-universitaria/" rel="noopener noreferrer" target="_blank">Formación Postgrado Universitario</a>
<ul class="sub-menu">
<li class="menu-item menu-item-type-post_type menu-item-object-page menu-item-has-children menu-item-923" id="menu-item-923"><a href="https://agoracanarias.com/masteres/">Másteres Universitarios</a></li>
<li class="menu-item menu-item-type-post_type menu-item-object-page menu-item-has-children menu-item-1280" id="menu-item-1280"><a href="https://agoracanarias.com/masteres-universitarios-profesionalizantes/">Másteres universitarios profesionalizantes</a></li>
<li class="menu-item menu-item-type-post_type menu-item-object-page menu-item-has-children menu-item-922" id="menu-item-922"><a href="https://agoracanarias.com/postgrados-universitarios/expertos-universitarios/">Expertos Universitarios</a></li>
<li class="menu-item menu-item-type-post_type menu-item-object-page menu-item-924" id="menu-item-924"><a href="https://agoracanarias.com/cursos-de-extension-universitaria/">Cursos de extensión universitaria</a></li>
</ul>
</li>
<li class="menu-item menu-item-type-post_type menu-item-object-page menu-item-839" id="menu-item-839"><a href="https://agoracanarias.com/formacion-bonificada-gratuita-para-empresas/">Formación Empresas</a></li>
<li class="menu-item menu-item-type-post_type menu-item-object-page menu-item-42" id="menu-item-42"><a href="https://agoracanarias.com/homologaciones/">Homologaciones</a></li>
<li class="menu-item menu-item-type-post_type menu-item-object-page menu-item-has-children menu-item-72" id="menu-item-72"><a href="https://agoracanarias.com/contacto/">Contacto</a>
<ul class="sub-menu">
<li class="menu-item menu-item-type-post_type menu-item-object-page menu-item-861" id="menu-item-861"><a href="https://agoracanarias.com/trabaja-con-nosotros/">Trabaja con Nosotros</a></li>
</ul>
</li>
</ul></nav>
</div>
</div>
<div class="clear"></div>
<div class="clear"></div>
<section class="fluid clearfix" id="teaser">
<div class="container">
<div class="sixteen columns" id="teaser-content">
<h1 id="page-title">
<span>404 Error</span>
</h1>
</div><!-- /#teaser-content -->
</div>
</section><!-- /#teaser -->
<div class="clear"></div><div class="fluid clearfix" data-content="content" id="content-wrap"><!-- /#start content-wrap -->
<div class="container"><div class="eleven columns" id="content"> <p>Apologies, but the page you requested could not be found. Perhaps searching will help.</p>
<div class="row">
<form action="https://agoracanarias.com/" class="searchform" id="searchform" method="get" role="search">
<div>
<label class="screen-reader-text" for="s">Buscar:</label>
<input id="s" name="s" type="text" value=""/>
<input id="searchsubmit" type="submit" value="Buscar"/>
</div>
</form> </div>
<script type="text/javascript">
		// focus on search field after it has loaded
		document.getElementById('s') && document.getElementById('s').focus();
	</script>
</div><!-- /#content-wrap --><aside class="five columns" id="sidebar" role="complementary"><ul></ul></aside><!-- #sidebar -->
</div>
<div class="clear"></div>
</div><!-- /.columns (#content) -->
<footer class="fluid clearfix" id="footer-wrap">
<div class="container">
<div class="normal sixteen columns" id="footer">
<div class="one_third">
<div class="text-2 widget_text"> <div class="textwidget"><img id="sitelogo" src="https://agoracanarias.com/wp-content/uploads/2015/04/logo-blanco-canarias.png"/></div>
</div><div class="lw_contact-2 lambda_widget_contact">
<ul><li class="clearfix"><div class="left"><span class="lambda-address"></span></div><div class="description">C/ Federico García Lorca 4-6 (La Minilla) - Las Palmas de Gran Canaria</div></li><li class="clearfix"><div class="left"><span class="lambda-phone"></span></div><div class="description">928 032 550 / 665 550 400</div></li><li class="clearfix"><div class="left"><span class="lambda-fax"></span></div><div class="description">928 032 551</div></li><li class="clearfix"><div class="left"><span class="lambda-email"></span></div><div class="description">info@agoracanarias.com</div></li><li class="clearfix"><div class="left"><span class="lambda-internet"></span></div><div class="description">www.agoracanarias.com</div></li></ul>
</div>
<div class="lw_social-4 lambda_widget_social clearfix">
<h3 class="widget-title"><span>Síguen</span></h3>
</div>
</div>
<div class="one_third">
<div class="nav_menu-2 widget_nav_menu"><h3 class="widget-title"><span>Ágora Canarias</span></h3><div class="menu-menu-footer-container"><ul class="menu" id="menu-menu-footer"><li class="menu-item menu-item-type-custom menu-item-object-custom menu-item-has-children menu-item-86" id="menu-item-86"><a>Campus Virtual</a>
<ul class="sub-menu">
<li class="menu-item menu-item-type-custom menu-item-object-custom menu-item-89" id="menu-item-89"><a href="https://formacion.agoracanarias.com/">Plataforma Ágora</a></li>
</ul>
</li>
<li class="menu-item menu-item-type-post_type menu-item-object-page menu-item-82" id="menu-item-82"><a href="https://agoracanarias.com/conoce-nuestras-instalaciones/">El Centro</a></li>
<li class="menu-item menu-item-type-post_type menu-item-object-page menu-item-84" id="menu-item-84"><a href="https://agoracanarias.com/colaboraciones-institucionales-y-aulas/">Colaboraciones</a></li>
<li class="menu-item menu-item-type-post_type menu-item-object-page menu-item-81" id="menu-item-81"><a href="https://agoracanarias.com/homologaciones/">Homologaciones</a></li>
<li class="menu-item menu-item-type-custom menu-item-object-custom menu-item-85" id="menu-item-85"><a href="http://academiasagora.com">Academias Ágora</a></li>
</ul></div></div></div>
<div class="one_third last">
<div class="search-4 widget_search"><h3 class="widget-title"><span>¿Qué curso te interesa?</span></h3><form action="https://agoracanarias.com/" class="searchform" id="searchform" method="get" role="search">
<div>
<label class="screen-reader-text" for="s">Buscar:</label>
<input id="s" name="s" type="text" value=""/>
<input id="searchsubmit" type="submit" value="Buscar"/>
</div>
</form></div><div class="categories-4 widget_categories"><h3 class="widget-title"><span>Actualizaciones</span></h3> <ul>
<li class="cat-item-none">No hay categorías</li> </ul>
</div></div>
<div class="clear"></div>
</div><!--/#footer-->
</div><!--/.container-->
</footer><!--/#footer-wrap-->
<div class="clearfix" id="sub-footer-wrap">
<div class="container">
<div class="sixteen columns">
<div class="copyright eight columns alpha">
                    
                                        
                        © 2021 <a href="https://agoracanarias.com">Ágora Canarias</a>
</div>
<div class="unitedthemes eight columns omega">
                   
				    					
					Powered by <a href="http://cccomunicacion.com">Doble C Comunicación</a>
</div>
</div>
</div>
</div><!--/#sub-footer-wrap-->
</div><!--/#wrap -->
<script type="text/javascript">
			jQuery(document).ready(function($) {
				$('.flexslider').flexslider({  
																													
				});
			});
		</script>
<script type="text/javascript">
        
		(function($){ 
            
            $(document).ready(function(){
            
                $(".like_it").click(function(){
                      
                      var post_id = jQuery(this).attr("id");
                      post_id = post_id.replace("like-", "");
                                
                      $.ajax({
                           type: "POST",
                           url:  "https://agoracanarias.com/wp-content/themes/nevada/functions/ajax-request.php",
                           data: "post_id=" + post_id + "&num=" + Math.random(),
                           success: function(data){
                                jQuery("#liked-" + post_id).html(data.like);
                                jQuery("#like-" + post_id).find('span').removeClass('lambda-unlike').addClass('lambda-like');
                           },
                           dataType: "json"
                      });
                 });
             
             });	 
             
        })(jQuery);
		
        </script>
<script type="text/javascript">
    (function($){
            
        $(document).ready(function(){	
            
            			
									
			/* Prettyphoto
			================================================== */
			$("a[data-rel^='prettyPhoto']").prettyPhoto({
				show_title: false,
				deeplinking: false 
			});				
			
             			 
        });	
        
    })(jQuery);
	</script>
<style media="screen" type="text/css"></style><script src="https://agoracanarias.com/wp-includes/js/jquery/ui/effect.min.js?ver=1.11.4" type="text/javascript"></script>
<script src="https://agoracanarias.com/wp-content/themes/nevada/javascripts/superfish.js?ver=1.2.3" type="text/javascript"></script>
<script src="https://agoracanarias.com/wp-content/themes/nevada/javascripts/jquery.jcarousellite.js?ver=1.3" type="text/javascript"></script>
<script src="https://agoracanarias.com/wp-content/themes/nevada/javascripts/jquery.fitvids.js?ver=1.3" type="text/javascript"></script>
<script src="https://agoracanarias.com/wp-content/themes/nevada/javascripts/jquery.isotope.min.js?ver=1.5.09" type="text/javascript"></script>
<script src="https://agoracanarias.com/wp-content/themes/nevada/javascripts/jquery.formalize.min.js?ver=1.2.3" type="text/javascript"></script>
<script src="https://agoracanarias.com/wp-content/themes/nevada/javascripts/nonverblaster.js?ver=1.0" type="text/javascript"></script>
<script src="https://agoracanarias.com/wp-content/themes/nevada/javascripts/app.js?ver=1.2.3" type="text/javascript"></script>
<script src="https://agoracanarias.com/wp-content/themes/nevada/javascripts/jquery.prettyPhoto.js?ver=1.3" type="text/javascript"></script>
<script src="https://agoracanarias.com/wp-content/themes/nevada/javascripts/jquery.flexslider.min.js?ver=1.8" type="text/javascript"></script>
<script src="https://agoracanarias.com/wp-includes/js/wp-embed.min.js?ver=5.3.4" type="text/javascript"></script>
</body>
</html>