<!DOCTYPE html>
<html>
<head>
<meta content="text/html; charset=utf-8" http-equiv="Content-Type"/>
<meta content="pc" name="applicable-device"/>
<title>61å¹¼å¿ç½_å¹¼å¿æè²_å¹¼å¿èµæº_å¹¼å¿å­¦ä¹ ç½</title>
<meta content="61å¹¼å¿ç½,å¹¼å¿èµæº,å¹¼æèµæº,å¿ç«¥èµæºç½,å¹¼å¿æè²ç½" name="keywords"/>
<meta content="61å¹¼å¿ç½ï¼æ¯ä¸ä¸ªä¸ä¸çå¹¼å¿æè²ç½ç«ï¼æä¾1-6å²å¹¼å¿å­¦ä¹ èµæºåå¹¼å¿å­æå­¦ææ¡ï¼æå¹¼å¿ç®ç¬ç»ãæå·¥ãèè¹ãç¯åãæäºãå¿æ­ãæ¸¸æãå¿ç«¥ç»ç­ä¸°å¯çå¹¼å¿å­¦ä¹ èµæºã" name="description"/>
<meta content="format=[wml|xhtml|html5]; url=https://m.051661.com" name="mobile-agent"/>
<link href="//img.051661.com/y/css/quanzhan.css" rel="stylesheet" type="text/css"/>
<link href="//img.051661.com/y/css/index.css" rel="stylesheet" type="text/css"/>
<script src="//apps.bdimg.com/libs/jquery/2.1.1/jquery.min.js" type="text/javascript"></script>
<script src="//img.051661.com/y/js/jquery.sgallery.js" type="text/javascript"></script>
<script src="//img.051661.com/y/sqsm/sanshi.js" type="text/javascript"></script>
<script src="//img.051661.com/y/js/header_nav.js" type="text/javascript"></script>
<script type="application/ld+json">
{
	"@context": "https://ziyuan.baidu.com/contexts/cambrian.jsonld",    
    "@id": "https://www.051661.com",
	"title": "61å¹¼å¿ç½_å¹¼å¿æè²_å¹¼å¿èµæº_å¹¼å¿å­¦ä¹ ç½",
	"upDate": "2019-07-03T19:45:30",
}
</script>
<script>
var _hmt = _hmt || [];
(function() {
  var hm = document.createElement("script");
  hm.src = "https://hm.baidu.com/hm.js?8661e5856c3e0678dae8c07d9678f211";
  var s = document.getElementsByTagName("script")[0]; 
  s.parentNode.insertBefore(hm, s);
})();
</script>
</head>
<body>
<div class="body-top">
<div style="margin: auto; width: 1000px;overflow: hidden;">
<ul>
<li><img src="//img.051661.com/y/images/lvsejt.gif"/></li>
<li><div class="all_cat"><a href="//www.051661.com/about/map/" target="_blank">æ  ç® å¯¼ èª</a></div></li>
<li><img src="//img.051661.com/y/images/m-sj.jpg"/><a href="https://m.051661.com" target="_blank">61å¹¼æç½-ææºç</a></li>
</ul>
<div class="login lh24 blue">
</div>
</div>
</div>
<div class="head">
<a href="//www.051661.com/" title="å¹¼å¿èµæºç½">
<img alt="å¹¼å¿èµæºç½" class="logo" src="//img.051661.com/y/images/logo.gif"/></a>
<div class="ad_468">
</div>
<div class="search">
<form action="//www.051661.com/index.php" id="search_form" method="get" target="_blank">
<input name="m" type="hidden" value="other"/>
<input name="c" type="hidden" value="search"/>
<input name="q" style="width:218px;"/>
<input class="search-sub" name="sub" type="submit" value="æ¥æ¾"/>
</form>
</div>
</div>
<div class="nav">
<ul>
<li class="home"><a href="//www.051661.com/" title="é¦é¡µ">é¦é¡µ</a></li>
<li class="nav_tb1"><a href="//www.051661.com/list/410/">å¹¼å¿æå·¥</a>
<p class="subnav"><a href="//www.051661.com/youeryuanjiaoan/shougong/">æå·¥ä½å</a></p><p class="subnav"><a href="//www.051661.com/youeryuanjiaoan/diy/">åºæ§æå·¥</a></p><p class="subnav"><a href="//www.051661.com/list/452/">æå·¥è§é¢</a></p><p class="subnav"><a href="//www.051661.com/list/453/">æå·¥ä¹¦</a></p><p class="subnav"><a href="//www.051661.com/list/454/">å½©æ³¥æå·¥</a></p><p class="subnav"><a href="//www.051661.com/list/466/">å­©æåæå·¥</a></p><p class="subnav"><a href="//www.051661.com/list/542/">å¹¼å¿æå·¥</a></p></li>
<li class="nav_tb2"><a href="//www.051661.com/miyu/">å¿ç«¥è°è¯­</a>
<p class="subnav"><a href="//www.051661.com/miyu/dongwu/">å¨ç©</a></p><p class="subnav"><a href="//www.051661.com/miyu/shiwu/">æè¬</a></p><p class="subnav"><a href="//www.051661.com/miyu/zhiwu/">æ¤ç©</a></p><p class="subnav"><a href="//www.051661.com/miyu/jieri/">èæ¥</a></p><p class="subnav"><a href="//www.051661.com/miyu/quwei/">è¶£å³</a></p></li>
<li class="nav_tb3"><a href="//www.051661.com/list/204/">ç»å£ä»¤</a>
<p class="subnav"><a href="//www.051661.com/list/205/">å¨ç©</a></p><p class="subnav"><a href="//www.051661.com/list/206/">é£ç©</a></p><p class="subnav"><a href="//www.051661.com/list/208/">è¶£å³</a></p><p class="subnav"><a href="//www.051661.com/list/209/">æ®é</a></p><p class="subnav"><a href="//www.051661.com/list/447/">ç»å£ä»¤mp3</a></p></li>
<li class="nav_tb4"><a href="//www.051661.com/wudao/">èè¹</a>
<p class="subnav"><a href="//www.051661.com/wudao/chunjiewudao/">æ¥èèè¹</a></p><p class="subnav"><a href="//www.051661.com/wudao/wudaojiaoxue/">èè¹æå­¦</a></p><p class="subnav"><a href="//www.051661.com/wudao/wudaojibengong/">åºæ¬å</a></p><p class="subnav"><a href="//www.051661.com/wudao/youxiuwudao/">ä¼ç§èè¹</a></p><p class="subnav"><a href="//www.051661.com/wudao/liuyiwudao/">å­ä¸èè¹</a></p></li>
<li class="nav_tb5"><a href="//www.051661.com/jianbihua/">ç®ç¬ç»</a>
<p class="subnav"><a href="//www.051661.com/jianbihua/dongwu/">å¨ç©</a></p><p class="subnav"><a href="//www.051661.com/jianbihua/shuiguo/">æ°´æ</a></p><p class="subnav"><a href="//www.051661.com/jianbihua/shucai/">è¬è</a></p><p class="subnav"><a href="//www.051661.com/jianbihua/katongdongwu/">å¡é</a></p><p class="subnav"><a href="//www.051661.com/jianbihua/kunchong/">æè«</a></p><p class="subnav"><a href="//www.051661.com/jianbihua/jiaotonggongju/">äº¤éå·¥å·</a></p><p class="subnav"><a href="//www.051661.com/jianbihua/shiwu/">é£ç©</a></p><p class="subnav"><a href="//www.051661.com/jianbihua/qiche/">æ±½è½¦</a></p><p class="subnav"><a href="//www.051661.com/jianbihua/haiyangdongwu/">æµ·æ´å¨ç©</a></p><p class="subnav"><a href="//www.051661.com/jianbihua/feiji/">é£æº</a></p><p class="subnav"><a href="//www.051661.com/xuehuahua/fangzi/">æ¿å­</a></p><p class="subnav"><a href="//www.051661.com/xuehuahua/shipin/">ç®ç¬ç»è§é¢</a></p><p class="subnav"><a href="//www.051661.com/jianbihua/hua/">è±æµ</a></p><p class="subnav"><a href="//www.051661.com/jianbihua/renwu/">äººç©</a></p><p class="subnav"><a href="//www.051661.com/jianbihua/xiaoniao/">å°é¸</a></p><p class="subnav"><a href="//www.051661.com/jianbihua/wentiyongpin/">æä½ç¨å</a></p><p class="subnav"><a href="//www.051661.com/jianbihua/yimaoxiebao/">è¡£å¸½éå</a></p><p class="subnav"><a href="//www.051661.com/jianbihua/baihuo/">æ¥ç¨ç¾è´§</a></p><p class="subnav"><a href="//www.051661.com/jianbihua/fengjing/">é£æ¯</a></p><p class="subnav"><a href="//www.051661.com/jianbihua/shengdanjie/">å£è¯èç®ç¬</a></p></li>
<li class="nav_tb6"><a href="//www.051661.com/xueqianban/">å­¦åç­è¯å·</a>
<p class="subnav"><a href="//www.051661.com/xueqianban/test/">å¹¼åå°è¯å·</a></p><p class="subnav"><a href="//www.051661.com/xueqianban/xueqianshuxue/">æ°å­¦è¯å·</a></p><p class="subnav"><a href="//www.051661.com/xueqianban/xueqianbanyuwen/">è¯­æè¯å·</a></p><p class="subnav"><a href="//www.051661.com/xueqianban/xueqianbanpinyin/">æ¼é³è¯å·</a></p></li>
<li class="nav_tb7"><a href="//www.051661.com/youeryuanjiaoan/">ææ¡</a>
<p class="subnav"><a href="//www.051661.com/youeryuanjiaoan/qinziyouxi/">äº²å­æ¸¸æ</a></p><p class="subnav"><a href="//www.051661.com/list/89/">è²å¿ç¥è¯</a></p><p class="subnav"><a href="//www.051661.com/youeryuanjiaoan/youershige/">è¯æ­æè¯µ</a></p><p class="subnav"><a href="//www.051661.com/list/314/">å¹¼å¿å­ç®ä»</a></p><p class="subnav"><a href="//www.051661.com/list/323/">æäºææ¡</a></p><p class="subnav"><a href="//www.051661.com/list/324/">æ°´æææ¡</a></p><p class="subnav"><a href="//www.051661.com/list/326/">ç§å­¦å°å®éª</a></p><p class="subnav"><a href="//www.051661.com/list/364/">èµ°è¿·å®«å¾</a></p><p class="subnav"><a href="//www.051661.com/list/379/">æ°å­è¿çº¿ç»</a></p><p class="subnav"><a href="//www.051661.com/list/394/">ä¼ç§ææ¡</a></p><p class="subnav"><a href="//www.051661.com/list/524/">çå¾è¯´è¯</a></p></li>
<li class="nav_tb8"><a href="//www.051661.com/yeybz/">å¹¼å¿å­å¸ç½®</a>
<p class="subnav"><a href="//www.051661.com/yeybz/jiaoshi/">æå®¤</a></p><p class="subnav"><a href="//www.051661.com/yeybz/zoulang/">èµ°å»</a></p><p class="subnav"><a href="//www.051661.com/yeybz/diaoshi/">åé¥°</a></p><p class="subnav"><a href="//www.051661.com/yeybz/qiangmian/">å¢é¢</a></p><p class="subnav"><a href="//www.051661.com/yeybz/menting/">é¨å</a></p><p class="subnav"><a href="//www.051661.com/yeybz/shiwai/">å®¤å¤</a></p><p class="subnav"><a href="//www.051661.com/yeybz/zhuangxiu/">è£ä¿®ææå¾</a></p><p class="subnav"><a href="//www.051661.com/yeybz/wutai/">èå°</a></p><p class="subnav"><a href="//www.051661.com/yeybz/tushujiao/">å¾ä¹¦è§</a></p><p class="subnav"><a href="//www.051661.com/yeybz/wanjuqu/">ç©å·åºè§</a></p><p class="subnav"><a href="//www.051661.com/yeybz/jygy/">å®¶å­å±è²æ </a></p><p class="subnav"><a href="//www.051661.com/yeybz/qinshi/">å¯å®¤</a></p><p class="subnav"><a href="//www.051661.com/yeybz/guowai/">å½å¤å¹¼å¿å­</a></p></li>
<li class="nav_tb9"><a href="//www.051661.com/ertonghua/">å¿ç«¥ç»</a>
<p class="subnav"><a href="//www.051661.com/ertonghua/kehuanhua/">ç§å¹»ç»</a></p><p class="subnav"><a href="//www.051661.com/ertonghua/labihua/">è¡ç¬ç»</a></p><p class="subnav"><a href="//www.051661.com/ertonghua/shuicaihua/">æ°´å½©ç»</a></p><p class="subnav"><a href="//www.051661.com/ertonghua/banhua/">çç»</a></p><p class="subnav"><a href="//www.051661.com/ertonghua/shuifenhua/">æ°´ç²ç»</a></p><p class="subnav"><a href="//www.051661.com/ertonghua/shuimohua/">æ°´å¢¨ç»</a></p><p class="subnav"><a href="//www.051661.com/ertonghua/tiansetupian/">æ¶è²ç»</a></p><p class="subnav"><a href="//www.051661.com/ertonghua/zhantiehua/">æå·¥ç²è´´ç»</a></p><p class="subnav"><a href="//www.051661.com/ertonghua/huanbaohua/">ç¯ä¿ç»</a></p><p class="subnav"><a href="//www.051661.com/list/219/">è·å¥ç»</a></p><p class="subnav"><a href="//www.051661.com/list/220/">å½å¤å¿ç«¥ç»</a></p><p class="subnav"><a href="//www.051661.com/list/325/">ææç»</a></p><p class="subnav"><a href="//www.051661.com/list/361/">æ²¹ç»</a></p><p class="subnav"><a href="//www.051661.com/list/362/">çº¿æç»</a></p><p class="subnav"><a href="//www.051661.com/list/363/">æ°´å½©ç¬ç»</a></p><p class="subnav"><a href="//www.051661.com/ertonghua/secaijingwu/">è²å½©éç©</a></p><p class="subnav"><a href="//www.051661.com/ertonghua/shouzhihua/">ææç»</a></p></li>
<li class="nav_tb10"><a href="//www.051661.com/list/443/">å¹¼å¿å­è¯¾ä»¶</a>
<p class="subnav"><a href="//www.051661.com/list/450/">å°ç­è¯¾ä»¶</a></p><p class="subnav"><a href="//www.051661.com/list/451/">ä¸­ç­è¯¾ä»¶</a></p><p class="subnav"><a href="//www.051661.com/list/456/">ä¼ç§è¯¾ä»¶</a></p><p class="subnav"><a href="//www.051661.com/list/463/">PPTæ¨¡æ¿</a></p><p class="subnav"><a href="//www.051661.com/list/530/">å¹¼å¿å­èµæ</a></p></li>
</ul>
</div>
<div class="nav_hot">
<p>
<a href="//www.051661.com/nursery/" style="color:#008134">å¹¼å¿å­¦ä¹ é³è§é¢</a>
<a href="//www.051661.com/ertonggequ/" style="color:#008134">å¿æ­</a>
<a href="//www.051661.com/list/210/" style="color:#008134">å¿ç«¥æçº¸</a>
<a href="//www.051661.com/list/221/" style="color:#008134">å¿ç«¥åªçº¸å¾æ¡</a>
<a href="//www.051661.com/list/350/" style="color:#008134">ä¸å·§æ¿æ¼å¾å¾æ¡</a>
<a href="//www.051661.com/list/359/" style="color:#008134">å¿ç«¥æäºå¤§å¨</a>
<a href="//www.051661.com/mp3/" style="color:#008134">å¿ç«¥æäºmp3</a>
<a href="//www.051661.com/list/455/" style="color:#008134">å¹¼å¸ç®å</a>
<a href="//www.051661.com/list/459/" style="color:#008134">å¹¼å¿å­¦ä¹ å¡ç</a>
<a href="//www.051661.com/list/461/" style="color:#008134">å¿ç«¥ç»æ¬ä¸è½½</a>
<a href="//www.051661.com/list/472/" style="color:#008134">å¹¼å¿å­å°ç­ææ¡</a>
</p>
</div>
<div class="ads"><script type="text/javascript">d_y("header");</script></div><div class="wrap">
<div class="layA">
<div class="modFocus">
<div class="FocusPic">
<div class="content" id="main-slide">
<div class="changeDiv">
<a href="//www.051661.com/jianbihua/katongdongwu/156/156410.html" target="_blank" title="100å¼ å¡éå¨ç©ç®ç¬ç»æåä¸è½½"><img alt="100å¼ å¡éå¨ç©ç®ç¬ç»æåä¸è½½" height="240" src="//img.051661.com/uploadfile/2018/0726/xiaozuozuo.jpg" width="350"/>100å¼ å¡éå¨ç©ç®ç¬ç»æåä¸è½½</a>
<a href="//www.051661.com/jianbihua/katongdongwu/156/54378.html" target="_blank" title="å¡éå°ç½åæä¹ç» å¡éå°ç½åç®ç¬ç»æ­¥éª¤å¾"><img alt="å¡éå°ç½åæä¹ç» å¡éå°ç½åç®ç¬ç»æ­¥éª¤å¾" height="240" src="//img.051661.com/uploadfile/2016/0422/20160422101451236.jpg" width="350"/>å¡éå°ç½åæä¹ç» å¡éå°ç½åç®ç¬ç»æ­¥éª¤å¾</a>
</div>
</div>
</div>
<div>
<div class="thD"><span class="mark">ä¸é¢æ¨è</span></div>
<ul class="expTxtA">
<li><a href="//www.051661.com/shuqian/s-26-1.html" style="color:green" target="_blank">å¹¼å¿å­å­ä¸èå°å¸ç½®</a></li>
<li><a href="//www.051661.com/shuqian/s-58-1.html" style="color:green" target="_blank">å­ä¸å¿ç«¥èçç»</a></li>
<li><a href="//www.051661.com/shuqian/s-65-1.html" style="color:green" target="_blank">å¹¼å¿å­å­ä¸ç¯å¢å¸ç½®å¤§å¨</a></li>
<li><a href="//www.051661.com/shuqian/s-111-1.html" style="color:green" target="_blank">å¹¼å¿å­å­ä¸æå®¤ç¯å¢å¸ç½®</a></li>
<li><a href="//www.051661.com/shuqian/s-112-1.html" style="color:green" target="_blank">å¹¼å¿å­å­ä¸èµ°å»ç¯å¢å¸ç½®</a></li>
<li><a href="//www.051661.com/shuqian/s-113-1.html" style="color:green" target="_blank">å¹¼å¿å­å­ä¸å¢é¢ç¯å¢å¸ç½®</a></li>
</ul>
<div class="clear"></div>
</div>
</div>
</div>
<div class="layB">
<div style="border-bottom: 1px #E6E6E6 dashed; background: url(//img.051661.com/y/images/indexbg.png) no-repeat;padding: 18px 12px 0px 12px; height: 60px; overflow: hidden;">
<p align="center"><a class="fTitA" href="//www.051661.com/youeryuanjiaoan/qinziyouxi/34/179488.html" target="_blank">å¹¼å¿å­æ¨èä½è²æ¸¸æï¼å¿«éè®©å­©å­ç¸äºçæ</a></p>
<p align="center"><a class="fTitA" href="//www.051661.com/ertonghua/shouzhihua/416/154805.html" target="_blank">å¿ç«¥ææç» æçº¹ç»å¨ç©å¤§å¨æç¨ï¼å¸¦å¿æ­æ­è¯ï¼</a></p>
</div>
<div class="modBoxF">
<ul class="expTxtA">
<li><a href="//www.051661.com/jianbihua/hua/354/154913.html" target="_blank">åç§è±æµç®ç¬ç»å¤§å¨35å¼  </a></li>
<li><a href="//www.051661.com/show/20130707/153879.html" style="color:#CC00FF;" target="_blank">å¿ç«¥å®å¨ç¥è¯å¿æ­ãæ¸¸æ³³ç¯ã</a></li>
<li><a href="//www.051661.com/show/20130707/153878.html" style="color:#CC00FF;" target="_blank">å¿ç«¥å®å¨ç¥è¯å¿æ­ãå°éç¯ã</a></li>
<li><a href="//www.051661.com/show/20130707/153877.html" style="color:#CC00FF;" target="_blank">å¿ç«¥å®å¨ç¥è¯å¿æ­ãäº¤éç¯ã</a></li>
<li><a href="//www.051661.com/show/20130707/153876.html" style="color:#CC00FF;" target="_blank">å¿ç«¥å®å¨ç¥è¯å¿æ­ãåæç¯ã</a></li>
<li><a href="//www.051661.com/youeryuanjiaoan/qinziyouxi/34/7714.html" target="_blank">39ä¸ªå¹¼å¿å­æææ¸¸æ</a></li>
</ul>
<div class="clear"></div>
</div>
<div class="modBoxF" style="border-bottom: 1px solid #E6E6E6;">
<ul class="expPicA">
<li><i class="iPic img4 mr10"><a href="//www.051661.com/youeryuanjiaoan/shougong/92/154916.html"><img alt="å¿ç«¥é²¨é±¼æå·¥å¶ä½å¤§å¨" height="60" src="//img.051661.com/uploadfile/2018/0703/thumb_135_100_20180703120229259.jpg" width="80"/></a></i></li>
</ul>
<ul class="expTxtA">
<li><a href="//www.051661.com/youeryuanjiaoan/shougong/92/154916.html">å¿ç«¥é²¨é±¼æå·¥å¶ä½å¤§å¨</a></li>
<li><a href="//www.051661.com/youeryuanjiaoan/shougong/92/154890.html">å¿ç«¥ç¾æ¯æå·¥ äºé¢å­è²çå½©è¹çº¸æ¿éé¼</a></li>
<li><a href="//www.051661.com/youeryuanjiaoan/shougong/92/154888.html">å¿ç«¥è¶£å³æå·¥å¶ä½ å½©è¹çº¸æ¡å¹é£ç­</a></li>
<li><a href="//www.051661.com/youeryuanjiaoan/shougong/92/154870.html">è·å­©å­ä¸èµ·å¨å¨æï¼åä¸ªæ¯æ ¹è±çæ ½</a></li>
<li><a href="//www.051661.com/youeryuanjiaoan/shougong/92/154818.html">å¹¼å¿å­æå·¥å¶ä½ ç­æ°çå¡çº¸åé¥°</a></li>
</ul>
<div class="clear"></div>
</div>
</div>
<div class="layC">
<div class="thD">
<span class="mark">ææ°èµæº</span></div>
<div class="tbD">
<ul class="expTxtA">
<li><a href="//www.051661.com/show/20190510/182860.html">æ¸©æçå®¶</a></li>
<li><a href="//www.051661.com/show/20190510/182865.html">å¿âæ´ é¨âæ¥</a></li>
<li><a href="//www.051661.com/show/20190510/182861.html">è®¤è¯å¸¸è§çå®å¨æ è®°</a></li>
<li><a href="//www.051661.com/show/20190510/182864.html">æä»¬çæ°ç­çº§</a></li>
<li><a href="//www.051661.com/show/20190510/182857.html">æ°ãå¿ææ­æ¥ã</a></li>
<li><a href="//www.051661.com/show/20190510/182856.html">äººä½åèå¨å®åé¨åçåè½</a></li>
<li><a href="//www.051661.com/show/20190510/182859.html"> å¸è¢æ¸¸æ</a></li>
<li><a href="//www.051661.com/show/20190510/182866.html">è¿éå°æ è(ç¯ä¿)</a></li>
</ul>
<div class="clear"></div>
</div>
<div class="thD">
<span class="mark">è²å¿ç¥è¯</span></div>
<div class="tbD">
<ul class="expTxtA">
<li><a href="//www.051661.com/show/20130707/153891.html">ç¶æ¯å¿è¯» ä¸å¹´éªå­©å­è¯»å®500æ¬ç»æ¬ è¯»åæ</a></li>
<li><a href="//www.051661.com/show/20130707/153890.html">å¹¼å¿æåæé´å¦ä½éæ©å´è¶£ç­</a></li>
<li><a href="//www.051661.com/show/20130707/153888.html">å¹¼å¿ç¤¼ä»ªæè²çåºæ¬åå®¹</a></li>
<li><a href="//www.051661.com/show/20130707/153885.html">å¹¼å¿æ¶æåºå¤ç»ç»</a></li>
<li><a href="//www.051661.com/show/20130707/153882.html">å¿æä¸å¥½ä¸å£°å¼ï¼å­©å­æ§æ ¼ä¼âåèµ°â</a></li>
</ul>
</div>
</div>
<div class="clear"></div>
<div class="layA top10">
<div class="thD"><span class="mark">å¹¼å¿æ¼é³è¯å·</span></div>
<div class="tbB">
<ul class="expTxtA mt15">
<li><div class="ico_p"></div><a href="//www.051661.com/xueqianban/xueqianbanpinyin/331/156556.html">æ¥å­£å­¦æå­¦åç­æ¼é³ææ«æµè¯å·</a></li>
<li><div class="ico_p"></div><a href="//www.051661.com/xueqianban/xueqianbanpinyin/331/156554.html">å¹¼å¿å­å¤§ç­æ¼é³è¯å·ç»ä¹ </a></li>
<li><div class="ico_p"></div><a href="//www.051661.com/xueqianban/xueqianbanpinyin/331/156555.html">æ¥å­£å­¦åç­æ¼é³æä¸­è¯å·</a></li>
<li><div class="ico_p"></div><a href="//www.051661.com/xueqianban/xueqianbanpinyin/331/51870.html">å­¦åç­æ¼é³ç»ä¹ è¯å·ï¼å±9ä¸ªï¼</a></li>
<li><div class="ico_p"></div><a href="//www.051661.com/xueqianban/xueqianbanpinyin/331/156552.html">å­¦åç­æ±è¯­æ¼é³æµè¯å·2</a></li>
<li><div class="ico_p"></div><a href="//www.051661.com/xueqianban/xueqianbanpinyin/331/51824.html">å­¦åç­æ¼é³ç»ä¹ é¢</a></li>
<li><div class="ico_p"></div><a href="//www.051661.com/xueqianban/xueqianbanpinyin/331/154866.html">ä¸­å¿å­¦æ ¡2017-2018å­¦å¹´åº¦ä¸å­¦æ å­¦åç­ææ«è¯­æè¯å·</a></li>
<li><div class="ico_p"></div><a href="//www.051661.com/xueqianban/xueqianbanpinyin/331/154865.html">2017-2018ç¬¬äºå­¦æå­¦åç­æ¼é³ææ«è¯å·</a></li>
<li><div class="ico_p"></div><a href="//www.051661.com/xueqianban/xueqianbanpinyin/331/156551.html">å­¦åç­ææ«æ¼é³æµè¯å·</a></li>
</ul>
<div class="clear"></div>
</div>
</div>
<div class="layB top10">
<div class="thD"><span class="mark">å¹¼å¿è¯­æè¯å·</span></div>
<div class="tbB">
<ul class="expTxtA mt15">
<li><div class="ico_y"></div><a href="//www.051661.com/xueqianban/xueqianbanyuwen/142/157149.html">å¹¼å¿å­å¤§ç­è¯­ææ°å­¦è¯å·</a></li>
<li><div class="ico_y"></div><a href="//www.051661.com/xueqianban/xueqianbanyuwen/142/157147.html">å­¦åç­è¯­æææ«æµè¯é¢(å·)</a></li>
<li><div class="ico_y"></div><a href="//www.051661.com/xueqianban/xueqianbanyuwen/142/157148.html">å­¦åç­è¯­æææ«æµè¯é¢</a></li>
<li><div class="ico_y"></div><a href="//www.051661.com/xueqianban/xueqianbanyuwen/142/157145.html">å­¦åç­ç¬¬äºå­¦æè¯­æææ«èè¯è¯é¢</a></li>
<li><div class="ico_y"></div><a href="//www.051661.com/xueqianban/xueqianbanyuwen/142/157144.html">å­¦åç­ä¸ææ«è¯­æè¯å·</a></li>
<li><div class="ico_y"></div><a href="//www.051661.com/xueqianban/xueqianbanyuwen/142/157146.html">å­¦åç­è¯­æä¸åææ«æµè¯</a></li>
<li><div class="ico_y"></div><a href="//www.051661.com/xueqianban/xueqianbanyuwen/142/51344.html">ç¬¬äºå­¦æå­¦åç­ææ«è¯­æè¯å·</a></li>
<li><div class="ico_y"></div><a href="//www.051661.com/xueqianban/xueqianbanyuwen/142/51348.html">å­¦åç­è¯­æè¯å·</a></li>
<li><div class="ico_y"></div><a href="//www.051661.com/xueqianban/xueqianbanyuwen/142/11218.html">å­¦åç­è¯­ææµéªè¯å·</a></li>
</ul>
<div class="clear"></div>
</div>
</div>
<div class="layC top10">
<div class="thD">
<span class="mark">å¹¼å¿æ°å­¦è¯å·</span></div>
<div class="tbB">
<ul class="expTxtA mt5">
<li><div class="ico_s"></div><a href="//www.051661.com/xueqianban/xueqianshuxue/111/156571.html">å¹¼å¿å­å¤§ç­æ°å­¦ç»ä¹ é¢</a></li>
<li><div class="ico_s"></div><a href="//www.051661.com/xueqianban/xueqianshuxue/111/156570.html">å°å­¦å­¦åç­ä¸å­¦ææ°å­¦ææ«æµè¯å·</a></li>
<li><div class="ico_s"></div><a href="//www.051661.com/xueqianban/xueqianshuxue/111/156566.html">å¹¼å°è¡æ¥æ°å­¦å­¦åç­èè¯å·ç»ä¹ é¢å¤§å¨10å¥</a></li>
<li><div class="ico_s"></div><a href="//www.051661.com/xueqianban/xueqianshuxue/111/156569.html">ææ°å­¦åç­æ°ä¸åå­¦ææ«æµè¯å·</a></li>
<li><div class="ico_s"></div><a href="//www.051661.com/xueqianban/xueqianshuxue/111/156565.html">å¹¼å°è¡æ¥å­¦åç­ä¸å¹´çº§æ°å­¦èè¯å·æµè¯é¢ç»ä¹ é¢å¤§å¨13å¥</a></li>
<li><div class="ico_s"></div><a href="//www.051661.com/xueqianban/xueqianshuxue/111/156562.html">å¹¼å¿å­å­¦åç­æ°å­¦ä½ä¸</a></li>
<li><div class="ico_s"></div><a href="//www.051661.com/xueqianban/xueqianshuxue/111/7824.html">å¹¼å¿å­å­¦åç­æ°å­¦è¯é¢ï¼äºï¼</a></li>
<li><div class="ico_s"></div><a href="//www.051661.com/xueqianban/xueqianshuxue/111/156568.html">æºæ§æ å¹¼å¿å­å­¦åç­ææ«æµè¯å·</a></li>
<li><div class="ico_s"></div><a href="//www.051661.com/xueqianban/xueqianshuxue/111/156567.html">æ´ç¹åç¹æ¶éè¯é¢</a></li>
</ul>
<div class="clear"></div>
</div>
</div>
<div class="clear"></div>
<div class="box_f">
<div class="bigpic">
<div class="box_title">
<h2><a href="//www.051661.com/jianbihua/">å¿ç«¥ç®ç¬ç»</a></h2>
</div>
<a class="pic" href="//www.051661.com/jianbihua/" target="_blank"><img alt="å¿ç«¥ç®ç¬ç»" src="//img.051661.com/y/images/index_sp.jpg"/></a>
</div>
<div class="listtable">
<div class="box_title">
<span><a class="more" href="//www.051661.com/jianbihua/" target="_blank">æ´å¤</a></span></div>
<dl>
<dd><a href="//www.051661.com/jianbihua/shuiguo/153/180771.html" target="_blank" title="èèç®ç¬ç»å¤§å¨ï¼å½©è²çï¼"><img alt="èèç®ç¬ç»å¤§å¨ï¼å½©è²çï¼" src="//img.051661.com/uploadfile/2019/0509/thumb_135_100_ljoc2ws4arj.jpg"/><br/>èèç®ç¬ç»å¤§å¨ï¼å½©è²çï¼</a></dd>
<dd><a href="//www.051661.com/jianbihua/shuiguo/153/180770.html" target="_blank" title="èèç®ç¬ç»å¤§å¨"><img alt="èèç®ç¬ç»å¤§å¨" src="//img.051661.com/uploadfile/2019/0509/thumb_135_100_p1d35supwai.jpg"/><br/>èèç®ç¬ç»å¤§å¨</a></dd>
<dd><a href="//www.051661.com/jianbihua/shuiguo/153/180769.html" target="_blank" title="è¹æç®ç¬ç»å¤§å¨ï¼å½©è²çï¼"><img alt="è¹æç®ç¬ç»å¤§å¨ï¼å½©è²çï¼" src="//img.051661.com/uploadfile/2019/0508/thumb_135_100_zuztux4fjom.jpg"/><br/>è¹æç®ç¬ç»å¤§å¨ï¼å½©è²çï¼</a></dd>
<dd><a href="//www.051661.com/jianbihua/shuiguo/153/180768.html" target="_blank" title="è¹æç®ç¬ç»å¤§å¨"><img alt="è¹æç®ç¬ç»å¤§å¨" src="//img.051661.com/uploadfile/2019/0508/thumb_135_100_jrxkm1go0fl.jpg"/><br/>è¹æç®ç¬ç»å¤§å¨</a></dd>
<dd><a href="//www.051661.com/jianbihua/jiaotonggongju/165/180767.html" target="_blank" title="æ¸¸è½®ç®ç¬ç»æ­¥éª¤"><img alt="æ¸¸è½®ç®ç¬ç»æ­¥éª¤" src="//img.051661.com/uploadfile/2019/0507/thumb_135_100_w3cwkwpnh2d.jpg"/><br/>æ¸¸è½®ç®ç¬ç»æ­¥éª¤</a></dd>
<dd><a href="//www.051661.com/jianbihua/jiaotonggongju/165/180766.html" target="_blank" title="è½®è¹ç®ç¬ç»æ­¥éª¤"><img alt="è½®è¹ç®ç¬ç»æ­¥éª¤" src="//img.051661.com/uploadfile/2019/0507/thumb_135_100_zb1iylty1wi.jpg"/><br/>è½®è¹ç®ç¬ç»æ­¥éª¤</a></dd>
<dd><a href="//www.051661.com/jianbihua/jiaotonggongju/165/180765.html" target="_blank" title="è´§è½®ç®ç¬ç»æ­¥éª¤"><img alt="è´§è½®ç®ç¬ç»æ­¥éª¤" src="//img.051661.com/uploadfile/2019/0507/thumb_135_100_wggx1juc0nc.jpg"/><br/>è´§è½®ç®ç¬ç»æ­¥éª¤</a></dd>
<dd><a href="//www.051661.com/jianbihua/jiaotonggongju/165/180764.html" target="_blank" title="å¸è¹ç®ç¬ç»æ­¥éª¤"><img alt="å¸è¹ç®ç¬ç»æ­¥éª¤" src="//img.051661.com/uploadfile/2019/0507/thumb_135_100_c12ijrbd00y.jpg"/><br/>å¸è¹ç®ç¬ç»æ­¥éª¤</a></dd>
</dl>
</div>
<div class="rankf">
<div class="box_title">
<h3>å¿ç«¥ç®ç¬ç»æè¡</h3>
</div>
<ul class="bg2">
<li><a href="//www.051661.com/jianbihua/dongwu/152/21711.html" target="_blank" title="å¦ä½ç»æ³°è¿ªçç©å· æ³°è¿ªçç©å·ç®ç¬ç»æ­¥éª¤å¾">å¦ä½ç»æ³°è¿ªçç©å· æ³°è¿ªçç©å·ç®ç¬ç»æ­¥éª¤å¾</a></li>
<li><a href="//www.051661.com/jianbihua/dongwu/152/21720.html" target="_blank" title="å¦ä½ç»é»ç©ç© é»ç©ç©ç®ç¬ç»æ­¥éª¤å¾">å¦ä½ç»é»ç©ç© é»ç©ç©ç®ç¬ç»æ­¥éª¤å¾</a></li>
<li><a href="//www.051661.com/jianbihua/hua/354/154913.html" target="_blank" title="åç§è±æµç®ç¬ç»å¤§å¨35å¼  ">åç§è±æµç®ç¬ç»å¤§å¨35å¼  </a></li>
<li><a href="//www.051661.com/jianbihua/jiaotonggongju/165/23601.html" target="_blank" title="å¦ä½ç»å¦å å¦åç®ç¬ç»æ­¥éª¤å¾">å¦ä½ç»å¦å å¦åç®ç¬ç»æ­¥éª¤å¾</a></li>
<li><a href="//www.051661.com/jianbihua/dongwu/152/11709.html" target="_blank" title="èè çç®ç¬ç»">èè çç®ç¬ç»</a></li>
<li><a href="//www.051661.com/jianbihua/katongdongwu/156/21829.html" target="_blank" title="å¦ä½ç»å¯ç±çå¤§è±¡ å¯ç±çå¤§è±¡ç®ç¬ç»">å¦ä½ç»å¯ç±çå¤§è±¡ å¯ç±çå¤§è±¡ç®ç¬ç»</a></li>
<li><a href="//www.051661.com/jianbihua/dongwu/152/52318.html" target="_blank" title="å¤§è±¡ç®ç¬ç»æ­¥éª¤å¾">å¤§è±¡ç®ç¬ç»æ­¥éª¤å¾</a></li>
<li><a href="//www.051661.com/jianbihua/katongdongwu/156/21830.html" target="_blank" title="å¦ä½ç»å°ç å°çç®ç¬ç»æ­¥éª¤å¾">å¦ä½ç»å°ç å°çç®ç¬ç»æ­¥éª¤å¾</a></li>
</ul>
</div>
</div>
<div class="box_f">
<div class="bigpic">
<div class="box_title">
<h2><a href="//www.051661.com/ertonghua/">å¿ç«¥ç»å¤§å¨</a></h2>
</div>
<a class="pic" href="//www.051661.com/ertonghua/" target="_blank"><img alt="å¿ç«¥ç»å¤§å¨" src="//img.051661.com/y/images/index_eth.jpg"/></a>
</div>
<div class="listtable">
<div class="box_title">
<span><a class="more" href="//www.051661.com/ertonghua/" target="_blank">æ´å¤</a></span></div>
<dl>
<dd><a href="//www.051661.com/ertonghua/tiansetupian/149/179362.html" target="_blank" title="å£è¯èè£é¥°ç©åå¡«è²ç»å¤§å¨"><img alt="å£è¯èè£é¥°ç©åå¡«è²ç»å¤§å¨" src="//img.051661.com/uploadfile/2019/0128/thumb_135_100_5y4kois43jh.jpg"/><br/>å£è¯èè£é¥°ç©åå¡«è²ç»å¤§å¨</a></dd>
<dd><a href="//www.051661.com/ertonghua/tiansetupian/149/179286.html" target="_blank" title="éç»å¦å¦çæ¶è²å¡"><img alt="éç»å¦å¦çæ¶è²å¡" src="//img.051661.com/uploadfile/2019/0105/thumb_135_100_23npvcsry0j.jpg"/><br/>éç»å¦å¦çæ¶è²å¡</a></dd>
<dd><a href="//www.051661.com/ertonghua/tiansetupian/149/179281.html" target="_blank" title="çæ¥èç³æ¶è²"><img alt="çæ¥èç³æ¶è²" src="//img.051661.com/uploadfile/2019/0105/thumb_135_100_q2v3inzfnj0.jpg"/><br/>çæ¥èç³æ¶è²</a></dd>
<dd><a href="//www.051661.com/ertonghua/tiansetupian/149/179280.html" target="_blank" title="å¬å¤©çæ¾æ æ¶è²"><img alt="å¬å¤©çæ¾æ æ¶è²" src="//img.051661.com/uploadfile/2019/0105/thumb_135_100_il3vmafe30l.jpg"/><br/>å¬å¤©çæ¾æ æ¶è²</a></dd>
<dd><a href="//www.051661.com/ertonghua/tiansetupian/149/179279.html" target="_blank" title="ç« é±¼æ¶è²"><img alt="ç« é±¼æ¶è²" src="//img.051661.com/uploadfile/2019/0105/thumb_135_100_gbtybxf0ef4.jpg"/><br/>ç« é±¼æ¶è²</a></dd>
<dd><a href="//www.051661.com/ertonghua/tiansetupian/149/179278.html" target="_blank" title="ç´å­æ¶è²"><img alt="ç´å­æ¶è²" src="//img.051661.com/uploadfile/2019/0105/thumb_135_100_2ozo5r0b5h5.jpg"/><br/>ç´å­æ¶è²</a></dd>
<dd><a href="//www.051661.com/ertonghua/tiansetupian/149/179277.html" target="_blank" title="ç¶äº²èæ¶è²ç»3å¼ "><img alt="ç¶äº²èæ¶è²ç»3å¼ " src="//img.051661.com/uploadfile/2019/0105/thumb_135_100_ttcwlynnwjb.jpg"/><br/>ç¶äº²èæ¶è²ç»3å¼ </a></dd>
<dd><a href="//www.051661.com/ertonghua/tiansetupian/149/179276.html" target="_blank" title="å°é¸æ¶è²"><img alt="å°é¸æ¶è²" src="//img.051661.com/uploadfile/2019/0105/thumb_135_100_noyfljbon5l.jpg"/><br/>å°é¸æ¶è²</a></dd>
</dl>
</div>
<div class="rankf">
<div class="box_title">
<h3>å¿ç«¥ç»æè¡</h3>
</div>
<ul class="bg1">
<li><a href="//www.051661.com/ertonghua/shuifenhua/124/29467.html" target="_blank" title="é¿é¢é¹¿é¥®æ°´">é¿é¢é¹¿é¥®æ°´</a></li>
<li><a href="//www.051661.com/ertonghua/shuicaihua/122/65034.html" target="_blank" title="åºæµ·ææ¸">åºæµ·ææ¸</a></li>
<li><a href="//www.051661.com/show/20140130/48549.html" target="_blank" title="æç±å¤§èªç¶ I Love Nature">æç±å¤§èªç¶ I Love Nature</a></li>
<li><a href="//www.051661.com/show/20161125/129361.html" target="_blank" title="çªå¤ä¸é¨äº">çªå¤ä¸é¨äº</a></li>
<li><a href="//www.051661.com/show/20140130/47944.html" target="_blank" title="æçç©å·">æçç©å·</a></li>
<li><a href="//www.051661.com/show/20161125/121989.html" target="_blank" title="ç±å¿å¬äº¤">ç±å¿å¬äº¤</a></li>
<li><a href="//www.051661.com/ertonghua/labihua/121/64051.html" target="_blank" title="ãç¥ç§æè¡ã">ãç¥ç§æè¡ã</a></li>
<li><a href="//www.051661.com/ertonghua/tiansetupian/149/17433.html" target="_blank" title="ç±å°å°å½æå¡«è²ç»">ç±å°å°å½æå¡«è²ç»</a></li>
</ul>
</div>
</div>
<div class="box_f">
<div class="bigpic">
<div class="box_title">
<h2><a href="//www.051661.com/wudao/">å¿ç«¥èè¹</a></h2>
</div>
<a class="pic" href="//www.051661.com/wudao/" target="_blank"><img alt="å¿ç«¥èè¹è§é¢" src="//img.051661.com/y/images/index_wd.jpg"/></a>
</div>
<div class="listtable">
<div class="box_title">
<span><a class="more" href="//www.051661.com/wudao/" target="_blank">æ´å¤</a></span></div>
<dl>
<dd><a href="//www.051661.com/wudao/wudaojiaoxue/144/28942.html" target="_blank" title="éä½è"><img alt="éä½è" src="//img.051661.com/uploadfile/2018/0724/thumb_135_100_jitiwu_b2.jpg"/><br/>éä½è</a></dd>
<dd><a href="//www.051661.com/wudao/wudaojiaoxue/144/28941.html" target="_blank" title="è¿å¨åæ¨¡ä»¿æ"><img alt="è¿å¨åæ¨¡ä»¿æ" src="//img.051661.com/uploadfile/2018/0724/thumb_135_100_yundongyuanmofangcao_b2.jpg"/><br/>è¿å¨åæ¨¡ä»¿æ</a></dd>
<dd><a href="//www.051661.com/wudao/wudaojiaoxue/144/28940.html" target="_blank" title="åç¾ç¾åç°å¤ªç¼"><img alt="åç¾ç¾åç°å¤ªç¼" src="//img.051661.com/uploadfile/2018/0724/thumb_135_100_xiyangyanghehuitailang_b2.jpg"/><br/>åç¾ç¾åç°å¤ªç¼</a></dd>
<dd><a href="//www.051661.com/wudao/wudaojiaoxue/144/28939.html" target="_blank" title="åªå¦åªå¦"><img alt="åªå¦åªå¦" src="//img.051661.com/uploadfile/2018/0724/thumb_135_100_palapala_b2.jpg"/><br/>åªå¦åªå¦</a></dd>
<dd><a href="//www.051661.com/wudao/wudaojiaoxue/144/28938.html" target="_blank" title="åæ¨é¸"><img alt="åæ¨é¸" src="//img.051661.com/uploadfile/2018/0724/thumb_135_100_zhuomuniao_b2.jpg"/><br/>åæ¨é¸</a></dd>
<dd><a href="//www.051661.com/wudao/wudaojiaoxue/144/28898.html" target="_blank" title="super star"><img alt="super star" src="//img.051661.com/uploadfile/2018/0722/thumb_135_100_zdp0dhn5ekip_b2.jpg"/><br/>super star</a></dd>
<dd><a href="//www.051661.com/wudao/wudaojiaoxue/144/28896.html" target="_blank" title="ä¸åªç"><img alt="ä¸åªç" src="//img.051661.com/uploadfile/2018/0722/thumb_135_100_023g52biakaq_b2.jpg"/><br/>ä¸åªç</a></dd>
<dd><a href="//www.051661.com/wudao/wudaojiaoxue/144/28895.html" target="_blank" title="ä¸ççç¾å¥½"><img alt="ä¸ççç¾å¥½" src="//img.051661.com/uploadfile/2018/0722/thumb_135_100_hpun23ckaefsx_b2.jpg"/><br/>ä¸ççç¾å¥½</a></dd>
</dl>
</div>
<div class="rankf">
<div class="box_title">
<h3>å¿ç«¥èè¹æè¡</h3>
</div>
<ul class="bg3">
<li><a href="//www.051661.com/wudao/liuyiwudao/171/9924.html" target="_blank" title="ç»æå ç§é">ç»æå ç§é</a></li>
<li><a href="//www.051661.com/wudao/wudaojibengong/145/4423.html" target="_blank" title="æè">æè</a></li>
<li><a href="//www.051661.com/wudao/wudaojibengong/145/4422.html" target="_blank" title="åå¸è¿">åå¸è¿</a></li>
<li><a href="//www.051661.com/wudao/wudaojibengong/145/3977.html" target="_blank" title="åå®ç»å">åå®ç»å</a></li>
<li><a href="//www.051661.com/wudao/youxiuwudao/146/28876.html" target="_blank" title="çº¢çæ">çº¢çæ</a></li>
<li><a href="//www.051661.com/wudao/wudaojiaoxue/144/28939.html" target="_blank" title="åªå¦åªå¦">åªå¦åªå¦</a></li>
<li><a href="//www.051661.com/wudao/wudaojibengong/145/4040.html" target="_blank" title="åè¿ç»å">åè¿ç»å</a></li>
<li><a href="//www.051661.com/wudao/wudaojiaoxue/144/4140.html" target="_blank" title="åå°æä¹é¾">åå°æä¹é¾</a></li>
</ul>
</div>
</div>
<div class="box_f">
<div class="bigpic">
<div class="box_title">
<h2><a href="//www.051661.com/ertonggequ/">å¿æ­å¨ç»</a></h2>
</div>
<a class="pic" href="//www.051661.com/ertonggequ/" target="_blank"><img alt="å¿æ­å¨ç»" src="//img.051661.com/y/images/index_hgeg.jpg"/></a>
</div>
<div class="listtable">
<div class="box_title">
<span><a class="more" href="//www.051661.com/ertonggequ/" target="_blank">æ´å¤</a></span></div>
<dl>
<dd><a href="//www.051661.com/ertonggequ/banzou/458/37930.html" target="_blank" title="çå£«å¢å"><img alt="çå£«å¢å" src="//img.051661.com/uploadfile/2019/0411/thumb_135_100_2fb2fiu1uzx.png"/><br/>çå£«å¢å</a></dd>
<dd><a href="//www.051661.com/ertonggequ/banzou/458/37929.html" target="_blank" title="ç½èé¸­"><img alt="ç½èé¸­" src="//img.051661.com/uploadfile/2019/0411/thumb_135_100_43z14eoeh2n.png"/><br/>ç½èé¸­</a></dd>
<dd><a href="//www.051661.com/ertonggequ/banzou/458/37928.html" target="_blank" title="ä¸ä¸ªåå°"><img alt="ä¸ä¸ªåå°" src="//img.051661.com/uploadfile/2019/0411/thumb_135_100_1tzhwe24r33.png"/><br/>ä¸ä¸ªåå°</a></dd>
<dd><a href="//www.051661.com/ertonggequ/banzou/458/37927.html" target="_blank" title="å°æ¾é¼ å·çç"><img alt="å°æ¾é¼ å·çç" src="//img.051661.com/uploadfile/2019/0411/thumb_135_100_iu1vh4eig4q.png"/><br/>å°æ¾é¼ å·çç</a></dd>
<dd><a href="//www.051661.com/ertonggequ/banzou/458/37926.html" target="_blank" title="ç¦å¨æ³å¦å¦"><img alt="ç¦å¨æ³å¦å¦" src="//img.051661.com/uploadfile/2019/0411/thumb_135_100_ujg1fptxbeq.png"/><br/>ç¦å¨æ³å¦å¦</a></dd>
<dd><a href="//www.051661.com/ertonggequ/banzou/458/37925.html" target="_blank" title="å°è¾åæå°ç½é"><img alt="å°è¾åæå°ç½é" src="//img.051661.com/uploadfile/2019/0411/thumb_135_100_1nq111jvrov.png"/><br/>å°è¾åæå°ç½é</a></dd>
<dd><a href="//www.051661.com/ertonggequ/banzou/458/37924.html" target="_blank" title="å¬å¤©çæäº"><img alt="å¬å¤©çæäº" src="//img.051661.com/uploadfile/2019/0411/thumb_135_100_bf13eqe1ix1.png"/><br/>å¬å¤©çæäº</a></dd>
<dd><a href="//www.051661.com/ertonggequ/banzou/458/37923.html" target="_blank" title="å¼¹æç´çå°å§å¨"><img alt="å¼¹æç´çå°å§å¨" src="//img.051661.com/uploadfile/2019/0411/thumb_135_100_dwb3jmv2jtt.png"/><br/>å¼¹æç´çå°å§å¨</a></dd>
</dl>
</div>
<div class="rankf">
<div class="box_title">
<h3>å¿æ­å¨ç»æè¡</h3>
</div>
<ul class="bg4">
<li><a href="//www.051661.com/ertonggequ/gepu/174/16233.html" target="_blank" title="åæ©æ">åæ©æ</a></li>
<li><a href="//www.051661.com/ertonggequ/zhongwengequ/64/7362.html" target="_blank" title="æäº®å¬å¬ä¼éé±¼">æäº®å¬å¬ä¼éé±¼</a></li>
<li><a href="//www.051661.com/ertonggequ/gepu/174/21711.html" target="_blank" title="å¨èå¸èº«è¾¹">å¨èå¸èº«è¾¹</a></li>
<li><a href="//www.051661.com/ertonggequ/gepu/174/17433.html" target="_blank" title="å°èé¼ æ¾æå">å°èé¼ æ¾æå</a></li>
<li><a href="//www.051661.com/ertonggequ/gepu/174/17721.html" target="_blank" title="æ¥é£å¹åå¹">æ¥é£å¹åå¹</a></li>
<li><a href="//www.051661.com/ertonggequ/gepu/174/22080.html" target="_blank" title="æ¯é¸¡">æ¯é¸¡</a></li>
<li><a href="//www.051661.com/ertonggequ/gepu/174/15693.html" target="_blank" title="å¦å¦çé¥å">å¦å¦çé¥å</a></li>
<li><a href="//www.051661.com/ertonggequ/banzou/458/35731.html" target="_blank" title="å¡éå¡é">å¡éå¡é</a></li>
</ul>
</div>
</div>
<div class="box_f">
<div class="bigpic">
<div class="box_title">
<h2><a href="//www.051661.com/list/210/">å¿ç«¥æçº¸</a></h2>
</div>
<a class="pic" href="//www.051661.com/list/210/" target="_blank"><img alt="å¿ç«¥æçº¸" src="//img.051661.com/y/images/index_zz.jpg"/></a>
</div>
<div class="listtable">
<div class="box_title">
<span><a class="more" href="//www.051661.com/list/210/" target="_blank">æ´å¤</a></span></div>
<dl>
<dd><a href="//www.051661.com/show/20181214/158787.html" target="_blank" title="æçº¸triplaneé£æº"><img alt="æçº¸triplaneé£æº" src="//img.051661.com/uploadfile/2018/1214/thumb_135_100_s1ihks4pqyn.jpg"/><br/>æçº¸triplaneé£æº</a></dd>
<dd><a href="//www.051661.com/show/20181214/158786.html" target="_blank" title="æçº¸thuttleé£æº"><img alt="æçº¸thuttleé£æº" src="//img.051661.com/uploadfile/2018/1214/thumb_135_100_coqfjurlde3.jpg"/><br/>æçº¸thuttleé£æº</a></dd>
<dd><a href="//www.051661.com/show/20181214/158785.html" target="_blank" title="æçº¸needleé£æº"><img alt="æçº¸needleé£æº" src="//img.051661.com/uploadfile/2018/1214/thumb_135_100_o0yhjai3r5h.jpg"/><br/>æçº¸needleé£æº</a></dd>
<dd><a href="//www.051661.com/show/20181214/158784.html" target="_blank" title="æçº¸hawkeyeé£æº"><img alt="æçº¸hawkeyeé£æº" src="//img.051661.com/uploadfile/2018/1214/thumb_135_100_k2i1ulddvle.jpg"/><br/>æçº¸hawkeyeé£æº</a></dd>
<dd><a href="//www.051661.com/show/20181214/158783.html" target="_blank" title="æçº¸deltaé£æº"><img alt="æçº¸deltaé£æº" src="//img.051661.com/uploadfile/2018/1214/thumb_135_100_rowxjlajjfa.jpg"/><br/>æçº¸deltaé£æº</a></dd>
<dd><a href="//www.051661.com/show/20181214/158782.html" target="_blank" title="æçº¸silkeé£æº"><img alt="æçº¸silkeé£æº" src="//img.051661.com/uploadfile/2018/1214/thumb_135_100_yeocguh3qky.jpg"/><br/>æçº¸silkeé£æº</a></dd>
<dd><a href="//www.051661.com/show/20181214/158781.html" target="_blank" title="æçº¸lockedé£æº"><img alt="æçº¸lockedé£æº" src="//img.051661.com/uploadfile/2018/1214/thumb_135_100_pyrixozvlnz.jpg"/><br/>æçº¸lockedé£æº</a></dd>
<dd><a href="//www.051661.com/show/20181214/158780.html" target="_blank" title="æçº¸little nuckyé£æº"><img alt="æçº¸little nuckyé£æº" src="//img.051661.com/uploadfile/2018/1214/thumb_135_100_wbbs1nzfu4m.jpg"/><br/>æçº¸little nuckyé£æº</a></dd>
</dl>
</div>
<div class="rankf">
<div class="box_title">
<h3>å¿ç«¥æçº¸æè¡</h3>
</div>
<ul class="bg4">
<li><a href="//www.051661.com/show/20140504/50821.html" target="_blank" title="æçº¸åé¾ æç¨å¾è§£">æçº¸åé¾ æç¨å¾è§£</a></li>
<li><a href="//www.051661.com/show/20140504/50759.html" target="_blank" title="æçº¸æ£çæå¥çæ¹æ³ æç¨å¾è§£">æçº¸æ£çæå¥çæ¹æ³ æç¨å¾è§£</a></li>
<li><a href="//www.051661.com/show/20181214/158787.html" target="_blank" title="æçº¸triplaneé£æº">æçº¸triplaneé£æº</a></li>
<li><a href="//www.051661.com/show/20140504/50667.html" target="_blank" title="æçº¸ææçæ¹æ³ æç¨å¾è§£ 03">æçº¸ææçæ¹æ³ æç¨å¾è§£ 03</a></li>
<li><a href="//www.051661.com/show/20130707/50762.html" target="_blank" title="æçº¸ç©ç®çæ¹æ³ æç¨å¾è§£">æçº¸ç©ç®çæ¹æ³ æç¨å¾è§£</a></li>
<li><a href="//www.051661.com/show/20181213/158771.html" target="_blank" title="å¿ç«¥æçº¸çº¸æ¯å¾è§£">å¿ç«¥æçº¸çº¸æ¯å¾è§£</a></li>
<li><a href="//www.051661.com/show/20181213/158731.html" target="_blank" title="å¿ç«¥æçº¸å°å°å¸½å¾è§£">å¿ç«¥æçº¸å°å°å¸½å¾è§£</a></li>
<li><a href="//www.051661.com/show/20181214/158785.html" target="_blank" title="æçº¸needleé£æº">æçº¸needleé£æº</a></li>
</ul>
</div>
</div>
<div class="box_f">
<div class="bigpic">
<div class="box_title">
<h2><a href="//www.051661.com/nursery/">æ©æå¨ç»</a></h2>
</div>
<a class="pic" href="//www.051661.com/nursery/" target="_blank"><img alt="æ©æå¨ç»" src="//img.051661.com/y/images/index_zjdh.jpg"/></a>
</div>
<div class="listtable">
<div class="box_title">
<span><a class="more" href="//www.051661.com/nursery/" target="_blank">æ´å¤</a></span></div>
<dl>
<dd><a href="//www.051661.com/nursery/swgwsm/531/30031.html" target="_blank" title="é¾å·é£æ¯é¾å·èµ·æ¥çå"><img alt="é¾å·é£æ¯é¾å·èµ·æ¥çå" src="//img.051661.com/uploadfile/2019/0224/thumb_135_100_brp5zlqzybo.png"/><br/>é¾å·é£æ¯é¾å·èµ·æ¥çå</a></dd>
<dd><a href="//www.051661.com/nursery/swgwsm/531/30030.html" target="_blank" title="é¹°ä¸ºä»ä¹æ¯ç§é¡¶"><img alt="é¹°ä¸ºä»ä¹æ¯ç§é¡¶" src="//img.051661.com/uploadfile/2019/0224/thumb_135_100_h5bl3vnzuzn.png"/><br/>é¹°ä¸ºä»ä¹æ¯ç§é¡¶</a></dd>
<dd><a href="//www.051661.com/nursery/swgwsm/531/30029.html" target="_blank" title="é¸­å­ä¸ºä»ä¹ä¼æ¸¸æ"><img alt="é¸­å­ä¸ºä»ä¹ä¼æ¸¸æ" src="//img.051661.com/uploadfile/2019/0224/thumb_135_100_fnzink00wmz.png"/><br/>é¸­å­ä¸ºä»ä¹ä¼æ¸¸æ</a></dd>
<dd><a href="//www.051661.com/nursery/swgwsm/531/30028.html" target="_blank" title="é¸å¿ç«å¨çµçº¿ä¸ä¸ä¼è§¦çµï¼ä¸ºä»ä¹"><img alt="é¸å¿ç«å¨çµçº¿ä¸ä¸ä¼è§¦çµï¼ä¸ºä»ä¹" src="//img.051661.com/uploadfile/2019/0224/thumb_135_100_fyttecv15rx.png"/><br/>é¸å¿ç«å¨çµçº¿ä¸ä¸ä¼è§¦çµï¼ä¸ºä»ä¹</a></dd>
<dd><a href="//www.051661.com/nursery/swgwsm/531/30027.html" target="_blank" title="é¸å¿æä¹æ´æ¾¡"><img alt="é¸å¿æä¹æ´æ¾¡" src="//img.051661.com/uploadfile/2019/0224/thumb_135_100_5vzzfoyuqqm.png"/><br/>é¸å¿æä¹æ´æ¾¡</a></dd>
<dd><a href="//www.051661.com/nursery/swgwsm/531/30026.html" target="_blank" title="é¿é¢é¹¿èå­é£ä¹é¿ï¼çå°æ¬å¤´ä¼ä¸"><img alt="é¿é¢é¹¿èå­é£ä¹é¿ï¼çå°æ¬å¤´ä¼ä¸" src="//img.051661.com/uploadfile/2019/0224/thumb_135_100_zmttv10fjqt.png"/><br/>é¿é¢é¹¿èå­é£ä¹é¿ï¼çå°æ¬å¤´ä¼ä¸</a></dd>
<dd><a href="//www.051661.com/nursery/swgwsm/531/30025.html" target="_blank" title="è®¸å¤é¸å¿çèå£³ä¸ä¸ºä»ä¹æç¹"><img alt="è®¸å¤é¸å¿çèå£³ä¸ä¸ºä»ä¹æç¹" src="//img.051661.com/uploadfile/2019/0224/thumb_135_100_gjzkrivgtmu.png"/><br/>è®¸å¤é¸å¿çèå£³ä¸ä¸ºä»ä¹æç¹</a></dd>
<dd><a href="//www.051661.com/nursery/swgwsm/531/30024.html" target="_blank" title="è¢«èå­å¬åä¸ºä»ä¹ä¼èµ·å°çº¢å"><img alt="è¢«èå­å¬åä¸ºä»ä¹ä¼èµ·å°çº¢å" src="//img.051661.com/uploadfile/2019/0224/thumb_135_100_w1crblizppl.png"/><br/>è¢«èå­å¬åä¸ºä»ä¹ä¼èµ·å°çº¢å</a></dd>
</dl>
</div>
<div class="rankf">
<div class="box_title">
<h3>æ©æå¨ç»æè¡</h3>
</div>
<ul class="bg4">
<li><a href="//www.051661.com/tangshi/71/3360.html" target="_blank" title="æè¯">æè¯</a></li>
<li><a href="//www.051661.com/yingyu/65/2136.html" target="_blank" title="Row Row Row Your Boat">Row Row Row Your Boat</a></li>
<li><a href="//www.051661.com/yingyu/65/1792.html" target="_blank" title="ææ¯è±è¯­-æ¯äº²èå¿«ä¹">ææ¯è±è¯­-æ¯äº²èå¿«ä¹</a></li>
<li><a href="//www.051661.com/yingyu/65/1946.html" target="_blank" title="æå·åå¶ä»ç¨å">æå·åå¶ä»ç¨å</a></li>
<li><a href="//www.051661.com/nursery/swgwsm/531/29934.html" target="_blank" title="ä¸ºä»ä¹é¸µé¸ä¸ä¼é£ï¼å´è·å¾å¾å¿«">ä¸ºä»ä¹é¸µé¸ä¸ä¼é£ï¼å´è·å¾å¾å¿«</a></li>
<li><a href="//www.051661.com/yingyu/65/2091.html" target="_blank" title="The bath song">The bath song</a></li>
<li><a href="//www.051661.com/chengyugushi/68/2215.html" target="_blank" title="æ¯è©æ¥è¸µ">æ¯è©æ¥è¸µ</a></li>
<li><a href="//www.051661.com/yingyu/65/2040.html" target="_blank" title="å¬å­æ¯ç©åç§°">å¬å­æ¯ç©åç§°</a></li>
</ul>
</div>
</div>
<div class="box_f">
<div class="bigpic">
<div class="box_title">
<h2><a href="//www.051661.com/list/410/">å¹¼å¿æå·¥</a></h2>
</div>
<a class="pic" href="//www.051661.com/list/410/" target="_blank"><img alt="å¹¼å¿æå·¥" src="//img.051661.com/y/images/index_sg.jpg"/></a>
</div>
<div class="listtable">
<div class="box_title">
<span><a class="more" href="//www.051661.com/list/410/" target="_blank">æ´å¤</a></span></div>
<dl>
<dd><a href="//www.051661.com/youeryuanjiaoan/shougong/92/180646.html" target="_blank" title="å½©ç»ç³å"><img alt="å½©ç»ç³å" src="//img.051661.com/uploadfile/2019/0318/thumb_135_100_cd20qcpgh5l.jpg"/><br/>å½©ç»ç³å</a></dd>
<dd><a href="//www.051661.com/youeryuanjiaoan/shougong/92/180645.html" target="_blank" title="ç¨çº¸çå¶ä½å½©è¹æ¨å¶"><img alt="ç¨çº¸çå¶ä½å½©è¹æ¨å¶" src="//img.051661.com/uploadfile/2019/0318/thumb_135_100_mvc0jeg4k31.jpg"/><br/>ç¨çº¸çå¶ä½å½©è¹æ¨å¶</a></dd>
<dd><a href="//www.051661.com/youeryuanjiaoan/shougong/92/180644.html" target="_blank" title="æå·¥å¶ä½äº®çå¨èå­é±ç½"><img alt="æå·¥å¶ä½äº®çå¨èå­é±ç½" src="//img.051661.com/uploadfile/2019/0318/thumb_135_100_wef0mwjx3ex.jpg"/><br/>æå·¥å¶ä½äº®çå¨èå­é±ç½</a></dd>
<dd><a href="//www.051661.com/youeryuanjiaoan/shougong/92/180643.html" target="_blank" title="åæä¹¦åé¥°åå¶ä½"><img alt="åæä¹¦åé¥°åå¶ä½" src="//img.051661.com/uploadfile/2019/0318/thumb_135_100_gyevt4ipjuw.jpg"/><br/>åæä¹¦åé¥°åå¶ä½</a></dd>
<dd><a href="//www.051661.com/youeryuanjiaoan/shougong/92/180642.html" target="_blank" title="æå·¥å¶ä½åéç¬å±è±ç¯"><img alt="æå·¥å¶ä½åéç¬å±è±ç¯" src="//img.051661.com/uploadfile/2019/0318/thumb_135_100_rqs0trgamvn.jpg"/><br/>æå·¥å¶ä½åéç¬å±è±ç¯</a></dd>
<dd><a href="//www.051661.com/youeryuanjiaoan/shougong/92/180641.html" target="_blank" title="DIYå°æ¿åæ¨å¶"><img alt="DIYå°æ¿åæ¨å¶" src="//img.051661.com/uploadfile/2019/0318/thumb_135_100_padgtia3clc.jpg"/><br/>DIYå°æ¿åæ¨å¶</a></dd>
<dd><a href="//www.051661.com/youeryuanjiaoan/shougong/92/180640.html" target="_blank" title="DIYå¨ç©è¸æ¡£æ¡è¢"><img alt="DIYå¨ç©è¸æ¡£æ¡è¢" src="//img.051661.com/uploadfile/2019/0318/thumb_135_100_layatyo1hwz.jpg"/><br/>DIYå¨ç©è¸æ¡£æ¡è¢</a></dd>
<dd><a href="//www.051661.com/youeryuanjiaoan/shougong/92/180639.html" target="_blank" title="DIYå¤æäººé£ç¢"><img alt="DIYå¤æäººé£ç¢" src="//img.051661.com/uploadfile/2019/0318/thumb_135_100_tved0uamvrs.jpg"/><br/>DIYå¤æäººé£ç¢</a></dd>
</dl>
</div>
<div class="rankf">
<div class="box_title">
<h3>å¹¼å¿æå·¥æè¡</h3>
</div>
<ul class="bg4">
<li><a href="//www.051661.com/youeryuanjiaoan/shougong/92/154916.html" target="_blank" title="å¿ç«¥é²¨é±¼æå·¥å¶ä½å¤§å¨">å¿ç«¥é²¨é±¼æå·¥å¶ä½å¤§å¨</a></li>
<li><a href="//www.051661.com/youeryuanjiaoan/diy/179/38165.html" target="_blank" title="æ§é¥®æç¶å¶ä½å¯ç±è±ç">æ§é¥®æç¶å¶ä½å¯ç±è±ç</a></li>
<li><a href="//www.051661.com/youeryuanjiaoan/shougong/92/51923.html" target="_blank" title="ç¨éªç³æ£æå·¥å¶ä½åæç©å·">ç¨éªç³æ£æå·¥å¶ä½åæç©å·</a></li>
<li><a href="//www.051661.com/youeryuanjiaoan/shougong/92/15929.html" target="_blank" title="æ¤ç©å¤§æåµå°¸æ©¡ç®æ³¥å¶ä½">æ¤ç©å¤§æåµå°¸æ©¡ç®æ³¥å¶ä½</a></li>
<li><a href="//www.051661.com/youeryuanjiaoan/diy/179/28659.html" target="_blank" title="ç¨å°é±¼ç¼¸å¶ä½ç®åççæ ½">ç¨å°é±¼ç¼¸å¶ä½ç®åççæ ½</a></li>
<li><a href="//www.051661.com/youeryuanjiaoan/shougong/92/51900.html" target="_blank" title="å¹¼å¿åæå¨ç©ç»ç»ä½å">å¹¼å¿åæå¨ç©ç»ç»ä½å</a></li>
<li><a href="//www.051661.com/youeryuanjiaoan/shougong/92/56118.html" target="_blank" title="æå·¥å¶ä½å°çªä½©å¥">æå·¥å¶ä½å°çªä½©å¥</a></li>
<li><a href="//www.051661.com/youeryuanjiaoan/diy/179/28661.html" target="_blank" title="ç¨é¥®æç¶æå·¥å¶ä½ç¾ä¸½è±ç¶">ç¨é¥®æç¶æå·¥å¶ä½ç¾ä¸½è±ç¶</a></li>
</ul>
</div>
</div>
<div class="box_f">
<div class="bigpic">
<div class="box_title">
<h2><a href="//www.051661.com/mp3/">Mp3é³é¢ä¸è½½</a></h2>
</div>
<a class="pic" href="//www.051661.com/mp3/" target="_blank"><img alt="Mp3é³é¢ä¸è½½" src="//img.051661.com/y/images/index_mp3.jpg"/></a>
</div>
<div class="listtable">
<div class="box_title">
<span><a class="more" href="//www.051661.com/mp3/" target="_blank">æ´å¤</a></span></div>
<dl>
<dd><a href="//www.051661.com/mp3/kepuzhishi/422/30059.html" target="_blank" title="é¸­å­ä¸ºä»ä¹ä¼æ¸¸æ°´"><img alt="é¸­å­ä¸ºä»ä¹ä¼æ¸¸æ°´" src="//img.051661.com/uploadfile/2019/0224/thumb_135_100_zegyiwj1jki.png"/><br/>é¸­å­ä¸ºä»ä¹ä¼æ¸¸æ°´</a></dd>
<dd><a href="//www.051661.com/mp3/kepuzhishi/422/30058.html" target="_blank" title="é¸¡èéæä¹ä¼å­µåºå°é¸¡æ¥"><img alt="é¸¡èéæä¹ä¼å­µåºå°é¸¡æ¥" src="//img.051661.com/uploadfile/2019/0224/thumb_135_100_zzzizvk5tzn.png"/><br/>é¸¡èéæä¹ä¼å­µåºå°é¸¡æ¥</a></dd>
<dd><a href="//www.051661.com/mp3/kepuzhishi/422/30057.html" target="_blank" title="é¸¡æè³æµå"><img alt="é¸¡æè³æµå" src="//img.051661.com/uploadfile/2019/0224/thumb_135_100_e0xzkjpgzph.png"/><br/>é¸¡æè³æµå</a></dd>
<dd><a href="//www.051661.com/mp3/kepuzhishi/422/30056.html" target="_blank" title="é±¼ç¡è§å"><img alt="é±¼ç¡è§å" src="//img.051661.com/uploadfile/2019/0224/thumb_135_100_veijlxpzf3q.png"/><br/>é±¼ç¡è§å</a></dd>
<dd><a href="//www.051661.com/mp3/kepuzhishi/422/30055.html" target="_blank" title="é£æºä¸ºä»ä¹ä¼é£"><img alt="é£æºä¸ºä»ä¹ä¼é£" src="//img.051661.com/uploadfile/2019/0224/thumb_135_100_1bfbo0trcjl.png"/><br/>é£æºä¸ºä»ä¹ä¼é£</a></dd>
<dd><a href="//www.051661.com/mp3/kepuzhishi/422/30054.html" target="_blank" title="éèæ¯æä¹ååå®³è«ç"><img alt="éèæ¯æä¹ååå®³è«ç" src="//img.051661.com/uploadfile/2019/0224/thumb_135_100_rhipjffh1mt.png"/><br/>éèæ¯æä¹ååå®³è«ç</a></dd>
<dd><a href="//www.051661.com/mp3/kepuzhishi/422/30053.html" target="_blank" title="éå­ä¸ºä»ä¹ç§å¾è§ä¸è¥¿"><img alt="éå­ä¸ºä»ä¹ç§å¾è§ä¸è¥¿" src="//img.051661.com/uploadfile/2019/0224/thumb_135_100_0qfhzpiouqf.png"/><br/>éå­ä¸ºä»ä¹ç§å¾è§ä¸è¥¿</a></dd>
<dd><a href="//www.051661.com/mp3/kepuzhishi/422/30052.html" target="_blank" title="èèç»ç½æä¹ä¸ä¼ç²ä½å®èªå·±"><img alt="èèç»ç½æä¹ä¸ä¼ç²ä½å®èªå·±" src="//img.051661.com/uploadfile/2019/0224/thumb_135_100_5b5okcx5kkn.png"/><br/>èèç»ç½æä¹ä¸ä¼ç²ä½å®èªå·±</a></dd>
</dl>
</div>
<div class="rankf">
<div class="box_title">
<h3>Mp3é³é¢æè¡</h3>
</div>
<ul class="bg4">
<li><a href="//www.051661.com/mp3/tangshisongci/431/25638.html" target="_blank" title="èµ¤å£">èµ¤å£</a></li>
<li><a href="//www.051661.com/mp3/tonghuagushi/425/25498.html" target="_blank" title="å°éé±¼æè¿·è">å°éé±¼æè¿·è</a></li>
<li><a href="//www.051661.com/mp3/tonghuagushi/425/25331.html" target="_blank" title="èå¬å¬çå¥³å¿åèå©å©çå¥³å¿">èå¬å¬çå¥³å¿åèå©å©çå¥³å¿</a></li>
<li><a href="//www.051661.com/mp3/xuechengyu/427/23930.html" target="_blank" title="é¸¡é¸£çç">é¸¡é¸£çç</a></li>
<li><a href="//www.051661.com/mp3/xuechengyu/427/24304.html" target="_blank" title="ä¸æå­¤è¡">ä¸æå­¤è¡</a></li>
<li><a href="//www.051661.com/mp3/ziranbaike/423/24675.html" target="_blank" title="å°ççèå®ç çå°">å°ççèå®ç çå°</a></li>
<li><a href="//www.051661.com/mp3/xuechengyu/427/23854.html" target="_blank" title="é²æ£äºæªç¶">é²æ£äºæªç¶</a></li>
<li><a href="//www.051661.com/mp3/yuyangushi/426/23644.html" target="_blank" title="çå¬é¸¡åçç¸">çå¬é¸¡åçç¸</a></li>
</ul>
</div>
</div>
<div class="clear"></div>
<div class="tbA top10">
<div class="expOtherB">å¹¼å¿å­ç¯å¢å¸ç½®</div>
<ul class="expPicD expPicDEx">
<li><a href="//www.051661.com/yeybz/jiaoshi/112/158679.html"><i class="iPic img4"><img alt="å£è¯èæå®¤é¨å¸ç½®" height="100" src="//img.051661.com/uploadfile/2018/1206/thumb_135_110_widlhs0xdqy.jpg" width="135"/></i><i class="iTitle">å£è¯èæå®¤é¨å¸ç½®</i></a></li>
<li><a href="//www.051661.com/yeybz/qiangmian/115/158678.html"><i class="iPic img4"><img alt="å£è¯èæå®¤å¢é¢" height="100" src="//img.051661.com/uploadfile/2018/1206/thumb_135_110_guwqhwylgdb.jpg" width="135"/></i><i class="iTitle">å£è¯èæå®¤å¢é¢</i></a></li>
<li><a href="//www.051661.com/yeybz/qiangmian/115/158658.html"><i class="iPic img4"><img alt="ææ°å¹¼å¿å­å¬å¤©å¢é¢åå¢å¸ç½®å¾ç27å¼ " height="100" src="//img.051661.com/uploadfile/2018/1125/thumb_135_110_20181125094855247.jpg" width="135"/></i><i class="iTitle">ææ°å¹¼å¿å­å¬å¤©å¢é¢åå¢å¸ç½®å¾ç27å¼ </i></a></li>
<li><a href="//www.051661.com/yeybz/guowai/464/158617.html"><i class="iPic img4"><img alt="è¥¿ç­çç¦ç½æ¼çº³æ¯å¹¼å¿å­" height="100" src="//img.051661.com/uploadfile/2018/1016/thumb_135_110_scmbif0nnu0.jpg" width="135"/></i><i class="iTitle">è¥¿ç­çç¦ç½æ¼çº³æ¯å¹¼å¿å­</i></a></li>
<li><a href="//www.051661.com/yeybz/guowai/464/158616.html"><i class="iPic img4"><img alt="çå¸æ¯å¾·å¥å°æ©å¿ç«¥ä¸­å¿" height="100" src="//img.051661.com/uploadfile/2018/1016/thumb_135_110_synrddbg5lm.jpg" width="135"/></i><i class="iTitle">çå¸æ¯å¾·å¥å°æ©å¿ç«¥ä¸­å¿</i></a></li>
<li><a href="//www.051661.com/yeybz/guowai/464/158615.html"><i class="iPic img4"><img alt="Gardenå¹¼å¿å­" height="100" src="//img.051661.com/uploadfile/2018/1016/thumb_135_110_annhf5lainn.jpg" width="135"/></i><i class="iTitle">Gardenå¹¼å¿å­</i></a></li>
<li><a href="//www.051661.com/yeybz/guowai/464/158614.html"><i class="iPic img4"><img alt="å¾·å½ææå¹¼å¿å­" height="100" src="//img.051661.com/uploadfile/2018/1016/thumb_135_110_d5gzn4plube.jpg" width="135"/></i><i class="iTitle">å¾·å½ææå¹¼å¿å­</i></a></li>
<li><a href="//www.051661.com/yeybz/guowai/464/158613.html"><i class="iPic img4"><img alt="é¦æ¸¯æ¹¾ä»æ¥å¤©è±è±å¹¼å¿å­" height="100" src="//img.051661.com/uploadfile/2018/1016/thumb_135_110_rj2zefjtbui.jpg" width="135"/></i><i class="iTitle">é¦æ¸¯æ¹¾ä»æ¥å¤©è±è±å¹¼å¿å­</i></a></li>
<li><a href="//www.051661.com/yeybz/guowai/464/158612.html"><i class="iPic img4"><img alt="ç¾å½Solarcityå¹¼å¿å­" height="100" src="//img.051661.com/uploadfile/2018/1016/thumb_135_110_lehxy0tcz1v.jpg" width="135"/></i><i class="iTitle">ç¾å½Solarcityå¹¼å¿å­</i></a></li>
<li><a href="//www.051661.com/yeybz/guowai/464/158611.html"><i class="iPic img4"><img alt="çå¸æ¯å¾·å¥å°æ©å¹¼å¿å­" height="100" src="//img.051661.com/uploadfile/2018/1016/thumb_135_110_m0ope3dn4mr.jpg" width="135"/></i><i class="iTitle">çå¸æ¯å¾·å¥å°æ©å¹¼å¿å­</i></a></li>
<li><a href="//www.051661.com/yeybz/guowai/464/158610.html"><i class="iPic img4"><img alt="æå¤§å©å¹¼å¿å­" height="100" src="//img.051661.com/uploadfile/2018/1016/thumb_135_110_u2ttzz3dknz.jpg" width="135"/></i><i class="iTitle">æå¤§å©å¹¼å¿å­</i></a></li>
<li><a href="//www.051661.com/yeybz/guowai/464/158609.html"><i class="iPic img4"><img alt="æ¥æ¬RAAå¹¼å¿å­" height="100" src="//img.051661.com/uploadfile/2018/1016/thumb_135_110_gnbddnpl3ra.jpg" width="135"/></i><i class="iTitle">æ¥æ¬RAAå¹¼å¿å­</i></a></li>
<li><a href="//www.051661.com/yeybz/guowai/464/158608.html"><i class="iPic img4"><img alt="æ¥æ¬ç¥å¥å¹¼å¿å­" height="100" src="//img.051661.com/uploadfile/2018/1016/thumb_135_110_m0cqmvqtoz0.jpg" width="135"/></i><i class="iTitle">æ¥æ¬ç¥å¥å¹¼å¿å­</i></a></li>
<li><a href="//www.051661.com/yeybz/guowai/464/158607.html"><i class="iPic img4"><img alt="å·´å¸ç½èé²è¾¾å¹¼å¿å­" height="100" src="//img.051661.com/uploadfile/2018/1016/thumb_135_110_rbs1ti1nmyz.jpg" width="135"/></i><i class="iTitle">å·´å¸ç½èé²è¾¾å¹¼å¿å­</i></a></li>
<li><a href="//www.051661.com/yeybz/guowai/464/158606.html"><i class="iPic img4"><img alt="æ¾³å¤§å©äºå¹¼å¿å­" height="100" src="//img.051661.com/uploadfile/2018/1016/thumb_135_110_thm4b3eoqud.jpg" width="135"/></i><i class="iTitle">æ¾³å¤§å©äºå¹¼å¿å­</i></a></li>
<li><a href="//www.051661.com/yeybz/guowai/464/158605.html"><i class="iPic img4"><img alt="å æ¿å¤§å¹¼å¿å­" height="100" src="//img.051661.com/uploadfile/2018/1016/thumb_135_110_j44mdhl12ml.jpg" width="135"/></i><i class="iTitle">å æ¿å¤§å¹¼å¿å­</i></a></li>
<li><a href="//www.051661.com/yeybz/guowai/464/158604.html"><i class="iPic img4"><img alt="é¦æ¸¯è¿¦åå¹¼å¿å­" height="100" src="//img.051661.com/uploadfile/2018/1016/thumb_135_110_nk5aly31dfx.jpg" width="135"/></i><i class="iTitle">é¦æ¸¯è¿¦åå¹¼å¿å­</i></a></li>
<li><a href="//www.051661.com/yeybz/guowai/464/158603.html"><i class="iPic img4"><img alt="è¥¿ç­çå¹¼å¿å­" height="100" src="//img.051661.com/uploadfile/2018/1016/thumb_135_110_jfotimjaagg.jpg" width="135"/></i><i class="iTitle">è¥¿ç­çå¹¼å¿å­</i></a></li>
</ul>
<div class="clear"></div>
</div>
<div class="clear"></div>
<div class="sliderwrapper top10">
<div class="expOtherB">åæé¾æ¥ 834564190</div>
<span><a href="http://ye.99.com.cn/" target="_blank">è²å¿ç¥è¯</a></span>
<span><a href="http://www.youjiao.com" target="_blank">å¹¼æç½</a></span>
<span><a href="http://baike.pcbaby.com.cn" target="_blank">äº²å­ç¾ç§</a></span>
<span><a href="http://www.bozhong.com/" target="_blank">æ­ç§ç½</a></span>
<span><a href="http://baby.familydoctor.com.cn" target="_blank">è²å¿</a></span>
<span><a href="http://www.61diy.com/" target="_blank">å·§å·§æå¹¼å¿æå·¥ç½</a></span>
<span><a href="http://www.kejidiy.com" target="_blank">ç§æå°å¶ä½å¤§å¨</a></span>
<span><a href="http://baby.9939.com" target="_blank">æ¯å©´</a></span>
<span><a href="http://www.lamabang.com" target="_blank">è¾£å¦å¸®</a></span>
<span><a href="http://www.riji.cn" target="_blank">æ¥è®°å¤§å¨</a></span>
<span><a href="http://www.studyems.com/" target="_blank">æ±å­¦å¿«éç½</a></span>
<span><a href="http://www.onlycollege.com.cn" target="_blank">è±è¯­å¹è®­</a></span>
<span><a href="http://www.liuxue.com/" target="_blank">é¡ºé¡ºçå­¦</a></span>
<span><a href="http://jx.offcn.com/" target="_blank">æ±è¥¿äººäºèè¯ä¿¡æ¯ç½</a></span>
<span><a href="http://www.simayi.net" target="_blank">è¯»åæ</a></span>
<span><a href="http://www.uzones.com/" target="_blank">å¿ç«¥ç®ç¬ç»</a></span>
<span><a href="https://www.gushimi.org/" target="_blank">å¤è¯å¤§å¨</a></span>
<span><a href="https://www.yixuela.com" target="_blank">åä¸­å­¦ä¹ ç½</a></span>
<span><a href="http://gaokao.2018.cn/" target="_blank">é«è</a></span>
<span><a href="http://www.guoxuemeng.com/" target="_blank">å½å­¦</a></span>
<span><a href="http://baby.tom.com/" target="_blank">TOMæ¯å©´</a></span>
<span><a href="https://www.aoshuku.com" target="_blank">å¥¥æ°é¢</a></span>
<span><a href="http://www.eduease.com" target="_blank">åäº¬å®¶æ</a></span>
<span><a href="https://www.chengyu2.com" target="_blank">æè¯­å¤§å¨</a></span>
<span><a href="http://www.chinawenhua.com.cn/" target="_blank">ä¸­å½ä¼ ç»æå</a></span>
</div>
</div>
<script type="text/javascript">
$(function(){
new slide("#main-slide","cur",350,240,1);
})
</script>
<div class="footer top10">
<p>
æ ç®æ¨èï¼<a href="//www.051661.com/jianbihua/" target="_blank">ç®ç¬ç»</a> <a href="//www.051661.com/ertonghua/" target="_blank">å¿ç«¥ç»</a>
<a href="//www.051661.com/wudao/" target="_blank">å¹¼å¿èè¹</a> <a href="//www.051661.com/mp3/" target="_blank">å¿ç«¥æäº</a>
<a href="//www.051661.com/list/461/" target="_blank">ç»æ¬æäº</a> <a href="//www.051661.com/list/410/" target="_blank">å¹¼å¿å­æå·¥å¶ä½å¤§å¨</a>
<br/>
<a href="//www.051661.com/about/state/" target="_blank">å¬çå£°æ</a> <a href="//www.051661.com/about/" target="_blank">å³äºæä»¬</a> <a href="//www.051661.com/about/map/" target="_blank">ç½ç«å°å¾</a>
<a href="//www.051661.com/sitemap.html" target="_blank">æ°å¢èµæº</a> <a href="//www.051661.com/sitemap.xml" target="_blank">sitemap</a>
<br/>åå®¹å¨é¨æ¥èªäºç½ç»ä»¥åç¨æ·æç¨¿ï¼å¦æä¾µæè¯·èç³»å é¤ææ´æ­£
<a href="http://www.beian.miit.gov.cn/" rel="nofollow" target="_blank">èICPå¤11071310å·</a>
</p>
</div>
<div class="backtotop"></div>
<script language="JavaScript" src="//img.051661.com/y/js/back_top.js" type="text/javascript"></script>
<script>
(function(){
    var bp = document.createElement('script');
    var curProtocol = window.location.protocol.split(':')[0];
    if (curProtocol === 'https') {
        bp.src = '//zz.bdstatic.com/linksubmit/push.js';
    }
    else {
        bp.src = 'http://push.zhanzhang.baidu.com/push.js';
    }
    var s = document.getElementsByTagName("script")[0];
    s.parentNode.insertBefore(bp, s);
})();
</script>
<script>(function(){
var src = (document.location.protocol == "http:") ? "http://js.passport.qihucdn.com/11.0.1.js?6224a9726230b04fb9723d07e77e104e":"https://jspassport.ssl.qhimg.com/11.0.1.js?6224a9726230b04fb9723d07e77e104e";
document.write('<script src="' + src + '" id="sozz"><\/script>');
})();
</script>
<script>window._bd_share_config={"common":{"bdSnsKey":{},"bdText":"","bdMini":"2","bdMiniList":false,"bdPic":"","bdStyle":"0","bdSize":"16"},"slide":{"type":"slide","bdImg":"1","bdPos":"right","bdTop":"100"}};with(document)0[(getElementsByTagName('head')[0]||body).appendChild(createElement('script')).src='http://bdimg.share.baidu.com/static/api/js/share.js?v=89860593.js?cdnversion='+~(-new Date()/36e5)];</script>
</body>
</html>
