<!DOCTYPE html>
<html lang="en">
<head>
<meta charset="utf-8"/>
<meta content="width=device-width, initial-scale=1.0" name="viewport"/>
<meta content="IE=edge" http-equiv="X-UA-Compatible"/>
<link href="https://www.aiha.org/" hreflang="x-default" rel="alternate"/>
<link href="/assets/images/favicons/aiha/apple-touch-icon.png" rel="apple-touch-icon" sizes="180x180"/>
<link href="/assets/images/favicons/aiha/favicon-32x32.png" rel="icon" sizes="32x32" type="image/png"/>
<link href="/assets/images/favicons/aiha/favicon-16x16.png" rel="icon" sizes="16x16" type="image/png"/>
<link href="/assets/images/favicons/aiha/site.webmanifest" rel="manifest"/>
<link color="#000000" href="/assets/images/favicons/aiha/safari-pinned-tab.svg" rel="mask-icon"/>
<link href="/assets/images/favicons/aiha/favicon.ico" rel="shortcut icon"/>
<meta content="#0054a8" name="msapplication-TileColor"/>
<meta content="/assets/images/favicons/aiha/browserconfig.xml" name="msapplication-config"/>
<meta content="#ffffff" name="theme-color"/>
<link href="/assets/css/main.css" rel="stylesheet"/>
<style>
    body #elc-cookie-consent,
    body #elc-cookie-tab {
        left: 1em;
        right: initial;
    }

    body #elc-cookie-consent .elc-primary-heading {
        font-size: 20px;
        font-weight: 500;
        margin-bottom: 12px;
    }

    body #elc-cookie-consent .elc-header-description {
        margin-bottom: 12px;
    }

    body[class^="site--"] #elc-cookie-consent .elc-button-link {
        background: var(--color-cta-primary);
        color: #fff;
        color: var(--color-cta-primary-text);
    }
</style>
<style>

        .aswed { color: #0a0a56; }

        :root {
            --color-bg: transparent;
            --color-text: #0a0a56;
            --color-text-overlay: #FFFFFF;
            --color-cta-primary: #f0512a;
            --color-cta-primary-text: #FFFFFF;
            --color-cta-secondary: #FFFFFF;
            --color-cta-secondary-text: #0a0a56;
            --color-cta-ghost: #f0512a;
            --color-icon-box: #0a0a56;
            --color-icon-circle: #5bd6bf;
            --color-icon-shape: #0a0a56;
            --color-outline: #5bd6bf;
        }

        [data-theme="cream"] {
            --color-bg: #5bd6bf;
            --color-text: #0a0a56;
            --color-text-overlay: #5bd6bf;
            --color-cta-ghost: #0a0a56;
            --color-icon-box: #FFFFFF;
            --color-icon-circle: #0a0a56;
            --color-icon-shape: #5bd6bf;
            --color-outline: #0a0a56;
        }

        [data-theme="blue"] {
            --color-bg: #0a0a56;
            --color-text: #5bd6bf;
            --color-text-overlay: #0a0a56;
            --color-cta-secondary: #FFFFFF;
            --color-cta-secondary-text: #0a0a56;
            --color-cta-ghost: #5bd6bf;
            --color-icon-box: #FFFFFF;
        }
        
        [data-theme="orange"] {
            --color-bg: #f0512a;
            --color-text: #FFFFFF;
            --color-text-overlay: #f0512a;
            --color-cta-primary: #FFFFFF;
            --color-cta-primary-text: #0a0a56;
            --color-cta-ghost: #FFFFFF;
            --color-icon-box: #5bd6bf;
            --color-icon-circle: #FFFFFF;
            --color-icon-shape: #f0512a;
        }
        
        [data-theme="overlay"] {
            --color-bg: black;
            --color-text: #FFFFFF;
            --color-cta-secondary: #FFFFFF;
            --color-cta-secondary-text: #0a0a56;
        }

        .c-alertbar { background: #f0512a; color: #FFFFFF; }
        .c-alertbar_close span { background: #FFFFFF; }

        .c-btn { 
            background: #f0512a;
            color: #FFFFFF;
        }

        .freeform-column button { 
            background: #f0512a !important;
            color: #FFFFFF !important;
        }

        .c-btn.c-btn--secondary,
        .c-btn.c-btn--stroked { 
            background: #FFFFFF;
            color: #0a0a56;
        }
        
        @media screen and (-ms-high-contrast: active), screen and (-ms-high-contrast: none) {
            body { color: #0a0a56; }
            hr { background: #0a0a56; }
            blockquote { border-color: #f0512a; }
            
            .c-btn-ghost {  color: #f0512a; }

            ::selection { background: #0a0a56; }
            .t-highlight { color: #FFFFFF; background: #0a0a56; }
            
            .c-accordion { background: transparent; color: #0a0a56; }
            .c-accordion_head { border-color: #5bd6bf; }

            .c-alertbar { background: #f0512a; color: #FFFFFF; }
            .c-alertbar_close span { background: #FFFFFF; }

            .c-billboard_bg, .c-billboard_box { background-color: transparent; }
            .c-billboard_content, .c-billboard_box { color: #0a0a56; }
            .c-billboard_scroll { fill: #0a0a56 }

            .c-countdown { background-color: transparent; color: #0a0a56; }
            .c-countdown_item { background: #0a0a56; color: #FFFFFF; }

            .c-footer_social svg { fill: #0a0a56; }

            .c-gallery { background: #5bd6bf; }

            .c-gallery .swiper-button-next,
            .c-gallery .swiper-container-rtl .swiper-button-prev,
            .c-gallery .swiper-button-prev, 
            .c-gallery .swiper-container-rtl .swiper-button-next {
                fill: #0a0a56;
            }

            .c-header_logo,
            .c-menu-toggle div, 
            .c-menu-toggle div:before, 
            .c-menu-toggle div:after  { 
                background-color: #0a0a56; 
            } 

            .c-icon-card { background: transparent; color: #0a0a56; } 
            .c-icon-card_icon { background: #0a0a56; }
            .c-icon-card_icon:after { background:#5bd6bf; }
            .c-icon-card_icon svg { fill: #0a0a56; }

            .c-image-card_box { background: transparent; color: #0a0a56; } 
            .c-image-card_empty.has-logo { background-color: #0a0a56; }

            .c-image-text_box { background: transparent; color: #0a0a56; } 

            .c-image-on-image, .c-image picture { background-color: #0a0a56; }

            .c-testimonial-card_icon { background: #5bd6bf; }
            .c-testimonial-card blockquote span { color: #f0512a; }

            .c-textblock .is-boxed { background: transparent; color: #0a0a56; } 
            .c-textblock .has-border { border: 1px solid #5bd6bf; }

        } /* END */
    </style>
<title>Homepage | AIHA</title><meta content="SEOmatic" name="generator"/>
<meta content="Industrial, Hygiene, Hygienists, Health, Occupational Health, Industrial Hygiene, Industrial Hygienists, worker health, occupational hazards" name="keywords"/>
<meta content="AIHA is the association for scientists and professionals committed to preserving and ensuring OEHS in the workplace and community." name="description"/>
<meta content="no-referrer-when-downgrade" name="referrer"/>
<meta content="all" name="robots"/>
<meta content="508704265820241" property="fb:profile_id"/>
<meta content="en_US" property="og:locale"/>
<meta content="AIHA" property="og:site_name"/>
<meta content="website" property="og:type"/>
<meta content="https://www.aiha.org/" property="og:url"/>
<meta content="Homepage" property="og:title"/>
<meta content="AIHA is the association for scientists and professionals committed to preserving and ensuring OEHS in the workplace and community." property="og:description"/>
<meta content="https://aiha-assets.sfo2.digitaloceanspaces.com/AIHA/uploads/_1200x630_crop_center-center_82_none/large-Share-Image.jpg?mtime=1591034865" property="og:image"/>
<meta content="1200" property="og:image:width"/>
<meta content="630" property="og:image:height"/>
<meta content="AIHA Shareable Logo" property="og:image:alt"/>
<meta content="https://en.wikipedia.org/wiki/American_Industrial_Hygiene_Association" property="og:see_also"/>
<meta content="https://www.youtube.com/user/IHValue" property="og:see_also"/>
<meta content="https://www.linkedin.com/company/aiha/" property="og:see_also"/>
<meta content="https://www.facebook.com/AIHAGlobal/" property="og:see_also"/>
<meta content="https://twitter.com/AIHA" property="og:see_also"/>
<meta content="summary_large_image" name="twitter:card"/>
<meta content="@AIHA" name="twitter:site"/>
<meta content="@AIHA" name="twitter:creator"/>
<meta content="Homepage" name="twitter:title"/>
<meta content="AIHA is the association for scientists and professionals committed to preserving and ensuring OEHS in the workplace and community." name="twitter:description"/>
<meta content="https://aiha-assets.sfo2.digitaloceanspaces.com/AIHA/uploads/_800x418_crop_center-center_82_none/large-Share-Image.jpg?mtime=1591034865" name="twitter:image"/>
<meta content="800" name="twitter:image:width"/>
<meta content="418" name="twitter:image:height"/>
<meta content="AIHA Shareable Logo" name="twitter:image:alt"/>
<meta content="Y7iequetqeuBYp_dcYZmWF7iCCFoVcisua4ZZ2UtNY8" name="google-site-verification"/>
<link href="https://www.aiha.org/" rel="canonical"/>
<link href="https://www.aiha.org/" rel="home"/>
<link href="https://www.aiha.org/humans.txt" rel="author" type="text/plain"/>
<script>window.dataLayer = window.dataLayer || [];
function gtag(){dataLayer.push(arguments)};
gtag('js', new Date());
gtag('config', 'UA-5484117-1', {'send_page_view': true,'anonymize_ip': false,'link_attribution': false,'allow_display_features': false});
gtag('config', 'AW-950538114', {'send_page_view': true});</script></head>
<body class="no-js site--default"><script async="" src="https://www.googletagmanager.com/gtag/js?id=UA-5484117-1"></script>
<a class="srd" href="#main">Skip to Page Content</a>
<svg style="display: none;" xmlns="http://www.w3.org/2000/svg">
<symbol id="arrow-cta" viewbox="0 0 23 19">
<path clip-rule="evenodd" d="M13.3074 0.137695L22.2264 9.4999L13.3074 18.8621L11.4973 17.1377L17.5827 10.7499H0V8.2499H17.5827L11.4973 1.8621L13.3074 0.137695Z" fill-rule="evenodd"></path>
</symbol>
<symbol id="accordion-toggle" viewbox="0 0 16 16">
<path d="M9 0H7V7H0V9H7V16H9V9H16V7H9V0Z"></path>
</symbol>
<symbol id="arrow-right" viewbox="0 0 14 13">
<path d="M0 6.5H12M12 6.5L6.88571 1M12 6.5L6.88571 12" stroke="white" stroke-width="1.5"></path>
</symbol>
<symbol id="calendar" viewbox="0 0 32 35">
<path clip-rule="evenodd" d="M7 0C5.89543 0 5 0.895431 5 2V6C5 7.10457 5.89543 8 7 8C8.10457 8 9 7.10457 9 6V2C9 0.895431 8.10457 0 7 0ZM8 6V2C8 1.44772 7.55228 1 7 1C6.44772 1 6 1.44772 6 2V6C6 6.55228 6.44772 7 7 7C7.55228 7 8 6.55228 8 6Z" fill-rule="evenodd"></path>
<path d="M5 15V18H11V15H5Z"></path>
<path d="M13 15H19V18H13V15Z"></path>
<path d="M27 18V15H21V18H27Z"></path>
<path d="M11 21V24H5V21H11Z"></path>
<path d="M19 21H13V24H19V21Z"></path>
<path d="M21 24V21H27V24H21Z"></path>
<path d="M5 27V30H11V27H5Z"></path>
<path d="M13 27H19V30H13V27Z"></path>
<path d="M27 30V27H21V30H27Z"></path>
<path clip-rule="evenodd" d="M21 5V6C21 8.20914 22.7909 10 25 10C27.2091 10 29 8.20914 29 6V5H32V35H0V5H3V6C3 8.20914 4.79086 10 7 10C9.20914 10 11 8.20914 11 6V5H21ZM12 6H20C20 8.76142 22.2386 11 25 11C27.7614 11 30 8.76142 30 6H31V34H1V6H2C2 8.76142 4.23858 11 7 11C9.76142 11 12 8.76142 12 6Z" fill-rule="evenodd"></path>
<path clip-rule="evenodd" d="M23 2C23 0.895431 23.8954 0 25 0C26.1046 0 27 0.895431 27 2V6C27 7.10457 26.1046 8 25 8C23.8954 8 23 7.10457 23 6V2ZM26 2V6C26 6.55228 25.5523 7 25 7C24.4477 7 24 6.55228 24 6V2C24 1.44772 24.4477 1 25 1C25.5523 1 26 1.44772 26 2Z" fill-rule="evenodd"></path>
</symbol>
<symbol id="house" viewbox="0 0 15 15">
<path clip-rule="evenodd" d="M7.91777 0.44238L14.9016 7.27848C15.0493 7.37692 14.9508 7.62302 14.754 7.62302H13.131V14.1146C13.131 14.4591 12.8356 14.7538 12.4917 14.7538H9.78705C9.44252 14.7538 9.1478 14.4585 9.1478 14.1146V10.9178C9.1478 8.70467 5.80325 8.70467 5.80325 10.9178V14.1146C5.80325 14.4591 5.55716 14.7538 5.21321 14.7538H2.45936C2.11482 14.7538 1.86932 14.4585 1.86932 14.1146V7.62302H0.197118C0.00024271 7.62302 -0.0489723 7.37693 0.0494607 7.27848L7.03331 0.44238C7.2794 0.19629 7.67257 0.19629 7.91866 0.44238H7.91777Z" fill-rule="evenodd"></path>
</symbol>
<symbol id="meta-pin" viewbox="0 0 10 12">
<path d="M3.83333 4.90909C3.83333 4.2901 4.34698 3.77273 5 3.77273C5.65302 3.77273 6.16667 4.2901 6.16667 4.90909C6.16667 5.52808 5.65302 6.04545 5 6.04545C4.34698 6.04545 3.83333 5.52808 3.83333 4.90909Z"></path>
<path clip-rule="evenodd" d="M5 12C5 12 10 8.72727 10 4.90909C10 3.60712 9.47322 2.35847 8.53553 1.43784C7.59785 0.517206 6.32608 0 5 0C3.67392 0 2.40215 0.517206 1.46447 1.43784C0.526784 2.35847 0 3.60712 0 4.90909C0 8.72727 5 12 5 12ZM5 2.77273C3.81207 2.77273 2.83333 3.7206 2.83333 4.90909C2.83333 6.09758 3.81207 7.04545 5 7.04545C6.18793 7.04545 7.16667 6.09758 7.16667 4.90909C7.16667 3.7206 6.18793 2.77273 5 2.77273Z" fill-rule="evenodd"></path>
</symbol>
<symbol id="meta-mail" viewbox="0 0 13 10">
<path d="M11.7 0H1.3C0.765264 0 0.30324 0.314622 0.104262 0.760856C0.165064 0.773795 0.224456 0.798367 0.279188 0.835206L6.5 5.02229L12.7208 0.835206C12.7755 0.798367 12.8349 0.773795 12.8957 0.760856C12.6968 0.314622 12.2347 0 11.7 0Z"></path>
<path d="M13 1.85271L6.77919 6.03979C6.6104 6.1534 6.3896 6.1534 6.22081 6.03979L0 1.85271V8.75C0 9.4375 0.585 10 1.3 10H11.7C12.415 10 13 9.4375 13 8.75V1.85271Z"></path>
</symbol>
<symbol id="meta-phone" viewbox="0 0 11 11">
<path d="M10.9997 8.23561V9.89156C11.0003 10.0453 10.9687 10.1974 10.907 10.3383C10.8453 10.4792 10.7548 10.6056 10.6413 10.7095C10.5278 10.8134 10.3938 10.8926 10.2479 10.9418C10.102 10.9911 9.94736 11.0094 9.79395 10.9955C8.09204 10.811 6.45724 10.2306 5.0209 9.30094C3.68457 8.45346 2.55159 7.32273 1.70244 5.98905C0.767723 4.54904 0.186033 2.90954 0.00448916 1.20337C-0.00933195 1.05073 0.0088446 0.896891 0.0578613 0.751645C0.106878 0.606399 0.185661 0.47293 0.289194 0.359736C0.392728 0.246542 0.518743 0.156104 0.659217 0.0941784C0.799691 0.0322531 0.951545 0.000197847 1.10511 5.35159e-05H2.76434C3.03276 -0.00258299 3.29297 0.0922778 3.49649 0.266954C3.7 0.441631 3.83293 0.684205 3.8705 0.949461C3.94053 1.4794 4.07041 1.99973 4.25765 2.50053C4.33206 2.6981 4.34817 2.91281 4.30406 3.11923C4.25995 3.32566 4.15747 3.51513 4.00877 3.66521L3.30636 4.36622C4.09369 5.74813 5.24017 6.89234 6.62482 7.67811L7.32723 6.9771C7.4776 6.82869 7.66746 6.72641 7.87429 6.68239C8.08112 6.63837 8.29626 6.65444 8.49422 6.7287C8.99601 6.91558 9.51738 7.0452 10.0484 7.11509C10.317 7.15292 10.5624 7.28798 10.7378 7.49458C10.9132 7.70118 11.0064 7.96491 10.9997 8.23561Z"></path>
</symbol>
<symbol id="meta-fax" viewbox="0 0 12 10">
<path clip-rule="evenodd" d="M9 0H3V4H9V0ZM1 3H2V5H10V3H11C11.5523 3 12 3.44769 12 4V9C12 9.55231 11.5523 10 11 10H1C0.447716 10 0 9.55231 0 9V4C0 3.44769 0.447716 3 1 3Z" fill-rule="evenodd"></path>
</symbol>
<symbol id="search" viewbox="0 0 13 13">
<path clip-rule="evenodd" d="M5.2425 0.000988887C6.62649 -0.0256337 7.96678 0.486179 8.98131 1.42839C9.99586 2.3706 10.6056 3.66987 10.6823 5.05276C10.7516 6.30265 10.3805 7.53286 9.64099 8.53225L13 11.8964L11.8922 13L8.53469 9.64139C7.53787 10.3832 6.30979 10.757 5.06096 10.6904C3.67871 10.6168 2.37894 10.0094 1.43517 8.99622C0.491424 7.98301 -0.0227457 6.64292 0.00077265 5.25811C0.0242913 3.87328 0.583687 2.55162 1.56129 1.5711C2.53889 0.590581 3.8585 0.0276114 5.2425 0.000988887ZM6.81828 2.00718C6.14627 1.72861 5.40682 1.65573 4.69343 1.79773C3.98002 1.93975 3.32469 2.29022 2.81033 2.80497C2.29595 3.31974 1.94562 3.97569 1.80368 4.6898C1.66174 5.4039 1.7346 6.14406 2.01301 6.81671C2.29141 7.48935 2.76285 8.06418 3.36768 8.46862C3.97252 8.87307 4.68357 9.08897 5.4109 9.08897C6.38626 9.08897 7.32172 8.70127 8.01148 8.01099C8.70124 7.3207 9.0888 6.38434 9.0888 5.40798C9.0888 4.67988 8.87306 3.96814 8.46889 3.3628C8.06474 2.75747 7.49031 2.28575 6.81828 2.00718Z" fill-rule="evenodd"></path>
</symbol>
<symbol id="scroll-more" viewbox="0 0 18 10">
<path clip-rule="evenodd" d="M18 1.76164L9 10L-2.59584e-07 1.76164L1.5206 -7.20337e-07L9 6.84644L16.4794 -6.64675e-08L18 1.76164Z" fill-rule="evenodd"></path>
</symbol>
<symbol id="social-twitter" viewbox="0 0 32 32">
<path clip-rule="evenodd" d="M3 0C1.34315 0 0 1.34315 0 3V29C0 30.6569 1.34315 32 3 32H29C30.6569 32 32 30.6569 32 29V3C32 1.34315 30.6569 0 29 0H3ZM21.1351 12.1176C21.6947 12.0496 22.2263 11.9005 22.7241 11.6817L22.7506 11.6929C22.3793 12.2487 21.9074 12.7386 21.3668 13.1262C21.3752 13.2443 21.3752 13.363 21.3752 13.4806C21.3752 17.1312 18.5937 21.3477 13.5008 21.3477C11.932 21.3477 10.4813 20.8892 9.25 20.1051C9.46994 20.1299 9.68875 20.1428 9.90812 20.1428C11.1979 20.1428 12.3955 19.7007 13.3405 18.9587C12.1261 18.9363 11.1057 18.1353 10.7507 17.0367C10.9201 17.0682 11.0894 17.0851 11.266 17.0851C11.5174 17.0851 11.7627 17.0513 11.995 16.9889C10.7277 16.7341 9.77538 15.6153 9.77538 14.2737V14.2394C10.1477 14.4464 10.5747 14.5712 11.0286 14.5859C10.2872 14.0892 9.79788 13.2437 9.79788 12.2819C9.79788 11.7677 9.93231 11.2958 10.1725 10.8897C11.5371 12.5597 13.5762 13.6645 15.8768 13.7731C15.8307 13.5711 15.8054 13.3602 15.8054 13.1408C15.8054 11.6142 17.0446 10.375 18.5729 10.375C19.3705 10.375 20.0888 10.7125 20.5928 11.2519C21.2239 11.1254 21.8168 10.8981 22.3517 10.5859C22.1442 11.2323 21.7054 11.7739 21.1351 12.1176Z" fill-rule="evenodd"></path>
</symbol>
<symbol id="social-facebook" viewbox="0 0 32 32">
<path clip-rule="evenodd" d="M3 0C1.34315 0 0 1.34315 0 3V29C0 30.6569 1.34315 32 3 32H29C30.6569 32 32 30.6569 32 29V3C32 1.34315 30.6569 0 29 0H3ZM9.99475 9.25H22.0053C22.417 9.25 22.75 9.58356 22.75 9.99475V22.0053C22.75 22.417 22.417 22.75 22.0047 22.75H18.565V17.5289H20.3194L20.581 15.487H18.565V14.1871C18.565 13.5964 18.7292 13.1909 19.573 13.1909H20.6536V11.3684C20.4668 11.3436 19.8261 11.2891 19.0808 11.2891C17.5255 11.2891 16.4601 12.2374 16.4601 13.9806V15.4853H14.7001V17.5221H16.4601V22.75H9.99475C9.58356 22.75 9.25 22.417 9.25 22.0053V9.99475C9.25 9.58356 9.58356 9.25 9.99475 9.25Z" fill-rule="evenodd"></path>
</symbol>
<symbol id="social-linked" viewbox="0 0 32 32">
<path clip-rule="evenodd" d="M3 0C1.34315 0 0 1.34315 0 3V29C0 30.6569 1.34315 32 3 32H29C30.6569 32 32 30.6569 32 29V3C32 1.34315 30.6569 0 29 0H3ZM18.7523 20.7542H20.7514H20.752V17.2184C20.752 15.4831 20.3774 14.1499 18.3518 14.1499C17.377 14.1499 16.7245 14.6843 16.4562 15.1906H16.4303V14.3125H14.5099V20.7542H16.5091V17.5666C16.5091 16.7262 16.6683 15.9134 17.7106 15.9134C18.7371 15.9134 18.7523 16.8747 18.7523 17.6217V20.7542ZM11.0916 12.2695C11.0916 12.9102 11.6086 13.4311 12.2521 13.4311C12.8927 13.4311 13.4131 12.9102 13.4131 12.2695C13.4131 11.6294 12.8933 11.1091 12.2521 11.1091C11.6091 11.1091 11.0916 11.6294 11.0916 12.2695ZM11.2497 20.7542H13.2544V14.3125H11.2497V20.7542ZM10.2462 9.25H21.7499C22.3 9.25 22.75 9.68538 22.75 10.2226V21.7774C22.75 22.3152 22.3 22.75 21.7499 22.75H10.2462C9.6955 22.75 9.25 22.3152 9.25 21.7774V10.2226C9.25 9.68538 9.6955 9.25 10.2462 9.25Z" fill-rule="evenodd"></path>
</symbol>
<symbol id="social-youtube" viewbox="0 0 32 32">
<path clip-rule="evenodd" d="M3 0C1.34315 0 0 1.34315 0 3V29C0 30.6569 1.34315 32 3 32H29C30.6569 32 32 30.6569 32 29V3C32 1.34315 30.6569 0 29 0H3ZM22.0301 12.215C22.2358 12.4207 22.385 12.6761 22.4632 12.9563C22.6585 14.0336 22.7527 15.1268 22.7445 16.2216C22.7519 17.3123 22.6577 18.4013 22.4632 19.4746C22.385 19.7548 22.2358 20.0102 22.0301 20.2159C21.8243 20.4217 21.569 20.5709 21.2887 20.6491C20.2256 20.9314 16.0035 20.9314 16.0035 20.9314C16.0035 20.9314 11.769 20.9314 10.7182 20.6491C10.438 20.5709 10.1826 20.4217 9.9769 20.2159C9.77115 20.0102 9.62196 19.7548 9.54375 19.4746C9.34512 18.4017 9.24682 17.3127 9.25012 16.2216C9.24605 15.1264 9.34435 14.0332 9.54375 12.9563C9.62196 12.6761 9.77115 12.4207 9.9769 12.215C10.1826 12.0092 10.438 11.86 10.7182 11.7818C11.7808 11.4944 16.0035 11.5 16.0035 11.5C16.0035 11.5 20.2369 11.5 21.2887 11.7818C21.569 11.86 21.8243 12.0092 22.0301 12.215ZM14.6524 14.1955V18.2416L18.1759 16.2216L14.6524 14.1955Z" fill-rule="evenodd"></path>
</symbol>
<symbol id="share" viewbox="0 0 20 22">
<path clip-rule="evenodd" d="M13.1581 6.81485C13.883 7.54668 14.8885 8 16 8C18.2091 8 20 6.20914 20 4C20 1.79086 18.2091 0 16 0C13.7909 0 12 1.79086 12 4C12 4.37701 12.0522 4.74185 12.1497 5.08767L6.84193 8.18514C6.11703 7.45332 5.11146 7 4 7C1.79086 7 0 8.79086 0 11C0 13.2091 1.79086 15 4 15C5.11167 15 6.11742 14.5465 6.84235 13.8144L12.1509 16.9079C12.0526 17.255 12 17.6214 12 18C12 20.2091 13.7909 22 16 22C18.2091 22 20 20.2091 20 18C20 15.7909 18.2091 14 16 14C14.8902 14 13.886 14.452 13.1613 15.1819L7.8505 12.0871C7.9479 11.7415 8 11.3768 8 11C8 10.623 7.94784 10.2581 7.85034 9.91231L13.1581 6.81485ZM16 2C14.8954 2 14 2.89543 14 4C14 4.34726 14.0885 4.67385 14.2442 4.95844C14.2544 4.97391 14.2642 4.98975 14.2737 5.00596C14.2831 5.02205 14.292 5.0383 14.3004 5.05468C14.6533 5.6222 15.2825 6 16 6C17.1046 6 18 5.10457 18 4C18 2.89543 17.1046 2 16 2ZM5.69977 9.94554C5.70813 9.96184 5.71698 9.978 5.72632 9.99402C5.73573 10.0101 5.74553 10.0259 5.75569 10.0413C5.91145 10.326 6 10.6526 6 11C6 11.3473 5.91148 11.6739 5.75576 11.9585C5.74546 11.9742 5.73553 11.9902 5.726 12.0065C5.71675 12.0224 5.70799 12.0384 5.69971 12.0546C5.34681 12.6221 4.71753 13 4 13C2.89543 13 2 12.1046 2 11C2 9.89543 2.89543 9 4 9C4.71757 9 5.34688 9.3779 5.69977 9.94554ZM14 18C14 17.6749 14.0776 17.3678 14.2153 17.0964C14.24 17.064 14.2629 17.0296 14.284 16.9935C14.3042 16.9588 14.3221 16.9234 14.3377 16.8875C14.6966 16.3523 15.3072 16 16 16C17.1046 16 18 16.8954 18 18C18 19.1046 17.1046 20 16 20C14.8954 20 14 19.1046 14 18Z" fill-rule="evenodd"></path>
</symbol>
<symbol id="quotes" viewbox="0 0 22 17">
<path d="M10.317 12.0656C10.317 9.67413 8.80871 8.13676 6.19822 8.13676C5.67612 8.13676 5.27004 8.25064 4.97998 8.42146C5.09601 5.80224 7.53247 4.03711 9.73689 3.69548V0.222168C6.08219 0.563804 0.745178 3.12608 0.745178 10.756C0.745178 13.7738 2.71755 16.2222 5.79214 16.2222C8.51866 16.2222 10.317 14.2862 10.317 12.0656ZM21.7452 12.0656C21.7452 9.67413 20.2369 8.13676 17.6264 8.13676C17.1043 8.13676 16.6982 8.25064 16.4082 8.42146C16.5242 5.80224 18.9606 4.03711 21.1651 3.69548V0.222168C17.5104 0.563804 12.1734 3.12608 12.1734 10.756C12.1734 13.7738 14.1457 16.2222 17.2203 16.2222C19.9468 16.2222 21.7452 14.2862 21.7452 12.0656Z"></path>
</symbol>
<symbol id="thumb-empty" viewbox="0 0 32 28">
<path d="M6 22H24.5366L9.41455 7L6 22Z"></path>
<path d="M16.2439 10.871L19.1707 7L26 20.0646L16.2439 10.871Z"></path>
<path clip-rule="evenodd" d="M3 0C1.34326 0 0 1.34314 0 3V25C0 26.6569 1.34326 28 3 28H29C30.6567 28 32 26.6569 32 25V3C32 1.34314 30.6567 0 29 0H3ZM1 3C1 1.89539 1.89551 1 3 1H29C30.1045 1 31 1.89539 31 3V25C31 26.1046 30.1045 27 29 27H3C1.89551 27 1 26.1046 1 25V3Z" fill-rule="evenodd"></path>
</symbol>
<symbol id="article-empty" viewbox="0 0 57 57">
<path d="M55.1759 0.500052H15.3918C14.6918 0.500052 14.2259 0.965989 14.2259 1.66597V10.8819L1.50772 10.8841C0.807717 10.8841 0.341797 11.35 0.341797 12.05V48.1C0.341797 52.7659 3.95772 56.5 8.3918 56.5H48.1759C52.61 56.5 56.3418 52.7659 56.3418 48.1V1.66592C56.3418 0.96592 55.8759 0.5 55.1759 0.5V0.500052ZM8.50772 54.166C8.39178 54.166 8.39178 54.166 8.50772 54.166C5.2418 54.166 2.67364 51.4819 2.67364 48.1001L2.67582 13.216H14.2258V48.1001C14.2258 51.366 11.6577 54.166 8.50766 54.166H8.50772ZM54.0077 48.1001C54.0077 51.4841 51.4418 54.166 48.1736 54.166H13.9918C15.5077 52.6501 16.5577 50.4319 16.5577 48.1001V2.83413H54.0077V48.1001Z"></path>
<path d="M21.1073 10.4158H49.4573C50.1573 10.4158 50.6233 9.94989 50.6233 9.2499C50.6233 8.54992 50.1573 8.08398 49.4573 8.08398H21.1073C20.4073 8.08398 19.9414 8.54992 19.9414 9.2499C19.9414 9.94989 20.4073 10.4158 21.1073 10.4158Z"></path>
<path d="M21.1073 16.834H49.4573C50.1573 16.834 50.6233 16.3681 50.6233 15.6681C50.6233 14.9681 50.1573 14.5022 49.4573 14.5022L21.1073 14.5C20.4073 14.5 19.9414 14.9659 19.9414 15.6659C19.9414 16.3659 20.4073 16.834 21.1073 16.834V16.834Z"></path>
<path d="M21.1073 23.25H35.6914C36.3914 23.25 36.8573 22.7841 36.8573 22.0841C36.8573 21.3841 36.3914 20.9182 35.6914 20.9182L21.1073 20.916C20.4073 20.916 19.9414 21.382 19.9414 22.0819C19.9414 22.7841 20.4073 23.25 21.1073 23.25V23.25Z"></path>
<path d="M21.1073 29.6658H35.6914C36.3914 29.6658 36.8573 29.1999 36.8573 28.4999C36.8573 27.7999 36.3914 27.334 35.6914 27.334H21.1073C20.4073 27.334 19.9414 27.7999 19.9414 28.4999C19.9414 29.1999 20.4073 29.6658 21.1073 29.6658Z"></path>
<path d="M21.1073 36.084H49.4573C50.1573 36.084 50.6233 35.6181 50.6233 34.9181C50.6233 34.2181 50.1573 33.7522 49.4573 33.7522L21.1073 33.75C20.4073 33.75 19.9414 34.2159 19.9414 34.9159C19.9414 35.6159 20.4073 36.084 21.1073 36.084V36.084Z"></path>
<path d="M49.4575 40.166H35.8075C35.1075 40.166 34.6416 40.632 34.6416 41.3319C34.6416 42.0319 35.1075 42.4979 35.8075 42.4979H49.4575C50.1575 42.4979 50.6234 42.0319 50.6234 41.3319C50.6256 40.6341 50.1575 40.166 49.4575 40.166Z"></path>
<path d="M49.4575 46.584H35.8075C35.1075 46.584 34.6416 47.0499 34.6416 47.7499C34.6416 48.4499 35.1075 48.9158 35.8075 48.9158H49.4575C50.1575 48.9158 50.6234 48.4499 50.6234 47.7499C50.6256 47.0499 50.1575 46.584 49.4575 46.584Z"></path>
<path d="M49.5761 20.916H40.8261C40.1261 20.916 39.6602 21.382 39.6602 22.0819V29.0819C39.6602 29.7819 40.1261 30.2479 40.8261 30.2479H49.5761C50.2761 30.2479 50.742 29.7819 50.742 29.0819V22.0819C50.742 21.5 50.1579 20.916 49.5761 20.916ZM48.408 27.916H41.9921V23.2501H48.408V27.916Z"></path>
<path d="M21.1073 49.4998H30.3232C31.0232 49.4998 31.4892 49.0339 31.4892 48.3339V41.3339C31.4892 40.6339 31.0232 40.168 30.3232 40.168H21.1073C20.4073 40.168 19.9414 40.6339 19.9414 41.3339V48.3339C19.9414 48.9158 20.4073 49.4998 21.1073 49.4998ZM22.2754 42.4998H29.1595V47.1657H22.2754V42.4998Z"></path>
</symbol></svg>
<div class="c-alertbar relative text-sm text-center py-4 px-4 lg:px-24" data-theme="orange">
<span class="c-alertbar_content">Don't lose your member benefits.</span>
<a class="underline" href="https://online-ams.aiha.org/amsssa/f?p=STDSSA:101:::::P101_VC,P101_CONTEXT,CUST_CONTEXT,G_SUCCESS_URL:,,,ssaauthmenu.show_top_menu:">Reinstate your membership today!</a>
<div class="c-alertbar_close mt-4 lg:mr-5 relative lg:absolute top-0 right-0">
<span class="block w-full absolute inset-0"></span>
<span class="block w-full absolute inset-0"></span>
</div>
</div>
<header class="c-header w-full">
<div class="c-header_inner w-full bg-white lg:flex lg:justify-between">
<div class="w-full lg:w-auto flex justify-between items-center lg:block">
<a class="c-header_logo flex items-center h-full px-5 py-2 md:px-8" href="/" title="Back to Homepage">
<img alt="AIHA Logo" class="o-logo" src="https://aiha-assets.sfo2.digitaloceanspaces.com/AIHA/uploads/aiha-logo-color-header.png"/>
</a>
<div class="c-menu-toggle flex items-center mr-6 md:mr-8 lg:hidden">
<div></div>
</div>
</div>
<nav aria-label="Primary" class="c-header_nav hidden lg:block p-5 lg:p-0" role="navigation">
<div class="c-header_nav-top lg:flex lg:items-center lg:justify-end" style="min-height:32px;">
<ul class="lg:flex lg:pr-4 lg:mr-5 lg:mb-0">
<li class="level-1 ">
<a class="item font-primary text-xs lg:text-3xs lg:px-2" href="https://community.aiha.org/" target="_blank" title="Catalyst">Catalyst</a>
</li>
<li class="level-1 ">
<a class="item font-primary text-xs lg:text-3xs lg:px-2" href="https://www.aiha.org/consultants-directory" title="Find Consultants">Find Consultants</a>
</li>
<li class="level-1 ">
<a class="item font-primary text-xs lg:text-3xs lg:px-2" href="https://aiha.careerwebsite.com/" title="Job Board">Job Board</a>
</li>
<li class="level-1 ">
<a class="item font-primary text-xs lg:text-3xs lg:px-2" href="https://www.aiha.org/education/marketplace" title="Marketplace">Marketplace</a>
</li>
<li class="level-1 ">
<a class="item font-primary text-xs lg:text-3xs lg:px-2" href="https://www.aiha.org/membership/member-center" title="Member Center">Member Center</a>
</li>
<li class="level-1 ">
<a class="item font-primary text-xs lg:text-3xs lg:px-2" href="https://online-ams.aiha.org/amsssa/ssaauthmenu.show_top_menu" target="_blank" title="SIGN IN">SIGN IN</a>
</li>
</ul> <div class="relative c-header_action c-header_search flex items-center font-primary text-xs lg:text-3xs flex-wrap mb-4 lg:mb-0 lg:mr-5" role="search">
<svg class="icon mr-2 fill-current"><use xlink:href="#search"></use></svg>
<span class="mt-1">Search</span>
<form action="https://www.aiha.org/search/results" class="c-header_search-box">
<input name="q" placeholder="Search AIHA..." type="search"/>
</form>
</div>
<a class="c-header_action flex items-center font-primary text-xs lg:text-3xs mb-1 lg:mb-0 pl-4 py-2 font-medium pr-4" data-theme="blue" href="https://online-ams.aiha.org/amsssa/ssaauthmenu.show_top_menu" target="_blank">
<span class="text-white">Join Now</span>
<svg class="icon ml-2"><use xlink:href="#arrow-right"></use></svg>
</a>
</div>
<ul class="c-header_nav-bottom lg:mb-0 lg:flex lg:justify-end">
<li class="level-1 block relative mb-2 lg:mb-0 lg:px-4 lg:py-4 font-primary font-medium text-lg lg:text-xs has-dropdown ">
<a class="item " href="https://www.aiha.org/about-aiha" title="About AIHA">About AIHA</a>
<ul class="c-dropdown">
<li class="level-2 ">
<a class="item " href="https://www.aiha.org/about-aiha/aiha-brand-evolution" title="AIHA Brand Evolution">AIHA Brand Evolution</a>
</li>
<li class="level-2 ">
<a class="item " href="https://www.aiha.org/about-aiha/aiha-governance" title="AIHA Governance">AIHA Governance</a>
</li>
<li class="level-2 ">
<a class="item " href="https://theapplicantmanager.com/careers?co=ah" title="AIHA Job Opportunities">AIHA Job Opportunities</a>
</li>
<li class="level-2 ">
<a class="item " href="https://www.aiha.org/about-aiha/aiha-partnerships" title="AIHA Partnerships">AIHA Partnerships</a>
</li>
<li class="level-2 ">
<a class="item " href="https://www.aiha.org/about-aiha/aihas-senior-leadership-team" title="AIHA's Senior Leadership Team">AIHA's Senior Leadership Team</a>
</li>
<li class="level-2 ">
<a class="item " href="https://www.aiha.org/about-aiha/awards-and-opportunities" title="Awards and Nominations">Awards and Nominations</a>
</li>
<li class="level-2 ">
<a class="item " href="https://www.aiha.org/about-aiha/communication-center" title="Communication Center">Communication Center</a>
</li>
<li class="level-2 ">
<a class="item " href="https://www.aiha.org/advertising-sponsorships" title="Sponsorships and Advertising">Sponsorships and Advertising</a>
</li>
</ul>
<span class="c-mobile-submenu-toggle"></span> </li>
<li class="level-1 block relative mb-2 lg:mb-0 lg:px-4 lg:py-4 font-primary font-medium text-lg lg:text-xs has-dropdown ">
<a class="item " href="https://www.aiha.org/membership" title="Membership">Membership</a>
<ul class="c-dropdown">
<li class="level-2 ">
<a class="item " href="https://www.aiha.org/membership/catalyst" title="Catalyst">Catalyst</a>
</li>
<li class="level-2 ">
<a class="item " href="https://www.aiha.org/membership/advocacy" title="Government Relations &amp; Advocacy">Government Relations &amp; Advocacy</a>
</li>
<li class="level-2 ">
<a class="item " href="https://www.aiha.org/membership/member-center" title="Member Center">Member Center</a>
</li>
<li class="level-2 ">
<a class="item " href="https://www.aiha.org/membership/membership-faqs" title="Membership FAQ">Membership FAQ</a>
</li>
<li class="level-2 ">
<a class="item " href="https://www.aiha.org/membership/membership-options" title="Membership Options">Membership Options</a>
</li>
<li class="level-2 ">
<a class="item " href="https://www.aiha.org/membership/recruit-members" title="Recruit Members">Recruit Members</a>
</li>
<li class="level-2 ">
<a class="item " href="https://www.aiha.org/membership/renew-membership" title="Renew Membership">Renew Membership</a>
</li>
</ul>
<span class="c-mobile-submenu-toggle"></span> </li>
<li class="level-1 block relative mb-2 lg:mb-0 lg:px-4 lg:py-4 font-primary font-medium text-lg lg:text-xs has-dropdown ">
<a class="item " href="https://www.aiha.org/get-involved" title="Get Involved">Get Involved</a>
<ul class="c-dropdown">
<li class="level-2 ">
<a class="item " href="https://www.aiha.org/get-involved/aiha-content-channels" title="AIHA Content Channels">AIHA Content Channels</a>
</li>
<li class="level-2 ">
<a class="item " href="https://www.aiha.org/get-involved/aih-foundation" title="AIHFoundation">AIHFoundation</a>
</li>
<li class="level-2 ">
<a class="item " href="https://www.aiha.org/get-involved/aiha-guideline-foundation" title="AIHA Guideline Foundation">AIHA Guideline Foundation</a>
</li>
<li class="level-2 ">
<a class="item " href="https://www.aiha.org/get-involved/ambassador-program" title="Ambassador Program">Ambassador Program</a>
</li>
<li class="level-2 ">
<a class="item " href="https://www.aiha.org/get-involved/distinguished-lecturer-program" title="Distinguished Lecturer Program">Distinguished Lecturer Program</a>
</li>
<li class="level-2 ">
<a class="item " href="https://www.aiha.org/get-involved/local-sections" title="Local Sections">Local Sections</a>
</li>
<li class="level-2 ">
<a class="item " href="https://www.aiha.org/get-involved/mentoring-program" title="Mentoring Program">Mentoring Program</a>
</li>
<li class="level-2 ">
<a class="item " href="https://www.aiha.org/get-involved/open-calls" title="Open Calls">Open Calls</a>
</li>
<li class="level-2 ">
<a class="item " href="https://www.aiha.org/get-involved/safety-matters-center" title="Safety Matters Center">Safety Matters Center</a>
</li>
<li class="level-2 ">
<a class="item " href="https://www.aiha.org/get-involved/student-local-sections" title="Student Local Sections">Student Local Sections</a>
</li>
<li class="level-2 ">
<a class="item " href="https://www.aiha.org/get-involved/volunteer-groups/volunteer-committees-bodies-of-work" title="Volunteer Committees' Bodies of Work">Volunteer Committees' Bodies of Work</a>
</li>
<li class="level-2 ">
<a class="item " href="https://www.aiha.org/get-involved/volunteer-groups" title="Volunteer Groups">Volunteer Groups</a>
</li>
</ul>
<span class="c-mobile-submenu-toggle"></span> </li>
<li class="level-1 block relative mb-2 lg:mb-0 lg:px-4 lg:py-4 font-primary font-medium text-lg lg:text-xs has-dropdown ">
<a class="item " href="https://www.aiha.org/education" title="AIHA University">AIHA University</a>
<ul class="c-dropdown">
<li class="level-2 ">
<a class="item " href="https://www.aiha.org/education/aiha-university-bookstore" title="Bookstore">Bookstore</a>
</li>
<li class="level-2 ">
<a class="item " href="https://www.aiha.org/education/certificate-programs" title="Certificate Programs">Certificate Programs</a>
</li>
<li class="level-2 ">
<a class="item " href="https://www.aiha.org/education/ce-cm-credits" title="Continuing Education Credits &amp; Certification Maintenance">Continuing Education Credits &amp; Certification Maintenance</a>
</li>
<li class="level-2 ">
<a class="item " href="https://www.aiha.org/education/elearning" title="eLearning">eLearning</a>
</li>
<li class="level-2 ">
<a class="item " href="https://www.aiha.org/education/elibrary-subscription" title="eLibrary Subscription">eLibrary Subscription</a>
</li>
<li class="level-2 ">
<a class="item " href="https://www.aiha.org/education/face-to-face-training" title="Face-to-Face Training">Face-to-Face Training</a>
</li>
<li class="level-2 ">
<a class="item " href="https://www.aiha.org/education/frameworks" title="Frameworks">Frameworks</a>
</li>
<li class="level-2 ">
<a class="item " href="https://www.aiha.org/education/marketplace" title="Marketplace">Marketplace</a>
</li>
<li class="level-2 ">
<a class="item " href="https://learning.aiha.org" title="Online Classroom">Online Classroom</a>
</li>
<li class="level-2 ">
<a class="item " href="https://www.aiha.org/publications" title="Publications">Publications</a>
</li>
</ul>
<span class="c-mobile-submenu-toggle"></span> </li>
<li class="level-1 block relative mb-2 lg:mb-0 lg:px-4 lg:py-4 font-primary font-medium text-lg lg:text-xs has-dropdown ">
<a class="item " href="https://www.aiha.org/our-events" title="Events">Events</a>
<ul class="c-dropdown">
<li class="level-2 ">
<a class="item " href="https://www.aihceexp.org" target="_blank" title="AIHce EXP">AIHce EXP</a>
</li>
<li class="level-2 ">
<a class="item " href="https://www.aiha.org/our-events/future-leaders-institute" title="Future Leaders Institute">Future Leaders Institute</a>
</li>
<li class="level-2 ">
<a class="item " href="https://www.aiha.org/events" title="Calendar of Events">Calendar of Events</a>
</li>
</ul>
<span class="c-mobile-submenu-toggle"></span> </li>
<li class="level-1 block relative mb-2 lg:mb-0 lg:px-4 lg:py-4 font-primary font-medium text-lg lg:text-xs has-dropdown ">
<a class="item " href="https://www.aiha.org/ih-careers" title="IH/OEHS Careers">IH/OEHS Careers</a>
<ul class="c-dropdown">
<li class="level-2 ">
<a class="item " href="https://www.aiha.org/ih-careers/career-advantage" title="CareerAdvantage">CareerAdvantage</a>
</li>
<li class="level-2 ">
<a class="item " href="https://www.aiha.org/ih-careers/discover-industrial-hygiene" title="Discover IH">Discover IH</a>
</li>
<li class="level-2 ">
<a class="item " href="https://www.aiha.org/ih-careers/ih-professional-pathway" title="IH Professional Pathway">IH Professional Pathway</a>
</li>
</ul>
<span class="c-mobile-submenu-toggle"></span> </li>
<li class="level-1 block relative mb-2 lg:mb-0 lg:px-4 lg:py-4 font-primary font-medium text-lg lg:text-xs has-dropdown ">
<a class="item " href="https://www.aiha.org/publications" title="Publications">Publications</a>
<ul class="c-dropdown">
<li class="level-2 ">
<a class="item " href="https://www.aiha.org/publications/best-selling-publications" title="Best-Selling Publications">Best-Selling Publications</a>
</li>
<li class="level-2 ">
<a class="item " href="https://www.aiha.org/publications/core-competencies-for-the-practice-of-industrial-occupational-hygiene" title="Core Competencies for the Practice of Industrial Occupational Hygiene">Core Competencies for the Practice of Industrial Occupational Hygiene</a>
</li>
<li class="level-2 ">
<a class="item " href="https://www.aiha.org/publications/journal-of-occupational-andenvironmental-hygiene-joeh" title="Journal of Occupational and Environmental Hygiene (JOEH)">Journal of Occupational and Environmental Hygiene (JOEH)</a>
</li>
<li class="level-2 ">
<a class="item " href="https://www.aiha.org/publications/the-synergist" title="The Synergist">The Synergist</a>
</li>
</ul>
<span class="c-mobile-submenu-toggle"></span> </li>
<li class="level-1 block relative mb-2 lg:mb-0 lg:px-4 lg:py-4 font-primary font-medium text-lg lg:text-xs has-dropdown ">
<a class="item " href="https://www.aiha.org/public-resources" title="Public Resources">Public Resources</a>
<ul class="c-dropdown">
<li class="level-2 ">
<a class="item " href="https://www.aiha.org/public-resources/buyers-guide" title="Buyers Guide">Buyers Guide</a>
</li>
<li class="level-2 ">
<a class="item " href="https://www.aiha.org/public-resources/consultants-listing" title="Consultants Listing">Consultants Listing</a>
</li>
<li class="level-2 ">
<a class="item " href="https://www.aiha.org/public-resources/consumer-resources" title="Consumer Resources">Consumer Resources</a>
</li>
<li class="level-2 ">
<a class="item " href="https://www.aiha.org/publications/core-competencies-for-the-practice-of-industrial-occupational-hygiene" title="Core Competencies for the Practice of Industrial Occupational Hygiene">Core Competencies for the Practice of Industrial Occupational Hygiene</a>
</li>
<li class="level-2 ">
<a class="item " href="https://www.aiha.org/public-resources/consumer-resources/topics-of-interest/ih-apps-tools" title="IH Apps &amp; Tools">IH Apps &amp; Tools</a>
</li>
<li class="level-2 ">
<a class="item " href="https://www.aiha.org/education/marketplace" title="Marketplace">Marketplace</a>
</li>
<li class="level-2 ">
<a class="item " href="https://www.aiha.org/public-resources/newsletters-1" title="Newsletters">Newsletters</a>
</li>
<li class="level-2 ">
<a class="item " href="https://www.aiha.org/publications" title="Publications">Publications</a>
</li>
<li class="level-2 ">
<a class="item " href="https://www.aiha.org/public-resources/research-priorities" title="Research Priorities">Research Priorities</a>
</li>
<li class="level-2 ">
<a class="item " href="https://www.aiha.org/get-involved/safety-matters-center" title="Safety Matters Center">Safety Matters Center</a>
</li>
<li class="level-2 ">
<a class="item " href="https://www.aiha.org/public-resources/consumer-resources/topics-of-interest" title="Topics of Interest">Topics of Interest</a>
</li>
</ul>
<span class="c-mobile-submenu-toggle"></span> </li>
</ul> </nav>
</div>
</header>
<div class="c-billboard relative py-16 md:py-20 mb-10" data-theme="overlay">
<div class="c-billboard_bg w-full h-full absolute inset-0">
<figure class="c-image c-billboard_image w-full h-full bg-center">
<picture class="absolute top-0 left-0 w-full h-full" data-alt="Home Page Top Image2" data-css="absolute top-0 left-0 w-full h-full" data-iesrc="https://aiha-assets.sfo2.digitaloceanspaces.com/AIHA/uploads/Home-Page/_800x600_crop_center-center_75_none/HomePageTopImage2.jpg 1x, https://aiha-assets.sfo2.digitaloceanspaces.com/AIHA/uploads/Home-Page/_1600x1200_crop_center-center_75_none/HomePageTopImage2.jpg 2x" data-position="50% 50%" style="display: block; min-height: 1rem">
<source media="(min-width: 90em)" srcset="https://aiha-assets.sfo2.digitaloceanspaces.com/AIHA/uploads/Home-Page/_1600x600_crop_center-center_75_none/HomePageTopImage2.jpg 1x, https://aiha-assets.sfo2.digitaloceanspaces.com/AIHA/uploads/Home-Page/_3200x1200_crop_center-center_75_none/HomePageTopImage2.jpg 2x">
<source media="(min-width: 70em)" srcset="https://aiha-assets.sfo2.digitaloceanspaces.com/AIHA/uploads/Home-Page/_1200x600_crop_center-center_75_none/HomePageTopImage2.jpg 1x, https://aiha-assets.sfo2.digitaloceanspaces.com/AIHA/uploads/Home-Page/_2400x1200_crop_center-center_75_none/HomePageTopImage2.jpg 2x">
<source media="(min-width: 48em)" srcset="https://aiha-assets.sfo2.digitaloceanspaces.com/AIHA/uploads/Home-Page/_1000x600_crop_center-center_75_none/HomePageTopImage2.jpg 1x, https://aiha-assets.sfo2.digitaloceanspaces.com/AIHA/uploads/Home-Page/_2000x1200_crop_center-center_75_none/HomePageTopImage2.jpg 2x">
<source srcset="https://aiha-assets.sfo2.digitaloceanspaces.com/AIHA/uploads/Home-Page/_800x600_crop_center-center_75_none/HomePageTopImage2.jpg 1x, https://aiha-assets.sfo2.digitaloceanspaces.com/AIHA/uploads/Home-Page/_1600x1200_crop_center-center_75_none/HomePageTopImage2.jpg 2x">
<img alt="Home Page Top Image2" class="absolute top-0 left-0 w-full h-full" srcset="https://aiha-assets.sfo2.digitaloceanspaces.com/AIHA/uploads/Home-Page/_800x600_crop_center-center_75_none/HomePageTopImage2.jpg 1x, https://aiha-assets.sfo2.digitaloceanspaces.com/AIHA/uploads/Home-Page/_1600x1200_crop_center-center_75_none/HomePageTopImage2.jpg 2x" style="object-position: 50% 50%"/>
</source></source></source></source></picture>
</figure>
</div>
<div class="container relative flex flex-wrap items-center h-full justify-center text-center">
<div class="c-billboard_content">
<h1 class="h2"></h1><p> </p>
<p> </p>
<p> <strong><br/><br/><br/><br/>We. Are. AIHA.</strong></p>
<div class="c-billboard_body t-body-large"><p><strong>WHAT WE DO.</strong><br/></p>
<p>AIHA is the association for scientists and professionals committed to preserving and ensuring occupational and environmental health and safety (OEHS) in the workplace and community. We advance the profession by producing educational resources for members, connecting current and future industry leaders, and promoting the value of their practice to corporations and the general public.</p>
<p> </p>
<p> </p>
<p><strong>WHY IT MATTERS.</strong></p>
<p>Supporting the professional growth of our members protects the health and safety of workers, businesses, and the general public. Whether it is for every day health and safety issues in the workplace or during disasters…OEHS professionals change the world.</p>
<p><strong>Healthier Workplaces | A Healthier World</strong><br/></p></div>
<div class="flex flex-wrap justify-center text-center mt-8">
<a class="c-btn m-1 c-btn--primary " href="https://www.aiha.org/public-resources/consumer-resources/coronavirus_outbreak_resources" target="">
        URGENT: COVID-19 Resource Center
    </a>
<a class="c-btn m-1 c-btn--secondary " href="https://www.aiha.org/about-aiha/aiha-brand-evolution" target="">
        Introducing AIHA's Brand Evolution
    </a>
</div>
</div>
</div>
</div>
<div class="o-page ">
<main class="main o-page_content" id="main" role="main">
<section class="o-section o-section--text index-1">
<div class="c-textblock" data-theme="">
<div class="container is-narrow">
<div class="is-boxed has-border c-wysiwyg">
<blockquote><strong></strong>AIHA offices are open and staff is safe. If you need assistance, please do not hesitate to contact us through the usual channels.<br/></blockquote>
</div>
</div>
</div> </section>
<section class="o-section o-section--embed index-2">
<div class="container">
<iframe allow="accelerometer; autoplay; clipboard-write; encrypted-media; gyroscope; picture-in-picture" allowfullscreen="" frameborder="0" height="420" src="https://www.youtube.com/embed/ibcdMk3GgC4" width="800"></iframe>
</div> </section>
<section class="o-section o-section--text index-3">
<div class="c-textblock" data-theme="">
<div class="container is-narrow">
<div class=" c-wysiwyg">
<figure style="text-align: center;"><img data-image="1264452" src="https://aiha-assets.sfo2.digitaloceanspaces.com/AIHA/uploads/AIHA_PrimaryTag_RGB.png"/></figure><p>During this time, the best way to contact us is <a href="mailto:infonet@aiha.org" rel="noreferrer noopener" target="_blank">via email</a>, as we have limited staff manning the phones. However, rest assured, we will return all calls and respond to all emails.<br/><br/></p>
<figure><a href="https://www.aiha.org/public-resources/consumer-resources/coronavirus_outbreak_resources"><img data-image="967107" src="https://aiha-assets.sfo2.digitaloceanspaces.com/AIHA/uploads/Home-Page/HPadbanner_920x300_COVID-ResourceCenter.jpg"/></a></figure>
<p></p>
</div>
</div>
</div> </section>
<section class="o-section o-section--contentTeaser index-4">
<div class="container">
<div class="o-grid o-grid--3col justify-center">
<div class="o-grid_col mb-8">
<div class="c-icon-card flex flex-col items-center text-center mx-auto px-4 " data-theme="">
<div class="">
<div class="c-icon-card_icon relative flex justify-center items-center w-12 h-12 md:w-16 md:h-16 mb-8">
<!-- Generated by IcoMoon.io -->
<svg height="32" version="1.1" viewbox="0 0 32 32" width="32" xmlns="http://www.w3.org/2000/svg">
<title>man-woman</title>
<path d="M8 3c0 1.657-1.343 3-3 3s-3-1.343-3-3c0-1.657 1.343-3 3-3s3 1.343 3 3z"></path>
<path d="M26 3c0 1.657-1.343 3-3 3s-3-1.343-3-3c0-1.657 1.343-3 3-3s3 1.343 3 3z"></path>
<path d="M8 8h-6c-1.105 0-2 0.895-2 2v10h2v12h2.5v-12h1v12h2.5v-12h2v-10c0-1.105-0.895-2-2-2z"></path>
<path d="M30.469 16l1.531-1.109-4.165-6.441c-0.185-0.281-0.499-0.45-0.835-0.45h-8c-0.336 0-0.65 0.169-0.835 0.45l-4.165 6.441 1.531 1.109 3.458-4.487 1.202 2.804-4.191 7.683h3.833l0.667 10h2v-10h1v10h2l0.667-10h3.833l-4.191-7.683 1.202-2.804 3.458 4.487z"></path>
</svg>
</div>
</div>
<div class="c-image-card_box w-full ">
<a href="https://www.aiha.org/ih-careers/discover-industrial-hygiene/meet-the-ih-heroes" target=""> <h4 class="c-image-card_box-title mb-4"></h4><p>Students</p>
</a>
<div class="mb-4 c-wysiwyg">
<p>Wondering what career you want to get into? Why not think of a mission-focused STEM career? </p>
</div>
<a class="c-btn-ghost mb-2" href="https://www.aiha.org/ih-careers/discover-industrial-hygiene/meet-the-ih-heroes" target="">Become an IH Hero</a>
</div>
</div> </div>
<div class="o-grid_col mb-8">
<div class="c-icon-card flex flex-col items-center text-center mx-auto px-4 " data-theme="">
<div class="">
<div class="c-icon-card_icon relative flex justify-center items-center w-12 h-12 md:w-16 md:h-16 mb-8">
<!-- Generated by IcoMoon.io -->
<svg height="32" version="1.1" viewbox="0 0 36 32" width="36" xmlns="http://www.w3.org/2000/svg">
<title>users</title>
<path d="M24 24.082v-1.649c2.203-1.241 4-4.337 4-7.432 0-4.971 0-9-6-9s-6 4.029-6 9c0 3.096 1.797 6.191 4 7.432v1.649c-6.784 0.555-12 3.888-12 7.918h28c0-4.030-5.216-7.364-12-7.918z"></path>
<path d="M10.225 24.854c1.728-1.13 3.877-1.989 6.243-2.513-0.47-0.556-0.897-1.176-1.265-1.844-0.95-1.726-1.453-3.627-1.453-5.497 0-2.689 0-5.228 0.956-7.305 0.928-2.016 2.598-3.265 4.976-3.734-0.529-2.39-1.936-3.961-5.682-3.961-6 0-6 4.029-6 9 0 3.096 1.797 6.191 4 7.432v1.649c-6.784 0.555-12 3.888-12 7.918h8.719c0.454-0.403 0.956-0.787 1.506-1.146z"></path>
</svg>
</div>
</div>
<div class="c-image-card_box w-full ">
<a href="https://www.aiha.org/education" target=""> <h4 class="c-image-card_box-title mb-4"></h4><p>Professionals</p>
</a>
<div class="mb-4 c-wysiwyg">
<p>All the resources you ever thought you’d need to advance your career, one click away.</p>
</div>
<a class="c-btn-ghost mb-2" href="https://www.aiha.org/education" target="">Explore AIHA</a>
</div>
</div> </div>
<div class="o-grid_col mb-8">
<div class="c-icon-card flex flex-col items-center text-center mx-auto px-4 " data-theme="">
<div class="">
<div class="c-icon-card_icon relative flex justify-center items-center w-12 h-12 md:w-16 md:h-16 mb-8">
<!-- Generated by IcoMoon.io -->
<svg height="32" version="1.1" viewbox="0 0 32 32" width="32" xmlns="http://www.w3.org/2000/svg">
<title>book</title>
<path d="M28 4v26h-21c-1.657 0-3-1.343-3-3s1.343-3 3-3h19v-24h-20c-2.2 0-4 1.8-4 4v24c0 2.2 1.8 4 4 4h24v-28h-2z"></path>
<path d="M7.002 26v0c-0.001 0-0.001 0-0.002 0-0.552 0-1 0.448-1 1s0.448 1 1 1c0.001 0 0.001-0 0.002-0v0h18.997v-2h-18.997z"></path>
</svg>
</div>
</div>
<div class="c-image-card_box w-full ">
<a href="https://www.aiha.org/public-resources" target=""> <h4 class="c-image-card_box-title mb-4"></h4><p>Public Resources</p>
</a>
<div class="mb-4 c-wysiwyg">
<p>AIHA is here to help you and your loved ones stay healthy at work and in your community.</p>
</div>
<a class="c-btn-ghost mb-2" href="https://www.aiha.org/public-resources" target="">Find Help Here</a>
</div>
</div> </div>
</div>
</div> </section>
<section class="o-section o-section--imageAndText index-5">
<div class="c-image-text relative lg:flex flex-wrap " data-theme="cream">
<div class="c-image-text_box lg:w-3/5 md:flex flex-col justify-between px-6 py-8 md:p-12 mb-0">
<div class="max-w-lg">
<div class="t-caption mb-2 md:mb-4">Resources and Membership</div>
<h3 class="h1"></h3><p>Do your safety and health job better than ever.</p>
</div>
<div class="max-w-lg mt-16">
<div class="t-body-large mb-8">Whether you are an AIHA member seeking to access the Member Center, or a professional seeking free or affordable resources to help you execute the safety and health aspects of your job well, you’ve come to the right place.</div>
<div class="flex flex-wrap items-center">
<a class="c-cta-arrow inline-flex items-center mr-4" href="https://www.aiha.org/education" target="">
<span class="font-secondary font-medium md:text-lg uppercase leading-none tracking-wide mr-3">
            Professional Resources
        </span>
<svg class="w-4 h-4 md:w-5 md:h-5 fill-current">
<use xlink:href="#arrow-cta"></use>
</svg>
</a>
</div>
</div>
</div>
<div class="lg:w-2/5 relative">
<figure class="c-image c-image-on-image mb-0">
<picture class="lazy-image" data-alt="Home Page4" data-css="w-full h-full absolute top-0 left-0 object-cover" data-iesrc="https://aiha-assets.sfo2.digitaloceanspaces.com/AIHA/uploads/_800x800_fit_center-center_75_none/HomePage4.jpg 1x, https://aiha-assets.sfo2.digitaloceanspaces.com/AIHA/uploads/_1600x1600_fit_center-center_75_none/HomePage4.jpg 2x" data-position="50% 50%" style="display: block; min-height: 1rem">
<source media="(min-width: 48em)" srcset="https://aiha-assets.sfo2.digitaloceanspaces.com/AIHA/uploads/_1000x1000_fit_center-center_75_none/HomePage4.jpg 1x, https://aiha-assets.sfo2.digitaloceanspaces.com/AIHA/uploads/_2000x2000_fit_center-center_75_none/HomePage4.jpg 2x">
<source srcset="https://aiha-assets.sfo2.digitaloceanspaces.com/AIHA/uploads/_800x800_fit_center-center_75_none/HomePage4.jpg 1x, https://aiha-assets.sfo2.digitaloceanspaces.com/AIHA/uploads/_1600x1600_fit_center-center_75_none/HomePage4.jpg 2x">
</source></source></picture>
</figure>
</div>
</div>
</section>
<section class="o-section o-section--imageAndText index-6">
<div class="c-image-text relative lg:flex flex-wrap flex-row-reverse " data-theme="blue">
<div class="c-image-text_box lg:w-3/5 md:flex flex-col justify-between px-6 py-8 md:p-12 mt-0">
<div class="max-w-lg">
<div class="t-caption mb-2 md:mb-4">Protect and Inform</div>
<h3 class="h1"></h3><p>Protect against hazards in the workplace and your community.</p>
</div>
<div class="max-w-lg mt-16">
<div class="t-body-large mb-8">Are you contemplating a STEM career that is strongly mission-based? Or are you simply looking for resources (i.e., a consultant, fact sheets) related to hazardous conditions that may affect your health in the workplace or at home?</div>
<div class="flex flex-wrap items-center">
<a class="c-cta-arrow inline-flex items-center mr-4" href="https://www.aiha.org/public-resources/consumer-resources" target="">
<span class="font-secondary font-medium md:text-lg uppercase leading-none tracking-wide mr-3">
            Learn More
        </span>
<svg class="w-4 h-4 md:w-5 md:h-5 fill-current">
<use xlink:href="#arrow-cta"></use>
</svg>
</a>
</div>
</div>
</div>
<div class="lg:w-2/5 relative">
<figure class="c-image c-image-on-image mb-0">
<picture class="lazy-image" data-alt="Early Career Membership" data-css="w-full h-full absolute top-0 left-0 object-cover" data-iesrc="https://aiha-assets.sfo2.digitaloceanspaces.com/AIHA/uploads/_800x800_fit_center-center_75_none/Early-Career-Membership.jpg 1x, https://aiha-assets.sfo2.digitaloceanspaces.com/AIHA/uploads/_1600x1600_fit_center-center_75_none/Early-Career-Membership.jpg 2x" data-position="51.17% 73.93%" style="display: block; min-height: 1rem">
<source media="(min-width: 48em)" srcset="https://aiha-assets.sfo2.digitaloceanspaces.com/AIHA/uploads/_1000x1000_fit_center-center_75_none/Early-Career-Membership.jpg 1x, https://aiha-assets.sfo2.digitaloceanspaces.com/AIHA/uploads/_2000x2000_fit_center-center_75_none/Early-Career-Membership.jpg 2x">
<source srcset="https://aiha-assets.sfo2.digitaloceanspaces.com/AIHA/uploads/_800x800_fit_center-center_75_none/Early-Career-Membership.jpg 1x, https://aiha-assets.sfo2.digitaloceanspaces.com/AIHA/uploads/_1600x1600_fit_center-center_75_none/Early-Career-Membership.jpg 2x">
</source></source></picture>
</figure>
</div>
</div>
</section>
<section class="o-section o-section--contentTeaser index-7">
<div class="container">
<div class="o-grid o-grid--3col justify-center">
<div class="o-grid_col mb-8">
<div class="c-icon-card " data-theme="">
<a href="https://www.aiha.org/events" target="">
<figure class="c-image c-image-on-image mb-6">
<picture class="lazy-image" data-alt="Billboard News" data-css="w-full h-full" data-iesrc="https://aiha-assets.sfo2.digitaloceanspaces.com/AIHA/uploads/_500x300_crop_center-center_75_none/Billboard-News.jpg 1x, https://aiha-assets.sfo2.digitaloceanspaces.com/AIHA/uploads/_1000x600_crop_center-center_75_none/Billboard-News.jpg 2x" data-position="50.14% 53.88%" style="display: block; min-height: 1rem">
<source media="(min-width: 70em)" srcset="https://aiha-assets.sfo2.digitaloceanspaces.com/AIHA/uploads/_400x250_crop_center-center_75_none/Billboard-News.jpg 1x, https://aiha-assets.sfo2.digitaloceanspaces.com/AIHA/uploads/_800x500_crop_center-center_75_none/Billboard-News.jpg 2x">
<source media="(min-width: 48em)" srcset="https://aiha-assets.sfo2.digitaloceanspaces.com/AIHA/uploads/_300x200_crop_center-center_75_none/Billboard-News.jpg 1x, https://aiha-assets.sfo2.digitaloceanspaces.com/AIHA/uploads/_600x400_crop_center-center_75_none/Billboard-News.jpg 2x">
<source srcset="https://aiha-assets.sfo2.digitaloceanspaces.com/AIHA/uploads/_500x300_crop_center-center_75_none/Billboard-News.jpg 1x, https://aiha-assets.sfo2.digitaloceanspaces.com/AIHA/uploads/_1000x600_crop_center-center_75_none/Billboard-News.jpg 2x">
</source></source></source></picture>
</figure>
</a>
<div class="c-image-card_box w-full ">
<a href="https://www.aiha.org/events" target=""> <h4 class="c-image-card_box-title mb-4"></h4><p>Current Events</p>
</a>
<div class="mb-4 c-wysiwyg">
<p>Our Calendar of Events lists educational courses, meetings, and events of interest to industrial hygienists and OEHS professionals.</p>
</div>
<a class="c-btn-ghost mb-2" href="https://www.aiha.org/events" target="">Read More</a>
</div>
</div> </div>
<div class="o-grid_col mb-8">
<div class="c-icon-card " data-theme="">
<a href="https://www.aiha.org/blog" target="">
<figure class="c-image c-image-on-image mb-6">
<picture class="lazy-image" data-alt="Synergist NOW blog" data-css="w-full h-full" data-iesrc="https://aiha-assets.sfo2.digitaloceanspaces.com/AIHA/uploads/_500x300_crop_center-center_75_none/SynergistNOWblog.jpg 1x, https://aiha-assets.sfo2.digitaloceanspaces.com/AIHA/uploads/_1000x600_crop_center-center_75_none/SynergistNOWblog.jpg 2x" data-position="50% 50%" style="display: block; min-height: 1rem">
<source media="(min-width: 70em)" srcset="https://aiha-assets.sfo2.digitaloceanspaces.com/AIHA/uploads/_400x250_crop_center-center_75_none/SynergistNOWblog.jpg 1x, https://aiha-assets.sfo2.digitaloceanspaces.com/AIHA/uploads/_800x500_crop_center-center_75_none/SynergistNOWblog.jpg 2x">
<source media="(min-width: 48em)" srcset="https://aiha-assets.sfo2.digitaloceanspaces.com/AIHA/uploads/_300x200_crop_center-center_75_none/SynergistNOWblog.jpg 1x, https://aiha-assets.sfo2.digitaloceanspaces.com/AIHA/uploads/_600x400_crop_center-center_75_none/SynergistNOWblog.jpg 2x">
<source srcset="https://aiha-assets.sfo2.digitaloceanspaces.com/AIHA/uploads/_500x300_crop_center-center_75_none/SynergistNOWblog.jpg 1x, https://aiha-assets.sfo2.digitaloceanspaces.com/AIHA/uploads/_1000x600_crop_center-center_75_none/SynergistNOWblog.jpg 2x">
</source></source></source></picture>
</figure>
</a>
<div class="c-image-card_box w-full ">
<a href="https://www.aiha.org/blog" target=""> <h4 class="c-image-card_box-title mb-4"></h4><p>SynergistNOW</p>
</a>
<div class="mb-4 c-wysiwyg">
<p>A blog created and delivered by AIHA, offers ideas, insights, and perspectives on important topics affecting IH/OSH professionals.​​</p>
</div>
<a class="c-btn-ghost mb-2" href="https://www.aiha.org/blog" target="">Learn More</a>
</div>
</div> </div>
<div class="o-grid_col mb-8">
<div class="c-icon-card " data-theme="">
<a href="https://www.aiha.org/news" target="">
<figure class="c-image c-image-on-image mb-6">
<picture class="lazy-image" data-alt="Home Page1 Teaser" data-css="w-full h-full" data-iesrc="https://aiha-assets.sfo2.digitaloceanspaces.com/AIHA/uploads/_500x300_crop_center-center_75_none/HomePage1-Teaser.jpg 1x, https://aiha-assets.sfo2.digitaloceanspaces.com/AIHA/uploads/_1000x600_crop_center-center_75_none/HomePage1-Teaser.jpg 2x" data-position="50% 50%" style="display: block; min-height: 1rem">
<source media="(min-width: 70em)" srcset="https://aiha-assets.sfo2.digitaloceanspaces.com/AIHA/uploads/_400x250_crop_center-center_75_none/HomePage1-Teaser.jpg 1x, https://aiha-assets.sfo2.digitaloceanspaces.com/AIHA/uploads/_800x500_crop_center-center_75_none/HomePage1-Teaser.jpg 2x">
<source media="(min-width: 48em)" srcset="https://aiha-assets.sfo2.digitaloceanspaces.com/AIHA/uploads/_300x200_crop_center-center_75_none/HomePage1-Teaser.jpg 1x, https://aiha-assets.sfo2.digitaloceanspaces.com/AIHA/uploads/_600x400_crop_center-center_75_none/HomePage1-Teaser.jpg 2x">
<source srcset="https://aiha-assets.sfo2.digitaloceanspaces.com/AIHA/uploads/_500x300_crop_center-center_75_none/HomePage1-Teaser.jpg 1x, https://aiha-assets.sfo2.digitaloceanspaces.com/AIHA/uploads/_1000x600_crop_center-center_75_none/HomePage1-Teaser.jpg 2x">
</source></source></source></picture>
</figure>
</a>
<div class="c-image-card_box w-full ">
<a href="https://www.aiha.org/news" target=""> <h4 class="c-image-card_box-title mb-4"></h4><p>Featured News</p>
</a>
<div class="mb-4 c-wysiwyg">
<p>Industry-related news of relevance to industrial hygienists and occupational and environmental health and safety professionals.</p>
</div>
<a class="c-btn-ghost mb-2" href="https://www.aiha.org/news" target="">Read More</a>
</div>
</div> </div>
</div>
</div> </section>
<section class="o-section o-section--text index-8">
<div class="c-textblock" data-theme="">
<div class="container is-narrow">
<div class="is-boxed has-border c-wysiwyg">
<div class="o-grid o-grid--2col">
<div class="o-grid_col mb-10 md:mb-0">
<figure><img alt="" src="https://aiha-assets.sfo2.digitaloceanspaces.com/AIHA/uploads/MKTING-ONLY-Billboards/IAmIHsign.jpg"/></figure><p>Industrial Hygiene (IH) is a science and art devoted to the anticipation, recognition, evaluation, control, and confirmation of protection from those environmental factors or stresses arising in or from the workplace which may cause sickness, impaired health and well being, or significant discomfort among workers or among citizens of the community.</p>
<figure><a href="https://aiha.org/ih-careers/discover-industrial-hygiene/meet-the-ih-heroes" rel="noreferrer noopener" target="_blank"><img alt="" src="https://aiha-assets.sfo2.digitaloceanspaces.com/AIHA/uploads/MKTING-ONLY-Billboards/IH-Heroes-1024x234.jpg"/></a></figure>
</div>
<div class="o-grid_col mb-10 md:mb-0">
<h2>I Am IH</h2>
<p>In short, industrial hygienists and occupational health and safety science professionals come from all walks of life and pathways. What they all have in common is a commitment to protecting the health and safety of people where they work. They are the "invisible heroes" who make sure our friends, acquaintances, and loved ones come home safe every day.<br/></p>
<p>Consider industrial hygiene.<br/>Evolve your career.<br/>Advance the profession.<br/>Protect workers.<br/>Change the world.</p>
<p><a href="https://www.aiha.org/ih-careers/discover-industrial-hygiene"><strong>Discover the professional world of industrial hygiene today.</strong></a></p>
</div>
</div>
</div>
</div>
</div> </section>
<section class="o-section o-section--billboard index-9">
<div class="c-billboard relative py-16 md:py-20 mb-10" data-theme="overlay">
<div class="c-billboard_bg w-full h-full absolute inset-0">
<figure class="c-image c-billboard_image w-full h-full bg-center">
<picture class="absolute top-0 left-0 w-full h-full" data-alt="LAI MSP" data-css="absolute top-0 left-0 w-full h-full" data-iesrc="https://aiha-assets.sfo2.digitaloceanspaces.com/AIHA/uploads/MKTING-ONLY-Teasers/_800x600_crop_center-center_75_none/LAI-MSP.jpg 1x, https://aiha-assets.sfo2.digitaloceanspaces.com/AIHA/uploads/MKTING-ONLY-Teasers/_1600x1200_crop_center-center_75_none/LAI-MSP.jpg 2x" data-position="50% 50%" style="display: block; min-height: 1rem">
<source media="(min-width: 90em)" srcset="https://aiha-assets.sfo2.digitaloceanspaces.com/AIHA/uploads/MKTING-ONLY-Teasers/_1600x600_crop_center-center_75_none/LAI-MSP.jpg 1x, https://aiha-assets.sfo2.digitaloceanspaces.com/AIHA/uploads/MKTING-ONLY-Teasers/_3200x1200_crop_center-center_75_none/LAI-MSP.jpg 2x">
<source media="(min-width: 70em)" srcset="https://aiha-assets.sfo2.digitaloceanspaces.com/AIHA/uploads/MKTING-ONLY-Teasers/_1200x600_crop_center-center_75_none/LAI-MSP.jpg 1x, https://aiha-assets.sfo2.digitaloceanspaces.com/AIHA/uploads/MKTING-ONLY-Teasers/_2400x1200_crop_center-center_75_none/LAI-MSP.jpg 2x">
<source media="(min-width: 48em)" srcset="https://aiha-assets.sfo2.digitaloceanspaces.com/AIHA/uploads/MKTING-ONLY-Teasers/_1000x600_crop_center-center_75_none/LAI-MSP.jpg 1x, https://aiha-assets.sfo2.digitaloceanspaces.com/AIHA/uploads/MKTING-ONLY-Teasers/_2000x1200_crop_center-center_75_none/LAI-MSP.jpg 2x">
<source srcset="https://aiha-assets.sfo2.digitaloceanspaces.com/AIHA/uploads/MKTING-ONLY-Teasers/_800x600_crop_center-center_75_none/LAI-MSP.jpg 1x, https://aiha-assets.sfo2.digitaloceanspaces.com/AIHA/uploads/MKTING-ONLY-Teasers/_1600x1200_crop_center-center_75_none/LAI-MSP.jpg 2x">
<img alt="LAI MSP" class="absolute top-0 left-0 w-full h-full" srcset="https://aiha-assets.sfo2.digitaloceanspaces.com/AIHA/uploads/MKTING-ONLY-Teasers/_800x600_crop_center-center_75_none/LAI-MSP.jpg 1x, https://aiha-assets.sfo2.digitaloceanspaces.com/AIHA/uploads/MKTING-ONLY-Teasers/_1600x1200_crop_center-center_75_none/LAI-MSP.jpg 2x" style="object-position: 50% 50%"/>
</source></source></source></source></picture>
</figure>
</div>
<div class="container relative flex flex-wrap items-center h-full ">
<div class="c-billboard_content">
<h1 class="h3"></h1><p>AIHA and dBase Media Partnership</p>
<div class="c-billboard_body "><p>At a time when the term ‘Back to Work Safely’ was born and ‘PPE’ became a household acronym, the importance of occupational and environmental health and safety has never been better recognized. AIHA is partnering with dBase Media in 2021 to develop a video program highlighting the invaluable work industrial hygienists and occupational and environmental health and safety science professionals do to protect workers both on the job and in the community.</p></div>
<div class="flex flex-wrap mt-8">
<a class="c-btn m-1 c-btn--primary " href="https://www.aiha.org/press/aiha-dbase-media-video-partnership" target="">
        Learn more about this project
    </a>
</div>
</div>
</div>
</div> </section>
<section class="o-section o-section--contentTeaser index-10">
<div class="container">
<div class="o-grid o-grid--3col justify-center">
<div class="o-grid_col mb-8">
<div class="c-icon-card border border-smoke " data-theme="cream">
<div class="px-4 pt-4 md:px-6 md:pt-6">
<div class="c-icon-card_icon relative flex justify-center items-center w-12 h-12 md:w-16 md:h-16 mb-8">
<!-- Generated by IcoMoon.io -->
<svg height="32" version="1.1" viewbox="0 0 32 32" width="32" xmlns="http://www.w3.org/2000/svg">
<title>copy</title>
<path d="M20 8v-8h-14l-6 6v18h12v8h20v-24h-12zM6 2.828v3.172h-3.172l3.172-3.172zM2 22v-14h6v-6h10v6l-6 6v8h-10zM18 10.828v3.172h-3.172l3.172-3.172zM30 30h-16v-14h6v-6h10v20z"></path>
</svg>
</div>
</div>
<div class="c-image-card_box w-full p-4 p-6">
<a href="https://www.aiha.org/public-resources/consumer-resources/disaster-response-resource-center/mold-resource-center" target=""> <h4 class="c-image-card_box-title mb-4"></h4><p>Mold Resource Center</p>
</a>
<div class="mb-4 c-wysiwyg">
<p>When significant mold or other sewage contamination has occurred, it is recommended that business and homeowners seek professional guidance before attempting to clean large amounts of contaminated materials.</p>
</div>
<a class="c-btn-ghost mb-2" href="https://www.aiha.org/public-resources/consumer-resources/disaster-response-resource-center/mold-resource-center" target="">Read More</a>
</div>
</div> </div>
<div class="o-grid_col mb-8">
<div class="c-icon-card border border-smoke " data-theme="cream">
<div class="px-4 pt-4 md:px-6 md:pt-6">
<div class="c-icon-card_icon relative flex justify-center items-center w-12 h-12 md:w-16 md:h-16 mb-8">
<!-- Generated by IcoMoon.io -->
<svg height="32" version="1.1" viewbox="0 0 32 32" width="32" xmlns="http://www.w3.org/2000/svg">
<title>aid-kit</title>
<path d="M28 8h-6v-4c0-1.1-0.9-2-2-2h-8c-1.1 0-2 0.9-2 2v4h-6c-2.2 0-4 1.8-4 4v16c0 2.2 1.8 4 4 4h24c2.2 0 4-1.8 4-4v-16c0-2.2-1.8-4-4-4zM12 4h8v4h-8v-4zM24 22h-6v6h-4v-6h-6v-4h6v-6h4v6h6v4z"></path>
</svg>
</div>
</div>
<div class="c-image-card_box w-full p-4 p-6">
<a href="https://www.aiha.org/public-resources/consumer-resources/disaster-response-resource-center" target=""> <h4 class="c-image-card_box-title mb-4"></h4><p>Disaster Response Resource Center</p>
</a>
<div class="mb-4 c-wysiwyg">
<p>AIHA urges response and recovery workers and the public to guard against hazards during disaster response and recovery efforts. Some common hazards include downed power lines, carbon monoxide poisoning, exposures during flood and mold cleanup, and risk of structural collapse.</p>
</div>
<a class="c-btn-ghost mb-2" href="https://www.aiha.org/public-resources/consumer-resources/disaster-response-resource-center" target="">Read More</a>
</div>
</div> </div>
<div class="o-grid_col mb-8">
<div class="c-icon-card border border-smoke " data-theme="cream">
<div class="px-4 pt-4 md:px-6 md:pt-6">
<div class="c-icon-card_icon relative flex justify-center items-center w-12 h-12 md:w-16 md:h-16 mb-8">
<!-- Generated by IcoMoon.io -->
<svg height="32" version="1.1" viewbox="0 0 32 32" width="32" xmlns="http://www.w3.org/2000/svg">
<title>cogs</title>
<path d="M11.366 22.564l1.291-1.807-1.414-1.414-1.807 1.291c-0.335-0.187-0.694-0.337-1.071-0.444l-0.365-2.19h-2l-0.365 2.19c-0.377 0.107-0.736 0.256-1.071 0.444l-1.807-1.291-1.414 1.414 1.291 1.807c-0.187 0.335-0.337 0.694-0.443 1.071l-2.19 0.365v2l2.19 0.365c0.107 0.377 0.256 0.736 0.444 1.071l-1.291 1.807 1.414 1.414 1.807-1.291c0.335 0.187 0.694 0.337 1.071 0.444l0.365 2.19h2l0.365-2.19c0.377-0.107 0.736-0.256 1.071-0.444l1.807 1.291 1.414-1.414-1.291-1.807c0.187-0.335 0.337-0.694 0.444-1.071l2.19-0.365v-2l-2.19-0.365c-0.107-0.377-0.256-0.736-0.444-1.071zM7 27c-1.105 0-2-0.895-2-2s0.895-2 2-2 2 0.895 2 2-0.895 2-2 2zM32 12v-2l-2.106-0.383c-0.039-0.251-0.088-0.499-0.148-0.743l1.799-1.159-0.765-1.848-2.092 0.452c-0.132-0.216-0.273-0.426-0.422-0.629l1.219-1.761-1.414-1.414-1.761 1.219c-0.203-0.149-0.413-0.29-0.629-0.422l0.452-2.092-1.848-0.765-1.159 1.799c-0.244-0.059-0.492-0.109-0.743-0.148l-0.383-2.106h-2l-0.383 2.106c-0.251 0.039-0.499 0.088-0.743 0.148l-1.159-1.799-1.848 0.765 0.452 2.092c-0.216 0.132-0.426 0.273-0.629 0.422l-1.761-1.219-1.414 1.414 1.219 1.761c-0.149 0.203-0.29 0.413-0.422 0.629l-2.092-0.452-0.765 1.848 1.799 1.159c-0.059 0.244-0.109 0.492-0.148 0.743l-2.106 0.383v2l2.106 0.383c0.039 0.251 0.088 0.499 0.148 0.743l-1.799 1.159 0.765 1.848 2.092-0.452c0.132 0.216 0.273 0.426 0.422 0.629l-1.219 1.761 1.414 1.414 1.761-1.219c0.203 0.149 0.413 0.29 0.629 0.422l-0.452 2.092 1.848 0.765 1.159-1.799c0.244 0.059 0.492 0.109 0.743 0.148l0.383 2.106h2l0.383-2.106c0.251-0.039 0.499-0.088 0.743-0.148l1.159 1.799 1.848-0.765-0.452-2.092c0.216-0.132 0.426-0.273 0.629-0.422l1.761 1.219 1.414-1.414-1.219-1.761c0.149-0.203 0.29-0.413 0.422-0.629l2.092 0.452 0.765-1.848-1.799-1.159c0.059-0.244 0.109-0.492 0.148-0.743l2.106-0.383zM21 15.35c-2.402 0-4.35-1.948-4.35-4.35s1.948-4.35 4.35-4.35 4.35 1.948 4.35 4.35c0 2.402-1.948 4.35-4.35 4.35z"></path>
</svg>
</div>
</div>
<div class="c-image-card_box w-full p-4 p-6">
<a href="https://www.aiha.org/public-resources/consumer-resources/topics-of-interest/ih-apps-tools" target=""> <h4 class="c-image-card_box-title mb-4"></h4><p>IH Tools &amp; Apps</p>
</a>
<div class="mb-4 c-wysiwyg">
<p>The following software tools provide the practicing industrial hygienist with quick and easy access to the information necessary to evaluate exposure profiles and determine if the exposures are acceptable, not acceptable or if more data is needed to make the determination of acceptability.</p>
</div>
<a class="c-btn-ghost mb-2" href="https://www.aiha.org/public-resources/consumer-resources/topics-of-interest/ih-apps-tools" target="">Read More</a>
</div>
</div> </div>
</div>
</div> </section>
</main>
</div>
<footer class="c-footer container" role="contentinfo">
<div class="c-footer_inner border-t border-b py-12 mt-5 lg:mt-12 lg:flex justify-between items-start">
<div class="c-footer_info lg:flex">
<a class="c-footer_logo block mb-8 lg:mb-24 lg:mr-32" href="/" title="Back to Homepage">
<img alt="AIHA Logo" class="o-logo" src="https://aiha-assets.sfo2.digitaloceanspaces.com/AIHA/uploads/aiha-logo-footer.png"/>
</a>
<div class="c-footer_credits">
<div class="h5 leading-tight font-medium mb-4">AIHA</div>
<p>3141 Fairview Park Drive | Suite 777 | Falls Church, VA 22042 | <a href="tel:+17038498888">+1 703-849-8888</a></p>
</div>
</div>
<ul class="c-footer_social flex pt-8 lg:pt-0">
<li>
<a href="https://twitter.com/AIHA" target="_blank">
<span class="srd">Check us out on twitter.</span>
<svg class="w-8 h-8 mx-1"><use xlink:href="#social-twitter"></use></svg>
</a>
</li>
<li>
<a href="https://www.facebook.com/AIHAGlobal/" target="_blank">
<span class="srd">Check us out on facebook.</span>
<svg class="w-8 h-8 mx-1"><use xlink:href="#social-facebook"></use></svg>
</a>
</li>
<li>
<a href="https://www.linkedin.com/company/aiha/" target="_blank">
<span class="srd">Check us out on linked.</span>
<svg class="w-8 h-8 mx-1"><use xlink:href="#social-linked"></use></svg>
</a>
</li>
<li>
<a href="https://www.youtube.com/user/IHValue" target="_blank">
<span class="srd">Check us out on youtube.</span>
<svg class="w-8 h-8 mx-1"><use xlink:href="#social-youtube"></use></svg>
</a>
</li>
</ul> </div>
<ul class="c-footer_partners mb-0 flex flex-wrap items-center py-12">
<li class="mb-8 mb-0 pr-12 lg:pr-20">
<a href="/get-involved/aih-foundation" target="_blank">
<img alt="Partner 04" src="https://aiha-assets.sfo2.digitaloceanspaces.com/AIHA/uploads/partner-04.jpg"/>
</a>
</li>
<li class="mb-8 mb-0 pr-12 lg:pr-20">
<a href="https://www.aihaaccreditedlabs.org" target="_blank">
<img alt="Partner 01" src="https://aiha-assets.sfo2.digitaloceanspaces.com/AIHA/uploads/partner-01.jpg"/>
</a>
</li>
<li class="mb-8 mb-0 pr-12 lg:pr-20">
<a href="https://www.aihapat.org" target="_blank">
<img alt="PAT Programs" src="https://aiha-assets.sfo2.digitaloceanspaces.com/AIHA/uploads/partner-02.jpg"/>
</a>
</li>
<li class="mb-8 mb-0 pr-12 lg:pr-20">
<a href="https://www.aiharegistries.org" target="_blank">
<img alt="Partner 03" src="https://aiha-assets.sfo2.digitaloceanspaces.com/AIHA/uploads/partner-03.jpg"/>
</a>
</li>
<li class="mb-8 mb-0 pr-12 lg:pr-20">
<a href="https://www.productstewards.org" target="_blank">
<img alt="Partner 05" src="https://aiha-assets.sfo2.digitaloceanspaces.com/AIHA/uploads/partner-05.jpg"/>
</a>
</li>
<li class="mb-8 mb-0 pr-12 lg:pr-20">
<a href="https://www.aiha.org/education/publications/the-synergist" target="_blank">
<img alt="The Synergist Logo AIH Ablue" src="https://aiha-assets.sfo2.digitaloceanspaces.com/AIHA/uploads/TheSynergistLogo_AIHAblue.png"/>
</a>
</li>
<li class="mb-8 mb-0 pr-12 lg:pr-20">
<a href="https://www.backtoworksafely.org/" target="_blank">
<img alt="BTWS Icon Blue" src="https://aiha-assets.sfo2.digitaloceanspaces.com/AIHA/uploads/BTWSIcon_Blue.jpg"/>
</a>
</li>
<li class="mb-8 mb-0 pr-12 lg:pr-20">
<a href="https://www.oehscareers.org/" target="_blank">
<img alt="OEHS Careers Icon Blue" src="https://aiha-assets.sfo2.digitaloceanspaces.com/AIHA/uploads/OEHSCareersIcon_Blue.jpg"/>
</a>
</li>
<li class="mb-8 mb-0 pr-12 lg:pr-20">
<a href="https://www.workerhealthsafety.org/" target="_blank">
<img alt="WHS Icon Blue" src="https://aiha-assets.sfo2.digitaloceanspaces.com/AIHA/uploads/WHSIcon_Blue.jpg"/>
</a>
</li>
</ul>
<div class="c-footer_copy mt-6 flex flex-wrap justify-between">
<nav class="mb-5">
<span class="pl-0 font-primary text-3xs px-2">
                2021 — AIHA
            </span>
<ul class="inline">
<li class="level-1 inline">
<a class="item font-primary text-3xs px-2 underline" href="https://www.aiha.org/advertising-sponsorships" title="Advertising/Sponsorships">Advertising/Sponsorships</a>
</li>
<li class="level-1 inline">
<a class="item font-primary text-3xs px-2 underline" href="https://www.aiha.org/aiha-policies" title="AIHA Policies">AIHA Policies</a>
</li>
<li class="level-1 inline">
<a class="item font-primary text-3xs px-2 underline" href="https://www.aiha.org/copyright-social-media-disclaimer" title="Disclaimers">Disclaimers</a>
</li>
<li class="level-1 inline">
<a class="item font-primary text-3xs px-2 underline" href="https://www.aiha.org/contact-aiha" title="Contact AIHA">Contact AIHA</a>
</li>
<li class="level-1 inline">
<a class="item font-primary text-3xs px-2 underline" href="https://www.aiha.org/feedback" title="Feedback">Feedback</a>
</li>
<li class="level-1 inline">
<a class="item font-primary text-3xs px-2 underline" href="https://www.aiha.org/sitemap" target="_blank" title="Site Map">Site Map</a>
</li>
</ul>
</nav>
</div>
</footer>
<script type="text/javascript">
    adroll_adv_id = "3NCMUKUS5RATNDQ5JKFHGT";
    adroll_pix_id = "7SQSHPQ2I5EITMV5IG354J";

    (function () {
        var _onload = function(){
            if (document.readyState && !/loaded|complete/.test(document.readyState)){setTimeout(_onload, 10);return}
            if (!window.__adroll_loaded){__adroll_loaded=true;setTimeout(_onload, 50);return}
            var scr = document.createElement("script");
            var host = (("https:" == document.location.protocol) ? "https://s.adroll.com" : "http://a.adroll.com");
            scr.setAttribute('async', 'true');
            scr.type = "text/javascript";
            scr.src = host + "/j/roundtrip.js";
            ((document.getElementsByTagName('head') || [null])[0] ||
                document.getElementsByTagName('script')[0].parentNode).appendChild(scr);
        };
        if (window.addEventListener) {window.addEventListener('load', _onload, false);}
        else {window.attachEvent('onload', _onload)}
    }());
</script> <script>document.body.classList.remove('no-js');var baseUrl = "https://www.aiha.org/";</script>
<script src="/assets/js/index.js"></script>
<script type="text/javascript">var _userway_config = {account: 'FI3rOM4vjd'};</script>
<script src="https://cdn.userway.org/widget.js" type="text/javascript"></script>
<script type="application/ld+json">{"@context":"http://schema.org","@graph":[{"@type":"WebPage","author":{"@id":"https://www.aiha.org#identity"},"copyrightHolder":{"@id":"https://www.aiha.org#identity"},"copyrightYear":"2019","creator":{"@id":"https://www.aiha.org#creator"},"dateModified":"2021-01-06T20:37:43-05:00","datePublished":"2019-04-11T09:31:00-04:00","description":"AIHA is the association for scientists and professionals committed to preserving and ensuring OEHS in the workplace and community.","headline":"Homepage","image":{"@type":"ImageObject","url":"https://aiha-assets.sfo2.digitaloceanspaces.com/AIHA/uploads/_1200x630_crop_center-center_82_none/large-Share-Image.jpg?mtime=1591034865"},"inLanguage":"en-us","mainEntityOfPage":"https://www.aiha.org/","name":"Homepage","publisher":{"@id":"https://www.aiha.org#creator"},"url":"https://www.aiha.org/"},{"@id":"https://www.aiha.org#identity","@type":"LocalBusiness","address":{"@type":"PostalAddress","addressCountry":"US","addressLocality":"Falls Church","addressRegion":"VA","postalCode":"22042","streetAddress":"3141 Fairview Park Dr Suite 777"},"alternateName":"AIHA","description":"AIHA makes leading industrial hygienists and occupational and environmental health and safety professionals available to provide commentary and perspective on a variety of industrial hygiene topics and worker safety issues such as noise exposure, environmental issues, respiratory protection, ergonomics, nanotechnology, indoor air quality, and incident preparedness and response.","name":"AIHA","priceRange":"$","sameAs":["https://twitter.com/AIHA","https://www.facebook.com/AIHAGlobal/","https://www.linkedin.com/company/aiha/","https://www.youtube.com/user/IHValue","https://en.wikipedia.org/wiki/American_Industrial_Hygiene_Association"],"telephone":"703-849-8888","url":"https://www.aiha.org"},{"@id":"https://papertiger.com/#creator","@type":"ProfessionalService","name":"Paper Tiger","priceRange":"$","url":"https://papertiger.com/"},{"@type":"BreadcrumbList","description":"Breadcrumbs list","itemListElement":[{"@type":"ListItem","item":"https://www.aiha.org/","name":"Homepage","position":1}],"name":"Breadcrumbs"}]}</script></body>
</html>
