<html><head>
<title>Access Denied</title>
</head><body>
<h1>Access Denied</h1>
 
You don't have permission to access "http://www.aircanada.ca/" on this server.<p>
Reference #18.14302b17.1610588307.a5a0826f
</p></body>
</html>
