<html>
<!-- Copyright AirNav, LLC.  ALL RIGHTS RESERVED.  -->
<!-- DO NOT COPY THIS CODE WITHOUT PERMISSION.     -->
<!-- DO NOT MAKE DERIVATIVE WORKS.                 -->
<!-- If you are thinking of copying this code      -->
<!-- email contact@airnav.com for authorization.   -->
<head>
<title>AirNav: KPHN - St Clair County International Airport</title>
<meta content="text/html; charset=utf-8" http-equiv="Content-Type"/>
<meta content="Complete aeronautical information about St Clair County International Airport (Port Huron, MI, USA), including location, runways, taxiways, navaids, radio frequencies, FBO information, fuel prices, sunrise and sunset times, aerial photo, airport diagram." name="description"/>
<meta content="Port Huron" name="keywords"/>
<script type="text/javascript"><!--//--><![CDATA[//><!--

sfHover = function() {
        var sfEls = document.getElementById("navres").getElementsByTagName("LI");
        for (var i=0; i<sfEls.length; i++) {
                sfEls[i].onmouseover=function() {
                        this.className+=" sfhover";
                }
                sfEls[i].onmouseout=function() {
                        this.className=this.className.replace(new RegExp(" sfhover\\b"), "");
                }
        }
}
if (window.attachEvent) window.attachEvent("onload", sfHover);

//--><!]]></script>
<link href="//img.airnav.com/css/css2.css?v=0" rel="StyleSheet" type="text/css"/>
<link href="//img.airnav.com/css/airport.css?v=0" rel="StyleSheet" type="text/css"/>
<base target="_top"/>
</head>
<body bgcolor="#ffffff">
<table border="0" cellpadding="0" width="100%">
<tr valign="bottom">
<td align="left" height="60" valign="top">
<a href="/"><img alt="AirNav" border="0" height="60" src="//img.airnav.com/logo/header.gif?v=HTWA8Q" width="280"/></a>
</td>
<td> </td>
<td align="right" height="60" width="468">
<a href="/ad/click/ORXZlcmVzdDIwMTktMDE." onclick="_gaq.push(['_trackEvent', 'Banner', 'Everest2019-01', 'Click']);" target="_new"><img alt="Everest Fuels" border="0" height="60" src="//img.airnav.com/banners/Everest2019-01.jpg?v=QGEOJT" width="468"/></a>
</td>
</tr>
</table>
<table border="0" cellpadding="0" cellspacing="0" width="100%">
<tr><td width="20"> </td><td align="left">
<table border="0" cellpadding="0" cellspacing="0"><tr><td>
<div id="mainmenu">
<ul>
<li><a href="/airports/" id="airports">Airports</a>
</li>
<li><a href="/navaids/" id="navaids">Navaids</a>
</li>
<li><a href="/airspace/fix/" id="fix">Airspace Fixes</a>
</li>
<li><a href="/fuel/" id="fuel">Aviation Fuel</a>
</li>
<li><a href="/hotels/" id="hotels">Hotels</a>
</li>
<li><a href="/airboss/" id="airboss">AIRBOSS</a>
</li>
<li><a href="/iphoneapp/" id="iphoneapp">iPhone App</a>
</li>
<li><a href="https://www.airnav.com/members/login?return=//my.airnav.com/my" id="my">My AirNav</a>
</li>
</ul>
</div>
</td></tr></table>
</td></tr>
<tr><td bgcolor="#9999FF" width="20"> </td><td align="right" bgcolor="#9999FF" width="100%"><font size="-1">928 users online
 <a href="/members/login"><img alt="" border="0" height="10" src="//img.airnav.com/btn/mini/login.gif?v=JZBHPB" width="45"/></a></font> </td></tr>
</table>
<hr/>
<table border="0" cellpadding="5" cellspacing="0" width="100%">
<tr bgcolor="#CCCCFF" valign="middle">
<td align="center" nowrap=""><font face="Verdana, Arial, Helvetica, sans-serif"><font size="5"><b>KPHN</b></font></font></td>
<td bgcolor="#FFFFFF" width="99%"> <font face="Verdana, Arial, Helvetica, sans-serif" size="+1"><b>St Clair County International Airport</b><br/>Port Huron, Michigan, USA</font> </td>
<td bgcolor="#FFFFFF" nowrap=""><img alt="" border="0" height="36" src="//img.airnav.com/flag/s/us?v=HTWA6S" width="60"/></td>
</tr>
</table>
<hr/>
<table border="1" cellpadding="7" cellspacing="0" width="100%">
<tr><td bgcolor="#ccccff" nowrap="" width="20%">
<h3>GOING TO PORT HURON?</h3>
</td><td>
<ul id="navres">
<li> <table><tr><td align="center">
<a href="/hotels/selecthotel?airport=KPHN">
<img alt="" border="0" class="hotelbrands" height="30" src="//img.airnav.com/br/427e4d84-22fc-465d-b053-99535c15ff2a-120x60.gif" width="60"/>
<img alt="" border="0" class="hotelbrands" height="30" src="//img.airnav.com/br/85f20123-ac3f-4cc0-a8fc-d08fa6153dae-120x60.gif" width="60"/>
<img alt="" border="0" class="hotelbrands" height="30" src="//img.airnav.com/br/6e4d6ea3-433a-49b7-aeae-746fc262724f-120x60.gif" width="60"/>
<img alt="" border="0" class="hotelbrands" height="30" src="//img.airnav.com/br/f4cce2c7-610b-41fa-b75a-87a71afdb11f-120x60.gif" width="60"/>
<img alt="" border="0" class="hotelbrands" height="30" src="//img.airnav.com/br/4a572ba5-71ca-41b0-86e1-4e158064a74b-120x60.gif" width="60"/>
<img alt="" border="0" class="hotelbrands" height="30" src="//img.airnav.com/br/fe70a079-a9c7-4eff-bd4e-23d34fca7a73-120x60.gif" width="60"/>
<img alt="" border="0" class="hotelbrands" height="30" src="//img.airnav.com/br/94e48416-dcb6-4ca5-9bab-6e89cab71212-120x60.gif" width="60"/>
<img alt="" border="0" class="hotelbrands" height="30" src="//img.airnav.com/br/696dd5b6-786b-45e6-90c0-66764ae083ce-120x60.gif?v=QL8Y9W" width="60"/>
<img alt="" border="0" class="hotelbrands" height="30" src="//img.airnav.com/br/972e172b-7934-4ae6-b626-203bd9a0812a-120x60.gif" width="60"/>
<img alt="" border="0" class="hotelbrands" height="30" src="//img.airnav.com/br/96c60014-30fa-4b9d-8377-2594ad253639-120x60.gif" width="60"/>
<img alt="" border="0" class="hotelbrands" height="30" src="//img.airnav.com/br/d8b952f3-617e-4837-8fa7-f4171666a429-120x60.gif" width="60"/>
<img alt="" border="0" class="hotelbrands" height="30" src="//img.airnav.com/br/e9d9ccc7-1d1d-45a9-9786-9e8c352fefee-120x60.gif" width="60"/>
<img alt="" border="0" class="hotelbrands" height="30" src="//img.airnav.com/br/e1830d02-d624-4a33-a799-b61534e9ec2a-120x60.gif" width="60"/>
<img alt="" border="0" class="hotelbrands" height="30" src="//img.airnav.com/br/36ba8ae1-d9f9-4e4c-9c81-6655b09b3d9c-120x60.gif" width="60"/>
<img alt="" border="0" class="hotelbrands" height="30" src="//img.airnav.com/br/40d681e8-d02a-4e5f-9a8c-6907ea3707a2-120x60.gif?v=QI6Q2Y" width="60"/>
<img alt="" border="0" class="hotelbrands" height="30" src="//img.airnav.com/br/03ddd312-d86c-4c51-9787-3e9216f7c7cc-120x60.gif" width="60"/>
<img alt="" border="0" class="hotelbrands" height="30" src="//img.airnav.com/br/1fbc4bc8-a00b-401e-bee6-96cdafdb87c6-120x60.gif" width="60"/>
<img alt="" border="0" class="hotelbrands" height="30" src="//img.airnav.com/br/b4926316-c9e7-4404-a86f-51120b9930e5-120x60.gif" width="60"/>
<img alt="" border="0" class="hotelbrands" height="30" src="//img.airnav.com/br/e5700a21-b5a2-4f23-a4f3-0fb69c753ec4-120x60.gif" width="60"/>
<img alt="" border="0" class="hotelbrands" height="30" src="//img.airnav.com/br/5e2e1fc9-cee5-4f17-b43f-b848f546a45f-120x60.gif" width="60"/>
<img alt="" border="0" class="hotelbrands" height="30" src="//img.airnav.com/br/74e36229-f4a9-46c0-b96b-5de7687f7cd8-120x60.gif" width="60"/>
<img alt="" border="0" class="hotelbrands" height="30" src="//img.airnav.com/br/bc1cc239-95e4-446b-995d-a1cb6a88eba4-120x60.gif" width="60"/>
<img alt="" border="0" class="hotelbrands" height="30" src="//img.airnav.com/br/4d8b59af-cde3-4e3b-a25d-90d9d90f35b5-120x60.gif" width="60"/>
<img alt="" border="0" class="hotelbrands" height="30" src="//img.airnav.com/br/315df892-463c-4a5b-8905-c9f278a9ed65-120x60.gif?v=P0A6KB" width="60"/>
<img alt="" border="0" class="hotelbrands" height="30" src="//img.airnav.com/br/8cea013f-f4b5-453a-8314-55d64311819c-120x60.gif" width="60"/>
<img alt="" border="0" class="hotelbrands" height="30" src="//img.airnav.com/br/c18d75ba-cc88-49a4-89df-ce18434d3170-120x60.gif" width="60"/>
<img alt="" border="0" class="hotelbrands" height="30" src="//img.airnav.com/br/d04faf86-fa43-4f10-abea-47a384696380-120x60.gif" width="60"/>
<img alt="" border="0" class="hotelbrands" height="30" src="//img.airnav.com/br/73323f56-71cf-44ca-908f-e0ba1ffc337f-120x60.gif" width="60"/>
<img alt="" border="0" class="hotelbrands" height="30" src="//img.airnav.com/br/fecbbd42-f51a-4e5c-9182-862e6b3e0675-120x60.gif" width="60"/>
<img alt="" border="0" class="hotelbrands" height="30" src="//img.airnav.com/br/3fb71cb5-36f8-4cc9-ad0d-fa0198c40bf1-120x60.gif" width="60"/>
<img alt="" border="0" class="hotelbrands" height="30" src="//img.airnav.com/br/33c48d0f-e726-4b14-a5d2-f7474ca08e49-120x60.gif?v=P1YSR2" width="60"/>
<img alt="" border="0" class="hotelbrands" height="30" src="//img.airnav.com/br/683f5b22-91e9-42a1-9bfe-d41021117652-120x60.gif" width="60"/>
<img alt="" border="0" class="hotelbrands" height="30" src="//img.airnav.com/br/3a8f7a27-b31d-4871-b55c-e16f0c040620-120x60.gif" width="60"/>
<img alt="" border="0" class="hotelbrands" height="30" src="//img.airnav.com/br/baa638a5-9111-4e81-9098-f209182d33e0-120x60.gif?v=QHOESL" width="60"/>
<img alt="" border="0" class="hotelbrands" height="30" src="//img.airnav.com/br/5a0a4714-583a-451a-9b60-324f59500244-120x60.gif" width="60"/>
<img alt="" border="0" class="hotelbrands" height="30" src="//img.airnav.com/br/b24e4089-3767-459e-857a-1e86b1946475-120x60.gif" width="60"/>
<img alt="" border="0" class="hotelbrands" height="30" src="//img.airnav.com/br/41f3419e-066b-45c1-b47f-5bd59f8de42d-120x60.gif" width="60"/>
<img alt="" border="0" class="hotelbrands" height="30" src="//img.airnav.com/br/ee1cec52-66cf-432e-9f5e-9a1ba8f86f71-120x60.gif" width="60"/>
<img alt="" border="0" class="hotelbrands" height="30" src="//img.airnav.com/br/d7a7cce1-5972-4c9b-9d5a-229cd829f98b-120x60.gif" width="60"/>
<img alt="" border="0" class="hotelbrands" height="30" src="//img.airnav.com/br/36c401c5-51a1-46d5-a02f-dfe7ed968cff-120x60.gif?v=QK2FU8" width="60"/>
<img alt="" border="0" class="hotelbrands" height="30" src="//img.airnav.com/br/fe434041-9a60-4eb8-9128-a2028fcf261a-120x60.gif" width="60"/>
<img alt="" border="0" class="hotelbrands" height="30" src="//img.airnav.com/br/b88aadae-2d21-4a88-af0c-65bdf0d1ec08-120x60.gif" width="60"/>
<img alt="" border="0" class="hotelbrands" height="30" src="//img.airnav.com/br/312f1eee-e146-49dc-9a63-0d4552a2c854-120x60.gif" width="60"/>
<img alt="" border="0" class="hotelbrands" height="30" src="//img.airnav.com/br/1b84e312-c8df-4a8d-9db0-74c79dccc943-120x60.gif?v=PAQX9U" width="60"/>
<img alt="" border="0" class="hotelbrands" height="30" src="//img.airnav.com/br/f1572df8-c7e1-48b4-967d-f9d154e4558e-120x60.gif" width="60"/>
<img alt="" border="0" class="hotelbrands" height="30" src="//img.airnav.com/br/d2725e66-f192-47ab-90f0-ff6148a9de39-120x60.gif" width="60"/>
<img alt="" border="0" class="hotelbrands" height="30" src="//img.airnav.com/br/6692d352-f4d7-409d-b689-12ae1708a57d-120x60.gif?v=PYUHZZ" width="60"/>
<img alt="" border="0" class="hotelbrands" height="30" src="//img.airnav.com/br/1a62ca1e-0aec-45d2-bd8f-0990d52d8c9a-120x60.gif" width="60"/>
<img alt="" border="0" class="hotelbrands" height="30" src="//img.airnav.com/br/6b475253-f5e2-455f-86cb-b7de33d36e14-120x60.gif" width="60"/>
<img alt="" border="0" class="hotelbrands" height="30" src="//img.airnav.com/br/d7574dc3-6622-41b2-a9dc-01f0404195e0-120x60.gif?v=QBAO8T" width="60"/>
<img alt="" border="0" class="hotelbrands" height="30" src="//img.airnav.com/br/e44e047e-94b5-439d-97a4-27de0b258183-120x60.gif" width="60"/>
<img alt="" border="0" class="hotelbrands" height="30" src="//img.airnav.com/br/0bb98330-9c36-4a66-9e46-1c9c3ebe01c5-120x60.gif" width="60"/>
<img alt="" border="0" class="hotelbrands" height="30" src="//img.airnav.com/br/955e4d79-2cb1-482d-9f5e-b5146b69d191-120x60.gif" width="60"/>
<img alt="" border="0" class="hotelbrands" height="30" src="//img.airnav.com/br/374c4614-a416-4047-af11-28151c6c1d86-120x60.gif" width="60"/>
<img alt="" border="0" class="hotelbrands" height="30" src="//img.airnav.com/br/5a529d9d-ff92-40bb-a8a1-26a7289f8cd6-120x60.gif" width="60"/>
<img alt="" border="0" class="hotelbrands" height="30" src="//img.airnav.com/br/837ffcd4-80ab-4f6d-8b12-3c39bd2e55a7-120x60.gif" width="60"/>
<img alt="" border="0" class="hotelbrands" height="30" src="//img.airnav.com/br/b0bd6e4f-50f3-48a2-8b45-910087acbe50-120x60.gif" width="60"/>
</a><a></a></td></tr><tr><td align="center">
<font size="-1"><a href="/hotels/selecthotel?airport=KPHN">Reserve a <b>Hotel Room</b></a></font>
</td></tr></table>
<script>
var slideIndex = 0;
carousel("hotelbrands");

function carousel() {
    var c ='hotelbrands';
    var i;
    var x = document.getElementsByClassName(c);
    for (i = 0; i < x.length; i++) {
      x[i].style.display = "none"; 
    }
    slideIndex++;
    if (slideIndex > x.length) {slideIndex = 1} 
    x[slideIndex-1].style.display = "block"; 
    setTimeout(carousel, 500); // Change image every 2 seconds
}
</script>
</li>
</ul>
</td></tr></table>
<br/>
<table border="0" cellpadding="0" cellspacing="0">
<tr valign="top">
<td width="99%">
<h3>FAA INFORMATION EFFECTIVE 31 DECEMBER 2020</h3>
<a name="loc"></a><h3>Location</h3><table border="0" cellpadding="0" cellspacing="0">
<tr><td align="right" nowrap="">FAA Identifier: </td><td>PHN</td></tr>
<tr><td align="right" valign="top">Lat/Long: </td><td valign="top">42-54-39.5000N 082-31-43.9000W<br/>42-54.658333N 082-31.731667W<br/>42.9109722,-82.5288611<br/>(estimated)</td></tr>
<tr><td align="right" valign="top">Elevation: </td><td valign="top">650.1 ft. / 198.2 m (surveyed)</td></tr>
<tr><td align="right" valign="top">Variation: </td><td valign="top">07W (1985)</td></tr>
<tr><td align="right" nowrap="" valign="top">From city: </td><td valign="top">5 miles SW of PORT HURON, MI</td></tr>
<tr><td align="right" nowrap="" valign="top">Time zone: </td><td valign="top">UTC -5 (UTC -4 during Daylight Saving Time)</td></tr>
<tr><td align="right" nowrap="">Zip code: </td><td>48074</td></tr>
</table>
<a name="ops"></a><h3>Airport Operations</h3>
<table border="0" cellpadding="0" cellspacing="0">
<tr><td align="right" nowrap="" valign="top">Airport use: </td><td valign="top">Open to the public</td></tr>
<tr><td align="right" nowrap="">Activation date: </td><td>11/1951</td></tr>
<tr><td align="right" nowrap="">Control tower: </td><td>no</td></tr>
<tr><td align="right" valign="top">ARTCC: </td><td valign="top">CLEVELAND CENTER</td></tr>
<tr><td align="right" valign="top">FSS: </td><td valign="top">LANSING FLIGHT SERVICE STATION</td></tr>
<tr><td align="right" nowrap="" valign="top">NOTAMs facility: </td><td valign="top">PHN (NOTAM-D service available)</td></tr>
<tr><td align="right" valign="top">Attendance: </td><td valign="top">0800-DUSK<br/>ARPT UNATNDD MAJOR HOLIDAYS.</td></tr>
<tr><td align="right" nowrap="">Wind indicator: </td><td>lighted</td></tr>
<tr><td align="right" nowrap="">Segmented circle: </td><td>yes</td></tr>
<tr><td align="right" valign="top">Lights: </td><td valign="top">ACTVT HIRL RY 04/22, MIRL RY 10/28 REIL RYS 22, 10 &amp; 28 AND MALSR RY 04-CTAF.</td></tr>
<tr><td align="right" valign="top">Beacon: </td><td valign="top">white-green (lighted land airport)<br/>Operates sunset to sunrise.</td></tr>
<tr><td align="right" nowrap="" valign="top">Landing fee: </td><td valign="top">yes, LNDG FEE FOR COMMERCIAL &amp; CORPORATE ACFT WAIVED ON FUEL PURCHASE.</td></tr>
<tr><td align="right" nowrap="" valign="top">International operations: </td><td valign="top">international airport of entry </td></tr>
</table>
<a name="com"></a><h3>Airport Communications</h3>
<table border="0" cellpadding="0" cellspacing="0">
<tr><td align="right">CTAF/UNICOM: </td><td>123.05</td></tr>
<tr><td align="right" nowrap="" valign="top">WX AWOS-3: </td><td valign="top">118.375 (810-364-7787)</td></tr>
<tr><td align="right" nowrap="">SELFRIDGE APPROACH: </td><td>119.6</td></tr>
<tr><td align="right" nowrap="">SELFRIDGE DEPARTURE: </td><td>119.6</td></tr>
</table>
<ul>
<li class="rmk">APCH/DEP SVC PRVDD BY CLEVELAND ARTCC (ZOB) ON FREQS 126.525/285.525 (ALGONAC RCAG) WHEN SELFRIDGE APCH CTL CLSD.
</li></ul>
<a name="nav"></a><h3>Nearby radio navigation aids</h3>
<table border="0" cellpadding="0" cellspacing="0">
<tr><th align="left">NDB name</th><th>  </th><th>Hdg/Dist</th><th>  </th><th>Freq</th><th>  </th><th>Var</th><th>  </th><th align="left" colspan="2">ID</th></tr>
<tr><td><a href="/cgi-bin/navaid-info?type=NDB&amp;id=PH&amp;name=PHURN">PHURN</a></td><td></td><td>043/5.1</td><td></td><td>332</td><td></td><td>07W</td><td></td><td>PH</td><td> <font face="Monaco,Courier">.--. ....</font></td></tr>
</table>
<a name="svcs"></a><h3>Airport Services</h3>
<table border="0" cellpadding="0" cellspacing="0">
<tr><td align="right" nowrap="" valign="top">Fuel available: </td><td valign="top">100LL JET-A</td></tr>
<tr><td align="right" valign="top">Parking: </td><td valign="top">hangars and tiedowns</td></tr>
<tr><td align="right" nowrap="">Airframe service: </td><td>MAJOR</td></tr>
<tr><td align="right" nowrap="">Powerplant service: </td><td>MAJOR</td></tr>
<tr><td align="right" nowrap="">Bottled oxygen: </td><td>NONE</td></tr>
<tr><td align="right" nowrap="">Bulk oxygen: </td><td>NONE</td></tr>
</table>
<a name="rwys"></a><h3>Runway Information</h3>
<h4>Runway 4/22</h4>
<table border="0" cellpadding="0" cellspacing="0">
<tr><td align="right" valign="top">Dimensions: </td><td colspan="3" valign="top">5104 x 100 ft. / 1556 x 30 m</td></tr>
<tr><td align="right" valign="top">Surface: </td><td colspan="3" valign="top">asphalt/grooved, in fair condition</td></tr>
<tr><td align="right" nowrap="" valign="top">Weight bearing capacity: </td><td colspan="3" valign="top"><table border="0" cellpadding="0" cellspacing="0"><tr><td nowrap="" valign="top">Single wheel: </td><td valign="top">40.0</td></tr><tr><td nowrap="" valign="top">Double wheel: </td><td valign="top">55.0</td></tr><tr><td nowrap="" valign="top">Double tandem: </td><td valign="top">90.0</td></tr></table></td></tr>
<tr><td align="right" nowrap="" valign="top">Runway edge lights: </td><td colspan="3" valign="top">high intensity</td></tr>
<tr><td valign="top"></td><td valign="top"><b>RUNWAY 4</b></td><td>  </td><td valign="top"><b>RUNWAY 22</b></td></tr>
<tr><td align="right">Latitude: </td><td>42-54.277735N</td><td></td><td>42-54.956258N</td></tr>
<tr><td align="right">Longitude: </td><td>082-32.118865W</td><td></td><td>082-31.444738W</td></tr>
<tr><td align="right" valign="top">Elevation: </td><td valign="top">639.8 ft.</td><td></td><td valign="top">648.9 ft.</td></tr>
<tr><td align="right" nowrap="">Traffic pattern: </td><td>left</td><td></td><td>left</td></tr>
<tr><td align="right" nowrap="" valign="top">Runway heading: </td><td valign="top">043 magnetic, 036 true</td><td></td><td valign="top">223 magnetic, 216 true</td></tr>
<tr><td align="right" valign="top">Markings: </td><td valign="top">precision, in fair condition</td><td></td><td valign="top">precision, in fair condition</td></tr>
<tr><td align="right" nowrap="" valign="top">Visual slope indicator: </td><td valign="top">4-light PAPI on left (3.00 degrees glide path)</td><td></td><td valign="top">4-light PAPI on left (3.00 degrees glide path)</td></tr>
<tr><td align="right" nowrap="" valign="top">Approach lights: </td><td valign="top">MALSR: 1,400 foot medium intensity approach lighting system with runway alignment indicator lights</td><td></td><td valign="top"></td></tr>
<tr><td align="right" nowrap="">Runway end identifier lights: </td><td>no</td><td></td><td>yes</td></tr>
<tr><td align="right" nowrap="" valign="top">Touchdown point: </td><td valign="top">yes, no lights</td><td></td><td valign="top">yes, no lights</td></tr>
<tr><td align="right" nowrap="">Instrument approach: </td><td>ILS</td><td></td><td></td></tr>
<tr><td align="right" valign="top">Obstructions: </td><td valign="top">43 ft. tree, 220 ft. from runway, 494 ft. left of centerline</td><td></td><td valign="top">99 ft. trees, 1655 ft. from runway, 240 ft. right of centerline, 14:1 slope to clear</td></tr>
</table>
<h4>Runway 10/28</h4>
<table border="0" cellpadding="0" cellspacing="0">
<tr><td align="right" valign="top">Dimensions: </td><td colspan="3" valign="top">4000 x 75 ft. / 1219 x 23 m</td></tr>
<tr><td align="right" valign="top">Surface: </td><td colspan="3" valign="top">asphalt, in fair condition</td></tr>
<tr><td align="right" nowrap="" valign="top">Weight bearing capacity: </td><td colspan="3" valign="top"><table border="0" cellpadding="0" cellspacing="0"><tr><td nowrap="" valign="top">Single wheel: </td><td valign="top">16.0</td></tr></table></td></tr>
<tr><td align="right" nowrap="" valign="top">Runway edge lights: </td><td colspan="3" valign="top">medium intensity</td></tr>
<tr><td valign="top"></td><td valign="top"><b>RUNWAY 10</b></td><td>  </td><td valign="top"><b>RUNWAY 28</b></td></tr>
<tr><td align="right">Latitude: </td><td>42-54.736168N</td><td></td><td>42-54.681945N</td></tr>
<tr><td align="right">Longitude: </td><td>082-32.112327W</td><td></td><td>082-31.219580W</td></tr>
<tr><td align="right" valign="top">Elevation: </td><td valign="top">643.2 ft.</td><td></td><td valign="top">650.1 ft.</td></tr>
<tr><td align="right" nowrap="">Traffic pattern: </td><td>left</td><td></td><td>left</td></tr>
<tr><td align="right" nowrap="" valign="top">Runway heading: </td><td valign="top">102 magnetic, 095 true</td><td></td><td valign="top">282 magnetic, 275 true</td></tr>
<tr><td align="right" valign="top">Markings: </td><td valign="top">nonprecision, in fair condition</td><td></td><td valign="top">nonprecision, in fair condition</td></tr>
<tr><td align="right" nowrap="" valign="top">Visual slope indicator: </td><td valign="top">4-light PAPI on left (3.00 degrees glide path)</td><td></td><td valign="top">4-light PAPI on left (3.50 degrees glide path)</td></tr>
<tr><td align="right" nowrap="">Runway end identifier lights: </td><td>yes</td><td></td><td>yes</td></tr>
<tr><td align="right" nowrap="" valign="top">Touchdown point: </td><td valign="top">yes, no lights</td><td></td><td valign="top">yes, no lights</td></tr>
<tr><td align="right" valign="top">Obstructions: </td><td valign="top">69 ft. trees, 1380 ft. from runway, 17:1 slope to clear</td><td></td><td valign="top">84 ft. trees, 714 ft. from runway, 270 ft. right of centerline, 6:1 slope to clear</td></tr>
</table>
<h3>Airport Ownership and Management from official FAA records</h3>
<table border="0" cellpadding="0" cellspacing="0">
<tr><td align="right">Ownership: </td><td>Publicly-owned</td></tr>
<tr><td align="right" valign="top">Owner: </td><td valign="top">SAINT CLAIR COUNTY<br/>201 MCMORRAN BLVD<br/>PORT HURON, MI 48060-4006<br/>Phone 810-364-6890</td></tr>
<tr><td align="right" valign="top">Manager: </td><td valign="top">KATHY REAUME<br/>177 ASH DR<br/>KIMBALL, MI 48074-4403<br/>Phone 810-364-6890</td></tr>
</table>
<a name="stats"></a><h3>Airport Operational Statistics</h3>
<table border="0" cellpadding="0" cellspacing="0"><tr>
<td valign="top"><table border="0" cellpadding="0" cellspacing="0"><tr valign="bottom"><td align="right" valign="bottom">Aircraft based on the field:</td><td> </td><td align="right" valign="bottom">67</td></tr><tr valign="bottom"><td align="right" valign="bottom">Single engine airplanes:</td><td> </td><td align="right" valign="bottom">59</td></tr><tr valign="bottom"><td align="right" valign="bottom">Multi engine airplanes:</td><td> </td><td align="right" valign="bottom">5</td></tr><tr valign="bottom"><td align="right" valign="bottom">Jet airplanes:</td><td> </td><td align="right" valign="bottom">3</td></tr></table></td><td>  </td><td bgcolor="#999999" width="1"><img height="1" src="//img.airnav.com/1dot.gif" width="1"/></td><td>  </td><td valign="top"><table border="0" cellpadding="0" cellspacing="0">
<tr valign="bottom"><td align="center" colspan="2" valign="bottom">Aircraft operations: avg 75/day<font size="-1"> *</font></td></tr><tr><td align="right" valign="top">73% </td><td valign="top">transient general aviation</td></tr><tr><td align="right" valign="top">25% </td><td valign="top">local general aviation</td></tr><tr><td align="right" valign="top">2% </td><td valign="top">military</td></tr><tr><td colspan="2"><font size="-1">* for 12-month period ending 31 December 2019</font></td></tr></table></td></tr></table>
<a name="notes"></a><h3>Additional Remarks</h3>
<table border="0" cellpadding="0" cellspacing="2">
<tr><td class="rmk" valign="top">- </td><td class="rmk" valign="top">DEER &amp; BIRDS ON &amp; INVOF ARPT.</td></tr>
<tr><td class="rmk" valign="top">- </td><td class="rmk" valign="top">TRANS ATLANTIC FLIGHTS MUST NOTIFY US CUSTOMS AT 810-985-9541 ONE HR PRIOR TO ENTRY INTO THE US. NOTIFY  US DEPT OF AGRICULTURE AT 810-985-6126 &amp; AMGR AT 810-364-6890 24 HRS IN ADVANCE FOR DISPOSAL OF ACFT INTERNATIONAL TRASH.</td></tr>
<tr><td class="rmk" valign="top">- </td><td class="rmk" valign="top">DETROIT RCO 122.55 (LANSING RADIO)</td></tr>
<tr><td class="rmk" valign="top">- </td><td class="rmk" valign="top">FOR CD CTC SELFRIDGE APCH AT 586-239-5706, WHEN APCH CLSD CTC CLEVELAND ARTCC AT 440-774-0224, IF UNA CTC 440-774-0490.</td></tr>
</table>
<a name="ifr"></a><h3>Instrument Procedures</h3>
<font size="-1">NOTE: All procedures below are presented as PDF files. If you need a reader for these files, you should <a href="/depart?http://www.adobe.com/products/acrobat/readstep2.html" target="adobereader">download</a> the free Adobe Reader.<p><strong>NOT FOR NAVIGATION</strong>. Please procure official charts for flight.<br/>FAA instrument procedures published for use from 31 December 2020 at 0901Z to 28 January 2021 at 0900Z.</p></font>
<table border="0" cellpadding="0" cellspacing="0">
<tr><th align="left" colspan="3"> <br/>IAPs - Instrument Approach Procedures</th></tr>
<tr>
<td>ILS OR LOC RWY 04</td><td>  </td>
<td nowrap=""><a href="/depart?http://aeronav.faa.gov/d-tpp/2014/05445IL4.PDF" target="ifrproc">download</a> <font size="-1">(286KB)</font></td></tr><tr>
<td>RNAV (GPS) RWY 04 <b>**CHANGED**</b></td><td>  </td>
<td nowrap=""><a href="/depart?http://aeronav.faa.gov/d-tpp/2014/05445R4.PDF" target="ifrproc">download</a> <font size="-1">(254KB)</font></td></tr><tr>
<td>RNAV (GPS) RWY 22 <b>**CHANGED**</b></td><td>  </td>
<td nowrap=""><a href="/depart?http://aeronav.faa.gov/d-tpp/2014/05445R22.PDF" target="ifrproc">download</a> <font size="-1">(221KB)</font></td></tr><tr>
<td>NDB RWY 04</td><td>  </td>
<td nowrap=""><a href="/depart?http://aeronav.faa.gov/d-tpp/2014/05445N4.PDF" target="ifrproc">download</a> <font size="-1">(243KB)</font></td></tr>
<tr>
<td>NOTE: Special Alternate Minimums apply</td><td>  </td>
<td nowrap=""><a href="/depart?http://aeronav.faa.gov/d-tpp/2014/EC1ALT.PDF" target="ifrproc">download</a></td></tr>
<tr>
<td>NOTE: Special Take-Off Minimums/Departure Procedures apply</td><td>  </td>
<td nowrap=""><a href="/depart?http://aeronav.faa.gov/d-tpp/2014/EC1TO.PDF" target="ifrproc">download</a> <font size="-1">(122KB)</font></td></tr>
</table>
<p>Other nearby airports with instrument procedures:</p>
<a href="/airport/57D">57D</a> - Ray Community Airport (19 nm SW)<br/>
<a href="/airport/D98">D98</a> - Romeo State Airport (21 nm W)<br/>
<a href="/airport/KMTC">KMTC</a> - Selfridge Air National Guard Base (22 nm SW)<br/>
<a href="/airport/D95">D95</a> - Dupont-Lapeer Airport (34 nm W)<br/>
<a href="/airport/77G">77G</a> - Marlette Township Airport (34 nm NW)<br/>
</td>
<td> </td>
<td width="240">
<table border="0" cellpadding="0" cellspacing="0" width="240"><tr><td align="center">
<font size="-2">
<a href="#loc">Loc</a> | <a href="#ops">Ops</a> | <a href="#rwys">Rwys</a> | <a href="#ifr">IFR</a> | <a href="#biz">FBO</a> | <a href="#links">Links</a><br/>
<a href="#com">Com</a> | <a href="#nav">Nav</a> | <a href="#svcs">Svcs</a> | <a href="#stats">Stats</a> | <a href="#notes">Notes</a>
</font>
</td></tr>
</table>
<img alt="Area around KPHN (St Clair County International Airport)" border="0" height="200" src="//img.airnav.com/sm/01600?v=JPOX41" width="240"/><br/> <br/>
<font size="-1">
Road maps at:
<a href="http://www.mapquest.com/maps/map.adp?latlongtype=decimal&amp;zoom=6&amp;latitude=42.910972&amp;longitude=-82.528861&amp;name=KPHN" target="airport_maps">MapQuest</a>
<a href="http://www.bing.com/maps/?sp=aN.42.910972_-82.528861_KPHN&amp;lvl=14" target="airport_maps">Bing</a>
<a href="http://maps.google.com/maps?ll=42.910972%2C-82.528861&amp;spn=0.0197,0.0197" target="airport_maps">Google</a>
</font>
<br/> <br/>
<table border="0" cellpadding="2" cellspacing="0" width="100%">
<tr class="part_title"><th align="left" bgcolor="#ccccff">Aerial photo</th></tr>
<tr class="part_body"><td bgcolor="#ffffff">
<font size="-2">
<b>WARNING:</b> Photo may not be current or correct<br/>
<img alt="Aerial photo of KPHN (St Clair County International Airport)" border="0" height="180" src="//img.airnav.com/ap/01600.jpg?v=HTW7H0" width="240"/>
<hr/>
Do you have a better or more recent aerial photo of St Clair County International Airport that you would like to share?  If so, please <b><a href="/airports/submitphoto.html?id=KPHN">send us your photo</a></b>.<br/>
<br/> <br/>
</font></td></tr>
</table>
<table border="0" cellpadding="2" cellspacing="0" width="100%">
<tr class="part_title"><th align="left" bgcolor="#ccccff">Sectional chart</th></tr>
<tr class="part_body"><td bgcolor="#ffffff">
<a href="http://www.airnav.com/depart?http://www.vfrmap.com/?type=vfrc&amp;lat=42.911&amp;lon=-82.529&amp;zoom=10&amp;api_key=763xxE1MJHyhr48DlAP2qQ" target="vfrmap"><img src="http://vfrmap.com/api?req=map&amp;type=sectc&amp;lat=42.910972&amp;lon=-82.528861&amp;zoom=10&amp;width=240&amp;height=240&amp;api_key=763xxE1MJHyhr48DlAP2qQ"/></a>
<br/> <br/>
</td></tr>
</table>
<table border="0" cellpadding="2" cellspacing="0" width="100%">
<tr class="part_title"><th align="left" bgcolor="#ccccff">Airport distance calculator</th></tr>
<tr class="part_body"><td bgcolor="#ffffff">
<form action="/airport/KPHN" method="POST">
<font size="-1">Flying to St Clair County International Airport?
Find the distance to fly.</font>
<p align="center">From <input maxlength="4" name="distance_from" size="5"/>
to KPHN<br/>
<input alt="Calculate Distance" border="0" id="calculatedistance" name="calculatedistance" src="//img.airnav.com/btn/calculate-distance.gif?v=HTW9TQ" type="image" value=""/></p>
</form>
</td></tr>
</table>
<table border="0" cellpadding="2" cellspacing="0" width="100%">
<tr class="part_title"><th align="left" bgcolor="#ccccff">Sunrise and sunset</th></tr>
<tr class="part_body"><td bgcolor="#ffffff">
<div align="right"><font face="Verdana, Arial, Helvetica, sans-serif" size="1"><i>Times for 12-Jan-2021</i></font></div>
<table border="0" cellpadding="0" cellspacing="0" width="100%">
<tr><th></th><th> </th><th><font face="Verdana, Arial, Helvetica, sans-serif" size="1">Local<br/>(UTC-5)</font></th><th> </th><th><font face="Verdana, Arial, Helvetica, sans-serif" size="1">Zulu<br/>(UTC)</font></th></tr>
<tr><td><font face="Verdana, Arial, Helvetica, sans-serif" size="1">Morning civil twilight</font></td><td></td><td align="center"><font face="Verdana, Arial, Helvetica, sans-serif" size="1">07:29</font></td><td></td><td align="center"><font face="Verdana, Arial, Helvetica, sans-serif" size="1">12:29</font></td></tr>
<tr><td><font face="Verdana, Arial, Helvetica, sans-serif" size="1">Sunrise</font></td><td></td><td align="center"><font face="Verdana, Arial, Helvetica, sans-serif" size="1">08:01</font></td><td></td><td align="center"><font face="Verdana, Arial, Helvetica, sans-serif" size="1">13:01</font></td></tr>
<tr><td><font face="Verdana, Arial, Helvetica, sans-serif" size="1">Sunset</font></td><td></td><td align="center"><font face="Verdana, Arial, Helvetica, sans-serif" size="1">17:16</font></td><td></td><td align="center"><font face="Verdana, Arial, Helvetica, sans-serif" size="1">22:16</font></td></tr>
<tr><td><font face="Verdana, Arial, Helvetica, sans-serif" size="1">Evening civil twilight</font></td><td></td><td align="center"><font face="Verdana, Arial, Helvetica, sans-serif" size="1">17:48</font></td><td></td><td align="center"><font face="Verdana, Arial, Helvetica, sans-serif" size="1">22:48</font></td></tr>
</table>
</td></tr>
</table>
<br/>
<table border="0" cellpadding="2" cellspacing="0" width="100%">
<tr class="part_title"><th align="left" bgcolor="#ccccff">Current date and time</th></tr>
<tr class="part_body"><td bgcolor="#ffffff">
<table border="0" cellpadding="0" cellspacing="0" width="100%">
<tr valign="top"><th align="left"><font face="Verdana, Arial, Helvetica, sans-serif" size="1">Zulu (UTC)  </font></th><td align="right"><font face="Verdana, Arial, Helvetica, sans-serif" size="1">13-Jan-2021 03:49:18</font></td></tr>
<tr valign="top"><th align="left"><font face="Verdana, Arial, Helvetica, sans-serif" size="1">Local (UTC-5)  </font></th><td align="right"><font face="Verdana, Arial, Helvetica, sans-serif" size="1">12-Jan-2021 22:49:18</font></td></tr>
</table>
</td></tr>
</table>

    <br/>
<table border="0" cellpadding="2" cellspacing="0" width="100%">
<tr class="part_title"><th align="left" bgcolor="#ccccff">METAR</th></tr>
<tr class="part_body"><td bgcolor="#ffffff">
<table border="0" cellspacing="0">
<tr><td align="left" nowrap="" valign="top"><font face="Verdana, Arial, Helvetica, sans-serif" size="1"><b>KPHN </b></font></td><td valign="top"><font face="Verdana, Arial, Helvetica, sans-serif" size="1">130335Z AUTO 00000KT 4SM BR OVC016 M01/M02 A3003 RMK AO2
</font></td></tr>
<tr><td align="left" nowrap="" valign="top"><font face="Verdana, Arial, Helvetica, sans-serif" size="1"><b><a href="/airport/CYZR">CYZR</a> </b><br/>11nm NE </font></td><td valign="top"><font face="Verdana, Arial, Helvetica, sans-serif" size="1">130300Z AUTO 22006KT 4SM BR OVC022 M01/M02 A3001 RMK SLP176
</font></td></tr>
</table>
</td></tr>
</table>
<table border="0" cellpadding="2" cellspacing="0" width="100%">
<tr class="part_title"><th align="left" bgcolor="#ccccff">TAF</th></tr>
<tr class="part_body"><td bgcolor="#ffffff">
<table border="0" cellspacing="0">
<tr><td align="left" nowrap="" valign="top"><font face="Verdana, Arial, Helvetica, sans-serif" size="1"><b><a href="/airport/CYZR">CYZR</a> </b><br/>11nm NE </font></td><td valign="top"><font face="Verdana, Arial, Helvetica, sans-serif" size="1">130131Z 1301/1303 22010KT P6SM FEW012 OVC025 TEMPO 1301/1303 5SM -SN BR OVC012 RMK FCST BASED ON AUTO OBS. NXT FCST WILL BE ISSUED AT 130845Z 
</font></td></tr>
</table>
</td></tr>
</table>
<table border="0" cellpadding="2" cellspacing="0" width="100%">
<tr class="part_title"><th align="left" bgcolor="#ccccff">NOTAMs</th></tr>
<tr class="part_body"><td bgcolor="#ffffff">
<table border="0" cellpadding="0" cellspacing="0">
<tr valign="top">
<td align="left" width="20"><a href="https://pilotweb.nas.faa.gov/PilotWeb/notamRetrievalByICAOAction.do?method=displayByICAOs&amp;reportType=RAW&amp;formatType=DOMESTIC&amp;retrieveLocId=PHN&amp;actionType=notamRetrievalByICAOs" target="NOTAMS"><img alt="" border="0" height="16" src="//img.airnav.com/wing.gif?v=HTWTJ4" width="16"/></a></td>
<td align="left"><a class="wl" href="https://pilotweb.nas.faa.gov/PilotWeb/notamRetrievalByICAOAction.do?method=displayByICAOs&amp;reportType=RAW&amp;formatType=DOMESTIC&amp;retrieveLocId=PHN&amp;actionType=notamRetrievalByICAOs" target="NOTAMS">Click for the latest <b>NOTAMs</b></a></td>
</tr>
</table>
<font size="-1">NOTAMs are issued by the DoD/FAA and will open in a separate window not controlled by AirNav.</font>
 <br/>
</td></tr>
</table>
<br/> 
  </td>
</tr>
</table>
 <br/>
<a name="biz"></a>
<table border="0" cellpadding="0" cellspacing="0" width="100%">
<tr bgcolor="#ffffff" valign="middle"><th align="left" bgcolor="#9999ff" colspan="12" width="100%"><h3>FBO, Fuel Providers, and Aircraft Ground Support</h3></th></tr>
<tr><td rowspan="4">  </td><th bgcolor="#ccccff" width="240"><img alt="" border="0" height="1" src="//img.airnav.com/1dot.gif?v=HTWTIM" width="240"/><br/> Business Name </th><th> </th><th bgcolor="#ccccff"><img alt="" border="0" height="1" src="//img.airnav.com/1dot.gif?v=HTWTIM" width="1"/><br/> Contact </th><th> </th>
<th bgcolor="#ccccff" nowrap="" width="90%"><img alt="" border="0" height="1" src="//img.airnav.com/1dot.gif?v=HTWTIM" width="1"/><br/> Services / Description </th><th> </th><th bgcolor="#ccccff" width="10%"><img alt="" border="0" height="1" src="//img.airnav.com/1dot.gif?v=HTWTIM" width="1"/><br/>Fuel Prices</th><th> </th><th bgcolor="#ccccff" colspan="2" width="1"><img alt="" border="0" height="1" src="//img.airnav.com/1dot.gif?v=HTWTIM" width="1"/><br/>Comments</th><td rowspan="4">  </td></tr>
<tr valign="middle">
<td width="240"><a href="/airport/KPHN/AV_EXPRESS">Aviation Express, Inc</a></td>
<td></td>
<td align="left" nowrap=""><font size="-1">810-364-4187<br/>[<a href="/airport/KPHN/AV_EXPRESS/link" onmouseover="window.status='http://aviationexpressinc.com/'; return true" target="ext_apt_KPHN">web site</a>]<br/>[<a href="mailto:aviationexpressphn@gmail.com?subject=Message from AirNav.com user to Aviation Express, Inc (KPHN)" onclick="_gaq.push(['_trackEvent', 'EmailListing', 'KPHN-AV_EXPRESS', 'Click']);">email</a>]</font></td>
<td></td>
<td colspan="1"><font size="-1">Airport management, Aviation fuel, Aircraft ground handling, Aircraft parking (ramp or tiedown), Hangars, Passenger terminal and lounge, Flight training, ...<br/>
<br/><table border="0" cellpadding="0" cellspacing="0">
<tr valign="top">
<td align="left" width="20"><a href="/airport/KPHN/AV_EXPRESS"><img alt="" border="0" height="16" src="//img.airnav.com/wing.gif?v=HTWTJ4" width="16"/></a></td>
<td align="left"><a class="wl" href="/airport/KPHN/AV_EXPRESS"><font size="-1">More info about Aviation Express, Inc</font></a></td>
</tr>
</table>
</font></td>
<td></td>
<td width="94">
<table border="0" cellpadding="0" cellspacing="0" width="100%"><tr><td align="center" colspan="5">Shell</td></tr><tr valign="top"><td></td><td align="right" colspan="2" nowrap="" valign="top" width="50%">100LL</td> <td align="right" colspan="2" nowrap="" valign="top" width="50%">Jet A</td></tr><tr valign="top"><td>FS </td><td align="right" nowrap=""></td><td align="right" nowrap="">$4.75 </td><td align="right" nowrap=""></td><td align="right" nowrap="">$4.25 </td></tr><tr><td align="center" colspan="5"><font size="-2"> Updated 05-Jan-2021</font></td></tr></table>
</td>
<td></td>
<td align="center" nowrap=""> 
<a href="/popup/ratings.html" onclick="javascript:window.open('/popup/ratings.html','airnavpopup','width=250,height=250,scrollbars=yes');return false;" target="_blank"><img alt="" border="0" height="12" src="//img.airnav.com/rating/aptpage/0.gif?v=L3KL3S" width="60"/></a><br/> <font size="-1">
 1 <a href="/airport/KPHN/AV_EXPRESS#c">read</a> <a href="/airport/KPHN/AV_EXPRESS/comment">write</a></font>
</td>
</tr>
<tr height="1"><td bgcolor="#cccccc" colspan="10" height="1"><img alt="" border="0" height="1" src="//img.airnav.com/1dot.gif?v=HTWTIM" width="1"/></td></tr>
<tr><td align="right" colspan="7"><table border="0" cellpadding="0" cellspacing="0"><tr><td>FS=<a href="/popup/service-explain.html?K=FS" onclick="javascript:window.open('/popup/service-explain.html?K=FS','airnavpopup','width=350,height=500,scrollbars=yes');return false;" target="_blank">Full service</a><br/></td></tr></table>
<a href="/airport/KPHN/update-fuel"><img alt="Update Fuel Prices" border="0" height="20" src="//img.airnav.com/btn/update-prices.gif?v=HTW9TQ" width="125"/></a>
</td></tr>
<tr><td> </td></tr>
<tr bgcolor="#ffffff" valign="middle"><th align="left" bgcolor="#9999ff" colspan="12" width="100%"><h3>Would you like to see your business listed on this page?</h3></th></tr>
<tr><td> </td><td colspan="10"><font size="-1">If your business provides an interesting product or service to pilots, flight crews, aircraft, or users of the St Clair County International Airport, you should consider listing it here.  To start the listing process, click on the button below</font><br/> <br/>
<a href="/listings/subscribe/KPHN"><img alt="Add a business" border="0" height="20" src="//img.airnav.com/btn/add-listing.gif?v=HTW9TQ" width="240"/></a>
</td></tr>
</table>
 <br/>
<a name="links"></a><h3>Other Pages about St Clair County International Airport</h3>
<table border="0" cellpadding="0" cellspacing="0">
<tr valign="top">
<td align="left" width="20"><a href="/airportlink?5YDA8" target="ext_apt01600"><img alt="" border="0" height="16" src="//img.airnav.com/wing.gif?v=HTWTJ4" width="16"/></a></td>
<td align="left"><a class="wl" href="/airportlink?5YDA8" target="ext_apt01600">www.stclaircounty.org/...</a></td>
</tr>
</table>
<table border="0" cellpadding="0" cellspacing="0">
<tr valign="top">
<td align="left" width="20"><a href="/airportlink?6JSW0" target="ext_apt01600"><img alt="" border="0" height="16" src="//img.airnav.com/wing.gif?v=HTWTJ4" width="16"/></a></td>
<td align="left"><a class="wl" href="/airportlink?6JSW0" target="ext_apt01600">Page from the Michigan Airport Directory (PDF)</a></td>
</tr>
</table>

 <br/>
<a href="/airport/KPHN/reportlinks"><img alt="Update a link" border="0" height="20" src="//img.airnav.com/btn/update-remove-add-a-link.gif?v=J8WXHS" width="212"/></a>
<br/> <br/>
<table bgcolor="#CCCCFF" border="0" cellpadding="0" cellspacing="5" width="100%">
<tr><td bgcolor="#333399" colspan="2"><img alt="" border="0" height="1" src="//img.airnav.com/1dot.gif?v=HTWTIM" width="1"/></td></tr>
<tr valign="bottom">
<td><font color="#404040" size="-2">
Copyright © AirNav, LLC. All rights reserved.
</font>
</td>
<td align="right"><font size="-2"><a href="/info/privacy.html">Privacy Policy</a> 
<a href="/info/contact.html">Contact</a></font></td>
</tr>
</table>
<script type="text/javascript">
 var _gaq = _gaq || [];
 _gaq.push(['_setAccount', 'UA-467723-1']); 
 _gaq.push(['_trackPageview']);
 _gaq.push(['_trackEvent', 'Banner', 'Everest2019-01', 'Impression']);
 (function() {
  var ga = document.createElement('script'); ga.type = 'text/javascript'; ga.async = true;
  ga.src = ('https:' == document.location.protocol ? 'https://ssl' : 'http://www') + '.google-analytics.com/ga.js';
  var s = document.getElementsByTagName('script')[0]; s.parentNode.insertBefore(ga, s);
 })();
</script>
</body>
<!-- Copyright AirNav, LLC.  ALL RIGHTS RESERVED. -->
</html>
