<!DOCTYPE html>
<html lang="en">
<head>
<title>Study Spanish Free Online</title>
<meta content="authenticity_token" name="csrf-param"/>
<meta content="3m2sy5rzIjmUXreiDhds0bhs+BojR5l65U3WBQQgWV1Q9AIvJBz1pj940YSIM5mG0A3y2eDJx/R4PJORDZtXaQ==" name="csrf-token"/>
<script type="text/javascript">

  var inpage_linkid_plugin_url = '//www.google-analytics.com/plugins/ga/inpage_linkid.js';
  var _gaq = _gaq || [];
  _gaq.push(['_setAccount', 'UA-273175-2']);
  _gaq.push(['_require', 'inpage_linkid', inpage_linkid_plugin_url]);
  _gaq.push(['_trackPageview']);

  (function() {
    var ga = document.createElement('script'); ga.type = 'text/javascript'; ga.async = true;
    ga.src = ('https:' == document.location.protocol ? 'https://ssl' : 'http://www') + '.google-analytics.com/ga.js';
    var s = document.getElementsByTagName('script')[0]; s.parentNode.insertBefore(ga, s);
  })();

</script>
<link href="/manifest.json" rel="manifest"/>
<!-- Fallback application metadata for legacy browsers -->
<meta content="123TeachMe Spanish Lessons" name="application-name"/>
<link href="/favicon.ico" rel="icon" sizes="16x16"/>
<link href="/favicon32.png" rel="icon" sizes="32x32 48x48"/>
<link href="/favicon192.png" rel="icon" sizes="192x192"/>
<meta content="text/html; charset=utf-8" http-equiv="Content-Type"/>
<meta content="no-cache, no-store, must-revalidate" http-equiv="Cache-Control"/>
<meta content="no-cache" http-equiv="Pragma"/>
<meta content="0" http-equiv="Expires"/>
<meta content="width=device-width, initial-scale=1.0" name="viewport"/>
<meta content="TRUE" name="MSSmartTagsPreventParsing"/>
<meta content="all, index, follow" name="robots"/>
<meta content="Free Spanish lessons, verb conjugator, and other resources to learn Spanish online at no cost." name="description"/>
<meta content="learn spanish, study spanish, free lessons, free online lessons, verb conjugation, podcasts, translation, spanish, learn spanish free online, spanish lessons, verb conjugation" name="keywords"/>
<script async="" src="https://pagead2.googlesyndication.com/pagead/js/adsbygoogle.js"></script>
<style>
a { color: #000; }
a:link, a:visited { color: #555; }
/* a:hover { color: #fff; } */
a img {  border: none;}
hr, .hide { display: none; }

body {
  margin: 0;
  padding: 0;
  font-family: verdana, arial, helvetica, sans-serif;
  font-size:   13px;
  line-height: 18px;
  color: #333;
  background: url(https://d1a9cyuca1q7uc.cloudfront.net/images/v2/site-bg2.jpg);
}
p, ol, ul, td {
  font-family: verdana, arial, helvetica, sans-serif;
  font-size:   13px;
  line-height: 18px;
}
h1 {
  font-size: 18px;
  font-weight: bold;
}

input, textarea, select {
  background: #ffe;
  padding: 2px 5px 2px 2px;
  border-top: solid 1px #999;
  border-left: solid 1px #999;
  border-right: solid 1px #111;
  border-bottom: solid 1px #111;
  font-size: 10pt;
  font-family: verdana, arial, helvetica, sans-serif;
}

/* ---- page structure ------------------------------------------------------ */
#wrap {
  width: 1000px;
  margin: 0 auto;
  padding: 0 6px;
  font-size: 95%;
  text-align: left;
  background: #fff url(https://d1a9cyuca1q7uc.cloudfront.net/images/drop-bg3.gif) repeat-y top left;
  }
#main-body { float: left; width: 100%; background: #fff; position: relative; }
#content {
  float: left;
  width: 800px;/*prev 496px*/
  margin: 2px 0 0 0;
  background: #fff;
}
#content-wide {
  float: left;
  width: 1000px;/*prev 496px*/
  background: #fff;
  position: relative;
}
.content-inner-less table,.content-inner-less td,.content-inner-less th{
  border: none;
}


/* ----------------------------  header  ------------------------------ */
#header {
  float: left;
  width: 100%;
  background: #fff;
  height: 95px; 
}
#header h1 {
  float: left;
  margin: 0;
  padding: 0 10px 3px 10px;
}
#header h2 {
  float: right;
  margin: 28px 20px 20px 20px; /*prev 28px 20px 20px 20px*/
  padding: 0;
  font-family: "Trebuchet MS", sans-serif;
  font-size: 100%;
  font-weight: normal;
  color: #777;
}

.fixed-header { position: fixed; top: 0; width: 1000px; z-index: 999; }
.header{top: 0; width: 1000px; z-index: 999;}
.fixed-header-left-spacer { width:16px; height:25px; background-color: #FFF; position:absolute; left: 0; top:0; }
.fixed-header-right-spacer { width:15px; height:25px; background-color: #FFF; position:absolute; right: 0; top:0; }


/* ------- content -------------------------------------------------- */
h2#title, h1#title {
  margin: 0;
  padding: 8px 20px; /*prev 18px 20px*/
  font-family: "Trebuchet MS", sans-serif;
  font-size: 20px;
  color: #fff;
        text-shadow: 1px 1px 1px #292929;
  background: #399DCF /* url(/images/title-bg.gif) no-repeat top left */;
}

h2#long-title, h1#long-title {
  margin: 0;
  padding: 8px 20px; /*prev 18px 20px*/
  font-family: "Trebuchet MS", sans-serif;
  font-size: 110%;
  font-weight: normal;
  color: #fff;
  background: #399DCF /* url(/images/title-bg.gif) no-repeat top left */;
  line-height: 180% 
}

#content-inner {
  margin: 5px 10px 20px 10px;
  line-height: 1.4em;
  }
#content-inner ul {
  /* margin: 1.5em 0 1.5em 40px; */
  margin: 1.5em 0 1.5em 10px;
  padding: 0;
  list-style: none;
  }
#content-inner ul li {
  margin: 0 0 8px 0;
  padding: 0 0 0 23px;
  color: #333;
  background: url(https://d1a9cyuca1q7uc.cloudfront.net/images/icon-bullet.gif) no-repeat 0 0;
  }
#content-inner blockquote {
  margin: 1em 0 1em 20px;
  padding: 0 0 0 22px;
  font-size: 90%;
  line-height: 1.4em;
  color: #666;
  background: url(https://d1a9cyuca1q7uc.cloudfront.net/images/icon-quotes.gif) no-repeat 0 2px;
  }


/*------------------------------------------------------------
  IE fixes
------------------------------------------------------------*/

/* hide from IE/Mac \*/
#main-body {
  clear: left;
  }

* html div {
  height: 1%;
  }
/* end hide */

/* IE5 Win 
body {
  font-size: x-small;
    voice-family: inherit;
    font-size: small;
  }
*/
/* be nice to Opera 
html>body { 
  font-size: small;
  }
html>body #wrap { 
  width: 1000px;
  }
*/

#v2-nav { position: relative; font-family: verdana,arial,helvetica,sans-serif; }
#v2-nav .logo { position: relative; z-index: 9999; width: 256px; height: 52px; float: left; margin-left: 15px; background: url(https://d1a9cyuca1q7uc.cloudfront.net/images/v2/logo2.png) no-repeat left top;}
#v2-nav .logo h1 a { width: 256px; height: 83px; float: left; text-indent: -500px; overflow: hidden; }
#v2-nav .logo span { color: #999; text-align: center; display: block; }
#v2-nav .drop-down { top: -717px; position: absolute; width: 218px; z-index: 999; left: 34px; }
#v2-nav .menu { position: relative; z-index: 2; width: 715px; height: 38px; float: left; background: url(https://d1a9cyuca1q7uc.cloudfront.net/images/v2/menu-bg2.png) no-repeat right top; }
#v2-nav .menu ul { margin: 0; padding: 0 0 0 15px; list-style: none; }
#v2-nav .menu ul li { float: left; height: 36px; background: url(https://d1a9cyuca1q7uc.cloudfront.net/images/v2/menu-border2.png) no-repeat right center; }
#v2-nav .menu a { color: #FFF; padding: 0 28px 0 22px; text-decoration: none; line-height: 33px; }
#v2-nav .menu .se { cursor: pointer; width: 20px; height: 20px; float: right; margin: 6px 20px 0 0; background: url(https://d1a9cyuca1q7uc.cloudfront.net/images/v2/search-btn2.png) no-repeat;}

#v2-nav .menu ul li.active { background: none; margin-left: -10px; }
#v2-nav .menu ul li.active a { height: 36px; float: left; background: url(https://d1a9cyuca1q7uc.cloudfront.net/images/v2/menu-active-sprite.png) repeat-x left -63px; }
#v2-nav .menu ul li.active span.l { width: 10px; height: 36px; float: left; background: url(https://d1a9cyuca1q7uc.cloudfront.net/images/v2/menu-active-sprite.png) no-repeat left top; }
#v2-nav .menu ul li.active span.r { width: 10px; height: 36px; float: left; background: url(https://d1a9cyuca1q7uc.cloudfront.net/images/v2/menu-active-sprite.png) no-repeat left -125px; }

.top-leaderboard-ad { width: 970px; margin: 25px 0 0 0; }
.mobile-nav-button { display: none; } 
/*
.mobile-nav-button { cursor: pointer; color: #fff; display: block; position: relative; z-index: 2; font-weight: bold; font-size: 20px; padding: 0 0 0 55px; width: 715px; height: 38px; background: url(https://d1a9cyuca1q7uc.cloudfront.net/images/v2/menu-bg2.png) no-repeat right top; }
.mobile-nav-button .text { display: inline-block; color: #fff; font-size: 12px; padding-top: 0;  }
.mobile-nav-button a { display: inline-block; color: #fff; text-decoration: none; margin: 3px 0  0 15px; padding-top: 6px;}
*/
.search-drop { display: none; position: relative; z-index: 1; width: 644px; height: 57px; float: right; margin: -2px 60px 0 0; background: url(https://d1a9cyuca1q7uc.cloudfront.net/images/v2/search-drop-bg2.jpg) no-repeat; }

.verb-conjugator .special_chars input, .home-translator .special_chars input, .sentence-maker .special_chars input, #v2-nav .vc-form .special_chars input,
.search-drop .special_chars input, .search-box .special_chars input { border: none; background: none; cursor: pointer; font-size: 16px; color: #999; }

/*******************************************   Media Queries for Responsive Layout ****************************/
@media only screen and (max-width: 1012px) {
  #wrap {
    width: 100%;
    padding:0px;
    margin:0px;
  }
  #content {
    width: 100%;
  }
  .fixed-header { position: fixed; top: 0; width: 100%; z-index: 999; }
  .header{top: 0; width: 100%; z-index: 999;}
  #right { display: none;}
  table.show-iframe-code { width:98%;}
}

/* ============================== Tablet ====================================== */
@media only screen and (max-width: 768px) {
  #content-inner { margin: 5px 1px 20px 1px; padding: 0 2px; line-height: 30px; }
  #wrap {
    width: 95%;
    max-width: 760px;
    margin: 0 auto;
    padding: 0 6px;
    font-size: 120%; 
    line-height: 30px;
    text-align: left;
    background: #fff;
  }
  #content-wide {
    float: left;
    width: 100%;
    background: #fff;
    position: relative;
  }
  .mobile-nav-button { 
    cursor: pointer; color: #555; display: block; position: relative; z-index: 2; font-weight: bold; 
    font-size: 20px; padding: 0 0 0 55px; width: 320px; height: 38px; 
    background: url(https://d1a9cyuca1q7uc.cloudfront.net/images/v2/menu-bg2.png) no-repeat right top; 
   }
  .mobile-nav-button .text { display: inline-block; color: #555; font-size: 12px; padding-top: 0;  }
  .top-leaderboard-ad { width: 100%; margin: 25px 0 0 0; }
}

/* ============================== Mobile ====================================== */
/* ** NOTE: most mobile users will have a screen width >= 360px, but some will be as low as 320px **  */
@media only screen and (max-width: 600px) {
  body{ 
    background: #fff none;
   }
  body, p, ol, ul, td {
    font-size:   16px;
    line-height: 30px;
  }

  #v2-nav .drop-down { display: none; }
  #v2-nav .logo { margin-left: 5px; top: -9px; }

  #v2-nav .menu { width: 50%; clear: both; display: none; }
  #v2-nav .menu ul { 
    margin: -2px 0 0 0; padding: 0; list-style: none; background: transparent none;
  }
  /*#v2-nav .menu ul li { width: 100%;  height: 36px; background: url(https://d1a9cyuca1q7uc.cloudfront.net/images/v2/menu-bg2.png) no-repeat left top; } */
  #v2-nav .menu ul li { width: 200px;  height: 36px; background: #fff; border-bottom: solid 1px #aaa; }
  #v2-nav .menu a { color: #555; padding: 0 28px 0 22px; font-size: 16px; letter-spacing: 2px;  font-weight: bold; text-decoration: none; line-height: 33px; }
  #v2-nav .menu .se { display: none; }
  #v2-nav .menu ul li.active { background: none; margin-left: -10px; }
  .mobile-nav-button { 
    font-size: 20px; padding: 0 0 0 55px; width: 320px; height: 38px; 
    background: url(https://d1a9cyuca1q7uc.cloudfront.net/images/v2/menu-bg2.png) no-repeat right top; 
   }
  .mobile-nav-button .text { display: inline-block; color: #fff; font-size: 12px; padding-top: 0;  }
  .mobile-nav-button a { display: inline-block; color: #fff; text-decoration: none; margin: 3px 0  0 15px; padding-top: 6px;}
}
@media only screen and (max-width: 480px) {
  .top-leaderboard-ad { display: none; }  /* don't show top ad for mobile pages */
}
@media only screen and (max-width: 330px) {
  .mobile-nav-button .text { display: none; }
}
</style>
</head>
<body>
<div id="wrap">
<div id="header">
<div class="fixed-header">
<div class="fixed-header-left-spacer"></div>
<div class="fixed-header-right-spacer"></div>
<div id="v2-nav">
<div id="menu-logo">
<div class="drop-down">
<div id="drop-down-sub" style="display:none;">
<div class="menu-sub-row" id="menu-sub-content-rls" style="width: 490px;">
<div class="menu-sub-main">
<div class="heading" style="width: 345px;"><a href="/learn_spanish/beginner/">Resources for Learning Spanish</a></div>
<div class="menu-sub-content">
<p>Free resources to help you enjoy learning Spanish quickly.</p>
<div class="menu-sub-links">
<ul>
<li><a href="/learn_spanish/spanish_grammar_course">Spanish 101</a></li>
<li><a href="/learn_spanish/conversational_spanish">Spanish Grammar Video &amp; Quizzes</a></li>
<li><a href="/learn_spanish/spanish_flashcards_index">Flashcards &amp; Drag and Match</a></li>
<li><a href="/learn_spanish/spanish_alphabet">Alphabet &amp; Pronunciation</a></li>
<li><a href="/learn_spanish/brief_conversations">Spanish Dialogues with English</a></li>
</ul>
</div>
</div>
<div style="position:absolute; right: 0px; bottom: 10px;"><img alt="Resources for Learning Spanish" id="w-rfls" src="https://d1a9cyuca1q7uc.cloudfront.net/images/v2/spacer.gif"/></div>
<div class="clear"></div>
</div>
</div>
<div class="menu-sub-row" id="menu-sub-content-dsr" style="width: 490px;">
<div class="menu-sub-main" style="height: 250px;">
<div class="heading"><a href="/spanish_feeds/word_of_the_day">Daily Spanish Resources</a></div>
<div class="menu-sub-content">
<div class="menu-sub-links">
<ul>
<li class="short"><a href="/spanish_feeds/word_of_the_day">Word of the Day</a></li>
<li class="short"><a href="/spanish_feeds/idiom_of_the_day">Phrase of the Day</a></li>
<li class="short"><a href="/spanish_feeds/verb_of_the_day">Verb of the Day</a></li>
</ul>
</div>
</div>
<div style="position:absolute; right: 5px; bottom: 10px;"><img alt="Daily Spanish Resources" id="w-dsr" src="https://d1a9cyuca1q7uc.cloudfront.net/images/v2/spacer.gif"/></div>
<div class="clear"></div>
</div>
</div>
<div class="menu-sub-row" id="menu-sub-content-trw" style="width: 490px;">
<div class="menu-sub-main">
<div class="heading"><a href="/learn_spanish/teachers_resources">Teacher Resources</a> &amp; <a href="/spanish_worksheets/list_all">Worksheets</a></div>
<div class="menu-sub-content">
<p>Hundreds of Spanish worksheets from which to choose.  Full list of teacher resources here.</p>
<div class="menu-sub-links">
<ul>
<li class="short"><a href="/spanish_worksheets/list_all">Worksheets</a></li>
<li class="short"><a href="/spelling_quiz/list">Spelling</a></li>
<li class="short"><a href="/learn_spanish/children_games_wordsearch">Wacky Word Search</a></li>
<li class="short"><a href="/word_order_quiz/list">Sentence Scramble</a></li>
<li class="short"><a href="/learn_spanish/spanish_kids_holidays">Holidays</a></li>
</ul>
</div>
</div>
<div style="position:absolute; right: 5px; bottom: 10px;"><img alt="Teacher Resources &amp; Worksheets" id="w-trw" src="https://d1a9cyuca1q7uc.cloudfront.net/images/v2/spacer.gif"/></div>
<div class="clear"></div>
</div>
</div>
<div class="menu-sub-row" id="menu-sub-content-ost" style="width: 490px;">
<div class="menu-sub-main" style="height: 260px;">
<div class="heading"><a href="/online_spanish_test">Online Spanish Tests</a></div>
<div class="menu-sub-content">
<p>Use our free online Spanish test to estimate your level of fluency. </p>
<div class="menu-sub-links">
<ul>
<li class="short"><a href="/online_spanish_test">Spanish Placement Test</a></li>
<li class="short"><a href="/learn_spanish/interactive_quizzes_spanish/">Interactive Quizzes</a></li>
<li class="short"><a href="/learn_spanish/spanish_flashcards_index/">Drag-N-Match! Quizzes</a></li>
</ul>
</div>
</div>
<div style="position:absolute; right: 0; bottom: 2px;"><img alt="Online Spanish Tests" id="w-ost" src="https://d1a9cyuca1q7uc.cloudfront.net/images/v2/spacer.gif"/></div>
<div class="clear"></div>
</div>
</div>
<div class="menu-sub-row" id="menu-sub-content-sc" style="width: 490px;">
<div class="menu-sub-main" style="height: 300px;">
<div class="heading"><a href="/learn_spanish/free_spanish_courses">Spanish Courses</a></div>
<div class="menu-sub-content">
<p>We offer free self-study courses<br/> for students of all levels.</p>
<div class="menu-sub-links">
<ul>
<li class="short"><a href="/learn_spanish/travel_spanish">Travel Spanish</a></li>
<li class="short"><a href="/learn_spanish/workplace_spanish">Spanish for Work</a></li>
<li class="short"><a href="/learn_spanish/medical-spanish">Medical Spanish</a></li>
<li class="short"><a href="/learn_spanish/business_spanish">Spanish for Business</a></li>
<li class="short"><a href="/learn_spanish/spanish_grammar_course">Spanish 101</a></li>
</ul>
</div>
</div>
<div style="position:absolute; right: 0; bottom: 2px;"><img alt="Spanish Courses" id="w-sc" src="https://d1a9cyuca1q7uc.cloudfront.net/images/v2/spacer.gif"/></div>
<div class="clear"></div>
</div>
</div>
<div class="menu-sub-row" id="menu-sub-content-fsg" style="width: 490px;">
<div class="menu-sub-main">
<div class="heading"><a href="/learn_spanish/fun_and_games">Free Online Spanish Games</a></div>
<div class="menu-sub-content">
<p>Games and activities featuring high-quality images and audio. Learning Spanish should be fun.</p>
<div class="menu-sub-links">
<ul>
<li class="short"><a href="/games/wakeupthebox/list">Wake Up the Box</a></li>
<li class="short"><a href="/games/tank/list">Tank Battle Game</a></li>
<li class="short"><a href="/games/paintgunner/list">Paint Gunner</a></li>
<li class="short"><a href="/games/bridge/list">Cargo Bridge</a></li>
<li class="short"><a href="/games/wonderputt/list">Wonder-Putt Mini Golf</a></li>
</ul>
</div>
</div>
<div style="position:absolute; right: 0; bottom: 2px;"><img alt="Free Online Spanish Games" id="w-fsg" src="https://d1a9cyuca1q7uc.cloudfront.net/images/v2/spacer.gif"/></div>
<div class="clear"></div>
</div>
</div>
<div class="menu-sub-row" id="menu-sub-content-sfk" style="width: 490px;">
<div class="menu-sub-main" style="height: 315px;">
<div class="heading"><a href="/learn_spanish/spanish_for_children">Spanish for Kids</a></div>
<div class="menu-sub-content">
<p>Spanish resources for kids of <br/>all ages. </p>
<div class="menu-sub-links">
<ul>
<li class="short" style="padding:0 10px 0 5px; width: 203px"><a href="/games/click_n_say/letters">Alphabet</a></li>
<li class="short" style="padding:0 10px 0 5px; width: 203px"><a href="/games/click_n_say/shapes">Colors</a></li>
<li class="short" style="padding:0 10px 0 5px; width: 203px"><a href="/games/click_n_say/numbers">Numbers</a></li>
<li class="short" style="padding:0 10px 0 5px; width: 203px"><a href="/learn_spanish/spanish_games_for_children">1000 Games</a></li>
<li class="short" style="padding:0 10px 0 5px; width: 203px"><a href="/learn_spanish/children_songs_lyrics">Music Videos</a></li>
<li class="short" style="padding:0 10px 0 5px; width: 203px"><a href="/learn_spanish/flashcards_for_children">Flashcards &amp; Drag-N-Match!</a></li>
<li class="short" style="padding:0 10px 0 5px; width: 203px"><a href="/learn_spanish/childrens_short_stories">Short Stories</a></li>
</ul>
</div>
</div>
<div style="position:absolute; right: 20px; bottom: 2px;"><img alt="Spanish for Kids" id="w-sfk" src="https://d1a9cyuca1q7uc.cloudfront.net/images/v2/spacer.gif"/></div>
<div class="clear"></div>
</div>
</div>
<div class="menu-sub-row" id="menu-sub-content-bs" style="width: 445px;">
<div class="menu-sub-main" style="height:285px;">
<div class="heading"><a href="/learn_spanish/medical-spanish">Medical Spanish</a></div>
<div class="menu-sub-content">
<div class="menu-sub-links">
<ul>
<li class="short"><a href="/learn_spanish/medical_clinical_interview">Clinical Interview</a></li>
<li class="short"><a href="/learn_spanish/interview_past_medical_history">Past Medical History</a></li>
<li class="short"><a href="/learn_spanish/medical_vocabulary">Medical Vocabulary</a></li>
<li class="short"><a href="/learn_spanish/medical_dialogue">Dialogue Flashcards</a></li>
<li class="short"><a href="/learn_spanish/medical_review_of_systems">Review of Systems</a></li>
</ul>
</div>
</div>
<div style="position:absolute; right: 0px; bottom: 2px;"><img alt="Business Spanish" id="w-bs" src="https://d1a9cyuca1q7uc.cloudfront.net/images/v2/spacer.gif"/></div>
<div class="clear"></div>
</div>
</div>
<div class="menu-sub-row" id="menu-sub-content-smd" style="width: 430px;">
<div class="menu-sub-main" style="height:285px;">
<div class="heading" style="width: 200px;"><a href="/medical_dictionary">Spanish Medical Dictionary</a></div>
<div class="menu-sub-content">
<p style="padding-left: 25px; font-size: 21px; line-height: 30px; letter-spacing: 5px; color: #333;">
<a href="/medical_dictionary/letter/A" style="text-decoration:none">A</a>
<a href="/medical_dictionary/letter/B" style="text-decoration:none">B</a>
<a href="/medical_dictionary/letter/C" style="text-decoration:none">C</a>
<a href="/medical_dictionary/letter/D" style="text-decoration:none">D</a>
<a href="/medical_dictionary/letter/E" style="text-decoration:none">E</a><br/>
<a href="/medical_dictionary/letter/F" style="text-decoration:none">F</a>
<a href="/medical_dictionary/letter/G" style="text-decoration:none">G</a>
<a href="/medical_dictionary/letter/H" style="text-decoration:none">H</a>
<a href="/medical_dictionary/letter/I" style="text-decoration:none">I</a>
<a href="/medical_dictionary/letter/J" style="text-decoration:none">J</a><br/>
<a href="/medical_dictionary/letter/K" style="text-decoration:none">K</a>
<a href="/medical_dictionary/letter/L" style="text-decoration:none">L</a>
<a href="/medical_dictionary/letter/M" style="text-decoration:none">M</a>
<a href="/medical_dictionary/letter/N" style="text-decoration:none">N</a><br/>
<a href="/medical_dictionary/letter/O" style="text-decoration:none">O</a>
<a href="/medical_dictionary/letter/P" style="text-decoration:none">P</a>
<a href="/medical_dictionary/letter/Q" style="text-decoration:none">Q</a>
<a href="/medical_dictionary/letter/R" style="text-decoration:none">R</a>
<a href="/medical_dictionary/letter/S" style="text-decoration:none">S</a><br/>
<a href="/medical_dictionary/letter/T" style="text-decoration:none">T</a>
<a href="/medical_dictionary/letter/U" style="text-decoration:none">U</a>
<a href="/medical_dictionary/letter/V" style="text-decoration:none">V</a>
<a href="/medical_dictionary/letter/W" style="text-decoration:none">W</a><br/>
<a href="/medical_dictionary/letter/X" style="text-decoration:none">X</a>
<a href="/medical_dictionary/letter/Y" style="text-decoration:none">Y</a>
<a href="/medical_dictionary/letter/Z" style="text-decoration:none">Z</a>
</p>
</div>
<div style="position:absolute; right: 0; bottom: 2px;"><img alt="Spanish Medical Dictionary" id="w-smd" src="https://d1a9cyuca1q7uc.cloudfront.net/images/v2/spacer.gif"/></div>
<div class="clear"></div>
</div>
</div>
<div class="menu-sub-row" id="menu-sub-content-cs" style="width: 400px;">
<div class="menu-sub-main" style="height: 230px;">
<div class="heading"><a href="/learn_spanish/conversational_spanish">Conversational Spanish</a></div>
<div class="menu-sub-content">
<div class="menu-sub-links">
<ul>
<li class="short"><a href="/learn_spanish/hello_in_spanish">Meeting People</a></li>
<li class="short"><a href="/learn_spanish/spanish_interrogative">Asking Questions</a></li>
<li class="short"><a href="/learn_spanish/indicate_obligation_hay_que">Expressing Obligation</a></li>
<li class="short"><a href="/learn_spanish/possessive_adjectives_pronouns">Expressing Possession</a></li>
<li class="short"><a href="/learn_spanish/comparisons_adjectives_verbs">Making Comparisons</a></li>
</ul>
</div>
</div>
<div style="position:absolute; right: 20px; bottom: 2px;"><img alt="Conversational Spanish" id="w-cs" src="https://d1a9cyuca1q7uc.cloudfront.net/images/v2/spacer.gif"/></div>
<div class="clear"></div>
</div>
</div>
</div>
<div class="drop-down-content" style="display:none;">
<div id="dd-default" style="padding: 15px 0 0;">
<div class="divider">
<h3 class="resources">Resources</h3>
<ul>
<li id="dm-rls"><a href="/learn_spanish/beginner/" title="Free Spanish Lessons">Resources for Learning Spanish</a></li>
<li id="dm-dsr"><a href="/spanish_feeds/word_of_the_day">Daily Spanish Resources</a></li>
<li id="dm-trw"><a href="/learn_spanish/teachers_resources">Teacher Resources</a> &amp; <a href="/spanish_worksheets/list_all">Worksheets</a></li>
</ul>
</div>
<div class="divider">
<h3 class="vc"><a href="/spanish_verb_conjugation" title="Spanish Verb Conjugation">Verb Conjugator</a></h3>
<div class="vc-form">
<form accept-charset="UTF-8" action="/spanish_verb_conjugation/prep" method="post"><input name="utf8" type="hidden" value="✓"/><input name="authenticity_token" type="hidden" value="csx6RJ1ZknGkSmqf0xaU6Yf9ALR5khVI3aFGBNkKHW0RFwtU3Syhoevf5uDs9nxZVmnQfewDbeiTT9bYQzmLxg=="/>
<input name="verb" placeholder="Please enter a verb" size="25" type="text"/>
<input name="conjugation" type="hidden" value="conjugator"/>
<div class="special_chars"><input name="char_0" onclick="add_char2form(this.form, 'verb', 'á')" type="button" value="á"/><input name="char_1" onclick="add_char2form(this.form, 'verb', 'é')" type="button" value="é"/><input name="char_2" onclick="add_char2form(this.form, 'verb', 'í')" type="button" value="í"/><input name="char_3" onclick="add_char2form(this.form, 'verb', 'ñ')" type="button" value="ñ"/><input name="char_4" onclick="add_char2form(this.form, 'verb', 'ó')" type="button" value="ó"/><input name="char_5" onclick="add_char2form(this.form, 'verb', 'ú')" type="button" value="ú"/></div>
<input type="submit" value="Conjugate"/>
<div class="clear"></div>
</form> </div>
</div>
<div class="divider">
<h3 class="on-your-own">On Your Own</h3>
<ul>
<li id="dm-ost"><a href="/online_spanish_test">Online Spanish Tests</a></li>
<li id="dm-sc"><a href="/learn_spanish/free_spanish_courses">Spanish Courses</a></li>
</ul>
</div>
<div class="divider">
<h3 class="kids-corner">Kids Corner</h3>
<ul>
<li id="dm-fsg"><a href="/learn_spanish/spanish_games_for_children">Free Spanish Games</a></li>
<li id="dm-sfk"><a href="/learn_spanish/spanish_for_children">Spanish for Kids</a></li>
</ul>
</div>
<br/>
<ul>
<li id="dm-bs"><a href="/learn_spanish/medical-spanish">Medical Spanish</a></li>
<li id="dm-smd"><a href="/medical_dictionary">Spanish Medical Dictionary</a></li>
<li id="dm-cs"><a href="/learn_spanish/conversational_spanish">Conversational Spanish</a></li>
<li><a href="/spanish_word_for/" title="Spanish for">Spanish/English Dictionary</a></li>
<li><a href="/translated_sentences/sp">Spanish Sentences Maker</a></li>
<li><a href="/learn_spanish/fun_and_games">Spanish Games</a></li>
</ul>
</div>
</div>
<div class="drop-down-bottom">Menu</div>
</div>
<div class="logo">
<h1></h1>
</div>
</div>
<div class="mobile-nav-button" onclick="$('#v2-nav .menu').toggle();"><a style="text-decoration: none">☰</a> <div class="text">Menu</div></div>
<div class="menu">
<ul>
<li><span class="l"></span><a href="/" title="Learn Spanish Online">Home</a><span class="r"></span></li>
<li><span class="l"></span><a href="/spanish_verb_conjugation" title="Learn Spanish Online">Verbs</a><span class="r"></span></li>
<li><span class="l"></span><a href="/language_schools/" title="Spanish Language Schools">Language schools</a><span class="r"></span></li>
<li><span class="l"></span><a href="/learn_spanish/faqs_help">FAQs</a><span class="r"></span></li>
<li><span class="l"></span><a href="/site_map">Site Map</a><span class="r"></span></li>
<li><span class="l"></span><a class="login" href="/members/" rel="nofollow">Login</a><span class="r"></span></li>
</ul>
<div class="se"></div>
</div>
<div class="search-drop">
<div id="gse-form">
<form accept-charset="UTF-8" action="/spanish_search/redirect_to_index" method="post"><input name="utf8" type="hidden" value="✓"/><input name="authenticity_token" type="hidden" value="M32Ig7lyqwbpm2bKhT7l2kvq5ChB9jgcnHjj7+y+ubODMWnVbGgFvE8jO1F/Wnv/NOHrhZeHQNVR28M6E/kXkg=="/>
<input class="sd-q" id="q" name="q" placeholder="Please enter a search query" size="15" type="text" value=""/>
<div class="special_chars"><input name="char_0" onclick="add_char2form(this.form, 'q', 'á')" type="button" value="á"/><input name="char_1" onclick="add_char2form(this.form, 'q', 'é')" type="button" value="é"/><input name="char_2" onclick="add_char2form(this.form, 'q', 'í')" type="button" value="í"/><input name="char_3" onclick="add_char2form(this.form, 'q', 'ñ')" type="button" value="ñ"/><input name="char_4" onclick="add_char2form(this.form, 'q', 'ó')" type="button" value="ó"/><input name="char_5" onclick="add_char2form(this.form, 'q', 'ú')" type="button" value="ú"/></div>
<div class="se-opt">
<div><input checked="checked" id="gse" name="se-type" type="radio" value="Search"/> <label for="gse">Search</label></div>
<div><input id="cnj" name="se-type" type="radio" value="Conjugate"/> <label for="cnj">Conjugate</label></div>
</div>
<input class="search-submit" name="go" type="submit" value="GO"/>
</form> </div>
<div id="cnj-form" style="display:none">
<form accept-charset="UTF-8" action="/spanish_verb_conjugation/prep" method="post"><input name="utf8" type="hidden" value="✓"/><input name="authenticity_token" type="hidden" value="uzZ/D2l70UY4pcJMQu1j0rM88NJUiXWFQXHEinM3c6vY7Q4fKQ7ilncwTjN9DYtiYqggG8EYDSUPn1RW6QTlAA=="/>
<input class="sd-c" name="verb" placeholder="Please enter a verb" size="25" type="text" value=""/>
<input name="conjugation" type="hidden" value="conjugator"/>
<div class="special_chars"><input name="char_0" onclick="add_char2form(this.form, 'verb', 'á')" type="button" value="á"/><input name="char_1" onclick="add_char2form(this.form, 'verb', 'é')" type="button" value="é"/><input name="char_2" onclick="add_char2form(this.form, 'verb', 'í')" type="button" value="í"/><input name="char_3" onclick="add_char2form(this.form, 'verb', 'ñ')" type="button" value="ñ"/><input name="char_4" onclick="add_char2form(this.form, 'verb', 'ó')" type="button" value="ó"/><input name="char_5" onclick="add_char2form(this.form, 'verb', 'ú')" type="button" value="ú"/></div>
<div class="se-opt">
<div><input id="c-gse" name="se-type" type="radio" value="Search"/> <label for="c-gse">Search</label></div>
<div><input checked="checked" id="c-cnj" name="se-type" type="radio" value="Conjugate"/> <label for="c-cnj">Conjugate</label></div>
</div>
<input type="submit" value="Go"/>
</form> </div>
</div>
<div class="clear"></div>
</div>
</div>
</div>
<hr/>
<div id="main-body">
<hr/>
<div id="content-wide">
<h1 id="title">
			Study Spanish for Free

			<!-- <g:plusone size="small" count="false"></g:plusone> -->
			 
			<!-- <fb:like layout="button_count" width="170" font="arial"></fb:like> -->
</h1>
<div id="content-inner">
<script type="text/javascript">
window.SM2_flash_url="https://d1a9cyuca1q7uc.cloudfront.net/javascripts/sm2_flash_xdomain.20150601/";
window.SM2_js_url="https://d1a9cyuca1q7uc.cloudfront.net/javascripts/minified/tcm_sm2.20150601.js";
</script>
<!--begin content-->
<div class="home-blocks">
<div class="home-block home-block1">
<h1><a href="/learn_spanish/beginner/" title="Free Spanish Lessons">Resources for Studying Spanish</a></h1>
<a href="/learn_spanish/beginner/" title="Free Spanish Lessons"><img alt="Study Spanish Free" class="home-icon learning-spanish" src="https://d1a9cyuca1q7uc.cloudfront.net/images/v2/spacer.gif"/></a>
<p>Free resources to help you enjoy learning Spanish quickly.</p>
</div>
<div class="home-block home-block2">
<h1><a href="/learn_spanish/fun_and_games" title="Online Spanish Games">Free Online Spanish Games</a></h1>
<a href="/learn_spanish/fun_and_games" title="Free Online Spanish Games"><img alt="Free Spanish Games" class="home-icon spanish-games" src="https://d1a9cyuca1q7uc.cloudfront.net/images/v2/spacer.gif"/></a>
<p>Games and activities featuring high-quality images and audio. Studying Spanish should be fun.</p>
</div>
<div class="home-block home-block3">
<h1><a href="/learn_spanish/spanish_for_children" title="Free Spanish for Kids">Spanish for Kids</a></h1>
<a href="/learn_spanish/spanish_for_children"><img alt="Spanish For Kids" class="home-icon spanish-for-kids" src="https://d1a9cyuca1q7uc.cloudfront.net/images/v2/spacer.gif"/></a>
<p>Spanish resources for kids of all ages. </p>
</div>
<div class="clear"></div>
<div class="home-block home-block1">
<h1><a href="/learn_spanish/listening_comprehension_index_2">Listening Comprehension</a></h1>
<a href="/learn_spanish/listening_comprehension_index_2"><img alt="Listening Comprehension in Spanish" src="https://d1a9cyuca1q7uc.cloudfront.net/images/v2/sc/clinical-interview.jpg"/></a>
<p>- <a href="/learn_spanish/listening_comprehension_index_2" title="Spanish Listening Comprehension">Audio Quizzes</a>
<br/>- <a href="/learn_spanish/spanish_dialogues_index">Dialogues in Spanish</a>
</p>
</div>
<div class="home-block home-block2">
<h1><a href="/spanish_verb_conjugation" title="Spanish Verb Conjugation">Spanish Verb Conjugation</a></h1>
<a href="/spanish_verb_conjugation"><img alt="Verb Conjugation" class="home-icon verb-conj" src="https://d1a9cyuca1q7uc.cloudfront.net/images/v2/spacer.gif"/></a>
<p>Over 3,000 verbs including full conjugation and example <br/>sentences containing each verb.</p>
</div>
<div class="home-block home-block3">
<h1><a href="/learn_spanish/free_spanish_courses" title="Free Spanish Courses">Spanish Courses</a></h1>
<a href="/learn_spanish/free_spanish_courses"><img alt="Free Spanish Study Courses" class="home-icon free-course" src="https://d1a9cyuca1q7uc.cloudfront.net/images/v2/spacer.gif"/></a>
<p>We offer free self-study courses for students of all levels.</p>
</div>
<div class="clear"></div>
</div>
<div class="home-wrapper">
<div class="home-empty-container-box">
<img alt="Verb Conjugator" class="verb-conjugator-btn" src="https://d1a9cyuca1q7uc.cloudfront.net/images/v2/spacer.gif"/>
<div class="clear"></div>
<div class="verb-conjugator box">
<div class="box-left"></div>
<div class="box-content">
<form accept-charset="UTF-8" action="/spanish_verb_conjugation/prep" method="post"><input name="utf8" type="hidden" value="✓"/><input name="authenticity_token" type="hidden" value="7mHe3m2X5lbTnkBAGXqCz34SNY3Taxfad6yGvxYp7JGNuq/OLeLVhpwLzD8mmmp/r4blREb6b3o5QhZjjBp6Og=="/>
<input autofocus='"autofocus"/' id="verb_input" name="verb" placeholder="Enter Spanish verb (e.g. ir) or English (to go)" size="25" type="text" value=""/>
<input name="conjugation" type="hidden" value="conjugator"/>
<div class="special_chars"><input name="char_0" onclick="add_char2form(this.form, 'verb', 'á')" type="button" value="á"/><input name="char_1" onclick="add_char2form(this.form, 'verb', 'é')" type="button" value="é"/><input name="char_2" onclick="add_char2form(this.form, 'verb', 'í')" type="button" value="í"/><input name="char_3" onclick="add_char2form(this.form, 'verb', 'ñ')" type="button" value="ñ"/><input name="char_4" onclick="add_char2form(this.form, 'verb', 'ó')" type="button" value="ó"/><input name="char_5" onclick="add_char2form(this.form, 'verb', 'ú')" type="button" value="ú"/></div>
<input type="submit" value="Go"/>
</form> </div>
<div class="box-right"></div>
<div class="clear"></div>
</div>
</div>
<div class="home-empty-container-box">
<img alt="Spanish Sentences Maker" class="sentence-maker-btn" src="https://d1a9cyuca1q7uc.cloudfront.net/images/v2/spacer.gif"/>
<div class="clear"></div>
<div class="sentence-maker">
<div class="box-left"></div>
<div class="box-content">
<form accept-charset="UTF-8" action="/translated_sentences/prep/translation" method="post"><input name="utf8" type="hidden" value="✓"/><input name="authenticity_token" type="hidden" value="fd6vpMQDTNjlAeMGR+vGqeL/h4OgnmqfdPP3IODHRNGQTiRwxdSY81enyP5hsH2Lvqx5v5lEDb8/9dYhGZTalg=="/>
<input id="phrase" name="phrase" placeholder="Word or phrase" size="10" type="text" value=""/>
<input data-disable-with="Submit" name="commit" type="submit" value="Submit"/>
<div id="sentence-maker-chars"><div class="special_chars"><input name="char_0" onclick="add_char2form(this.form, 'phrase', 'á')" type="button" value="á"/><input name="char_1" onclick="add_char2form(this.form, 'phrase', 'é')" type="button" value="é"/><input name="char_2" onclick="add_char2form(this.form, 'phrase', 'í')" type="button" value="í"/><input name="char_3" onclick="add_char2form(this.form, 'phrase', 'ñ')" type="button" value="ñ"/><input name="char_4" onclick="add_char2form(this.form, 'phrase', 'ó')" type="button" value="ó"/><input name="char_5" onclick="add_char2form(this.form, 'phrase', 'ú')" type="button" value="ú"/></div></div>
<div class="lang">
      Language:
      <select name="trans_type">
<option value="s2e">Spanish</option>
<option value="e2s">English</option>
</select>
</div>
</form> </div>
<div class="box-right"></div>
<div class="clear"></div>
</div>
<div class="clear"></div>
</div>
<div class="clear"></div>
</div>
<div class="home-blocks">
<div class="home-block home-block1">
<h1><a href="/online_spanish_test" title="Free Spanish Test">Online Spanish Test</a></h1>
<a href="/online_spanish_test" title="Free Spanish Test"><img alt="Free Online Spanish Test" class="home-icon online-test" src="https://d1a9cyuca1q7uc.cloudfront.net/images/v2/spacer.gif"/></a>
<p>Use our <a href="/online_spanish_test">free online Spanish test</a> to estimate your level of fluency.</p>
</div>
<div class="home-block home-block2">
<h1><a href="/learn_spanish/teachers_resources" title="Spanish Teacher">Teacher Resources</a> &amp;
      <a href="/spanish_worksheets/list_all" title="Online Spanish Worksheets">Worksheets</a></h1>
<a href="/spanish_worksheets/list_all"><img alt="Worksheets / Teacher Resources" class="home-icon worksheet" src="https://d1a9cyuca1q7uc.cloudfront.net/images/v2/spacer.gif"/></a>
<p>Hundreds of <a href="/spanish_worksheets/list_all">Spanish worksheets</a> from which to choose.  Full list of <a href="/learn_spanish/teachers_resources">teacher resources here</a>.</p>
</div>
<div class="home-block home-block3">
<h1><a href="/language_schools/" title="Spanish Language Schools">Spanish Language Schools</a></h1>
<a href="/language_schools/" title="Spanish Language Schools"><img alt="Spanish Immersion Programs" class="home-icon lang-school" src="https://d1a9cyuca1q7uc.cloudfront.net/images/v2/spacer.gif"/>
<p>
      Search, sort, and read evaluations of <a href="/language_schools/">Spanish langauge schools</a> around the world.
    </p>
</a></div>
<div class="clear"></div>
<div class="home-block home-block1">
<h1><a href="/spanish_feeds/word_of_the_day">Daily Spanish Resources</a></h1>
<a href="/spanish_feeds/word_of_the_day"><img alt="Learn Spanish Free" class="home-icon word-day" src="https://d1a9cyuca1q7uc.cloudfront.net/images/v2/spacer.gif"/></a>
<div class="p">
<a href="/spanish_feeds/word_of_the_day" title="Spanish Word of the Day">Word of the Day</a><br/>
<a href="/spanish_feeds/idiom_of_the_day" title="Spanish Phrase of the Day">Phrase of the Day</a><br/>
<a href="/spanish_feeds/verb_of_the_day" title="Spanish Verb of the Day">Verb of the Day</a><br/>
</div>
</div>
<div class="home-block home-block2">
<h1><a href="/learn_spanish/medical-spanish">Medical Spanish</a></h1>
<a href="/learn_spanish/medical-spanish"><img alt="Medical Spanish" src="https://d1a9cyuca1q7uc.cloudfront.net/images/v2/sc/medical-spanish.jpg"/></a>
<p>
      The largest source of medical Spanish resources on the Internet.
    </p>
</div>
<div class="home-block home-block3">
<h1><a href="/learn_spanish/reading_comprehension_index">Reading Comprehension</a></h1>
<a href="/learn_spanish/reading_comprehension_index"><img alt="Spanish Reading Comprehension" class="home-icon word-day" src="https://d1a9cyuca1q7uc.cloudfront.net/images/v2/trw/reading-vocab-and-quizzes.jpg"/></a>
<p>Texts and quizzes for improving Spanish reading comprehension at all levels from beginner to advanced. </p>
</div>
<div class="clear"></div>
</div>
<div class="edih-full">
<form accept-charset="UTF-8" action="" method="post" onsubmit="return false;"><input name="utf8" type="hidden" value="✓"/><input name="authenticity_token" type="hidden" value="aiptwkAr0AzNpcXrXDLEZxbOjZ8b1Q3+mwI7v9IbDHGq6ucjGj08YqdsuJhR0HxhXWH4Xa3o6B138ZztXI3BkA=="/>
  I am here to:
  <select name="reason">
<option>learn Spanish free online</option>
<option>learn Spanish fluently</option>
<option>speak a little Spanish</option>
<option>impress somebody</option>
<option>find an immersion program</option>
</select>
</form></div>
<script type="application/ld+json">
{
   "@context": "http://schema.org",
   "@type": "WebSite",
   "url": "https://www.123teachme.com/",
   "potentialAction": {
     "@type": "SearchAction",
     "target": "https://www.123teachme.com/spanish_search/{search_term_string}",
     "query-input": "required name=search_term_string"
   }
}
</script>
<br/>
<!--end content-->
<link href="https://d2rz0v2975e4re.cloudfront.net/assets/combined-96d56ca0a77cee056a31d43041c41eff24ad6d6338acdcd97d8a382dbb7bac3a.css" media="screen" rel="stylesheet"/>
<br/>
<div class="clear"></div>
</div>
<div class="clear"></div>
</div> <!-- end #content -->
<div class="clear"></div>
<hr/>
<div style="padding: 0 20px;">
<br/><br/>

  Popular Phrase:
  <a href="/spanish_search/conversational_spanish">conversational spanish</a>
    | <a href="http://www.123teachme.com">Free Online Spanish Lessons</a>


| Conjugated Verb:
  <a href="/spanish_verb_conjugation/amar">amar</a> - to love
  [ <a href="/spanish_verb_conjugation/amar">click for full conjugation</a> ]


	</div>
</div> <!-- end #main-body -->
<hr/>
<div class="clear"></div>
<div id="v2-footer">
<div class="col col1">
<div class="title">Members</div>
<a href="/members/base/login">Members Log in</a><br/>
<a href="/contact">Contact</a><br/>
<a href="/about_us.html">About</a><br/>
<a href="/learn_spanish/faqs_help">Help</a>
</div>
<div class="col col2">
<div class="title"><a href="/learn_spanish/beginner/">Resources</a></div>
<a href="/translated_sentences/sp">Spanish Sentences by Example</a><br/>
<a href="/online_spanish_test">Spanish Placement Test</a><br/>
<a href="/spanish_verb_conjugation">Verb Conjugator</a><br/>
</div>
<div class="col col3">
<div class="title">Kids Corner</div>
<a href="/learn_spanish/spanish_games_for_children">Games</a><br/>
<a href="/learn_spanish/spanish_for_children">Spanish for Kids</a><br/>
</div>
<div class="col col4">
<div class="title"><a href="/learn_spanish/teachers_resources">Teacher's Resources</a></div>
<a href="/spanish_worksheets/list_all">Spanish Worksheets</a><br/>
<a href="/learn_spanish/videos_in_spanish_with_quizzes">Spanish Videos</a><br/>
<a href="/learn_spanish/lecturas_indece_principiante">Discussion Topics</a><br/>
<a href="/spelling_quiz/list">Spelling</a><br/>
</div>
<div class="col col5">
<div class="title">123TeachMe</div>
<a href="/site_map">Sitemap</a><br/>
<a href="/contents/">Editors</a><br/>
<a href="http://spanishblog.123teachme.com/">Blog</a>
</div>
<div class="col col6">
<div class="title">Be Social</div>
<a class="fb" href="https://www.facebook.com/123TeachMe" rel="nofollow" target="_blank"> </a>
<a class="yt" href="https://www.youtube.com/user/MrLearnSpanish/featured" rel="nofollow noopener" target="_blank"> </a>
<div class="clear"></div>
</div>
<div class="clear"></div>
<div class="copyright">
      Copyright 2002-2021 <a href="/" target="_blank">123TeachMe.com</a>   All rights reserved.
        |   <a href="/learn_spanish/privacy_policy">Privacy Policy</a>
        |   <a href="/site_map">Sitemap</a>
</div>
</div>
</div> <!-- end #wrap -->
<script src="https://d2rz0v2975e4re.cloudfront.net/assets/content_helper_scripts-a0465622b0017524aac9ad3e51e49591ee4eb69e7b94332fec53a26196bded55.js"></script>
<script src="https://d2rz0v2975e4re.cloudfront.net/assets/application-fe67e58eecaea4c87f4a8ecdad50acd8abb1d52ed1123246977943ec28c07e16.js"></script>
</body>
</html>
