<html>
<head>
<meta content="text/html;charset=utf-8" http-equiv="Content-Type"/>
<meta content="no-cache" http-equiv="Cache-Control"/>
<meta content="no-cache" http-equiv="Pragma"/>
<meta content="0" http-equiv="Expires"/>
<meta http-equiv="Pragma-directive: no-cache"/>
<meta http-equiv="Cache-directive: no-cache"/>
<script type="text/javascript">
if(location.host === 'www.akmall.com'){
	
	document.write('<script language=\'javascript\'>');
	document.write('var _AceGID=(function(){var Inf=[\'gtp4.acecounter.com\',\'8080\',\'AM4A38636357883\',\'AW\',\'0\',\'NaPm,Ncisy\',\'ALL\',\'0\']; var _CI=(!_AceGID)?[]:_AceGID.val;var _N=0;var _T=new Image(0,0);if(_CI.join(\'.\').indexOf(Inf[3])<0){ _T.src =( location.protocol=="https:"?"https:\/\/"+Inf[0]:"http:\/\/"+Inf[0]+":"+Inf[1]) +\'\/?cookie\'; _CI.push(Inf);  _N=_CI.length; } return {o: _N,val:_CI}; })();');
	document.write('var _AceCounter=(function(){var G=_AceGID;if(G.o!=0){var _A=G.val[G.o-1];var _G=( _A[0]).substr(0,_A[0].indexOf(\'.\'));var _C=(_A[7]!=\'0\')?(_A[2]):_A[3];	var _U=( _A[5]).replace(\/\,\/g,\'_\');var _S=(([\'<scr\',\'ipt\',\'type="text\/javascr\',\'ipt"><\/scr\',\'ipt>\']).join(\'\')).replace(\'tt\',\'t src="\'+location.protocol+ \'\/\/cr.acecounter.com\/Web\/AceCounter_\'+_C+\'.js?gc=\'+_A[2]+\'&py=\'+_A[4]+\'&gd=\'+_G+\'&gp=\'+_A[1]+\'&up=\'+_U+\'&rd=\'+(new Date().getTime())+\'" t\');document.writeln(_S); return _S;} })();');
	document.write('<\/script>');
	document.write('<noscript><img src=\'http:\/\/gtp4.acecounter.com:8080\/?uid=AM4A38636357883&je=n&\' border=\'0\' width=\'0\' height=\'0\' alt=\'\'><\/noscript>');	

}else if(location.host === 'm.akmall.com'){
	document.write('<script language=\'javascript\'>');
	document.write('	var _AceGID=(function(){var Inf=[\'m.akmall.com\',\'m.akmall.com\',\'AZ3A57884\',\'AM\',\'0\',\'NaPm,Ncisy\',\'ALL\',\'0\']; var _CI=(!_AceGID)?[]:_AceGID.val;var _N=0;if(_CI.join(\'.\').indexOf(Inf[3])<0){ _CI.push(Inf);  _N=_CI.length; } return {o: _N,val:_CI}; })();');
	document.write('	var _AceCounter=(function(){var G=_AceGID;if(G.o!=0){var _A=G.val[G.o-1];var _G=( _A[0]).substr(0,_A[0].indexOf(\'.\'));var _C=(_A[7]!=\'0\')?(_A[2]):_A[3];	var _U=( _A[5]).replace(\/\,\/g,\'_\');var _S=(([\'<scr\',\'ipt\',\'type="text\/javascr\',\'ipt"><\/scr\',\'ipt>\']).join(\'\')).replace(\'tt\',\'t src="\'+location.protocol+ \'\/\/cr.acecounter.com\/Mobile\/AceCounter_\'+_C+\'.js?gc=\'+_A[2]+\'&py=\'+_A[4]+\'&up=\'+_U+\'&rd=\'+(new Date().getTime())+\'" t\');document.writeln(_S); return _S;} })();');
	document.write('<\/script>');
	document.write('<noscript><img src=\'http:\/\/gmb.acecounter.com\/mwg\/?mid=AZ3A57884&tp=noscript&ce=0&\' border=\'0\' width=\'0\' height=\'0\' alt=\'\'><\/noscript>');
}
</script>
<!-- WISELOG TRACKING SCRIPT CODE START -->
<!-- DO NOT MODIFY THIS SCRIPT CODE. -->
<!-- COPYRIGHT (C) 1999-2010 NETHRU INC. ALL RIGHTS RESERVED. -->
<script src="/resource/common/js/wl6.js"></script>
<script type="text/javascript">	
	(function() {
		_n_sid = "www.akmall.com";
		
	    if(n_GetCookie("shoppingmallID",false) != '0')
			_n_uid_cookie = "shoppingmallID";
	    
	    _n_c_field1="assc_comp_gb";
	    _n_c_field2="assc_comp_id";
	    _n_c_field3="ecmi";
	    
	    try {
	    	n_logging();
	    } catch(e) {}
	})();
</script>
<!-- WISELOG TRACKING SCRIPT CODE END -->
<script type="text/javascript">
	if(location.host === 'sns.akmall.com')
		document.location.href = "/sns/index.html";
	else if(location.host === 'akmall.com' || location.host === 'www.akmall.com' || location.host === 'dev.akmall.com') {
		//ëª¨ë°ì¼ ê¸°ê¸°ì¬ë¶ íì¸-MOBë¡ ì íì²ë¦¬
		if(navigator.userAgent.indexOf("iPhone") > -1 || navigator.userAgent.indexOf("iPod") > -1 || navigator.userAgent.indexOf("iPad") > -1 || navigator.userAgent.indexOf("Android") > -1 ) {
		//if(navigator.userAgent.search("iPhone|iPod|iPad|Android") > -1) {
			if(location.host === 'dev.akmall.com') {
				document.location.href = "http://devm.akmall.com/main/Main.do";
			} else {
				document.location.href = "http://m.akmall.com/main/Main.do";
			}
		} else {
			document.location.href = "/main/Main.do";
		}
	}
	else
		document.location.href = "/main/Main.do";
</script>
</head>
</html>
