<!DOCTYPE html>
<html lang="tr">
<head>
<meta charset="utf-8"/>
<title>Ali Seyhan</title>
<meta content="width=device-width, initial-scale=1" name="viewport"/>
<style>
    * {
      line-height: 1.2;
      margin: 0;
    }

    html {
      color: #888;
      display: table;
      font-family: sans-serif;
      height: 100%;
      text-align: center;
      width: 100%;
    }

    body {
      display: table-cell;
      vertical-align: middle;
      margin: 2em auto;
    }

    h1 {
      color: #fd0000;
      font-size: 2em;
      font-weight: 400;
    }

    p {
      margin: 0 auto;
      width: 280px;
    }

    @media only screen and (max-width: 280px) {

      body,
      p {
        width: 95%;
      }

      h1 {
        font-size: 1.5em;
        margin: 0 0 0.3em;
      }

    }
    
  </style><!-- Global site tag (gtag.js) - Google Analytics -->
<script async="" src="https://www.googletagmanager.com/gtag/js?id=UA-36760754-1"></script>
<script>
  window.dataLayer = window.dataLayer || [];
  function gtag(){dataLayer.push(arguments);}
  gtag('js', new Date());

  gtag('config', 'UA-36760754-1');
</script>
</head>
<body>
<h1>AliSeyhan</h1>
</body>
</html>