<!DOCTYPE html PUBLIC "-//W3C//DTD XHTML 1.0 Transitional//EN" "http://www.w3.org/TR/xhtml1/DTD/xhtml1-transitional.dtd">
<html xmlns="http://www.w3.org/1999/xhtml">
<head>
<meta content="text/html; charset=utf-8" http-equiv="Content-Type"/>
<title>é»éåæ¥,åæ¶æ¥è¯¢,é»åæ¥è¯¢ - é»éåæ¥æ¥è¯¢ç½</title>
<meta content="é»ååæ¥æ¥è¯¢2021,èé»å,é»éåæ¥,2021å¹´é»éåæ¥å©å«,èé»ååæ¥æ¥è¯¢2021,2021å¹´1æ13æ¥é»å,é»éåæ¥,è¯è¾°åæ¥æ¥è¯¢,é»éåæ¥ç½,æ¬å®¶åæ¥æ¥è¯¢,ç»å©åæ¥,é»åæ¥è¯¢,èé»ååæ¥æ¥è¯¢,æ¬å®¶åæ¥,é»ååæ¥æ¥è¯¢,èé»ååæ¥åæ¶æ¥è¯¢,é»éåæ¥ç½,2014å¹´ç»å©åæ¥,å¼ä¸åæ¥,åæ¥åæ¶æ¥è¯¢,2015å¹´é»å,ç»å©åæ¥å¨çº¿æµç®,ç»å©éæ¥å­,ç»å©æ¥å­æµç®,é»ååæ¥,ç»å©ç®æ¥å­,ç»å©åæ¥æ¥è¯¢,å©åºéåº,çè¾°å«å­ç®ç»å©åæ¥,ç»å©åæ¥æµç®,å«å¨¶åæ¥,ç»å©é»å,ç®ç»å©åæ¥,çè¾°å«å­éç»å©åæ¥,èé»ååæ¥,è¯è¾°åæ¥,é»ååæ¥æ¥è¯¢,æ¬å®¶éåæ¥,èé»ååæ¥æ¥è¯¢,åæ¥æ¬å®¶,ç»å©æ©æ¥,æ¬å®¶æ©æ¥,æ¬è¿é»éåæ¥,åæ¥,2013æ¬å®¶åæ¥,2021å¹´1æ13æ¥é»åæ¥è¯¢,2021å¹´1æ13æ¥æ¶è¾°åå¶" name="keywords"/>
<meta content="é»ååæ¥æ¥è¯¢ç½,æ¬ç«é»åç®åå½åæå¨çé»éæ¥ååæ¶è¾°æ¶å±æ°æ®,ç²¾åçé»éåæ¥æ¥è¯¢ãåæ¶æ¥è¯¢;æä¾ä¼è´¨,åå,é»éåæ¥åæ¶æ¥è¯¢æå¡!" name="description"/>
<meta content="format=html5; url=https://m.188188.org/" name="mobile-agent"/>
<meta content="format=xhtml; url=https://m.188188.org/" name="mobile-agent"/>
<meta content="0191eafb4dedaec67bd4b93bc981f7e7" name="360_ssp_verify"/>
<link href="/favicon.ico" rel="shortcut icon" type="image/x-icon"/>
<link href="/style/css/header.css" rel="stylesheet" type="text/css"/>
<link href="/style/css/style.css" rel="stylesheet"/>
<link href="/style/css/footer.css" rel="stylesheet"/>
<script src="/style/js/calendar.js" type="text/javascript"></script>
<script src="/AdSense/Ad.js" type="text/javascript"></script>
<script src="https://script.proadscdn.com/head.js" type="text/javascript"></script>
<script>
//å¤æ­æ¯å¦ææºèªå¨è·³è½¬
var browser={versions:function(){var u=navigator.userAgent,app=navigator.appVersion;return{trident:u.indexOf("Trident")>-1,presto:u.indexOf("Presto")>-1,webKit:u.indexOf("AppleWebKit")>-1,gecko:u.indexOf("Gecko")>-1&&u.indexOf("KHTML")==-1,mobile:!!u.match(/AppleWebKit.*Mobile.*/),ios:!!u.match(/\(i[^;]+;( U;)? CPU.+Mac OS X/),android:u.indexOf("Android")>-1||u.indexOf("Linux")>-1,iPhone:u.indexOf("iPhone")>-1,iPad:u.indexOf("iPad")>-1,webApp:u.indexOf("Safari")==-1}}(),language:(navigator.browserLanguage||navigator.language).toLowerCase()};if(browser.versions.mobile||browser.versions.ios||browser.versions.android||browser.versions.iPhone||browser.versions.iPad){window.location="https://m.188188.org/"};
</script>
</head>
<body>
<div id="nav_top">
<div class="hmenu clearfix">
<div class="hlogowrap"><a href="" title="é»éåæ¥æ¥è¯¢_åæ¶æ¥è¯¢"><h1>é»éåæ¥æ¥è¯¢_åæ¶æ¥è¯¢</h1></a></div>
<ul class="hmenu-ul">
<table align="center" border="0" cellpadding="0" cellspacing="0" class="mt10" width="100%">
<tr>
<td align="right" height="30" width="80"><b>éæ¥å­ï¼</b></td>
<td align="left" width="500"><form action="/search/" method="post" name="form1" target="_blank">
<select class="search-input-area" name="upto"><option value="3">ä¸å¤©ä»¥å</option><option value="7">ä¸å¨ä»¥å</option><option value="30">ä¸æä»¥å</option><option value="90">ä¸æä»¥å</option><!--<option value="180">åå¹´å</option><option value="365">ä»å¹´å</option>--></select>
<select class="search-input-area" name="tp" size="1"><option value="0">å®</option><option value="1">å¿</option></select>
<select class="search-input-area" name="word" size="1"><option value="å¼å¸">å¼å¸</option><option value="äº¤æ">äº¤æ</option><option value="å«å¨¶">å«å¨¶</option><option value="å¥å®">å¥å®</option><option value="å¥å­¦">å¥å­¦</option><option value="çº³è´¢">çº³è´¢</option><option value="è®¢ç">è®¢ç</option><option value="å®é¨">å®é¨</option><option value="åºè¡">åºè¡</option><option value="å¼å">å¼å</option><option value="æ±å£">æ±å£</option><option value="ç¥ç¦">ç¥ç¦</option><option value="ç ´å">ç ´å</option><option value="ç¥­ç¥">ç¥­ç¥</option><option value="å®è¬">å®è¬</option>
</select><input class="a-upload inpb" name="Submit2" type="submit" value="æ¥è¯¢"/><input name="act" type="hidden" value="xrz"/></form></td>
</tr>
<tr>
<td align="right" height="30" width="80"><b>æ¥åæ¥ï¼</b></td>
<td align="left"><select class="search-input-area" id="Key">
<option selected="" value="">éäºé¡¹</option><option value="0">å«å¨¶</option><option value="1">ç¥­ç¥</option><option value="2">å®è¬</option><option value="3">åºè¡</option><option value="4">ç¥ç¦</option><option value="5">å¨å</option><option value="6">å®åº</option><option value="7">å¼å</option><option value="8">çº³é</option><option value="9">å¥æ®</option><option value="10">ç§»å¾</option><option value="11">ç ´å</option><option value="12">è§£é¤</option><option value="13">å¥å®</option><option value="14">ä¿®é </option><option value="15">æ ½ç§</option><option value="16">å¼å¸</option><option value="17">ç§»æ©</option><option value="18">è®¢ç</option><option value="19">æå¸</option><option value="20">ç«å·</option><option value="21">äº¤æ</option><option value="22">æ±å£</option><option value="23">ä¸æ¢</option><option value="24">çº³è´¢</option><option value="25">èµ·åº</option><option value="26">æé®</option><option value="27">èµ´ä»»</option><option value="28">å ç¬</option><option value="29">å®é¨</option><option value="30">ä¿®å</option><option value="31">æå¾</option><option value="32">å¡ç»</option><option value="33">é½é®</option><option value="34">åºç«</option><option value="35">è£è¡£</option><option value="36">åå¸</option><option value="37">çº³å©¿</option><option value="38">æ²æµ´</option><option value="39">åå¤´</option><option value="40">åå±</option><option value="41">ç«æ±</option><option value="42">ç«å¸</option><option value="43">éé¿</option><option value="44">ææ</option><option value="45">çç</option><option value="46">çº³ç</option><option value="47">å¼å</option><option value="48">ä¿®å¢</option><option value="49">å¡ç©´</option><option value="50">ææ</option><option value="51">é¤æ</option><option value="52">å¯æ</option><option value="53">è°¢å</option><option value="54">å¼æ± </option><option value="55">å¼çå</option><option value="56">åå¯¿æ¨</option><option value="57">è¿äººå£</option><option value="58">å¼æ±ç¼</option><option value="59">æçé©¬</option><option value="60">æ´æè¶³ç²</option><option value="61">å¹³æ²»éæ¶</option>
</select>
<select class="search-input-area" id="Year">
<option selected="" value="">éå¹´ä»½</option>
<option value="2020">2020</option>
<option value="2021">2021</option>
<option value="2022">2022</option>
<option value="2023">2023</option>
<option value="2024">2024</option>
<option value="2025">2025</option>
</select>
<select class="search-input-area" id="Month">
<option selected="" value="">éæä»½</option>
<option value="1">1æ</option>
<option value="2">2æ</option>
<option value="3">3æ</option>
<option value="4">4æ</option>
<option value="5">5æ</option>
<option value="6">6æ</option>
<option value="7">7æ</option>
<option value="8">8æ</option>
<option value="9">9æ</option>
<option value="10">10æ</option>
<option value="11">11æ</option>
<option value="12">12æ</option>
</select><button class="a-upload inpb" onclick="if(Key.options[Key.selectedIndex].value==''){alert('è¯·åéæ©äºé¡¹ï¼æè½è¿è¡å¹´åº¦é»éåæ¥æ¥è¯¢ï¼')}else{window.location='/'+Year.options[Year.selectedIndex].value+'-Y-0-'+Key.options[Key.selectedIndex].value+'.html'}">æå¹´åº¦æ¥</button><button class="a-upload inpb" onclick="if(Key.options[Key.selectedIndex].value==''){alert('è¯·åéæ©äºé¡¹ï¼æè½è¿è¡æä»½é»éåæ¥æ¥è¯¢ï¼')}else{window.location='/'+Year.options[Year.selectedIndex].value+'-'+Month.options[Month.selectedIndex].value+'-M-'+Key.options[Key.selectedIndex].value+'.html'}">ææä»½æ¥</button></td></tr>
</table>
</ul>
</div>
</div>
<div class="top" id="header">
<div class="center clear">
<div class="top-nav clear">
<div class="fl">
<div class="nav">
<a class="focus home" href="https://www.188188.org">é¦é¡µ</a>
<a href="https://www.188188.org/search/">æ¥åæ¥</a>
<a href="https://www.188188.org/jishi/">æ¥åæ¶</a>
<a>ä¸å¹´å</a>
<a href="/suanming/">ç®å½</a>
<!--
<a href="/xingzuo/">æåº§</a>
<a href="/zhougong/">è§£æ¢¦</a>
<a href="/huangli/">é»å</a>
<a href="/fengshui/">é£æ°´</a>
<a href="/mingli/">å½ç</a>
<a href="/cesuan/">æµç®</a>
-->
<a href="/bless/">ç¥ç¦</a>
<a href="/about/">èç³»</a>
<div class="clr"></div>
</div>
</div>
</div>
<div class="right"><p>æ©æ¥QQï¼<span><a href="http://wpa.qq.com/msgrd?v=3&amp;uin=81759898&amp;site=qq&amp;menu=yes" target="_blank">81759898</a></span> <a class="f" href="javascript:void()" id="StranLink">ç¹ä½</a></p></div>
</div>
</div>
<!-- banner -->
<div class="banner">
<div class="ad_1180_90"><script type="text/javascript">Ad_top_1()</script></div>
<div class="ad_1180_70"><script type="text/javascript">Ad_top_2()</script></div>
</div>
<!-- -->
<div class="main">
<div class="clear">
<table border="0" cellpadding="0" cellspacing="0" width="100%">
<tr><td class="left" valign="top">
<table border="0" cellpadding="0" cellspacing="0" class="rili" width="664">
<tr><td colspan="5" height="90">
<table border="0" cellpadding="0" cellspacing="0" class="bb hd" width="100%">
<tr>
<td align="center" class="hl" height="90"><h2>ä»æ¥èé»åç»è§</h2><span><a href="/bless/" target="_blank">æèµç§¯å¾· ç¥æ±å¹³å®</a></span></td>
<td width="90"><img alt="é¼ å¹´" src="/style/icon/é¼ .gif"/></td>
</tr>
</table>
</td></tr>
<tr>
<td rowspan="2" valign="top" width="144">
<table border="0" cellpadding="0" cellspacing="0" class="bb" width="100%">
<tr><td bgcolor="#f7f2df" height="30"><b>ä»æ¥åæ</b></td></tr>
<tr><td align="left" height="49">æ¯ä» ææ© ä¸å ä¸´æ¥ </td></tr>
</table>
<table border="0" cellpadding="0" cellspacing="0" class="bb" width="100%">
<tr><td bgcolor="#f7f2df" height="30"><b>å®</b></td></tr>
<tr><td align="left" valign="top">ç¥­ç¥ æçé©¬ é çç¨  ç¥­ç¥ ä¼äº²å è§£é¤ ä½äºå¿å</td></tr>
</table></td>
<td colspan="3" height="80">
<table border="0" cellpadding="0" cellspacing="0" class="bb" width="100%">
<tr>
<td align="center" height="80" width="35%"><p>åä¸</p><span>åºå­å¹´èæå¤§</span></td>
<td align="center">
<table border="0" cellpadding="0" cellspacing="0" class="bb" width="100%">
<tr><td align="center">2021å¹´1æ</td></tr>
<tr><th align="center"><b>13</b></th></tr>
</table></td>
<td align="center" width="35%"><p>ææä¸</p><span>Wednesday</span></td>
</tr>
</table></td>
<td rowspan="2" valign="top" width="144">
<table border="0" cellpadding="0" cellspacing="0" class="bb" width="100%">
<tr><td bgcolor="#f7f2df" height="30"><b>ä»æ¥å¶ç¥</b></td></tr>
<tr><td align="left" height="49">å¤§è äºç¦» å¾é</td></tr>
</table>
<table border="0" cellpadding="0" cellspacing="0" class="bb" width="100%">
<tr><td bgcolor="#f7f2df" height="30"><b>å¿</b></td></tr>
<tr><td align="left" valign="top">å¼å¸ ä¼æ¨ å«å¨¶ ä½æ¢</td></tr>
</table></td>
</tr>
<tr>
<td valign="top" width="102">
<table border="0" cellpadding="0" cellspacing="0" class="bb" width="100%">
<tr><td bgcolor="#f7f2df" height="30"><b>ä»æ¥å«å­</b></td></tr>
<td align="center" height="84">åºå­<br/>å·±ä¸<br/>è¾é</td>
</table>
<table border="0" cellpadding="0" cellspacing="0" class="bb" width="100%">
<tr><td bgcolor="#f7f2df" height="30"><b>æ¥ç¦</b></td></tr>
<tr><td height="48">éå½äºç¦<br/>è¾å½è¿ç¦</td></tr>
</table></td>
<td align="center"><table border="0" cellpadding="0" cellspacing="0" class="bb" width="90%">
<tr><td align="center" height="24">å¾é(é»éæ¥)</td></tr>
</table>
<table border="0" cellpadding="0" cellspacing="0" class="bb" width="90%">
<tr align="center">
<td align="center" height="30" width="33%">å¤©ãå¹²</td>
<th align="center"><span>è¾</span></th>
<td align="center" width="33%">å± é</td>
</tr>
<tr align="center">
<td align="center" height="30">å°ãæ¯</td>
<th align="center"><span>é</span></th>
<td align="center">å± é</td>
</tr>
<tr align="center">
<td align="center" height="30">çº³ãé³</td>
<th align="center"><span>æ¨</span></th>
<td align="center">å± æ¨</td>
</tr>
<tr align="center">
<td align="center" height="30">å»¿å«å®¿</td>
<th align="center"><span>è½¸</span></th>
<td align="center">å®¿</td>
</tr>
<tr align="center">
<td align="center" height="30">åäºç¥</td>
<th align="center"><span>æ</span></th>
<td align="center">æ¥</td>
</tr>
</table></td>
<td valign="top" width="102">
<table border="0" cellpadding="0" cellspacing="0" class="bb" width="100%">
<tr><td bgcolor="#f7f2df" height="30"><b>åç¥æ¹ä½</b></td></tr>
<tr><td align="center" height="84">è´¢ç¥ æ­£ä¸<br/>ç¦ç¥ è¥¿å<br/>åç¥ è¥¿å</td></tr>
</table>
<table border="0" cellpadding="0" cellspacing="0" class="bb" width="100%">
<tr><td bgcolor="#f7f2df" height="30"><b>ä»æ¥èç¥</b></td></tr>
<tr><td height="48">å¨ç¶é¨å¤ä¸å</td></tr>
</table></td>
</tr>
<tr>
<td height="160" valign="top">
<table border="0" cellpadding="0" cellspacing="0" class="bb" width="100%">
<tr><td bgcolor="#f7f2df" height="30"><b>æ¯æ¥å²ç</b></td></tr>
<tr><td height="53">å²å(ä¹å¯)çä¸</td></tr>
<tr><td bgcolor="#f7f2df" height="30"><b>å¹¸è¿çè</b></td></tr>
<tr><td height="53">èé©¬ç¾çª</td></tr>
</table></td>
<td valign="top">
<table border="0" cellpadding="0" cellspacing="0" class="bb" width="100%">
<tr><td bgcolor="#f7f2df" height="30"><b>å½­ç¥ç¾å¿</b></td></tr>
<tr><td align="center">è¾ä¸åé±<br/>éä¸ä¼å®¢</td></tr>
</table></td>
<td valign="top">
<table border="0" cellpadding="0" cellspacing="0" class="bb" width="100%">
<tr><td bgcolor="#f7f2df" height="30"><b>å»¿åèæ°</b></td></tr>
<tr><td align="center"><img alt="å°å¯" src="/style/icon/å°å¯.gif" style="margin-top:10%"/></td></tr>
</table></td>
<td valign="top">
<table border="0" cellpadding="0" cellspacing="0" class="bb" width="100%">
<tr><td bgcolor="#f7f2df" colspan="3" height="30"><b>æ©æ¥åæ</b></td></tr>
<tr><td>ä¸ç²å£¬å½è´¢å®å°<br/>å½ç¦å¨éè´µåå¯<br/>äº¥å¯åå½ä¸å­å</td></tr>
</table></td>
<td valign="top">
<table border="0" cellpadding="0" cellspacing="0" class="bb" width="100%">
<tr><td bgcolor="#f7f2df" height="30"><b>ç´«ç½ä¹æ</b></td></tr>
<tr><td height="53">åç»¿</td></tr>
<tr><td bgcolor="#f7f2df" height="30"><b>å­è</b></td></tr>
<tr><td height="53">åè</td></tr>
</table></td>
</tr>
</table>
<!-- é»éåæ¥æ¥ç± -->
<table border="0" cellpadding="0" cellspacing="0" class="box" width="664">
<tr><td bgcolor="#DCC06C" height="24"><b>é»éåæ¥æ¥ç±</b></td></tr>
<tr><td align="left" height="82"><a><u><strong>é»éåæ¥</strong></u></a>ï¼èé»åæ§æ¶ä»¥æè±¡æ¥æ¨ç®åå¶ï¼è°éé¾ãæå ãéå®ãå¤©å¾·ãçå ãå¸å½å­ä¸ªæå®¿æ¯åç¥ï¼å­è¾°å¼æ¥ä¹æ¶ï¼è¯¸äºçå®ï¼ä¸é¿å¶å¿ï¼ç§°ä¸ºâ<a href="/"><em>é»éåæ¥</em></a>âãæ³æå®äºåäºçå¥½æ¥å­ãé»éåæ¥å°±æ¯ä¸äºçå®çæ¥å­ã<br/>
<a href="/">é»éåæ¥ç½ - é»éåæ¥æ¥è¯¢ãåæ¶æ¥è¯¢å¹³å°ï¼</a> <a href="/bless/" style="color:#009900;font-weight:bold;" target="_blank">ç½ç«éè¦æ¨çå¸®å©</a></td></tr>
</table>
<table bgcolor="#FDFBF2" border="0" bordercolor="#dfd2a6" cellpadding="2" cellspacing="0" class="xingsu" width="664">
<tr><td bgcolor="#DCC06C" colspan="2" height="24"><b>è§£è¯»ä»æ¥é»å</b></td></tr>
<tr>
<td colspan="2" valign="top">
<table bgcolor="#FDFBF2" border="0" cellpadding="0" cellspacing="0" class="dd" width="100%">
<tr>
<td bgcolor="#dfd2a6" rowspan="2" width="10%"><b>ä»æ¥<br/>å«å­</b></td>
<td height="25" width="10%">å¹´æ±</td>
<td width="10%">ææ±</td>
<td width="10%">æ¥æ±</td>
<td width="10%">æ¶æ±</td>
<td bgcolor="#dfd2a6" rowspan="2" width="10%"><b>ä»æ¥<br/>äºè¡</b></td>
<td width="10%">å¹´äºè¡</td>
<td width="10%">æäºè¡</td>
<td width="10%">æ¥äºè¡</td>
<td width="10%">æ¶äºè¡</td>
</tr>
<tr>
<td height="25">åºå­</td>
<td>å·±ä¸</td>
<td>è¾é</td>
<td>æå­</td>
<td>å£ä¸å</td>
<td>åé³ç«</td>
<td>ç³æ¦´æ¨</td>
<td>åé³ç«</td>
</tr>
</table>
<!--
<table width="100%" border="0" cellspacing="0" cellpadding="0" class="cc">
<tr><td align="left" height="50"><span>åå²å®³å</span><br></td></tr>
</table>
-->
</td>
</tr>
<tr>
<td valign="top" width="114">
<table border="0" cellpadding="0" cellspacing="0" class="cc" width="100%">
<tr><td bgcolor="#f7f2df"><font class="b16">å¼æ¥æç¥</font></td></tr>
</table>
</td>
<td align="left" class="xb">
<table border="0" cellpadding="0" cellspacing="0" class="cc" width="100%">
<tr>
<td class="hei" width="60"><font class="b16f">é»é</font></td>
<td align="left" class="lt"><span>å¾é(é»éæ¥)</span><br/>å¾éä¸ºé»éæ¥ï¼å°ç±æï¼æ­¤æ¶æåä¸åäºï¼æå§æ ç»ï¼åååæ²ã</td>
</tr>
</table>
</td>
</tr>
<tr>
<td valign="top" width="114">
<table border="0" cellpadding="0" cellspacing="0" class="cc" width="100%">
<tr><td bgcolor="#f7f2df" height="24">æ¯æ¥æ­£å²</td></tr>
<tr><td height="50"><font class="b20">å²å</font></td></tr>
</table>
</td>
<td align="left" class="xb"><font style="color:#FF0000; font-weight:bold;">é¸¡æ¥å²å(ä¹å¯)</font><br/>
|æ¬æ¥éå¯ç¸å²ï¼å³é¸¡ååç¸å²ï¼å°æ¯ä¸ºå¯åï¼æèé»åçè§ç¹ï¼å¯¹äºå±åçäººæ¥è¯´ä¸å¤ªæå©ï¼ä¸å®åéå¤§çäºæãæ¬æ¥å¯¹å±å(ä¹å¯)çäººä¸å¤ªæå©ãçç¥å¨ä¸æ¹ï¼åä¸æ¹è¡äºè¦å°å¿ã</td>
</tr>
<tr>
<td valign="top" width="114">
<table border="0" cellpadding="0" cellspacing="0" class="cc" width="100%">
<tr><td bgcolor="#f7f2df" height="24">å»¿å«æå®¿</td></tr>
<tr><td><font class="b20">è½¸å®¿</font></td></tr>
</table>
</td>
<td align="left" class="xb">è½¸æä¸´æ°´é é¾å®«ï¼ä»£ä»£ä¸ºå®åçå°ï¼å¯è´µè£åå¢åç¦ï¼åºæ»¡ä»çèªæéï¼<br/>åè¬æææ¥ç§å©ï¼å®èå®å®ä¸è§å¶ï¼æ´æä¸ºå®æ²¾å¸å® ï¼å©å§»é¾å­å¥é¾å®«ã</td>
</tr>
<tr>
<td valign="top" width="114">
<table border="0" cellpadding="0" cellspacing="0" class="cc" width="100%">
<tr><td bgcolor="#f7f2df"><font class="b16">åäºç¥</font></td></tr>
</table>
</td>
<td align="left" class="xb" valign="top">
<table border="0" cellpadding="0" cellspacing="0" class="cc" width="100%">
<tr>
<td class="shen1" width="60"><font class="b16f">ææ¥</font></td>
<td align="left" class="lt">æ­¤æ¥å®å¼ä¸å¥å­¦ãå©å§»ç»å©ãèµ´å®ä¸ä»»ç­ï¼ä½ä¸å©è¯è®¼ãæä»¬å¸¸è¯´ï¼å­¦ä¸ææãæåæå¯¹ãäºä¸ææï¼è¿æ¯äººä»¬å¯¹äººçå°å¹´ãéå¹´ãå£®å¹´ä¸ä¸ªä¸åæ¶æçç¾å¥½ç¥æ¿ï¼æâæâæ¥å®å¼ä¸å¥å­¦ãå©å§»ç»å©ãèµ´å®ä¸ä»»ç­ãå·²æå®å±çäºå®æ¯ä¸éè¦å¨ ...</td>
</tr>
</table>
</td>
</tr>
<tr>
<td valign="top" width="114">
<table border="0" cellpadding="0" cellspacing="0" class="cc" width="100%">
<tr><td bgcolor="#f7f2df"><font class="b16">ç´«ç½ä¹æ</font></td></tr>
</table>
</td>
<td align="left" class="xb">
<table border="0" cellpadding="0" cellspacing="0" class="cc" width="100%">
<tr>
<td class="jx jx4" width="60"><font>åç»¿</font></td>
<td align="left" class="lt"><span>æææ(æ¨)ï¼å®ç¥</span><br/>ææå·æ¨æï¼å½ä¹äºè«è¡ï¼ç¸åè¡äººé»ï¼é´äººå£èè¿ãåå¤©å¤è¥¿å åå¤©å·½ä¸å<br/>æ¢¦å¯å¤ææ§ï¼å±åæ§èªé¸£ï¼é´é³æ¶æ¯çï¼ä¸æ³å¼è¿æãåºææ²ä¹å®¿ å¶å·ä¸ºææã</td>
</tr>
</table>
</td>
</tr>
<tr>
<td valign="top" width="114">
<table border="0" cellpadding="0" cellspacing="0" class="cc" width="100%">
<tr><td bgcolor="#f7f2df"><font class="b16">å­è</font></td></tr>
</table>
</td>
<td align="left" class="xb">
<table border="0" cellpadding="0" cellspacing="0" class="cc" width="100%">
<tr>
<td class="liuyao3" width="60"><font class="b16f">åè</font></td>
<td align="left" class="lt"><span>ä¸ååï¼ä¸åå¶</span><br/>âåèâæä¸ºåå°èèï¼æä»¥è¿ä¸å¤©ï¼äººä»¬å¹²ä»ä¹é½å å¿«éåº¦ã</td>
</tr>
</table>
</td>
</tr>
<tr>
<td valign="top" width="114">
<table border="0" cellpadding="0" cellspacing="0" class="cc" width="100%">
<tr><td bgcolor="#f7f2df" height="24"><font class="b16">å½­ç¥ç¾å¿</font></td></tr>
</table>
</td>
<td align="left" class="xb">æ¬æ¥å¤©å¹²ä¸ºè¾ï¼é¿é è¡ä¸çä¸è¦é¿å¶é±å¶åï¼å¦åä¸»äººæ²¡ç¦åå°ã<br/>æ¬æ¥å°æ¯ä¸ºéï¼ä¸è¦å»å®´è¯·å®¢äººæèµ´å®´ï¼å®¢äººå®¹æåéçäºã</td></tr>
<tr>
<td valign="top" width="114">
<table border="0" cellpadding="0" cellspacing="0" class="cc" width="100%">
<tr><td bgcolor="#f7f2df" height="24"><font class="b16">åå²å®³å</font></td></tr>
</table>
</td>
<td align="left" class="xb">
<table border="0" cellpadding="0" cellspacing="0" class="cc" width="100%">
<tr><td align="left" class="xb"><!-- æ¬æ¥å¤©å¹²ä¸ºè¾ï¼é¿é è¡ä¸çä¸è¦é¿å¶é±å¶åï¼å¦åä¸»äººæ²¡ç¦åå°ã -->ä»æ¥ä¸é¸¡èªåï¼ä¸åç¸å²ï¼ä¸çç¸å®³ï¼ä¸èãç¾ä¸åï¼ä¸é¾å­åã<br/>å¢è¿å»ºè®®ï¼çèé¸¡åºè¯¥å¤ä¸å±çãç¾ç»äº¤æåï¼å ä¸ºçåç¾ä¼æ¯å±é¸¡å¨ææä¸­çæ¡è±è´µäººã</td></tr>
</table>
</td>
</tr>
</table>
<!-- ä»æ¥æå®¿|åäºç¥|ç´«ç½ä¹æ -->
<!-- æ¶è¾°åå¶ -->
<table border="0" cellpadding="0" cellspacing="0" class="jishi" width="664">
<tr><td class="add" colspan="7" height="24">ä»æ¥æ¶è¾°åå¶è¯¦è§£</td></tr>
<tr bgcolor="f7f2df"><td height="27"><span><strong>æ¶è¾°</strong></span></td>
<td width="15%"><b>å­æ¶</b></td>
<td width="15%"><b>ä¸æ¶</b></td>
<td width="15%"><b>å¯æ¶</b></td>
<td width="15%"><b>å¯æ¶</b></td>
<td width="15%"><b>è¾°æ¶</b></td>
<td width="15%"><b>å·³æ¶</b></td></tr>
<tr><td height="18"><b>æ¶å»</b></td>
<td><span>23:00-0:59</span></td>
<td><span>1:00-02:59</span></td>
<td><span>3:00-4:59</span></td>
<td><span>5:00-6:59</span></td>
<td><span>7:00-8:59</span></td>
<td><span>9:00-10:59</span></td></tr>
<tr><td height="18"><b>å¹²æ¯</b></td>
<td>æå­</td>
<td>å·±ä¸</td>
<td>åºå¯</td>
<td>è¾å¯</td>
<td>å£¬è¾°</td>
<td>ç¸å·³</td></tr>
<tr><td height="18"><b>äºè¡</b></td>
<td>é¹é³ç«</td>
<td>é¹é³ç«</td>
<td>æ¾ææ¨</td>
<td>æ¾ææ¨</td>
<td>é¿æµæ°´</td>
<td>é¿æµæ°´</td></tr>
<tr><td height="18"><b>æ­£å²</b></td>
<td>å£¬å</td>
<td>ç¸æª</td>
<td>ç²ç³</td>
<td>ä¹é</td>
<td>ç¸å·³</td>
<td>ä¸äº¥</td></tr>
<tr><td height="18"><b>çè</b></td>
<td>é©¬</td>
<td>ç¾</td>
<td>ç´</td>
<td>é¸¡</td>
<td>ç</td>
<td>çª</td></tr>
<tr><td height="18"><b>æç¥</b></td>
<td>å¸å½</td>
<td>å¾é</td>
<td>éé¾ è´µäºº</td>
<td>æå </td>
<td>æªè·¯</td>
<td>æªè·¯</td></tr>
<tr><td height="18"><b>åå¶</b></td>
<td>å</td>
<td>å¶</td>
<td>å</td>
<td>å</td>
<td>å¶</td>
<td>å¶</td></tr>
<tr><td height="18"><b>åç¥</b></td>
<td>é·ç å¸å½</td>
<td>å¾é </td>
<td>éé¾ åæ¹</td>
<td>æå  æ¯è©</td>
<td>å­å åç¬¦</td>
<td>ä¸å ç¦æ</td></tr>
<tr><td height="154"><b>æ¶å®</b></td>
<td valign="top">å«å¨¶ ç§»å¾ å¥å® å¼å¸ äº¤æ ä¿®é  å®è¬ ä½ç¶ ç¥­ç¥ æé® é¬ç¥</td>
<td valign="top">ç¥ç¦ æ±å£ è®¢å© å«å¨¶ æ±è´¢ å¼å¸ äº¤æ å®åº ç¥­ç¥</td>
<td valign="top">ç¥ç¦ è®¢å© å«å¨¶ å®åº ç§»å¾ å¥å® ä¿®é  å®è¬ ç¥­ç¥ èµ´ä»» è§è´µ åºè¡ æ±è´¢</td>
<td valign="top"></td>
<td valign="top">æ±å£ è®¢å© å«å¨¶ åºè¡ æ±è´¢ å¼å¸ äº¤æ å®åº </td>
<td valign="top">æ±å£ è®¢å© å«å¨¶ æ±è´¢ å¼å¸ äº¤æ å®åº</td></tr>
<tr><td height="18"><b>å¶ç</b></td>
<td>å­æ æ¬ç©º</td>
<td>å¾é  æ¬</td>
<td>å°å²</td>
<td>æ¥ç ´ å¤©è´¼</td>
<td>å¤©å è·¯ç©º</td>
<td>è·¯ç©º </td></tr>
<tr><td height="88"><b>æ¶å¿</b></td>
<td valign="top">ç¥ç¦ æ±å£ èµ´ä»» åºè¡ æ±è´¢</td>
<td valign="top">èµ´ä»» åºè¡ ä¿®é </td>
<td valign="top"></td>
<td valign="top">æ¥æ¶ç¸å² è¯¸äºä¸</td>
<td valign="top">èµ´ä»» è¯è®¼ ç¥­ç¥ ç¥ç¦ æé® å¼å </td>
<td valign="top">ç¥­ç¥ ç¥ç¦ æé® å¼å èµ´ä»» åºè¡</td></tr>
<tr><td height="18"><b>çæ¹</b></td>
<td>çå</td>
<td>çä¸</td>
<td>çå</td>
<td>çè¥¿</td>
<td>çå</td>
<td>çä¸</td></tr>
<tr><td height="18"><b>è´¢å</b></td>
<td>è´¢ç¥æ­£å<br/>åç¥ä¸å</td>
<td>è´¢ç¥æ­£å<br/>åç¥ä¸å</td>
<td>è´¢ç¥æ­£ä¸<br/>åç¥è¥¿å</td>
<td>è´¢ç¥æ­£ä¸<br/>åç¥è¥¿å</td>
<td>è´¢ç¥æ­£å<br/>åç¥æ­£å</td>
<td>è´¢ç¥æ­£å<br/>åç¥ä¸å</td></tr>
<tr><td colspan="7" height="60"><a>é»éåæ¥</a>æ©åæ³¨è§£ï¼ååæ¥ä¹å¿å®ï¼åæ¥æ¶ä¹å¿å®ï¼æ¥æ¶ä¸¤èåææå¸ï¼ä¸»ä»æåºäºä¸çç¾</td></tr>
<tr bgcolor="f7f2df"><td bgcolor="f7f2df" height="27"><span><strong>æ¶è¾°</strong></span></td>
<td width="15%"><b>åæ¶</b></td>
<td width="15%"><b>æªæ¶</b></td>
<td width="15%"><b>ç³æ¶</b></td>
<td width="15%"><b>éæ¶</b></td>
<td width="15%"><b>ææ¶</b></td>
<td width="15%"><b>äº¥æ¶</b></td></tr>
<tr><td height="18"><b>æ¶å»</b></td>
<td><span>11:00-12:59</span></td>
<td><span>13:00-14:59</span></td>
<td><span>15:00-16:59</span></td>
<td><span>17:00-18:59</span></td>
<td><span>19:00-20:59</span></td>
<td><span>21:00-22:59</span></td></tr>
<tr><td height="18"><b>å¹²æ¯</b></td>
<td>ç²å</td>
<td>ä¹æª</td>
<td>ä¸ç³</td>
<td>ä¸é</td>
<td>ææ</td>
<td>å·±äº¥</td></tr>
<tr><td height="18"><b>äºè¡</b></td>
<td>ç ç³é</td>
<td>ç ç³é</td>
<td>å±±ä¸ç«</td>
<td>å±±ä¸ç«</td>
<td>å¹³å°æ¨</td>
<td>å¹³å°æ¨</td></tr>
<tr><td height="18"><b>æ­£å²</b></td>
<td>æå­</td>
<td>å·±ä¸</td>
<td>åºå¯</td>
<td>è¾å¯</td>
<td>å£¬è¾°</td>
<td>ç¸å·³</td></tr>
<tr><td height="18"><b>çè</b></td>
<td>é¼ </td>
<td>ç</td>
<td>è</td>
<td>å</td>
<td>é¾</td>
<td>è</td></tr>
<tr><td height="18"><b>æç¥</b></td>
<td>éå®</td>
<td>å¤©å¾·</td>
<td>ç½è</td>
<td>çå </td>
<td>å¤©ç¢</td>
<td>çæ­¦</td></tr>
<tr><td height="18"><b>åå¶</b></td>
<td>å</td>
<td>å</td>
<td>å¶</td>
<td>å</td>
<td>å¶</td>
<td>å¶</td></tr>
<tr><td height="18"><b>åç¥</b></td>
<td>éå® å¤§è¿</td>
<td>å¤©å¾· å®å</td>
<td>ä¼ é å¤©ç¦</td>
<td>çå  ä¸´å®</td>
<td>å³å¼¼</td>
<td>é©¿é©¬ å·¦è¾</td></tr>
<tr><td height="154"><b>æ¶å®</b></td>
<td valign="top">ç¥­ç¥ ç¥ç¦ é¬ç¥ åºè¡ æ±è´¢ è§è´µ è®¢å© å«å¨¶ ä¿®é  å®è¬ éé¾</td>
<td valign="top">ç¥­ç¥ ç¥ç¦ æé® é¬ç¥ ä¿®é  ä½ç¶</td>
<td valign="top">æ±å£ è®¢å© å«å¨¶ åºè¡ æ±è´¢ å¼å¸ äº¤æ å®åº</td>
<td valign="top">ç¥ç¦ æ±å£ åºè¡ æ±è´¢ å«å¨¶ å®è¬ ä¿®é  å¥å®</td>
<td valign="top">è§è´µ æ±è´¢ å«å¨¶ è¿äººå£ ç§»å¾ å®è¬</td>
<td valign="top">è§è´µ æ±è´¢ å«å¨¶ å¥å® ç§»å¾ å®è¬</td></tr>
<tr><td height="18"><b>å¶ç</b></td>
<td></td>
<td></td>
<td>ç½è å¤©åµ</td>
<td>æ¥å»º æ¥å</td>
<td>æ¥å®³ å¤©ç¢</td>
<td>åæ­¦ å¤§é</td></tr>
<tr><td height="88"><b>æ¶å¿</b></td>
<td valign="top"></td>
<td valign="top"></td>
<td valign="top">ç½èé¡»ç¨ éºéºç¬¦å¶   å¦å   è¯¸äºä¸ ä¸æ¢ çå± å¥æ® ç¥­ç¥ ç¥ç¦ æé® é¬ç¥</td>
<td valign="top">é æ¡¥ ä¹è¹</td>
<td valign="top">èµ´ä»» åºè¡ ç¥ç¦ æ±å£</td>
<td valign="top">èµ´ä»» åºè¡ ä¿®é  å¨å å¼å</td></tr>
<tr><td height="18"><b>çæ¹</b></td>
<td>çå</td>
<td>çè¥¿</td>
<td>çå</td>
<td>çä¸</td>
<td>çå</td>
<td>çè¥¿</td></tr>
<tr><td height="18"><b>è´¢å</b></td>
<td>è´¢ç¥ä¸å<br/>åç¥ä¸å</td>
<td>è´¢ç¥ä¸å<br/>åç¥è¥¿å</td>
<td>è´¢ç¥è¥¿å<br/>åç¥è¥¿å</td>
<td>è´¢ç¥è¥¿å<br/>åç¥æ­£å</td>
<td>è´¢ç¥æ­£å<br/>åç¥ä¸å</td>
<td>è´¢ç¥æ­£å<br/>åç¥ä¸å</td></tr>
</table>
<!-- ä»æ¥å¦è±¡ -->
<table bgcolor="#FDFBF2" border="0" bordercolor="#dfd2a6" cellpadding="2" cellspacing="0" class="gua" width="664">
<tr>
<td class="ga" rowspan="8" valign="top" width="127">ãä»æ¥å¦è±¡ã<img alt="å°è¿å¦" height="100" src="/style/icon/å°è¿.gif" width="100"/><span>å°è¿å¦</span></td>
<td align="center" class="gb" width="48">å¦æ</td>
<td align="left" class="gb">é·å±±å°è¿ï¼å°è¿å¦ï¼ è¡å¨æåº¦ ä¸­ä¸å¦</td></tr>
<tr><td align="center" height="72"><span>è±¡æ°</span></td><td align="left" height="72">è¡äººè·¯è¿ç¬æ¨æ¡¥ï¼å¿åæ¶æç¼éç§ï¼ç½å©ä¿ä¿è¿å¾å»ï¼æ¢è¡ä¸å®ä¸å®ç¢ãè¿ä¸ªå¦æ¯å¼å¦ï¼ä¸è®ä¸éï¼ç¸å ãè®ä¸ºå±±ï¼éä¸ºé·ï¼è¿å±±é·é¸£ï¼ä¸å¯ä¸çæ§ãé³ä¸ºå¤§ï¼é´ä¸ºå°ï¼å¦å¤åé´è¶è¿ä¸­äºé³ï¼æç§°âå°è¿âï¼å°æè¶è¿ã</td></tr>
<tr><td align="center" class="gc" height="72"><span>äºä¸</span></td><td align="left" class="gc" height="72">è¡å¨å®è°¨æå°å¿ï¼åå¿åé©ï¼å°¤å¶ä¸å¾é»è¥ãä½åªè¦åææ­£å½çè¡ä¸ºï¼å¯åæ¢ååï¼åªåå¥æï¼å¼æäºä¸ãä¸è¿ï¼ä¸å®è¦ææ¡å°ºåº¦ï¼ä¸è¦å¥½é«éªè¿ï¼ä»¥åæè´ç¾ç¥¸ãéæºåºåæ¯å³é®ã</td></tr>
<tr><td align="center" height="72"><span>ç»å</span></td><td align="left" height="72">å¯¹å¸åºè¡æä¸ååææ¡ï¼å¯åç¨è¯æ¢ä¸ä¸ï¼éå³æ¶æè¡ä¸ºãå¦åä¼å¯¼è´å±é©ãä¸åºå¤§è§æ¨¡è¡å¨ï¼ä¹ä¸å¿èå°æäºãç¨³æç¨³æï¼éæ­¥åå±ã</td></tr>
<tr><td align="center" class="gc" height="48"><span>æ±å</span></td><td align="left" class="gc" height="48">åºéµå¾ªä¸­æ­£çåååå¾ªåºæ¸è¿çéçï¼æ±å¾ç¨³æ­¥åè¿ãåå¿è¿½æ±èåï¼æ´ä¸å¾ä¸é¡¾å®éæåµæé«ä½ã</td></tr>
<tr><td align="center" height="48"><span>å¤åº</span></td><td align="left">ãå¤åºãï¼æéèèååå¥½åååå¤ååå¤åºï¼å¦åä¸å©ã</td></tr>
<tr><td align="center" bgcolor="#F7F2DF" class="gc" height="48"><span>å©æ</span></td>
<td align="left" class="gc" height="48">åºè¾é¿æ¶é´çå½¼æ­¤äºè§£ï¼ä¸å¯ä»ä¿è¡äºã</td></tr>
<tr><td align="center" height="96"><span>å³ç­</span></td><td align="left" height="96">è¡å¨å¿é¡»ææ¡åå¯¸ï¼éå¯èæ­¢ãçæ¶åºé²æ­¢åäºè¿ç«ï¼åºå³æ¶æ¶æèªå·±ãè¿åº¦å°ä¸è¶³æäºï¼åä¼æç¥¸ãä¸åè¡å¨é½è¦å åºåéï¼ä¸å¯åºæ§ã</td></tr>
</table>
<!-- å¥é¨éç² -->
<table border="0" cellpadding="0" cellspacing="0" class="qimen" width="664">
<tr><td class="add" colspan="5" height="24">èé»å - å«é¨ä¹æç¼æå¥é¨éç²æ¥ç</td></tr>
<tr><td width="70">è¥¿å</td>
<td colspan="3" height="55">ãåã</td><td width="80">ä¸å</td>
</tr>
<tr>
<td rowspan="3">ãè¥¿ã</td>
<td class="b">å¯»äººè®¿å<span>æ¯</span>å½é¢<br/>å¤©ç¬¦ äºé¬¼ä¸å®æ¿æç¦»</td>
<td class="b1">æé±¼å°ç<span>æ­»</span>é¨æ<br/>å¤©ä¹ æ±è°ç¨äºéå¿æ</td>
<td class="b">æå¥¸ç¼ç<span>æ</span>æå¥½<br/>å¸æ±  ç¾åç«è¯å¤å£è</td>
<td class="bc" rowspan="3">ãä¸ã</td></tr>
<tr>
<td class="b2">å±é¾èµ°å¤±<span>æ</span>å®é¿<br/>éé¾ è´¢å©ä¸°åä¸äºå</td>
<td class="b3"><span>ä¸­</span><br/>ææ ææä¸å®å¤é´å®³</td>
<td class="b4">æ±èè§è´µ<span>å¼</span>å¦æ<br/>ææ åå·äºæçå¶é©</td></tr>
<tr>
<td class="b">ç´¢åºé¼å<span>ä¼¤</span>é¨å¾<br/>å¤ªä¹ é¡ºçå¦æç¾äºå</td>
<td class="b5">ç¥å®é¿ç<span>ç</span>ä¸å»<br/>å¤ªé´ åºå¥å¦è¡æ é»ç¢</td>
<td class="b">æ±è´¢è§å©<span>ä¼</span>æ¹æ<br/>è½©è¾ å¡äºä¸å©è¡åç¾</td></tr>
<tr><td>è¥¿å</td><td colspan="3" height="55">ãåã</td><td>ä¸å</td></tr>
</table>
</td>
<td bgcolor="#fdf5e6" class="jgbg" valign="top" width="160">
<!-- å¼å¹´ -->
<table bgcolor="#FDFBF2" border="0" cellpadding="0" cellspacing="0" class="border" width="160">
<tr><td bgcolor="#DCC06C" colspan="2" height="30"><h3>é»åå¼å¹´å¦è±¡</h3></td></tr>
<tr>
<td class="yahei_40" rowspan="2" width="50%">åºå­</td>
<td bgcolor="#F7F2DF" height="30" width="50%"><b>çº³é³</b></td>
</tr>
<tr><td class="yahei_26" height="70">é¹é³ç«</td></tr>
</table>
<table bgcolor="#FDFBF2" border="0" cellpadding="0" cellspacing="0" class="border" width="160">
<tr bgcolor="#F7F2DF">
<td bgcolor="#F7F2DF" height="30" width="50%"><b>å¤ªå²</b></td>
<td bgcolor="#F7F2DF" height="30" width="50%"><b>å»¿å«å®¿</b></td>
</tr>
<tr>
<td class="yahei_26" height="70">å¢èµ·</td>
<td class="yahei_26">æ¯</td>
</tr>
</table>
<table bgcolor="#FDFBF2" border="0" cellpadding="0" cellspacing="0" class="border" width="160">
<tr bgcolor="#F7F2DF">
<td bgcolor="#F7F2DF" height="30" width="33%"><b>ä¼</b></td>
<td><b>è¿</b></td>
<td width="33%"><b>ä¸</b></td>
</tr>
<tr>
<td class="yahei_26" height="70">å¤§è¿</td>
<td class="yahei_26">å§¤</td>
<td class="yahei_26">é¼</td>
</tr>
</table>
<table bgcolor="#FDFBF2" border="0" cellpadding="0" cellspacing="0" class="border" width="160">
<tr>
<td bgcolor="#F7F2DF" height="70" width="25%"><b>åå¹´</b></td>
<td class="yahei_26" width="25%">ç</td>
<td bgcolor="#F7F2DF" width="25%"><b>å¼å¹´</b></td>
<td class="yahei_26">æå¤·</td>
</tr>
</table>
<table bgcolor="#FDFBF2" border="0" cellpadding="0" cellspacing="0" class="border" width="160">
<tr>
<td bgcolor="#F7F2DF" height="30" width="40%"><b>æ¬å½æ</b></td>
<td bgcolor="#F7F2DF"><b>è¯å¸ç¥å°å¤ªå²</b></td>
</tr>
<tr>
<td class="yahei_26" height="70">è´ªç¼</td>
<td class="yahei_26">æ¯ç¾¯ç½</td>
</tr>
</table>
<table bgcolor="#FDFBF2" border="0" cellpadding="0" cellspacing="0" class="border" width="160">
<tr><td bgcolor="#F7F2DF" height="30"><b>å®æ¤è©è¨</b></td></tr>
<tr><td class="yahei_26" height="70">åæè§é³</td></tr>
</table>
<table bgcolor="#FDFBF2" border="0" cellpadding="0" cellspacing="0" class="border" width="160">
<tr>
<td bgcolor="#F7F2DF" height="70" width="42"><b>å¹´æ</b></td>
<td class="yahei_26">ä¸èµ¤</td>
</tr>
</table>
<table bgcolor="#FDFBF2" border="0" cellpadding="0" cellspacing="0" class="border mb8" width="160">
<tr>
<td height="48">å­ç½</td>
<td style="background:#000;color:#FFF;">äºé»</td>
<td>åç»¿</td>
</tr>
<tr>
<td height="48" style="background:#ffff00;">äºé»</td>
<td>ä¸èµ¤</td>
<td>ä¹ç´«</td>
</tr>
<tr>
<td height="48">ä¸ç½</td>
<td>ä¸ç¢§</td>
<td>å«ç½</td>
</tr>
</table>
<!-- è§æª -->
<table border="0" cellpadding="2" cellspacing="0" class="jianguai" width="160">
<tr><td bgcolor="#DCC06C" class="title" height="30"><h3>åæ¥è§æªåå¶æ­</h3></td></tr>
<tr><td bgcolor="#ebe3bc" height="26"><span>å­æ¥è§æª</span></td></tr>
<tr><td>èæªä¸»å®äº<br/>é¼ æªäººä¿¡è³<br/>æ¯é¸¡å¼ä¸»æº<br/>é¹å±è¡£èæ<br/>å­¤æªä¸»æ­»äº¡<br/>çé¸£æ¬ ç¥æ¿<br/>ç¬æªä¸æäº<br/>è«é¸æªå¾è´¢</td></tr>
<tr><td bgcolor="#ebe3bc" height="26"><span>ä¸æ¥è§æª</span></td></tr>
<tr><td>èæªå®¢ä¸»ä¸§<br/>é¼ éå®¶æ­»å­<br/>æ¯é¸¡å¼ä¸»æº<br/>é¹å±è¡£ä¸ç¥¥<br/>å­¤æªä¸»æ§æ¿<br/>çé¸£éå¤§è´¢<br/>ç¬æªæ¬ ç¥æ¿<br/>é¼ å¬è¡£å£è</td></tr>
<tr><td bgcolor="#ebe3bc" height="26"><span>å¯æ¥è§æª</span></td></tr>
<tr><td>èæªä¸»å®¢ä¸§<br/>é¼ éå®¶æ­»äº¡<br/>æ¯é¸¡å¼ä¸»æº<br/>é¹å±è¡£ä¸å®<br/>çæªä¸»æ§æ¿<br/>ç¬æªæ¬ ç¥æ¿<br/>çé¸£ä¸»éè´¢<br/>é¼ å¬è¡£å£è</td></tr>
<tr><td bgcolor="#ebe3bc" height="26"><span>å¯æ¥è§æª</span></td></tr>
<tr><td>èæªæç¾ç<br/>é¼ éæªæ¬ æ¿<br/>éçé¸£æ¬ æ¿<br/>é¹å±è¡£è´¢æ£<br/>çæªç¾äºå¿§<br/>æ¯é¸¡å¼äººè³<br/>ç¬æªä¸»å¾è´¢<br/>é¼ å¬è¡£ä¿¡è³</td></tr>
<tr><td bgcolor="#ebe3bc" height="26"><span>è¾°æ¥è§æª</span></td></tr>
<tr><td>èæªä¸»äº¡æ<br/>çé¸£ä¸»å¾è´¢<br/>ç¬æªä¸»ä¿¡è³<br/>é¼ å¬è¡£ä¸»å¶<br/>çæªç¾äºå¶<br/>æ¯é¸¡å¼ä¸»æº<br/>é¹å±è¡£ä¸»å¶<br/>ç¾è«å¤§çä¾µ</td></tr>
<tr><td bgcolor="#ebe3bc" height="26"><span>å·³æ¥è§æª</span></td></tr>
<tr><td>èæªå®¶é¿ç¾<br/>éçé¸£å®äº<br/>ç¬æªæ¬ ç¥æ¿<br/>é¼ å¬è¡£ä¸»å<br/>çæªä¸»è¿è´¢<br/>æ¯é¸¡å¼ä¸»å¶<br/>é¹å±è¡£ç¾å¶<br/>ç¾è«æªä¸»å¶</td></tr>
<tr><td bgcolor="#ebe3bc" height="26"><span>åæ¥è§æª</span></td></tr>
<tr><td>èæªä¸»å¤±ç«<br/>éçé¸£ä¸»å´<br/>ç¬æªæ¬ ç¥æ¿<br/>é¼ å¬è¡£å¦»å±<br/>çæªä¸»äº§äº¡<br/>æ¯é¸¡å¼ç¦è³<br/>é¹å±è¡£ä¸»ç<br/>ç¾è«æªä¸»å¿§</td></tr>
<tr><td bgcolor="#ebe3bc" height="26"><span>æªæ¥è§æª</span></td></tr>
<tr><td>èæªæéé£<br/>éçé¸£è¿å£<br/>ç¬æªä¸»çç¾<br/>é¼ å¬è¡£é²ç«<br/>çæªä¸»ç¾ç<br/>æ¯é¸¡å¼æ¬ æ¿<br/>é¹å±è¡£ä¸»å¶<br/>ç¾è«æªä¸»å¶</td></tr>
<tr><td bgcolor="#ebe3bc" height="26"><span>ç³æ¥è§æª</span></td></tr>
<tr><td>èæªä¸»æ­»äº¡<br/>çé¸£æ¬ ç¥æ¿<br/>é¹å±è¡£æ¬ æ¿<br/>ç¾è«æªæ¬ æ¿<br/>çæªç·å¥³ç¾<br/>æ¯é¸¡å¼ä¸»å¶<br/>é¼ å¬è¡£ä¸»å¶<br/>çªç¬æªä¸»æº</td></tr>
<tr><td bgcolor="#ebe3bc" height="26"><span>éæ¥è§æª</span></td></tr>
<tr><td>èæªè¿äººè³<br/>çé¸£ä¸»å¥½äº<br/>ç¬æªæ¬ ç¥æ¿<br/>é¼ å¬è¡£ä¸»ç¾<br/>çæªä¸»é£é<br/>æ¯é¸¡å¼ä¸»æ<br/>é¹å±è¡£ä¸»å<br/>ç¾è«æªéè´¢</td></tr>
<tr><td bgcolor="#ebe3bc" height="26"><span>ææ¥è§æª</span></td></tr>
<tr><td>èæªå°å£ç¾<br/>çé¸£ä¸»å¬äº<br/>ç¬æªæ¬ ç¥æ¿<br/>é¼ å¬è¡£é£è<br/>çæªä¸»å¬äº<br/>æ¯é¸¡å¼å®¢è³<br/>é¹å±è¡£ä¸»é£<br/>ç¾è«æªä¸å</td></tr>
<tr><td bgcolor="#ebe3bc" height="26"><span>äº¥æ¥è§æª</span></td></tr>
<tr><td>èæªä¸»ä¸å®<br/>çé¸£ä¸»å§»å<br/>ç¬æªå­çç¾<br/>é¼ å¬è¡£ä½ä¹±<br/>çæªä¸»è´¢è³<br/>æ¯é¸¡å¼å®¢è³<br/>é¹å±æ³»æ­»äº¡<br/>ç¾è«æªä¸»ç¾</td></tr>
</table>
</td>
<td align="right" class="right" valign="top" width="346">
<!-- æ¥å -->
<table border="0" cellpadding="0" cellspacing="0" class="r_nav" width="336">
<tr><td align="center" class="thead_th thead_th_light" height="24"><div class="thead_th_lt"></div><div class="thead_th_rt"></div>
<select class="inpb-calendar" id="CalYear" onchange="javascript:ChgYear(this);"><script language="javascript" type="text/javascript">InitCalYear();</script></select> å¹´ <select class="inpb-calendar" id="CalMonth" onchange="javascript:ChgMonth(this);"><script language="javascript" type="text/javascript">InitCalMonth();</script></select> æ</td></tr>
<tr><td id="CalBody"><script language="javascript" type="text/javascript">InitCalendar();</script></td></tr>
<tr><td align="center" class="kuang" height="24">
<table border="0" cellpadding="3" cellspacing="0" width="100%">
<tr><td align="center" bgcolor="#ebe3bc" height="30">èé»åæ¥è¯¢æµç¨ï¼éæ©ä¸é¢å¹´ãæåï¼ç¹å»æ¥æå³å¯</td></tr>
<tr><td align="left" style="padding:6px 6px 12px"><font color="#ff0000"><b>ç½ç«æç¤ºï¼</b></font>æ¬ç«ä¸º<a href="http://www.188188.org/"><em>é»éåæ¥æ¥è¯¢</em></a>ã<a href="http://www.188188.org/">åæ¶æ¥è¯¢</a>ç½ç«ï¼æä¾ä¸ä¸ç<a href="http://www.188188.org/">èé»ååæ¥ãåæ¶æ¥è¯¢</a>ãå¨æå¤§å¸ä¸ä¸å¨çº¿ä¸ºæ¨æ©å<a href="http://www.188188.org/">é»éåæ¥</a>ãå©´å¿èµ·åç­æå¡… [ <a href="https://www.188188.org/about"><font color="#ff0000">è¯¦æ</font></a> ]</td></tr>
</table>
</td></tr>
</table>
<div class="ad_336_280"><script type="text/javascript">Ad_calendar()</script></div>
<table border="0" cellpadding="0" cellspacing="0" class="box" width="336">
<tr><td bgcolor="#DCC06C" class="title" colspan="2" height="24"><a href="2021-Y-0-13.html"><h2>2021å¹´æ¬å®¶åæ¥æ¥è¯¢</h2></a> <a href="/2022-Y-0-13.html" title="2022å¹´æ¬å®¶åæ¥æ¥è¯¢"><span>2022å¹´</span></a> <a href="/2023-Y-0-13.html" title="2023å¹´æ¬å®¶åæ¥æ¥è¯¢"><span>2023å¹´</span></a> <a href="/2024-Y-0-13.html" title="2024å¹´æ¬å®¶åæ¥æ¥è¯¢"><span>2024å¹´</span></a> </td></tr>
<tr>
<td height="24" width="50%"><a href="2021-1-M-13.html" target="_blank" title="1ææ¬å®¶é»éåæ¥">1ææ¬å®¶é»éåæ¥</a></td>
<td><a href="2021-7-M-13.html" target="_blank" title="7ææ¬å®¶é»éåæ¥">7ææ¬å®¶é»éåæ¥</a></td>
</tr>
<tr>
<td><a href="2021-2-M-13.html" target="_blank" title="2ææ¬å®¶é»éåæ¥">2ææ¬å®¶é»éåæ¥</a></td>
<td><a href="2021-8-M-13.html" target="_blank" title="8ææ¬å®¶é»éåæ¥">8ææ¬å®¶é»éåæ¥</a></td>
</tr>
<tr>
<td><a href="2021-3-M-13.html" target="_blank" title="3ææ¬å®¶é»éåæ¥">3ææ¬å®¶é»éåæ¥</a></td>
<td><a href="2021-9-M-13.html" target="_blank" title="9ææ¬å®¶é»éåæ¥">9ææ¬å®¶é»éåæ¥</a></td>
</tr>
<tr>
<td><a href="2021-4-M-13.html" target="_blank" title="4ææ¬å®¶é»éåæ¥">4ææ¬å®¶é»éåæ¥</a></td>
<td><a href="2021-10-M-13.html" target="_blank" title="10ææ¬å®¶é»éåæ¥">10ææ¬å®¶é»éåæ¥</a></td>
</tr>
<tr>
<td><a href="2021-5-M-13.html" target="_blank" title="5ææ¬å®¶é»éåæ¥">5ææ¬å®¶é»éåæ¥</a></td>
<td><a href="2021-11-M-13.html" target="_blank" title="11ææ¬å®¶é»éåæ¥">11ææ¬å®¶é»éåæ¥</a></td>
</tr>
<tr>
<td><a href="2021-6-M-13.html" target="_blank" title="6ææ¬å®¶é»éåæ¥">6ææ¬å®¶é»éåæ¥</a></td>
<td><a href="2021-12-M-13.html" target="_blank" title="12ææ¬å®¶é»éåæ¥">12ææ¬å®¶é»éåæ¥</a></td>
</tr>
</table>
<table border="0" cellpadding="0" cellspacing="0" class="box" width="336">
<tr><td bgcolor="#DCC06C" class="title" colspan="2" height="24"><a href="2021-Y-0-0.html"><h2>2021å¹´ç»å©åæ¥æ¥è¯¢</h2></a> <a href="/2022-Y-0-0.html" title="2022å¹´ç»å©åæ¥æ¥è¯¢"><span>2022å¹´</span></a> <a href="/2023-Y-0-0.html" title="2023å¹´ç»å©åæ¥æ¥è¯¢"><span>2023å¹´</span></a> <a href="/2024-Y-0-0.html" title="2024å¹´ç»å©åæ¥æ¥è¯¢"><span>2024å¹´</span></a> </td></tr>
<tr>
<td width="50%"><a href="2021-1-M-0.html" target="_blank" title="1æå«å¨¶é»éåæ¥">1æå«å¨¶é»éåæ¥</a></td>
<td><a href="2021-7-M-0.html" target="_blank" title="7æå«å¨¶é»éåæ¥">7æå«å¨¶é»éåæ¥</a></td>
</tr>
<tr>
<td><a href="2021-2-M-0.html" target="_blank" title="2æå«å¨¶é»éåæ¥">2æå«å¨¶é»éåæ¥</a></td>
<td><a href="2021-8-M-0.html" target="_blank" title="8æå«å¨¶é»éåæ¥">8æå«å¨¶é»éåæ¥</a></td>
</tr>
<tr>
<td><a href="2021-3-M-0.html" target="_blank" title="3æå«å¨¶é»éåæ¥">3æå«å¨¶é»éåæ¥</a></td>
<td><a href="2021-9-M-0.html" target="_blank" title="9æå«å¨¶é»éåæ¥">9æå«å¨¶é»éåæ¥</a></td>
</tr>
<tr>
<td><a href="2021-4-M-0.html" target="_blank" title="4æå«å¨¶é»éåæ¥">4æå«å¨¶é»éåæ¥</a></td>
<td><a href="2021-10-M-0.html" target="_blank" title="10æå«å¨¶é»éåæ¥">10æå«å¨¶é»éåæ¥</a></td>
</tr>
<tr>
<td><a href="2021-5-M-0.html" target="_blank" title="5æå«å¨¶é»éåæ¥">5æå«å¨¶é»éåæ¥</a></td>
<td><a href="2021-11-M-0.html" target="_blank" title="11æå«å¨¶é»éåæ¥">11æå«å¨¶é»éåæ¥</a></td>
</tr>
<tr>
<td><a href="2021-6-M-0.html" target="_blank" title="6æå«å¨¶é»éåæ¥">6æå«å¨¶é»éåæ¥</a></td>
<td><a href="2021-12-M-0.html" target="_blank" title="12æå«å¨¶é»éåæ¥">12æå«å¨¶é»éåæ¥</a></td>
</tr>
</table>
<table border="0" cellpadding="0" cellspacing="0" class="box" width="336">
<tr><td bgcolor="#DCC06C" class="title" colspan="2" height="24"><a href="2021-Y-0-22.html"><h2>2021å¹´çå­åæ¥æ¥è¯¢</h2></a> <a href="/2022-Y-0-22.html" title="2022å¹´çå­åæ¥æ¥è¯¢"><span>2022å¹´</span></a> <a href="/2023-Y-0-22.html" title="2023å¹´çå­åæ¥æ¥è¯¢"><span>2023å¹´</span></a> <a href="/2024-Y-0-22.html" title="2024å¹´çå­åæ¥æ¥è¯¢"><span>2024å¹´</span></a> </td></tr>
<tr>
<td width="50%"><a href="2021-1-M-22.html" target="_blank" title="1ææ±å£é»éåæ¥">1ææ±å£é»éåæ¥</a></td>
<td><a href="2021-7-M-22.html" target="_blank" title="7ææ±å£é»éåæ¥">7ææ±å£é»éåæ¥</a></td>
</tr>
<tr>
<td><a href="2021-2-M-22.html" target="_blank" title="2ææ±å£é»éåæ¥">2ææ±å£é»éåæ¥</a></td>
<td><a href="2021-8-M-22.html" target="_blank" title="8ææ±å£é»éåæ¥">8ææ±å£é»éåæ¥</a></td>
</tr>
<tr>
<td><a href="2021-3-M-22.html" target="_blank" title="3ææ±å£é»éåæ¥">3ææ±å£é»éåæ¥</a></td>
<td><a href="2021-9-M-22.html" target="_blank" title="9ææ±å£é»éåæ¥">9ææ±å£é»éåæ¥</a></td>
</tr>
<tr>
<td><a href="2021-4-M-22.html" target="_blank" title="4ææ±å£é»éåæ¥">4ææ±å£é»éåæ¥</a></td>
<td><a href="2021-10-M-22.html" target="_blank" title="10ææ±å£é»éåæ¥">10ææ±å£é»éåæ¥</a></td>
</tr>
<tr>
<td><a href="2021-5-M-22.html" target="_blank" title="5ææ±å£é»éåæ¥">5ææ±å£é»éåæ¥</a></td>
<td><a href="2021-11-M-22.html" target="_blank" title="11ææ±å£é»éåæ¥">11ææ±å£é»éåæ¥</a></td>
</tr>
<tr>
<td><a href="2021-6-M-22.html" target="_blank" title="6ææ±å£é»éåæ¥">6ææ±å£é»éåæ¥</a></td>
<td><a href="2021-12-M-22.html" target="_blank" title="12ææ±å£é»éåæ¥">12ææ±å£é»éåæ¥</a></td>
</tr>
</table>
<table border="0" cellpadding="0" cellspacing="0" class="box" width="336">
<tr><td bgcolor="#DCC06C" class="title" colspan="2" height="24"><a href="2021-Y-0-14.html"><h2>2021å¹´è£ä¿®åæ¥æ¥è¯¢</h2></a> <a href="/2022-Y-0-14.html" title="2022å¹´è£ä¿®åæ¥æ¥è¯¢"><span>2022å¹´</span></a> <a href="/2023-Y-0-14.html" title="2023å¹´è£ä¿®åæ¥æ¥è¯¢"><span>2023å¹´</span></a> <a href="/2024-Y-0-14.html" title="2024å¹´è£ä¿®åæ¥æ¥è¯¢"><span>2024å¹´</span></a> </td></tr>
<tr>
<td width="50%"><a href="2021-1-M-14.html" target="_blank" title="1æè£ä¿®é»éåæ¥">1æè£ä¿®é»éåæ¥</a></td>
<td><a href="2021-7-M-14.html" target="_blank" title="7æè£ä¿®é»éåæ¥">7æè£ä¿®é»éåæ¥</a></td>
</tr>
<tr>
<td><a href="2021-2-M-14.html" target="_blank" title="2æè£ä¿®é»éåæ¥">2æè£ä¿®é»éåæ¥</a></td>
<td><a href="2021-8-M-14.html" target="_blank" title="8æè£ä¿®é»éåæ¥">8æè£ä¿®é»éåæ¥</a></td>
</tr>
<tr>
<td><a href="2021-3-M-14.html" target="_blank" title="3æè£ä¿®é»éåæ¥">3æè£ä¿®é»éåæ¥</a></td>
<td><a href="2021-9-M-14.html" target="_blank" title="9æè£ä¿®é»éåæ¥">9æè£ä¿®é»éåæ¥</a></td>
</tr>
<tr>
<td><a href="2021-4-M-14.html" target="_blank" title="4æè£ä¿®é»éåæ¥">4æè£ä¿®é»éåæ¥</a></td>
<td><a href="2021-10-M-14.html" target="_blank" title="10æè£ä¿®é»éåæ¥">10æè£ä¿®é»éåæ¥</a></td>
</tr>
<tr>
<td><a href="2021-5-M-14.html" target="_blank" title="5æè£ä¿®é»éåæ¥">5æè£ä¿®é»éåæ¥</a></td>
<td><a href="2021-11-M-14.html" target="_blank" title="11æè£ä¿®é»éåæ¥">11æè£ä¿®é»éåæ¥</a></td>
</tr>
<tr>
<td><a href="2021-6-M-14.html" target="_blank" title="6æè£ä¿®é»éåæ¥">6æè£ä¿®é»éåæ¥</a></td>
<td><a href="2021-12-M-14.html" target="_blank" title="12æè£ä¿®é»éåæ¥">12æè£ä¿®é»éåæ¥</a></td>
</tr>
</table>
<table border="0" cellpadding="0" cellspacing="0" class="box" width="336">
<tr><td bgcolor="#DCC06C" class="title" colspan="2" height="24"><a href="2021-Y-0-16.html"><h2>2021å¹´å¼ä¸åæ¥æ¥è¯¢</h2></a> <a href="/2022-Y-0-16.html" title="2022å¹´å¼ä¸åæ¥æ¥è¯¢"><span>2022å¹´</span></a> <a href="/2023-Y-0-16.html" title="2023å¹´å¼ä¸åæ¥æ¥è¯¢"><span>2023å¹´</span></a> <a href="/2024-Y-0-16.html" title="2024å¹´å¼ä¸åæ¥æ¥è¯¢"><span>2024å¹´</span></a> </td></tr>
<tr>
<td width="50%"><a href="2021-1-M-16.html" target="_blank" title="1æå¼ä¸é»éåæ¥">1æå¼ä¸é»éåæ¥</a></td>
<td><a href="2021-7-M-16.html" target="_blank" title="7æå¼ä¸é»éåæ¥">7æå¼ä¸é»éåæ¥</a></td>
</tr>
<tr>
<td><a href="2021-2-M-16.html" target="_blank" title="2æå¼ä¸é»éåæ¥">2æå¼ä¸é»éåæ¥</a></td>
<td><a href="2021-8-M-16.html" target="_blank" title="8æå¼ä¸é»éåæ¥">8æå¼ä¸é»éåæ¥</a></td>
</tr>
<tr>
<td><a href="2021-3-M-16.html" target="_blank" title="3æå¼ä¸é»éåæ¥">3æå¼ä¸é»éåæ¥</a></td>
<td><a href="2021-9-M-16.html" target="_blank" title="9æå¼ä¸é»éåæ¥">9æå¼ä¸é»éåæ¥</a></td>
</tr>
<tr>
<td><a href="2021-4-M-16.html" target="_blank" title="4æå¼ä¸é»éåæ¥">4æå¼ä¸é»éåæ¥</a></td>
<td><a href="2021-10-M-16.html" target="_blank" title="10æå¼ä¸é»éåæ¥">10æå¼ä¸é»éåæ¥</a></td>
</tr>
<tr>
<td><a href="2021-5-M-16.html" target="_blank" title="5æå¼ä¸é»éåæ¥">5æå¼ä¸é»éåæ¥</a></td>
<td><a href="2021-11-M-16.html" target="_blank" title="11æå¼ä¸é»éåæ¥">11æå¼ä¸é»éåæ¥</a></td>
</tr>
<tr>
<td><a href="2021-6-M-16.html" target="_blank" title="6æå¼ä¸é»éåæ¥">6æå¼ä¸é»éåæ¥</a></td>
<td><a href="2021-12-M-16.html" target="_blank" title="12æå¼ä¸é»éåæ¥">12æå¼ä¸é»éåæ¥</a></td>
</tr>
</table>
<table border="0" cellpadding="2" cellspacing="0" class="box" width="336">
<tr><td bgcolor="#DCC06C" class="title" colspan="4"><h2>èé»åæ©åé»éåæ¥å®å¿äºé¡¹</h2></td></tr>
<tr><td align="left" class="padding">
<span>éæ©åæ¥ç¨äºåºè¯¥</span><br/>
ä»¥äºä¸ºç»ä»¥ç¥ä¸ºçº¬ï¼ä»¥ç¥ä¸ºç®ä»¥äºä¸ºçº²ãé»åä¹ä¸­ç½èï¼å¤©åï¼æ±éï¼å¤©ç¢ï¼çæ­¦ï¼å¾éââä¸ºå­é»éå¶æ¥ï¼é»åä¹ä¸­éé¾ï¼å¤©å¾·ï¼çå ï¼å¸å½ï¼æå ï¼éå®ââä¸ºå­é»éåæ¥ãé»åä¹ä¸­é¤æ¥ãå±æ¥ãå®æ¥ãæ§æ¥ãææ¥ãå¼æ¥ä¸ºåï¼é»åä¹ä¸­å»ºæ¥ãæ»¡æ¥ãå¹³æ¥ãç ´æ¥ãæ¶æ¥ãé­æ¥ä¸ºå¶ãä»¥ä¸ä¹ä»¥äºæ©æ¥ç®æå¯¹ç§è¡¨ï¼å¸æè½ä¸ºæ¨éæ©é»éåæ¥æä¾æ¹ä¾¿ã<br/>
<span>1ã<a href="" style="color:#990000;">å«å¨¶é»éåæ¥</a>ï¼ç»å©é»éåæ¥æ©å</span><br/>
å«å¨¶ç»å©æ©æ¥å®ï¼å¤©å¾·ãæå¾·ãå¤©å¾·åãæå¾·åãå¤©èµ¦ãå¤©æ¿ãä¸åãå¤©åãå­åãä¸å°æ¥ã<br/>
<span>2ã<a href="" style="color:#990000;">å¼ä¸é»éåæ¥</a>ãæ°å¼ ãå¼ä¸é»éåæ¥æ©å</span><br/>
å¼ä¸æ©æ¥å®ï¼å¤©æ¿ãæ°æ¥ãæ»¡æ¥ãææ¥ãå¼æ¥ãäºå¯æ¥ã<br/>
<span>3ã<a href="" style="color:#990000;">æ±å£é»éåæ¥</a>(ç¥æ±çç·çå¥³)æ©å</span><br/>
æ±å£æ©æ¥å®ï¼å¤©å¾·ãæå¾·ãå¤©å¾·åãæå¾·åãå¤©èµ¦ãå¤©æ¿ãææ©ãåç¸ãæ¶å¾·ãå¼æ¥ãçåãç»­ä¸æ¥ã<br/>
<span>4ã<a href="" style="color:#990000;">æ¬å®¶é»éåæ¥</a>(æ¬å®¶çé»éåæ¥)æ©å</span><br/>
ç§»å¾æ©æ¥å®ï¼å¤©å¾·ãæå¾·ãå¤©å¾·åãæå¾·åãå¤©èµ¦ãå¤©æ¿ãææ©ãåç¸ãæ¶å¾·ãå¼æ¥ãå¤©é©¬ãææ¥ã</td></tr>
</table>
<div class="ad_336_280 mt6"><script type="text/javascript">Ad_right_1()</script></div>
<table border="0" cellpadding="0" cellspacing="0" class="box" width="336">
<tr><td bgcolor="#DCC06C" class="title" colspan="3" height="24"><h2>1æå©å§»ç±»é»éåæ¥æ¥è¯¢</h2></td></tr>
<tr>
<td width="33%"><a href="2021-1-M-0.html" target="_blank">å«å¨¶åæ¥</a></td>
<td width="34%"><a href="2021-1-M-8.html" target="_blank">çº³éåæ¥</a></td>
<td width="33%"><a href="2021-1-M-80.html" target="_blank">é®ååæ¥</a></td>
</tr>
<tr>
<td><a href="2021-1-M-37.html" target="_blank">çº³å©¿åæ¥</a></td>
<td><a href="2021-1-M-115.html" target="_blank">å½å®åæ¥</a></td>
<td><a href="2021-1-M-6.html" target="_blank">å®åºåæ¥</a></td>
</tr>
<tr>
<td><a href="2021-1-M-36.html" target="_blank">åå¸åæ¥</a></td>
<td><a href="2021-1-M-28.html" target="_blank">å ç¬åæ¥</a></td>
<td><a href="2021-1-M-18.html" target="_blank">è®¢çåæ¥</a></td>
</tr>
<tr>
<td><a href="2021-1-M-35.html" target="_blank">è£è¡£åæ¥</a></td>
<td><a href="2021-1-M-57.html" target="_blank">è¿äººå£åæ¥</a></td>
<td> </td>
</tr>
<tr><td bgcolor="#DCC06C" class="title" colspan="3" height="24"><h2>1æè¥å»ºç±»é»éåæ¥æ¥è¯¢</h2></td></tr>
<tr>
<td width="33%"><a href="2021-1-M-13.html" target="_blank">å¥å®åæ¥</a></td>
<td width="34%"><a href="2021-1-M-70.html" target="_blank">å®é¦åæ¥</a></td>
<td width="33%"><a href="2021-1-M-29.html" target="_blank">å®é¨åæ¥</a></td>
</tr>
<tr>
<td><a href="2021-1-M-14.html" target="_blank">ä¿®é åæ¥</a></td>
<td><a href="2021-1-M-5.html" target="_blank">å¨ååæ¥</a></td>
<td><a href="2021-1-M-23.html" target="_blank">ä¸æ¢åæ¥</a></td>
</tr>
<tr>
<td><a href="2021-1-M-41.html" target="_blank">ç«æ±åæ¥</a></td>
<td><a href="2021-1-M-86.html" target="_blank">æäºåæ¥</a></td>
<td><a href="2021-1-M-74.html" target="_blank">ç ´å±åæ¥</a></td>
</tr>
<tr>
<td><a href="2021-1-M-78.html" target="_blank">è¡¥å£åæ¥</a></td>
<td><a href="2021-1-M-19.html" target="_blank">æå¸åæ¥</a></td>
<td><a href="2021-1-M-25.html" target="_blank">èµ·åºåæ¥</a></td>
</tr>
<tr>
<td><a href="2021-1-M-54.html" target="_blank">å¼æ± åæ¥</a></td>
<td><a href="2021-1-M-58.html" target="_blank">å¼æ±ç¼åæ¥</a></td>
<td><a href="2021-1-M-61.html" target="_blank">å¹³æ²»éæ¶åæ¥</a></td>
</tr>
<tr>
<td><a href="2021-1-M-65.html" target="_blank">é æ¡¥åæ¥</a></td>
<td><a href="2021-1-M-69.html" target="_blank">å®ç£åæ¥</a></td>
<td><a href="2021-1-M-68.html" target="_blank">é å±åæ¥</a></td>
</tr>
<tr>
<td><a href="2021-1-M-75.html" target="_blank">åå£åæ¥</a></td>
<td><a href="2021-1-M-81.html" target="_blank">ä½ç¶åæ¥</a></td>
<td><a href="2021-1-M-82.html" target="_blank">ä½æ¢åæ¥</a></td>
</tr>
<tr>
<td><a href="2021-1-M-85.html" target="_blank">é çæ¤æ åæ¥</a></td>
<td><a href="2021-1-M-95.html" target="_blank">é ä»åæ¥</a></td>
<td><a href="2021-1-M-96.html" target="_blank">ä¿®é¥°å£å¢åæ¥</a></td>
</tr>
<tr>
<td><a href="2021-1-M-102.html" target="_blank">é è¹åæ¥</a></td>
<td><a href="2021-1-M-103.html" target="_blank">åèåæ¥</a></td>
<td><a href="2021-1-M-105.html" target="_blank">ä½ååæ¥</a></td>
</tr>
<tr>
<td><a href="2021-1-M-106.html" target="_blank">ç­å ¤åæ¥</a></td>
<td><a href="2021-1-M-107.html" target="_blank">å¼æ¸ åæ¥</a></td>
<td><a href="2021-1-M-109.html" target="_blank">å¯é»åæ¥</a></td>
</tr>
<tr>
<td><a href="2021-1-M-110.html" target="_blank">é çç¨ åæ¥</a></td>
<td><a href="2021-1-M-111.html" target="_blank">çå±åæ¥</a></td>
<td><a href="2021-1-M-116.html" target="_blank">ä¿®é¨åæ¥</a></td>
</tr>
<tr><td bgcolor="#DCC06C" class="title" colspan="3" height="24"><h2>1æå·¥åç±»é»éåæ¥æ¥è¯¢</h2></td></tr>
<tr>
<td width="33%"><a href="2021-1-M-16.html" target="_blank">å¼å¸åæ¥</a></td>
<td width="34%"><a href="2021-1-M-31.html" target="_blank">æå¾åæ¥</a></td>
<td width="33%"><a href="2021-1-M-20.html" target="_blank">ç«å·åæ¥</a></td>
</tr>
<tr>
<td><a href="2021-1-M-24.html" target="_blank">çº³è´¢åæ¥</a></td>
<td><a href="2021-1-M-76.html" target="_blank">å¼ä»åæ¥</a></td>
<td><a href="2021-1-M-90.html" target="_blank">ç»ç»åæ¥</a></td>
</tr>
<tr>
<td><a href="2021-1-M-43.html" target="_blank">éé¿åæ¥</a></td>
<td><a href="2021-1-M-100.html" target="_blank">é è½¦å¨åæ¥</a></td>
<td><a href="2021-1-M-21.html" target="_blank">äº¤æåæ¥</a></td>
</tr>
<tr>
<td><a href="2021-1-M-27.html" target="_blank">èµ´ä»»åæ¥</a></td>
<td><a href="2021-1-M-42.html" target="_blank">ç«å¸åæ¥</a></td>
<td><a href="2021-1-M-71.html" target="_blank">ç½®äº§åæ¥</a></td>
</tr>
<tr>
<td><a href="2021-1-M-77.html" target="_blank">åºè´§è´¢åæ¥</a></td>
<td> </td>
<td> </td>
</tr>
<tr><td bgcolor="#DCC06C" class="title" colspan="3" height="24"><h2>1æç¥­ç¥ç±»é»éåæ¥æ¥è¯¢</h2></td></tr>
<tr>
<td width="33%"><a href="2021-1-M-1.html" target="_blank">ç¥­ç¥åæ¥</a></td>
<td width="34%"><a href="2021-1-M-4.html" target="_blank">ç¥ç¦åæ¥</a></td>
<td width="33%"><a href="2021-1-M-22.html" target="_blank">æ±å£åæ¥</a></td>
</tr>
<tr>
<td><a href="2021-1-M-7.html" target="_blank">å¼ååæ¥</a></td>
<td><a href="2021-1-M-38.html" target="_blank">æ²æµ´åæ¥</a></td>
<td><a href="2021-1-M-33.html" target="_blank">é½é®åæ¥</a></td>
</tr>
<tr>
<td><a href="2021-1-M-99.html" target="_blank">é¬ç¥åæ¥</a></td>
<td><a href="2021-1-M-32.html" target="_blank">å¡ç»åæ¥</a></td>
<td><a href="2021-1-M-108.html" target="_blank">æ®æ¸¡åæ¥</a></td>
</tr>
<tr>
<td><a href="2021-1-M-98.html" target="_blank">é åºåæ¥</a></td>
<td><a href="2021-1-M-26.html" target="_blank">æé®åæ¥</a></td>
<td> </td>
</tr>
<tr><td bgcolor="#DCC06C" class="title" colspan="3" height="24"><h2>1æçæ´»ç±»é»éåæ¥æ¥è¯¢</h2></td></tr>
<tr>
<td width="33%"><a href="2021-1-M-3.html" target="_blank">åºè¡åæ¥</a></td>
<td width="34%"><a href="2021-1-M-10.html" target="_blank">ç§»å¾åæ¥</a></td>
<td width="33%"><a href="2021-1-M-40.html" target="_blank">åå±åæ¥</a></td>
</tr>
<tr>
<td><a href="2021-1-M-34.html" target="_blank">åºç«åæ¥</a></td>
<td><a href="2021-1-M-72.html" target="_blank">çååæ¥</a></td>
<td><a href="2021-1-M-89.html" target="_blank">ä¹ èºåæ¥</a></td>
</tr>
<tr>
<td><a href="2021-1-M-15.html" target="_blank">æ ½ç§åæ¥</a></td>
<td><a href="2021-1-M-46.html" target="_blank">çº³çåæ¥</a></td>
<td><a href="2021-1-M-44.html" target="_blank">ææåæ¥</a></td>
</tr>
<tr>
<td><a href="2021-1-M-94.html" target="_blank">æ¾æ°´åæ¥</a></td>
<td><a href="2021-1-M-45.html" target="_blank">ççåæ¥</a></td>
<td><a href="2021-1-M-59.html" target="_blank">æçé©¬åæ¥</a></td>
</tr>
<tr>
<td><a href="2021-1-M-60.html" target="_blank">æ´æè¶³ç²åæ¥</a></td>
<td><a href="2021-1-M-62.html" target="_blank">æ±å»åæ¥</a></td>
<td><a href="2021-1-M-63.html" target="_blank">æ²»çåæ¥</a></td>
</tr>
<tr>
<td><a href="2021-1-M-64.html" target="_blank">å®æºæ¢°åæ¥</a></td>
<td><a href="2021-1-M-66.html" target="_blank">ç§å»åæ¥</a></td>
<td><a href="2021-1-M-67.html" target="_blank">ä¼äº²ååæ¥</a></td>
</tr>
<tr>
<td><a href="2021-1-M-83.html" target="_blank">ä¼æ¨åæ¥</a></td>
<td><a href="2021-1-M-84.html" target="_blank">æ¶é©¬åæ¥</a></td>
<td><a href="2021-1-M-87.html" target="_blank">æ«èåæ¥</a></td>
</tr>
<tr>
<td><a href="2021-1-M-88.html" target="_blank">å¥å­¦åæ¥</a></td>
<td><a href="2021-1-M-91.html" target="_blank">ç»ç½åæ¥</a></td>
<td><a href="2021-1-M-92.html" target="_blank">å®ç¢ç£åæ¥</a></td>
</tr>
<tr>
<td><a href="2021-1-M-93.html" target="_blank">å®ç¢ç¡åæ¥</a></td>
<td><a href="2021-1-M-97.html" target="_blank">åæ¸åæ¥</a></td>
<td><a href="2021-1-M-101.html" target="_blank">éç¸åæ¥</a></td>
</tr>
<tr>
<td><a href="2021-1-M-104.html" target="_blank">éå»åæ¥</a></td>
<td><a href="2021-1-M-113.html" target="_blank">å²èåæ¥</a></td>
<td><a href="2021-1-M-114.html" target="_blank">éåº¸åæ¥</a></td>
</tr>
<tr>
<td><a href="2021-1-M-79.html" target="_blank">æ­èåæ¥</a></td>
<td><a href="2021-1-M-112.html" target="_blank">å½å²«åæ¥</a></td>
<td> </td>
</tr>
<tr><td bgcolor="#DCC06C" class="title" colspan="3" height="24"><h2>1æä¸§è¬ç±»é»éåæ¥æ¥è¯¢</h2></td></tr>
<tr>
<td width="33%"><a href="2021-1-M-30.html" target="_blank">ä¿®ååæ¥</a></td>
<td width="34%"><a href="2021-1-M-52.html" target="_blank">å¯æåæ¥</a></td>
<td width="33%"><a href="2021-1-M-11.html" target="_blank">ç ´ååæ¥</a></td>
</tr>
<tr>
<td><a href="2021-1-M-2.html" target="_blank">å®è¬åæ¥</a></td>
<td><a href="2021-1-M-73.html" target="_blank">ç«ç¢åæ¥</a></td>
<td><a href="2021-1-M-53.html" target="_blank">è°¢ååæ¥</a></td>
</tr>
<tr>
<td><a href="2021-1-M-51.html" target="_blank">é¤æåæ¥</a></td>
<td><a href="2021-1-M-17.html" target="_blank">ç§»æ©åæ¥</a></td>
<td><a href="2021-1-M-9.html" target="_blank">å¥æ®åæ¥</a></td>
</tr>
<tr>
<td><a href="2021-1-M-12.html" target="_blank">è§£é¤åæ¥</a></td>
<td><a href="2021-1-M-48.html" target="_blank">ä¿®å¢åæ¥</a></td>
<td><a href="2021-1-M-49.html" target="_blank">å¡ç©´åæ¥</a></td>
</tr>
<tr>
<td><a href="2021-1-M-50.html" target="_blank">ææåæ¥</a></td>
<td><a href="2021-1-M-55.html" target="_blank">å¼çååæ¥</a></td>
<td><a href="2021-1-M-56.html" target="_blank">åå¯¿æ¨åæ¥</a></td>
</tr>
</table></td>
</tr>
</table>
</div>
</div>
<!-- Link -->
<div class="link_wrapper">
<div class="link_control"><span>åæé¾æ¥</span>ï¼PRâ¥5ï¼ç¾åº¦å¿«ç§3æ¥åï¼</div>
<div class="link_box">
<a href="https://www.188188.org" target="_blank">é»éåæ¥</a><a href="https://www.1888888.org" target="_blank">å®¶å±é£æ°´ç½</a><a href="https://www.188188.org" target="_blank">é»éåæ¥æ¥è¯¢</a><a href="https://www.1888888.org" target="_blank">é»éåæ¶æ¥è¯¢</a><a href="https://www.188188.org/bazi/" target="_blank">åè´¹ç®å½</a><a href="http://www.chinachair.org" target="_blank">é¤åå®¶å·</a><a href="https://www.188188.org/zhougong/" target="_blank">åè´¹å¨å¬è§£æ¢¦</a><a href="https://www.188188.org/search/" target="_blank">é»éåæ¥ç½</a><a href="http://www.woai176.com" target="_blank">1.76å¤å¤ä¼ å¥</a><a href="https://www.188188.org" target="_blank">å«å­ç®å½</a><a href="https://www.188188.org/bazi" target="_blank">çè¾°å«å­ç®å½</a>
</div>
</div>
<!-- footer -->
<div id="footerbg">
<div class="footer ">
<div class="footer-channel-2015"><span>å£°æï¼æ¬ç«èé»åææåå®¹ä»ä¾ä¼é²å¨±ä¹ï¼ä¸ä½ä»»ä½ç¨éæå³ç­ä¹ç¨ï¼æ®æ­¤æä½é£é©èªæã</span><br/>
<a href="https://www.188188.org">é»éåæ¥ç½</a> 2008-2021 <b>ç¦åå </b> çæææ <a href="https://www.188188.org/sitemap.xml" target="_blank">ç½ç«å°å¾</a><br/>
ä¸ä¸æä¾ï¼<a href="https://www.188188.org"><strong>èé»å</strong></a>ã<a><strong>åæ¥åæ¶</strong></a>ã<a><strong>é»éåæ¥</strong></a>ã<a href="https://www.188188.org"><strong>æ¬å®¶åæ¥</strong></a> <a href="https://www.188188.org/jishi/"><strong>æ¶è¾°åå¶</strong></a>ç­æ¥è¯¢ã<a href="https://beian.miit.gov.cn/" target="_blank">æ¡ICPå¤07006223å·-6</a></div>
<ul class="footer-content-2015">
<li><a href="tencent://message/?uin=81759898&amp;Site=ç¹å»è¿éç»æåæ¶æ¯&amp;Menu=yes" target="_blank"><span class="footer-sw"></span><br/>åå¡åä½</a></li>
<li><a><span class="footer-yq"></span><br/>åæé¾æ¥</a></li>
<li><a href="/about" target="_blank"><span class="footer-rc"></span><br/>å³äºæä»¬</a></li>
<li><a><span class="footer-tg"></span><br/>æè§åé¦</a></li>
</ul>
</div>
</div>
<script src="/style/js/tongji.js"></script><script src="/style/js/Std_StranJF.js"></script>
<div id="proads_space_anchor_video_ad"></div>
</body>
</html>