<!DOCTYPE html>
<html xmlns="http://www.w3.org/1999/xhtml">
<head><script type="text/javascript">
	var carwrmURL='http://static.zuchecdn.com';
	var carwrmjsURL = 'http://js.zuchecdn.com';
	var carwrmimageURL = 'http://image.zuchecdn.com';
	var carwrmcssURL = 'http://css.zuchecdn.com';
	var carwlomURL = "http://changzu.zuche.com";
	var carwcmsURL='http://huodong.zuche.com';
	var carwdmURL = "http://service.zuche.com";
	var carwepmURL='http://carbusiness.zuche.com';
	var carwlmURL='https://passport.zuche.com';
	var carwmmURL = "http://mycar.zuche.com";
	var carwsomURL='http://www.zuche.com';
	var enURL='http://en.zuche.com';
	var orderURL='http://order.zuche.com';
	var leasingURL='http://leasing.zuche.com';
	var easyrideURL='http://easyride.zuche.com';
	var serviceURL='http://service.zuche.com';
	var carbusinessURL='http://carbusiness.zuche.com';
	var driverURL='http://cd.zuche.com';
</script><script src="http://js.zuchecdn.com/newversion/sea/seajs/sea.js?v=201409301800" type="text/javascript"></script>
<script src="http://js.zuchecdn.com/newversion/sea/seajs/seajs-preload.js?v=201409301800" type="text/javascript"></script>
<script src="http://js.zuchecdn.com/newversion/sea/seajs/seaconfig.js?v=2014093018001" type="text/javascript"></script>
<meta content="text/html; charset=utf-8" http-equiv="Content-Type"/>
<meta content="width=device-width, initial-scale=1.0" name="viewport"/>
<meta content="IE=edge" http-equiv="X-UA-Compatible"/>
<meta content="ç¥å·ç§è½¦éå¸ä¸­å½å¤§éåä¸»è¦åå¸åææ¸¸å°åºï¼å¨å½1000+æå¡ç½ç¹ã100+è½¦åã100%è½¦é©ãæ ééç¨ï¼24å°æ¶çåè¿è½¦æå¡åå®¢æ·æå¡ï¼éæ¶éå°æ»¡è¶³å®¢æ·ç§è½¦éæ±ï¼ä¸ºå®¢æ·å®å¨ä¿é©¾æ¤èªãç¥å·ç§è½¦æç»­ä¾¿æ·ãæå¡å°½å¿ãéæ¶éå°ãééæç¨ãTel:400-616-6666" name="description"/>
<meta content="ç§è½¦ï¼ç§è½¦ç½ï¼ç§è½¦å¬å¸ï¼æ±½è½¦ç§èµ" name="keywords"/>
<title>ç¥å·ç§è½¦âä¸­å½ç§è½¦é¢å¯¼è</title>
<link href="http://css.zuchecdn.com/newversion/global.css?v=201506301600" rel="stylesheet" type="text/css"/>
<script src="http://js.zuchecdn.com/newversion/jquery/jquery-1.7.1.min.js?v=201409301800" type="text/javascript"></script>
<style type="text/css">
	.sz_errorbox{width:980px; margin:0 auto;}
	.sz_error{height:460px;background:#f1f1f1 url(http://image.zuchecdn.com/newversion/common/sz_errorbg.png) left center no-repeat; border:1px solid #dbe4eb; position:relative; margin:40px 0px;}
	.sz_error h2{ position:absolute; color:#be1522; top:130px; left:445px; font-size:56px; font-weight:normal;font-family: "å¾®è½¯éé»", arial, Simsun, sans-serif;}
	.sz_error h3{ position:absolute; color:#6f6f6f; top:220px; left:445px; font-size:36px; font-weight:normal;font-family: "å¾®è½¯éé»", arial, Simsun, sans-serif;}
	.sz_error h4{ position:absolute; color:#bf1500; top:300px; left:448px; font-size:17px; font-weight:normal;font-family: "å¾®è½¯éé»", arial, Simsun, sans-serif;}
</style>
</head><body>
<div class="sz_errorbox">
<div class="sz_error">
<h2>æ±æ­ï¼</h2>
<h3>æ¨è®¿é®çè¿æ¥è¿æææ æï¼</h3>
<h4>å¦æçé®, è¯·èç³»tech_security@ucarinc.com </h4>
</div>
<!--é¡µè start-->
<div class="sz_footer">
<p>
<a href="http://huodong.zuche.com/gywm/" title="å³äºæä»¬">å³äºæä»¬</a>
		| <a href="http://ir.zuche.com" target="_blank" title="æèµèå³ç³»">æèµèå³ç³»</a>
		| <a href="http://news.zuche.com/" rel="nofollow" target="_parent" title="æ°é»ä¸­å¿">æ°é»ä¸­å¿</a>
		| <a href="http://jiameng.zuche.com" target="_blank" title="å çåä½">å çåä½</a>
		| <a href="http://huodong.zuche.com/ysbh/" target="_parent" title="éç§ä¿æ¤">éç§ä¿æ¤</a>
		| <a href="http://help.zuche.com/sitemap/" target="_parent" title="ç½ç«å¯¼èª">ç½ç«å¯¼èª</a>
		| <a href="http://huodong.zuche.com/lxwm/" target="_parent" title="èç³»æä»¬">èç³»æä»¬</a>
		| <a href="http://hr.zuche.com/" target="_blank" title="æè´¤çº³å£«">æè´¤çº³å£«</a>
</p>
<p class="p10">
<a class="sz_k" href="https://ss.knet.cn/verifyseal.dll?sn=2011091400100014977&amp;ct=df&amp;pa=294005" id="urlknet" tabindex="-1" target="_blank"> </a>
<a class="sz_c" href="https://search.szfw.org/cert/l/CX20121016001772002081" id="___szfw_logo___" target="_blank" title="è¯ä¿¡ç½ç«"> </a>
</p>
<p>CopyrightÂ©2008-2017 www.zuche.com All Rights Reserved. </p>
<p>ç¥å·ç§è½¦å®ç½ äº¬ICPå¤10005002å·   |   äº¬å¬ç½å®å¤å· 11010502026705</p>
</div>
<script type="text/javascript">
 	seajs.use(['jspath/dcs_tag_zc.js','jspath/org_pro.js']);
 </script>
<script src="http://js.zuchecdn.com/newversion/sea/common/bdshare.js?v=201409301800" type="text/javascript"></script><!--é¡µè end-->
</div>
</body>
</html>
