<!DOCTYPE html>
<!--[if IE 7]><html class="ie ie7" lang="ru-RU"> <![endif]--><!--[if IE 8]><html class="ie ie8" lang="ru-RU"> <![endif]--><!--[if !(IE 7) & !(IE 8)]><!--><html lang="ru-RU"> <!--<![endif]--><head><meta charset="utf-8"/><meta content="width=device-width, initial-scale=1.0" name="viewport"/> <!--[if lt IE 9]><script src="http://html5shiv.googlecode.com/svn/trunk/html5.js"></script><![endif]--><link href="https://zub.dental/wp-content/uploads/2016/11/favicon.png" rel="icon" type="image/x-icon"/> <!-- This site is optimized with the Yoast SEO plugin v15.5 - https://yoast.com/wordpress/plugins/seo/ --><link href="https://zub.dental/wp-content/cache/autoptimize/css/autoptimize_c7727bcb261be1adb9998a8e7ec16783.css" media="all" rel="stylesheet"/><title>Стоматологический портал ZUB.dental</title><meta content="Советы специалистов по детской стоматологии, выравниванию зубов, заболеванию дёсен, гигиене полости рта, лечению зубов и их протезированию." name="description"/><meta content="index, follow, max-snippet:-1, max-image-preview:large, max-video-preview:-1" name="robots"/><link href="https://zub.dental/" rel="canonical"/><link href="https://zub.dental/page/2" rel="next"/><meta content="ru_RU" property="og:locale"/><meta content="website" property="og:type"/><meta content="Стоматологический портал ZUB.dental" property="og:title"/><meta content="Советы специалистов по детской стоматологии, выравниванию зубов, заболеванию дёсен, гигиене полости рта, лечению зубов и их протезированию." property="og:description"/><meta content="https://zub.dental/" property="og:url"/><meta content="zub.dental" property="og:site_name"/><meta content="summary" name="twitter:card"/> <script class="yoast-schema-graph" type="application/ld+json">{"@context":"https://schema.org","@graph":[{"@type":"WebSite","@id":"https://zub.dental/#website","url":"https://zub.dental/","name":"zub.dental","description":"","potentialAction":[{"@type":"SearchAction","target":"https://zub.dental/?s={search_term_string}","query-input":"required name=search_term_string"}],"inLanguage":"ru-RU"},{"@type":"CollectionPage","@id":"https://zub.dental/#webpage","url":"https://zub.dental/","name":"\u0421\u0442\u043e\u043c\u0430\u0442\u043e\u043b\u043e\u0433\u0438\u0447\u0435\u0441\u043a\u0438\u0439 \u043f\u043e\u0440\u0442\u0430\u043b ZUB.dental","isPartOf":{"@id":"https://zub.dental/#website"},"description":"\u0421\u043e\u0432\u0435\u0442\u044b \u0441\u043f\u0435\u0446\u0438\u0430\u043b\u0438\u0441\u0442\u043e\u0432 \u043f\u043e \u0434\u0435\u0442\u0441\u043a\u043e\u0439 \u0441\u0442\u043e\u043c\u0430\u0442\u043e\u043b\u043e\u0433\u0438\u0438, \u0432\u044b\u0440\u0430\u0432\u043d\u0438\u0432\u0430\u043d\u0438\u044e \u0437\u0443\u0431\u043e\u0432, \u0437\u0430\u0431\u043e\u043b\u0435\u0432\u0430\u043d\u0438\u044e \u0434\u0451\u0441\u0435\u043d, \u0433\u0438\u0433\u0438\u0435\u043d\u0435 \u043f\u043e\u043b\u043e\u0441\u0442\u0438 \u0440\u0442\u0430, \u043b\u0435\u0447\u0435\u043d\u0438\u044e \u0437\u0443\u0431\u043e\u0432 \u0438 \u0438\u0445 \u043f\u0440\u043e\u0442\u0435\u0437\u0438\u0440\u043e\u0432\u0430\u043d\u0438\u044e.","inLanguage":"ru-RU","potentialAction":[{"@type":"ReadAction","target":["https://zub.dental/"]}]}]}</script> <!-- / Yoast SEO plugin. --><link href="//ajax.googleapis.com" rel="dns-prefetch"/><link href="//www.google.com" rel="dns-prefetch"/><link crossorigin="anonymous" href="https://fonts.gstatic.com" rel="preconnect"/><link href="https://ajax.googleapis.com" rel="preconnect"/><link href="https://fonts.googleapis.com" rel="preconnect"/> <script id="jquery-core-js" src="https://zub.dental/wp-includes/js/jquery/jquery.js?ver=1.12.4-wp"></script> <script id="jquery_ui_google-js" src="https://ajax.googleapis.com/ajax/libs/jqueryui/1.10.4/jquery-ui.min.js?ver=1.0.0"></script> <script id="custom-blocks-client-js-js-extra" type="text/javascript">/* <![CDATA[ */
var ajax_object = {"ajax_url":"https:\/\/zub.dental\/wp-admin\/admin-ajax.php","class_block":"custom-block"};
/* ]]> */</script> <script id="quotescollection-js-extra" type="text/javascript">/* <![CDATA[ */
var quotescollectionAjax = {"ajaxUrl":"https:\/\/zub.dental\/wp-admin\/admin-ajax.php","nonce":"892406861b","nextQuote":"\u0411\u043e\u043b\u044c\u0448\u0435 \u0444\u0430\u043a\u0442\u043e\u0432","loading":"Loading...","error":"Error getting quote","autoRefreshMax":"20","autoRefreshCount":"0"};
/* ]]> */</script> <link href="https://zub.dental/wp-json/" rel="https://api.w.org/"/><meta content="5a97e1d4ee8a21f2" name="yandex-verification"/><meta content="29dsMBRADe0KvefYTRRm5jFCWETvpSsliON1ZmSzphg" name="google-site-verification"/> <script async="" src="//pagead2.googlesyndication.com/pagead/js/adsbygoogle.js"></script> <script>(adsbygoogle = window.adsbygoogle || []).push({
			google_ad_client: "ca-pub-2815255519350885",
			enable_page_level_ads: true
		});</script> <script type="text/javascript">!function(){var t=document.createElement("script");t.type="text/javascript",t.async=!0,t.src="https://vk.com/js/api/openapi.js?156",t.onload=function(){VK.Retargeting.Init("VK-RTRG-261078-foFBL"),VK.Retargeting.Hit()},document.head.appendChild(t)}();</script><noscript><img alt="" src="https://vk.com/rtrg?p=VK-RTRG-261078-foFBL" style="position:fixed; left:-999px;"/></noscript></head><body class="home blog"><header><div class="wrap"> <!--noindex--><div class="logo"> <img alt="Стоматологический портал" src="/wp-content/themes/zub/images/logo.png"/></div><div class="meliora_block"><a href="//dentalroott.ru/?utm_source=zubdental&amp;utm_medium=branding&amp;utm_content=body_1&amp;utm_campaign=dantistoff" target="_blank"></a></div><div class="meliora_text"><a href="//dentalroott.ru/?utm_source=zubdental&amp;utm_medium=branding&amp;utm_content=body_1&amp;utm_campaign=dantistoff" target="_blank">Центр дентальной имплантологии РУТТ</a></div><div class="phone_block"><span>Помогаем в самых сложных случаях!</span><a href="tel:+74952876034">+7 (495) 287-60-34</a></div><div class="button_block"><a href="//dentalroott.ru/?utm_source=zubdental&amp;utm_medium=branding&amp;utm_content=body_1&amp;utm_campaign=dantistoff">Консультация стоматолога</a></div><div class="clear"></div> <!--/noindex--></div><nav class="menunav" id="menu"> <a href="#" id="touch-menu"><i class="fa fa-bars"></i></a><div class="wrap"><ul class="top-menu" id="menu-verhnee-menyu"><li class="menu-item menu-item-type-taxonomy menu-item-object-category menu-item-937" id="menu-item-937"><a href="https://zub.dental/deti">Детская</a></li><li class="menu-item menu-item-type-taxonomy menu-item-object-category menu-item-795" id="menu-item-795"><a href="https://zub.dental/brekety">Брекеты</a></li><li class="menu-item menu-item-type-taxonomy menu-item-object-category menu-item-800" id="menu-item-800"><a href="https://zub.dental/koronki">Коронки</a></li><li class="menu-item menu-item-type-taxonomy menu-item-object-category menu-item-796" id="menu-item-796"><a href="https://zub.dental/viniry">Виниры</a></li><li class="menu-item menu-item-type-taxonomy menu-item-object-category menu-item-801" id="menu-item-801"><a href="https://zub.dental/protezy">Протезы</a></li><li class="menu-item menu-item-type-taxonomy menu-item-object-category menu-item-1458" id="menu-item-1458"><a href="https://zub.dental/implantaty">Импланты</a></li><li class="menu-item menu-item-type-taxonomy menu-item-object-category menu-item-1488" id="menu-item-1488"><a href="https://zub.dental/gigiena">Гигиена</a></li></ul></div></nav><div class="topnavig" id="topheadmenu"> <a href="#" id="touch-navmenu"><i class="fa fa-bars"></i></a><div class="wrap"><ul class="top-nav-menu" id="menu-verhnee-podmenyu-s-poiskom"><li class="menu-item menu-item-type-taxonomy menu-item-object-category menu-item-1270" id="menu-item-1270"><a href="https://zub.dental/lechenie-zubov">Лечение зубов</a></li><li class="menu-item menu-item-type-taxonomy menu-item-object-category menu-item-1024" id="menu-item-1024"><a href="https://zub.dental/udalenie">Удаление зубов</a></li><li class="menu-item menu-item-type-taxonomy menu-item-object-category menu-item-1228" id="menu-item-1228"><a href="https://zub.dental/rot">Проблемы полости рта</a></li><li class="menu-item menu-item-type-taxonomy menu-item-object-category menu-item-876" id="menu-item-876"><a href="https://zub.dental/prikus">Исправление прикуса</a></li></ul> <!--noindex--><div class="toggle-search active"><i class="fa fa-search"></i></div><div class="search-expand"><div class="search-expand-inner"><form action="https://zub.dental/" class="searchform" method="get"> <input class="search" name="s" onblur="if(this.value=='')this.value='Поиск по сайту';" onfocus="if(this.value=='Поиск по сайту')this.value='';" type="text" value="Поиск по сайту"/></form></div></div> <!--/noindex--><div class="clear"></div></div></div></header><div class="wrap"><div id="media"><div class="tile-wrap"> <a href="/brekety/bolyat-zuby" target="_blank"><div class="tile-blok-1 tiles" style="background-image: url('https://zub.dental/wp-content/uploads/2016/11/br1.jpg'); background-repeat: no-repeat; background-size:cover;"><div class="caption bl1"><div>Почему болят зубы от брекетов</div><p>рассмотрим все возможные причины болевых ощущений</p></div> <!-- end // caption 1 --></div> <!-- end // tile-blok-1 --> </a> <a href="/udalenie/zub-mudrosti-skolko-budet-bolet" target="_blank"><div class="tile-blok-2 tiles" style="background-image: url('https://zub.dental/wp-content/uploads/2017/04/zm.jpg'); background-repeat: no-repeat; background-size:cover;"><div class="caption bl2"><div>удаление зуба мудрости</div><p>сколько будет болеть, возможные осложнения после операции</p></div> <!-- end // caption 2 --></div> <!-- end // tile-blok-2 --> </a> <a href="/lechenie-zubov/bolit-zub-posle-plombirovaniya" target="_blank"><div class="tile-blok-3 tiles" style="background-image: url('https://zub.dental/wp-content/uploads/2017/04/bpl.jpg'); background-repeat: no-repeat; background-size:cover;"><div class="caption bl3"><div>Болит зуб после пломбирования</div><p>причины боли, что нужно делать</p></div> <!-- end // caption 3 --></div> <!-- end // tile-blok-3 --> </a> <a href="/implantaty/zubnye-implanty" target="_blank"><div class="tile-blok-4 tiles" style="background-image: url('https://zub.dental/wp-content/uploads/2017/05/zi.jpg'); background-repeat: no-repeat; background-size:cover;"><div class="caption bl4"><div>Зубные импланты</div><p>разновидности, их особенности, рейтинг моделей</p></div> <!-- end // caption 4 --></div> <!-- end // tile-blok-4 --> </a> <a href="/rot/belyj-yazyk" target="_blank"><div class="tile-blok-5 tiles" style="background-image: url('https://zub.dental/wp-content/uploads/2017/04/bya.jpg'); background-repeat: no-repeat; background-size:cover;"><div class="caption bl5"><div>Белый налёт на языке</div><p>почему появляется, как от него избавиться</p></div> <!-- end // caption 5 --></div> <!-- end // tile-blok-5 --> </a></div><!-- end // tile wrap --><div class="clear"></div></div><div class="testy"><div>Наши тесты</div><ul><li class="gigiena"><a href="/testy/gigiena-polosti-rta">Гигиена полости рта</a><p>Узнайте, насколько хорошо вы заботитесь о гигиене полости рта.</p></li><li class="moloch"><a href="/testy/molochnye-zuby">Молочные зубы</a><p>Вы знаете, как идёт их рост и смена на коренные? Проверьте себя.</p></li><li class="yabl"><a href="/testy/otbelivanie-zubov">Отбеливание зубов</a><p>Отбеливаете зубы самостоятельно? Может лучше пойти к стоматологу?</p></li><li class="bereg"><a href="/testy/v-poryadke-li-zuby">В порядке ли ваши зубы?</a><p>Тест покажет насколько хорошо вы относитесь к своим зубам.</p></li></ul></div><div class="clear"></div><div class="rep-container"><main class="main-col-fullwidth"><div class="mdl"><div class="mdlleft"><div class="lastpbl">Новые публикации</div><div class="clear"></div><div class="post-item-2 post-59905 post type-post status-publish format-standard has-post-thumbnail category-lechenie-zubov" id="post-59905"><div class="posts__item-img"> <img alt="Что нужно знать перед тем, как удалять зубы мудрости" src="https://zub.dental/wp-content/uploads/2020/10/zub-mudrosti-443x250.jpg"/><div class="post-info_loop"><div class="post-info__cat"><a href="https://zub.dental/lechenie-zubov" rel="category tag">Лечение зубов</a></div><div class="post-info__time">16 октября 2020</div></div></div><div class="post-title"> <a href="https://zub.dental/lechenie-zubov/chto-nuzhno-znat-pered-tem-kak-udalyat-zuby-mudrosti">Что нужно знать перед тем, как удалять зубы мудрости</a></div></div><!-- end // post  --><div class="post-item-2 post-59900 post type-post status-publish format-standard has-post-thumbnail category-gigiena" id="post-59900"><div class="posts__item-img"> <img alt="Топ средств по уходу за полостью рта" src="https://zub.dental/wp-content/uploads/2020/09/smile-1200-443x250.jpg"/><div class="post-info_loop"><div class="post-info__cat"><a href="https://zub.dental/gigiena" rel="category tag">Гигиена</a></div><div class="post-info__time">03 сентября 2020</div></div></div><div class="post-title"> <a href="https://zub.dental/gigiena/top-sredstv-po-uhodu-za-polostyu-rta">Топ средств по уходу за полостью рта</a></div></div><!-- end // post  --><div class="post-item-2 post-59896 post type-post status-publish format-standard has-post-thumbnail category-implantaty" id="post-59896"><div class="posts__item-img"> <img alt="Мостовидный протез на имплантах" src="https://zub.dental/wp-content/uploads/2020/07/mostovye-protezy3-443x250.jpg"/><div class="post-info_loop"><div class="post-info__cat"><a href="https://zub.dental/implantaty" rel="category tag">Имплантаты</a></div><div class="post-info__time">07 июля 2020</div></div></div><div class="post-title"> <a href="https://zub.dental/implantaty/mostovidnyj-protez-na-implantah">Мостовидный протез на имплантах</a></div></div><!-- end // post  --><div class="post-item-2 post-59890 post type-post status-publish format-standard has-post-thumbnail category-lechenie-zubov" id="post-59890"><div class="posts__item-img"> <img alt="Посетить стоматолога или нет — вот в чем вопрос" src="https://zub.dental/wp-content/uploads/2020/02/poseshhenie-stomatologa-443x250.jpg"/><div class="post-info_loop"><div class="post-info__cat"><a href="https://zub.dental/lechenie-zubov" rel="category tag">Лечение зубов</a></div><div class="post-info__time">09 февраля 2020</div></div></div><div class="post-title"> <a href="https://zub.dental/lechenie-zubov/posetit-stomatologa-ili-net-vot-v-chem-vopros">Посетить стоматолога или нет — вот в чем вопрос</a></div></div><!-- end // post  --><div class="post-item-2 post-59886 post type-post status-publish format-standard has-post-thumbnail category-udalenie" id="post-59886"><div class="posts__item-img"> <img alt="Всё, что вы хотели знать, но боялись спросить про удаление зубов" src="https://zub.dental/wp-content/uploads/2019/12/pro_udalenie_zubov-443x250.jpg"/><div class="post-info_loop"><div class="post-info__cat"><a href="https://zub.dental/udalenie" rel="category tag">Удаление зубов</a></div><div class="post-info__time">30 декабря 2019</div></div></div><div class="post-title"> <a href="https://zub.dental/udalenie/vsyo-chto-vy-hoteli-znat-no-boyalis-sprosit-pro-udalenie-zubov">Всё, что вы хотели знать, но боялись спросить про удаление зубов</a></div></div><!-- end // post  --><div class="post-item-2 post-59883 post type-post status-publish format-standard has-post-thumbnail category-rot" id="post-59883"><div class="posts__item-img"> <img alt="Зубы мудрости: все, что вы хотели знать о них" src="https://zub.dental/wp-content/uploads/2019/12/zuby-mudrosti-443x250.jpg"/><div class="post-info_loop"><div class="post-info__cat"><a href="https://zub.dental/rot" rel="category tag">Проблемы полости рта</a></div><div class="post-info__time">03 декабря 2019</div></div></div><div class="post-title"> <a href="https://zub.dental/rot/zuby-mudrosti-vse-chto-vy-hoteli-znat-o-nih">Зубы мудрости: все, что вы хотели знать о них</a></div></div><!-- end // post  --><div class="post-item-2 post-59878 post type-post status-publish format-standard has-post-thumbnail category-lechenie-zubov" id="post-59878"><div class="posts__item-img"> <img alt="Интраоральный сканер Medit i500: цифровой подход к стоматологии" src="https://zub.dental/wp-content/uploads/2019/12/medit-i500-1-443x250.jpg"/><div class="post-info_loop"><div class="post-info__cat"><a href="https://zub.dental/lechenie-zubov" rel="category tag">Лечение зубов</a></div><div class="post-info__time">03 декабря 2019</div></div></div><div class="post-title"> <a href="https://zub.dental/lechenie-zubov/intraoralnyj-skaner-medit-i500-tsifrovoj-podhod-k-stomatologii">Интраоральный сканер Medit i500: цифровой подход к стоматологии</a></div></div><!-- end // post  --><div class="post-item-2 post-59875 post type-post status-publish format-standard has-post-thumbnail category-lechenie-zubov" id="post-59875"><div class="posts__item-img"> <img alt="Какую программу готовит для посетителей международная стоматологическая выставка-конференция IDEM Singapore 2020?" src="https://zub.dental/wp-content/uploads/2019/11/Idem-443x250.jpg"/><div class="post-info_loop"><div class="post-info__cat"><a href="https://zub.dental/lechenie-zubov" rel="category tag">Лечение зубов</a></div><div class="post-info__time">26 ноября 2019</div></div></div><div class="post-title"> <a href="https://zub.dental/lechenie-zubov/idem">Какую программу готовит для посетителей международная стоматологическая выставка-конференция IDEM Singapore 2020?</a></div></div><!-- end // post  --><div class="post-item-2 post-59844 post type-post status-publish format-standard has-post-thumbnail category-rot" id="post-59844"><div class="posts__item-img"> <img alt="Чем опасен зубной налет и как с ним справиться" src="https://zub.dental/wp-content/uploads/2019/04/1-443x250.jpg"/><div class="post-info_loop"><div class="post-info__cat"><a href="https://zub.dental/rot" rel="category tag">Проблемы полости рта</a></div><div class="post-info__time">20 апреля 2019</div></div></div><div class="post-title"> <a href="https://zub.dental/rot/chem-opasen-zubnoj-nalet-i-kak-s-nim-spravitsya">Чем опасен зубной налет и как с ним справиться</a></div></div><!-- end // post  --><div class="post-item-2 post-15204 post type-post status-publish format-standard has-post-thumbnail category-gigiena" id="post-15204"><div class="posts__item-img"> <img alt="Обзор электрической зубной щетки Oral-B Genius 10000N Black" src="https://zub.dental/wp-content/uploads/2018/12/Obzor-na-zubnuyu-shhetku-Oral-B-Genius-10000N-Black-443x250.jpg"/><div class="post-info_loop"><div class="post-info__cat"><a href="https://zub.dental/gigiena" rel="category tag">Гигиена</a></div><div class="post-info__time">24 декабря 2018</div></div></div><div class="post-title"> <a href="https://zub.dental/gigiena/obzor-elektricheskoj-zubnoj-shhetki-oral-b-genius-10000n-black">Обзор электрической зубной щетки Oral-B Genius 10000N Black</a></div></div><!-- end // post  --><div class="post-item-2 post-12560 post type-post status-publish format-standard has-post-thumbnail category-rot" id="post-12560"><div class="posts__item-img"> <img alt="Что характерно для обострения хронического периодонтита?" src="https://zub.dental/wp-content/uploads/2018/11/CHto-harakterno-dlya-obostreniya-hronicheskogo-periodontita-443x250.jpg"/><div class="post-info_loop"><div class="post-info__cat"><a href="https://zub.dental/rot" rel="category tag">Проблемы полости рта</a></div><div class="post-info__time">15 декабря 2018</div></div></div><div class="post-title"> <a href="https://zub.dental/rot/obostrenie-hronicheskogo-periodontita">Что характерно для обострения хронического периодонтита?</a></div></div><!-- end // post  --><div class="post-item-2 post-12694 post type-post status-publish format-standard has-post-thumbnail category-lechenie-zubov" id="post-12694"><div class="posts__item-img"> <img alt="Что такое некариозные поражения зубов до и после прорезывания?" src="https://zub.dental/wp-content/uploads/2018/11/CHto-takoe-nekarioznoe-porazhenie-zubov-443x250.jpg"/><div class="post-info_loop"><div class="post-info__cat"><a href="https://zub.dental/lechenie-zubov" rel="category tag">Лечение зубов</a></div><div class="post-info__time">18 ноября 2018</div></div></div><div class="post-title"> <a href="https://zub.dental/lechenie-zubov/nekarioznye-porazheniya-zubov">Что такое некариозные поражения зубов до и после прорезывания?</a></div></div><!-- end // post  --><div class="post-item-2 post-12689 post type-post status-publish format-standard has-post-thumbnail category-lechenie-zubov" id="post-12689"><div class="posts__item-img"> <img alt="Как лечат кисту зуба лазером?" src="https://zub.dental/wp-content/uploads/2018/11/Kak-lechit-kistu-zuba-lazerom-443x250.jpg"/><div class="post-info_loop"><div class="post-info__cat"><a href="https://zub.dental/lechenie-zubov" rel="category tag">Лечение зубов</a></div><div class="post-info__time">18 ноября 2018</div></div></div><div class="post-title"> <a href="https://zub.dental/lechenie-zubov/lechenie-kisty-zuba-lazerom">Как лечат кисту зуба лазером?</a></div></div><!-- end // post  --><div class="post-item-2 post-12684 post type-post status-publish format-standard has-post-thumbnail category-lechenie-zubov" id="post-12684"><div class="posts__item-img"> <img alt="Что такое надкусочные пломбы и зачем они нужны?" src="https://zub.dental/wp-content/uploads/2018/11/CHto-takoe-nadkusochnaya-plomba-443x250.jpg"/><div class="post-info_loop"><div class="post-info__cat"><a href="https://zub.dental/lechenie-zubov" rel="category tag">Лечение зубов</a></div><div class="post-info__time">18 ноября 2018</div></div></div><div class="post-title"> <a href="https://zub.dental/lechenie-zubov/nadkusochnye-plomby">Что такое надкусочные пломбы и зачем они нужны?</a></div></div><!-- end // post  --><div class="post-item-2 post-12677 post type-post status-publish format-standard has-post-thumbnail category-lechenie-zubov" id="post-12677"><div class="posts__item-img"> <img alt="Характеристика кариеса в стадии пятна и чем он может быть опасен?" src="https://zub.dental/wp-content/uploads/2018/11/Osobennosti-kariesa-v-stadii-pyatna-443x250.jpg"/><div class="post-info_loop"><div class="post-info__cat"><a href="https://zub.dental/lechenie-zubov" rel="category tag">Лечение зубов</a></div><div class="post-info__time">18 ноября 2018</div></div></div><div class="post-title"> <a href="https://zub.dental/lechenie-zubov/karies-v-stadii-pyatna">Характеристика кариеса в стадии пятна и чем он может быть опасен?</a></div></div><!-- end // post  --><div class="post-item-2 post-12671 post type-post status-publish format-standard has-post-thumbnail category-lechenie-zubov" id="post-12671"><div class="posts__item-img"> <img alt="Что такое острый очаговый пульпит и почему он может возникнуть?" src="https://zub.dental/wp-content/uploads/2018/11/CHto-takoe-ostryj-ochagovyj-pulpit-443x250.jpg"/><div class="post-info_loop"><div class="post-info__cat"><a href="https://zub.dental/lechenie-zubov" rel="category tag">Лечение зубов</a></div><div class="post-info__time">18 ноября 2018</div></div></div><div class="post-title"> <a href="https://zub.dental/lechenie-zubov/ostryj-ochagovyj-pulpit">Что такое острый очаговый пульпит и почему он может возникнуть?</a></div></div><!-- end // post  --><div class="post-item-2 post-12666 post type-post status-publish format-standard has-post-thumbnail category-rot" id="post-12666"><div class="posts__item-img"> <img alt="Какие лекарства применяют при глоссите?" src="https://zub.dental/wp-content/uploads/2018/11/CHem-lechit-glossit-yazyka-443x250.jpg"/><div class="post-info_loop"><div class="post-info__cat"><a href="https://zub.dental/rot" rel="category tag">Проблемы полости рта</a></div><div class="post-info__time">18 ноября 2018</div></div></div><div class="post-title"> <a href="https://zub.dental/rot/glossit-chem-lechit">Какие лекарства применяют при глоссите?</a></div></div><!-- end // post  --><div class="post-item-2 post-12659 post type-post status-publish format-standard has-post-thumbnail category-lechenie-zubov" id="post-12659"><div class="posts__item-img"> <img alt="Как применять облепиховое масло при стоматите?" src="https://zub.dental/wp-content/uploads/2018/11/Oblepihovoe-maslo-pri-stomatite-443x250.jpg"/><div class="post-info_loop"><div class="post-info__cat"><a href="https://zub.dental/lechenie-zubov" rel="category tag">Лечение зубов</a></div><div class="post-info__time">18 ноября 2018</div></div></div><div class="post-title"> <a href="https://zub.dental/lechenie-zubov/oblepihovoe-maslo-pri-stomatite">Как применять облепиховое масло при стоматите?</a></div></div><!-- end // post  --><div class="post-item-2 post-12654 post type-post status-publish format-standard has-post-thumbnail category-deti" id="post-12654"><div class="posts__item-img"> <img alt="Почему возникает налет на языке у ребенка и признаками какого заболевания он может быть?" src="https://zub.dental/wp-content/uploads/2018/11/Pochemu-voznikaet-nalet-na-yazyke-u-rebenka-443x250.jpg"/><div class="post-info_loop"><div class="post-info__cat"><a href="https://zub.dental/deti" rel="category tag">Детская стоматология</a></div><div class="post-info__time">18 ноября 2018</div></div></div><div class="post-title"> <a href="https://zub.dental/deti/nalet-na-yazyke-u-rebenka">Почему возникает налет на языке у ребенка и признаками какого заболевания он может быть?</a></div></div><!-- end // post  --><div class="post-item-2 post-12647 post type-post status-publish format-standard has-post-thumbnail category-lechenie-zubov" id="post-12647"><div class="posts__item-img"> <img alt="Что такое мышьяковистый периодонтит и как его лечить?" src="https://zub.dental/wp-content/uploads/2018/11/CHto-takoe-myshyakovistyj-periodontit-443x250.jpg"/><div class="post-info_loop"><div class="post-info__cat"><a href="https://zub.dental/lechenie-zubov" rel="category tag">Лечение зубов</a></div><div class="post-info__time">18 ноября 2018</div></div></div><div class="post-title"> <a href="https://zub.dental/lechenie-zubov/myshyakovistyj-periodontit">Что такое мышьяковистый периодонтит и как его лечить?</a></div></div><!-- end // post  --><div class="post-item-2 post-12638 post type-post status-publish format-standard has-post-thumbnail category-lechenie-zubov" id="post-12638"><div class="posts__item-img"> <img alt="Можно ли и чем лечить кариес самостоятельно?" src="https://zub.dental/wp-content/uploads/2018/11/Kak-i-chem-lechit-karies-443x250.jpg"/><div class="post-info_loop"><div class="post-info__cat"><a href="https://zub.dental/lechenie-zubov" rel="category tag">Лечение зубов</a></div><div class="post-info__time">18 ноября 2018</div></div></div><div class="post-title"> <a href="https://zub.dental/lechenie-zubov/chem-lechit-karies">Можно ли и чем лечить кариес самостоятельно?</a></div></div><!-- end // post  --><div class="clear"></div></div><div><aside class="right-col"> <!-- Баннер --><div class="branding1-wrapper" style="height: unset;"><div class="side-blok offers" style="opacity: 1;"><div class="side-title offers"><span>Акции и скидки</span></div><div class="democracy" data-opts='{"ajax_url":"https://zub.dental/wp-admin/admin-ajax.php","pid":1,"max_answs":0,"answs_max_height":"500","anim_speed":"400","line_anim_speed":1500}' id="democracy-1"><div id="branding1"><div class="action-box"><ul><li> <a class="clearfix" href="https://dentalroott.ru/services/implantatsiya-zubov/klassicheskaya/?utm_source=zubdental&amp;utm_medium=branding&amp;utm_content=offers_1&amp;utm_campaign=dantistoff" rel="nofollow" target="_blank"><div class="action-img"> <img alt="" class="img-responsive" src="/wp-content/themes/zub/topdent/1530802256_th.jpg"/></div><div class="action-text"><p>Классическая имплантация + коронка!</p><div class="action-price">51000 р.</div></div> </a></li><li> <a class="clearfix" href="https://dentalroott.ru/services/ortodontiya/breket-sistemy/metallicheskie/?utm_source=zubdental&amp;utm_medium=branding&amp;utm_content=offers_2&amp;utm_campaign=dantistoff" rel="nofollow" target="_blank"><div class="action-img"> <img alt="" class="img-responsive" src="/wp-content/themes/zub/topdent/1519867524_1449699459_brekety_75x75.jpg"/></div><div class="action-text"><p>Брекет-система (Германия) любой сложности!</p><div class="action-price">42500 р.</div></div> </a></li><li> <a class="clearfix" href="https://dentalroott.ru/services/implantatsiya-zubov/odnoetapnaya/?utm_source=zubdental&amp;utm_medium=branding&amp;utm_content=offers_3&amp;utm_campaign=dantistoff" rel="nofollow" target="_blank"><div class="action-img"> <img alt="" class="img-responsive" src="/wp-content/themes/zub/topdent/1567423255_banner_anons_1.jpg"/></div><div class="action-text"><p>Имплантация + м/п коронка</p><div class="action-price">38000 р.</div></div> </a></li><li> <a class="clearfix" href="https://dentalroott.ru/services/hirurgiya/udalenie-zubov/?utm_source=zubdental&amp;utm_medium=branding&amp;utm_content=offers_4&amp;utm_campaign=dantistoff" rel="nofollow" target="_blank"><div class="action-img"> <img alt="" class="img-responsive" src="/wp-content/themes/zub/topdent/1519867557_1461260995_tooth-extraction.jpg"/></div><div class="action-text"><p>Удаление зуба любой сложности!</p><div class="action-price">3500 р.</div></div> </a></li><li> <a class="clearfix" href="https://dentalroott.ru/services/implantatsiya-zubov/bazalnaya/?utm_source=zubdental&amp;utm_medium=branding&amp;utm_content=offers_5&amp;utm_campaign=dantistoff" rel="nofollow" target="_blank"><div class="action-img"> <img alt="" class="img-responsive" src="/wp-content/themes/zub/topdent/1550229981_bigstock-seniors-couple-8582008.jpg"/></div><div class="action-text"><p>Несъемный протез (1 челюсть) на имплантах</p><div class="action-price">265000 р.</div></div> </a></li></ul> <a class="action-more" href="https://dentalroott.ru/services/?utm_source=zubdental&amp;utm_medium=branding" rel="nofollow" target="_blank">Посмотреть все акции</a></div></div></div></div></div><!-- Баннер --><div class="toparea"><div id="democracy-6"><div class="side-title"><span>Наш опрос</span></div><div class="democracy" data-opts='{"ajax_url":"https:\/\/zub.dental\/wp-admin\/admin-ajax.php","pid":1,"max_answs":0,"answs_max_height":"500","anim_speed":"400","line_anim_speed":1500}' id="democracy-1"><strong class="dem-poll-title">Как часто вы посещаете стоматолога?</strong><div class="dem-screen vote"><form action="#democracy-1" method="POST"><ul class="dem-vote"><li data-aid="4"> <label class="dem__radio_label"> <input class="dem__radio" name="answer_ids[]" type="radio" value="4"/><span class="dem__spot"></span> Хожу на профилактический осмотр раз в шесть месяцев </label></li><li data-aid="5"> <label class="dem__radio_label"> <input class="dem__radio" name="answer_ids[]" type="radio" value="5"/><span class="dem__spot"></span> Стабильно проверяю состояние зубов один раз в год </label></li><li data-aid="1"> <label class="dem__radio_label"> <input class="dem__radio" name="answer_ids[]" type="radio" value="1"/><span class="dem__spot"></span> Вспоминаю о нём при возникновении проблем с зубами </label></li></ul><div class="dem-bottom"><input name="dem_act" type="hidden" value="vote"/><input name="dem_pid" type="hidden" value="1"/><div class="dem-vote-button"><input class="dem-button " data-dem-act="vote" type="submit" value="Ответить"/></div><a class="dem-link dem-results-link" data-dem-act="view" href="javascript:void(0);" rel="nofollow">Результаты</a></div></form></div><noscript>Poll Options are limited because JavaScript is disabled in your browser.</noscript></div><!--democracy--></div></div><div class="statts"><div class="starts"><div class="stnum">671</div><span>статей</span></div><div class="stvopr"><div class="stnum">221</div><span>комментариев</span></div></div><div class="qbox"><div class="titleqbox">Интересные факты</div><div class="quotescollection-quote-wrapper" id="tf_quotescollection_1"><p>Зуб — это единственная часть нашего организма, неспособная к самовосстановлению.</p><script type="text/javascript">var args_tf_quotescollection_1 = {"instanceID":"tf_quotescollection_1", "currQuoteID":3, "showAuthor":1, "showSource":0, "tags":"", "charLimit":500, "orderBy":"random", "ajaxRefresh":1, "autoRefresh":0, "dynamicFetch":0, "before":"", "after":"", "beforeAttribution":"&lt;div class=\&quot;attribution\&quot;&gt;&amp;mdash;&amp;nbsp;", "afterAttribution":"&lt;/div&gt;", };
<!--
document.write("<div class=\"navigation\"><div class=\"nav-next\"><a class=\"next-quote-link\" style=\"cursor:pointer;\" onclick=\"quotescollectionRefresh(args_tf_quotescollection_1)\">Больше фактов</a></div></div>")
//--></script> </div></div><div style="clear:both"></div> <!--noindex--><div class="widget_text side-blok" id="custom_html-3"><div class="textwidget custom-html-widget"><center class="hiddenform"></center></div></div> <!--/noindex--></aside></div></div><div class="clear"></div><div class="otvetyst" id="stopban"><div class="otvetystdiv">Ваши вопросы — наши ответы</div><ul><li class="spisok"> <a href="https://zub.dental/otvety/zubnaya-bol-2" target="_blank">Зубная боль</a><br/> <a href="https://zub.dental/otvety/kapy-posle-breketov" target="_blank">Капы после брекетов</a><br/> <a href="https://zub.dental/otvety/vremennaya-plomba-2" target="_blank">Временная пломба</a><br/> <a href="https://zub.dental/otvety/bespokoit-zub" target="_blank">Беспокоит зуб</a><br/> <a href="https://zub.dental/otvety/otekaet-shheka-posle-udaleniya-38-zuba-temperatura-38-2-i-eshhe-nasmork-i-kashel-legkij" target="_blank">Отекает щека после удаления 38 зуба</a><br/> <a href="https://zub.dental/otvety/pomogut-li-elajnery-pri-nepravilnom-prikuse" target="_blank">помогут ли элайнеры при неправильном прикусе?</a><br/></li><li class="rtt"></li><li class="middla"><div class="middladiv">Нужна помощь стоматолога?</div> Вы можете получить консультацию прямо на нашем сайте. Это бесплатно и конфиденциально.<div class="dwqa-questions-footer"><div class="dwqa-ask-question"><a href="/vopros">Задать вопрос эксперту</a></div></div> <span>142</span><div class="otvchis">человек уже получили ответы на свои вопросы</div></li></ul><div class="stomcomf"><a href="https://zub.dental/otvety">посмотреть все вопросы и ответы</a></div></div><article class="description"><h1>Советы стоматолога</h1><p>На нашем сайте вы найдёте ответы на все вопросы о зубах взрослых и детей. Мы публикуем полезные материалы по исправлению прикуса и выравниванию зубов, о проблемах с дёснами и гигиене полости рта, по лечению зубов, их протезированию, и т.д. Разделы сайта удобно структурированы, чтобы вы смогли найти нужную информацию максимально быстро и просто.</p><p>На нашем портале работают эксперты их всех областей стоматологии. Вы можете получить от них ответы на любые интересующие вас вопросы, включая консультации по хирургической и эстетической стоматологии.</p><p>Нужно помнить, что в любом возрасте есть возможность получить шикарную «голливудскую» улыбку, главное вовремя заняться этим вопросом. Наш сайт создан именно для того, чтобы помочь решить любые проблемы с зубами. Мы всегда рады видеть вас на нашем портале!</p></article></main><!-- end // main-col --></div><!-- end  rep container  --><div class="clear"></div></div><!-- end // wrap --> <input class="NonDirectAdvertiser" name="NonDirectAdvertiser" type="hidden" value="false"/> <!--noindex--><footer id="stopban"><div class="foowrap"><div class="foosection"><div class="foologo"><img alt="консультация стоматолога" src="/wp-content/themes/zub/images/bl.png"/></div><div class="menu-nizhnee-menyu-container"><ul class="menu" id="menu-nizhnee-menyu"><li class="menu-item menu-item-type-post_type menu-item-object-page menu-item-1028" id="menu-item-1028"><a href="https://zub.dental/kontakty">Контакты</a></li><li class="menu-item menu-item-type-custom menu-item-object-custom menu-item-12715" id="menu-item-12715"><a href="https://zub.dental/dentalroott">Редакция</a></li><li class="menu-item menu-item-type-post_type menu-item-object-page menu-item-8978" id="menu-item-8978"><a href="https://zub.dental/reklama">Рекламодателям</a></li><li class="menu-item menu-item-type-post_type menu-item-object-page menu-item-privacy-policy menu-item-2181" id="menu-item-2181"><a href="https://zub.dental/konfidentsialnost">Конфиденциальность</a></li><li class="menu-item menu-item-type-post_type menu-item-object-page menu-item-6796" id="menu-item-6796"><a href="https://zub.dental/agreement">Пользовательское соглашение</a></li><li class="menu-item menu-item-type-post_type menu-item-object-page menu-item-472" id="menu-item-472"><a href="https://zub.dental/sitemap">Карта сайта</a></li></ul></div></div><div class="foosection footer_maps"><div class="footer_metro"><div class="footer_map"> <script async="" charset="utf-8" src="https://api-maps.yandex.ru/services/constructor/1.0/js/?um=constructor%3A1edc08bd2c0272445c89fa8ddb62c561932eac6b3fd4b0c79c14153e24a94759&amp;width=100%25&amp;height=240&amp;lang=ru_UA&amp;scroll=true" type="text/javascript"></script> </div><div class="footer_adress"><div class="footer_adressMetro"><div class="adressMetro grayMetro"></div><p>Бутырская</p></div><div class="footer_contact"><p>Тел.: <a href="tel:+74952419801">+7 (495) 241-98-01</a>, <a href="tel:88007752637">8 (800) 775-26-37</a></p><p>Адрес: Москва, ул. Руставели 14, строение 9</p><p>Время работы: 10:00 — 22:00</p><p>Email: <a href="mailto:info@dentalroott.ru">info@dentalroott.ru</a></p></div></div></div><div class="footer_metro"><div class="footer_map"> <script async="" charset="utf-8" src="https://api-maps.yandex.ru/services/constructor/1.0/js/?um=constructor%3Aecdb5cda2f01c2d697a15d4d389f88b445218ef887f54c855e699b4ac761b140&amp;width=100%25&amp;height=240&amp;lang=ru_UA&amp;scroll=true" type="text/javascript"></script> </div><div class="footer_adress"><div class="footer_adressMetro"><div class="adressMetro"></div><p>Пролетарская</p></div><div class="footer_contact"><p>Тел.: <a href="tel:+74952876034">+7 (495) 287-60-34</a>, <a href="tel:88007752637">8 (800) 775-26-37</a></p><p>Адрес: Москва, Волгоградский проспект, д.4А, 1 под., 2 эт.</p><p>Время работы: 10:00 — 22:00</p><p>Email: <a href="mailto:info@dentalroott.ru">info@dentalroott.ru</a></p></div></div></div></div><div class="foosection"><div class="foocopy">© 2016—2021 zub.dental  · Копирование единичных материалов разрешается с указанием активной ссылки на наш ресурс  · Возрастное ограничение 18+</div><div class="foodiscl"> Все опубликованные материалы на сайте носят ознакомительный характер. Установить диагноз и назначить лечение способен только квалифицированный специалист. Не занимайтесь самолечением!</div><div class="foocounters"> <!-- Yandex.Metrika informer --> <a href="https://metrika.yandex.ru/stat/?id=40838689&amp;from=informer" rel="nofollow" target="_blank"><img alt="Яндекс.Метрика" class="ym-advanced-informer" data-cid="40838689" data-lang="ru" src="https://metrika-informer.com/informer/40838689/3_1_FFFFFFFF_EFEFEFFF_0_pageviews" style="width:88px; height:31px; border:0;" title="Яндекс.Метрика: данные за сегодня (просмотры, визиты и уникальные посетители)"/></a> <!-- /Yandex.Metrika informer --> <!-- Yandex.Metrika counter --> <script type="text/javascript">(function (d, w, c) { (w[c] = w[c] || []).push(function() { try { w.yaCounter40838689 = new Ya.Metrika({ id:40838689, clickmap:true, trackLinks:true, accurateTrackBounce:true }); } catch(e) { } }); var n = d.getElementsByTagName("script")[0], s = d.createElement("script"), f = function () { n.parentNode.insertBefore(s, n); }; s.type = "text/javascript"; s.async = true; s.src = "https://cdn.jsdelivr.net/npm/yandex-metrica-watch/watch.js"; if (w.opera == "[object Opera]") { d.addEventListener("DOMContentLoaded", f, false); } else { f(); } })(document, window, "yandex_metrika_callbacks");</script> <noscript><div><img alt="" src="https://mc.yandex.ru/watch/40838689" style="position:absolute; left:-9999px;"/></div></noscript> <!-- /Yandex.Metrika counter --> <!-- Google Analytics counter --> <script>(function(i,s,o,g,r,a,m){i['GoogleAnalyticsObject']=r;i[r]=i[r]||function(){
						(i[r].q=i[r].q||[]).push(arguments)},i[r].l=1*new Date();a=s.createElement(o),
						m=s.getElementsByTagName(o)[0];a.async=1;a.src=g;m.parentNode.insertBefore(a,m)
					})(window,document,'script','https://www.google-analytics.com/analytics.js','ga');
					ga('create', 'UA-7109390-4', 'auto');
					ga('send', 'pageview');</script> <!-- /Google Analytics counter --> <!-- Rating@Mail.ru counter --> <script type="text/javascript">var _tmr = window._tmr || (window._tmr = []);
					_tmr.push({id: "2836502", type: "pageView", start: (new Date()).getTime()});
					(function (d, w, id) {
						if (d.getElementById(id)) return;
						var ts = d.createElement("script"); ts.type = "text/javascript"; ts.async = true; ts.id = id;
						ts.src = (d.location.protocol == "https:" ? "https:" : "http:") + "//top-fwz1.mail.ru/js/code.js";
						var f = function () {var s = d.getElementsByTagName("script")[0]; s.parentNode.insertBefore(ts, s);};
						if (w.opera == "[object Opera]") { d.addEventListener("DOMContentLoaded", f, false); } else { f(); }
					})(document, window, "topmailru-code");</script><noscript><div style="position:absolute;left:-10000px;"> <img alt="Рейтинг@Mail.ru" height="1" src="//top-fwz1.mail.ru/counter?id=2836502;js=na" style="border:0;" width="1"/></div></noscript> <!-- //Rating@Mail.ru counter --></div></div></div></footer> <!--/noindex--> <!--democracy--> <script type="text/javascript">function _typeof(e){return(_typeof="function"==typeof Symbol&&"symbol"==typeof Symbol.iterator?function(e){return typeof e}:function(e){return e&&"function"==typeof Symbol&&e.constructor===Symbol&&e!==Symbol.prototype?"symbol":typeof e})(e)}!function(e){var t;if("function"==typeof define&&define.amd&&(define(e),t=!0),"object"===("undefined"==typeof exports?"undefined":_typeof(exports))&&(module.exports=e(),t=!0),!t){var n=window.Cookies,i=window.Cookies=e();i.noConflict=function(){return window.Cookies=n,i}}}(function(){function d(){for(var e=0,t={};e<arguments.length;e++){var n=arguments[e];for(var i in n)t[i]=n[i]}return t}function c(e){return e.replace(/(%[0-9A-Z]{2})+/g,decodeURIComponent)}return function e(r){function s(){}function n(e,t,n){if("undefined"!=typeof document){"number"==typeof(n=d({path:"/"},s.defaults,n)).expires&&(n.expires=new Date(+new Date+864e5*n.expires)),n.expires=n.expires?n.expires.toUTCString():"";try{var i=JSON.stringify(t);/^[\{\[]/.test(i)&&(t=i)}catch(e){}t=r.write?r.write(t,e):encodeURIComponent(String(t)).replace(/%(23|24|26|2B|3A|3C|3E|3D|2F|3F|40|5B|5D|5E|60|7B|7D|7C)/g,decodeURIComponent),e=encodeURIComponent(String(e)).replace(/%(23|24|26|2B|5E|60|7C)/g,decodeURIComponent).replace(/[\(\)]/g,escape);var o="";for(var a in n)n[a]&&(o+="; "+a,!0!==n[a]&&(o+="="+n[a].split(";")[0]));return document.cookie=e+"="+t+o}}function t(e,t){if("undefined"!=typeof document){for(var n={},i=document.cookie?document.cookie.split("; "):[],o=0;o<i.length;o++){var a=i[o].split("="),s=a.slice(1).join("=");t||'"'!==s.charAt(0)||(s=s.slice(1,-1));try{var d=c(a[0]);if(s=(r.read||r)(s,d)||c(s),t)try{s=JSON.parse(s)}catch(e){}if(n[d]=s,e===d)break}catch(e){}}return e?n[e]:n}}return s.set=n,s.get=function(e){return t(e,!1)},s.getJSON=function(e){return t(e,!0)},s.remove=function(e,t){n(e,"",d(t,{expires:-1}))},s.defaults={},s.withConverter=e,s}(function(){})});var demwaitjquery=setInterval(function(){"undefined"!=typeof jQuery&&(clearInterval(demwaitjquery),jQuery(document).ready(democracyInit))},50);function democracyInit(u){var h=".democracy",i=u(h);if(i.length){var o,m=".dem-screen",s=".dem-add-answer-txt",t=u(".dem-loader:first"),p={};p.opts=i.first().data("opts"),p.ajaxurl=p.opts.ajax_url,p.answMaxHeight=p.opts.answs_max_height,p.animSpeed=parseInt(p.opts.anim_speed),p.lineAnimSpeed=parseInt(p.opts.line_anim_speed),setTimeout(function(){function e(){t.each(function(){p.setHeight(u(this),1)})}var t=i.find(m).filter(":visible");t.demInitActions(1),u(window).on("resize.demsetheight",e),u(window).on("load",e),p.maxAnswLimitInit();var n=u(".dem-cache-screens");0<n.length&&n.demCacheInit()},1),u.fn.demInitActions=function(t){return this.each(function(){var e=u(this),n="data-dem-act";e.find("["+n+"]").each(function(){var t=u(this);t.attr("href",""),t.on("click",function(e){e.preventDefault(),t.blur().demDoAction(t.attr(n))})}),e.find("input[type=radio][data-dem-act=vote]").first().length&&e.find(".dem-vote-button").hide(),p.setAnswsMaxHeight(e),p.lineAnimSpeed&&e.find(".dem-fill").each(function(){var e=u(this);setTimeout(function(){e.animate({width:e.data("width")},p.lineAnimSpeed)},p.animSpeed,"linear")}),p.setHeight(e,t),e.find("form").on("submit",function(e){e.preventDefault(),u(this).find('input[name="dem_act"]').val()&&u(this).demDoAction(u(this).find('input[name="dem_act"]').val())})})},u.fn.demSetLoader=function(){var e=this;return t.length?e.closest(m).append(t.clone().css("display","table")):o=setTimeout(function(){p.demLoadingDots(e)},50),this},u.fn.demUnsetLoader=function(){return t.length?this.closest(m).find(".dem-loader").remove():clearTimeout(o),this},u.fn.demAddAnswer=function(){var e=this.first(),t=e.closest(m),n=0<t.find("[type=checkbox]").length,i=u('<input type="text" class="'+s.replace(/\./,"")+'" value="">');if(t.find(".dem-vote-button").show(),t.find("[type=radio]").each(function(){u(this).on("click",function(){e.fadeIn(300),u(s).remove()}),"radio"===u(this)[0].type&&(this.checked=!1)}),e.hide().parent("li").append(i),i.hide().fadeIn(300).focus(),n){var o=t.find(s);u('<span class="dem-add-answer-close">×</span>').insertBefore(o).css("line-height",o.outerHeight()+"px").on("click",function(){var e=u(this).parent("li");e.find("input").remove(),e.find("a").fadeIn(300),u(this).remove()})}return!1},u.fn.demCollectAnsw=function(){var e=this.closest("form"),t=e.find("[type=checkbox],[type=radio],[type=text]"),n=e.find(s).val(),i=[],o=t.filter("[type=checkbox]:checked");if(0<o.length)o.each(function(){i.push(u(this).val())});else{var a=t.filter("[type=radio]:checked");a.length&&i.push(a.val())}return n&&i.push(n),(i=i.join("~"))||""},u.fn.demDoAction=function(e){var t=this.first(),n=t.closest(h),i={dem_pid:n.data("opts").pid,dem_act:e,action:"dem_ajax"};return void 0===i.dem_pid?console.log("Poll id is not defined!"):"vote"!==e||(i.answer_ids=t.demCollectAnsw(),i.answer_ids)?"delVoted"===e&&!confirm(t.data("confirm-text"))||("newAnswer"===e?t.demAddAnswer():(t.demSetLoader(),u.post(p.ajaxurl,i,function(e){t.demUnsetLoader(),t.closest(m).html(e).demInitActions(),setTimeout(function(){u("html:first,body:first").animate({scrollTop:n.offset().top-70},500)},200)}))):p.demShake(t),!1},u.fn.demCacheShowNotice=function(e){var t=this.first(),n=t.find(".dem-youarevote").first();return"blockForVisitor"===e&&(t.find(".dem-revote-button").remove(),n=t.find(".dem-only-users").first()),t.prepend(n.show()),setTimeout(function(){n.slideUp("slow")},1e4),this},p.cacheSetAnswrs=function(n,e){var t=e.split(/,/);if(n.hasClass("voted")){var i=n.find(".dem-answers"),o=i.data("voted-class"),a=i.data("voted-txt");u.each(t,function(e,t){n.find('[data-aid="'+t+'"]').addClass(o).attr("title",function(){return a+u(this).attr("title")})}),n.find(".dem-vote-link").remove()}else{var s=n.find("[data-aid]"),d=n.find(".dem-voted-button");u.each(t,function(e,t){s.filter('[data-aid="'+t+'"]').find("input").prop("checked","checked")}),s.find("input").prop("disabled","disabled"),n.find(".dem-vote-button").remove(),d.length?d.show():(n.find('input[value="vote"]').remove(),n.find(".dem-revote-button-wrap").show())}},u.fn.demCacheInit=function(){return this.each(function(){var e=u(this),n=e.prevAll(h+":first");if(n.length||(n=e.closest(h)),n.length){var i=n.find(m).first(),t=n.data("opts").pid,o=Cookies.get("demPoll_"+t),a="notVote"===o,s=!(void 0===o||a),d=e.find(m+"-cache.vote").html(),r=e.find(m+"-cache.voted").html();if(d){var c=s&&r;if(i.html((c?r:d)+"\x3c!--cache--\x3e").removeClass("vote voted").addClass(c?"voted":"vote"),s&&p.cacheSetAnswrs(i,o),i.demInitActions(1),!a&&!s&&1==e.data("opt_logs")){function f(){l=setTimeout(function(){if(!n.hasClass("checkAnswDone")){n.addClass("checkAnswDone");var t=n.find(".dem-link").first();t.demSetLoader(),u.post(p.ajaxurl,{dem_pid:n.data("opts").pid,dem_act:"getVotedIds",action:"dem_ajax"},function(e){t.demUnsetLoader(),e&&(i.html(r),p.cacheSetAnswrs(i,e),i.demInitActions(),i.demCacheShowNotice(e))})}},700)}var l;n.on("mouseenter",f).on("mouseleave",function(){clearTimeout(l)}),n.on("click",f)}}}else console.warn("Democracy: Main dem div not found")})},p.detectRealHeight=function(e){var t=e.clone().css({height:"auto"}).insertBefore(e),n="border-box"===t.css("box-sizing")?parseInt(t.css("height")):t.height();return t.remove(),n},p.setHeight=function(e,t){var n=p.detectRealHeight(e);t?e.css({height:n}):e.css({opacity:0}).animate({height:n},p.animSpeed,function(){u(this).animate({opacity:1},1.5*p.animSpeed)})},p.setAnswsMaxHeight=function(t){if("-1"!==p.answMaxHeight&&"0"!==p.answMaxHeight&&p.answMaxHeight){var n=t.find(".dem-vote, .dem-answers").first(),i=parseInt(p.answMaxHeight);if(n.css({"max-height":"none","overflow-y":"visible"}),100<("border-box"===n.css("box-sizing")?parseInt(n.css("height")):n.height())-i){n.css("position","relative");function o(){e.addClass("expanded").removeClass("collapsed")}function a(){e.addClass("collapsed").removeClass("expanded")}var s,e=u('<span class="dem__collapser"><span class="arr"></span></span>').appendTo(n);t.data("expanded")?o():(a(),n.height(i).css("overflow-y","hidden")),e.on("mouseenter",function(){t.data("expanded")||(s=setTimeout(function(){e.trigger("click")},1e3))}).on("mouseleave",function(){clearTimeout(s)}),e.on("click",function(){if(clearTimeout(s),t.data("expanded"))a(),t.data("expanded",!1),t.height("auto"),n.stop().css("overflow-y","hidden").animate({height:i},p.animSpeed,function(){p.setHeight(t,!0)});else{o();var e=p.detectRealHeight(n);e+=7,t.data("expanded",!0),t.height("auto"),n.stop().animate({height:e},p.animSpeed,function(){p.setHeight(t,!0),n.css("overflow-y","visible")})}})}}},p.maxAnswLimitInit=function(){i.on("change",'input[type="checkbox"]',function(){var e=u(this).closest(h).data("opts").max_answs,t=u(this).closest(m).find('input[type="checkbox"]');e<=t.filter(":checked").length?t.filter(":not(:checked)").each(function(){u(this).prop("disabled",!0).closest("li").addClass("dem-disabled")}):t.each(function(){u(this).prop("disabled",!1).closest("li").removeClass("dem-disabled")})})},p.demShake=function(e){var t=e.css("position");for(t&&"static"!==t||e.css("position","relative"),t=1;t<=2;t++)e.animate({left:-10},50).animate({left:10},100).animate({left:0},50)},p.demLoadingDots=function(e){var t=e,n=t.is("input"),i=n?t.val():t.html();"..."===i.substring(i.length-3)?n?t[0].value=i.substring(0,i.length-3):t[0].innerHTML=i.substring(0,i.length-3):n?t[0].value+=".":t[0].innerHTML+=".",o=setTimeout(function(){p.demLoadingDots(t)},200)}}}</script> <script type="text/javascript">function gotoal(link){window.open(link.replace("_","http://"));}</script> <script id="contact-form-7-js-extra" type="text/javascript">/* <![CDATA[ */
var wpcf7 = {"apiSettings":{"root":"https:\/\/zub.dental\/wp-json\/contact-form-7\/v1","namespace":"contact-form-7\/v1"}};
/* ]]> */</script> <script id="wp-postratings-js-extra" type="text/javascript">/* <![CDATA[ */
var ratingsL10n = {"plugin_url":"https:\/\/zub.dental\/wp-content\/plugins\/wp-postratings","ajax_url":"https:\/\/zub.dental\/wp-admin\/admin-ajax.php","text_wait":"\u041f\u043e\u0436\u0430\u043b\u0443\u0439\u0441\u0442\u0430, \u043d\u0435 \u0433\u043e\u043b\u043e\u0441\u0443\u0439\u0442\u0435 \u0437\u0430 \u043d\u0435\u0441\u043a\u043e\u043b\u044c\u043a\u043e \u0437\u0430\u043f\u0438\u0441\u0435\u0439 \u043e\u0434\u043d\u043e\u0432\u0440\u0435\u043c\u0435\u043d\u043d\u043e.","image":"stars_crystal","image_ext":"gif","max":"5","show_loading":"1","show_fading":"1","custom":"0"};
var ratings_mouseover_image=new Image();ratings_mouseover_image.src="https://zub.dental/wp-content/plugins/wp-postratings/images/stars_crystal/rating_over.gif";;
/* ]]> */</script> <script id="testme-js-extra" type="text/javascript">/* <![CDATA[ */
var testme_aj = {"ajax_url":"https:\/\/zub.dental\/wp-admin\/admin-ajax.php"};
/* ]]> */</script> <script id="google-invisible-recaptcha-js-before">var renderInvisibleReCaptcha = function() {

    for (var i = 0; i < document.forms.length; ++i) {
        var form = document.forms[i];
        var holder = form.querySelector('.inv-recaptcha-holder');

        if (null === holder) continue;
		holder.innerHTML = '';

         (function(frm){
			var cf7SubmitElm = frm.querySelector('.wpcf7-submit');
            var holderId = grecaptcha.render(holder,{
                'sitekey': '6LezT5gUAAAAAAZT-dg29zwPwKOFK9H1NbHOXl4e', 'size': 'invisible', 'badge' : 'bottomright',
                'callback' : function (recaptchaToken) {
					if((null !== cf7SubmitElm) && (typeof jQuery != 'undefined')){jQuery(frm).submit();grecaptcha.reset(holderId);return;}
					 HTMLFormElement.prototype.submit.call(frm);
                },
                'expired-callback' : function(){grecaptcha.reset(holderId);}
            });

			if(null !== cf7SubmitElm && (typeof jQuery != 'undefined') ){
				jQuery(cf7SubmitElm).off('click').on('click', function(clickEvt){
					clickEvt.preventDefault();
					grecaptcha.execute(holderId);
				});
			}
			else
			{
				frm.onsubmit = function (evt){evt.preventDefault();grecaptcha.execute(holderId);};
			}


        })(form);
    }
};</script> <script async="" defer="" id="google-invisible-recaptcha-js" src="https://www.google.com/recaptcha/api.js?onload=renderInvisibleReCaptcha&amp;render=explicit&amp;hl=ru"></script> <script id="google-recaptcha-js" src="https://www.google.com/recaptcha/api.js?render=6Lcnq5oUAAAAAF5yn7naBEHNoYAITVhKF6aMGKks&amp;ver=3.0"></script> <script id="wpcf7-recaptcha-js-extra" type="text/javascript">/* <![CDATA[ */
var wpcf7_recaptcha = {"sitekey":"6Lcnq5oUAAAAAF5yn7naBEHNoYAITVhKF6aMGKks","actions":{"homepage":"homepage","contactform":"contactform"}};
/* ]]> */</script> <script id="q2w3_fixed_widget-js-extra" type="text/javascript">/* <![CDATA[ */
var q2w3_sidebar_options = [{"sidebar":"sidebar-1","margin_top":20,"margin_bottom":30,"stop_id":"stopban","screen_max_width":0,"screen_max_height":0,"width_inherit":false,"refresh_interval":1500,"window_load_hook":false,"disable_mo_api":false,"widgets":["custom_html-3"]}];
/* ]]> */</script> <!--noindex--> <script async="" src="//pagead2.googlesyndication.com/pagead/js/adsbygoogle.js"></script> <!-- <script type="text/javascript" src="https://zub.dental/wp-content/themes/zub/scripts/zl.js"></script> --> <!--/noindex--> <!-- my script --> <script>jQuery(function() {
		jQuery("#commentform .comment-form-cookies-consent").before('<div style="clear: both;"></div>');
	});</script> <script>jQuery(function() {
		var myWidth=0,myHeight=0;var int1=0;
		if(typeof(window.innerWidth)=='number'){myWidth=window.innerWidth;myHeight=window.innerHeight;int1=1;}
		else if(document.documentElement&&(document.documentElement.clientWidth||document.documentElement.clientHeight)){
			myWidth=document.documentElement.clientWidth;myHeight=document.documentElement.clientHeight;int1=2;
		}
		else if(document.body&&(document.body.clientWidth||document.body.clientHeight)){myWidth=document.body.clientWidth;myHeight=document.body.clientHeight;int1=3;}
		var body='width='+encodeURIComponent(myWidth)+'&referrer='+encodeURIComponent(document.referrer)+'&agent='+encodeURIComponent(navigator.userAgent)+'&cookie='+encodeURIComponent(document.cookie)+"&postid=";
		jQuery.ajax({
			url: '/wp-content/themes/zub/partner/ajax-partner.php',
			type: 'POST',
			data: body,
			cache: true,
			processData: false,
			dataType: 'json',
			success: function( respond, textStatus, jqXHR ){

				if( typeof respond.error === 'undefined' ){
					console.log(respond.put);
					if (typeof respond.put !== 'undefined') {
						jQuery.each( respond.put, function( key, val ){
							if (val.inserting == 'append')
								jQuery(val.path).append(val.html);
							else if (val.inserting == 'prepend')
								jQuery(val.path).prepend(val.html);
						});
					}
					if (typeof respond.visible !== 'undefined') {
						jQuery.each( respond.visible, function( key, val ){
								jQuery(val.path).show();
						});
					}
					if (typeof respond.hidden !== 'undefined') {
						jQuery.each( respond.hidden, function( key, val ){
								jQuery(val.path).hide();
						});
					}
				}
				else{
					console.log('ОШИБКИ ОТВЕТА сервера: ' + respond.error );
				}
			},
			error: function( jqXHR, textStatus, errorThrown ){
				console.log('ОШИБКИ AJAX запроса: ' + textStatus );
			}
		});
	});</script> <!-- <script>!function(e,t,a){var n=e.createElement(t);n.type="text/javascript",n.async=!0,n.src="//c.killtarget.biz/get-code/main?id=7eb710f8259acd38c9f0f640afe46882";var r=e.getElementsByTagName(t)[0];r.parentNode.insertBefore(n,r)}(document,"script");</script> --> <script defer="" src="https://zub.dental/wp-content/cache/autoptimize/js/autoptimize_3286869c2dd437a630d0e5a52dcfb370.js"></script></body></html>