<html><body><p>ï»¿<!DOCTYPE html>

</p>
<meta content="text/html; charset=utf-8" http-equiv="Content-Type"/>
<meta content="ZXINC, ZX Inc, ZX WEB, ZXç½ç«" name="keywords"/>
<meta content="ZXçç½ç«" name="description"/>
<link href="main.css" rel="stylesheet" type="text/css"/>
<title>ZXçç½ç«----æ¬¢è¿è®¿é®!!!!!!</title>
<base target="_blank"/>
<div class="title title1">æ¬¢è¿è®¿é®ZXç½ç«!!!!!!</div>
<div class="title title2">æ¬ç«åå www.zxinc.org</div>
<br/>
<div class="content">
<table class="content">
<tr> <th colspan="2">æ¬ç«å¯¼èª</th>
</tr><tr> <td><a href="programs/">èªç¼è½¯ä»¶åº</a></td>
<td>(HOT) Programs--ç­çæ¬¢è¿ä½¿ç¨å¹¶å®£ä¼ æèªå·±ç¼çä¸äºå¥½ç¨åº!</td>
</tr><tr> <td><a href="extsoft/">å®ç¨è½¯ä»¶åº</a></td>
<td>æä¾ç¬å®¶å®ç¨å·¥å·ï¼å«çå°æ¹æ¾ä¸å°ç</td>
</tr><tr> <td><a href="soft.htm">å¸¸ç¨è½¯ä»¶ä¸è½½</a></td>
<td>å¸¸ç¨è½¯ä»¶ä¸è½½</td>
</tr><tr> <td><a href="win7patch.htm">Windows 7 (32/64ä½ç) 2020å¹´2æä»¥ååç§è¡¥ä¸ä¸è½½</a></td>
<td>Win7ä¸å²!</td>
</tr><tr> <td><a href="xppatch.htm">Windows XP (32ä½ç) 2014å¹´5æä»¥ååç§è¡¥ä¸ä¸è½½</a></td>
<td>XPä¸å²! (æ´æ°æ¶é´:2015-8-24)</td>
</tr><tr> <td><a href="gb2260-latest.htm">å¨å½å¿çº§ä»¥ä¸è¡æ¿åºåä»£ç (2020å¹´7æç)</a></td>
<td>æªæ­¢2020å¹´7æåºçææ°çæ¬,ç»è®¡ç¨</td>
</tr><tr> <td><a href="gb2260.htm">å¨å½å¿çº§ä»¥ä¸è¡æ¿åºåä»£ç (å¤§å¨)</a></td>
<td>æªæ­¢2020å¹´7æåº,åæ¬åå²ä¸æææ¾ç»ç¨è¿çä»£ç ,èº«ä»½è¯ç¨</td>
</tr><tr> <td><a href="ca/">ZX CA æ°å­è¯ä¹¦æå¡</a></td>
<td>æä¾æ°å­ç­¾åè¯ä¹¦</td>
</tr><tr> <td><a href="lir/">ZX LIR æå¡</a></td>
<td>æä¾IPv6/ASNèµæº</td>
</tr><tr> <td><a href="//net.zxinc.org/">AS139317</a></td>
<td>å®åä¸ç½(è¯¯)</td>
<!--	<tr>	<td><a href="sn/">S/N æå¡<font color=red>(å°æªå¼é)</font></a></td>
			<td>æ¬¢è¿åå S/Nå·ç çåé¡¹æ´»å¨!</td>
	-->
</tr><tr> <td><a href="garl/">GARL (in NBXS)</a></td>
<td>2007å¹´5æ3æ¥çåå²å­æ¡£,ä»ä¾çºªå¿µ</td>
</tr><tr> <td><a href="soft/FTerm2.5.0.154-20150419.7z">FTerm 2.5.0.154</a></td>
<td>FTerm 2.5.0.154 IPæ¥è¯¢ä¿®æ¹ç,éå¸¦ææ°IPæ°æ®åº(Build 20150419)</td>
</tr><tr> <th class="a1" colspan="2" width="50%">IPå°åæ¥è¯¢</th>
</tr><tr> <td><a href="//ip.zxinc.org/">IPå°åæ¥è¯¢ä¸»ç«</a></td>
<td>æä¾å¨çº¿IPv4/IPv6å°åæ¥è¯¢ä»¥åæ°æ®åºä¸è½½</td>
</tr><tr> <td><a href="//ip.zxinc.org/ipquery/">å¬ç½IPv6å°åå¨çº¿æ¥è¯¢</a></td>
<td>æ¬å°é¾æ¥</td>
<!--	<tr>	<td><a href="//ip.zxinc.org/iph">å¬ç½IPv6å°åå¨çº¿æ¥è¯¢</a></td>
			<td>å¤ç½éå</td>-->
</tr><tr> <td><a href="//ip.zxinc.org/ipfd/">å¤æ¦æ ¡åIPå°åå¨çº¿æ¥è¯¢</a></td>
<td>ZXç(20110604ç)</td>
</tr><tr> <td><a href="ip.7z">å¬ç½IPv6å°ååº20200302çä¸è½½</a></td>
<td>For IPSearcher.dll</td>
</tr><tr> <td><a href="myip.7z">å¤æ¦æ ¡åIPåº20110604çä¸è½½(ZXç)</a></td>
<td>For FTerm &amp; CTerm</td>
<!--	<tr>	<th class=a1>#</th>
		<tr>	<td><form action="#" method=POST><input type=hidden value="add" name="menu">ç¨æ·å:<input name="username"><br>å¯ãç :<input type=password name="userpass"><br><input type=submit value=è¿å¥><a href="#">æ¸¸å®¢</a></form>
	-->
</tr></table>
<table class="content">
<tr> <th class="a1">åæé¾æ¥</th>
</tr><tr> <td>A
			<a href="http://www.naich.org">Naichçåå®¢</a>
<br/>C
			<a href="http://hackerzhou.me">hackerzhouçåå®¢</a>
<br/>L
			<a href="https://lsc.moe">LiCEO</a>
<br/>TS
			<a href="//www.zhujunsan.net">æ±éªçåå®¢</a>
<br/>ZH
			<a href="//evsio0n.com">Evsio0nçåå®¢</a>
</td></tr><tr> <th class="a1">å¸¸ç¨ç½ç«é¾æ¥</th>
</tr><tr> <td>#
			<a href="http://www.duote.com">2345è½¯ä»¶å¤§å¨</a>
<br/>A
			<a href="http://www.acfun.cn">Aç«</a>
<a href="//www.aliyun.com">é¿éäº</a>
<br/>B
			<a href="//www.bilibili.com">Bç«</a>
<a href="https://cn.bing.com">å¾®è½¯Bingæç´¢</a>
<br/>C
			<a href="http://www.zju.edu.cn">æµæ±å¤§å­¦ç½ç«</a>
<br/>CH
			<a href="http://www.tsinghua.edu.cn">æ¸åå¤§å­¦ç½ç«</a>
<br/>F
			<a href="//www.crsky.com">éå¡è½¯ä»¶ç«</a>
<a href="http://www.fudan.edu.cn">å¤æ¦å¤§å­¦ç½ç«</a>
<!--<a href="http://pt.vm.fudan.edu.cn">FDUPT</a>-->
<br/>G
			<a href="https://www.gnu.org">GNUèªç±è½¯ä»¶å­</a>
<a href="https://www.google.com">Googleæç´¢</a>
<br/>M
			<a href="//music.163.com">ç½æäºé³ä¹</a>
<br/>N
			<a href="//www.nju.edu.cn">åäº¬å¤§å­¦ç½ç«</a>
<a href="http://www.ningwai.net">å®æ³¢å¤å½è¯­å­¦æ ¡ç½ç«</a>
<a href="http://www.nbxiaoshi.net">å®æ³¢æå®ä¸­å­¦ç½ç«</a>
<br/>P
			<a href="http://www.pku.edu.cn">åäº¬å¤§å­¦ç½ç«</a>
<br/>S
			<a href="//www.newsmth.net">æ°´æ¨ç¤¾åºBBS</a>
<br/>TH
			<a href="http://dl.pconline.com.cn">å¤ªå¹³æ´è½¯ä»¶ä¸è½½</a>
<br/>TS
			<a href="http://www.cast.cn">ä¸­å½ç©ºé´ææ¯ç ç©¶é¢</a>
<a href="http://www.cnnb.com.cn">ä¸­å½å®æ³¢ç½</a>
<br/>V
			<a href="https://zh.wikipedia.org">ç»´åºç¾ç§</a>
<br/>W
			<a href="http://www.onlinedown.net">ååè½¯ä»¶å­</a>
<br/>Z
			<a href="http://www.sjtu.edu.cn">ä¸æµ·äº¤éå¤§å­¦ç½ç«</a>
<a href="https://bbs.fudan.edu.cn">æ¥æååBBS</a>
</td></tr></table>
</div>
<hr/>
<center>
E-mail: <img src="email2.png"/>
QQ: 61857543
<br/>
<br/>æ¬å°æ¶é´:
<script type="text/javascript">
//æè¿æ´æ°:document.write(new Date(document.lastModified).toLocaleString());
//document.write(new Date(document.lastModified).toLocaleString());
document.write(new Date().toLocaleString());
</script>
<script async="" src="https://www.googletagmanager.com/gtag/js?id=UA-8016423-3"></script>
<script>
window.dataLayer = window.dataLayer || [];
function gtag(){dataLayer.push(arguments);}
gtag('js', new Date());
gtag('config', 'UA-8016423-3');
</script>
</center>
</body></html>