<!DOCTYPE html PUBLIC "-//W3C//DTD XHTML 1.0 Transitional//EN" "http://www.w3.org/TR/xhtml1/DTD/xhtml1-transitional.dtd">
<html>
<head>
<meta content="text/html; charset=utf-8" http-equiv="Content-Type"/>
<meta content="{qlw3fFDe309c5r0r7qqqqq8http:U66tNNCLtvnELAfeoSvz6q:80h880pF.7VCOpr0qqqqqr2Y7YBvFxBI98ueBMmRXlkDXr0qqqqq}zp0RTIoy6I1aLtOEvEPVu3PAdEPZutGEZEOaPHkJ43cEXW1Ey3oyNin36mu3bEfW2Jufv8DmdWSEnrcwAIYw6UOVqJfWXm1xDxqG9qPEhwYR5UoTDtALaVqEkJp0TKCyFtAqjmcEmRT2_pDQHtpZPDPgsEfNvquXGt8AaLGhSJ87T.K_LJHWb_nnGR_SfjuH5WXGh7dFkLnq4tccr4qqqqkMflqhYIveNhMtrefqqqqqq~RiKYpcGad1syfoAEAskxKq2ZDYY3iKvGJkcfwAGE58az6oVl1V9TNiA7NK0zLAGEaAAN6hUquQ0pge26MYWrJgGhhUQeVeDB6k4JugUk7MzN75qhPF5xgBDOIUjNfC0vhQZrASahfYwrn59B48zfW.o64FtY.NUIt1IJ3_GObV7S86ouO8yZc426lIJfzdK_RIHyU2G5UUQSu6DHIM7wKSqhTKH25e64ok8NnClnrYIVWd0dSKJT.6DvCm_AtZGcGktEU.0.eU_TS5CbX3_S.Bo1Pm_GtdGc7kh3UX0.NFgxdyqCFIMY57KnCqXSq_61Rchx1OYiXwiphfo8lI3YpNTDNwFql4608.F5jLCRbaa1Rt2OOkc3AT9JA.AWLx1qv6jsgqNeIHVd9qqqqlxWQh|VWqp.ISxcKlJtQKVdYozQKUeHFmAmACJpqCS6WGNtF091speSquNk32mOKU7I82fdV6qIITfgV6YQQmwxUGWQY9xKYU9QIfxgo0Ekr0JwVYyR1reHU0rwAYgqKYyKUfE8plmmVK0RFSpXDmVho0NlK0p1VSJr1mYW1prsEYazQPzQhCq21KQQW9EnYpYzRYgdUcwz3rEtU1pw8q34pczQFbQMVGp0qVRfpbw68GLcUPeQJSanpsmQq0TuUfYQkKTLt1083179040Vxv0U1SwillasXpFgl4qY}!lsEzK6ekRlqSAKfDwqLuVofwwYedDsmYwAqu3VyAInS5EoVwsblStvqLwo7uhTWzxUeIx13zRv9NxmJ6p6eImCJNKOfLFPq_FAYvJCxbpsmqhmZ.ts2yFo0EwkRNxvGtxOf9lmQvp1Y1oCVqFsmwrVlZpu2QWn9cEf9LJT77QcJCpYrAWAYaDDAAhmpDiY3NVTwn10qeAu3bV0QgROmrn1UaW4aqqqHqGQuWOVeJu7SHOVQt2lQFpe9lbqRRpf9lbEMRSe.oDq1k674r1!x7z,aac,amr,asm,avi,bak,bat,bmp,bin,c,cab,css,csv,com,cpp,dat,dll,doc,dot,docx,exe,eot,fla,flc,fon,fot,font,gdb,gif,gz,gho,hlp,hpp,htc,ico,ini,inf,ins,iso,js,jar,jpg,jpeg,json,java,lib,log,mid,mp4,mpa,m4a,mp3,mpg,mkv,mod,mov,mim,mpp,msi,mpeg,obj,ocx,ogg,olb,ole,otf,py,pyc,pas,pgm,ppm,pps,ppt,pdf,pptx,png,pic,pli,psd,qif,qtx,ra,rm,ram,rmvb,reg,res,rtf,rar,so,sbl,sfx,swa,swf,svg,sys,tar,taz,tif,tiff,torrent,txt,ttf,vsd,vss,vsw,vxd,woff,woff2,wmv,wma,wav,wps,xbm,xpm,xls,xlsx,xsl,xml,z,zip,apk,plist,ipaqqq"/><!--[if lt IE 9]><script r='m'>document.createElement("section")</script><![endif]--><script charset="iso-8859-1" r="m" src="/69dcJlZnWuow/lN5CvLacRcP6.e309c5f.js" type="text/javascript"></script><script r="m" type="text/javascript">(function(){var _$$u=0,_$Zm=[[9,6,2,5,10,0,3,1,7,8,4],[80,83,21,83,90,5,93,44,48,2,71,17,76,17,89,35,63,17,46,30,84,3,92,1,38,96,16,41,22,4,17,77,52,88,50,45,24,68,37,6,101,65,68,60,31,102,49,27,68,99,69,19,5,51,68,14,40,82,86,34,12,13,29,68,32,20,68,25,0,39,53,17,58,57,72,39,70,56,17,75,39,17,28,43,5,26,18,97,98,74,23,74,17,7,8,9,36,79,87,42,81,78,59,11,95,66,55,15,47,62,64,10,73,91,100,54,85,67,33,61,94,17],[1,15,24,15,23,31,20,18,32,30,4,27,16,6,9,4,10,33,3,21,26,21,25,8,0,13,29,11,29,7,29,14,29,19,22,29,5,29,2,17,28,12,4],[12,48,44,33,1,30,5,15,0,38,23,22,34,18,3,36,40,6,31,32,46,10,14,18,2,1,35,9,25,13,29,48,37,42,43,17,37,24,47,8,26,47,28,16,18,47,41,16,6,20,11,19,45,39,4,15,16,41,20,28,27,7,21,26],[31,19,4,5,2,27,1,35,11,19,30,33,16,33,25,19,6,10,25,24,21,18,20,9,23,0,22,24,32,26,3,13,14,9,17,22,34,32,19,12,28,8,15,7,35,29,19]];function _$fp(_$Pz,_$sx){return _$6K.Math.abs(_$Pz)%_$sx;}function _$Bi(_$ld){var _$M5=_$1n(_$ld);var _$M5=_$ld[_$fp(_$97()+_$Te(),16)];_$ld[2]=_$Jy()-_$ld[_$fp(_$Z$(),16)];_$ld[11]=_$97();_$Wx(_$ld);return _$V9(_$ld);}function _$1n(_$ld){_$ld[8]=_$q7();_$ld[4]=_$iH();_$ld[_$fp(_$Jy(),16)]=_$nR();return _$6U();}function _$q7(){return 6}function _$iH(){return 2}function _$Jy(){return 9}function _$nR(){return 15}function _$6U(){return 5}function _$97(){return 1}function _$Te(){return 7}function _$Z$(){return 12}function _$Wx(_$ld){var _$M5=_$F5();var _$Qp=_$5A(_$ld);var _$Qp=_$8i();var _$M5=_$44(_$ld);var _$M5=_$SP();_$Yf(_$ld);_$ld[6]=_$SP()+_$qe();var _$Qp=_$6U();var _$2j=_$ld[_$fp(_$8i(),16)];return _$rZ(_$ld);}function _$F5(){return 0}function _$5A(_$ld){_$ld[12]=_$TR();_$ld[8]=_$q7();var _$2j=_$qe();var _$2j=_$Jy();return _$nR();}function _$TR(){return 10}function _$qe(){return 3}function _$8i(){return 8}function _$44(_$ld){_$ld[_$fp(_$SP(),16)]=_$qe();_$ld[9]=_$nR();_$ld[5]=_$Rd();return _$97();}function _$SP(){return 13}function _$Rd(){return 11}function _$Yf(_$ld){_$ld[_$fp(_$gD(),16)]=_$Z$();_$bY(_$ld);var _$M5=_$Te();var _$M5=_$SP();_$PO(_$ld);return _$ld[_$fp(_$8i(),16)];}function _$gD(){return 14}function _$bY(_$ld){_$ld[8]=_$q7();_$ld[_$fp(_$SP(),16)]=_$qe();_$ld[_$fp(_$gD(),16)]=_$Z$();return _$TR();}function _$PO(_$ld){_$ld[9]=_$nR();_$ld[_$fp(_$TR(),16)]=_$8i();_$ld[6]=_$d8();var _$Qp=_$Jy();var _$M5=_$nR();return _$6U();}function _$d8(){return 4}function _$rZ(_$ld){var _$2j=_$qe();var _$M5=_$Jy();var _$Qp=_$97();if(_$Z$()){var _$2j=_$Te();}_$ld[14]=_$Z$();var _$Qp=_$F5();if(_$Rd()){var _$2j=_$Te();}var _$2j=_$TR();return _$97()+_$Te();}function _$V9(_$ld){_$ld[0]=_$CO(_$ld);var _$2j=_$SP();if(_$ld[_$fp(_$8i(),16)]){var _$Qp=_$qe();}var _$Qp=_$SP();_$ld[3]=_$Jy();_$ld[15]=_$6U();return _$ld[_$fp(_$97()+_$Te(),16)];}function _$CO(_$ld){_$ld[12]=_$TR();_$ld[_$fp(_$97(),16)]=_$Te();var _$2j=_$F5();var _$Qp=_$gD();return _$Z$();}function _$pc(_$ld){_$ld[_$fp(_$Z$(),16)]=_$TR();_$ld[_$fp(_$97(),16)]=_$Te();_$ld[_$fp(_$iH(),16)]=_$F5();var _$Qp=_$6U();var _$M5=_$Rd();return _$97();}var _$AO,_$6T,_$6K,_$mp,_$Zw,_$AC,_$wE,_$Tu,_$Bi;var _$7j,_$Id,_$Nc=_$$u,_$W9=_$Zm[0];while(1){_$Id=_$W9[_$Nc++];if(_$Id<4){if(_$Id<1){if( !_$7j)_$Nc+=1;}else if(_$Id<2){_$Sr(0);}else if(_$Id<3){_$Tu=_$6K['$_ts'];}else{_$Tu=_$6K['$_ts']={};}}else if(_$Id<8){if(_$Id<5){_$Nc+=-6;}else if(_$Id<6){_$Nc+=5;}else if(_$Id<7){_$6K=window,_$mp=String,_$Zw=Array,_$AC=document,_$wE=Date;}else{_$Nc+=-5;}}else{if(_$Id<9){_$7j= !_$Tu;}else if(_$Id<10){_$AO=[4,16,64,256,1024,4096,16384,65536];}else{return;}}}function _$Sr(_$1n,_$Pz){function _$_J(){var _$fp=_$C4.charCodeAt(_$AU++ ),_$$u;if(_$fp<128){return _$fp;}else if(_$fp<251){return _$fp-32;}else if(_$fp===251){return 0;}else if(_$fp===254){_$fp=_$C4.charCodeAt(_$AU++ );if(_$fp>=128)_$fp-=32;_$$u=_$C4.charCodeAt(_$AU++ );if(_$$u>=128)_$$u-=32;return _$fp*219+_$$u;}else if(_$fp===255){_$fp=_$C4.charCodeAt(_$AU++ );if(_$fp>=128)_$fp-=32;_$$u=_$C4.charCodeAt(_$AU++ );if(_$$u>=128)_$$u-=32;_$fp=_$fp*219*219+_$$u*219;_$$u=_$C4.charCodeAt(_$AU++ );if(_$$u>=128)_$$u-=32;return _$fp+_$$u;}else if(_$fp===252){_$$u=_$C4.charCodeAt(_$AU++ );if(_$$u>=128)_$$u-=32;return -_$$u;}else if(_$fp===253){_$fp=_$C4.charCodeAt(_$AU++ );if(_$fp>=128)_$fp-=32;_$$u=_$C4.charCodeAt(_$AU++ );if(_$$u>=128)_$$u-=32;return _$fp* -219-_$$u;}else{}}var _$Lp,_$jI,_$2j,_$JF,_$C4,_$9s,_$0E,_$fp,_$$u,_$Nc,_$7j,_$sY,_$Id,_$W9,_$ld,_$OE,_$f0,_$Qp,_$M5,_$AU;var _$iH,_$nR,_$q7=_$1n,_$6U=_$Zm[1];while(1){_$nR=_$6U[_$q7++];if(_$nR<64){if(_$nR<16){if(_$nR<4){if(_$nR<1){_$iH=_$2j-_$fp>12000;}else if(_$nR<2){_$fp+="oNkStZWNC76PLZGNqg0VS6IKe50ymo5wooeIcBLc4HcOslkxIGPZst4bHtw_PLW3JTyaX_bsoE7xQvb5CyBxWDep$4wLylTbvT4F9NNmn$jlFdVGZ3ptGaCgUTlHcPPgegQ5BLplq6iv58oZQz9FbIt7vq16jL8sH0ZhztSpmM8QBVRswmPyFN1QHmlP";}else if(_$nR<3){_$6K['$_ts']={};}else{_$fp+="8uxlH2W6HMB5gtBbjfR2GWn0eS_EEsR8_1LFQ1Axt$AuLQa4DStNg2yNaN5NYuHk5Z7w_iHJvzGVYsO0TMyMIwewVxt4UHRCFc6CDh9pj8SyVH0PIev7P4Vl3vMNMfkYOo2dpb7J2fLSBDGtSOs9mlpxC24ruksw8XiCcfy1mnce2yXk6a2IMQnVYARa";}}else if(_$nR<8){if(_$nR<5){return _$Sr(14,_$fp);}else if(_$nR<6){if( !_$iH)_$q7+=2;}else if(_$nR<7){var _$Nc=_$Sr(72);}else{_$Pz._$jh=56;}}else if(_$nR<12){if(_$nR<9){_$Pz._$6K=197;}else if(_$nR<10){_$Pz._$5O=3;}else if(_$nR<11){_$Pz._$W9="MEBLxpMpXqtuT3m.pLDDPG";}else{_$Pz._$dc="_$8i";}}else{if(_$nR<13){_$OE.push(")();");}else if(_$nR<14){var _$M5=_$OE.join('');}else if(_$nR<15){_$AU+=_$ld;}else{_$Pz._$Kn="j2zr.vSbP1q";}}}else if(_$nR<32){if(_$nR<20){if(_$nR<17){_$fp+="8tUXOh7UFrns52nQF_fUlUMh8IT0WYYtLv1l7g$hSbngdLYwU6mIfJ2RwDM6y3JcG7C0X4o0IQHuPcDsqugPDJDfz20Tey9UDR4tJqtTj2nME4JsEgfeblkdZs9m53$xMsh1L_Ln3S73mF7_cvi85L4lxpib3HiehTqS1V1EkCc3dzuEoyFidnGRugb_";}else if(_$nR<18){return;}else if(_$nR<19){_$q7+=2;}else{_$iH=_$f0>0;}}else if(_$nR<24){if(_$nR<21){_$Sr(79,_$M5);}else if(_$nR<22){return _$fp;}else if(_$nR<23){_$fp+="bZDjURMuhsDvJnqnR4l346zzGpNTnxK2ADhHGLskAhmj5Ew6zjEAmWMoQkor_F8bY4uNhhzwwJ1gvAF7v3LsUYMjOe2asKqCKVlcvcL$VawglYNFk9QAOJBgsj7SZ4lh_kcKiIm_Hw27fP3MX2Fp6AxuMZIR7$I$JaRt_0UUKvMJQQP6NifYgqEbpAMFjGVO";}else{_$Sr(93,_$Tu);}}else if(_$nR<28){if(_$nR<25){var _$$u=_$Sr(12);}else if(_$nR<26){var _$2j=_$Sr(12);}else if(_$nR<27){_$fp=_$6K.execScript(_$Pz);}else{var _$W9=_$_J();}}else{if(_$nR<29){var _$fp;}else if(_$nR<30){_$Tu._$$u-=_$Sr(12);}else if(_$nR<31){_$fp+="AO6T6KmpZwACwETuBiPzsx_JC49s0EAULpJFjIXBrnOk2XbpW0rhr8OU3s8zaurFTodbAB9ujh5OKnhBB0Zm4_SroSu2OXfp$uNc7jsYIdW9ldOEf0QpM52j1nq7iHJynR6U97TeZ$WxF55ATRqe8i44SPRdYfgDbYPOd8rZV9COpc$kBjIf1M2vEzTr";}else{var _$Id=_$_J();}}}else if(_$nR<48){if(_$nR<36){if(_$nR<33){_$$u=_$Sr(12);}else if(_$nR<34){_$Pz._$sY="_$NC";}else if(_$nR<35){for(_$Qp=0;_$Qp<_$f0;_$Qp++ ){_$OE.push("}");}}else{for(_$fp=0,_$$u=0;_$$u<_$Nc;_$$u+=2){_$7j[_$fp++ ]=_$sY+_$Pz.substr(_$$u,2);}}}else if(_$nR<40){if(_$nR<37){_$Pz._$Uq="_$TR";}else if(_$nR<38){var _$0E=_$Tu.aebi=[];}else if(_$nR<39){_$fp+="N$E7jb9OXf_IS1VWGS$dBmuw5l$UX$UW6$FL07LB0$ixN6WmVdLaBcTT7eWBW2r1lz5SJUCL71YoaEyDL9w4HsYqsqClnTP9aVoYoITQR7RITFjtyYCws5LJmehtSfN_7GH5djo5sDGULPyJwN1jo_2G1TfmO5KDPK4IkylGuW7Tdfn6EZrRtFhutUGE";}else{if( !_$iH)_$q7+=1;}}else if(_$nR<44){if(_$nR<41){var _$OE=[];}else if(_$nR<42){_$fp+="zd4g$Jc6D1q0syYV7sANzXK8tn8l9Stu87xEkin18Vnk2D8JMtJ8mV2ZemlTpPvM1WvghDUihFx8$s7EKH5rAE$86rTji$XcIqGr7X8KRb1itsNVTgrHBZE066gfEM0xGFp7uAgvhVqO75AbjCdyQMMwcw6nfAjcdJdpQ0HXx1luXs6bAr0nZfZZ7roO";}else if(_$nR<43){_$Pz._$op="_$Z$";}else{_$iH=_$6K.execScript;}}else{if(_$nR<45){_$q7+=1;}else if(_$nR<46){var _$fp=_$Sr(12);}else if(_$nR<47){var _$fp='';}else{_$Pz._$wE="._VgndGwVUWjDBJhVfIlVQ";}}}else{if(_$nR<52){if(_$nR<49){_$oS(0);}else if(_$nR<50){var _$JF=_$_J();}else if(_$nR<51){var _$9s=_$Tu._$qL;}else{_$jI=_$C4.substr(_$AU,_$ld).split(_$mp.fromCharCode(255));}}else if(_$nR<56){if(_$nR<53){var _$C4=_$Tu["e309c5f"];}else if(_$nR<54){_$Tu._$tN=1;}else if(_$nR<55){_$Pz._$yN="_$UZ";}else{_$Pz._$Zw="Hh6Yq9qUtQa";}}else if(_$nR<60){if(_$nR<57){return 0;}else if(_$nR<58){_$fp=_$fp.replace(RegExp('[\\r\\n\\s]','g'),"");}else if(_$nR<59){var _$fp=_$6K.eval.toString();}else{_$Pz._$2E="_$5A";}}else{if(_$nR<61){var _$sY=_$_J();}else if(_$nR<62){_$Pz._$5N="_$dJ";}else if(_$nR<63){_$Pz._$Ok="rmF7ZVfnD_A";}else{return _$7j;}}}}else{if(_$nR<80){if(_$nR<68){if(_$nR<65){_$Pz._$mp=_$Bi;}else if(_$nR<66){var _$AU=0;}else if(_$nR<67){_$Pz._$q7="_$Id";}else{_$Pz._$aN="_$yc";}}else if(_$nR<72){if(_$nR<69){}else if(_$nR<70){var _$ld=_$_J();}else if(_$nR<71){return 1;}else{_$6K['$_ts'].l__=_$Tu.l__;}}else if(_$nR<76){if(_$nR<73){_$iH=_$fp!=="functioneval(){[nativecode]}";}else if(_$nR<74){_$Pz._$My=252;}else if(_$nR<75){_$q7+=-88;}else{_$iH=_$Pz===undefined||_$Pz==="";}}else{if(_$nR<77){return new _$wE().getTime();}else if(_$nR<78){_$Tu._$$u=new _$wE().getTime();}else if(_$nR<79){_$Pz._$pz="_$F5";}else{_$Pz._$IU="_$97";}}}else if(_$nR<96){if(_$nR<84){if(_$nR<81){_$Tu._$qL=_$Sr(18);}else if(_$nR<82){_$Pz._$pO="_$Wx";}else if(_$nR<83){var _$f0=_$_J();}else{_$q7+=88;}}else if(_$nR<88){if(_$nR<85){_$fp+="tpwnr4Iv_jhlq5nG2cw8isoahQwMHL7QsIY7YJv$Q9Iaq1yBPpIm4B8k7y_v8g3V4SKbFa1xA5McgVnAUrEKaWISrTpWIW3JIUpOpz2EUqopdcO4FTp510Tatzd_kE$obFH1TDNCkL6oYLf8KZAG5a4qMyZCeWKzocqLkMWGDxi7VZNf9MujuVGAQd_c";}else if(_$nR<86){_$Pz._$OE="_$kL";}else if(_$nR<87){for(_$Qp=0;_$Qp<_$f0;_$Qp++ ){_$oS(16,_$Qp,_$OE);}}else{_$Pz._$3J="_$Te";}}else if(_$nR<92){if(_$nR<89){_$Tu["e309c5f"]=_$6T;}else if(_$nR<90){var _$fp,_$$u,_$Nc=_$Pz.length,_$7j=new _$Zw(_$Nc/2),_$sY='_$';}else if(_$nR<91){_$iH=_$Tu["e309c5f"];}else{_$Pz._$g2="_$p$";}}else{if(_$nR<93){_$fp+="Sn8oDPgdIITqy6Cs6q6uxOyUx6USc4x2$FEXcQlCGfuezG9f42rkcCraLWRfg7FQ1AAKgETYUKA$8nCZiUbxcX6vSxOjA4Rp8cYOYnpo1IUMXQZJ3QCCCnuJPVXv4UG9S3uRb292NJAPizx7FkAtXZgkPqEoVRfyzSxz6Z_lpXHaIgaf$VI2pppJKqAl";}else if(_$nR<94){_$Sr(31);}else if(_$nR<95){_$Pz._$f0="_$YL";}else{_$Pz._$iH="_$qe";}}}else{if(_$nR<100){if(_$nR<97){_$fp+="e6ton4FoelwZbyRodsQfXOvHZ57AEHadNsY_vR3yo85HWH$M$AQojsDtuIUBNYBtA9reG$JM_3dew2hw4n0DUxPI7OwUZ120gaN1dWzMPtic_2i4CfNOp_muwlLTfIrUG82KXuuPWnJ4TwzTK5bQCM4ZI8tWTEnXRZb8DGtCUwRL78BnP3Tt9Hwsm7BY";}else if(_$nR<98){_$$u=_$6K.eval;}else if(_$nR<99){_$fp=_$$u.call(_$6K,_$Pz);}else{_$f0=_$_J();}}else{if(_$nR<101){_$Pz._$ld="_$5a";}else if(_$nR<102){var _$7j=_$C4.length;}else{var _$Lp=_$_J();}}}}}function _$oS(_$7j,_$XB,_$rn){function _$Ok(){var _$W9=[0];Array.prototype.push.apply(_$W9,arguments);return _$u2.apply(this,_$W9);}var _$To,_$db,_$AB,_$fp,_$$u,_$Nc,_$2X,_$bp,_$W0,_$rh,_$r8,_$OU,_$3s,_$8z,_$au,_$rF;var _$Id,_$ld,_$sY=_$7j,_$OE=_$Zm[2];while(1){_$ld=_$OE[_$sY++];if(_$ld<16){if(_$ld<4){if(_$ld<1){var _$3s=_$_J();}else if(_$ld<2){var _$fp=_$AC.scripts.length;}else if(_$ld<3){var _$$u=_$_J();}else{var _$W0=_$_J();}}else if(_$ld<8){if(_$ld<5){return;}else if(_$ld<6){var _$db=_$oS(11);}else if(_$ld<7){for(_$Nc=0;_$Nc<_$fp;_$Nc++ ){_$$u[_$Nc]=_$_J();}}else{var _$rF=_$oS(11);}}else if(_$ld<12){if(_$ld<9){var _$OU=_$_J();}else if(_$ld<10){return _$$u;}else if(_$ld<11){var _$2X=_$_J();}else{var _$au=_$oS(11);}}else{if(_$ld<13){_$u2(9,_$rn);}else if(_$ld<14){var _$8z=_$_J();}else if(_$ld<15){var _$To=_$oS(11);}else{_$sY+=18;}}}else if(_$ld<32){if(_$ld<20){if(_$ld<17){var _$$u=new _$Zw(_$fp);}else if(_$ld<18){var _$AB=[];}else if(_$ld<19){_$2X.open('GET',_$$u,false);}else{var _$fp=_$oS(11);}}else if(_$ld<24){if(_$ld<21){_$2X=_$6K.ActiveXObject?new _$6K.ActiveXObject('Microsoft.XMLHTTP'):new _$6K.XMLHttpRequest();}else if(_$ld<22){_$sY+=-18;}else if(_$ld<23){_$0E[_$XB]=_$fp;}else{_$Id=_$$u;}}else if(_$ld<28){if(_$ld<25){var _$rh=_$_J();}else if(_$ld<26){var _$r8=_$_J();}else if(_$ld<27){var _$$u=_$fp>1?_$AC.scripts[_$fp-2].src:_$6T;}else{var _$fp=_$_J();}}else{if(_$ld<29){for(_$Nc=0;_$Nc<_$$u;_$Nc++ ){_$AB[_$Nc]=_$oS(11);}}else if(_$ld<30){}else if(_$ld<31){_$2X.send();}else{if( !_$Id)_$sY+=4;}}}else{if(_$ld<33){_$2X.onreadystatechange=_$Ok;}else{var _$bp=_$_J();}}}function _$u2(_$$u,_$9u){var _$jh,_$fp;var _$7j,_$Id,_$Nc=_$$u,_$W9=_$Zm[3];while(1){_$Id=_$W9[_$Nc++];if(_$Id<16){if(_$Id<4){if(_$Id<1){_$Nc+=32;}else if(_$Id<2){if( !_$7j)_$Nc+=1;}else if(_$Id<3){_$7j=_$au.length;}else{_$9u.push("=0,");}}else if(_$Id<8){if(_$Id<5){_$9u.push("while(1){");}else if(_$Id<6){_$Nc+=33;}else if(_$Id<7){_$9u.push(_$9s[_$JF]);}else{_$OX(10,0,_$AB.length);}}else if(_$Id<12){if(_$Id<9){_$Nc+=-33;}else if(_$Id<10){_$9u.push("){");}else if(_$Id<11){_$9u.push(_$9s[_$r8]);}else{_$9u.push(_$XB);}}else{if(_$Id<13){_$7j=_$2X.readyState==4;}else if(_$Id<14){_$OX(12);}else if(_$Id<15){_$9u.push("(");}else{_$9u.push(_$9s[_$3s]);}}}else if(_$Id<32){if(_$Id<20){if(_$Id<17){_$9u.push("=");}else if(_$Id<18){_$9u.push(";");}else if(_$Id<19){_$9u.push(_$9s[_$bp]);}else{_$9u.push("];");}}else if(_$Id<24){if(_$Id<21){_$9u.push("[");}else if(_$Id<22){_$9u.push("}");}else if(_$Id<23){if( !_$7j)_$Nc+=8;}else{_$7j=_$XB==0;}}else if(_$Id<28){if(_$Id<25){_$9u.push(_$9s[_$W0]);}else if(_$Id<26){for(_$fp=0;_$fp<_$To.length;_$fp+=2){_$OX(0,_$To[_$fp],_$To[_$fp+1],_$9u);}}else if(_$Id<27){return;}else{_$9u.push("++];");}}else{if(_$Id<29){_$9u.push(_$9s[_$2X]);}else if(_$Id<30){_$7j=_$rF.length;}else if(_$Id<31){_$Sr(31);}else{_$9u.push("=$_ts.aebi;");}}}else if(_$Id<48){if(_$Id<36){if(_$Id<33){_$Nc+=8;}else if(_$Id<34){_$7j=_$Tu["e309c5f"];}else if(_$Id<35){_$9u.push("(function(){var ");}else{for(_$fp=0;_$fp<_$au.length;_$fp++ ){_$9u.push(",");_$9u.push(_$9s[_$au[_$fp]]);}}}else if(_$Id<40){if(_$Id<37){_$9u.push(_$9s[_$Lp]);}else if(_$Id<38){_$9u.push("var ");}else if(_$Id<39){var _$fp,_$jh=4;}else{if( !_$7j)_$Nc+=9;}}else if(_$Id<44){if(_$Id<41){_$9u.push("=$_ts.scj,");}else if(_$Id<42){_$9u.push(_$9s[_$8z]);}else if(_$Id<43){_$9u.push(_$9s[_$rF[0]]);}else{for(_$fp=1;_$fp<_$rF.length;_$fp++ ){_$9u.push(",");_$9u.push(_$9s[_$rF[_$fp]]);}}}else{if(_$Id<45){_$Sr(79,_$2X.responseText);}else if(_$Id<46){_$7j=_$AB.length;}else if(_$Id<47){_$9u.push("function ");}else{_$9u.push(",");}}}else{if( !_$7j)_$Nc+=4;}}function _$OX(_$sY,_$5O,_$Kn,_$hB){var _$$u,_$Nc,_$7j,_$fp;var _$W9,_$OE,_$Id=_$sY,_$f0=_$Zm[4];while(1){_$OE=_$f0[_$Id++];if(_$OE<16){if(_$OE<4){if(_$OE<1){for(;_$5O<_$Kn;_$5O++ ){_$9u.push(_$$u);_$9u.push(_$9s[_$3s]);_$9u.push('<');_$9u.push(_$5O+1);_$9u.push("){");_$OX(2,_$5O);_$$u="}else if(";}}else if(_$OE<2){_$W9=_$fp.length!=_$$u;}else if(_$OE<3){_$$u-=_$$u%2;}else{_$Nc=0;}}else if(_$OE<8){if(_$OE<5){var _$fp=_$AB[_$5O];}else if(_$OE<6){var _$$u=_$fp.length;}else if(_$OE<7){_$Id+=21;}else{_$W9=_$db.length!=_$fp;}}else if(_$OE<12){if(_$OE<9){_$fp-=_$fp%2;}else if(_$OE<10){_$$u="if(";}else if(_$OE<11){_$W9=_$7j==1;}else{_$9u.push(_$jI[_$fp[_$$u]]);}}else{if(_$OE<13){_$W9=_$7j==0;}else if(_$OE<14){for(_$fp=1;_$fp<7;_$fp++ ){if(_$7j<=_$AO[_$fp]){_$Nc=_$AO[_$fp-1];break;}}}else if(_$OE<15){}else{for(_$$u=0;_$$u<_$fp;_$$u+=2){_$9u.push(_$jI[_$db[_$$u]]);_$9u.push(_$9s[_$db[_$$u+1]]);}}}}else if(_$OE<32){if(_$OE<20){if(_$OE<17){var _$fp=_$db.length;}else if(_$OE<18){for(;_$5O+_$Nc<_$Kn;_$5O+=_$Nc){_$9u.push(_$$u);_$9u.push(_$9s[_$3s]);_$9u.push('<');_$9u.push(_$5O+_$Nc);_$9u.push("){");_$OX(10,_$5O,_$5O+_$Nc);_$$u="}else if(";}}else if(_$OE<19){_$W9=_$7j<=_$jh;}else{return;}}else if(_$OE<24){if(_$OE<21){if( !_$W9)_$Id+=7;}else if(_$OE<22){_$Id+=17;}else if(_$OE<23){_$9u.push("}else{");}else{_$Kn-- ;}}else if(_$OE<28){if(_$OE<25){_$OX(2,_$5O);}else if(_$OE<26){if( !_$W9)_$Id+=2;}else if(_$OE<27){_$Id+=8;}else{for(_$Nc=0;_$Nc<_$$u;_$Nc+=2){_$9u.push(_$jI[_$fp[_$Nc]]);_$9u.push(_$9s[_$fp[_$Nc+1]]);}}}else{if(_$OE<29){_$Id+=-27;}else if(_$OE<30){_$9u.push(_$jI[_$db[_$fp]]);}else if(_$OE<31){var _$fp,_$$u,_$Nc,_$7j=_$Kn-_$5O;}else{_$hB.push(["function ",_$9s[_$5O],"(){var ",_$9s[_$rh],"=[",_$Kn,"];Array.prototype.push.apply(",_$9s[_$rh],",arguments);return ",_$9s[_$OU],".apply(this,",_$9s[_$rh],");}"].join(''));}}}else{if(_$OE<33){_$9u.push("}");}else if(_$OE<34){_$Id+=27;}else if(_$OE<35){_$OX(10,_$5O,_$Kn);}else{if( !_$W9)_$Id+=1;}}}}}}}})()</script></head>
<body>
<script r="m" type="text/javascript">
_$ZC('6EAg');
</script>
</body>
</html>
