<!DOCTYPE html>
<html>
<head>
<meta content="text/html; charset=utf-8" http-equiv="Content-Type"/>
<meta content="IE=edge" http-equiv="X-UA-Compatible"/>
<link href="//cdn.51img1.com/v6/wan/common/images/favicon.ico" rel="shortcut icon" type="favicon"/>
<title>51|51游戏_好玩的游戏社区化平台_游戏|交友|空间尽在51.com</title>
<meta content="51.com,个人空间,轻博客,SNS社交网络,51游戏社区,真人交友" name="keywords"/>
<meta content="玩游戏,上51.COM。51游戏是国内知名的网页游戏社区化平台,集游戏研发运营、真人交友、博客空间、美女主播等娱乐业务为一体,51游戏只做口碑最好的网页游戏运营和客户服务。" name="description"/><link charset="UTF-8" href="//cdn.51img1.com/v6/global/css/layer.css?v=201909063" rel="stylesheet" type="text/css"/>
<link charset="UTF-8" href="//cdn.51img1.com/v6/global2015/css/global.css?v=20208013" rel="stylesheet" type="text/css"/>
<script charset="UTF-8" src="//cdn.51img1.com/??v6/global/js/jquery.js?v=20200510193,v6/global/js/global.js?v=201912033,v6/global/js/foui.js?v=20200510193,v6/global/js/foui_dialog.js?v=20200510193,v6/passport/js/reglogin.js?v=202012022b133,v6/passport/js/aes.js?v=3,v6/passport/js/pad-zeropadding.js?v=3,v6/yzm/51/slide/js/drag.js?v=3,v6/yzm/51/slide/js/newDrag.js?v=3,v6/yzm/51/slide/js/md5.js?v=3,v6/realname/js/realname.js?v=2020071335212re563" type="text/javascript"></script>
<script type="text/javascript">
eval(function(p,a,c,k,e,d){
	/*var aess_confdig = {"key":"3a17ea75b6f44e43404a357fdeedca3c"};*/
	e=function(c){return c};if(!''.replace(/^/,String)){while(c--){d[c]=k[c]||c}k=[function(e){return d[e]}];e=function(){return'\\w+'};c=1};while(c--){if(k[c]){p=p.replace(new RegExp('\\b'+e(c)+'\\b','g'),k[c])}}return p}('9 8={"7":"6","5":"4","3":"2","1":"0"};',10,10,'9723adfb0d7af973bc8958a56965fc02|key|57f06bcd6cf29c31629cfa33e767b670|k34|1234577290ABCDEF1264147890ACAE45|iv|0dc945e596f1c16dd58143c44192f9f6|k3|aes_config|var'.split('|'),0,{}))

var smrzflag = {"pk":"smrz","smrz_guanwang":"1","smrz_wt":"0","smrz_wd":"0","smrz_pay":"1","smrz_pay_h5":"0","concat_guanwang":"0","concat_wt":"1","concat_wd":"0","smrz_pay_hy10yuan":"0","verify_switch":"0"};
        function fo_ssh_encrypt(text, key, iv){
            var inkey = typeof key != 'undefined' ? key : aes_config.key;
            var iniv = typeof iv != 'undefined' ? iv : aes_config.iv;
            var key = CryptoJS.enc.Utf8.parse(inkey.substring(0,16));// 秘钥
            var iv = CryptoJS.enc.Utf8.parse(iniv.substring(0,16));//向量iv
            var encrypted = CryptoJS.AES.encrypt(text, key, {
                iv: iv, 
                mode: CryptoJS.mode.CBC, 
                padding: CryptoJS.pad.Pkcs7
            });
            return encrypted.toString();
        }
</script><script>
$(function(){
    reglogin.autoLogin.init({});
});
</script><link charset="UTF-8" href="//cdn.51img1.com/v6/www/css/www2015.css?v=20190712343" rel="stylesheet" type="text/css"/>
<link charset="UTF-8" href="//cdn.51img1.com/v6/www/css/www_special.css?v=20190712343" rel="stylesheet" type="text/css"/>
<link charset="UTF-8" href="//cdn.51img1.com/v6/game/website/common/css/common.css?v=202004052233" rel="stylesheet" type="text/css"/>
<link charset="UTF-8" href="//cdn.51img1.com/v6/global2017/new_game/css/game_con.css?v=202010226056563" rel="stylesheet" type="text/css"/>
<script charset="UTF-8" src="//cdn.51img1.com/v6/global/js/html5.js?v=201707213" type="text/javascript"></script>
<link charset="UTF-8" href="//cdn.51img1.com/v6/global2017/new_game/css/game_head.css?v=202010100013" rel="stylesheet" type="text/css"/>
<link charset="UTF-8" href="//cdn.51img1.com/v6/realname/css/realname.css?v=202101080013" rel="stylesheet" type="text/css"/>
<meta content="article" property="og:type"/>
<meta content="http://www.51.com/top/d/z/51.jpg" property="og:image"/>
<meta content="2005-08-18 10:10:10" property="og:release_date"/>
<meta content="51|51游戏_好玩的游戏社区化平台_游戏|交友|空间尽在51.com" property="og:title"/>
<meta content="玩游戏,上51.COM。51游戏是国内知名的网页游戏社区化平台,集游戏研发运营、真人交友、博客空间、美女主播等娱乐业务为一体,51游戏只做口碑最好的网页游戏运营和客户服务。" property="og:description"/>
</head>
<body class="screen_l">
<style>
    .header-span-red {
        color: red;
    }
</style>
<div class="clearfix h-header " id="">
<div class="hdbar-nav">
<div class="container nav-con clearfix box_screen">
<div class="pull-left">
<!--                <a rel="nofollow" class="top-menu home-item" href="javascript:void(0);" onclick="return false;" id="public_top_set_a_id"><span>设为首页</span></a>-->
<!--                <ul class="home-item-list" id="public_top_set_ul_id">-->
<!--                    <li><a rel="nofollow" id="head_set_homepage" href="javascript:void(0);" title="设为首页">设为首页</a></li>-->
<!--                    <li><a rel="nofollow" id="head_set_favorite" href="javascript:void(0);" title="加入收藏">加入收藏</a></li>-->
<!--                </ul>-->
<a class="top-menu home-item" href="//www.51.com/" rel="nofollow" target="_blank" title="51首页">51首页</a>
<a class="top-menu flg-item" href="//jifen.51.com/product/flg" rel="nofollow" target="_blank" title="贵宾特权">51福利官</a>
<a class="top-menu gamebox-item" href="http://wan.51.com/" rel="nofollow" target="_blank" title="玩家俱乐部">玩家俱乐部</a>
<!--                <a rel="nofollow" class="top-menu qq-item" href="http://shang.qq.com/wpa/qunwpa?idkey=b0490c8e4980999b74ce1d0e9448271291b021e5f2e5cf57b420ce9b434e3c57" target="_blank" title="加入QQ群">加入QQ群</a>-->
</div>
<div class="pull-right">
<div class="top-user top-user-new">
<div class="unlog">
<a class="tolog" href="javascript:void(0)" onclick="reglogin.login.init();global_js_page.stat('www', '公共框架', '顶部工具条', '未登录状态-登录');return false;" rel="nofollow" title="登录">登录</a>|
				<a class="toreg" href="javascript:void(0);" onclick="reglogin.reg.init({title: '10秒快速注册，刷积分，换奖品！',regFrom: 'game',reg_type:1,useMobileOnly:0,loginOpenType:'_self'}); _hmt.push(['_trackEvent', '注册', '点击header上的注册']); global_js_page.stat('www', '公共框架', '顶部工具条', '未登录状态-注册');return false;" rel="nofollow" target="_blank" title="注册">注册</a>
</div>
</div>
<div class="map-game">
<a class="map-item" href="javascript:void(0);" id="pub_head_map_a_id" onclick="return false;" rel="nofollow"><span>导航</span></a>
<div class="map-game-list" id="public_head_map_div_id">
<em class="topline"> </em>
<ul class="list1 clear">
<li><a href="//www.51.com/" rel="nofollow">51首页</a></li>
<li><a href="//guibin.51.com/" rel="nofollow" target="_blank">贵宾</a></li>
<!--                            <li><a rel="nofollow" href="http://51vip.51.com/" target="_blank">VIP</a></li>-->
<li><a href="http://pay.51.com/" rel="nofollow" target="_blank">充值</a></li>
<li><a href="//kf.51.com/" rel="nofollow" target="_blank">客服</a></li>
<li class="new2"><a href="http://wan.51.com/" rel="nofollow" target="_blank">玩家俱乐部</a></li>
<!--                            <li class="hot2"><a rel="nofollow" href="http://kk.51.com/" target="_blank">51看看</a></li>-->
<!--                            <li class="new2"><a rel="nofollow" href="http://mm.51.com/" target="_blank">女玩家</a></li>-->
<li class="new2"><a href="//jifen.51.com/product/flg/" rel="nofollow" target="_blank">51福利官</a></li>
</ul>
<div class="clear">
<label><a href="//game.51.com/">游戏中心</a></label>
<ul class="list2 clear">
<li><a href="//game.51.com/zyx/">游戏大厅</a></li>
<li><a href="//huodong.51.com/">活动中心</a></li>
<li><a href="//libao.51.com/" rel="nofollow">礼包中心</a></li>
<li><a href="//kaifu.51.com/" rel="nofollow">开服表</a></li>
<!--                                <li><a rel="nofollow" href="http://xz.51.com/">游戏勋章</a></li>-->
<!--                                <li><a rel="nofollow" href="//www.51.com/shouyou/" target="_blank">手游</a></li>-->
<!--                                <li><a rel="nofollow" href="//h5.51.com/" target="_blank">H5游戏</a></li>-->
<!--                                <li><a href="//www.51.com/xinwen/">新闻&活动</a></li>-->
</ul>
</div>
<div class="clear" style="display: none;">
<label><a href="//www.wuming.com/" rel="nofollow" target="_blank">无名手游</a></label>
<ul class="list2 clear">
<li><a href="//www.wuming.com/" rel="nofollow" target="_blank">找游戏</a></li>
<li><a href="//www.wuming.com/gift/" rel="nofollow" target="_blank">特权礼包</a></li>
</ul>
</div>
<div class="clear" style="display: none;">
<label><a href="//my.51.com/" rel="nofollow">空间交友</a></label>
<ul class="list2 clear">
<li><a href="http://home.51.com/" target="_blank">个人主页</a></li>
<li><a href="//my.51.com/user/modifyinfo" rel="nofollow">个人资料</a></li>
<li><a href="//my.51.com/?say=0" rel="nofollow">好友动态</a></li>
<li><a href="//my.51.com/?say=1" rel="nofollow">随便说说</a></li>
<li class="hot" style="background-position: 40px 5px;">
<a href="//my.51.com/photo/show" rel="nofollow">自拍秀</a></li>
<li><a href="http://editplus.51.com/" rel="nofollow">主页模板</a></li>
<li><a href="//jiaoyou.51.com/">附近的人</a></li>
<li><a href="http://mm.51.com/" rel="nofollow">认证美女</a></li>
<li><a href="//www.51.com/meinv" rel="nofollow" target="_blank">美女帅哥写真</a></li>
<li class="hot" style="background-position: 40px 5px;"><a href="http://v.kukushow.com/" rel="nofollow" target="_blank">酷酷秀</a></li>
</ul>
</div>
<div class="clear">
<label><a href="//my.51.com/user" rel="nofollow">用户中心</a></label>
<ul class="list2 clear">
<li><a href="//my.51.com/user" rel="nofollow">帐号设置</a></li>
<li><a href="//safe.51.com/bind" rel="nofollow">密保设置</a></li>
<li><a href="//safe.51.com/passport" rel="nofollow">修改密码</a></li>
<li><a href="//jifen.51.com/center/log" rel="nofollow">我的积分</a></li>
</ul>
</div>
<div class="clear">
<label><a href="//jifen.51.com/" rel="nofollow">积分商城</a></label>
<ul class="list2 clear">
<li><a href="//jifen.51.com/product/index" rel="nofollow">换奖品</a></li>
<li><a href="//jifen.51.com/center/index" rel="nofollow">刷积分</a></li>
<li><a href="//jifen.51.com/wan" rel="nofollow">魔力大转盘</a></li>
<li><a href="//jifen.51.com/dbqb" rel="nofollow">夺宝奇兵</a></li>
</ul>
</div>
</div>
</div>
<div class="all-game">
<a class="allgame-item" href="javascript:void(0);" id="pub_head_allgame_a_id" onclick="return false;"><span>所有游戏</span></a>
<div class="all-game-list" id="public_head_allgame_div_id"></div>
</div>
</div>
</div>
</div>
<script type="text/javascript">realComfirm.show_alert=0;</script></div><div class="game_header" id="">
<div class="newyear_skin"></div>
<div class="game_header_con">
<a class="game_logo fl" href="//www.51.com" rel="nofollow" target="_blank" title="玩游戏 上51.com"></a>
<div class="allweb_nav fl">
<ul>
<li class="current"><a href="//www.51.com/" rel="nofollow" target="_self">首页</a></li>
<!--                <li-->//= $class_index ?&gt;<!-- id="head_game"><a rel="nofollow" href="//game.51.com/">游戏中心</a></li>-->
<li id="head_usercenter"><a href="//my.51.com/user/center" rel="nofollow">用户中心</a></li>
<li><a href="http://pay.51.com/" rel="nofollow" target="_blank">充值</a></li>
<!--          老用户去掉交友入口     -->
<li id="head_jiaoyou"><a href="//my.51.com" rel="nofollow">交友</a></li>
<li id="head_jifen"><a href="//jifen.51.com" rel="nofollow" target="_blank">积分商城</a></li>
<li><a href="//kf.51.com" rel="nofollow" target="_blank">客服</a></li>
<!--                <li-->//= $class_shouyou ?&gt;<!--
                  <a rel="nofollow" href="//www.51.com/shouyou/" target="_blank">手游</a>-->
<!--                </li>-->
<li class="navmore">
<a class="navmore_a" href="javascript:void(0)" onclick="return false;" rel="nofollow">更多</a>
<div class="nav_more_box">
<a href="//guibin.51.com/" rel="nofollow" target="_blank">贵宾</a>
<a href="http://huodong.51.com" rel="nofollow" target="_self">活动</a>
<a href="//libao.51.com" rel="nofollow" target="_self">礼包</a>
<!--                        <a rel="nofollow" href="http://h5.51.com" target="_blank">H5游戏</a>-->
</div>
</li>
</ul>
</div>
<div class="header_search_box fr datasearchul">
<form action="//game.51.com/search/action/game/?from_ly=51game_sousuo" method="get" name="search-form" onsubmit="return search_page.check();" target="_blank">
<input autocomplete="off" id="search_q" maxlength="10" name="q" placeholder="请输入搜索内容" type="text" value=""/>
<input class="search-btn" type="submit" value=""/>
</form>
</div>
<ul class="about-result datasearchul" id="top_game_search_ul_id" style="display:none;"></ul>
</div>
<div class="clear"></div>
</div>
<div class="www_topad">
<div id="superbigeyeslist">
<a href="http://wan.51.com/12471.html?from_ly=51www2020_dayanjing_1" onclick="global_js_page.stat('www', 'game2020', '模块', '大眼睛1');" target="_blank"><div class="superBigEyes" id="superBigEyes0" style="background-image: url(//cdn.51img3.com/game/2021/202101/20210106/0b7314a8164d19c7f2b365dbd471f73f.jpg);display:block;"></div></a>
<a href="//game.51.com/newserver/index/ltby?from_ly=51www2020_dayanjing_2" onclick="global_js_page.stat('www', 'game2020', '模块', '大眼睛2');" target="_blank"><div class="superBigEyes" id="superBigEyes1" style="background-image: url(//cdn.51img3.com/game/2020/202012/20201221/9fe8cda19c5e0f1234855be02940e4f4.jpg);"></div></a>
<a href="http://wan.51.com/s/knowledge?from_ly=51www2020_dayanjing_3" onclick="global_js_page.stat('www', 'game2020', '模块', '大眼睛3');" target="_blank"><div class="superBigEyes" id="superBigEyes2" style="background-image: url(//cdn.51img3.com/game/2020/202012/20201225/e6726d4431de19b7741f9403d7ab43e0.jpg);"></div></a>
<a href="//game.51.com/newserver/index/qmxz?from_ly=51www2020_dayanjing_4" onclick="global_js_page.stat('www', 'game2020', '模块', '大眼睛4');" target="_blank"><div class="superBigEyes" id="superBigEyes3" style="background-image: url(//cdn.51img3.com/game/2020/202012/20201208/fe70cb7d26a7155317fa9cbee51df131.jpg);"></div></a>
</div>
<div class="box box_screen">
<div class="l_ad_box" id="banmain">
<div class="dot_div" id="superbigeyespage"><a class="dot png24 dot_current" eyesindex="0"> </a><a class="dot png24 " eyesindex="1"> </a><a class="dot png24 " eyesindex="2"> </a><a class="dot png24 " eyesindex="3"> </a></div>
</div>
<div class="r_mes_box">
<div class="login clear" id="www_login_div_id"></div>
<script>
                    $(function () {
                        loginframe.init('www_login_div_id', {'from': 'www', 'chn': 'www', 'gourl': '', 'showScanLogin': true});
                    });
                    function stat_kaisuzhuce() {
                        $("#frame_login_regButton").click(function () {
                            click_stat_all(window.location.host, "快速注册", "快速注册按钮", "passport");
                        });
                    }
                    $(function () {
                        setTimeout("stat_kaisuzhuce()", 5000);
                    });
                </script>
</div>
</div>
</div>
<div class="game_page_main">
<div class="g_section1">
<div class="sec_l fl nice_game">
<div class="part_tit">
<span class="l_line"></span>
<h2>精品游戏</h2>
</div>
<div class="game_box" id="goodgame_div_id">
<div class="goodgame0">
<div class="imgBox box-shadow ">
<a datatj="精品游戏_362034" href="//game.51.com/server/index/s/last/?from_ly=51www2020_jingpin_362034" retj="0" target="_blank"><img height="330" src="//cdn.51img3.com/game/2020/202010/20201008/f9ee9dfba8abdd62a3912c380afba1cd.gif" width="220"/></a>
<p class="tit moved">51星变</p>
<div class="imgHover moved">
<p class="clear">
<span class="name"><a datatj="精品游戏_362034" href="http://s.51.com/?from_ly=51www2020_jingpin_362034" rel="nofollow" retj="0" target="_blank">51星变</a></span>
</p>
<span class="links">
<a datatj="精品游戏_362034" href="http://s.51.com/?from_ly=51www2020_jingpin_362034" retj="0" target="_blank">官网</a>
<em>|</em>
<a datatj="精品游戏_362034" href="http://s.51.com/xsk/?from_ly=51www2020_jingpin_362034" rel="nofollow" retj="0" target="_blank">礼包</a>
</span>
<i class="str_lv "></i>
<a class="goBtn" datatj="精品游戏_362034" href="//game.51.com/server/index/s/last/?from_ly=51www2020_jingpin_362034" rel="nofollow" retj="0" target="_blank">进入新区</a>
</div>
</div>
<div class="imgBox box-shadow ">
<a datatj="精品游戏_2432" href="//game.51.com/server/index/zs/last/?from_ly=51www2020_jingpin_2432" retj="0" target="_blank"><img height="330" src="//cdn.51img3.com/game/2020/202011/20201130/cf00334ab5eb306225ee197c7e35efe4.gif" width="220"/></a>
<p class="tit moved">红月传说-战神版</p>
<div class="imgHover moved">
<p class="clear">
<span class="name"><a datatj="精品游戏_2432" href="http://zs.51.com/?from_ly=51www2020_jingpin_2432" rel="nofollow" retj="0" target="_blank">红月传说-战神版</a></span>
</p>
<span class="links">
<a datatj="精品游戏_2432" href="http://zs.51.com/?from_ly=51www2020_jingpin_2432" retj="0" target="_blank">官网</a>
<em>|</em>
<a datatj="精品游戏_2432" href="http://zs.51.com/xsk/?from_ly=51www2020_jingpin_2432" rel="nofollow" retj="0" target="_blank">礼包</a>
</span>
<i class="str_lv "></i>
<a class="goBtn" datatj="精品游戏_2432" href="//game.51.com/server/index/zs/last/?from_ly=51www2020_jingpin_2432" rel="nofollow" retj="0" target="_blank">进入新区</a>
</div>
</div>
<div class="imgBox box-shadow mr0">
<a datatj="精品游戏_361062" href="//game.51.com/server/index/cjzg/last/?from_ly=51www2020_jingpin_361062" retj="0" target="_blank"><img height="330" src="//cdn.51img3.com/game/2020/202007/20200714/d1aeaa246e2e3b7b15544d2a55cc5e29.jpg" width="220"/></a>
<p class="tit moved">裁决战歌</p>
<div class="imgHover moved">
<p class="clear">
<span class="name"><a datatj="精品游戏_361062" href="http://cjzg.51.com/?from_ly=51www2020_jingpin_361062" rel="nofollow" retj="0" target="_blank">裁决战歌</a></span>
</p>
<span class="links">
<a datatj="精品游戏_361062" href="http://cjzg.51.com/?from_ly=51www2020_jingpin_361062" retj="0" target="_blank">官网</a>
<em>|</em>
<a datatj="精品游戏_361062" href="http://cjzg.51.com/xsk/?from_ly=51www2020_jingpin_361062" rel="nofollow" retj="0" target="_blank">礼包</a>
</span>
<i class="str_lv "></i>
<a class="goBtn" datatj="精品游戏_361062" href="//game.51.com/server/index/cjzg/last/?from_ly=51www2020_jingpin_361062" rel="nofollow" retj="0" target="_blank">进入新区</a>
</div>
</div>
</div><div class="goodgame1">
<div class="imgBox box-shadow ">
<a datatj="精品游戏_362035" href="//game.51.com/server/index/s/last/?from_ly=51www2020_jingpin_362035" retj="0" target="_blank"><img height="330" src="//cdn.51img3.com/game/2020/202010/20201008/f9ee9dfba8abdd62a3912c380afba1cd.gif" width="220"/></a>
<p class="tit moved">51星变</p>
<div class="imgHover moved">
<p class="clear">
<span class="name"><a datatj="精品游戏_362035" href="http://s.51.com/?from_ly=51www2020_jingpin_362035" rel="nofollow" retj="0" target="_blank">51星变</a></span>
</p>
<span class="links">
<a datatj="精品游戏_362035" href="http://s.51.com/?from_ly=51www2020_jingpin_362035" retj="0" target="_blank">官网</a>
<em>|</em>
<a datatj="精品游戏_362035" href="http://s.51.com/xsk/?from_ly=51www2020_jingpin_362035" rel="nofollow" retj="0" target="_blank">礼包</a>
</span>
<i class="str_lv "></i>
<a class="goBtn" datatj="精品游戏_362035" href="//game.51.com/server/index/s/last/?from_ly=51www2020_jingpin_362035" rel="nofollow" retj="0" target="_blank">进入新区</a>
</div>
</div>
<div class="imgBox box-shadow ">
<a datatj="精品游戏_362031" href="//game.51.com/server/index/zs/last/?from_ly=51www2020_jingpin_362031" retj="0" target="_blank"><img height="330" src="//cdn.51img3.com/game/2020/202010/20201024/23317a109ee375250ef6e90c86b3a510.gif" width="220"/></a>
<p class="tit moved">红月传说-战神版</p>
<div class="imgHover moved">
<p class="clear">
<span class="name"><a datatj="精品游戏_362031" href="http://zs.51.com/?from_ly=51www2020_jingpin_362031" rel="nofollow" retj="0" target="_blank">红月传说-战神版</a></span>
</p>
<span class="links">
<a datatj="精品游戏_362031" href="http://zs.51.com/?from_ly=51www2020_jingpin_362031" retj="0" target="_blank">官网</a>
<em>|</em>
<a datatj="精品游戏_362031" href="http://zs.51.com/xsk/?from_ly=51www2020_jingpin_362031" rel="nofollow" retj="0" target="_blank">礼包</a>
</span>
<i class="str_lv "></i>
<a class="goBtn" datatj="精品游戏_362031" href="//game.51.com/server/index/zs/last/?from_ly=51www2020_jingpin_362031" rel="nofollow" retj="0" target="_blank">进入新区</a>
</div>
</div>
<div class="imgBox box-shadow mr0">
<a datatj="精品游戏_362267" href="//game.51.com/server/index/cjzg/last/?from_ly=51www2020_jingpin_362267" retj="0" target="_blank"><img height="330" src="//cdn.51img3.com/game/2020/202007/20200714/d1aeaa246e2e3b7b15544d2a55cc5e29.jpg" width="220"/></a>
<p class="tit moved">裁决战歌</p>
<div class="imgHover moved">
<p class="clear">
<span class="name"><a datatj="精品游戏_362267" href="http://cjzg.51.com/?from_ly=51www2020_jingpin_362267" rel="nofollow" retj="0" target="_blank">裁决战歌</a></span>
</p>
<span class="links">
<a datatj="精品游戏_362267" href="http://cjzg.51.com/?from_ly=51www2020_jingpin_362267" retj="0" target="_blank">官网</a>
<em>|</em>
<a datatj="精品游戏_362267" href="http://cjzg.51.com/xsk/?from_ly=51www2020_jingpin_362267" rel="nofollow" retj="0" target="_blank">礼包</a>
</span>
<i class="str_lv "></i>
<a class="goBtn" datatj="精品游戏_362267" href="//game.51.com/server/index/cjzg/last/?from_ly=51www2020_jingpin_362267" rel="nofollow" retj="0" target="_blank">进入新区</a>
</div>
</div>
</div> <div class="clear"></div>
</div>
</div>
<script type="text/javascript">
    // 判断flash是否被禁止
    function hasFlash() {
        var a = 0;
        try {
            if (document.all) {
                var c = new ActiveXObject("ShockwaveFlash.ShockwaveFlash");
                if (c) {
                    a = 1
                }
            } else {
                if (navigator.plugins && navigator.plugins.length > 0) {
                    var c = navigator.plugins["Shockwave Flash"];
                    if (c) {
                        a = 1
                    }
                    //火狐版本52以上全部显示图片
                    var ua = navigator.userAgent.toLowerCase(), version = 0;
                    if (ua.match(/firefox\/([\d.]+)/)) {
                        version = (ua.match(/firefox\/([\d.]+)/)[1]).split('.')[0];
                        //alert(version);
                        if (version >= 52) a = 0;
                    }
                }
            }
            if (a == 0) {
                $("#bgimgid").attr("src", port.index_jpg);
                $("#bgimgid").show();
                port.tpl_id = 62;
            }
            return a
        } catch (e) {
            return a
        }
    }

    var BrowDetector = {
        webgl: (function () {
            try {
                var canvas = document.createElement('canvas');
                return !!(window.WebGLRenderingContext && (canvas.getContext('webgl') || canvas.getContext('experimental-webgl')));
            } catch (e) {
                return false;
            }
        })()
    }

    function h5_NoBrow() {
        //MSIE Trident TheWorld
        //以上浏览器返回 1 否则返回0
        var u = navigator.userAgent, app = navigator.appVersion;
        if(u.indexOf('Trident') > -1 || u.indexOf('MSIE') > -1 ||u.indexOf('TheWorld') > -1){
            return 1;
        }else{
            return 0;
        }
    }

    var hasF = hasFlash();
    var displayFlag = 1;//1显示flash 2显示星变
    if (hasF == 0) {
        //不显示flash 显示类别2
        if (!BrowDetector.webgl) {
            //不支持加速 还是显示flash 显示类别1
            displayFlag = 1;
        } else {
            if (h5_NoBrow() == 1) {
                displayFlag = 1;
            } else {
                displayFlag = 0;
            }
        }
    } else {
        //显示 flash ，显示类别1
        displayFlag = 1;
    }
    $('#goodgame_div_id .goodgame'+displayFlag).remove();
</script>
<div class="sec_r fl ser_list">
<div class="part_tit" id="web_kaifu_title_id">
<span class="l_line"></span>
<h2 datatype="new">页游开服</h2>
<!--                <h2 datatype="rank" class="unchecked">手游开服</h2>-->
<a class="nor_more" datatj="页游开服_更多" href="//kaifu.51.com/" retj="0" target="_blank">更多+</a>
</div>
<div class="list">
<div class="kaifu_list box-shadow">
<div>
<ul id="kaifu_list_ul" style="display:none;">
<li>
<div class="s-t-gamename fl">loading</div>
<div class="s-t-time fl">loading</div>
<div class="s-t-sid fl">loading</div>
</li>
<li>
<div class="s-t-gamename fl">loading</div>
<div class="s-t-time fl">loading</div>
<div class="s-t-sid fl">loading</div>
</li>
<li>
<div class="s-t-gamename fl">loading</div>
<div class="s-t-time fl">loading</div>
<div class="s-t-sid fl">loading</div>
</li>
<li>
<div class="s-t-gamename fl">loading</div>
<div class="s-t-time fl">loading</div>
<div class="s-t-sid fl">loading</div>
</li>
<li>
<div class="s-t-gamename fl">loading</div>
<div class="s-t-time fl">loading</div>
<div class="s-t-sid fl">loading</div>
</li>
<li>
<div class="s-t-gamename fl">loading</div>
<div class="s-t-time fl">loading</div>
<div class="s-t-sid fl">loading</div>
</li>
<li class="row_big">
<div class="s-t-img fl relative">
<img alt="传奇霸业" class="img_loaded" data-src="//cdn.51img3.com/game/2015/201502/20150203/04e38ae537e28f57c1f58e4acd2e4476.gif" src="//cdn.51img3.com/game/2015/201502/20150203/04e38ae537e28f57c1f58e4acd2e4476.gif"/>
</div>
<div class="s-t-gamename fl">
<p>loading</p>
<p class="f12">loading</p>
</div>
<div class="s-t-btn fl">
<a class="s-t-btn-a btn btn-2" href="" rel="nofollow" target="_blank">
                                        进入
                                    </a>
</div>
</li>
</ul>
</div>
<div style="clear:both"></div>
<div class="pages">
<ul>
<li class="curr" id="page1"></li>
<li id="page2"></li>
<li id="page3"></li>
</ul>
</div>
</div>
</div>
</div>
<div class="clear"></div>
</div>
<div class="g_section3">
<div class="part_tit">
<span class="l_line"></span>
<h2>热门游戏</h2>
</div>
<div class="hot_game ">
<div class="hot_game_entry box-shadow fl ">
<a class="picinfo_box" datatj="热门游戏_小_360894" href="http://zlgl.51.com/?from_ly=51www2020_remenyx_360895" retj="0" target="_blank">
<img class="J_lazyloaded" src="//cdn.51img3.com/game/2021/202101/20210111/9a4d1369920f4d4045ce546705810677.jpg"/>
<h3>战龙归来</h3>
<p class="c9">角色扮演</p>
<span class="ico-sp "></span>
</a>
<div class="links animated">
<div class="opacityDiv"></div>
<a class="link-gift" datatj="热门游戏_小_360894" href="http://zlgl.51.com/xsk/?from_ly=51www2020_remenyx_360895" retj="0" target="_blank"><span></span>礼包</a>
<a class="link-site" datatj="热门游戏_小_360894" href="http://zlgl.51.com/?from_ly=51www2020_remenyx_360895" retj="0" target="_blank" title="战龙归来官网"><span></span>官网</a>
<a class="link-game" datatj="热门游戏_小_360894" href="//game.51.com/newserver/index/zlgl" retj="0" target="_blank"><span></span>进入游戏</a>
</div>
</div>
<div class="hot_game_entry box-shadow fl ">
<a class="picinfo_box" datatj="热门游戏_小_361063" href="http://qmxz.51.com/?from_ly=51www2020_remenyx_361064" retj="0" target="_blank">
<img class="J_lazyloaded" src="//cdn.51img3.com/game/2020/202012/20201223/5610a95399df1e12c6b4a6359b190a5a.jpg"/>
<h3>全民仙战</h3>
<p class="c9">角色扮演</p>
<span class="ico-sp "></span>
</a>
<div class="links animated">
<div class="opacityDiv"></div>
<a class="link-gift" datatj="热门游戏_小_361063" href="http://qmxz.51.com/xsk/?from_ly=51www2020_remenyx_361064" retj="0" target="_blank"><span></span>礼包</a>
<a class="link-site" datatj="热门游戏_小_361063" href="http://qmxz.51.com/?from_ly=51www2020_remenyx_361064" retj="0" target="_blank" title="全民仙战官网"><span></span>官网</a>
<a class="link-game" datatj="热门游戏_小_361063" href="//game.51.com/newserver/index/qmxz" retj="0" target="_blank"><span></span>进入游戏</a>
</div>
</div>
<div class="hot_game_entry box-shadow fl ">
<a class="picinfo_box" datatj="热门游戏_小_2188" href="http://ltby.51.com/?from_ly=51www2020_remenyx_2189" retj="0" target="_blank">
<img class="J_lazyloaded" src="//cdn.51img3.com/game/2020/202012/20201223/935f48c1035f8aba0747910c42bac998.jpg"/>
<h3>传奇国度</h3>
<p class="c9">角色扮演</p>
<span class="ico-sp new"></span>
</a>
<div class="links animated">
<div class="opacityDiv"></div>
<a class="link-gift" datatj="热门游戏_小_2188" href="http://ltby.51.com/xsk/?from_ly=51www2020_remenyx_2189" retj="0" target="_blank"><span></span>礼包</a>
<a class="link-site" datatj="热门游戏_小_2188" href="http://ltby.51.com/?from_ly=51www2020_remenyx_2189" retj="0" target="_blank" title="传奇国度官网"><span></span>官网</a>
<a class="link-game" datatj="热门游戏_小_2188" href="//game.51.com/newserver/index/ltby" retj="0" target="_blank"><span></span>进入游戏</a>
</div>
</div>
<div class="hot_game_entry box-shadow fl mr0">
<a class="picinfo_box" datatj="热门游戏_小_1381" href="http://mhj2.51.com/?from_ly=51www2020_remenyx_1382" retj="0" target="_blank">
<img class="J_lazyloaded" src="//cdn.51img3.com/game/2020/202012/20201223/8d3ad3828ca52aa1cd6b42147f0c6a72.jpg"/>
<h3>莽荒纪2</h3>
<p class="c9">角色扮演</p>
<span class="ico-sp "></span>
</a>
<div class="links animated">
<div class="opacityDiv"></div>
<a class="link-gift" datatj="热门游戏_小_1381" href="http://mhj2.51.com/xsk/?from_ly=51www2020_remenyx_1382" retj="0" target="_blank"><span></span>礼包</a>
<a class="link-site" datatj="热门游戏_小_1381" href="http://mhj2.51.com/?from_ly=51www2020_remenyx_1382" retj="0" target="_blank" title="莽荒纪2官网"><span></span>官网</a>
<a class="link-game" datatj="热门游戏_小_1381" href="//game.51.com/newserver/index/mhj2" retj="0" target="_blank"><span></span>进入游戏</a>
</div>
</div>
<div class="hot_game_entry box-shadow fl mb0">
<a class="picinfo_box" datatj="热门游戏_小_959" href="http://zsjx.51.com/?from_ly=51www2020_remenyx_960" retj="0" target="_blank">
<img class="J_lazyloaded" src="//cdn.51img3.com/game/2020/202012/20201223/73fb05d58dd9e745607e1937bf6d7f78.jpg"/>
<h3>战神觉醒</h3>
<p class="c9">角色扮演</p>
<span class="ico-sp "></span>
</a>
<div class="links animated">
<div class="opacityDiv"></div>
<a class="link-gift" datatj="热门游戏_小_959" href="http://zsjx.51.com/xsk/?from_ly=51www2020_remenyx_960" retj="0" target="_blank"><span></span>礼包</a>
<a class="link-site" datatj="热门游戏_小_959" href="http://zsjx.51.com/?from_ly=51www2020_remenyx_960" retj="0" target="_blank" title="战神觉醒官网"><span></span>官网</a>
<a class="link-game" datatj="热门游戏_小_959" href="//game.51.com/newserver/index/zsjx" retj="0" target="_blank"><span></span>进入游戏</a>
</div>
</div>
<div class="hot_game_entry box-shadow fl mb0">
<a class="picinfo_box" datatj="热门游戏_小_961" href="http://qz.51.com/?from_ly=51www2020_remenyx_962" retj="0" target="_blank">
<img class="J_lazyloaded" src="//cdn.51img3.com/game/2020/202012/20201223/4b8637aa338a7bee6c3b7b74a712732f.jpg"/>
<h3>七战</h3>
<p class="c9">角色扮演</p>
<span class="ico-sp "></span>
</a>
<div class="links animated">
<div class="opacityDiv"></div>
<a class="link-gift" datatj="热门游戏_小_961" href="http://qz.51.com/xsk/?from_ly=51www2020_remenyx_962" retj="0" target="_blank"><span></span>礼包</a>
<a class="link-site" datatj="热门游戏_小_961" href="http://qz.51.com/?from_ly=51www2020_remenyx_962" retj="0" target="_blank" title="七战官网"><span></span>官网</a>
<a class="link-game" datatj="热门游戏_小_961" href="http://huodong.51.com/special/qz" retj="0" target="_blank"><span></span>进入游戏</a>
</div>
</div>
<div class="hot_game_entry box-shadow fl mb0">
<a class="picinfo_box" datatj="热门游戏_小_1380" href="http://mir.51.com/?from_ly=51www2020_remenyx_1381" retj="0" target="_blank">
<img class="J_lazyloaded" src="//cdn.51img3.com/game/2020/202012/20201214/9555a5b2a7cd6c9f744f107cff83a3ef.jpg"/>
<h3>传奇霸业</h3>
<p class="c9">角色扮演</p>
<span class="ico-sp "></span>
</a>
<div class="links animated">
<div class="opacityDiv"></div>
<a class="link-gift" datatj="热门游戏_小_1380" href="http://mir.51.com/xsk/?from_ly=51www2020_remenyx_1381" retj="0" target="_blank"><span></span>礼包</a>
<a class="link-site" datatj="热门游戏_小_1380" href="http://mir.51.com/?from_ly=51www2020_remenyx_1381" retj="0" target="_blank" title="传奇霸业官网"><span></span>官网</a>
<a class="link-game" datatj="热门游戏_小_1380" href="//game.51.com/newserver/index/cqby" retj="0" target="_blank"><span></span>进入游戏</a>
</div>
</div>
<div class="hot_game_entry box-shadow fl mr0 mb0">
<a class="picinfo_box" datatj="热门游戏_小_2431" href="http://ahdts.51.com/?from_ly=51www2020_remenyx_2432" retj="0" target="_blank">
<img class="J_lazyloaded" src="//cdn.51img3.com/game/2020/202012/20201224/00f5c41897f0ea847de5b3afe84d7917.jpg"/>
<h3>暗黑大天使</h3>
<p class="c9">角色扮演</p>
<span class="ico-sp "></span>
</a>
<div class="links animated">
<div class="opacityDiv"></div>
<a class="link-gift" datatj="热门游戏_小_2431" href="http://ahdts.51.com/xsk/?from_ly=51www2020_remenyx_2432" retj="0" target="_blank"><span></span>礼包</a>
<a class="link-site" datatj="热门游戏_小_2431" href="http://ahdts.51.com/?from_ly=51www2020_remenyx_2432" retj="0" target="_blank" title="暗黑大天使官网"><span></span>官网</a>
<a class="link-game" datatj="热门游戏_小_2431" href="//game.51.com/newserver/index/ahdts" retj="0" target="_blank"><span></span>进入游戏</a>
</div>
</div>
<div class="clear"></div>
</div>
</div>
<div class="g_section4">
<div class="pack_fl fl">
<div class="part_tit">
<span class="l_line"></span>
<h2>火爆活动</h2>
<a class="nor_more" datatj="火爆活动_更多" href="http://huodong.51.com/" retj="0" target="_blank">更多+</a>
</div>
<div class="act_list nor_part">
<div class="act_show fl box-shadow ">
<a datatj="火爆活动" href="http://wan.51.com/1826.html?from_ly=www2020_huobaohd_361070" retj="0" target="_blank"><img src="//cdn.51img3.com/game/2020/202008/20200805/3847b715c1ca6cc9ef6d665b45be5775.jpg"/></a>
</div>
<div class="act_show fl box-shadow ">
<a datatj="火爆活动" href="http://huodong.51.com/cj/smrz?from_ly=www2020_huobaohd_1182" retj="0" target="_blank"><img src="//cdn.51img3.com/game/2020/202007/20200725/20570564e9e7eb58c69956e5c3667cd7.jpg"/></a>
</div>
<div class="act_show fl box-shadow mr0">
<a datatj="火爆活动" href="http://huodong.51.com/hy/zlfyb?from_ly=www2020_huobaohd_954" retj="0" target="_blank"><img src="//cdn.51img3.com/game/2018/201809/20180928/46f2ed3353e1790171fd12980a02bf21.jpg"/></a>
</div>
<div class="clear"></div>
</div>
<div class="part_tit">
<span class="l_line"></span>
<h2>随便玩玩</h2>
<a class="nor_more" datatj="随便玩玩_换一换" href="javascript:void(0)" onclick="game2017.wanwan();return false;" retj="0">换一换</a>
</div>
<div class="act_list spe_part" id="wanwan_div_id"></div>
</div>
<div class="pack_rl fr">
<div class="part_tit">
<span class="l_line"></span>
<h2>热门礼包</h2>
<a class="nor_more" datatj="热门礼包_更多" href="//jifen.51.com/product/index" retj="0" target="_blank">更多+</a>
</div>
<div class="gift_list box-shadow" id="outContGift" style="position:relative;">
<ul style="position:absolute;">
<li>
<img src="//cdn.51img3.com/game/2020/202010/20201007/499597d859bd6526ceae522a30e4ff34.png"/>
<p>51星变-粉妆玉砌..<br/><span>剩余<i class="theme_clor">4651</i>个</span></p>
<a datatj="热门礼包_领取" href="//jifen.51.com/product/detail/?id=4293" retj="0" target="_blank">领取</a>
<div class="bottom_line"></div>
</li>
<li>
<img src="//cdn.51img3.com/game/2020/202010/20201007/499597d859bd6526ceae522a30e4ff34.png"/>
<p>51星变-傲霜凌雪..<br/><span>剩余<i class="theme_clor">3461</i>个</span></p>
<a datatj="热门礼包_领取" href="//jifen.51.com/product/detail/?id=4292" retj="0" target="_blank">领取</a>
<div class="bottom_line"></div>
</li>
<li>
<img src="//cdn.51img3.com/game/2019/201906/20190628/7dcf788f2e2edb6f70eefe7e2da9229d.png"/>
<p>红月传说战神版-星..<br/><span>剩余<i class="theme_clor">2202</i>个</span></p>
<a datatj="热门礼包_领取" href="//jifen.51.com/product/detail/?id=4344" retj="0" target="_blank">领取</a>
<div class="bottom_line"></div>
</li>
<li>
<img src="//cdn.51img3.com/game/2019/201906/20190628/7dcf788f2e2edb6f70eefe7e2da9229d.png"/>
<p>立冬礼包-红月传说..<br/><span>剩余<i class="theme_clor">36795</i>个</span></p>
<a datatj="热门礼包_领取" href="//jifen.51.com/product/detail/?id=3793" retj="0" target="_blank">领取</a>
<div class="bottom_line"></div>
</li>
<li>
<img src="//cdn.51img3.com/game/2019/201906/20190628/7dcf788f2e2edb6f70eefe7e2da9229d.png"/>
<p>红月传说战神版-风..<br/><span>剩余<i class="theme_clor">193</i>个</span></p>
<a datatj="热门礼包_领取" href="//jifen.51.com/product/detail/?id=4230" retj="0" target="_blank">领取</a>
<div class="bottom_line"></div>
</li>
<li>
<img src="//cdn.51img3.com/game/2020/202009/20200902/8fa9a8ac3793744ed8ece1e173f74f5f.png"/>
<p>战神觉醒-积分礼包<br/><span>剩余<i class="theme_clor">9827</i>个</span></p>
<a datatj="热门礼包_领取" href="//jifen.51.com/product/detail/?id=4258" retj="0" target="_blank">领取</a>
<div class="bottom_line"></div>
</li>
<li>
<img src="//cdn.51img3.com/game/2020/202007/20200730/0267c20c69d86059f39b7fac76a59ac5.png"/>
<p>战痕天下-积分礼包<br/><span>剩余<i class="theme_clor">9973</i>个</span></p>
<a datatj="热门礼包_领取" href="//jifen.51.com/product/detail/?id=4247" retj="0" target="_blank">领取</a>
<div class="bottom_line"></div>
</li>
<li>
<img src="//cdn.51img3.com/game/2017/201706/20170621/295569c16e7b4c7ddb7871dc2bcfb5d6.gif"/>
<p>传奇世界-积分礼包<br/><span>剩余<i class="theme_clor">9900</i>个</span></p>
<a datatj="热门礼包_领取" href="//jifen.51.com/product/detail/?id=4245" retj="0" target="_blank">领取</a>
<div class="bottom_line"></div>
</li>
<li>
<img src="//cdn.51img3.com/game/2020/202007/20200703/67d8edc61a0b7505225314c25e0e59ae.png"/>
<p>三国群英传-积分礼..<br/><span>剩余<i class="theme_clor">9960</i>个</span></p>
<a datatj="热门礼包_领取" href="//jifen.51.com/product/detail/?id=4244" retj="0" target="_blank">领取</a>
<div class="bottom_line"></div>
</li>
<li>
<img src="//cdn.51img3.com/game/2019/201906/20190628/7dcf788f2e2edb6f70eefe7e2da9229d.png"/>
<p>红月传说-战神版-..<br/><span>剩余<i class="theme_clor">7611</i>个</span></p>
<a datatj="热门礼包_领取" href="//jifen.51.com/product/detail/?id=3692" retj="0" target="_blank">领取</a>
<div class="bottom_line"></div>
</li>
<li>
<img src="//cdn.51img3.com/game/2019/201906/20190628/7dcf788f2e2edb6f70eefe7e2da9229d.png"/>
<p>红月传说-战神版-..<br/><span>剩余<i class="theme_clor">6880</i>个</span></p>
<a datatj="热门礼包_领取" href="//jifen.51.com/product/detail/?id=3694" retj="0" target="_blank">领取</a>
<div class="bottom_line"></div>
</li>
<li>
<img src="//cdn.51img3.com/game/2019/201906/20190628/7dcf788f2e2edb6f70eefe7e2da9229d.png"/>
<p>红月传说-战神版-..<br/><span>剩余<i class="theme_clor">5503</i>个</span></p>
<a datatj="热门礼包_领取" href="//jifen.51.com/product/detail/?id=3693" retj="0" target="_blank">领取</a>
<div class="bottom_line"></div>
</li>
<li>
<img src="//cdn.51img3.com/game/2016/201604/20160428/43b8c2aa077bff75f4f4933a6df70fe5.gif"/>
<p>蓝月传奇礼包<br/><span>剩余<i class="theme_clor">17865</i>个</span></p>
<a datatj="热门礼包_领取" href="//jifen.51.com/product/detail/?id=719" retj="0" target="_blank">领取</a>
<div class="bottom_line"></div>
</li>
<li>
<img src="//cdn.51img3.com/game/2020/202006/20200612/0f270b1ffb77a732af3e21ee5f4727aa.png"/>
<p>裁决战歌-百鸟朝凤..<br/><span>剩余<i class="theme_clor">3217</i>个</span></p>
<a datatj="热门礼包_领取" href="//jifen.51.com/product/detail/?id=4179" retj="0" target="_blank">领取</a>
<div class="bottom_line"></div>
</li>
</ul>
</div>
</div>
<div class="clear"></div>
</div>
<div class="g_section6">
<div class="fl">
<div class="part_tit">
<span class="l_line"></span>
<h2>51游戏周边汇</h2>
<a class="nor_more" datatj="周边汇_换一换" href="javascript:void(0)" onclick="game2017.zhoubianhui(1);return false;" retj="0">换一换</a>
</div>
<div class="game_class_list" id="zhoubianhui_div_id"></div>
</div>
<div class="cf"></div>
</div>
<div class="g_section2">
<div class="part_tit">
<span class="l_line"></span>
<h2>您的专属客服</h2>
</div>
<div class="kf_show_part">
<ul>
<li class="game_zskf_965">
<figure class="effect-bubba">
<img src="//cdn.51img3.com/game/2017/201709/20170913/7589a5f4be2c5e4361ac941cd468986f.jpg"/>
<figcaption>
<h4>小丸子</h4>
<p>服务口号：<br/>不为失败找借口，只为成功找方法。</p>
<a class="about_kf" datatj="专属客服" href="http://wan.51.com/2903.html" retj="0" target="_blank">关于她</a>
</figcaption>
</figure>
</li>
<li class="game_zskf_968">
<figure class="effect-bubba">
<img src="//cdn.51img3.com/game/2017/201709/20170913/afa22c59fb27d125a0583fa951d472d6.jpg"/>
<figcaption>
<h4>小蜜蜜</h4>
<p>服务口号：<br/>网内存知己，天涯若比邻！</p>
<a class="about_kf" datatj="专属客服" href="http://wan.51.com/4408.html" retj="0" target="_blank">关于她</a>
</figcaption>
</figure>
</li>
<li class="game_zskf_969">
<figure class="effect-bubba">
<img src="//cdn.51img3.com/game/2017/201709/20170913/b06fefcaf351ab6076f42c8ada4bc525.jpg"/>
<figcaption>
<h4>小樱桃</h4>
<p>服务口号：<br/>服务创造价值、专业赢得信任。</p>
<a class="about_kf" datatj="专属客服" href="http://wan.51.com/2821.html" retj="0" target="_blank">关于她</a>
</figcaption>
</figure>
</li>
<li class="game_zskf_970 mr0">
<figure class="effect-bubba">
<img src="//cdn.51img3.com/game/2020/202005/20200514/fbb209b631c67eef0e8de23b6132c2db.jpg"/>
<figcaption>
<h4>小棉花</h4>
<p>服务口号：<br/>脑筋活一点，效率高一点。效率高一点，服务好一点</p>
<a class="about_kf" datatj="专属客服" href="http://wan.51.com/2820.html" retj="0" target="_blank">关于她</a>
</figcaption>
</figure>
</li>
</ul>
<div class="clear"></div>
</div>
</div>
<div class="g_section5">
<div class="fl">
<div class="part_tit">
<span class="l_line"></span>
<h2>更多游戏</h2>
<div class="more_choose">
<a datatj="更多游戏_角色扮演" href="//game.51.com/zyx/?type=1" retj="0" target="_blank">角色扮演</a>
<a datatj="更多游戏_战争策略" href="//game.51.com/zyx/?type=2" retj="0" target="_blank">战争策略</a>
<a datatj="更多游戏_休闲竞技" href="//game.51.com/zyx/?type=4" retj="0" target="_blank">休闲竞技</a>
<!--                    <a href="//game.51.com/zyx/?type=6" target="_blank" retj="0" datatj="更多游戏_手机游戏">手机游戏</a>-->
</div>
<a class="nor_more" datatj="更多游戏_更多" href="//game.51.com/zyx" retj="0" target="_blank">更多+</a>
</div>
<div class="game_class_list box-shadow">
<ul>
<li>
<a datatj="更多游戏" href="http://cqsj.51.com/?from_ly=51www2020_gengduoyx" retj="0" target="_blank">
<img src="//cdn.51img3.com/game/2017/201706/20170621/295569c16e7b4c7ddb7871dc2bcfb5d6.gif"/>
<h4>传奇世界<em class="hot"> </em></h4>
<span>角色扮演</span>
</a>
</li>
<li>
<a datatj="更多游戏" href="//game.51.com/ly/?from_ly=51www2020_gengduoyx" retj="0" target="_blank">
<img src="//cdn.51img3.com/game/2015/201502/20150203/64488034c38910ce8508e9dae0f1578f.gif"/>
<h4>烈焰</h4>
<span>角色扮演</span>
</a>
</li>
<li>
<a datatj="更多游戏" href="http://sgqyz.51.com/?from_ly=51www2020_gengduoyx" retj="0" target="_blank">
<img src="//cdn.51img3.com/game/2020/202007/20200703/67d8edc61a0b7505225314c25e0e59ae.png"/>
<h4>三国群英传</h4>
<span>策略战争</span>
</a>
</li>
<li>
<a datatj="更多游戏" href="http://ms.51.com/?from_ly=51www2020_gengduoyx" retj="0" target="_blank">
<img src="//cdn.51img3.com/game/2018/201808/20180820/c94d45025213c6a22ebd5ab86abce685.png"/>
<h4>灭神<em class="hot"> </em></h4>
<span>角色扮演</span>
</a>
</li>
<li>
<a datatj="更多游戏" href="//game.51.com/sxd/?from_ly=51www2020_gengduoyx" retj="0" target="_blank">
<img src="//cdn.51img3.com/game/2015/201502/20150203/8f43b8a9836efb08cd5d4585fea4748c.gif"/>
<h4>神仙道</h4>
<span>角色扮演</span>
</a>
</li>
<li>
<a datatj="更多游戏" href="//game.51.com/qs/?from_ly=51www2020_gengduoyx" retj="0" target="_blank">
<img src="//cdn.51img3.com/game/2015/201502/20150202/b437aa005d5d2a84433c52700ed5daf7.gif"/>
<h4>七杀</h4>
<span>角色扮演</span>
</a>
</li>
<li>
<a datatj="更多游戏" href="//game.51.com/jjsg/?from_ly=51www2020_gengduoyx" retj="0" target="_blank">
<img src="//cdn.51img3.com/game/2015/201502/20150203/5d77a2b26af9889234edf3e039cb3af2.gif"/>
<h4>街机三国</h4>
<span>角色扮演</span>
</a>
</li>
<li>
<a datatj="更多游戏" href="//tx.51.com/?from_ly=51www2020_gengduoyx" retj="0" target="_blank">
<img src="//cdn.51img3.com/game/2015/201512/20151230/1d72e267d1c8fc357e03c3b6b6779fc0.jpg"/>
<h4>铁血皇城</h4>
<span>角色扮演</span>
</a>
</li>
<li>
<a datatj="更多游戏" href="//lycq.51.com/?from_ly=51www2020_gengduoyx" retj="0" target="_blank">
<img src="//cdn.51img3.com/game/2016/201604/20160428/43b8c2aa077bff75f4f4933a6df70fe5.gif"/>
<h4>蓝月传奇<em class="hot"> </em></h4>
<span>角色扮演</span>
</a>
</li>
<li>
<a datatj="更多游戏" href="http://hqgweb.51.com/?from_ly=51www2020_gengduoyx" retj="0" target="_blank">
<img src="//cdn.51img3.com/game/2020/202004/20200415/20c9e1c41914852b721da84dd66e6826.jpg"/>
<h4>花千骨web</h4>
<span>角色扮演</span>
</a>
</li>
<li>
<a datatj="更多游戏" href="//game.51.com/ddt/?from_ly=51www2020_gengduoyx" retj="0" target="_blank">
<img src="//cdn.51img3.com/game/2015/201502/20150203/e7245b7b89bf29a0dbfa12959c5fc4c6.gif"/>
<h4>弹弹堂</h4>
<span>休闲竞技</span>
</a>
</li>
<li>
<a datatj="更多游戏" href="http://51sj.51.com/?from_ly=51www2020_gengduoyx" retj="0" target="_blank">
<img src="//cdn.51img3.com/game/2019/201908/20190815/650a0788f0e91206f5bd14fe546b54be.png"/>
<h4>神戒</h4>
<span>角色扮演</span>
</a>
</li>
<li>
<a datatj="更多游戏" href="http://yxhj.51.com/?from_ly=51www2020_gengduoyx" retj="0" target="_blank">
<img src="//cdn.51img3.com/game/2019/201902/20190218/3435342a16592de6cc3db45d6516694f.png"/>
<h4>传奇荣耀</h4>
<span>角色扮演</span>
</a>
</li>
<li>
<a datatj="更多游戏" href="//game.51.com/rxsg2/?from_ly=51www2020_gengduoyx" retj="0" target="_blank">
<img src="//cdn.51img3.com/game/2015/201502/20150202/92f49c9b5dd7f09d67c518d730b0582e.gif"/>
<h4>热血三国2</h4>
<span>策略战争</span>
</a>
</li>
<li>
<a datatj="更多游戏" href="http://ysddl.51.com/?from_ly=51www2020_gengduoyx" retj="0" target="_blank">
<img src="//cdn.51img3.com/game/2017/201709/20170921/ee64e112d008cf6d0b9f6f0132f22810.gif"/>
<h4>奇迹重生</h4>
<span>角色扮演</span>
</a>
</li>
<li>
<a datatj="更多游戏" href="//game.51.com/dtszj/?from_ly=51www2020_gengduoyx" retj="0" target="_blank">
<img src="//cdn.51img3.com/game/2015/201506/20150603/7b92638be8d30cd144437c4fe04a2c67.jpg"/>
<h4>大天使之剑</h4>
<span>角色扮演</span>
</a>
</li>
<li>
<a datatj="更多游戏" href="http://csrxzg.51.com/?from_ly=51www2020_gengduoyx" retj="0" target="_blank">
<img src="//cdn.51img3.com/game/2019/201907/20190708/ae9f3d4290e34a85f25d3a6ae7f146db.png"/>
<h4>热血战歌</h4>
<span>角色扮演</span>
</a>
</li>
<li>
<a datatj="更多游戏" href="http://axjh.51.com/?from_ly=51www2020_gengduoyx" retj="0" target="_blank">
<img src="//cdn.51img3.com/game/2020/202009/20200922/cbfcbcc4a119b4fa479b37c664fa076e.png"/>
<h4>傲笑江湖</h4>
<span>角色扮演</span>
</a>
</li>
<li>
<a datatj="更多游戏" href="http://rxsg3.51.com/?from_ly=51www2020_gengduoyx" retj="0" target="_blank">
<img src="//cdn.51img3.com/game/2016/201609/20160905/dc456d7b9679cf67f52ed988f49343b5.gif"/>
<h4>热血三国3</h4>
<span>策略战争</span>
</a>
</li>
<li>
<a datatj="更多游戏" href="//game.51.com/sq/?from_ly=51www2020_gengduoyx" retj="0" target="_blank">
<img src="//cdn.51img3.com/game/2015/201502/20150203/ba485d2eab3ebde865a0f931e7c6432c.gif"/>
<h4>神曲</h4>
<span>角色扮演</span>
</a>
</li>
</ul>
</div>
</div>
<div class="fr">
<div class="part_tit">
<span class="l_line"></span>
<h2>快速通道</h2>
</div>
<div class="fast_entry box-shadow">
<ul>
<li>
<a datatj="快速通道" href="//safe.51.com/bind/set/mobile" retj="0" target="_blank">
<span class="pic_info pic1"></span>
<p>绑定手机</p>
</a>
</li>
<li>
<a datatj="快速通道" href="//safe.51.com/appeal/input" retj="0" target="_blank">
<span class="pic_info pic2"></span>
<p>帐号申诉</p>
</a>
</li>
<li>
<a datatj="快速通道" href="//safe.51.com/findpass" retj="0" target="_blank">
<span class="pic_info pic3"></span>
<p>找回密码</p>
</a>
</li>
<li>
<a datatj="快速通道" href="//kf.51.com/byq/" retj="0" target="_blank">
<span class="pic_info pic4"></span>
<p>表扬墙</p>
</a>
</li>
<li>
<a datatj="快速通道" href="//safe.51.com/passport" retj="0" target="_blank">
<span class="pic_info pic5"></span>
<p>修改密码</p>
</a>
</li>
<li>
<a datatj="快速通道" href="//pay.51.com" retj="0" target="_blank">
<span class="pic_info pic6"></span>
<p>充值游戏</p>
</a>
</li>
<li>
<a datatj="快速通道" href="//safe.51.com/bind/set/idcard" retj="0" target="_blank">
<span class="pic_info pic7"></span>
<p>防沉迷认证</p>
</a>
</li>
<li>
<a datatj="快速通道" href="//kf.51.com/index/askonline" retj="0" target="_blank">
<span class="pic_info pic8"></span>
<p>在线客服</p>
</a>
</li>
</ul>
</div>
</div>
<div class="clear"></div>
</div>
</div>
<div class="www_seo">
<div class="box_screen">
<p class="seo_commend">友情链接：
            <span class="frindlink" id="frindlink" onclick="global_js_page.stat('www', 'www2020', '模块', '友情链接');">
<span class="frindlink2" id="frindlink2">
<a href="http://s.51.com/" target="_blank">51星变</a> <a href="http://zs.51.com/" target="_blank">红月传说战神版</a> <a href="http://wan.51.com/" target="_blank">玩家俱乐部</a> <a href="http://gamebox.51.com/" target="_blank">51游戏盒子</a> <a href="http://www.caihong.com/" target="_blank">彩虹游戏</a> <a href="//game.51.com/" target="_blank">51网页游戏</a> <a href="http://qmxz.51.com/" target="_blank">全民仙战</a> <a href="http://www.juwan.com/" target="_blank">聚玩游戏</a> <a href="https://www.youxiniao.com/" target="_blank">游戏鸟手游网</a> <a href="http://www.bkill.com/" target="_blank">比克尔下载</a> <a href="http://www.07073.com/" target="_blank">07073游戏网</a> <a href="https://www.00791.com/" target="_blank">00791手游网</a> <a href="http://www.648sy.com/" target="_blank">悠谷游戏</a> <a href="" target="_blank"></a> <a href="" target="_blank"></a> <a href="" target="_blank"></a> <a href="" target="_blank"></a> <a href="" target="_blank"></a> <a href="" target="_blank"></a> <a href="" target="_blank"></a> <a href="" target="_blank"></a> <a href="" target="_blank"></a> <a href="" target="_blank"></a> <a href="" target="_blank"></a> <a href="" target="_blank"></a> <a href="" target="_blank"></a> <a href="" target="_blank"></a> <a href="" target="_blank"></a> <a href="" target="_blank"></a> <a href="" target="_blank"></a> <a href="" target="_blank"></a> <a href="" target="_blank"></a> <a href="" target="_blank"></a> <a href="" target="_blank"></a> <a href="" target="_blank"></a> <a href="" target="_blank"></a> <a href="" target="_blank"></a> <a href="" target="_blank"></a> <a href="" target="_blank"></a> <a href="" target="_blank"></a> <a href="" target="_blank"></a> </span>
<span class="frindlink2" id="frindlink3"></span>
</span>
<a datatj="友情链接点击" href="//www.51.com/friendlink" rel="nofollow" retj="0" target="_blank">更多</a> </p>
<p class="seo_txt">要求：您的网站pr&gt;=6百度收录良好；联系方式：seo@heitao.com</p>
<a class="footlogo png24" datatj="回到顶部" href="javascript:void(0)" onclick="global_js_page.anchor();return false;" retj="0" title="回到顶部"> </a>
</div>
</div>
<script type="text/javascript">
    $(document).ready(function(){
        game2017.initIndex();

        var sign = '';
        if(sign){
            my_signin.gethtml();return false;
        }

        var OsObject = "Others";
        if (navigator.userAgent.indexOf("MSIE") > 0) {
            OsObject = "MSIE";
        }
        else if (isFirefox = navigator.userAgent.indexOf("Firefox") > 0) {
            OsObject = "Firefox";
        }
        else if (isMozilla = navigator.userAgent.indexOf("Opera") > 0) { //这个也被判断为chrome
            OsObject = "Opera";
        }
        else if (isFirefox = navigator.userAgent.indexOf("Chrome") > 0) {
            OsObject = "Chrome";
        }
        else if (isSafari = navigator.userAgent.indexOf("Safari") > 0) {
            OsObject = "Safari";
        }
        else if (isCamino = navigator.userAgent.indexOf("Camino") > 0) {
            OsObject = "Camino";
        }
        else if (isMozilla = navigator.userAgent.indexOf("Gecko/") > 0) {
            OsObject = "Gecko";
        }

        global_js_page.stat('www', '分辨率', window.screen.width, window.screen.height);
        global_js_page.stat('www', '浏览器', OsObject, 'v' + $.browser.version);
    
    });

</script>
<div class="public_newfoot">
<div class="box_screen">
<p><a href="//game.51.com/index/realname/" rel="nofollow" target="_blank">防沉迷认证</a><em class="line">|</em><a href="//kf.51.com" rel="nofollow" target="_blank">意见反馈</a><em class="line">|</em><a href="//www.51.com/jiazhang/" rel="nofollow" target="_blank">家长监护</a><em class="line">|</em><a href="http://about.51.com/" rel="nofollow" target="_blank">关于我们</a><em class="line">|</em><a href="http://job.51.com/" rel="nofollow" target="_blank">人才招聘</a><em class="line">|</em><a href="http://about.51.com/contactus" rel="nofollow" target="_blank">商务合作</a>　　本公司游戏产品适合18岁以上成年人使用</p>
<p>©2005-2021 51.com<em class="line"> </em>上海黑桃互动网络科技股份有限公司<em class="line"> </em>互联网ICP备案：<a href="https://beian.miit.gov.cn/" rel="nofollow" style="text-decoration: none;" target="_blank">沪ICP备15003051号-8</a><em class="line"> </em><a href="//www.51.com/native_3.html" rel="nofollow" style="text-decoration: none;" target="_blank">沪网文【2017】8707-663号</a></p>
<p>地址：上海浦东张江中科路699号惠生大厦B栋6F<em class="line"> </em><b>客服QQ：800092051（8:30-24:00）  客服电话：4008286651（工作日 9:00~18:00）</b>　
        </p>
<p class="guo">
<a href="//www.51.com/native_2.html" rel="nofollow" target="_blank"><img src="//pecdn.51img1.com/v6/global2015/images/c1.png?v=202008"/></a><a href="http://www.shjbzx.cn/" rel="nofollow" target="_blank"><img src="//p1cdn.51img1.com/v6/global2015/images/bottom_1.png?v=202008"/></a><a href="http://sh.cyberpolice.cn/infoCategoryListAction.do?act=initjpg" rel="nofollow" target="_blank"><img src="//pbcdn.51img1.com/v6/global2015/images/c4.png?v=202008"/></a><a href="http://www.sgs.gov.cn/notice/notice/view?uuid=Ma9gQQC7oMmWblmxFIuT1wRsfloboylv&amp;tab=01" rel="nofollow" target="_blank"><img src="//p5cdn.51img1.com/v6/global2015/images/c5.png?v=202008"/></a><a href="http://sq.ccm.gov.cn:80/ccnt/sczr/service/business/emark/toDetail/4028c08e4acd2047014ace03fc9900ce" rel="nofollow" target="_blank"><img src="//pccdn.51img1.com/v6/global2015/images/c_net.png?v=202008"/></a><a href="https://www.12377.cn/" rel="nofollow" target="_blank"><img src="//p8cdn.51img1.com/v6/global2015/images/c7.png?v=202008"/></a><a href="http://www.beian.gov.cn/portal/registerSystemInfo?recordcode=31011502002407" rel="nofollow" target="_blank"><img src="//p1cdn.51img1.com/v6/global2015/images/c6.png?v=202008"/></a>
<a class="mr" href="//www.51.com/copyright1.html" rel="nofollow" target="_blank">更多&gt;&gt;</a>
</p>
</div>
</div>
<div class="public_rquick" id="pub_float_div_id">
<!--		<div class="public_rquick_con" style="display: none;">
		<a rel="nofollow" class="public_rquick_app" href="//game.51.com/app/down" target="_blank" onclick="global_js_page.stat('www', '公共框架', '右侧挂窗', 'app扫码下载');" id="floatdiv_appdown_a_id"></a>
		<a rel="nofollow" class="public_rquick_box" href="http://gamebox.51.com/" target="_blank" onclick="global_js_page.stat('www', '公共框架', '右侧挂窗', '游戏盒子');" id="floatdiv_box_a_id" style="_display: none;"></a>
		<a rel="nofollow" class="public_rquick_mm" href="//kf.51.com/" target="_blank" onclick="global_js_page.stat('www', '公共框架', '右侧挂窗', '客服MM');" id="floatdiv_gfwechat_a_id"></a>
		<a rel="nofollow" class="public_rquick_wx" href="javascript:void(0);" onclick="global_js_page.stat('www', '公共框架', '右侧挂窗', '关注我们');return false;" id="floatdiv_wx_a_id"></a>
		<a rel="nofollow" class="public_rquick_v" href="http://v.kukushow.com/" target="_blank" onclick="global_js_page.stat('www', '公共框架', '右侧挂窗', '酷酷秀');" id="floatdiv_v_a_id" style="_display: none;"></a>
		<a rel="nofollow" class="public_rquick_link" href="javascript:void(0);" onclick="global_js_page.stat('www', '公共框架', '右侧挂窗', '弹层');return false;" id="floatdiv_link_a_id"></a>
	</div>
<a href="javascript:void(0)" onclick="return false;" class="public_rquick_add"></a>-->
<a class="public_rquick_mm" href="//kf.51.com/" id="floatdiv_gfwechat_a_id" onclick="global_js_page.stat('www', '公共框架', '右侧挂窗', '客服MM');" rel="nofollow" target="_blank"></a>
<a class="public_rquick_top" href="javascript:void(0);" id="pub_floaddiv_top_a_id" onclick="global_js_page.anchor();global_js_page.stat('www', '公共框架', '右侧挂窗', '回到顶部');return false;" rel="nofollow" style="display:none;"></a>
</div>
<div class="public_rquick_main public_rquick_main_box" id="floatdiv_box_div_id">
<div class="public_rquick_content">
<img src="//p9cdn.51img1.com/v6/global2015/images/box_image.png"/>
<div class="download-box-btn">
<span class="title">51游戏盒子</span>
<a class="btn" href="https://download.51.com/51yxh/51gamebox_install.exe" rel="nofollow">立即下载</a>
</div>
</div>
<div class="public_rquick_arrow"></div>
</div>
<div class="public_rquick_main public_rquick_main_appdown" id="floatdiv_appdown_div_id">
<div class="public_rquick_content">
<img src="//cdn.51img1.com/v6/game/app/down/images/ewm_img.png?v=1"/>
<span class="img_name">51app扫码下载</span>
</div>
<div class="public_rquick_arrow"></div>
</div>
<div class="public_rquick_main public_rquick_main_gfwechat" id="floatdiv_gfwechat_div_id" style="display: none;">
<div class="public_rquick_content">
<img src="//cdn.51img1.com/v6/global2015/images/qq.jpg?v=20160505"/>
<span class="img_name">51官方QQ</span>
<div class="a_box">
<a class="ahref" href="//kf.51.com/" rel="nofollow" target="_blank">前往客服中心</a>
</div>
</div>
<div class="public_rquick_arrow"></div>
</div>
<div class="public_rquick_main public_rquick_main_wx" id="floatdiv_wx_div_id">
<div class="public_rquick_content">
<img src="//cdn.51img1.com/v6/global/images/ewm/wx.jpg" style="width:180px;height:180px;"/>
</div>
<div class="public_rquick_arrow"></div>
</div>
<div class="public_rquick_main public_rquick_main_v" id="floatdiv_v_div_id">
<div class="public_rquick_content">
<img src="//cdn.51img3.com/game/2017/201707/20170719/bef85cc0e47bf9ad096e074da86bdf6a.png"/>
<div class="download-v-btn">
<span class="title">酷酷秀</span>
<a class="btn" href="http://v.kukushow.com/" rel="nofollow" target="_blank">立即进入</a>
</div>
</div>
<div class="public_rquick_arrow"></div>
</div>
<div class="public_rquick_main public_rquick_main_link" id="floatdiv_link_div_id">
<div class="public_rquick_content">
<ul class="clear">
<li><a href="http://xyx.179.com" onclick="global_js_page.stat('www', '公共框架', '右侧挂窗', '快速入口-小游戏');" rel="nofollow" target="_blank">小游戏</a></li>
<li><a href="//guibin.51.com/pay/wage/" onclick="global_js_page.stat('www', '公共框架', '右侧挂窗', '快速入口-领工资');" rel="nofollow" target="_blank">领工资</a></li>
<li class="hot"><a href="http://kk.51.com/" onclick="global_js_page.stat('www', '公共框架', '右侧挂窗', '快速入口-51看看');" rel="nofollow" target="_blank">51看看</a></li>
<li><a href="http://v.kukushow.com/event/sw_ad?_from=ad1" onclick="global_js_page.stat('www', '公共框架', '右侧挂窗', '快速入口-美女主播');" rel="nofollow" target="_blank">美女主播</a></li>
<li><a href="//jifen.51.com" onclick="global_js_page.stat('www', '公共框架', '右侧挂窗', '快速入口-积分换豪礼');" rel="nofollow" target="_blank">积分换豪礼</a></li>
<li style="border:0;"><a href="http://gamebbs.51.com" onclick="global_js_page.stat('www', '公共框架', '右侧挂窗', '快速入口-火爆论坛');" rel="nofollow" target="_blank">火爆论坛</a></li>
</ul>
</div>
<div class="public_rquick_arrow"></div>
</div>
<script charset="UTF-8" src="//cdn.51img1.com/??v6/my/js/signin.js?v=202002063,v6/point_mall/js/mall_popup.js?v=20191220810013,v6/point_mall/js/oceanus.js?v=202008181223,v6/game/platform/2015/js/index2017.js?v=202008181223" type="text/javascript"></script>
<script charset="UTF-8" src="//cdn.51img1.com/??v6/my/js/adsys.js?v=20191203023,v6/global/js/head2015.js?v=201708093,v6/game/platform/2015/js/head.js?v=201710303,v6/passport/js/loginframe.js?v=201909063,v6/global/js/newsBox.js?v=202009020013,v6/global/js/md5.js?v=3" type="text/javascript"></script>
<script>
var _hmt = _hmt || [];
(function() {
  var hm = document.createElement("script");
  hm.src = "//hm.baidu.com/hm.js?940aa8668c1606e3733aded32f601d5d";
  var s = document.getElementsByTagName("script")[0]; 
  s.parentNode.insertBefore(hm, s);
})();
</script>
<script>
    (function(){
        var bp = document.createElement('script');
	    var curProtocol = window.location.protocol.split(':')[0];
	    if (curProtocol === 'https') {
	        bp.src = 'https://zz.bdstatic.com/linksubmit/push.js';        
	    }
	    else {
	        bp.src = 'http://push.zhanzhang.baidu.com/push.js';
	    }
	    var s = document.getElementsByTagName("script")[0];
	    s.parentNode.insertBefore(bp, s);
    })();
</script>
<style>            
                .bgcolor_bantouming {background-color:#f2f2f2;filter:alpha(opacity=90);-moz-opacity:0.9;-khtml-opacity: 0.9;opacity: 0.9;-moz-border-radius:5px;-webkit-border-radius:5px;border-radius:5px;}
                .poup_close {width:228px;height: 18px;}
                .poup_close_chid {float:right;padding-right: 5px;}
                .poup_close_chid a {font-size: 12px;font-family:"Microsoft YaHe";color: #a8a8a8;text-decoration: none;}
                .poup_content {padding-left: 4px;}
                ._zz_border {width:236px;}
            </style>
<div class="_zz_border" id="r_poup_frame" style="z-index:900;display:none;position: fixed;right: 80px;bottom: 35px;_position: absolute;_top: expression(eval(document.documentElement.scrollTop+document.documentElement.clientHeight-this.offsetHeight-20-(parseInt(this.currentStyle.marginTop,15)||0)-(parseInt(this.currentStyle.marginBottom,15)||0)));_bottom: auto;">
<div class="poup_close"><div class="poup_close_chid"><a href="javascript:void(0);" id="r_poup_close_id">知道了，退下吧 <img border="0" src="//cdn.51img1.com/v6/game/platform/2015/images/poup_close.png"/></a></div></div>
<div class="poup_content" id="right_poup_content"></div>
</div><script charset="UTF-8" src="//cdn.51img1.com/v6/game/platform/2015/js/popup.js?v=20200510193" type="text/javascript"></script>
</body>
</html>
