<!DOCTYPE html>
<html lang="es">
<head>
<title>11870.com</title>
<meta charset="utf-8"/>
<meta content="width=device-width, user-scalable=no" name="viewport"/>
<meta content="index,follow" name="robots"/>
<meta content="Localiza los teléfonos, direcciones y más datos de contacto gratuitos de 131978 empresas en toda España." name="description"/>
<link href="/assets/images/favicon.ico" rel="icon" type="image/png"/>
<link href="/assets/css/style.min.css?v=1.11" rel="stylesheet" type="text/css"/>
<script async="" src="https://www.googletagmanager.com/gtag/js?id=UA-1021351-2"></script>
<script>
  window.dataLayer = window.dataLayer || [];
  function gtag(){dataLayer.push(arguments);}
  gtag('js', new Date());
  gtag('config', 'UA-1021351-2');
</script>
<!-- Quantcast Choice. Consent Manager Tag v2.0 (for TCF 2.0) -->
<script async="true" type="text/javascript">
(function() {
  var host = window.location.hostname;
  var element = document.createElement('script');
  var firstScript = document.getElementsByTagName('script')[0];
  var url = 'https://quantcast.mgr.consensu.org'
    .concat('/choice/', 'BNQeLWGtAkXkW', '/', host, '/choice.js')
  var uspTries = 0;
  var uspTriesLimit = 3;
  element.async = true;
  element.type = 'text/javascript';
  element.src = url;

  firstScript.parentNode.insertBefore(element, firstScript);

  function makeStub() {
    var TCF_LOCATOR_NAME = '__tcfapiLocator';
    var queue = [];
    var win = window;
    var cmpFrame;

    function addFrame() {
      var doc = win.document;
      var otherCMP = !!(win.frames[TCF_LOCATOR_NAME]);

      if (!otherCMP) {
        if (doc.body) {
          var iframe = doc.createElement('iframe');

          iframe.style.cssText = 'display:none';
          iframe.name = TCF_LOCATOR_NAME;
          doc.body.appendChild(iframe);
        } else {
          setTimeout(addFrame, 5);
        }
      }
      return !otherCMP;
    }

    function tcfAPIHandler() {
      var gdprApplies;
      var args = arguments;

      if (!args.length) {
        return queue;
      } else if (args[0] === 'setGdprApplies') {
        if (
          args.length > 3 &&
          args[2] === 2 &&
          typeof args[3] === 'boolean'
        ) {
          gdprApplies = args[3];
          if (typeof args[2] === 'function') {
            args[2]('set', true);
          }
        }
      } else if (args[0] === 'ping') {
        var retr = {
          gdprApplies: gdprApplies,
          cmpLoaded: false,
          cmpStatus: 'stub'
        };

        if (typeof args[2] === 'function') {
          args[2](retr);
        }
      } else {
        queue.push(args);
      }
    }

    function postMessageEventHandler(event) {
      var msgIsString = typeof event.data === 'string';
      var json = {};

      try {
        if (msgIsString) {
          json = JSON.parse(event.data);
        } else {
          json = event.data;
        }
      } catch (ignore) {}

      var payload = json.__tcfapiCall;

      if (payload) {
        window.__tcfapi(
          payload.command,
          payload.version,
          function(retValue, success) {
            var returnMsg = {
              __tcfapiReturn: {
                returnValue: retValue,
                success: success,
                callId: payload.callId
              }
            };
            if (msgIsString) {
              returnMsg = JSON.stringify(returnMsg);
            }
            event.source.postMessage(returnMsg, '*');
          },
          payload.parameter
        );
      }
    }

    while (win) {
      try {
        if (win.frames[TCF_LOCATOR_NAME]) {
          cmpFrame = win;
          break;
        }
      } catch (ignore) {}

      if (win === window.top) {
        break;
      }
      win = win.parent;
    }
    if (!cmpFrame) {
      addFrame();
      win.__tcfapi = tcfAPIHandler;
      win.addEventListener('message', postMessageEventHandler, false);
    }
  };

  makeStub();

  var uspStubFunction = function() {
    var arg = arguments;
    if (typeof window.__uspapi !== uspStubFunction) {
      setTimeout(function() {
        if (typeof window.__uspapi !== 'undefined') {
          window.__uspapi.apply(window.__uspapi, arg);
        }
      }, 500);
    }
  };

  var checkIfUspIsReady = function() {
    uspTries++;
    if (window.__uspapi === uspStubFunction && uspTries < uspTriesLimit) {
      console.warn('USP is not accessible');
    } else {
      clearInterval(uspInterval);
    }
  };

  if (typeof window.__uspapi === 'undefined') {
    window.__uspapi = uspStubFunction;
    var uspInterval = setInterval(checkIfUspIsReady, 6000);
  }
})();
</script>
<!-- End Quantcast Choice. Consent Manager Tag v2.0 (for TCF 2.0) -->
</head>
<body class="">
<header>
<div class="recuadro-header">
<div class="container">
<div class="logo-header">
<a href="/"><img src="/assets/images/logo.png"/></a>
</div>
<div class="seleccion-categoria ">
<div class="boton-categorias">
<div class="columna-izquierda">
<h4 class="titulo-categorias">CATEGORIAS</h4>
</div>
<div class="columna-derecha">
<img src="/assets/images/seleccion-categoria.png"/>
</div>
</div>
<div class="contenedor-cuadro-categorias" data-oculto="1" data-transicion="0" style="display:none;">
<div class="cuadro-categorias">
<div class="triangulo"></div>
<a href="/gasolineras">
<div class="categoria">
<img src="/assets/images/categorias/invertido-gasolineras.png"/>
<span class="nombre-caregoria">Gasolineras</span>
</div>
</a>
<a href="/logistica">
<div class="categoria">
<img src="/assets/images/categorias/invertido-logistica.png"/>
<span class="nombre-caregoria">Logística</span>
</div>
</a>
<a href="/moda-y-accesorios">
<div class="categoria">
<img src="/assets/images/categorias/invertido-moda-y-accesorios.png"/>
<span class="nombre-caregoria">Moda y Accesorios</span>
</div>
</a>
<a href="/salud-y-bienestar">
<div class="categoria">
<img src="/assets/images/categorias/invertido-salud-y-bienestar.png"/>
<span class="nombre-caregoria">Salud y Bienestar</span>
</div>
</a>
<a href="/finanzas">
<div class="categoria">
<img src="/assets/images/categorias/invertido-finanzas.png"/>
<span class="nombre-caregoria">Finanzas</span>
</div>
</a>
<a href="/aseguradoras">
<div class="categoria">
<img src="/assets/images/categorias/invertido-aseguradoras.png"/>
<span class="nombre-caregoria">Aseguradoras</span>
</div>
</a>
<a href="/alimentacion">
<div class="categoria">
<img src="/assets/images/categorias/invertido-alimentacion.png"/>
<span class="nombre-caregoria">Alimentación</span>
</div>
</a>
<a href="/deportes-y-aire-libre">
<div class="categoria">
<img src="/assets/images/categorias/invertido-deportes-y-aire-libre.png"/>
<span class="nombre-caregoria">Deportes y Aire Libre</span>
</div>
</a>
<a href="/telecomunicaciones">
<div class="categoria">
<img src="/assets/images/categorias/invertido-telecomunicaciones.png"/>
<span class="nombre-caregoria">Telecomunicaciones</span>
</div>
</a>
<a href="/bricolaje">
<div class="categoria">
<img src="/assets/images/categorias/invertido-bricolaje.png"/>
<span class="nombre-caregoria">Bricolaje</span>
</div>
</a>
<a href="/belleza-y-parafarmacia">
<div class="categoria">
<img src="/assets/images/categorias/invertido-belleza-y-parafarmacia.png"/>
<span class="nombre-caregoria">Belleza y Parafarmacia</span>
</div>
</a>
<a href="/ninos-y-bebes">
<div class="categoria">
<img src="/assets/images/categorias/invertido-ninos-y-bebes.png"/>
<span class="nombre-caregoria">Niños y Bebés</span>
</div>
</a>
<a href="/electronica-y-ocio">
<div class="categoria">
<img src="/assets/images/categorias/invertido-electronica-y-ocio.png"/>
<span class="nombre-caregoria">Electrónica y Ocio</span>
</div>
</a>
<a href="/agencias-de-viajes">
<div class="categoria">
<img src="/assets/images/categorias/invertido-agencias-de-viajes.png"/>
<span class="nombre-caregoria">Agencias de Viajes</span>
</div>
</a>
<a href="/concesionarios">
<div class="categoria">
<img src="/assets/images/categorias/invertido-concesionarios.png"/>
<span class="nombre-caregoria">Concesionarios</span>
</div>
</a>
<a href="/opticas">
<div class="categoria">
<img src="/assets/images/categorias/invertido-opticas.png"/>
<span class="nombre-caregoria">Ópticas</span>
</div>
</a>
<a href="/talleres">
<div class="categoria">
<img src="/assets/images/categorias/invertido-talleres.png"/>
<span class="nombre-caregoria">Talleres</span>
</div>
</a>
<a href="/restaurantes">
<div class="categoria">
<img src="/assets/images/categorias/invertido-restaurantes.png"/>
<span class="nombre-caregoria">Restaurantes</span>
</div>
</a>
<a href="/energia">
<div class="categoria">
<img src="/assets/images/categorias/invertido-energia.png"/>
<span class="nombre-caregoria">Energía</span>
</div>
</a>
<a href="/dentistas">
<div class="categoria">
<img src="/assets/images/categorias/invertido-dentistas.png"/>
<span class="nombre-caregoria">Dentistas</span>
</div>
</a>
<a href="/muebles-y-decoracion">
<div class="categoria">
<img src="/assets/images/categorias/invertido-muebles-y-decoracion.png"/>
<span class="nombre-caregoria">Muebles y Decoración</span>
</div>
</a>
<a href="/hoteles">
<div class="categoria">
<img src="/assets/images/categorias/invertido-hoteles.png"/>
<span class="nombre-caregoria">Hoteles</span>
</div>
</a>
<a href="/alquiler-de-coches">
<div class="categoria">
<img src="/assets/images/categorias/invertido-alquiler-de-coches.png"/>
<span class="nombre-caregoria">Alquiler de Coches</span>
</div>
</a>
</div>
</div>
</div>
</div>
</div>
</header>
<main>
<div id="contenido">
<div class="banner-encuentra">
<div class="container">
<h1>ENCUENTRA EN 11870.COM</h1>
<h2>TODOS LOS TELÉFONOS QUE BUSCAS</h2>
</div>
</div>
<section id="section-categorias">
<div class="container">
<h2>CATEGORÍAS EN ESPAÑA</h2>
<div class="categoria">
<a href="gasolineras">
<button class="btn" type="button">
<div class="simbolo-categoria">
<div class="circulo">
<img src="/assets/images/categorias/gasolineras.png"/>
</div>
</div>
							Gasolineras						</button>
</a>
</div>
<div class="categoria">
<a href="logistica">
<button class="btn" type="button">
<div class="simbolo-categoria">
<div class="circulo">
<img src="/assets/images/categorias/logistica.png"/>
</div>
</div>
							Logística						</button>
</a>
</div>
<div class="categoria">
<a href="moda-y-accesorios">
<button class="btn" type="button">
<div class="simbolo-categoria">
<div class="circulo">
<img src="/assets/images/categorias/moda-y-accesorios.png"/>
</div>
</div>
							Moda y Accesorios						</button>
</a>
</div>
<div class="categoria">
<a href="salud-y-bienestar">
<button class="btn" type="button">
<div class="simbolo-categoria">
<div class="circulo">
<img src="/assets/images/categorias/salud-y-bienestar.png"/>
</div>
</div>
							Salud y Bienestar						</button>
</a>
</div>
<div class="categoria">
<a href="finanzas">
<button class="btn" type="button">
<div class="simbolo-categoria">
<div class="circulo">
<img src="/assets/images/categorias/finanzas.png"/>
</div>
</div>
							Finanzas						</button>
</a>
</div>
<div class="categoria">
<a href="aseguradoras">
<button class="btn" type="button">
<div class="simbolo-categoria">
<div class="circulo">
<img src="/assets/images/categorias/aseguradoras.png"/>
</div>
</div>
							Aseguradoras						</button>
</a>
</div>
<div class="categoria">
<a href="alimentacion">
<button class="btn" type="button">
<div class="simbolo-categoria">
<div class="circulo">
<img src="/assets/images/categorias/alimentacion.png"/>
</div>
</div>
							Alimentación						</button>
</a>
</div>
<div class="categoria">
<a href="deportes-y-aire-libre">
<button class="btn" type="button">
<div class="simbolo-categoria">
<div class="circulo">
<img src="/assets/images/categorias/deportes-y-aire-libre.png"/>
</div>
</div>
							Deportes y Aire Libre						</button>
</a>
</div>
<div class="categoria">
<a href="telecomunicaciones">
<button class="btn" type="button">
<div class="simbolo-categoria">
<div class="circulo">
<img src="/assets/images/categorias/telecomunicaciones.png"/>
</div>
</div>
							Telecomunicaciones						</button>
</a>
</div>
<div class="categoria">
<a href="bricolaje">
<button class="btn" type="button">
<div class="simbolo-categoria">
<div class="circulo">
<img src="/assets/images/categorias/bricolaje.png"/>
</div>
</div>
							Bricolaje						</button>
</a>
</div>
<div class="categoria">
<a href="belleza-y-parafarmacia">
<button class="btn" type="button">
<div class="simbolo-categoria">
<div class="circulo">
<img src="/assets/images/categorias/belleza-y-parafarmacia.png"/>
</div>
</div>
							Belleza y Parafarmacia						</button>
</a>
</div>
<div class="categoria">
<a href="ninos-y-bebes">
<button class="btn" type="button">
<div class="simbolo-categoria">
<div class="circulo">
<img src="/assets/images/categorias/ninos-y-bebes.png"/>
</div>
</div>
							Niños y Bebés						</button>
</a>
</div>
<div class="categoria">
<a href="electronica-y-ocio">
<button class="btn" type="button">
<div class="simbolo-categoria">
<div class="circulo">
<img src="/assets/images/categorias/electronica-y-ocio.png"/>
</div>
</div>
							Electrónica y Ocio						</button>
</a>
</div>
<div class="categoria">
<a href="agencias-de-viajes">
<button class="btn" type="button">
<div class="simbolo-categoria">
<div class="circulo">
<img src="/assets/images/categorias/agencias-de-viajes.png"/>
</div>
</div>
							Agencias de Viajes						</button>
</a>
</div>
<div class="categoria">
<a href="concesionarios">
<button class="btn" type="button">
<div class="simbolo-categoria">
<div class="circulo">
<img src="/assets/images/categorias/concesionarios.png"/>
</div>
</div>
							Concesionarios						</button>
</a>
</div>
<div class="categoria">
<a href="opticas">
<button class="btn" type="button">
<div class="simbolo-categoria">
<div class="circulo">
<img src="/assets/images/categorias/opticas.png"/>
</div>
</div>
							Ópticas						</button>
</a>
</div>
<div class="categoria">
<a href="talleres">
<button class="btn" type="button">
<div class="simbolo-categoria">
<div class="circulo">
<img src="/assets/images/categorias/talleres.png"/>
</div>
</div>
							Talleres						</button>
</a>
</div>
<div class="categoria">
<a href="restaurantes">
<button class="btn" type="button">
<div class="simbolo-categoria">
<div class="circulo">
<img src="/assets/images/categorias/restaurantes.png"/>
</div>
</div>
							Restaurantes						</button>
</a>
</div>
<div class="categoria">
<a href="energia">
<button class="btn" type="button">
<div class="simbolo-categoria">
<div class="circulo">
<img src="/assets/images/categorias/energia.png"/>
</div>
</div>
							Energía						</button>
</a>
</div>
<div class="categoria">
<a href="dentistas">
<button class="btn" type="button">
<div class="simbolo-categoria">
<div class="circulo">
<img src="/assets/images/categorias/dentistas.png"/>
</div>
</div>
							Dentistas						</button>
</a>
</div>
<div class="categoria">
<a href="muebles-y-decoracion">
<button class="btn" type="button">
<div class="simbolo-categoria">
<div class="circulo">
<img src="/assets/images/categorias/muebles-y-decoracion.png"/>
</div>
</div>
							Muebles y Decoración						</button>
</a>
</div>
<div class="categoria">
<a href="hoteles">
<button class="btn" type="button">
<div class="simbolo-categoria">
<div class="circulo">
<img src="/assets/images/categorias/hoteles.png"/>
</div>
</div>
							Hoteles						</button>
</a>
</div>
<div class="categoria">
<a href="alquiler-de-coches">
<button class="btn" type="button">
<div class="simbolo-categoria">
<div class="circulo">
<img src="/assets/images/categorias/alquiler-de-coches.png"/>
</div>
</div>
							Alquiler de Coches						</button>
</a>
</div>
</div>
</section>
<section id="top-empresas">
<div class="container">
<h2>TOP EMPRESAS EN ESPAÑA</h2>
<div class="top-empresa">
<a href="/el-corte-ingles">
<button class="btn" type="button">
<div class="simbolo-top-empresas">
<img src="/assets/images/simbolo-top-empresas.png"/>
</div>
							El Corte Inglés						</button>
</a>
</div>
<div class="top-empresa">
<a href="/zara">
<button class="btn" type="button">
<div class="simbolo-top-empresas">
<img src="/assets/images/simbolo-top-empresas.png"/>
</div>
							ZARA						</button>
</a>
</div>
<div class="top-empresa">
<a href="/primark">
<button class="btn" type="button">
<div class="simbolo-top-empresas">
<img src="/assets/images/simbolo-top-empresas.png"/>
</div>
							Primark						</button>
</a>
</div>
<div class="top-empresa">
<a href="/h-m">
<button class="btn" type="button">
<div class="simbolo-top-empresas">
<img src="/assets/images/simbolo-top-empresas.png"/>
</div>
							H&amp;M						</button>
</a>
</div>
<div class="top-empresa">
<a href="/ikea">
<button class="btn" type="button">
<div class="simbolo-top-empresas">
<img src="/assets/images/simbolo-top-empresas.png"/>
</div>
							IKEA						</button>
</a>
</div>
<div class="top-empresa">
<a href="/mercadona">
<button class="btn" type="button">
<div class="simbolo-top-empresas">
<img src="/assets/images/simbolo-top-empresas.png"/>
</div>
							Mercadona						</button>
</a>
</div>
<div class="top-empresa">
<a href="/media-markt">
<button class="btn" type="button">
<div class="simbolo-top-empresas">
<img src="/assets/images/simbolo-top-empresas.png"/>
</div>
							Media Markt						</button>
</a>
</div>
<div class="top-empresa">
<a href="/pull-bear">
<button class="btn" type="button">
<div class="simbolo-top-empresas">
<img src="/assets/images/simbolo-top-empresas.png"/>
</div>
							Pull &amp; Bear						</button>
</a>
</div>
<div class="top-empresa">
<a href="/worten">
<button class="btn" type="button">
<div class="simbolo-top-empresas">
<img src="/assets/images/simbolo-top-empresas.png"/>
</div>
							Worten						</button>
</a>
</div>
<div class="top-empresa">
<a href="/mcdonalds">
<button class="btn" type="button">
<div class="simbolo-top-empresas">
<img src="/assets/images/simbolo-top-empresas.png"/>
</div>
							McDonald's						</button>
</a>
</div>
<div class="top-empresa">
<a href="/decathlon">
<button class="btn" type="button">
<div class="simbolo-top-empresas">
<img src="/assets/images/simbolo-top-empresas.png"/>
</div>
							Decathlon						</button>
</a>
</div>
<div class="top-empresa">
<a href="/toysrus">
<button class="btn" type="button">
<div class="simbolo-top-empresas">
<img src="/assets/images/simbolo-top-empresas.png"/>
</div>
							ToysRus						</button>
</a>
</div>
<div class="top-empresa">
<a href="/conforama">
<button class="btn" type="button">
<div class="simbolo-top-empresas">
<img src="/assets/images/simbolo-top-empresas.png"/>
</div>
							Conforama						</button>
</a>
</div>
<div class="top-empresa">
<a href="/carrefour">
<button class="btn" type="button">
<div class="simbolo-top-empresas">
<img src="/assets/images/simbolo-top-empresas.png"/>
</div>
							Carrefour						</button>
</a>
</div>
<div class="top-empresa">
<a href="/starbucks">
<button class="btn" type="button">
<div class="simbolo-top-empresas">
<img src="/assets/images/simbolo-top-empresas.png"/>
</div>
							Starbucks						</button>
</a>
</div>
<div class="top-empresa">
<a href="/alcampo">
<button class="btn" type="button">
<div class="simbolo-top-empresas">
<img src="/assets/images/simbolo-top-empresas.png"/>
</div>
							Alcampo						</button>
</a>
</div>
<div class="top-empresa">
<a href="/leroy-merlin">
<button class="btn" type="button">
<div class="simbolo-top-empresas">
<img src="/assets/images/simbolo-top-empresas.png"/>
</div>
							Leroy Merlin						</button>
</a>
</div>
<div class="top-empresa">
<a href="/telepizza">
<button class="btn" type="button">
<div class="simbolo-top-empresas">
<img src="/assets/images/simbolo-top-empresas.png"/>
</div>
							Telepizza						</button>
</a>
</div>
<div class="top-empresa">
<a href="/burger-king">
<button class="btn" type="button">
<div class="simbolo-top-empresas">
<img src="/assets/images/simbolo-top-empresas.png"/>
</div>
							Burger King						</button>
</a>
</div>
<div class="top-empresa">
<a href="/100-montaditos">
<button class="btn" type="button">
<div class="simbolo-top-empresas">
<img src="/assets/images/simbolo-top-empresas.png"/>
</div>
							100 Montaditos						</button>
</a>
</div>
</div>
</section>
<section class="section-municipios" id="municipios-premium">
<div class="container">
<h2>MUNICIPIOS EN ESPAÑA</h2>
<p class="listado-municipios">
<span class="municipio">
<span class="separador-izquierda">|</span>
<a href="/madrid">Madrid</a>
<span class="separador-derecha">|</span>
</span>
<span class="municipio">
<span class="separador-izquierda">|</span>
<a href="/barcelona">Barcelona</a>
<span class="separador-derecha">|</span>
</span>
<span class="municipio">
<span class="separador-izquierda">|</span>
<a href="/valencia">Valencia</a>
<span class="separador-derecha">|</span>
</span>
<span class="municipio">
<span class="separador-izquierda">|</span>
<a href="/sevilla">Sevilla</a>
<span class="separador-derecha">|</span>
</span>
<span class="municipio">
<span class="separador-izquierda">|</span>
<a href="/zaragoza">Zaragoza</a>
<span class="separador-derecha">|</span>
</span>
<span class="municipio">
<span class="separador-izquierda">|</span>
<a href="/malaga">Málaga</a>
<span class="separador-derecha">|</span>
</span>
<span class="municipio">
<span class="separador-izquierda">|</span>
<a href="/murcia">Murcia</a>
<span class="separador-derecha">|</span>
</span>
<span class="municipio">
<span class="separador-izquierda">|</span>
<a href="/palma-de-mallorca">Palma de Mallorca</a>
<span class="separador-derecha">|</span>
</span>
<span class="municipio">
<span class="separador-izquierda">|</span>
<a href="/las-palmas-de-gran-canaria">Las Palmas de Gran Canaria</a>
<span class="separador-derecha">|</span>
</span>
<span class="municipio">
<span class="separador-izquierda">|</span>
<a href="/bilbao">Bilbao</a>
<span class="separador-derecha">|</span>
</span>
<span class="municipio">
<span class="separador-izquierda">|</span>
<a href="/alicante">Alicante</a>
<span class="separador-derecha">|</span>
</span>
<span class="municipio">
<span class="separador-izquierda">|</span>
<a href="/cordoba">Córdoba</a>
<span class="separador-derecha">|</span>
</span>
<span class="municipio">
<span class="separador-izquierda">|</span>
<a href="/valladolid">Valladolid</a>
<span class="separador-derecha">|</span>
</span>
<span class="municipio">
<span class="separador-izquierda">|</span>
<a href="/vigo">Vigo</a>
<span class="separador-derecha">|</span>
</span>
<span class="municipio">
<span class="separador-izquierda">|</span>
<a href="/gijon">Gijón</a>
<span class="separador-derecha">|</span>
</span>
<span class="municipio">
<span class="separador-izquierda">|</span>
<a href="/lhospitalet-de-llobregat">L'Hospitalet de Llobregat</a>
<span class="separador-derecha">|</span>
</span>
<span class="municipio">
<span class="separador-izquierda">|</span>
<a href="/vitoria">Vitoria</a>
<span class="separador-derecha">|</span>
</span>
<span class="municipio">
<span class="separador-izquierda">|</span>
<a href="/a-coruna">A Coruña</a>
<span class="separador-derecha">|</span>
</span>
<span class="municipio">
<span class="separador-izquierda">|</span>
<a href="/granada">Granada</a>
<span class="separador-derecha">|</span>
</span>
<span class="municipio">
<span class="separador-izquierda">|</span>
<a href="/elche">Elche</a>
<span class="separador-derecha">|</span>
</span>
<span class="municipio">
<span class="separador-izquierda">|</span>
<a href="/oviedo">Oviedo</a>
<span class="separador-derecha">|</span>
</span>
<span class="municipio">
<span class="separador-izquierda">|</span>
<a href="/badalona">Badalona</a>
<span class="separador-derecha">|</span>
</span>
<span class="municipio">
<span class="separador-izquierda">|</span>
<a href="/terrassa">Terrassa</a>
<span class="separador-derecha">|</span>
</span>
<span class="municipio">
<span class="separador-izquierda">|</span>
<a href="/cartagena">Cartagena</a>
<span class="separador-derecha">|</span>
</span>
<span class="municipio">
<span class="separador-izquierda">|</span>
<a href="/jerez-de-la-frontera">Jerez de la Frontera</a>
<span class="separador-derecha">|</span>
</span>
<span class="municipio">
<span class="separador-izquierda">|</span>
<a href="/sabadell">Sabadell</a>
<span class="separador-derecha">|</span>
</span>
<span class="municipio">
<span class="separador-izquierda">|</span>
<a href="/mostoles">Móstoles</a>
<span class="separador-derecha">|</span>
</span>
<span class="municipio">
<span class="separador-izquierda">|</span>
<a href="/santa-cruz-de-tenerife">Santa Cruz de Tenerife</a>
<span class="separador-derecha">|</span>
</span>
<span class="municipio">
<span class="separador-izquierda">|</span>
<a href="/alcala-de-henares">Alcalá de Henares</a>
<span class="separador-derecha">|</span>
</span>
<span class="municipio">
<span class="separador-izquierda">|</span>
<a href="/pamplona">Pamplona</a>
<span class="separador-derecha">|</span>
</span>
</p>
</div>
</section>
</div>
</main>
<footer>
<div class="container">
<div class="columna-footer">
<img class="logo-footer" src="/assets/images/logo_alt.png"/>
</div>
<div class="columna-footer">
<div class="listado-enlaces-footer">
<h4>LEGAL</h4>
<ul>
<li><a href="/informacion-telefonica-11870">Información telefónica 11870</a></li>
<li><a href="/aviso-legal">Aviso Legal</a></li>
<li><a href="/politica-de-privacidad">Política de Privacidad</a></li>
<li><a href="/politica-de-cookies">Política de Cookies</a></li>
<li><a href="/contacto">Contacto</a></li>
</ul>
</div>
</div>
<div class="columna-footer">
<div class="listado-enlaces-footer">
<h4>ENLACES</h4>
<ul>
<li><a href="/indice-de-empresas">Índice de empresas</a></li>
</ul>
</div>
</div>
</div>
</footer>
<script src="/assets/js/jquery-1.11.1.js" type="text/javascript"></script>
<script src="/assets/js/main.min.js?v=1.05" type="text/javascript"></script>
</body>
</html>