<!DOCTYPE html>
<html lang="zh-CN">
<head>
<meta content="IE=edge,chrome=1" http-equiv="X-UA-Compatible"/>
<meta charset="utf-8"/>
<meta content="width=device-width,inital-scale=1.0,user-scalable=no" name="viewport"/>
<meta content="yes" name="apple-mobile-web-app-capable"/>
<meta content="black" name="apple-mobile-web-app-status-bar-style"/>
<meta content="telephone=no" name="format-detection"/>
<meta content="1553303025612307241676375" property="qc:admins"/>
<meta content="app-id=958061289" name="apple-itunes-app"/>
<title>å¤é-è®©è¿å¨å¥èº«æ´å¿«ä¹ï¼</title>
<meta content="å¤éè¿å¨æ¯ç¬¬ä¸æ¬¾æ¯æè·æ­¥ãå®æ¶å¨çº¿çº¦è·å3Dçäººæ¨¡æè¿å¨çè¿å¨Appï¼å¹¶æä¾è·æ­¥è®°å½ãè·æ­¥æå¯¼ãè¿å¨ç¤¾äº¤ãè·æ­¥æ¿å±åå¨çº¿æ¯èµç­æå¡ï¼å¸®å©æ¨å¨å¿«ä¹ä¸­é¿æåæè¿å¨ãå¤éè¿å¨ç±åå½å®¶çº§è¿å¨å¥å°é¢è¡æé ï¼ç»äºæ¨æ´ä¸ä¸çè¿å¨æå¯¼ãå¿«ä¹è¿å¨ï¼ç§å­¦è¿å¨ï¼åæè¿å¨ï¼ä»å¤éå¼å§å§ï¼" name="description"/>
<meta content="" name="keywords"/>
<link href="/static/fore/img/favcion.ico" rel="shortcut icon" type="image/x-icon"/>
<link href="/static/fore/dr_cms_1.1All/css/ddfullscreenslider.css" rel="stylesheet"/>
<link href="/static/fore/dr_cms_1.1All/css/animate.css" rel="stylesheet" type="text/css"/>
<link href="/static/fore/dr_cms_1.1All/css/index.css" rel="stylesheet" type="text/css"/>
<script src="//www.12sporting.com/resall/js_lib/jquery-2.1.4.min.js"></script>
<script src="/static/fore/dr_cms_1.1All/js/jquery.mousewheel.min.js"></script>
<script src="/static/fore/dr_cms_1.1All/js/ddfullscreenslider.js"></script>
<script src="/static/fore/dr_cms_1.1All/js/touch-0.2.14.min.js"></script>
<script charset="utf-8" data-appid="101283833" data-redirecturi="http://www.12sporting.com/" src="https://qzonestyle.gtimg.cn/qzone/openapi/qc-1.0.1.js" type="text/javascript"></script>
<script>
		$(document).ready(function(){
			touch.on('div#menuBtn,#menuClickFilter', 'tap', function(ev) {
				$("#menuClickFilter").toggle();
				$("#pcNav").toggle();
			});
		})
		</script>
</head>
<body>
<section class="dd_fullscreenslider" id="dowebok">
<div id="menuClickFilter"></div>
<div id="topBar">
<nav id="nav">
<a href="/">
<div id="logo">
<img src="/static/fore/dr_cms_1.1All/img/logo.png"/>
</div>
</a>
<div id="menuBtn"></div>
<div id="pcNav">
<ul id="navUl">
<li class="navLi current">
<a href="/" target="_blank">é¦é¡µ</a>
</li>
<li class="navLi">
<a href="/zhidao/" target="_blank">è¿å¨ç¥è¯</a>
</li>
<li class="navLi">
<a href="/huodong/" target="_blank">çº¿ä¸æ´»å¨</a>
</li>
<li class="navLi">
<a href="/tizhongcheng/" target="_blank">æºè½ç¡¬ä»¶</a>
</li>
<li class="navLi">
<a href="/about/" target="_blank">å³äºæä»¬</a>
</li>
<li class="navLi">
<a href="/join/" target="_blank">å å¥æä»¬</a>
</li>
<li class="navLi">
<a href="javascript:void(0)"><span id="qqLoginBtn"> <span></span></span></a>
<script type="text/javascript">
    QC.Login({
       btnId:"qqLoginBtn"    //æå¥æé®çèç¹id
});
</script>
</li>
</ul>
</div>
</nav>
</div>
<div class="slidewrapper">
<article class="slide">
<div class="filter"></div>
<!--å¼¹åºäºç»´ç ä¸è½½-->
<div id="mengban">
<div id="mengbanNR">
<div class="close" id="Android_2weiClose">
<img src="/static/fore/dr_cms_1.1All/img/pop-up-close.png"/>
</div>
<div id="andriodDownload">
<div class="erweima">
<img src="/static/fore/dr_cms_1.1All/img/drErweima.jpg"/>
</div>
<div class="downloadTip">
<p>æ«æäºç»´ç ï¼ä¸è½½å¤éè¿å¨App</p>
<p><a href="http://d1.12sporting.com/apk/hnjc_dl-JianCheng-release.apk" id="downloadLink" target="_blank">ç´æ¥ä¸è½½</a></p>
</div>
</div>
</div>
</div>
<!--mengban end-->
<div class="div" id="div0">
<h1 class="cube fadeInDown" id="title">æ·å¤è¿å¨ç²¾åè®°å½è</h1>
<div class="cube fadeInUp" id="enTitle"></div>
<div id="download">
<a href="javacript:void(0)" id="downlodLink">
<div class="cube slideInUp" id="downloadBtn">
</div>
</a>
</div>
<!--end download--->
</div>
</article>
<article class="slide">
<div class="div" id="div1">
<div class="articleMengban"></div>
<p class="cube fadeInLeft" id="yuepao">å¨çº¿çº¦è·</p>
<p class="cube fadeInRight" id="yuepao_miaoshu">å¨çº¿çº¦è·ï¼å¯åå¨å½è·åååºPKéè¯·ï¼ä¸ºè¿å¨å¢æ·»æ´å¤æååå¨åï¼æ´æè½¯å¦¹å­ãçªå«æãæ­¦ä¾ å¤§å¸ç­å¤ç§è¯­é³æ­æ¥ï¼ä¸ºä½ çè¿å¨ä¸­å¢æ·»æ¬¢ä¹ï¼
						</p>
</div>
</article>
<article class="slide">
<div class="div" id="div2">
<div class="articleMengban"></div>
<p class="cube bounceIn" id="zhiboxianlu"><img src="/static/fore/dr_cms_1.1All/img/zhiboxianlu.png"/></p>
<p class="cube fadeInRight" id="zhibo">å¨çº¿ç´æ­</p>
<p class="cube fadeInRight" id="zhibo_miaoshu">è¿å¨è¿ç¨å®æ¶ç´æ­ï¼ä¸å¥½åäº²å¯äºå¨ï¼è®©ä½ çè¿å¨ä¹æä¸ååè°ï¼
						</p>
</div>
</article>
<article class="slide">
<div class="div" id="div3">
<div class="articleMengban"></div>
<p class="cube fadeInDown" id="huodong">å¤æ ·æ´»å¨</p>
<p class="cube fadeInDown" id="huodong_miaoshu">è·æ­¥ãå¾æ­¥ãéªè¡éå¿éæ©ï¼å¯»å®ãèä¼ç­è¯¸å¤æ´»å¨éæ¶åèµ·ï¼æ»¡è¶³ä½ ä»»ä½çªåå¥æ³çè¿å¨éæ±ï¼è¿å¨ä¹è½æè¶£æææ´å¥½ç©ï¼
						</p>
</div>
</article>
<article class="slide">
<div class="div" id="div4">
<div id="footMengban"></div>
<!--äºç»´ç ä¸è½½-->
<div id="erweimaDownLoad">
<img alt="å¤éè¿å¨APPä¸è½½äºç»´ç " class="cube wobble" id="erweima" src="/static/fore/dr_cms_1.1All/img/drErweima.jpg" title="ææºæ«æäºç»´ç å³å¯ä¸è½½"/>
<span id="ourSlogan">å¿«ä¹è¿å¨ï¼ç§å­¦è¿å¨ï¼<br/>åæè¿å¨ï¼ä»å¤éå¼å§å§ï¼</span>
</div>
<div id="downloadNow">
<a href="http://android.myapp.com/myapp/detail.htm?apkName=com.hnjc.dl" target="_blank">
<div class="cube fadeInRight" id="andriod">
<div class="andriodIos"><i>Android</i></div>
<img class="downloadBtn" src="/static/fore/dr_cms_1.1All/img/downloadbtn.png"/>
</div>
</a>
<a href="https://itunes.apple.com/cn/app/duo-rui-yun-dong/id958061289" target="_blank">
<div class="cube fadeInRight" id="ios">
<div class="andriodIos"><i>iOS</i></div>
<img class="downloadBtn" src="/static/fore/dr_cms_1.1All/img/downloadbtn.png"/>
</div>
</a>
<div class="cube fadeInRight" id="dryd">
<img class="downloadBtn" src="/static/fore/dr_cms_1.1All/img/dryd.png"/>
</div>
</div>
</div>
<footer id="footer">
<div id="links">
							åæé¾æ¥ï¼
							<a class="link" href="https://itunes.apple.com/cn/app/duo-rui-yun-dong/id958061289">AppStore</a>
<a class="link" href="http://zhushou.360.cn/detail/index/soft_id/2647648">360ææºå©æ</a>
<a class="link" href="http://android.myapp.com/myapp/detail.htm?apkName=com.hnjc.dl">åºç¨å®</a>
<a class="link" href="http://shouji.baidu.com/soft/item?docid=7904416">ç¾åº¦åºç¨å¸åº</a>
<a class="link" href="http://www.wandoujia.com/apps/com.hnjc.dl">è±è±è</a>
<a class="link" href="http://app.mi.com/detail/85307">å°ç±³åºç¨å¸åº</a>
</div>
<div id="copyright">
<a href="https://beian.miit.gov.cn/#/Integrated/index">Copyright@2015 DuoRui.All Right Reserved. æ¹ICPå¤14018072å·-1</a> <script async="" defer="" src="https://www.hngswj.gov.cn/scripts/businessLicense.js?id=2c990dab5fea5873015feb96975f0016" type="text/javascript"></script>
</div>
</footer>
</article>
</div>
</section>
<script>
			var fss;
			$(function() {
				fss = new ddfullscreenslider({
					sliderid: 'dowebok',
					onslide: function($slide, index) {
						$("#mengban").fadeOut();
						var m = index - 1;
						var n = index + 1;
						if (m == -1) {
							$("#div" + index).css("display", "block");
							$("#div" + n).css("display", "none");
						}
						//å½åæå¤§å±æ°æ¯5
						else if (n == 5) {
							$("#div" + m).css("display", "none");
							$("#div" + index).css("display", "block");
						} else if (m != -1 && n != 5) {
							$("#div" + m).css("display", "none");
							$("#div" + index).css("display", "block");
							$("#div" + n).css("display", "none");
						}
					}
				});
			});
		</script>
<script>
			$(document).ready(function() {
				var screenWidth = document.body.clientWidth;
				if (screenWidth > 768) {
					$("#downlodLink").click(function() {
						$("#mengban").fadeIn();
						return false; //é»æ­¢FF,IEè·³è½¬
					})
					$("#Android_2weiClose").click(function() {
						$("#mengban").fadeOut();
					})
				} else if (screenWidth <= 768) {
					document.getElementById('download').onclick = function(e){
						if(navigator.userAgent.match(/(iPhone|iPod|iPad);?/i)){
							//var ifr = document.createElement('iframe');  
							//ifr.src = 'com.12sporting.ForAlipay://';
							//ifr.style.display = 'none';  
							//document.body.appendChild(ifr);
							window.location.href = "com.12sporting.ForAlipay://";
							setTimeout(function() {
								//document.body.removeChild(ifr);
								window.location.href = "https://itunes.apple.com/cn/app/duo-rui-yun-dong/id958061289";
							 }, 2000)
							return;
						}else if(navigator.userAgent.match(/android/i)){
$("#downlodLink").attr("href", "http://a.app.qq.com/o/simple.jsp?pkgname=com.hnjc.dl");	
							
						}
					};	
				}
			})
			
			function isWeiXin() {
				var ua = window.navigator.userAgent.toLowerCase();
				if (ua.match(/MicroMessenger/i) == 'micromessenger') {
					return true;
				} else {
					return false;
				}
			}
		</script>
<script>
var _hmt = _hmt || [];
(function() {
  var hm = document.createElement("script");
  hm.src = "//hm.baidu.com/hm.js?6366562c0d0f491993db0bb98ac60426";
  var s = document.getElementsByTagName("script")[0]; 
  s.parentNode.insertBefore(hm, s);
})();
</script>
</body>
</html>
